(module Harwin_LTek-Male_2x05_P2.00mm_Vertical_StrainRelief (layer F.Cu) (tedit 5A16B2BF)
  (descr "Harwin LTek Connector, 10 pins, single row male, vertical entry, strain relief clip")
  (tags "connector harwin ltek M80")
  (fp_text reference REF** (at 4 -5.5) (layer F.SilkS)
    (effects (font (size 1 1) (thickness 0.15)))
  )
  (fp_text value Harwin_LTek-Male_2x05_P2.00mm_Vertical_StrainRelief (at 4 4) (layer F.Fab)
    (effects (font (size 1 1) (thickness 0.15)))
  )
  (fp_line (start -1.05 -4.1) (end 9.05 -4.1) (layer F.SilkS) (width 0.12))
  (fp_line (start -1.05 2.1) (end 9.05 2.1) (layer F.SilkS) (width 0.12))
  (fp_line (start -3.15 -2.5) (end -3.15 0.5) (layer F.SilkS) (width 0.12))
  (fp_line (start 11.15 -2.5) (end 11.15 0.5) (layer F.SilkS) (width 0.12))
  (fp_line (start -3.55 -4.5) (end -3.55 2.5) (layer F.CrtYd) (width 0.05))
  (fp_line (start -3.55 2.5) (end 11.55 2.5) (layer F.CrtYd) (width 0.05))
  (fp_line (start 11.55 2.5) (end 11.55 -4.5) (layer F.CrtYd) (width 0.05))
  (fp_line (start 11.55 -4.5) (end -3.55 -4.5) (layer F.CrtYd) (width 0.05))
  (fp_line (start -3.05 -4) (end -3.05 2) (layer F.Fab) (width 0.1))
  (fp_line (start -3.05 2) (end 11.05 2) (layer F.Fab) (width 0.1))
  (fp_line (start 11.05 2) (end 11.05 -4) (layer F.Fab) (width 0.1))
  (fp_line (start 11.05 -4) (end -3.05 -4) (layer F.Fab) (width 0.1))
  (fp_line (start -1.75 1.5) (end -1.75 -2.75) (layer F.Fab) (width 0.1))
  (fp_line (start -1.75 -2.75) (end -1 -3.5) (layer F.Fab) (width 0.1))
  (fp_line (start -1 -3.5) (end 9 -3.5) (layer F.Fab) (width 0.1))
  (fp_line (start 9 -3.5) (end 9.75 -2.75) (layer F.Fab) (width 0.1))
  (fp_line (start 9.75 -2.75) (end 9.75 1.5) (layer F.Fab) (width 0.1))
  (fp_line (start 9.75 1.5) (end -1.75 1.5) (layer F.Fab) (width 0.1))
  (fp_line (start -1.6 0) (end -1.6 -2.75) (layer F.SilkS) (width 0.12))
  (fp_line (start -1.6 -2.75) (end -1 -3.35) (layer F.SilkS) (width 0.12))
  (fp_line (start -1 -3.35) (end 4 -3.35) (layer F.SilkS) (width 0.12))
  (fp_line (start 9.6 0) (end 9.6 -2.75) (layer F.SilkS) (width 0.12))
  (fp_line (start 9.6 -2.75) (end 9 -3.35) (layer F.SilkS) (width 0.12))
  (fp_line (start 9 -3.35) (end 4 -3.35) (layer F.SilkS) (width 0.12))
  (fp_line (start 0 0.75) (end -0.3 1.35) (layer F.Fab) (width 0.1))
  (fp_line (start -0.3 1.35) (end 0.3 1.35) (layer F.Fab) (width 0.1))
  (fp_line (start 0.3 1.35) (end 0 0.75) (layer F.Fab) (width 0.1))
  (fp_line (start -3.5 1.5) (end -3.5 2.5) (layer F.SilkS) (width 0.12))
  (fp_line (start -3.5 2.5) (end -2.5 2.5) (layer F.SilkS) (width 0.12))
  (pad 1 thru_hole rect (at 0 0) (size 1.35 1.35) (drill 0.8) (layers *.Cu *.Mask))
  (pad 3 thru_hole circle (at 2 0) (size 1.35 1.35) (drill 0.8) (layers *.Cu *.Mask))
  (pad 5 thru_hole circle (at 4 0) (size 1.35 1.35) (drill 0.8) (layers *.Cu *.Mask))
  (pad 7 thru_hole circle (at 6 0) (size 1.35 1.35) (drill 0.8) (layers *.Cu *.Mask))
  (pad 9 thru_hole circle (at 8 0) (size 1.35 1.35) (drill 0.8) (layers *.Cu *.Mask))
  (pad 2 thru_hole circle (at 0 -2) (size 1.35 1.35) (drill 0.8) (layers *.Cu *.Mask))
  (pad 4 thru_hole circle (at 2 -2) (size 1.35 1.35) (drill 0.8) (layers *.Cu *.Mask))
  (pad 6 thru_hole circle (at 4 -2) (size 1.35 1.35) (drill 0.8) (layers *.Cu *.Mask))
  (pad 8 thru_hole circle (at 6 -2) (size 1.35 1.35) (drill 0.8) (layers *.Cu *.Mask))
  (pad 10 thru_hole circle (at 8 -2) (size 1.35 1.35) (drill 0.8) (layers *.Cu *.Mask))
  (pad "" thru_hole circle (at -2.25 -3.375) (size 1.25 1.25) (drill 0.95) (layers *.Cu *.Mask))
  (pad "" thru_hole circle (at -2.25 1.375) (size 1.25 1.25) (drill 0.95) (layers *.Cu *.Mask))
  (pad "" thru_hole circle (at 10.25 -3.375) (size 1.25 1.25) (drill 0.95) (layers *.Cu *.Mask))
  (pad "" thru_hole circle (at 10.25 1.375) (size 1.25 1.25) (drill 0.95) (layers *.Cu *.Mask))
  (fp_text user %R (at 4 0) (layer F.Fab)
    (effects (font (size 1 1) (thickness 0.15)))
  )
  (model ${KIPRJMOD}/kicad_libs_k/models_k.3d/Connector_Harwin_k.3dshapes/Harwin_LTek-Male_2x05_P2.00mm_Vertical_StrainRelief_k.wrl
    (at (xyz 0 0 0))
    (scale (xyz 1 1 1))
    (rotate (xyz 0 0 0))
  )
)