(module Harwin_Gecko-G125-MVX5005L1X_2x25_P1.25mm_Vertical (layer F.Cu) (tedit 5A16AEAD)
  (descr "Harwin Gecko Connector, 50 pins, dual row male, vertical entry, with latches, PN:G125-MVX5005L1X")
  (tags "connector harwin gecko")
  (fp_text reference REF** (at 15 3.5) (layer F.SilkS)
    (effects (font (size 1 1) (thickness 0.15)))
  )
  (fp_text value Harwin_Gecko-G125-MVX5005L1X_2x25_P1.25mm_Vertical (at 15 -4.3) (layer F.Fab)
    (effects (font (size 1 1) (thickness 0.15)))
  )
  (fp_arc (start -1.15 -2.325) (end -1.9 -2.325) (angle 90.000000) (layer F.SilkS) (width 0.12))
  (fp_arc (start 31.15 -2.325) (end 31.15 -3.075) (angle 90.000000) (layer F.SilkS) (width 0.12))
  (fp_arc (start 31.15 1.075) (end 31.9 1.075) (angle 90.000000) (layer F.SilkS) (width 0.12))
  (fp_arc (start -1.15 1.075) (end -1.15 1.825) (angle 90.000000) (layer F.SilkS) (width 0.12))
  (fp_arc (start -0.65 -2.125) (end -0.9 -2.125) (angle 90.000000) (layer F.SilkS) (width 0.12))
  (fp_arc (start 30.65 -2.125) (end 30.65 -2.375) (angle 90.000000) (layer F.SilkS) (width 0.12))
  (fp_arc (start 30.65 1.175) (end 30.9 1.175) (angle 90.000000) (layer F.SilkS) (width 0.12))
  (fp_arc (start -0.65 1.175) (end -0.65 1.425) (angle 90.000000) (layer F.SilkS) (width 0.12))
  (fp_arc (start -1.15 -2.325) (end -1.9 -2.325) (angle 90.000000) (layer F.Fab) (width 0.1))
  (fp_arc (start 31.15 -2.325) (end 31.15 -3.075) (angle 90.000000) (layer F.Fab) (width 0.1))
  (fp_arc (start 31.15 1.075) (end 31.9 1.075) (angle 90.000000) (layer F.Fab) (width 0.1))
  (fp_arc (start -1.15 1.075) (end -1.15 1.825) (angle 90.000000) (layer F.Fab) (width 0.1))
  (fp_arc (start -0.65 -2.125) (end -0.9 -2.125) (angle 90.000000) (layer F.Fab) (width 0.1))
  (fp_arc (start 30.65 -2.125) (end 30.65 -2.375) (angle 90.000000) (layer F.Fab) (width 0.1))
  (fp_arc (start 30.65 1.175) (end 30.9 1.175) (angle 90.000000) (layer F.Fab) (width 0.1))
  (fp_arc (start -0.65 1.175) (end -0.65 1.425) (angle 90.000000) (layer F.Fab) (width 0.1))
  (fp_circle (center -2.25 1.5) (end -2 1.5) (layer F.SilkS) (width 0.15))
  (fp_line (start -1.15 -3.075) (end 31.15 -3.075) (layer F.SilkS) (width 0.12))
  (fp_line (start -1.15 1.825) (end 31.15 1.825) (layer F.SilkS) (width 0.12))
  (fp_line (start -0.65 1.425) (end 0.35 1.425) (layer F.SilkS) (width 0.12))
  (fp_line (start 0.35 1.425) (end 0.35 1.125) (layer F.SilkS) (width 0.12))
  (fp_line (start 0.35 1.125) (end 29.65 1.125) (layer F.SilkS) (width 0.12))
  (fp_line (start 29.65 1.125) (end 29.65 1.425) (layer F.SilkS) (width 0.12))
  (fp_line (start 29.65 1.425) (end 30.65 1.425) (layer F.SilkS) (width 0.12))
  (fp_line (start -0.65 -2.375) (end 14.375 -2.375) (layer F.SilkS) (width 0.12))
  (fp_line (start 14.375 -2.375) (end 14.375 -2.675) (layer F.SilkS) (width 0.12))
  (fp_line (start 14.375 -2.675) (end 15.625 -2.675) (layer F.SilkS) (width 0.12))
  (fp_line (start 15.625 -2.675) (end 15.625 -2.375) (layer F.SilkS) (width 0.12))
  (fp_line (start 15.625 -2.375) (end 30.65 -2.375) (layer F.SilkS) (width 0.12))
  (fp_line (start -1.9 -2.325) (end -1.9 -2.125) (layer F.SilkS) (width 0.12))
  (fp_line (start -1.9 -2.125) (end -0.9 -2.125) (layer F.SilkS) (width 0.12))
  (fp_line (start -0.9 -2.125) (end -0.9 -2.125) (layer F.SilkS) (width 0.12))
  (fp_line (start 31.9 -2.325) (end 31.9 -2.125) (layer F.SilkS) (width 0.12))
  (fp_line (start 31.9 -2.125) (end 30.9 -2.125) (layer F.SilkS) (width 0.12))
  (fp_line (start 30.9 -2.125) (end 30.9 -2.125) (layer F.SilkS) (width 0.12))
  (fp_line (start 31.9 1.075) (end 31.9 0.875) (layer F.SilkS) (width 0.12))
  (fp_line (start 31.9 0.875) (end 30.9 0.875) (layer F.SilkS) (width 0.12))
  (fp_line (start 30.9 0.875) (end 30.9 0.875) (layer F.SilkS) (width 0.12))
  (fp_line (start -1.9 1.075) (end -1.9 0.875) (layer F.SilkS) (width 0.12))
  (fp_line (start -1.9 0.875) (end -0.9 0.875) (layer F.SilkS) (width 0.12))
  (fp_line (start -0.9 0.875) (end -0.9 0.875) (layer F.SilkS) (width 0.12))
  (fp_line (start -0.9 1.175) (end -0.9 0.875) (layer F.SilkS) (width 0.12))
  (fp_line (start 30.9 1.175) (end 30.9 0.875) (layer F.SilkS) (width 0.12))
  (fp_line (start -1.4 -1.875) (end -2.6 -1.875) (layer F.SilkS) (width 0.12))
  (fp_line (start -2.6 -1.875) (end -2.6 0.625) (layer F.SilkS) (width 0.12))
  (fp_line (start -2.6 0.625) (end -1.4 0.625) (layer F.SilkS) (width 0.12))
  (fp_line (start 31.4 -1.875) (end 32.6 -1.875) (layer F.SilkS) (width 0.12))
  (fp_line (start 32.6 -1.875) (end 32.6 0.625) (layer F.SilkS) (width 0.12))
  (fp_line (start 32.6 0.625) (end 31.4 0.625) (layer F.SilkS) (width 0.12))
  (fp_line (start -1.15 -3.075) (end 31.15 -3.075) (layer F.Fab) (width 0.1))
  (fp_line (start -1.15 1.825) (end 31.15 1.825) (layer F.Fab) (width 0.1))
  (fp_line (start -0.65 1.425) (end 0.35 1.425) (layer F.Fab) (width 0.1))
  (fp_line (start 0.35 1.425) (end 0.35 1.125) (layer F.Fab) (width 0.1))
  (fp_line (start 0.35 1.125) (end 29.65 1.125) (layer F.Fab) (width 0.1))
  (fp_line (start 29.65 1.125) (end 29.65 1.425) (layer F.Fab) (width 0.1))
  (fp_line (start 29.65 1.425) (end 30.65 1.425) (layer F.Fab) (width 0.1))
  (fp_line (start -0.65 -2.375) (end 14.375 -2.375) (layer F.Fab) (width 0.1))
  (fp_line (start 14.375 -2.375) (end 14.375 -2.675) (layer F.Fab) (width 0.1))
  (fp_line (start 14.375 -2.675) (end 15.625 -2.675) (layer F.Fab) (width 0.1))
  (fp_line (start 15.625 -2.675) (end 15.625 -2.375) (layer F.Fab) (width 0.1))
  (fp_line (start 15.625 -2.375) (end 30.65 -2.375) (layer F.Fab) (width 0.1))
  (fp_line (start -1.9 -2.325) (end -1.9 -2.125) (layer F.Fab) (width 0.1))
  (fp_line (start -1.9 -2.125) (end -0.9 -2.125) (layer F.Fab) (width 0.1))
  (fp_line (start -0.9 -2.125) (end -0.9 -2.125) (layer F.Fab) (width 0.1))
  (fp_line (start 31.9 -2.325) (end 31.9 -2.125) (layer F.Fab) (width 0.1))
  (fp_line (start 31.9 -2.125) (end 30.9 -2.125) (layer F.Fab) (width 0.1))
  (fp_line (start 30.9 -2.125) (end 30.9 -2.125) (layer F.Fab) (width 0.1))
  (fp_line (start 31.9 1.075) (end 31.9 0.875) (layer F.Fab) (width 0.1))
  (fp_line (start 31.9 0.875) (end 30.9 0.875) (layer F.Fab) (width 0.1))
  (fp_line (start 30.9 0.875) (end 30.9 0.875) (layer F.Fab) (width 0.1))
  (fp_line (start -1.9 1.075) (end -1.9 0.875) (layer F.Fab) (width 0.1))
  (fp_line (start -1.9 0.875) (end -0.9 0.875) (layer F.Fab) (width 0.1))
  (fp_line (start -0.9 0.875) (end -0.9 0.875) (layer F.Fab) (width 0.1))
  (fp_line (start -0.9 1.175) (end -0.9 0.875) (layer F.Fab) (width 0.1))
  (fp_line (start 30.9 1.175) (end 30.9 0.875) (layer F.Fab) (width 0.1))
  (fp_line (start -1.4 -1.875) (end -2.6 -1.875) (layer F.Fab) (width 0.1))
  (fp_line (start -2.6 -1.875) (end -2.6 0.625) (layer F.Fab) (width 0.1))
  (fp_line (start -2.6 0.625) (end -1.4 0.625) (layer F.Fab) (width 0.1))
  (fp_line (start 31.4 -1.875) (end 32.6 -1.875) (layer F.Fab) (width 0.1))
  (fp_line (start 32.6 -1.875) (end 32.6 0.625) (layer F.Fab) (width 0.1))
  (fp_line (start 32.6 0.625) (end 31.4 0.625) (layer F.Fab) (width 0.1))
  (fp_line (start -3.1 -3.58) (end -3.1 -2.58) (layer F.CrtYd) (width 0.05))
  (fp_line (start -3.1 -2.58) (end 33.1 -2.58) (layer F.CrtYd) (width 0.05))
  (fp_line (start 33.1 -2.58) (end 33.1 -3.58) (layer F.CrtYd) (width 0.05))
  (fp_line (start 33.1 -3.58) (end -3.1 -3.58) (layer F.CrtYd) (width 0.05))
  (fp_line (start 0 0.25) (end -0.3 0.85) (layer F.Fab) (width 0.1))
  (fp_line (start -0.3 0.85) (end 0.3 0.85) (layer F.Fab) (width 0.1))
  (fp_line (start 0.3 0.85) (end 0 0.25) (layer F.Fab) (width 0.1))
  (pad 1 thru_hole rect (at 0 0) (size 0.95 0.95) (drill 0.55) (layers *.Cu *.Mask))
  (pad 3 thru_hole circle (at 1.25 0) (size 0.95 0.95) (drill 0.55) (layers *.Cu *.Mask))
  (pad 5 thru_hole circle (at 2.5 0) (size 0.95 0.95) (drill 0.55) (layers *.Cu *.Mask))
  (pad 7 thru_hole circle (at 3.75 0) (size 0.95 0.95) (drill 0.55) (layers *.Cu *.Mask))
  (pad 9 thru_hole circle (at 5 0) (size 0.95 0.95) (drill 0.55) (layers *.Cu *.Mask))
  (pad 11 thru_hole circle (at 6.25 0) (size 0.95 0.95) (drill 0.55) (layers *.Cu *.Mask))
  (pad 13 thru_hole circle (at 7.5 0) (size 0.95 0.95) (drill 0.55) (layers *.Cu *.Mask))
  (pad 15 thru_hole circle (at 8.75 0) (size 0.95 0.95) (drill 0.55) (layers *.Cu *.Mask))
  (pad 17 thru_hole circle (at 10 0) (size 0.95 0.95) (drill 0.55) (layers *.Cu *.Mask))
  (pad 19 thru_hole circle (at 11.25 0) (size 0.95 0.95) (drill 0.55) (layers *.Cu *.Mask))
  (pad 21 thru_hole circle (at 12.5 0) (size 0.95 0.95) (drill 0.55) (layers *.Cu *.Mask))
  (pad 23 thru_hole circle (at 13.75 0) (size 0.95 0.95) (drill 0.55) (layers *.Cu *.Mask))
  (pad 25 thru_hole circle (at 15 0) (size 0.95 0.95) (drill 0.55) (layers *.Cu *.Mask))
  (pad 27 thru_hole circle (at 16.25 0) (size 0.95 0.95) (drill 0.55) (layers *.Cu *.Mask))
  (pad 29 thru_hole circle (at 17.5 0) (size 0.95 0.95) (drill 0.55) (layers *.Cu *.Mask))
  (pad 31 thru_hole circle (at 18.75 0) (size 0.95 0.95) (drill 0.55) (layers *.Cu *.Mask))
  (pad 33 thru_hole circle (at 20 0) (size 0.95 0.95) (drill 0.55) (layers *.Cu *.Mask))
  (pad 35 thru_hole circle (at 21.25 0) (size 0.95 0.95) (drill 0.55) (layers *.Cu *.Mask))
  (pad 37 thru_hole circle (at 22.5 0) (size 0.95 0.95) (drill 0.55) (layers *.Cu *.Mask))
  (pad 39 thru_hole circle (at 23.75 0) (size 0.95 0.95) (drill 0.55) (layers *.Cu *.Mask))
  (pad 41 thru_hole circle (at 25 0) (size 0.95 0.95) (drill 0.55) (layers *.Cu *.Mask))
  (pad 43 thru_hole circle (at 26.25 0) (size 0.95 0.95) (drill 0.55) (layers *.Cu *.Mask))
  (pad 45 thru_hole circle (at 27.5 0) (size 0.95 0.95) (drill 0.55) (layers *.Cu *.Mask))
  (pad 47 thru_hole circle (at 28.75 0) (size 0.95 0.95) (drill 0.55) (layers *.Cu *.Mask))
  (pad 49 thru_hole circle (at 30 0) (size 0.95 0.95) (drill 0.55) (layers *.Cu *.Mask))
  (pad 2 thru_hole circle (at 0 -1.25) (size 0.95 0.95) (drill 0.55) (layers *.Cu *.Mask))
  (pad 4 thru_hole circle (at 1.25 -1.25) (size 0.95 0.95) (drill 0.55) (layers *.Cu *.Mask))
  (pad 6 thru_hole circle (at 2.5 -1.25) (size 0.95 0.95) (drill 0.55) (layers *.Cu *.Mask))
  (pad 8 thru_hole circle (at 3.75 -1.25) (size 0.95 0.95) (drill 0.55) (layers *.Cu *.Mask))
  (pad 10 thru_hole circle (at 5 -1.25) (size 0.95 0.95) (drill 0.55) (layers *.Cu *.Mask))
  (pad 12 thru_hole circle (at 6.25 -1.25) (size 0.95 0.95) (drill 0.55) (layers *.Cu *.Mask))
  (pad 14 thru_hole circle (at 7.5 -1.25) (size 0.95 0.95) (drill 0.55) (layers *.Cu *.Mask))
  (pad 16 thru_hole circle (at 8.75 -1.25) (size 0.95 0.95) (drill 0.55) (layers *.Cu *.Mask))
  (pad 18 thru_hole circle (at 10 -1.25) (size 0.95 0.95) (drill 0.55) (layers *.Cu *.Mask))
  (pad 20 thru_hole circle (at 11.25 -1.25) (size 0.95 0.95) (drill 0.55) (layers *.Cu *.Mask))
  (pad 22 thru_hole circle (at 12.5 -1.25) (size 0.95 0.95) (drill 0.55) (layers *.Cu *.Mask))
  (pad 24 thru_hole circle (at 13.75 -1.25) (size 0.95 0.95) (drill 0.55) (layers *.Cu *.Mask))
  (pad 26 thru_hole circle (at 15 -1.25) (size 0.95 0.95) (drill 0.55) (layers *.Cu *.Mask))
  (pad 28 thru_hole circle (at 16.25 -1.25) (size 0.95 0.95) (drill 0.55) (layers *.Cu *.Mask))
  (pad 30 thru_hole circle (at 17.5 -1.25) (size 0.95 0.95) (drill 0.55) (layers *.Cu *.Mask))
  (pad 32 thru_hole circle (at 18.75 -1.25) (size 0.95 0.95) (drill 0.55) (layers *.Cu *.Mask))
  (pad 34 thru_hole circle (at 20 -1.25) (size 0.95 0.95) (drill 0.55) (layers *.Cu *.Mask))
  (pad 36 thru_hole circle (at 21.25 -1.25) (size 0.95 0.95) (drill 0.55) (layers *.Cu *.Mask))
  (pad 38 thru_hole circle (at 22.5 -1.25) (size 0.95 0.95) (drill 0.55) (layers *.Cu *.Mask))
  (pad 40 thru_hole circle (at 23.75 -1.25) (size 0.95 0.95) (drill 0.55) (layers *.Cu *.Mask))
  (pad 42 thru_hole circle (at 25 -1.25) (size 0.95 0.95) (drill 0.55) (layers *.Cu *.Mask))
  (pad 44 thru_hole circle (at 26.25 -1.25) (size 0.95 0.95) (drill 0.55) (layers *.Cu *.Mask))
  (pad 46 thru_hole circle (at 27.5 -1.25) (size 0.95 0.95) (drill 0.55) (layers *.Cu *.Mask))
  (pad 48 thru_hole circle (at 28.75 -1.25) (size 0.95 0.95) (drill 0.55) (layers *.Cu *.Mask))
  (pad 50 thru_hole circle (at 30 -1.25) (size 0.95 0.95) (drill 0.55) (layers *.Cu *.Mask))
  (pad "" np_thru_hole oval (at -1.25 -0.625) (size 1.1 2) (drill oval 1 1.9) (layers *.Cu *.Mask))
  (pad "" np_thru_hole oval (at 31.25 -0.625) (size 1.1 2) (drill oval 1 1.9) (layers *.Cu *.Mask))
  (fp_text user %R (at 15 0) (layer F.Fab)
    (effects (font (size 1 1) (thickness 0.15)))
  )
  (model ${KIPRJMOD}/kicad_libs_k/models_k.3d/Connector_Harwin_k.3dshapes/Harwin_Gecko-G125-MVX5005L1X_2x25_P1.25mm_Vertical_k.wrl
    (at (xyz 0 0 0))
    (scale (xyz 1 1 1))
    (rotate (xyz 0 0 0))
  )
)