(module Harwin_LTek-Male_2x17_P2.00mm_Vertical (layer F.Cu) (tedit 5A16B2BF)
  (descr "Harwin LTek Connector, 34 pins, single row male, vertical entry")
  (tags "connector harwin ltek M80")
  (fp_text reference REF** (at 16 -5.5) (layer F.SilkS)
    (effects (font (size 1 1) (thickness 0.15)))
  )
  (fp_text value Harwin_LTek-Male_2x17_P2.00mm_Vertical (at 16 4) (layer F.Fab)
    (effects (font (size 1 1) (thickness 0.15)))
  )
  (fp_line (start -3.15 -4.1) (end -3.15 2.1) (layer F.SilkS) (width 0.12))
  (fp_line (start -3.15 2.1) (end 35.15 2.1) (layer F.SilkS) (width 0.12))
  (fp_line (start 35.15 2.1) (end 35.15 -4.1) (layer F.SilkS) (width 0.12))
  (fp_line (start 35.15 -4.1) (end -3.15 -4.1) (layer F.SilkS) (width 0.12))
  (fp_line (start -3.55 -4.5) (end -3.55 2.5) (layer F.CrtYd) (width 0.05))
  (fp_line (start -3.55 2.5) (end 35.55 2.5) (layer F.CrtYd) (width 0.05))
  (fp_line (start 35.55 2.5) (end 35.55 -4.5) (layer F.CrtYd) (width 0.05))
  (fp_line (start 35.55 -4.5) (end -3.55 -4.5) (layer F.CrtYd) (width 0.05))
  (fp_line (start -3.05 -4) (end -3.05 2) (layer F.Fab) (width 0.1))
  (fp_line (start -3.05 2) (end 35.05 2) (layer F.Fab) (width 0.1))
  (fp_line (start 35.05 2) (end 35.05 -4) (layer F.Fab) (width 0.1))
  (fp_line (start 35.05 -4) (end -3.05 -4) (layer F.Fab) (width 0.1))
  (fp_line (start -1.75 1.5) (end -1.75 -2.75) (layer F.Fab) (width 0.1))
  (fp_line (start -1.75 -2.75) (end -1 -3.5) (layer F.Fab) (width 0.1))
  (fp_line (start -1 -3.5) (end 33 -3.5) (layer F.Fab) (width 0.1))
  (fp_line (start 33 -3.5) (end 33.75 -2.75) (layer F.Fab) (width 0.1))
  (fp_line (start 33.75 -2.75) (end 33.75 1.5) (layer F.Fab) (width 0.1))
  (fp_line (start 33.75 1.5) (end -1.75 1.5) (layer F.Fab) (width 0.1))
  (fp_line (start -1.6 0) (end -1.6 -2.75) (layer F.SilkS) (width 0.12))
  (fp_line (start -1.6 -2.75) (end -1 -3.35) (layer F.SilkS) (width 0.12))
  (fp_line (start -1 -3.35) (end 16 -3.35) (layer F.SilkS) (width 0.12))
  (fp_line (start 33.6 0) (end 33.6 -2.75) (layer F.SilkS) (width 0.12))
  (fp_line (start 33.6 -2.75) (end 33 -3.35) (layer F.SilkS) (width 0.12))
  (fp_line (start 33 -3.35) (end 16 -3.35) (layer F.SilkS) (width 0.12))
  (fp_line (start 0 0.75) (end -0.3 1.35) (layer F.Fab) (width 0.1))
  (fp_line (start -0.3 1.35) (end 0.3 1.35) (layer F.Fab) (width 0.1))
  (fp_line (start 0.3 1.35) (end 0 0.75) (layer F.Fab) (width 0.1))
  (fp_line (start -3.5 1.5) (end -3.5 2.5) (layer F.SilkS) (width 0.12))
  (fp_line (start -3.5 2.5) (end -2.5 2.5) (layer F.SilkS) (width 0.12))
  (pad 1 thru_hole rect (at 0 0) (size 1.35 1.35) (drill 0.8) (layers *.Cu *.Mask))
  (pad 3 thru_hole circle (at 2 0) (size 1.35 1.35) (drill 0.8) (layers *.Cu *.Mask))
  (pad 5 thru_hole circle (at 4 0) (size 1.35 1.35) (drill 0.8) (layers *.Cu *.Mask))
  (pad 7 thru_hole circle (at 6 0) (size 1.35 1.35) (drill 0.8) (layers *.Cu *.Mask))
  (pad 9 thru_hole circle (at 8 0) (size 1.35 1.35) (drill 0.8) (layers *.Cu *.Mask))
  (pad 11 thru_hole circle (at 10 0) (size 1.35 1.35) (drill 0.8) (layers *.Cu *.Mask))
  (pad 13 thru_hole circle (at 12 0) (size 1.35 1.35) (drill 0.8) (layers *.Cu *.Mask))
  (pad 15 thru_hole circle (at 14 0) (size 1.35 1.35) (drill 0.8) (layers *.Cu *.Mask))
  (pad 17 thru_hole circle (at 16 0) (size 1.35 1.35) (drill 0.8) (layers *.Cu *.Mask))
  (pad 19 thru_hole circle (at 18 0) (size 1.35 1.35) (drill 0.8) (layers *.Cu *.Mask))
  (pad 21 thru_hole circle (at 20 0) (size 1.35 1.35) (drill 0.8) (layers *.Cu *.Mask))
  (pad 23 thru_hole circle (at 22 0) (size 1.35 1.35) (drill 0.8) (layers *.Cu *.Mask))
  (pad 25 thru_hole circle (at 24 0) (size 1.35 1.35) (drill 0.8) (layers *.Cu *.Mask))
  (pad 27 thru_hole circle (at 26 0) (size 1.35 1.35) (drill 0.8) (layers *.Cu *.Mask))
  (pad 29 thru_hole circle (at 28 0) (size 1.35 1.35) (drill 0.8) (layers *.Cu *.Mask))
  (pad 31 thru_hole circle (at 30 0) (size 1.35 1.35) (drill 0.8) (layers *.Cu *.Mask))
  (pad 33 thru_hole circle (at 32 0) (size 1.35 1.35) (drill 0.8) (layers *.Cu *.Mask))
  (pad 2 thru_hole circle (at 0 -2) (size 1.35 1.35) (drill 0.8) (layers *.Cu *.Mask))
  (pad 4 thru_hole circle (at 2 -2) (size 1.35 1.35) (drill 0.8) (layers *.Cu *.Mask))
  (pad 6 thru_hole circle (at 4 -2) (size 1.35 1.35) (drill 0.8) (layers *.Cu *.Mask))
  (pad 8 thru_hole circle (at 6 -2) (size 1.35 1.35) (drill 0.8) (layers *.Cu *.Mask))
  (pad 10 thru_hole circle (at 8 -2) (size 1.35 1.35) (drill 0.8) (layers *.Cu *.Mask))
  (pad 12 thru_hole circle (at 10 -2) (size 1.35 1.35) (drill 0.8) (layers *.Cu *.Mask))
  (pad 14 thru_hole circle (at 12 -2) (size 1.35 1.35) (drill 0.8) (layers *.Cu *.Mask))
  (pad 16 thru_hole circle (at 14 -2) (size 1.35 1.35) (drill 0.8) (layers *.Cu *.Mask))
  (pad 18 thru_hole circle (at 16 -2) (size 1.35 1.35) (drill 0.8) (layers *.Cu *.Mask))
  (pad 20 thru_hole circle (at 18 -2) (size 1.35 1.35) (drill 0.8) (layers *.Cu *.Mask))
  (pad 22 thru_hole circle (at 20 -2) (size 1.35 1.35) (drill 0.8) (layers *.Cu *.Mask))
  (pad 24 thru_hole circle (at 22 -2) (size 1.35 1.35) (drill 0.8) (layers *.Cu *.Mask))
  (pad 26 thru_hole circle (at 24 -2) (size 1.35 1.35) (drill 0.8) (layers *.Cu *.Mask))
  (pad 28 thru_hole circle (at 26 -2) (size 1.35 1.35) (drill 0.8) (layers *.Cu *.Mask))
  (pad 30 thru_hole circle (at 28 -2) (size 1.35 1.35) (drill 0.8) (layers *.Cu *.Mask))
  (pad 32 thru_hole circle (at 30 -2) (size 1.35 1.35) (drill 0.8) (layers *.Cu *.Mask))
  (pad 34 thru_hole circle (at 32 -2) (size 1.35 1.35) (drill 0.8) (layers *.Cu *.Mask))
  (fp_text user %R (at 16 0) (layer F.Fab)
    (effects (font (size 1 1) (thickness 0.15)))
  )
  (model ${KIPRJMOD}/kicad_libs_k/models_k.3d/Connector_Harwin_k.3dshapes/Harwin_LTek-Male_2x17_P2.00mm_Vertical_k.wrl
    (at (xyz 0 0 0))
    (scale (xyz 1 1 1))
    (rotate (xyz 0 0 0))
  )
)