(module Harwin_M20-89010xx_1x10_P2.54mm_Horizontal (layer F.Cu) (tedit 5B154A07)
  (descr "Harwin Male Horizontal Surface Mount Single Row 2.54mm (0.1 inch) Pitch PCB Connector, M20-89010xx, 10 Pins per row (https://cdn.harwin.com/pdfs/M20-890.pdf), generated with kicad-footprint-generator")
  (tags "connector Harwin M20-890 horizontal")
  (attr smd)
  (fp_text reference REF** (at -0.48 -13.9) (layer F.SilkS)
    (effects (font (size 1 1) (thickness 0.15)))
  )
  (fp_text value Harwin_M20-89010xx_1x10_P2.54mm_Horizontal (at -0.48 13.9) (layer F.Fab)
    (effects (font (size 1 1) (thickness 0.15)))
  )
  (fp_line (start -1.725 -11.75) (end -6.425 -11.75) (layer F.Fab) (width 0.1))
  (fp_line (start -6.425 -11.75) (end -6.425 -11.11) (layer F.Fab) (width 0.1))
  (fp_line (start -6.425 -11.11) (end -1.725 -11.11) (layer F.Fab) (width 0.1))
  (fp_line (start 0.775 -11.75) (end 6.775 -11.75) (layer F.Fab) (width 0.1))
  (fp_line (start 6.775 -11.75) (end 6.775 -11.11) (layer F.Fab) (width 0.1))
  (fp_line (start 6.775 -11.11) (end 0.775 -11.11) (layer F.Fab) (width 0.1))
  (fp_line (start -1.725 -9.21) (end -6.425 -9.21) (layer F.Fab) (width 0.1))
  (fp_line (start -6.425 -9.21) (end -6.425 -8.57) (layer F.Fab) (width 0.1))
  (fp_line (start -6.425 -8.57) (end -1.725 -8.57) (layer F.Fab) (width 0.1))
  (fp_line (start 0.775 -9.21) (end 6.775 -9.21) (layer F.Fab) (width 0.1))
  (fp_line (start 6.775 -9.21) (end 6.775 -8.57) (layer F.Fab) (width 0.1))
  (fp_line (start 6.775 -8.57) (end 0.775 -8.57) (layer F.Fab) (width 0.1))
  (fp_line (start -1.725 -6.67) (end -6.425 -6.67) (layer F.Fab) (width 0.1))
  (fp_line (start -6.425 -6.67) (end -6.425 -6.03) (layer F.Fab) (width 0.1))
  (fp_line (start -6.425 -6.03) (end -1.725 -6.03) (layer F.Fab) (width 0.1))
  (fp_line (start 0.775 -6.67) (end 6.775 -6.67) (layer F.Fab) (width 0.1))
  (fp_line (start 6.775 -6.67) (end 6.775 -6.03) (layer F.Fab) (width 0.1))
  (fp_line (start 6.775 -6.03) (end 0.775 -6.03) (layer F.Fab) (width 0.1))
  (fp_line (start -1.725 -4.13) (end -6.425 -4.13) (layer F.Fab) (width 0.1))
  (fp_line (start -6.425 -4.13) (end -6.425 -3.49) (layer F.Fab) (width 0.1))
  (fp_line (start -6.425 -3.49) (end -1.725 -3.49) (layer F.Fab) (width 0.1))
  (fp_line (start 0.775 -4.13) (end 6.775 -4.13) (layer F.Fab) (width 0.1))
  (fp_line (start 6.775 -4.13) (end 6.775 -3.49) (layer F.Fab) (width 0.1))
  (fp_line (start 6.775 -3.49) (end 0.775 -3.49) (layer F.Fab) (width 0.1))
  (fp_line (start -1.725 -1.59) (end -6.425 -1.59) (layer F.Fab) (width 0.1))
  (fp_line (start -6.425 -1.59) (end -6.425 -0.95) (layer F.Fab) (width 0.1))
  (fp_line (start -6.425 -0.95) (end -1.725 -0.95) (layer F.Fab) (width 0.1))
  (fp_line (start 0.775 -1.59) (end 6.775 -1.59) (layer F.Fab) (width 0.1))
  (fp_line (start 6.775 -1.59) (end 6.775 -0.95) (layer F.Fab) (width 0.1))
  (fp_line (start 6.775 -0.95) (end 0.775 -0.95) (layer F.Fab) (width 0.1))
  (fp_line (start -1.725 0.95) (end -6.425 0.95) (layer F.Fab) (width 0.1))
  (fp_line (start -6.425 0.95) (end -6.425 1.59) (layer F.Fab) (width 0.1))
  (fp_line (start -6.425 1.59) (end -1.725 1.59) (layer F.Fab) (width 0.1))
  (fp_line (start 0.775 0.95) (end 6.775 0.95) (layer F.Fab) (width 0.1))
  (fp_line (start 6.775 0.95) (end 6.775 1.59) (layer F.Fab) (width 0.1))
  (fp_line (start 6.775 1.59) (end 0.775 1.59) (layer F.Fab) (width 0.1))
  (fp_line (start -1.725 3.49) (end -6.425 3.49) (layer F.Fab) (width 0.1))
  (fp_line (start -6.425 3.49) (end -6.425 4.13) (layer F.Fab) (width 0.1))
  (fp_line (start -6.425 4.13) (end -1.725 4.13) (layer F.Fab) (width 0.1))
  (fp_line (start 0.775 3.49) (end 6.775 3.49) (layer F.Fab) (width 0.1))
  (fp_line (start 6.775 3.49) (end 6.775 4.13) (layer F.Fab) (width 0.1))
  (fp_line (start 6.775 4.13) (end 0.775 4.13) (layer F.Fab) (width 0.1))
  (fp_line (start -1.725 6.03) (end -6.425 6.03) (layer F.Fab) (width 0.1))
  (fp_line (start -6.425 6.03) (end -6.425 6.67) (layer F.Fab) (width 0.1))
  (fp_line (start -6.425 6.67) (end -1.725 6.67) (layer F.Fab) (width 0.1))
  (fp_line (start 0.775 6.03) (end 6.775 6.03) (layer F.Fab) (width 0.1))
  (fp_line (start 6.775 6.03) (end 6.775 6.67) (layer F.Fab) (width 0.1))
  (fp_line (start 6.775 6.67) (end 0.775 6.67) (layer F.Fab) (width 0.1))
  (fp_line (start -1.725 8.57) (end -6.425 8.57) (layer F.Fab) (width 0.1))
  (fp_line (start -6.425 8.57) (end -6.425 9.21) (layer F.Fab) (width 0.1))
  (fp_line (start -6.425 9.21) (end -1.725 9.21) (layer F.Fab) (width 0.1))
  (fp_line (start 0.775 8.57) (end 6.775 8.57) (layer F.Fab) (width 0.1))
  (fp_line (start 6.775 8.57) (end 6.775 9.21) (layer F.Fab) (width 0.1))
  (fp_line (start 6.775 9.21) (end 0.775 9.21) (layer F.Fab) (width 0.1))
  (fp_line (start -1.725 11.11) (end -6.425 11.11) (layer F.Fab) (width 0.1))
  (fp_line (start -6.425 11.11) (end -6.425 11.75) (layer F.Fab) (width 0.1))
  (fp_line (start -6.425 11.75) (end -1.725 11.75) (layer F.Fab) (width 0.1))
  (fp_line (start 0.775 11.11) (end 6.775 11.11) (layer F.Fab) (width 0.1))
  (fp_line (start 6.775 11.11) (end 6.775 11.75) (layer F.Fab) (width 0.1))
  (fp_line (start 6.775 11.75) (end 0.775 11.75) (layer F.Fab) (width 0.1))
  (fp_line (start -1.725 -12.3) (end -1.325 -12.7) (layer F.Fab) (width 0.1))
  (fp_line (start -1.325 -12.7) (end 0.775 -12.7) (layer F.Fab) (width 0.1))
  (fp_line (start 0.775 -12.7) (end 0.775 12.7) (layer F.Fab) (width 0.1))
  (fp_line (start 0.775 12.7) (end -1.725 12.7) (layer F.Fab) (width 0.1))
  (fp_line (start -1.725 12.7) (end -1.725 -12.3) (layer F.Fab) (width 0.1))
  (fp_line (start -1.845 -12.82) (end 0.895 -12.82) (layer F.SilkS) (width 0.12))
  (fp_line (start 0.895 -12.82) (end 0.895 12.82) (layer F.SilkS) (width 0.12))
  (fp_line (start 0.895 12.82) (end -1.845 12.82) (layer F.SilkS) (width 0.12))
  (fp_line (start -1.845 12.82) (end -1.845 -12.82) (layer F.SilkS) (width 0.12))
  (fp_line (start -3.955 -11.87) (end -1.845 -11.87) (layer F.SilkS) (width 0.12))
  (fp_line (start -3.955 -10.99) (end -1.845 -10.99) (layer F.SilkS) (width 0.12))
  (fp_line (start 0.895 -11.87) (end 6.895 -11.87) (layer F.SilkS) (width 0.12))
  (fp_line (start 6.895 -11.87) (end 6.895 -10.99) (layer F.SilkS) (width 0.12))
  (fp_line (start 6.895 -10.99) (end 0.895 -10.99) (layer F.SilkS) (width 0.12))
  (fp_line (start -3.955 -9.33) (end -1.845 -9.33) (layer F.SilkS) (width 0.12))
  (fp_line (start -3.955 -8.45) (end -1.845 -8.45) (layer F.SilkS) (width 0.12))
  (fp_line (start 0.895 -9.33) (end 6.895 -9.33) (layer F.SilkS) (width 0.12))
  (fp_line (start 6.895 -9.33) (end 6.895 -8.45) (layer F.SilkS) (width 0.12))
  (fp_line (start 6.895 -8.45) (end 0.895 -8.45) (layer F.SilkS) (width 0.12))
  (fp_line (start -3.955 -6.79) (end -1.845 -6.79) (layer F.SilkS) (width 0.12))
  (fp_line (start -3.955 -5.91) (end -1.845 -5.91) (layer F.SilkS) (width 0.12))
  (fp_line (start 0.895 -6.79) (end 6.895 -6.79) (layer F.SilkS) (width 0.12))
  (fp_line (start 6.895 -6.79) (end 6.895 -5.91) (layer F.SilkS) (width 0.12))
  (fp_line (start 6.895 -5.91) (end 0.895 -5.91) (layer F.SilkS) (width 0.12))
  (fp_line (start -3.955 -4.25) (end -1.845 -4.25) (layer F.SilkS) (width 0.12))
  (fp_line (start -3.955 -3.37) (end -1.845 -3.37) (layer F.SilkS) (width 0.12))
  (fp_line (start 0.895 -4.25) (end 6.895 -4.25) (layer F.SilkS) (width 0.12))
  (fp_line (start 6.895 -4.25) (end 6.895 -3.37) (layer F.SilkS) (width 0.12))
  (fp_line (start 6.895 -3.37) (end 0.895 -3.37) (layer F.SilkS) (width 0.12))
  (fp_line (start -3.955 -1.71) (end -1.845 -1.71) (layer F.SilkS) (width 0.12))
  (fp_line (start -3.955 -0.83) (end -1.845 -0.83) (layer F.SilkS) (width 0.12))
  (fp_line (start 0.895 -1.71) (end 6.895 -1.71) (layer F.SilkS) (width 0.12))
  (fp_line (start 6.895 -1.71) (end 6.895 -0.83) (layer F.SilkS) (width 0.12))
  (fp_line (start 6.895 -0.83) (end 0.895 -0.83) (layer F.SilkS) (width 0.12))
  (fp_line (start -3.955 0.83) (end -1.845 0.83) (layer F.SilkS) (width 0.12))
  (fp_line (start -3.955 1.71) (end -1.845 1.71) (layer F.SilkS) (width 0.12))
  (fp_line (start 0.895 0.83) (end 6.895 0.83) (layer F.SilkS) (width 0.12))
  (fp_line (start 6.895 0.83) (end 6.895 1.71) (layer F.SilkS) (width 0.12))
  (fp_line (start 6.895 1.71) (end 0.895 1.71) (layer F.SilkS) (width 0.12))
  (fp_line (start -3.955 3.37) (end -1.845 3.37) (layer F.SilkS) (width 0.12))
  (fp_line (start -3.955 4.25) (end -1.845 4.25) (layer F.SilkS) (width 0.12))
  (fp_line (start 0.895 3.37) (end 6.895 3.37) (layer F.SilkS) (width 0.12))
  (fp_line (start 6.895 3.37) (end 6.895 4.25) (layer F.SilkS) (width 0.12))
  (fp_line (start 6.895 4.25) (end 0.895 4.25) (layer F.SilkS) (width 0.12))
  (fp_line (start -3.955 5.91) (end -1.845 5.91) (layer F.SilkS) (width 0.12))
  (fp_line (start -3.955 6.79) (end -1.845 6.79) (layer F.SilkS) (width 0.12))
  (fp_line (start 0.895 5.91) (end 6.895 5.91) (layer F.SilkS) (width 0.12))
  (fp_line (start 6.895 5.91) (end 6.895 6.79) (layer F.SilkS) (width 0.12))
  (fp_line (start 6.895 6.79) (end 0.895 6.79) (layer F.SilkS) (width 0.12))
  (fp_line (start -3.955 8.45) (end -1.845 8.45) (layer F.SilkS) (width 0.12))
  (fp_line (start -3.955 9.33) (end -1.845 9.33) (layer F.SilkS) (width 0.12))
  (fp_line (start 0.895 8.45) (end 6.895 8.45) (layer F.SilkS) (width 0.12))
  (fp_line (start 6.895 8.45) (end 6.895 9.33) (layer F.SilkS) (width 0.12))
  (fp_line (start 6.895 9.33) (end 0.895 9.33) (layer F.SilkS) (width 0.12))
  (fp_line (start -3.955 10.99) (end -1.845 10.99) (layer F.SilkS) (width 0.12))
  (fp_line (start -3.955 11.87) (end -1.845 11.87) (layer F.SilkS) (width 0.12))
  (fp_line (start 0.895 10.99) (end 6.895 10.99) (layer F.SilkS) (width 0.12))
  (fp_line (start 6.895 10.99) (end 6.895 11.87) (layer F.SilkS) (width 0.12))
  (fp_line (start 6.895 11.87) (end 0.895 11.87) (layer F.SilkS) (width 0.12))
  (fp_line (start -7.095 -11.43) (end -7.095 -12.25) (layer F.SilkS) (width 0.12))
  (fp_line (start -7.095 -12.25) (end -5.525 -12.25) (layer F.SilkS) (width 0.12))
  (fp_line (start -7.28 -13.2) (end 7.28 -13.2) (layer F.CrtYd) (width 0.05))
  (fp_line (start 7.28 -13.2) (end 7.28 13.2) (layer F.CrtYd) (width 0.05))
  (fp_line (start 7.28 13.2) (end -7.28 13.2) (layer F.CrtYd) (width 0.05))
  (fp_line (start -7.28 13.2) (end -7.28 -13.2) (layer F.CrtYd) (width 0.05))
  (pad 1 smd rect (at -5.525 -11.43) (size 2.5 1) (layers F.Cu F.Mask F.Paste))
  (pad 2 smd rect (at -5.525 -8.89) (size 2.5 1) (layers F.Cu F.Mask F.Paste))
  (pad 3 smd rect (at -5.525 -6.35) (size 2.5 1) (layers F.Cu F.Mask F.Paste))
  (pad 4 smd rect (at -5.525 -3.81) (size 2.5 1) (layers F.Cu F.Mask F.Paste))
  (pad 5 smd rect (at -5.525 -1.27) (size 2.5 1) (layers F.Cu F.Mask F.Paste))
  (pad 6 smd rect (at -5.525 1.27) (size 2.5 1) (layers F.Cu F.Mask F.Paste))
  (pad 7 smd rect (at -5.525 3.81) (size 2.5 1) (layers F.Cu F.Mask F.Paste))
  (pad 8 smd rect (at -5.525 6.35) (size 2.5 1) (layers F.Cu F.Mask F.Paste))
  (pad 9 smd rect (at -5.525 8.89) (size 2.5 1) (layers F.Cu F.Mask F.Paste))
  (pad 10 smd rect (at -5.525 11.43) (size 2.5 1) (layers F.Cu F.Mask F.Paste))
  (pad "" smd rect (at 3.895 -11.43) (size 6 0.76) (layers F.SilkS))
  (fp_text user %R (at -0.48 0 90) (layer F.Fab)
    (effects (font (size 1 1) (thickness 0.15)))
  )
  (model ${KIPRJMOD}/kicad_libs_k/models_k.3d/Connector_Harwin_k.3dshapes/Harwin_M20-89010xx_1x10_P2.54mm_Horizontal_k.wrl
    (at (xyz 0 0 0))
    (scale (xyz 1 1 1))
    (rotate (xyz 0 0 0))
  )
)