(module Harwin_M20-89004xx_1x04_P2.54mm_Horizontal (layer F.Cu) (tedit 5B154A07)
  (descr "Harwin Male Horizontal Surface Mount Single Row 2.54mm (0.1 inch) Pitch PCB Connector, M20-89004xx, 4 Pins per row (https://cdn.harwin.com/pdfs/M20-890.pdf), generated with kicad-footprint-generator")
  (tags "connector Harwin M20-890 horizontal")
  (attr smd)
  (fp_text reference REF** (at -0.48 -6.28) (layer F.SilkS)
    (effects (font (size 1 1) (thickness 0.15)))
  )
  (fp_text value Harwin_M20-89004xx_1x04_P2.54mm_Horizontal (at -0.48 6.28) (layer F.Fab)
    (effects (font (size 1 1) (thickness 0.15)))
  )
  (fp_line (start -1.725 -4.13) (end -6.425 -4.13) (layer F.Fab) (width 0.1))
  (fp_line (start -6.425 -4.13) (end -6.425 -3.49) (layer F.Fab) (width 0.1))
  (fp_line (start -6.425 -3.49) (end -1.725 -3.49) (layer F.Fab) (width 0.1))
  (fp_line (start 0.775 -4.13) (end 6.775 -4.13) (layer F.Fab) (width 0.1))
  (fp_line (start 6.775 -4.13) (end 6.775 -3.49) (layer F.Fab) (width 0.1))
  (fp_line (start 6.775 -3.49) (end 0.775 -3.49) (layer F.Fab) (width 0.1))
  (fp_line (start -1.725 -1.59) (end -6.425 -1.59) (layer F.Fab) (width 0.1))
  (fp_line (start -6.425 -1.59) (end -6.425 -0.95) (layer F.Fab) (width 0.1))
  (fp_line (start -6.425 -0.95) (end -1.725 -0.95) (layer F.Fab) (width 0.1))
  (fp_line (start 0.775 -1.59) (end 6.775 -1.59) (layer F.Fab) (width 0.1))
  (fp_line (start 6.775 -1.59) (end 6.775 -0.95) (layer F.Fab) (width 0.1))
  (fp_line (start 6.775 -0.95) (end 0.775 -0.95) (layer F.Fab) (width 0.1))
  (fp_line (start -1.725 0.95) (end -6.425 0.95) (layer F.Fab) (width 0.1))
  (fp_line (start -6.425 0.95) (end -6.425 1.59) (layer F.Fab) (width 0.1))
  (fp_line (start -6.425 1.59) (end -1.725 1.59) (layer F.Fab) (width 0.1))
  (fp_line (start 0.775 0.95) (end 6.775 0.95) (layer F.Fab) (width 0.1))
  (fp_line (start 6.775 0.95) (end 6.775 1.59) (layer F.Fab) (width 0.1))
  (fp_line (start 6.775 1.59) (end 0.775 1.59) (layer F.Fab) (width 0.1))
  (fp_line (start -1.725 3.49) (end -6.425 3.49) (layer F.Fab) (width 0.1))
  (fp_line (start -6.425 3.49) (end -6.425 4.13) (layer F.Fab) (width 0.1))
  (fp_line (start -6.425 4.13) (end -1.725 4.13) (layer F.Fab) (width 0.1))
  (fp_line (start 0.775 3.49) (end 6.775 3.49) (layer F.Fab) (width 0.1))
  (fp_line (start 6.775 3.49) (end 6.775 4.13) (layer F.Fab) (width 0.1))
  (fp_line (start 6.775 4.13) (end 0.775 4.13) (layer F.Fab) (width 0.1))
  (fp_line (start -1.725 -4.68) (end -1.325 -5.08) (layer F.Fab) (width 0.1))
  (fp_line (start -1.325 -5.08) (end 0.775 -5.08) (layer F.Fab) (width 0.1))
  (fp_line (start 0.775 -5.08) (end 0.775 5.08) (layer F.Fab) (width 0.1))
  (fp_line (start 0.775 5.08) (end -1.725 5.08) (layer F.Fab) (width 0.1))
  (fp_line (start -1.725 5.08) (end -1.725 -4.68) (layer F.Fab) (width 0.1))
  (fp_line (start -1.845 -5.2) (end 0.895 -5.2) (layer F.SilkS) (width 0.12))
  (fp_line (start 0.895 -5.2) (end 0.895 5.2) (layer F.SilkS) (width 0.12))
  (fp_line (start 0.895 5.2) (end -1.845 5.2) (layer F.SilkS) (width 0.12))
  (fp_line (start -1.845 5.2) (end -1.845 -5.2) (layer F.SilkS) (width 0.12))
  (fp_line (start -3.955 -4.25) (end -1.845 -4.25) (layer F.SilkS) (width 0.12))
  (fp_line (start -3.955 -3.37) (end -1.845 -3.37) (layer F.SilkS) (width 0.12))
  (fp_line (start 0.895 -4.25) (end 6.895 -4.25) (layer F.SilkS) (width 0.12))
  (fp_line (start 6.895 -4.25) (end 6.895 -3.37) (layer F.SilkS) (width 0.12))
  (fp_line (start 6.895 -3.37) (end 0.895 -3.37) (layer F.SilkS) (width 0.12))
  (fp_line (start -3.955 -1.71) (end -1.845 -1.71) (layer F.SilkS) (width 0.12))
  (fp_line (start -3.955 -0.83) (end -1.845 -0.83) (layer F.SilkS) (width 0.12))
  (fp_line (start 0.895 -1.71) (end 6.895 -1.71) (layer F.SilkS) (width 0.12))
  (fp_line (start 6.895 -1.71) (end 6.895 -0.83) (layer F.SilkS) (width 0.12))
  (fp_line (start 6.895 -0.83) (end 0.895 -0.83) (layer F.SilkS) (width 0.12))
  (fp_line (start -3.955 0.83) (end -1.845 0.83) (layer F.SilkS) (width 0.12))
  (fp_line (start -3.955 1.71) (end -1.845 1.71) (layer F.SilkS) (width 0.12))
  (fp_line (start 0.895 0.83) (end 6.895 0.83) (layer F.SilkS) (width 0.12))
  (fp_line (start 6.895 0.83) (end 6.895 1.71) (layer F.SilkS) (width 0.12))
  (fp_line (start 6.895 1.71) (end 0.895 1.71) (layer F.SilkS) (width 0.12))
  (fp_line (start -3.955 3.37) (end -1.845 3.37) (layer F.SilkS) (width 0.12))
  (fp_line (start -3.955 4.25) (end -1.845 4.25) (layer F.SilkS) (width 0.12))
  (fp_line (start 0.895 3.37) (end 6.895 3.37) (layer F.SilkS) (width 0.12))
  (fp_line (start 6.895 3.37) (end 6.895 4.25) (layer F.SilkS) (width 0.12))
  (fp_line (start 6.895 4.25) (end 0.895 4.25) (layer F.SilkS) (width 0.12))
  (fp_line (start -7.095 -3.81) (end -7.095 -4.63) (layer F.SilkS) (width 0.12))
  (fp_line (start -7.095 -4.63) (end -5.525 -4.63) (layer F.SilkS) (width 0.12))
  (fp_line (start -7.28 -5.58) (end 7.28 -5.58) (layer F.CrtYd) (width 0.05))
  (fp_line (start 7.28 -5.58) (end 7.28 5.58) (layer F.CrtYd) (width 0.05))
  (fp_line (start 7.28 5.58) (end -7.28 5.58) (layer F.CrtYd) (width 0.05))
  (fp_line (start -7.28 5.58) (end -7.28 -5.58) (layer F.CrtYd) (width 0.05))
  (pad 1 smd rect (at -5.525 -3.81) (size 2.5 1) (layers F.Cu F.Mask F.Paste))
  (pad 2 smd rect (at -5.525 -1.27) (size 2.5 1) (layers F.Cu F.Mask F.Paste))
  (pad 3 smd rect (at -5.525 1.27) (size 2.5 1) (layers F.Cu F.Mask F.Paste))
  (pad 4 smd rect (at -5.525 3.81) (size 2.5 1) (layers F.Cu F.Mask F.Paste))
  (pad "" smd rect (at 3.895 -3.81) (size 6 0.76) (layers F.SilkS))
  (fp_text user %R (at -0.48 0 90) (layer F.Fab)
    (effects (font (size 1 1) (thickness 0.15)))
  )
  (model ${KIPRJMOD}/kicad_libs_k/models_k.3d/Connector_Harwin_k.3dshapes/Harwin_M20-89004xx_1x04_P2.54mm_Horizontal_k.wrl
    (at (xyz 0 0 0))
    (scale (xyz 1 1 1))
    (rotate (xyz 0 0 0))
  )
)