(module Harwin_M20-89013xx_1x13_P2.54mm_Horizontal (layer F.Cu) (tedit 5B154A07)
  (descr "Harwin Male Horizontal Surface Mount Single Row 2.54mm (0.1 inch) Pitch PCB Connector, M20-89013xx, 13 Pins per row (https://cdn.harwin.com/pdfs/M20-890.pdf), generated with kicad-footprint-generator")
  (tags "connector Harwin M20-890 horizontal")
  (attr smd)
  (fp_text reference REF** (at -0.48 -17.71) (layer F.SilkS)
    (effects (font (size 1 1) (thickness 0.15)))
  )
  (fp_text value Harwin_M20-89013xx_1x13_P2.54mm_Horizontal (at -0.48 17.71) (layer F.Fab)
    (effects (font (size 1 1) (thickness 0.15)))
  )
  (fp_line (start -1.725 -15.56) (end -6.425 -15.56) (layer F.Fab) (width 0.1))
  (fp_line (start -6.425 -15.56) (end -6.425 -14.92) (layer F.Fab) (width 0.1))
  (fp_line (start -6.425 -14.92) (end -1.725 -14.92) (layer F.Fab) (width 0.1))
  (fp_line (start 0.775 -15.56) (end 6.775 -15.56) (layer F.Fab) (width 0.1))
  (fp_line (start 6.775 -15.56) (end 6.775 -14.92) (layer F.Fab) (width 0.1))
  (fp_line (start 6.775 -14.92) (end 0.775 -14.92) (layer F.Fab) (width 0.1))
  (fp_line (start -1.725 -13.02) (end -6.425 -13.02) (layer F.Fab) (width 0.1))
  (fp_line (start -6.425 -13.02) (end -6.425 -12.38) (layer F.Fab) (width 0.1))
  (fp_line (start -6.425 -12.38) (end -1.725 -12.38) (layer F.Fab) (width 0.1))
  (fp_line (start 0.775 -13.02) (end 6.775 -13.02) (layer F.Fab) (width 0.1))
  (fp_line (start 6.775 -13.02) (end 6.775 -12.38) (layer F.Fab) (width 0.1))
  (fp_line (start 6.775 -12.38) (end 0.775 -12.38) (layer F.Fab) (width 0.1))
  (fp_line (start -1.725 -10.48) (end -6.425 -10.48) (layer F.Fab) (width 0.1))
  (fp_line (start -6.425 -10.48) (end -6.425 -9.84) (layer F.Fab) (width 0.1))
  (fp_line (start -6.425 -9.84) (end -1.725 -9.84) (layer F.Fab) (width 0.1))
  (fp_line (start 0.775 -10.48) (end 6.775 -10.48) (layer F.Fab) (width 0.1))
  (fp_line (start 6.775 -10.48) (end 6.775 -9.84) (layer F.Fab) (width 0.1))
  (fp_line (start 6.775 -9.84) (end 0.775 -9.84) (layer F.Fab) (width 0.1))
  (fp_line (start -1.725 -7.94) (end -6.425 -7.94) (layer F.Fab) (width 0.1))
  (fp_line (start -6.425 -7.94) (end -6.425 -7.3) (layer F.Fab) (width 0.1))
  (fp_line (start -6.425 -7.3) (end -1.725 -7.3) (layer F.Fab) (width 0.1))
  (fp_line (start 0.775 -7.94) (end 6.775 -7.94) (layer F.Fab) (width 0.1))
  (fp_line (start 6.775 -7.94) (end 6.775 -7.3) (layer F.Fab) (width 0.1))
  (fp_line (start 6.775 -7.3) (end 0.775 -7.3) (layer F.Fab) (width 0.1))
  (fp_line (start -1.725 -5.4) (end -6.425 -5.4) (layer F.Fab) (width 0.1))
  (fp_line (start -6.425 -5.4) (end -6.425 -4.76) (layer F.Fab) (width 0.1))
  (fp_line (start -6.425 -4.76) (end -1.725 -4.76) (layer F.Fab) (width 0.1))
  (fp_line (start 0.775 -5.4) (end 6.775 -5.4) (layer F.Fab) (width 0.1))
  (fp_line (start 6.775 -5.4) (end 6.775 -4.76) (layer F.Fab) (width 0.1))
  (fp_line (start 6.775 -4.76) (end 0.775 -4.76) (layer F.Fab) (width 0.1))
  (fp_line (start -1.725 -2.86) (end -6.425 -2.86) (layer F.Fab) (width 0.1))
  (fp_line (start -6.425 -2.86) (end -6.425 -2.22) (layer F.Fab) (width 0.1))
  (fp_line (start -6.425 -2.22) (end -1.725 -2.22) (layer F.Fab) (width 0.1))
  (fp_line (start 0.775 -2.86) (end 6.775 -2.86) (layer F.Fab) (width 0.1))
  (fp_line (start 6.775 -2.86) (end 6.775 -2.22) (layer F.Fab) (width 0.1))
  (fp_line (start 6.775 -2.22) (end 0.775 -2.22) (layer F.Fab) (width 0.1))
  (fp_line (start -1.725 -0.32) (end -6.425 -0.32) (layer F.Fab) (width 0.1))
  (fp_line (start -6.425 -0.32) (end -6.425 0.32) (layer F.Fab) (width 0.1))
  (fp_line (start -6.425 0.32) (end -1.725 0.32) (layer F.Fab) (width 0.1))
  (fp_line (start 0.775 -0.32) (end 6.775 -0.32) (layer F.Fab) (width 0.1))
  (fp_line (start 6.775 -0.32) (end 6.775 0.32) (layer F.Fab) (width 0.1))
  (fp_line (start 6.775 0.32) (end 0.775 0.32) (layer F.Fab) (width 0.1))
  (fp_line (start -1.725 2.22) (end -6.425 2.22) (layer F.Fab) (width 0.1))
  (fp_line (start -6.425 2.22) (end -6.425 2.86) (layer F.Fab) (width 0.1))
  (fp_line (start -6.425 2.86) (end -1.725 2.86) (layer F.Fab) (width 0.1))
  (fp_line (start 0.775 2.22) (end 6.775 2.22) (layer F.Fab) (width 0.1))
  (fp_line (start 6.775 2.22) (end 6.775 2.86) (layer F.Fab) (width 0.1))
  (fp_line (start 6.775 2.86) (end 0.775 2.86) (layer F.Fab) (width 0.1))
  (fp_line (start -1.725 4.76) (end -6.425 4.76) (layer F.Fab) (width 0.1))
  (fp_line (start -6.425 4.76) (end -6.425 5.4) (layer F.Fab) (width 0.1))
  (fp_line (start -6.425 5.4) (end -1.725 5.4) (layer F.Fab) (width 0.1))
  (fp_line (start 0.775 4.76) (end 6.775 4.76) (layer F.Fab) (width 0.1))
  (fp_line (start 6.775 4.76) (end 6.775 5.4) (layer F.Fab) (width 0.1))
  (fp_line (start 6.775 5.4) (end 0.775 5.4) (layer F.Fab) (width 0.1))
  (fp_line (start -1.725 7.3) (end -6.425 7.3) (layer F.Fab) (width 0.1))
  (fp_line (start -6.425 7.3) (end -6.425 7.94) (layer F.Fab) (width 0.1))
  (fp_line (start -6.425 7.94) (end -1.725 7.94) (layer F.Fab) (width 0.1))
  (fp_line (start 0.775 7.3) (end 6.775 7.3) (layer F.Fab) (width 0.1))
  (fp_line (start 6.775 7.3) (end 6.775 7.94) (layer F.Fab) (width 0.1))
  (fp_line (start 6.775 7.94) (end 0.775 7.94) (layer F.Fab) (width 0.1))
  (fp_line (start -1.725 9.84) (end -6.425 9.84) (layer F.Fab) (width 0.1))
  (fp_line (start -6.425 9.84) (end -6.425 10.48) (layer F.Fab) (width 0.1))
  (fp_line (start -6.425 10.48) (end -1.725 10.48) (layer F.Fab) (width 0.1))
  (fp_line (start 0.775 9.84) (end 6.775 9.84) (layer F.Fab) (width 0.1))
  (fp_line (start 6.775 9.84) (end 6.775 10.48) (layer F.Fab) (width 0.1))
  (fp_line (start 6.775 10.48) (end 0.775 10.48) (layer F.Fab) (width 0.1))
  (fp_line (start -1.725 12.38) (end -6.425 12.38) (layer F.Fab) (width 0.1))
  (fp_line (start -6.425 12.38) (end -6.425 13.02) (layer F.Fab) (width 0.1))
  (fp_line (start -6.425 13.02) (end -1.725 13.02) (layer F.Fab) (width 0.1))
  (fp_line (start 0.775 12.38) (end 6.775 12.38) (layer F.Fab) (width 0.1))
  (fp_line (start 6.775 12.38) (end 6.775 13.02) (layer F.Fab) (width 0.1))
  (fp_line (start 6.775 13.02) (end 0.775 13.02) (layer F.Fab) (width 0.1))
  (fp_line (start -1.725 14.92) (end -6.425 14.92) (layer F.Fab) (width 0.1))
  (fp_line (start -6.425 14.92) (end -6.425 15.56) (layer F.Fab) (width 0.1))
  (fp_line (start -6.425 15.56) (end -1.725 15.56) (layer F.Fab) (width 0.1))
  (fp_line (start 0.775 14.92) (end 6.775 14.92) (layer F.Fab) (width 0.1))
  (fp_line (start 6.775 14.92) (end 6.775 15.56) (layer F.Fab) (width 0.1))
  (fp_line (start 6.775 15.56) (end 0.775 15.56) (layer F.Fab) (width 0.1))
  (fp_line (start -1.725 -16.11) (end -1.325 -16.51) (layer F.Fab) (width 0.1))
  (fp_line (start -1.325 -16.51) (end 0.775 -16.51) (layer F.Fab) (width 0.1))
  (fp_line (start 0.775 -16.51) (end 0.775 16.51) (layer F.Fab) (width 0.1))
  (fp_line (start 0.775 16.51) (end -1.725 16.51) (layer F.Fab) (width 0.1))
  (fp_line (start -1.725 16.51) (end -1.725 -16.11) (layer F.Fab) (width 0.1))
  (fp_line (start -1.845 -16.63) (end 0.895 -16.63) (layer F.SilkS) (width 0.12))
  (fp_line (start 0.895 -16.63) (end 0.895 16.63) (layer F.SilkS) (width 0.12))
  (fp_line (start 0.895 16.63) (end -1.845 16.63) (layer F.SilkS) (width 0.12))
  (fp_line (start -1.845 16.63) (end -1.845 -16.63) (layer F.SilkS) (width 0.12))
  (fp_line (start -3.955 -15.68) (end -1.845 -15.68) (layer F.SilkS) (width 0.12))
  (fp_line (start -3.955 -14.8) (end -1.845 -14.8) (layer F.SilkS) (width 0.12))
  (fp_line (start 0.895 -15.68) (end 6.895 -15.68) (layer F.SilkS) (width 0.12))
  (fp_line (start 6.895 -15.68) (end 6.895 -14.8) (layer F.SilkS) (width 0.12))
  (fp_line (start 6.895 -14.8) (end 0.895 -14.8) (layer F.SilkS) (width 0.12))
  (fp_line (start -3.955 -13.14) (end -1.845 -13.14) (layer F.SilkS) (width 0.12))
  (fp_line (start -3.955 -12.26) (end -1.845 -12.26) (layer F.SilkS) (width 0.12))
  (fp_line (start 0.895 -13.14) (end 6.895 -13.14) (layer F.SilkS) (width 0.12))
  (fp_line (start 6.895 -13.14) (end 6.895 -12.26) (layer F.SilkS) (width 0.12))
  (fp_line (start 6.895 -12.26) (end 0.895 -12.26) (layer F.SilkS) (width 0.12))
  (fp_line (start -3.955 -10.6) (end -1.845 -10.6) (layer F.SilkS) (width 0.12))
  (fp_line (start -3.955 -9.72) (end -1.845 -9.72) (layer F.SilkS) (width 0.12))
  (fp_line (start 0.895 -10.6) (end 6.895 -10.6) (layer F.SilkS) (width 0.12))
  (fp_line (start 6.895 -10.6) (end 6.895 -9.72) (layer F.SilkS) (width 0.12))
  (fp_line (start 6.895 -9.72) (end 0.895 -9.72) (layer F.SilkS) (width 0.12))
  (fp_line (start -3.955 -8.06) (end -1.845 -8.06) (layer F.SilkS) (width 0.12))
  (fp_line (start -3.955 -7.18) (end -1.845 -7.18) (layer F.SilkS) (width 0.12))
  (fp_line (start 0.895 -8.06) (end 6.895 -8.06) (layer F.SilkS) (width 0.12))
  (fp_line (start 6.895 -8.06) (end 6.895 -7.18) (layer F.SilkS) (width 0.12))
  (fp_line (start 6.895 -7.18) (end 0.895 -7.18) (layer F.SilkS) (width 0.12))
  (fp_line (start -3.955 -5.52) (end -1.845 -5.52) (layer F.SilkS) (width 0.12))
  (fp_line (start -3.955 -4.64) (end -1.845 -4.64) (layer F.SilkS) (width 0.12))
  (fp_line (start 0.895 -5.52) (end 6.895 -5.52) (layer F.SilkS) (width 0.12))
  (fp_line (start 6.895 -5.52) (end 6.895 -4.64) (layer F.SilkS) (width 0.12))
  (fp_line (start 6.895 -4.64) (end 0.895 -4.64) (layer F.SilkS) (width 0.12))
  (fp_line (start -3.955 -2.98) (end -1.845 -2.98) (layer F.SilkS) (width 0.12))
  (fp_line (start -3.955 -2.1) (end -1.845 -2.1) (layer F.SilkS) (width 0.12))
  (fp_line (start 0.895 -2.98) (end 6.895 -2.98) (layer F.SilkS) (width 0.12))
  (fp_line (start 6.895 -2.98) (end 6.895 -2.1) (layer F.SilkS) (width 0.12))
  (fp_line (start 6.895 -2.1) (end 0.895 -2.1) (layer F.SilkS) (width 0.12))
  (fp_line (start -3.955 -0.44) (end -1.845 -0.44) (layer F.SilkS) (width 0.12))
  (fp_line (start -3.955 0.44) (end -1.845 0.44) (layer F.SilkS) (width 0.12))
  (fp_line (start 0.895 -0.44) (end 6.895 -0.44) (layer F.SilkS) (width 0.12))
  (fp_line (start 6.895 -0.44) (end 6.895 0.44) (layer F.SilkS) (width 0.12))
  (fp_line (start 6.895 0.44) (end 0.895 0.44) (layer F.SilkS) (width 0.12))
  (fp_line (start -3.955 2.1) (end -1.845 2.1) (layer F.SilkS) (width 0.12))
  (fp_line (start -3.955 2.98) (end -1.845 2.98) (layer F.SilkS) (width 0.12))
  (fp_line (start 0.895 2.1) (end 6.895 2.1) (layer F.SilkS) (width 0.12))
  (fp_line (start 6.895 2.1) (end 6.895 2.98) (layer F.SilkS) (width 0.12))
  (fp_line (start 6.895 2.98) (end 0.895 2.98) (layer F.SilkS) (width 0.12))
  (fp_line (start -3.955 4.64) (end -1.845 4.64) (layer F.SilkS) (width 0.12))
  (fp_line (start -3.955 5.52) (end -1.845 5.52) (layer F.SilkS) (width 0.12))
  (fp_line (start 0.895 4.64) (end 6.895 4.64) (layer F.SilkS) (width 0.12))
  (fp_line (start 6.895 4.64) (end 6.895 5.52) (layer F.SilkS) (width 0.12))
  (fp_line (start 6.895 5.52) (end 0.895 5.52) (layer F.SilkS) (width 0.12))
  (fp_line (start -3.955 7.18) (end -1.845 7.18) (layer F.SilkS) (width 0.12))
  (fp_line (start -3.955 8.06) (end -1.845 8.06) (layer F.SilkS) (width 0.12))
  (fp_line (start 0.895 7.18) (end 6.895 7.18) (layer F.SilkS) (width 0.12))
  (fp_line (start 6.895 7.18) (end 6.895 8.06) (layer F.SilkS) (width 0.12))
  (fp_line (start 6.895 8.06) (end 0.895 8.06) (layer F.SilkS) (width 0.12))
  (fp_line (start -3.955 9.72) (end -1.845 9.72) (layer F.SilkS) (width 0.12))
  (fp_line (start -3.955 10.6) (end -1.845 10.6) (layer F.SilkS) (width 0.12))
  (fp_line (start 0.895 9.72) (end 6.895 9.72) (layer F.SilkS) (width 0.12))
  (fp_line (start 6.895 9.72) (end 6.895 10.6) (layer F.SilkS) (width 0.12))
  (fp_line (start 6.895 10.6) (end 0.895 10.6) (layer F.SilkS) (width 0.12))
  (fp_line (start -3.955 12.26) (end -1.845 12.26) (layer F.SilkS) (width 0.12))
  (fp_line (start -3.955 13.14) (end -1.845 13.14) (layer F.SilkS) (width 0.12))
  (fp_line (start 0.895 12.26) (end 6.895 12.26) (layer F.SilkS) (width 0.12))
  (fp_line (start 6.895 12.26) (end 6.895 13.14) (layer F.SilkS) (width 0.12))
  (fp_line (start 6.895 13.14) (end 0.895 13.14) (layer F.SilkS) (width 0.12))
  (fp_line (start -3.955 14.8) (end -1.845 14.8) (layer F.SilkS) (width 0.12))
  (fp_line (start -3.955 15.68) (end -1.845 15.68) (layer F.SilkS) (width 0.12))
  (fp_line (start 0.895 14.8) (end 6.895 14.8) (layer F.SilkS) (width 0.12))
  (fp_line (start 6.895 14.8) (end 6.895 15.68) (layer F.SilkS) (width 0.12))
  (fp_line (start 6.895 15.68) (end 0.895 15.68) (layer F.SilkS) (width 0.12))
  (fp_line (start -7.095 -15.24) (end -7.095 -16.06) (layer F.SilkS) (width 0.12))
  (fp_line (start -7.095 -16.06) (end -5.525 -16.06) (layer F.SilkS) (width 0.12))
  (fp_line (start -7.28 -17.01) (end 7.28 -17.01) (layer F.CrtYd) (width 0.05))
  (fp_line (start 7.28 -17.01) (end 7.28 17.01) (layer F.CrtYd) (width 0.05))
  (fp_line (start 7.28 17.01) (end -7.28 17.01) (layer F.CrtYd) (width 0.05))
  (fp_line (start -7.28 17.01) (end -7.28 -17.01) (layer F.CrtYd) (width 0.05))
  (pad 1 smd rect (at -5.525 -15.24) (size 2.5 1) (layers F.Cu F.Mask F.Paste))
  (pad 2 smd rect (at -5.525 -12.7) (size 2.5 1) (layers F.Cu F.Mask F.Paste))
  (pad 3 smd rect (at -5.525 -10.16) (size 2.5 1) (layers F.Cu F.Mask F.Paste))
  (pad 4 smd rect (at -5.525 -7.62) (size 2.5 1) (layers F.Cu F.Mask F.Paste))
  (pad 5 smd rect (at -5.525 -5.08) (size 2.5 1) (layers F.Cu F.Mask F.Paste))
  (pad 6 smd rect (at -5.525 -2.54) (size 2.5 1) (layers F.Cu F.Mask F.Paste))
  (pad 7 smd rect (at -5.525 0) (size 2.5 1) (layers F.Cu F.Mask F.Paste))
  (pad 8 smd rect (at -5.525 2.54) (size 2.5 1) (layers F.Cu F.Mask F.Paste))
  (pad 9 smd rect (at -5.525 5.08) (size 2.5 1) (layers F.Cu F.Mask F.Paste))
  (pad 10 smd rect (at -5.525 7.62) (size 2.5 1) (layers F.Cu F.Mask F.Paste))
  (pad 11 smd rect (at -5.525 10.16) (size 2.5 1) (layers F.Cu F.Mask F.Paste))
  (pad 12 smd rect (at -5.525 12.7) (size 2.5 1) (layers F.Cu F.Mask F.Paste))
  (pad 13 smd rect (at -5.525 15.24) (size 2.5 1) (layers F.Cu F.Mask F.Paste))
  (pad "" smd rect (at 3.895 -15.24) (size 6 0.76) (layers F.SilkS))
  (fp_text user %R (at -0.48 0 90) (layer F.Fab)
    (effects (font (size 1 1) (thickness 0.15)))
  )
  (model ${KIPRJMOD}/kicad_libs_k/models_k.3d/Connector_Harwin_k.3dshapes/Harwin_M20-89013xx_1x13_P2.54mm_Horizontal_k.wrl
    (at (xyz 0 0 0))
    (scale (xyz 1 1 1))
    (rotate (xyz 0 0 0))
  )
)