(module Harwin_LTek-Male_04_P2.00mm_Vertical (layer F.Cu) (tedit 5A16B2BF)
  (descr "Harwin LTek Connector, 4 pins, single row male, vertical entry")
  (tags "connector harwin ltek M80")
  (fp_text reference REF** (at 3 -3.5) (layer F.SilkS)
    (effects (font (size 1 1) (thickness 0.15)))
  )
  (fp_text value Harwin_LTek-Male_04_P2.00mm_Vertical (at 3 4) (layer F.Fab)
    (effects (font (size 1 1) (thickness 0.15)))
  )
  (fp_line (start -3.15 -2.1) (end -3.15 2.1) (layer F.SilkS) (width 0.12))
  (fp_line (start -3.15 2.1) (end 9.15 2.1) (layer F.SilkS) (width 0.12))
  (fp_line (start 9.15 2.1) (end 9.15 -2.1) (layer F.SilkS) (width 0.12))
  (fp_line (start 9.15 -2.1) (end -3.15 -2.1) (layer F.SilkS) (width 0.12))
  (fp_line (start -3.55 -2.5) (end -3.55 2.5) (layer F.CrtYd) (width 0.05))
  (fp_line (start -3.55 2.5) (end 9.55 2.5) (layer F.CrtYd) (width 0.05))
  (fp_line (start 9.55 2.5) (end 9.55 -2.5) (layer F.CrtYd) (width 0.05))
  (fp_line (start 9.55 -2.5) (end -3.55 -2.5) (layer F.CrtYd) (width 0.05))
  (fp_line (start -3.05 -2) (end -3.05 2) (layer F.Fab) (width 0.1))
  (fp_line (start -3.05 2) (end 9.05 2) (layer F.Fab) (width 0.1))
  (fp_line (start 9.05 2) (end 9.05 -2) (layer F.Fab) (width 0.1))
  (fp_line (start 9.05 -2) (end -3.05 -2) (layer F.Fab) (width 0.1))
  (fp_line (start -1.75 1.5) (end -1.75 -0.75) (layer F.Fab) (width 0.1))
  (fp_line (start -1.75 -0.75) (end -1 -1.5) (layer F.Fab) (width 0.1))
  (fp_line (start -1 -1.5) (end 7 -1.5) (layer F.Fab) (width 0.1))
  (fp_line (start 7 -1.5) (end 7.75 -0.75) (layer F.Fab) (width 0.1))
  (fp_line (start 7.75 -0.75) (end 7.75 1.5) (layer F.Fab) (width 0.1))
  (fp_line (start 7.75 1.5) (end -1.75 1.5) (layer F.Fab) (width 0.1))
  (fp_line (start -1.6 0) (end -1.6 -0.75) (layer F.SilkS) (width 0.12))
  (fp_line (start -1.6 -0.75) (end -1 -1.35) (layer F.SilkS) (width 0.12))
  (fp_line (start -1 -1.35) (end 3 -1.35) (layer F.SilkS) (width 0.12))
  (fp_line (start 7.6 0) (end 7.6 -0.75) (layer F.SilkS) (width 0.12))
  (fp_line (start 7.6 -0.75) (end 7 -1.35) (layer F.SilkS) (width 0.12))
  (fp_line (start 7 -1.35) (end 3 -1.35) (layer F.SilkS) (width 0.12))
  (fp_line (start 0 0.75) (end -0.3 1.35) (layer F.Fab) (width 0.1))
  (fp_line (start -0.3 1.35) (end 0.3 1.35) (layer F.Fab) (width 0.1))
  (fp_line (start 0.3 1.35) (end 0 0.75) (layer F.Fab) (width 0.1))
  (fp_line (start -3.5 1.5) (end -3.5 2.5) (layer F.SilkS) (width 0.12))
  (fp_line (start -3.5 2.5) (end -2.5 2.5) (layer F.SilkS) (width 0.12))
  (pad 1 thru_hole rect (at 0 0) (size 1.35 1.35) (drill 0.8) (layers *.Cu *.Mask))
  (pad 2 thru_hole circle (at 2 0) (size 1.35 1.35) (drill 0.8) (layers *.Cu *.Mask))
  (pad 3 thru_hole circle (at 4 0) (size 1.35 1.35) (drill 0.8) (layers *.Cu *.Mask))
  (pad 4 thru_hole circle (at 6 0) (size 1.35 1.35) (drill 0.8) (layers *.Cu *.Mask))
  (fp_text user %R (at 3 0) (layer F.Fab)
    (effects (font (size 1 1) (thickness 0.15)))
  )
  (model ${KIPRJMOD}/kicad_libs_k/models_k.3d/Connector_Harwin_k.3dshapes/Harwin_LTek-Male_04_P2.00mm_Vertical_k.wrl
    (at (xyz 0 0 0))
    (scale (xyz 1 1 1))
    (rotate (xyz 0 0 0))
  )
)