(module Harwin_Gecko-G125-MVX1205L0X_2x06_P1.25mm_Vertical (layer F.Cu) (tedit 5A16AEAD)
  (descr "Harwin Gecko Connector, 12 pins, dual row male, vertical entry, no latches, PN:G125-MVX1205L0X")
  (tags "connector harwin gecko")
  (fp_text reference REF** (at 3.125 3.5) (layer F.SilkS)
    (effects (font (size 1 1) (thickness 0.15)))
  )
  (fp_text value Harwin_Gecko-G125-MVX1205L0X_2x06_P1.25mm_Vertical (at 3.125 -4.3) (layer F.Fab)
    (effects (font (size 1 1) (thickness 0.15)))
  )
  (fp_arc (start -1.15 -2.325) (end -1.9 -2.325) (angle 90.000000) (layer F.SilkS) (width 0.12))
  (fp_arc (start 7.4 -2.325) (end 7.4 -3.075) (angle 90.000000) (layer F.SilkS) (width 0.12))
  (fp_arc (start 7.4 1.075) (end 8.15 1.075) (angle 90.000000) (layer F.SilkS) (width 0.12))
  (fp_arc (start -1.15 1.075) (end -1.15 1.825) (angle 90.000000) (layer F.SilkS) (width 0.12))
  (fp_arc (start -0.65 -2.125) (end -0.9 -2.125) (angle 90.000000) (layer F.SilkS) (width 0.12))
  (fp_arc (start 6.9 -2.125) (end 6.9 -2.375) (angle 90.000000) (layer F.SilkS) (width 0.12))
  (fp_arc (start 6.9 1.175) (end 7.15 1.175) (angle 90.000000) (layer F.SilkS) (width 0.12))
  (fp_arc (start -0.65 1.175) (end -0.65 1.425) (angle 90.000000) (layer F.SilkS) (width 0.12))
  (fp_arc (start -1.15 -2.325) (end -1.9 -2.325) (angle 90.000000) (layer F.Fab) (width 0.1))
  (fp_arc (start 7.4 -2.325) (end 7.4 -3.075) (angle 90.000000) (layer F.Fab) (width 0.1))
  (fp_arc (start 7.4 1.075) (end 8.15 1.075) (angle 90.000000) (layer F.Fab) (width 0.1))
  (fp_arc (start -1.15 1.075) (end -1.15 1.825) (angle 90.000000) (layer F.Fab) (width 0.1))
  (fp_arc (start -0.65 -2.125) (end -0.9 -2.125) (angle 90.000000) (layer F.Fab) (width 0.1))
  (fp_arc (start 6.9 -2.125) (end 6.9 -2.375) (angle 90.000000) (layer F.Fab) (width 0.1))
  (fp_arc (start 6.9 1.175) (end 7.15 1.175) (angle 90.000000) (layer F.Fab) (width 0.1))
  (fp_arc (start -0.65 1.175) (end -0.65 1.425) (angle 90.000000) (layer F.Fab) (width 0.1))
  (fp_circle (center -2.25 1.5) (end -2 1.5) (layer F.SilkS) (width 0.15))
  (fp_line (start -1.15 -3.075) (end 7.4 -3.075) (layer F.SilkS) (width 0.12))
  (fp_line (start -1.15 1.825) (end 7.4 1.825) (layer F.SilkS) (width 0.12))
  (fp_line (start -0.65 1.425) (end 0.35 1.425) (layer F.SilkS) (width 0.12))
  (fp_line (start 0.35 1.425) (end 0.35 1.125) (layer F.SilkS) (width 0.12))
  (fp_line (start 0.35 1.125) (end 5.9 1.125) (layer F.SilkS) (width 0.12))
  (fp_line (start 5.9 1.125) (end 5.9 1.425) (layer F.SilkS) (width 0.12))
  (fp_line (start 5.9 1.425) (end 6.9 1.425) (layer F.SilkS) (width 0.12))
  (fp_line (start -0.65 -2.375) (end 2.5 -2.375) (layer F.SilkS) (width 0.12))
  (fp_line (start 2.5 -2.375) (end 2.5 -2.675) (layer F.SilkS) (width 0.12))
  (fp_line (start 2.5 -2.675) (end 3.75 -2.675) (layer F.SilkS) (width 0.12))
  (fp_line (start 3.75 -2.675) (end 3.75 -2.375) (layer F.SilkS) (width 0.12))
  (fp_line (start 3.75 -2.375) (end 6.9 -2.375) (layer F.SilkS) (width 0.12))
  (fp_line (start -1.9 -2.325) (end -1.9 -2.125) (layer F.SilkS) (width 0.12))
  (fp_line (start -1.9 -2.125) (end -0.9 -2.125) (layer F.SilkS) (width 0.12))
  (fp_line (start -0.9 -2.125) (end -0.9 -2.125) (layer F.SilkS) (width 0.12))
  (fp_line (start 8.15 -2.325) (end 8.15 -2.125) (layer F.SilkS) (width 0.12))
  (fp_line (start 8.15 -2.125) (end 7.15 -2.125) (layer F.SilkS) (width 0.12))
  (fp_line (start 7.15 -2.125) (end 7.15 -2.125) (layer F.SilkS) (width 0.12))
  (fp_line (start 8.15 1.075) (end 8.15 0.875) (layer F.SilkS) (width 0.12))
  (fp_line (start 8.15 0.875) (end 7.15 0.875) (layer F.SilkS) (width 0.12))
  (fp_line (start 7.15 0.875) (end 7.15 0.875) (layer F.SilkS) (width 0.12))
  (fp_line (start -1.9 1.075) (end -1.9 0.875) (layer F.SilkS) (width 0.12))
  (fp_line (start -1.9 0.875) (end -0.9 0.875) (layer F.SilkS) (width 0.12))
  (fp_line (start -0.9 0.875) (end -0.9 0.875) (layer F.SilkS) (width 0.12))
  (fp_line (start -0.9 1.175) (end -0.9 0.875) (layer F.SilkS) (width 0.12))
  (fp_line (start 7.15 1.175) (end 7.15 0.875) (layer F.SilkS) (width 0.12))
  (fp_line (start -1.15 -3.075) (end 7.4 -3.075) (layer F.Fab) (width 0.1))
  (fp_line (start -1.15 1.825) (end 7.4 1.825) (layer F.Fab) (width 0.1))
  (fp_line (start -0.65 1.425) (end 0.35 1.425) (layer F.Fab) (width 0.1))
  (fp_line (start 0.35 1.425) (end 0.35 1.125) (layer F.Fab) (width 0.1))
  (fp_line (start 0.35 1.125) (end 5.9 1.125) (layer F.Fab) (width 0.1))
  (fp_line (start 5.9 1.125) (end 5.9 1.425) (layer F.Fab) (width 0.1))
  (fp_line (start 5.9 1.425) (end 6.9 1.425) (layer F.Fab) (width 0.1))
  (fp_line (start -0.65 -2.375) (end 2.5 -2.375) (layer F.Fab) (width 0.1))
  (fp_line (start 2.5 -2.375) (end 2.5 -2.675) (layer F.Fab) (width 0.1))
  (fp_line (start 2.5 -2.675) (end 3.75 -2.675) (layer F.Fab) (width 0.1))
  (fp_line (start 3.75 -2.675) (end 3.75 -2.375) (layer F.Fab) (width 0.1))
  (fp_line (start 3.75 -2.375) (end 6.9 -2.375) (layer F.Fab) (width 0.1))
  (fp_line (start -1.9 -2.325) (end -1.9 -2.125) (layer F.Fab) (width 0.1))
  (fp_line (start -1.9 -2.125) (end -0.9 -2.125) (layer F.Fab) (width 0.1))
  (fp_line (start -0.9 -2.125) (end -0.9 -2.125) (layer F.Fab) (width 0.1))
  (fp_line (start 8.15 -2.325) (end 8.15 -2.125) (layer F.Fab) (width 0.1))
  (fp_line (start 8.15 -2.125) (end 7.15 -2.125) (layer F.Fab) (width 0.1))
  (fp_line (start 7.15 -2.125) (end 7.15 -2.125) (layer F.Fab) (width 0.1))
  (fp_line (start 8.15 1.075) (end 8.15 0.875) (layer F.Fab) (width 0.1))
  (fp_line (start 8.15 0.875) (end 7.15 0.875) (layer F.Fab) (width 0.1))
  (fp_line (start 7.15 0.875) (end 7.15 0.875) (layer F.Fab) (width 0.1))
  (fp_line (start -1.9 1.075) (end -1.9 0.875) (layer F.Fab) (width 0.1))
  (fp_line (start -1.9 0.875) (end -0.9 0.875) (layer F.Fab) (width 0.1))
  (fp_line (start -0.9 0.875) (end -0.9 0.875) (layer F.Fab) (width 0.1))
  (fp_line (start -0.9 1.175) (end -0.9 0.875) (layer F.Fab) (width 0.1))
  (fp_line (start 7.15 1.175) (end 7.15 0.875) (layer F.Fab) (width 0.1))
  (fp_line (start -2.4 -3.58) (end -2.4 -2.58) (layer F.CrtYd) (width 0.05))
  (fp_line (start -2.4 -2.58) (end 8.65 -2.58) (layer F.CrtYd) (width 0.05))
  (fp_line (start 8.65 -2.58) (end 8.65 -3.58) (layer F.CrtYd) (width 0.05))
  (fp_line (start 8.65 -3.58) (end -2.4 -3.58) (layer F.CrtYd) (width 0.05))
  (fp_line (start 0 0.25) (end -0.3 0.85) (layer F.Fab) (width 0.1))
  (fp_line (start -0.3 0.85) (end 0.3 0.85) (layer F.Fab) (width 0.1))
  (fp_line (start 0.3 0.85) (end 0 0.25) (layer F.Fab) (width 0.1))
  (pad 1 thru_hole rect (at 0 0) (size 0.95 0.95) (drill 0.55) (layers *.Cu *.Mask))
  (pad 3 thru_hole circle (at 1.25 0) (size 0.95 0.95) (drill 0.55) (layers *.Cu *.Mask))
  (pad 5 thru_hole circle (at 2.5 0) (size 0.95 0.95) (drill 0.55) (layers *.Cu *.Mask))
  (pad 7 thru_hole circle (at 3.75 0) (size 0.95 0.95) (drill 0.55) (layers *.Cu *.Mask))
  (pad 9 thru_hole circle (at 5 0) (size 0.95 0.95) (drill 0.55) (layers *.Cu *.Mask))
  (pad 11 thru_hole circle (at 6.25 0) (size 0.95 0.95) (drill 0.55) (layers *.Cu *.Mask))
  (pad 2 thru_hole circle (at 0 -1.25) (size 0.95 0.95) (drill 0.55) (layers *.Cu *.Mask))
  (pad 4 thru_hole circle (at 1.25 -1.25) (size 0.95 0.95) (drill 0.55) (layers *.Cu *.Mask))
  (pad 6 thru_hole circle (at 2.5 -1.25) (size 0.95 0.95) (drill 0.55) (layers *.Cu *.Mask))
  (pad 8 thru_hole circle (at 3.75 -1.25) (size 0.95 0.95) (drill 0.55) (layers *.Cu *.Mask))
  (pad 10 thru_hole circle (at 5 -1.25) (size 0.95 0.95) (drill 0.55) (layers *.Cu *.Mask))
  (pad 12 thru_hole circle (at 6.25 -1.25) (size 0.95 0.95) (drill 0.55) (layers *.Cu *.Mask))
  (fp_text user %R (at 3.125 0) (layer F.Fab)
    (effects (font (size 1 1) (thickness 0.15)))
  )
  (model ${KIPRJMOD}/kicad_libs_k/models_k.3d/Connector_Harwin_k.3dshapes/Harwin_Gecko-G125-MVX1205L0X_2x06_P1.25mm_Vertical_k.wrl
    (at (xyz 0 0 0))
    (scale (xyz 1 1 1))
    (rotate (xyz 0 0 0))
  )
)