(module PQFN_8x8 (layer F.Cu) (tedit 5A70F87D)
  (descr "Low profile 8x8mm PQFN package e.g. https://www.fairchildsemi.com/datasheets/FD/FDMT80080DC.pdf")
  (tags "pqfn vdfn mosfet")
  (attr smd)
  (fp_text reference REF** (at 0 -4.9) (layer F.SilkS)
    (effects (font (size 1 1) (thickness 0.15)))
  )
  (fp_text value PQFN_8x8 (at 0 5) (layer F.Fab)
    (effects (font (size 1 1) (thickness 0.15)))
  )
  (fp_text user %R (at 0 0) (layer F.Fab)
    (effects (font (size 1 1) (thickness 0.15)))
  )
  (fp_line (start 4 -4) (end 4 4) (layer F.Fab) (width 0.1))
  (fp_line (start 4 4) (end -4 4) (layer F.Fab) (width 0.1))
  (fp_line (start -4 4) (end -4 -3) (layer F.Fab) (width 0.1))
  (fp_line (start -3 -4) (end 4 -4) (layer F.Fab) (width 0.1))
  (fp_line (start -3 -4) (end -4 -3) (layer F.Fab) (width 0.1))
  (fp_line (start 4.1 -3.85) (end 4.1 -4.1) (layer F.SilkS) (width 0.12))
  (fp_line (start 4.1 -4.1) (end -3.95 -4.1) (layer F.SilkS) (width 0.12))
  (fp_line (start 3.5 4.1) (end -3.5 4.1) (layer F.SilkS) (width 0.12))
  (fp_line (start 5 4.25) (end -5 4.25) (layer F.CrtYd) (width 0.05))
  (fp_line (start -5 4.25) (end -5 -4.25) (layer F.CrtYd) (width 0.05))
  (fp_line (start -5 -4.25) (end 5 -4.25) (layer F.CrtYd) (width 0.05))
  (fp_line (start 5 -4.25) (end 5 4.25) (layer F.CrtYd) (width 0.05))
  (fp_line (start 0 0.25) (end 0 -0.25) (layer F.Fab) (width 0.1))
  (fp_line (start 0.25 0) (end -0.25 0) (layer F.Fab) (width 0.1))
  (fp_circle (center 0 0) (end 0 0.25) (layer F.Fab) (width 0.1))
  (pad 1 smd rect (at -3.94 -3 270) (size 1.1 1.15) (layers F.Cu F.Paste F.Mask))
  (pad 2 smd rect (at -3.94 -1 270) (size 1.1 1.15) (layers F.Cu F.Paste F.Mask))
  (pad 2 smd rect (at -3.94 1 270) (size 1.1 1.15) (layers F.Cu F.Paste F.Mask))
  (pad 2 smd rect (at -3.94 3 270) (size 1.1 1.15) (layers F.Cu F.Paste F.Mask))
  (pad 2 smd rect (at -3.62 1 270) (size 5.1 0.5) (layers F.Cu F.Paste F.Mask))
  (pad 3 smd rect (at 3.94 -3 270) (size 1.1 1.15) (layers F.Cu F.Paste F.Mask))
  (pad 3 smd rect (at 3.94 -1 270) (size 1.1 1.15) (layers F.Cu F.Paste F.Mask))
  (pad 3 smd rect (at 3.94 1 270) (size 1.1 1.15) (layers F.Cu F.Paste F.Mask))
  (pad 3 smd rect (at 3.94 3 270) (size 1.1 1.15) (layers F.Cu F.Paste F.Mask))
  (pad 3 smd rect (at 0.78 0 270) (size 6.9 5.23) (layers F.Cu F.Mask))
  (pad "" smd rect (at 2 -2.25 270) (size 1.5 1.5) (layers F.Paste))
  (pad "" smd rect (at 2 2.25 270) (size 1.5 1.5) (layers F.Paste))
  (pad "" smd rect (at 2 0 270) (size 1.5 1.5) (layers F.Paste))
  (pad "" smd rect (at -0.5 -2.25 270) (size 1.5 1.5) (layers F.Paste))
  (pad "" smd rect (at -0.5 0 270) (size 1.5 1.5) (layers F.Paste))
  (pad "" smd rect (at -0.5 2.25 270) (size 1.5 1.5) (layers F.Paste))
  (model ${KIPRJMOD}/kicad_libs_k/models_k.3d/Package_TO_SOT_SMD_k.3dshapes/PQFN_8x8_k.wrl
    (at (xyz 0 0 0))
    (scale (xyz 1 1 1))
    (rotate (xyz 0 0 0))
  )
)
