(module SC-59 (layer F.Cu) (tedit 5A02FF57)
  (descr "SC-59, https://lib.chipdip.ru/images/import_diod/original/SOT-23_SC-59.jpg")
  (tags SC-59)
  (attr smd)
  (fp_text reference REF** (at 0 -2.5) (layer F.SilkS)
    (effects (font (size 1 1) (thickness 0.15)))
  )
  (fp_text value SC-59 (at 0 2.5) (layer F.Fab)
    (effects (font (size 1 1) (thickness 0.15)))
  )
  (fp_text user %R (at 0 0 90) (layer F.Fab)
    (effects (font (size 0.5 0.5) (thickness 0.075)))
  )
  (fp_line (start -0.85 1.55) (end -0.85 -1) (layer F.Fab) (width 0.1))
  (fp_line (start -1.45 -1.65) (end 0.95 -1.65) (layer F.SilkS) (width 0.12))
  (fp_line (start 0.95 -1.65) (end 0.95 -0.6) (layer F.SilkS) (width 0.12))
  (fp_line (start -0.85 1.65) (end 0.95 1.65) (layer F.SilkS) (width 0.12))
  (fp_line (start 0.95 1.65) (end 0.95 0.6) (layer F.SilkS) (width 0.12))
  (fp_line (start -0.85 1.55) (end 0.85 1.55) (layer F.Fab) (width 0.1))
  (fp_line (start -0.3 -1.55) (end -0.85 -1) (layer F.Fab) (width 0.1))
  (fp_line (start -0.3 -1.55) (end 0.85 -1.55) (layer F.Fab) (width 0.1))
  (fp_line (start 0.85 -1.52) (end 0.85 1.52) (layer F.Fab) (width 0.1))
  (fp_line (start -1.9 -1.8) (end 1.9 -1.8) (layer F.CrtYd) (width 0.05))
  (fp_line (start -1.9 -1.8) (end -1.9 1.8) (layer F.CrtYd) (width 0.05))
  (fp_line (start 1.9 1.8) (end 1.9 -1.8) (layer F.CrtYd) (width 0.05))
  (fp_line (start 1.9 1.8) (end -1.9 1.8) (layer F.CrtYd) (width 0.05))
  (pad 1 smd rect (at -1.2 -0.95) (size 0.9 0.8) (layers F.Cu F.Paste F.Mask))
  (pad 2 smd rect (at -1.2 0.95) (size 0.9 0.8) (layers F.Cu F.Paste F.Mask))
  (pad 3 smd rect (at 1.2 0) (size 0.9 0.8) (layers F.Cu F.Paste F.Mask))
  (model ${KIPRJMOD}/kicad_libs_k/models_k.3d/Package_TO_SOT_SMD_k.3dshapes/SC-59_k.wrl
    (at (xyz 0 0 0))
    (scale (xyz 1 1 1))
    (rotate (xyz 0 0 0))
  )
)
