(module SOT-143 (layer F.Cu) (tedit 5A02FF57)
  (descr SOT-143)
  (tags SOT-143)
  (attr smd)
  (fp_text reference REF** (at 0.02 -2.38) (layer F.SilkS)
    (effects (font (size 1 1) (thickness 0.15)))
  )
  (fp_text value SOT-143 (at -0.28 2.48) (layer F.Fab)
    (effects (font (size 1 1) (thickness 0.15)))
  )
  (fp_text user %R (at 0 0 90) (layer F.Fab)
    (effects (font (size 0.5 0.5) (thickness 0.075)))
  )
  (fp_line (start -1.2 1.55) (end 1.2 1.55) (layer F.SilkS) (width 0.12))
  (fp_line (start 1.2 -1.55) (end -1.75 -1.55) (layer F.SilkS) (width 0.12))
  (fp_line (start -1.2 -1) (end -0.7 -1.5) (layer F.Fab) (width 0.1))
  (fp_line (start -0.7 -1.5) (end 1.2 -1.5) (layer F.Fab) (width 0.1))
  (fp_line (start -1.2 1.5) (end -1.2 -1) (layer F.Fab) (width 0.1))
  (fp_line (start 1.2 1.5) (end -1.2 1.5) (layer F.Fab) (width 0.1))
  (fp_line (start 1.2 -1.5) (end 1.2 1.5) (layer F.Fab) (width 0.1))
  (fp_line (start 2.05 -1.75) (end 2.05 1.75) (layer F.CrtYd) (width 0.05))
  (fp_line (start 2.05 -1.75) (end -2.05 -1.75) (layer F.CrtYd) (width 0.05))
  (fp_line (start -2.05 1.75) (end 2.05 1.75) (layer F.CrtYd) (width 0.05))
  (fp_line (start -2.05 1.75) (end -2.05 -1.75) (layer F.CrtYd) (width 0.05))
  (pad 1 smd rect (at -1.1 -0.77 270) (size 1.2 1.4) (layers F.Cu F.Paste F.Mask))
  (pad 2 smd rect (at -1.1 0.95 270) (size 1 1.4) (layers F.Cu F.Paste F.Mask))
  (pad 3 smd rect (at 1.1 0.95 270) (size 1 1.4) (layers F.Cu F.Paste F.Mask))
  (pad 4 smd rect (at 1.1 -0.95 270) (size 1 1.4) (layers F.Cu F.Paste F.Mask))
  (model ${KIPRJMOD}/kicad_libs_k/models_k.3d/Package_TO_SOT_SMD_k.3dshapes/SOT-143_k.wrl
    (at (xyz 0 0 0))
    (scale (xyz 1 1 1))
    (rotate (xyz 0 0 0))
  )
)
