(module SOT-223-5 (layer F.Cu) (tedit 5A02FF57)
  (descr "module CMS SOT223 5 pins, http://ww1.microchip.com/downloads/en/DeviceDoc/51751a.pdf")
  (tags "CMS SOT")
  (attr smd)
  (fp_text reference REF** (at 0.0625 -4.5) (layer F.SilkS)
    (effects (font (size 1 1) (thickness 0.15)))
  )
  (fp_text value SOT-223-5 (at 0.0625 4.5) (layer F.Fab)
    (effects (font (size 1 1) (thickness 0.15)))
  )
  (fp_text user %R (at 0 0 90) (layer F.Fab)
    (effects (font (size 0.8 0.8) (thickness 0.12)))
  )
  (fp_line (start -1.7875 -2.3) (end -0.7375 -3.35) (layer F.Fab) (width 0.1))
  (fp_line (start 1.9725 3.41) (end 1.9725 2.15) (layer F.SilkS) (width 0.12))
  (fp_line (start 1.9725 -3.41) (end 1.9725 -2.15) (layer F.SilkS) (width 0.12))
  (fp_line (start -1.7875 -2.3) (end -1.7875 3.35) (layer F.Fab) (width 0.1))
  (fp_line (start -1.7875 3.41) (end 1.9725 3.41) (layer F.SilkS) (width 0.12))
  (fp_line (start -0.7375 -3.35) (end 1.9125 -3.35) (layer F.Fab) (width 0.1))
  (fp_line (start -4.0375 -3.41) (end 1.9725 -3.41) (layer F.SilkS) (width 0.12))
  (fp_line (start -1.7875 3.35) (end 1.9125 3.35) (layer F.Fab) (width 0.1))
  (fp_line (start 1.9125 -3.35) (end 1.9125 3.35) (layer F.Fab) (width 0.1))
  (fp_line (start -4.4 -3.6) (end 4.4 -3.6) (layer F.CrtYd) (width 0.05))
  (fp_line (start -4.4 -3.6) (end -4.4 3.6) (layer F.CrtYd) (width 0.05))
  (fp_line (start 4.4 3.6) (end 4.4 -3.6) (layer F.CrtYd) (width 0.05))
  (fp_line (start 4.4 3.6) (end -4.4 3.6) (layer F.CrtYd) (width 0.05))
  (pad 4 smd rect (at -3.05 2.25) (size 2.2 1) (layers F.Cu F.Paste F.Mask))
  (pad 2 smd rect (at -3.05 -0.75) (size 2.2 1) (layers F.Cu F.Paste F.Mask))
  (pad 5 smd rect (at 3.25 0) (size 1.8 3.4) (layers F.Cu F.Paste F.Mask))
  (pad 3 smd rect (at -3.05 0.75) (size 2.2 1) (layers F.Cu F.Paste F.Mask))
  (pad 1 smd rect (at -3.05 -2.25) (size 2.2 1) (layers F.Cu F.Paste F.Mask))
  (model ${KIPRJMOD}/kicad_libs_k/models_k.3d/Package_TO_SOT_SMD_k.3dshapes/SOT-223-5_k.wrl
    (at (xyz 0 0 0))
    (scale (xyz 1 1 1))
    (rotate (xyz 0 0 0))
  )
)
