(module SOT-669_LFPAK_ThermalVias-2 (layer F.Cu) (tedit 5A70FDB1)
  (descr "LFPAK https://assets.nexperia.com/documents/leaflet/939775016838_LR.pdf")
  (tags "LFPAK SOT669 Thermical Vias Power-SO8")
  (solder_mask_margin 0.07)
  (solder_paste_margin -0.05)
  (attr smd)
  (fp_text reference REF** (at 1.085 -5.26) (layer F.SilkS)
    (effects (font (size 1 1) (thickness 0.15)))
  )
  (fp_text value SOT-669_LFPAK_ThermalVias-2 (at 1.085 5.58) (layer F.Fab)
    (effects (font (size 1 1) (thickness 0.15)))
  )
  (fp_text user %R (at 0 0 90) (layer F.Fab)
    (effects (font (size 1 1) (thickness 0.15)))
  )
  (fp_line (start -2.355 -2.6) (end -1.205 -2.6) (layer F.SilkS) (width 0.12))
  (fp_line (start -2.355 2.6) (end -1.155 2.6) (layer F.SilkS) (width 0.12))
  (fp_line (start -2.345 2.4) (end -2.345 2.6) (layer F.SilkS) (width 0.12))
  (fp_line (start -2.345 -2.6) (end -2.345 -2.4) (layer F.SilkS) (width 0.12))
  (fp_line (start -2.245 1.7) (end -3.245 1.7) (layer F.Fab) (width 0.1))
  (fp_line (start -3.245 1.7) (end -3.245 2.15) (layer F.Fab) (width 0.1))
  (fp_line (start -3.245 2.15) (end -2.245 2.15) (layer F.Fab) (width 0.1))
  (fp_line (start -2.245 0.4) (end -3.245 0.4) (layer F.Fab) (width 0.1))
  (fp_line (start -3.245 0.4) (end -3.245 0.85) (layer F.Fab) (width 0.1))
  (fp_line (start -3.245 0.85) (end -2.245 0.85) (layer F.Fab) (width 0.1))
  (fp_line (start -2.245 -0.85) (end -3.245 -0.85) (layer F.Fab) (width 0.1))
  (fp_line (start -3.245 -0.85) (end -3.245 -0.4) (layer F.Fab) (width 0.1))
  (fp_line (start -3.245 -0.4) (end -2.245 -0.4) (layer F.Fab) (width 0.1))
  (fp_line (start -3.245 -2.15) (end -3.245 -1.65) (layer F.Fab) (width 0.1))
  (fp_line (start -3.245 -2.15) (end -2.245 -2.15) (layer F.Fab) (width 0.1))
  (fp_line (start -3.245 -1.65) (end -2.245 -1.65) (layer F.Fab) (width 0.1))
  (fp_line (start 3.155 -2.2) (end 3.155 2.2) (layer F.Fab) (width 0.1))
  (fp_line (start 3.155 2.2) (end 1.855 2.2) (layer F.Fab) (width 0.1))
  (fp_line (start 3.155 -2.2) (end 1.855 -2.2) (layer F.Fab) (width 0.1))
  (fp_line (start 1.855 -2.5) (end -2.245 -2.5) (layer F.Fab) (width 0.1))
  (fp_line (start -2.245 -2.5) (end -2.245 2.5) (layer F.Fab) (width 0.1))
  (fp_line (start -2.245 2.5) (end 1.855 2.5) (layer F.Fab) (width 0.1))
  (fp_line (start 1.855 2.5) (end 1.855 -2.5) (layer F.Fab) (width 0.1))
  (fp_line (start 5.75 -4.75) (end 5.75 4.75) (layer F.CrtYd) (width 0.05))
  (fp_line (start 5.75 -4.75) (end -3.66 -4.75) (layer F.CrtYd) (width 0.05))
  (fp_line (start -3.66 4.75) (end 5.75 4.75) (layer F.CrtYd) (width 0.05))
  (fp_line (start -3.66 4.75) (end -3.66 -4.75) (layer F.CrtYd) (width 0.05))
  (pad 5 smd rect (at 2.245 0 270) (size 9 6.5) (layers B.Cu))
  (pad 5 thru_hole rect (at 3.995 -3.5 270) (size 1.5 1.5) (drill 1) (layers *.Cu))
  (pad 5 thru_hole rect (at 3.995 3.5 270) (size 1.5 1.5) (drill 1) (layers *.Cu))
  (pad 5 thru_hole rect (at 1.995 3.5 270) (size 1.5 1.5) (drill 1) (layers *.Cu))
  (pad 5 thru_hole rect (at -0.005 3.5 270) (size 1.5 1.5) (drill 1) (layers *.Cu))
  (pad 5 thru_hole rect (at 1.995 -3.5 270) (size 1.5 1.5) (drill 1) (layers *.Cu))
  (pad 5 thru_hole rect (at 4.745 1.75 270) (size 1.5 1.5) (drill 1) (layers *.Cu))
  (pad 5 thru_hole rect (at 4.745 -1.75 270) (size 1.5 1.5) (drill 1) (layers *.Cu))
  (pad 5 thru_hole rect (at -0.005 -3.5 270) (size 1.5 1.5) (drill 1) (layers *.Cu))
  (pad "" smd rect (at 0.195 -1.15) (size 0.6 0.9) (layers F.Paste))
  (pad "" smd rect (at -0.655 -1.15) (size 0.6 0.9) (layers F.Paste))
  (pad "" smd rect (at 1.045 -1.15) (size 0.6 0.9) (layers F.Paste))
  (pad "" smd rect (at 0.195 1.15) (size 0.6 0.9) (layers F.Paste))
  (pad "" smd rect (at -0.655 1.15) (size 0.6 0.9) (layers F.Paste))
  (pad "" smd rect (at 1.045 1.15) (size 0.6 0.9) (layers F.Paste))
  (pad "" smd rect (at 1.045 0) (size 0.6 0.9) (layers F.Paste))
  (pad "" smd rect (at -0.655 0) (size 0.6 0.9) (layers F.Paste))
  (pad "" smd rect (at 2.895 -1.88 270) (size 0.6 0.9) (layers F.Paste))
  (pad "" smd rect (at 2.895 1.88 270) (size 0.6 0.9) (layers F.Paste))
  (pad "" smd rect (at 2.895 -0.6 270) (size 0.6 0.9) (layers F.Paste))
  (pad 2 smd rect (at -2.835 -0.64 270) (size 0.7 1.15) (layers F.Cu F.Paste F.Mask)
    (solder_mask_margin 0.07) (solder_paste_margin -0.05))
  (pad 1 smd rect (at -2.835 -1.91 270) (size 0.7 1.15) (layers F.Cu F.Paste F.Mask)
    (solder_mask_margin 0.07) (solder_paste_margin -0.05))
  (pad 3 smd rect (at -2.835 0.64 270) (size 0.7 1.15) (layers F.Cu F.Paste F.Mask)
    (solder_mask_margin 0.07) (solder_paste_margin -0.05))
  (pad 5 smd rect (at 2.645 0 270) (size 4.7 1.55) (layers F.Cu F.Mask)
    (solder_mask_margin 0.07))
  (pad 5 smd rect (at 0.445 0 270) (size 4.2 3.3) (layers F.Cu F.Mask)
    (solder_mask_margin 0.07))
  (pad 4 smd rect (at -2.835 1.91 270) (size 0.7 1.15) (layers F.Cu F.Paste F.Mask)
    (solder_mask_margin 0.07) (solder_paste_margin -0.05))
  (pad "" smd rect (at 2.895 0.6 270) (size 0.6 0.9) (layers F.Paste))
  (pad "" smd rect (at 0.195 0) (size 0.6 0.9) (layers F.Paste))
  (pad 5 smd rect (at 2.245 0 270) (size 9 6.5) (layers F.Cu))
  (pad 5 thru_hole rect (at 4.745 0 270) (size 1.5 1.5) (drill 1) (layers *.Cu))
  (model ${KIPRJMOD}/kicad_libs_k/models_k.3d/Package_TO_SOT_SMD_k.3dshapes/SOT-669_LFPAK_k.wrl
    (at (xyz 0 0 0))
    (scale (xyz 1 1 1))
    (rotate (xyz 0 0 0))
  )
)
