(module TO-50-3_ShortPad-WithHole_Housing (layer F.Cu) (tedit 5A02FF57)
  (descr "TO-50-3 Macro T Package Style M236")
  (tags "TO-50-3 Macro T Package Style M236")
  (attr smd)
  (fp_text reference REF** (at -0.4 -6.375) (layer F.SilkS)
    (effects (font (size 1 1) (thickness 0.15)))
  )
  (fp_text value TO-50-3_ShortPad-WithHole_Housing (at 16.375 0.425) (layer F.Fab)
    (effects (font (size 1 1) (thickness 0.15)))
  )
  (fp_text user %R (at -0.4 -2.6) (layer F.Fab)
    (effects (font (size 1 1) (thickness 0.15)))
  )
  (fp_line (start -1.6 5.2) (end -1.6 0.6) (layer F.CrtYd) (width 0.05))
  (fp_line (start 0.8 0.6) (end 0.8 5.2) (layer F.CrtYd) (width 0.05))
  (fp_line (start 2.8 -3.8) (end 8.8 -3.8) (layer F.CrtYd) (width 0.05))
  (fp_line (start 8.8 -1.4) (end 2.8 -1.4) (layer F.CrtYd) (width 0.05))
  (fp_line (start -3.6 -3.8) (end -8 -3.8) (layer F.CrtYd) (width 0.05))
  (fp_line (start -8 -1.4) (end -3.6 -1.4) (layer F.CrtYd) (width 0.05))
  (fp_line (start -3.6 -3.8) (end -1.6 -5.8) (layer F.CrtYd) (width 0.05))
  (fp_line (start -1.6 -5.8) (end 0.8 -5.8) (layer F.CrtYd) (width 0.05))
  (fp_line (start 0.8 -5.8) (end 2.8 -3.8) (layer F.CrtYd) (width 0.05))
  (fp_line (start 8.8 -3.8) (end 8.8 -1.4) (layer F.CrtYd) (width 0.05))
  (fp_line (start 2.8 -1.4) (end 0.8 0.6) (layer F.CrtYd) (width 0.05))
  (fp_line (start 0.8 5.2) (end -1.6 5.2) (layer F.CrtYd) (width 0.05))
  (fp_line (start -1.6 0.6) (end -3.6 -1.4) (layer F.CrtYd) (width 0.05))
  (fp_line (start -8 -1.4) (end -8 -3.8) (layer F.CrtYd) (width 0.05))
  (fp_circle (center -0.4 -2.6) (end -0.35 -5.15) (layer F.Fab) (width 0.1))
  (pad 1 smd rect (at -5.6 -2.6 270) (size 1.5 4) (layers F.Cu F.Paste F.Mask))
  (pad 2 smd rect (at -0.4 2.6 270) (size 4 1.5) (layers F.Cu F.Paste F.Mask))
  (pad 3 smd rect (at 5.6 -2.6 270) (size 1.5 5.5) (layers F.Cu F.Paste F.Mask))
  (pad "" np_thru_hole circle (at -0.4 -2.6 270) (size 5.5 5.5) (drill 5.5) (layers *.Cu *.Mask))
  (model ${KIPRJMOD}/kicad_libs_k/models_k.3d/Package_TO_SOT_SMD_k.3dshapes/TO-50-3_ShortPad-WithHole_Housing_k.wrl
    (at (xyz 0 0 0))
    (scale (xyz 1 1 1))
    (rotate (xyz 0 0 0))
  )
)
