(module TSOT-23-6_HandSoldering (layer F.Cu) (tedit 5A02FF57)
  (descr "6-pin TSOT23 package, http://cds.linear.com/docs/en/packaging/SOT_6_05-08-1636.pdf")
  (tags "TSOT-23-6 MK06A TSOT-6 Hand-soldering")
  (attr smd)
  (fp_text reference REF** (at 0 -2.45) (layer F.SilkS)
    (effects (font (size 1 1) (thickness 0.15)))
  )
  (fp_text value TSOT-23-6_HandSoldering (at 0 2.5) (layer F.Fab)
    (effects (font (size 1 1) (thickness 0.15)))
  )
  (fp_text user %R (at 0 0 90) (layer F.Fab)
    (effects (font (size 0.5 0.5) (thickness 0.075)))
  )
  (fp_line (start -0.88 1.56) (end 0.88 1.56) (layer F.SilkS) (width 0.12))
  (fp_line (start 0.88 -1.51) (end -1.55 -1.51) (layer F.SilkS) (width 0.12))
  (fp_line (start -0.88 -1) (end -0.43 -1.45) (layer F.Fab) (width 0.1))
  (fp_line (start 0.88 -1.45) (end -0.43 -1.45) (layer F.Fab) (width 0.1))
  (fp_line (start -0.88 -1) (end -0.88 1.45) (layer F.Fab) (width 0.1))
  (fp_line (start 0.88 1.45) (end -0.88 1.45) (layer F.Fab) (width 0.1))
  (fp_line (start 0.88 -1.45) (end 0.88 1.45) (layer F.Fab) (width 0.1))
  (fp_line (start -2.96 -1.7) (end 2.96 -1.7) (layer F.CrtYd) (width 0.05))
  (fp_line (start -2.96 -1.7) (end -2.96 1.7) (layer F.CrtYd) (width 0.05))
  (fp_line (start 2.96 1.7) (end 2.96 -1.7) (layer F.CrtYd) (width 0.05))
  (fp_line (start 2.96 1.7) (end -2.96 1.7) (layer F.CrtYd) (width 0.05))
  (pad 1 smd rect (at -1.71 -0.95) (size 2 0.65) (layers F.Cu F.Paste F.Mask))
  (pad 2 smd rect (at -1.71 0) (size 2 0.65) (layers F.Cu F.Paste F.Mask))
  (pad 3 smd rect (at -1.71 0.95) (size 2 0.65) (layers F.Cu F.Paste F.Mask))
  (pad 4 smd rect (at 1.71 0.95) (size 2 0.65) (layers F.Cu F.Paste F.Mask))
  (pad 5 smd rect (at 1.71 0) (size 2 0.65) (layers F.Cu F.Paste F.Mask))
  (pad 6 smd rect (at 1.71 -0.95) (size 2 0.65) (layers F.Cu F.Paste F.Mask))
  (model ${KIPRJMOD}/kicad_libs_k/models_k.3d/Package_TO_SOT_SMD_k.3dshapes/TSOT-23-6_k.wrl
    (at (xyz 0 0 0))
    (scale (xyz 1 1 1))
    (rotate (xyz 0 0 0))
  )
)
