(module microSD_HC_Hirose_DM3D-SF (layer F.Cu) (tedit 5A1DBFB5)
  (descr "Micro SD, SMD, right-angle, push-pull (https://media.digikey.com/PDF/Data%20Sheets/Hirose%20PDFs/DM3D-SF.pdf)")
  (tags "Micro SD")
  (attr smd)
  (fp_text reference REF** (at -0.025 -7.625) (layer F.SilkS)
    (effects (font (size 1 1) (thickness 0.15)))
  )
  (fp_text value microSD_HC_Hirose_DM3D-SF (at -0.025 6.975) (layer F.Fab)
    (effects (font (size 1 1) (thickness 0.15)))
  )
  (fp_text user KEEPOUT (at -0.275 -0.525) (layer Cmts.User)
    (effects (font (size 1 1) (thickness 0.1)))
  )
  (fp_text user %R (at -0.025 1.475) (layer F.Fab)
    (effects (font (size 1 1) (thickness 0.1)))
  )
  (fp_text user KEEPOUT (at -0.725 -4.8) (layer Cmts.User)
    (effects (font (size 0.4 0.4) (thickness 0.06)))
  )
  (fp_line (start 6.435 -2.075) (end 6.435 4.225) (layer F.SilkS) (width 0.12))
  (fp_line (start -6.435 -1.375) (end -6.435 4.225) (layer F.SilkS) (width 0.12))
  (fp_line (start 6.435 -5.785) (end 6.435 -3.975) (layer F.SilkS) (width 0.12))
  (fp_line (start -6.435 -5.785) (end 4.825 -5.785) (layer F.SilkS) (width 0.12))
  (fp_line (start -6.435 -4.625) (end -6.435 -5.785) (layer F.SilkS) (width 0.12))
  (fp_line (start 5.475 9.575) (end 5.475 5.725) (layer F.Fab) (width 0.1))
  (fp_line (start -5.025 10.075) (end 4.975 10.075) (layer F.Fab) (width 0.1))
  (fp_line (start -5.525 5.725) (end -5.525 9.575) (layer F.Fab) (width 0.1))
  (fp_line (start 5.475 5.725) (end 6.375 5.725) (layer F.Fab) (width 0.1))
  (fp_line (start 5.225 5.475) (end 5.225 4.425) (layer F.Fab) (width 0.1))
  (fp_line (start -5.275 5.475) (end -5.275 4.425) (layer F.Fab) (width 0.1))
  (fp_line (start -6.375 5.725) (end -5.525 5.725) (layer F.Fab) (width 0.1))
  (fp_line (start -4.775 3.925) (end 4.725 3.925) (layer F.Fab) (width 0.1))
  (fp_line (start -5.525 -5.725) (end -5.525 -6.975) (layer F.Fab) (width 0.1))
  (fp_line (start 4.175 -5.725) (end 4.175 -6.975) (layer F.Fab) (width 0.1))
  (fp_line (start -5.525 -6.975) (end 4.175 -6.975) (layer F.Fab) (width 0.1))
  (fp_line (start -0.025 -3.875) (end 0.475 -5.725) (layer Dwgs.User) (width 0.1))
  (fp_line (start -0.025 -5.725) (end -0.525 -3.875) (layer Dwgs.User) (width 0.1))
  (fp_line (start -1.025 -3.875) (end -0.525 -5.725) (layer Dwgs.User) (width 0.1))
  (fp_line (start -1.025 -5.725) (end -1.525 -3.875) (layer Dwgs.User) (width 0.1))
  (fp_line (start -1.925 -3.875) (end -1.525 -5.725) (layer Dwgs.User) (width 0.1))
  (fp_line (start 0.525 -3.875) (end 0.525 -5.725) (layer Dwgs.User) (width 0.1))
  (fp_line (start -1.975 -5.725) (end -1.975 -3.875) (layer Dwgs.User) (width 0.1))
  (fp_line (start -6.375 -5.725) (end 6.375 -5.725) (layer F.Fab) (width 0.1))
  (fp_line (start -3.225 -1.525) (end -2.725 -1.525) (layer Dwgs.User) (width 0.1))
  (fp_line (start -3.925 0.475) (end -3.225 -1.525) (layer Dwgs.User) (width 0.1))
  (fp_line (start -4.225 -1.525) (end -3.725 -1.525) (layer Dwgs.User) (width 0.1))
  (fp_line (start -4.925 0.475) (end -4.225 -1.525) (layer Dwgs.User) (width 0.1))
  (fp_line (start -4.925 -1.525) (end -4.925 0.475) (layer Dwgs.User) (width 0.1))
  (fp_line (start -6.92 6.28) (end -6.92 -6.72) (layer F.CrtYd) (width 0.05))
  (fp_line (start 6.88 6.28) (end -6.92 6.28) (layer F.CrtYd) (width 0.05))
  (fp_line (start 6.88 -6.72) (end 6.88 6.28) (layer F.CrtYd) (width 0.05))
  (fp_line (start -6.92 -6.72) (end 6.88 -6.72) (layer F.CrtYd) (width 0.05))
  (fp_line (start -4.925 -1.525) (end 3.575 -1.525) (layer Dwgs.User) (width 0.1))
  (fp_line (start 0.525 -3.875) (end -1.975 -3.875) (layer Dwgs.User) (width 0.1))
  (fp_line (start -4.925 0.475) (end 3.575 0.475) (layer Dwgs.User) (width 0.1))
  (fp_line (start -6.375 5.725) (end -6.375 -5.725) (layer F.Fab) (width 0.1))
  (fp_line (start -4.425 0.475) (end -3.725 -1.525) (layer Dwgs.User) (width 0.1))
  (fp_line (start -3.425 0.475) (end -2.725 -1.525) (layer Dwgs.User) (width 0.1))
  (fp_line (start -2.925 0.475) (end -2.225 -1.525) (layer Dwgs.User) (width 0.1))
  (fp_line (start -2.425 0.475) (end -1.725 -1.525) (layer Dwgs.User) (width 0.1))
  (fp_line (start -1.925 0.475) (end -1.225 -1.525) (layer Dwgs.User) (width 0.1))
  (fp_line (start -1.425 0.475) (end -0.725 -1.525) (layer Dwgs.User) (width 0.1))
  (fp_line (start -0.925 0.475) (end -0.225 -1.525) (layer Dwgs.User) (width 0.1))
  (fp_line (start -0.425 0.475) (end 0.275 -1.525) (layer Dwgs.User) (width 0.1))
  (fp_line (start 0.075 0.475) (end 0.775 -1.525) (layer Dwgs.User) (width 0.1))
  (fp_line (start 0.575 0.475) (end 1.275 -1.525) (layer Dwgs.User) (width 0.1))
  (fp_line (start 1.075 0.475) (end 1.775 -1.525) (layer Dwgs.User) (width 0.1))
  (fp_line (start 1.575 0.475) (end 2.275 -1.525) (layer Dwgs.User) (width 0.1))
  (fp_line (start 2.075 0.475) (end 2.775 -1.525) (layer Dwgs.User) (width 0.1))
  (fp_line (start 2.575 0.475) (end 3.275 -1.525) (layer Dwgs.User) (width 0.1))
  (fp_line (start 3.075 0.475) (end 3.575 -0.975) (layer Dwgs.User) (width 0.1))
  (fp_line (start 3.575 0.475) (end 3.575 -1.525) (layer Dwgs.User) (width 0.1))
  (fp_line (start 6.375 5.725) (end 6.375 -5.725) (layer F.Fab) (width 0.1))
  (fp_line (start 0.525 -5.725) (end -1.975 -5.725) (layer Dwgs.User) (width 0.1))
  (fp_line (start 6.325 -5.785) (end 6.435 -5.785) (layer F.SilkS) (width 0.12))
  (fp_arc (start 4.975 9.575) (end 5.475 9.575) (angle 90) (layer F.Fab) (width 0.1))
  (fp_arc (start -5.025 9.575) (end -5.025 10.075) (angle 90) (layer F.Fab) (width 0.1))
  (fp_arc (start -4.775 4.425) (end -5.275 4.425) (angle 90) (layer F.Fab) (width 0.1))
  (fp_arc (start -5.525 5.475) (end -5.275 5.475) (angle 90) (layer F.Fab) (width 0.1))
  (fp_arc (start 4.725 4.425) (end 4.725 3.925) (angle 90) (layer F.Fab) (width 0.1))
  (fp_arc (start 5.475 5.475) (end 5.475 5.725) (angle 90) (layer F.Fab) (width 0.1))
  (pad 8 smd rect (at -4.525 5.35) (size 0.7 1.75) (layers F.Cu F.Paste F.Mask))
  (pad 11 smd rect (at -5.725 5.225) (size 1.3 1.5) (layers F.Cu F.Paste F.Mask))
  (pad 11 smd rect (at -5.975 -2.375) (size 0.8 1.5) (layers F.Cu F.Paste F.Mask))
  (pad 9 smd rect (at -5.65 -3.875) (size 1.45 1) (layers F.Cu F.Paste F.Mask))
  (pad 11 smd rect (at 5.975 -3.025) (size 0.8 1.4) (layers F.Cu F.Paste F.Mask))
  (pad 7 smd rect (at -3.425 5.35) (size 0.7 1.75) (layers F.Cu F.Paste F.Mask))
  (pad 6 smd rect (at -2.325 5.35) (size 0.7 1.75) (layers F.Cu F.Paste F.Mask))
  (pad 5 smd rect (at -1.225 5.35) (size 0.7 1.75) (layers F.Cu F.Paste F.Mask))
  (pad 4 smd rect (at -0.125 5.35) (size 0.7 1.75) (layers F.Cu F.Paste F.Mask))
  (pad 3 smd rect (at 0.975 5.35) (size 0.7 1.75) (layers F.Cu F.Paste F.Mask))
  (pad 2 smd rect (at 2.075 5.35) (size 0.7 1.75) (layers F.Cu F.Paste F.Mask))
  (pad 1 smd rect (at 3.175 5.35) (size 0.7 1.75) (layers F.Cu F.Paste F.Mask))
  (pad 11 smd rect (at 5.625 5.225) (size 1.5 1.5) (layers F.Cu F.Paste F.Mask))
  (pad 10 smd rect (at 5.575 -5.45) (size 1 1.55) (layers F.Cu F.Paste F.Mask))
  (model ${KIPRJMOD}/kicad_libs_k/models_k.3d/Connector_Card_k.3dshapes/microSD_HC_Hirose_DM3D-SF_k.wrl
    (at (xyz -0.1781496063 -0.1761811024 0))
    (scale (xyz 1 1 1))
    (rotate (xyz 0 0 0))
  )
)
