(module Texas_S-PVSON-N10 (layer F.Cu) (tedit 5A8E03D4)
  (descr "3x3mm Body, 0.5mm Pitch, S-PVSON-N10, DRC, http://www.ti.com/lit/ds/symlink/tps61201.pdf")
  (tags "0.5 S-PVSON-N10 DRC")
  (attr smd)
  (fp_text reference REF** (at 0 -2.8) (layer F.SilkS)
    (effects (font (size 1 1) (thickness 0.15)))
  )
  (fp_text value Texas_S-PVSON-N10 (at 0 2.9) (layer F.Fab)
    (effects (font (size 1 1) (thickness 0.15)))
  )
  (fp_line (start -0.775 -1.55) (end -1.55 -0.775) (layer F.Fab) (width 0.1))
  (fp_line (start -1.55 1.55) (end -1.55 -0.775) (layer F.Fab) (width 0.1))
  (fp_line (start 1.55 1.55) (end -1.55 1.55) (layer F.Fab) (width 0.1))
  (fp_line (start 1.55 -1.55) (end 1.55 1.55) (layer F.Fab) (width 0.1))
  (fp_line (start -0.775 -1.55) (end 1.55 -1.55) (layer F.Fab) (width 0.1))
  (fp_line (start -2.15 -2.15) (end -2.15 2.15) (layer F.CrtYd) (width 0.05))
  (fp_line (start 2.15 -2.15) (end 2.15 2.15) (layer F.CrtYd) (width 0.05))
  (fp_line (start -2.15 -2.15) (end 2.15 -2.15) (layer F.CrtYd) (width 0.05))
  (fp_line (start -2.15 2.15) (end 2.15 2.15) (layer F.CrtYd) (width 0.05))
  (fp_line (start 0.65 1.625) (end 1.625 1.625) (layer F.SilkS) (width 0.12))
  (fp_line (start -1.625 -1.625) (end -0.65 -1.625) (layer F.SilkS) (width 0.12))
  (fp_line (start 0.65 -1.625) (end 1.625 -1.625) (layer F.SilkS) (width 0.12))
  (fp_line (start -1.625 1.625) (end -0.65 1.625) (layer F.SilkS) (width 0.12))
  (fp_line (start 1.625 -1.4) (end 1.625 -1.625) (layer F.SilkS) (width 0.12))
  (fp_line (start 1.625 1.4) (end 1.625 1.625) (layer F.SilkS) (width 0.12))
  (fp_line (start -1.625 1.625) (end -1.625 1.4) (layer F.SilkS) (width 0.12))
  (fp_text user %R (at 0 0) (layer F.Fab)
    (effects (font (size 0.7 0.7) (thickness 0.1)))
  )
  (pad 1 smd oval (at -1.475 -1) (size 0.85 0.28) (layers F.Cu F.Paste F.Mask)
    (solder_mask_margin 0.07) (solder_paste_margin -0.025))
  (pad 2 smd oval (at -1.475 -0.5) (size 0.85 0.28) (layers F.Cu F.Paste F.Mask)
    (solder_mask_margin 0.07) (solder_paste_margin -0.025))
  (pad 3 smd rect (at -1.76 0) (size 0.28 0.28) (layers F.Cu F.Paste F.Mask)
    (solder_mask_margin 0.07) (solder_paste_margin -0.025))
  (pad 4 smd oval (at -1.475 0.5) (size 0.85 0.28) (layers F.Cu F.Paste F.Mask)
    (solder_mask_margin 0.07) (solder_paste_margin -0.025))
  (pad 5 smd rect (at -1.76 1) (size 0.28 0.28) (layers F.Cu F.Paste F.Mask)
    (solder_mask_margin 0.07) (solder_paste_margin -0.025))
  (pad 6 smd oval (at 1.475 1) (size 0.85 0.28) (layers F.Cu F.Paste F.Mask)
    (solder_mask_margin 0.07) (solder_paste_margin -0.025))
  (pad 7 smd oval (at 1.475 0.5) (size 0.85 0.28) (layers F.Cu F.Paste F.Mask)
    (solder_mask_margin 0.07) (solder_paste_margin -0.025))
  (pad 8 smd rect (at 1.76 0) (size 0.28 0.28) (layers F.Cu F.Paste F.Mask)
    (solder_mask_margin 0.07) (solder_paste_margin -0.025))
  (pad 9 smd rect (at 1.76 -0.5) (size 0.28 0.28) (layers F.Cu F.Paste F.Mask)
    (solder_mask_margin 0.07) (solder_paste_margin -0.025))
  (pad 10 smd rect (at 1.76 -1) (size 0.28 0.28) (layers F.Cu F.Paste F.Mask)
    (solder_mask_margin 0.07) (solder_paste_margin -0.025))
  (pad 11 smd rect (at -0.45 -0.635) (size 0.68 1.05) (layers F.Cu F.Paste F.Mask))
  (pad 11 smd rect (at -0.25 -1.55) (size 0.28 0.7) (layers F.Cu F.Mask))
  (pad 11 smd rect (at -0.25 -1.63) (size 0.26 0.5) (layers F.Cu F.Paste F.Mask))
  (pad 11 smd rect (at 0.25 -1.55) (size 0.28 0.7) (layers F.Cu F.Mask))
  (pad 11 smd rect (at -0.25 1.55) (size 0.28 0.7) (layers F.Cu F.Mask))
  (pad 11 smd rect (at 0.25 1.55) (size 0.28 0.7) (layers F.Cu F.Mask))
  (pad 11 smd rect (at 0.25 -1.63) (size 0.26 0.5) (layers F.Cu F.Paste F.Mask))
  (pad 11 smd rect (at -0.25 1.63) (size 0.26 0.5) (layers F.Cu F.Paste F.Mask))
  (pad 11 smd rect (at 0.25 1.63) (size 0.26 0.5) (layers F.Cu F.Paste F.Mask))
  (pad 11 smd rect (at 0.45 -0.635) (size 0.68 1.05) (layers F.Cu F.Paste F.Mask))
  (pad 11 smd rect (at -0.45 0.635) (size 0.68 1.05) (layers F.Cu F.Paste F.Mask))
  (pad 11 smd rect (at 0.45 0.635) (size 0.68 1.05) (layers F.Cu F.Paste F.Mask))
  (pad 11 smd rect (at 0 0) (size 1.65 2.4) (layers F.Cu F.Mask))
  (pad 1 smd rect (at -1.76 -1) (size 0.28 0.28) (layers F.Cu F.Paste F.Mask)
    (solder_mask_margin 0.07) (solder_paste_margin -0.025))
  (pad 2 smd rect (at -1.76 -0.5) (size 0.28 0.28) (layers F.Cu F.Paste F.Mask)
    (solder_mask_margin 0.07) (solder_paste_margin -0.025))
  (pad 3 smd oval (at -1.475 0) (size 0.85 0.28) (layers F.Cu F.Paste F.Mask)
    (solder_mask_margin 0.07) (solder_paste_margin -0.025))
  (pad 4 smd rect (at -1.76 0.5) (size 0.28 0.28) (layers F.Cu F.Paste F.Mask)
    (solder_mask_margin 0.07) (solder_paste_margin -0.025))
  (pad 5 smd oval (at -1.475 1) (size 0.85 0.28) (layers F.Cu F.Paste F.Mask)
    (solder_mask_margin 0.07) (solder_paste_margin -0.025))
  (pad 6 smd rect (at 1.76 1) (size 0.28 0.28) (layers F.Cu F.Paste F.Mask)
    (solder_mask_margin 0.07) (solder_paste_margin -0.025))
  (pad 7 smd rect (at 1.76 0.5) (size 0.28 0.28) (layers F.Cu F.Paste F.Mask)
    (solder_mask_margin 0.07) (solder_paste_margin -0.025))
  (pad 8 smd oval (at 1.475 0) (size 0.85 0.28) (layers F.Cu F.Paste F.Mask)
    (solder_mask_margin 0.07) (solder_paste_margin -0.025))
  (pad 9 smd oval (at 1.475 -0.5) (size 0.85 0.28) (layers F.Cu F.Paste F.Mask)
    (solder_mask_margin 0.07) (solder_paste_margin -0.025))
  (pad 10 smd oval (at 1.475 -1) (size 0.85 0.28) (layers F.Cu F.Paste F.Mask)
    (solder_mask_margin 0.07) (solder_paste_margin -0.025))
  (model ${KIPRJMOD}/kicad_libs_k/models_k.3d/Package_SON_k.3dshapes/Texas_S-PVSON-N10_k.wrl
    (at (xyz 0 0 0))
    (scale (xyz 1 1 1))
    (rotate (xyz 0 0 0))
  )
)
