(module Texas_S-PVSON-N8_ThermalVias (layer F.Cu) (tedit 5A4A697F)
  (descr "8-Lead Plastic VSON, 3x3mm Body, 0.65mm Pitch, S-PVSON-N8, http://www.ti.com/lit/ds/symlink/opa2333.pdf")
  (tags "DFN 0.65 S-PVSON-N8")
  (attr smd)
  (fp_text reference REF** (at 0 -2.5) (layer F.SilkS)
    (effects (font (size 1 1) (thickness 0.15)))
  )
  (fp_text value Texas_S-PVSON-N8_ThermalVias (at 0 2.6) (layer F.Fab)
    (effects (font (size 1 1) (thickness 0.15)))
  )
  (fp_text user %R (at 0 0) (layer F.Fab)
    (effects (font (size 0.7 0.7) (thickness 0.1)))
  )
  (fp_line (start -0.5 -1.5) (end -1.5 -0.5) (layer F.Fab) (width 0.1))
  (fp_line (start -1.5 1.5) (end -1.5 -0.5) (layer F.Fab) (width 0.1))
  (fp_line (start 1.5 1.5) (end -1.5 1.5) (layer F.Fab) (width 0.1))
  (fp_line (start 1.5 -1.5) (end 1.5 1.5) (layer F.Fab) (width 0.1))
  (fp_line (start -0.5 -1.5) (end 1.5 -1.5) (layer F.Fab) (width 0.1))
  (fp_line (start -2.1 -1.8) (end -2.1 1.8) (layer F.CrtYd) (width 0.05))
  (fp_line (start 2.1 -1.8) (end 2.1 1.8) (layer F.CrtYd) (width 0.05))
  (fp_line (start -2.1 -1.8) (end 2.1 -1.8) (layer F.CrtYd) (width 0.05))
  (fp_line (start -2.1 1.8) (end 2.1 1.8) (layer F.CrtYd) (width 0.05))
  (fp_line (start 0.7 1.65) (end 1.65 1.65) (layer F.SilkS) (width 0.12))
  (fp_line (start -2 -1.65) (end -0.7 -1.65) (layer F.SilkS) (width 0.12))
  (fp_line (start 0.7 -1.65) (end 1.65 -1.65) (layer F.SilkS) (width 0.12))
  (fp_line (start -1.65 1.65) (end -0.7 1.65) (layer F.SilkS) (width 0.12))
  (fp_line (start 1.65 -1.45) (end 1.65 -1.65) (layer F.SilkS) (width 0.12))
  (fp_line (start 1.65 1.45) (end 1.65 1.65) (layer F.SilkS) (width 0.12))
  (fp_line (start -1.65 1.65) (end -1.65 1.45) (layer F.SilkS) (width 0.12))
  (pad 9 smd rect (at 0 0) (size 1.65 2.4) (layers B.Cu))
  (pad 1 smd oval (at -1.55 -0.975) (size 0.65 0.4) (layers F.Cu F.Paste F.Mask)
    (solder_paste_margin -0.05))
  (pad 2 smd oval (at -1.55 -0.325) (size 0.65 0.4) (layers F.Cu F.Paste F.Mask)
    (solder_paste_margin -0.05))
  (pad 3 smd rect (at -1.75 0.325) (size 0.3 0.4) (layers F.Cu F.Paste F.Mask)
    (solder_paste_margin -0.05))
  (pad 4 smd oval (at -1.55 0.975) (size 0.65 0.4) (layers F.Cu F.Paste F.Mask)
    (solder_paste_margin -0.05))
  (pad 5 smd oval (at 1.55 0.975) (size 0.65 0.4) (layers F.Cu F.Paste F.Mask)
    (solder_paste_margin -0.05))
  (pad 6 smd oval (at 1.55 0.325) (size 0.65 0.4) (layers F.Cu F.Paste F.Mask)
    (solder_paste_margin -0.05))
  (pad 7 smd rect (at 1.75 -0.325) (size 0.3 0.4) (layers F.Cu F.Paste F.Mask)
    (solder_paste_margin -0.05))
  (pad 8 smd rect (at 1.75 -0.975) (size 0.3 0.4) (layers F.Cu F.Paste F.Mask)
    (solder_paste_margin -0.05))
  (pad 9 thru_hole circle (at 0 0) (size 0.6 0.6) (drill 0.25) (layers *.Cu))
  (pad 9 thru_hole circle (at -0.5 -0.75) (size 0.6 0.6) (drill 0.25) (layers *.Cu))
  (pad 9 thru_hole circle (at 0.5 -0.75) (size 0.6 0.6) (drill 0.25) (layers *.Cu))
  (pad 9 thru_hole circle (at -0.5 0.75) (size 0.6 0.6) (drill 0.25) (layers *.Cu))
  (pad 9 thru_hole circle (at 0.5 0.75) (size 0.6 0.6) (drill 0.25) (layers *.Cu))
  (pad 9 smd rect (at -0.45 -0.625) (size 0.65 1) (layers F.Cu F.Paste F.Mask))
  (pad 9 smd rect (at 0.45 -0.625) (size 0.65 1) (layers F.Cu F.Paste F.Mask))
  (pad 9 smd rect (at -0.45 0.625) (size 0.65 1) (layers F.Cu F.Paste F.Mask))
  (pad 9 smd rect (at 0.45 0.625) (size 0.65 1) (layers F.Cu F.Paste F.Mask))
  (pad 9 smd rect (at 0 0) (size 1.65 2.4) (layers F.Cu F.Mask))
  (pad 1 smd rect (at -1.75 -0.975) (size 0.3 0.4) (layers F.Cu F.Paste F.Mask)
    (solder_paste_margin -0.05))
  (pad 2 smd rect (at -1.75 -0.325) (size 0.3 0.4) (layers F.Cu F.Paste F.Mask)
    (solder_paste_margin -0.05))
  (pad 3 smd oval (at -1.55 0.325) (size 0.65 0.4) (layers F.Cu F.Paste F.Mask)
    (solder_paste_margin -0.05))
  (pad 4 smd rect (at -1.75 0.975) (size 0.3 0.4) (layers F.Cu F.Paste F.Mask)
    (solder_paste_margin -0.05))
  (pad 5 smd rect (at 1.75 0.975) (size 0.3 0.4) (layers F.Cu F.Paste F.Mask)
    (solder_paste_margin -0.05))
  (pad 6 smd rect (at 1.75 0.325) (size 0.3 0.4) (layers F.Cu F.Paste F.Mask)
    (solder_paste_margin -0.05))
  (pad 7 smd oval (at 1.55 -0.325) (size 0.65 0.4) (layers F.Cu F.Paste F.Mask)
    (solder_paste_margin -0.05))
  (pad 8 smd oval (at 1.55 -0.975) (size 0.65 0.4) (layers F.Cu F.Paste F.Mask)
    (solder_paste_margin -0.05))
  (model ${KIPRJMOD}/kicad_libs_k/models_k.3d/Package_SON_k.3dshapes/Texas_S-PVSON-N8_k.wrl
    (at (xyz 0 0 0))
    (scale (xyz 1 1 1))
    (rotate (xyz 0 0 0))
  )
)
