(module TSDSON-8_k (layer F.Cu) (tedit 6061748B)
  (fp_text reference REF** (at 2.4 0 90) (layer F.SilkS)
    (effects (font (size 1 1) (thickness 0.15)))
  )
  (fp_text value TSDSON-8_k (at -2.4 0 90) (layer F.Fab)
    (effects (font (size 1 1) (thickness 0.15)))
  )
  (fp_line (start -1.55 -1.55) (end -1.55 1.55) (layer F.SilkS) (width 0.12))
  (fp_line (start -1.55 1.55) (end -1.3 1.55) (layer F.SilkS) (width 0.12))
  (fp_line (start -1.55 -1.55) (end -1.3 -1.55) (layer F.SilkS) (width 0.12))
  (fp_line (start 1.55 -1.55) (end 1.55 1.55) (layer F.SilkS) (width 0.12))
  (fp_line (start 1.55 1.55) (end 1.3 1.55) (layer F.SilkS) (width 0.12))
  (fp_line (start 1.55 -1.55) (end 1.3 -1.55) (layer F.SilkS) (width 0.12))
  (pad 2 smd rect (at 0 -0.82) (size 2.4 2.66) (layers F.Cu F.Paste F.Mask))
  (pad 3 smd rect (at -0.325 1.55) (size 1.75 1.2) (layers F.Cu F.Paste F.Mask))
  (pad 1 smd rect (at 1.02 1.55) (size 0.36 1.2) (layers F.Cu F.Paste F.Mask))
)
