(module WSON-8-1EP_2x2mm_P0.5mm_EP0.9x1.6mm_ThermalVias (layer F.Cu) (tedit 5A65F72D)
  (descr "8-Lead Plastic WSON, 2x2mm Body, 0.5mm Pitch, WSON-8, http://www.ti.com/lit/ds/symlink/lm27761.pdf")
  (tags "WSON 8 1EP ThermalVias")
  (attr smd)
  (fp_text reference REF** (at 0.38 -1.9) (layer F.SilkS)
    (effects (font (size 1 1) (thickness 0.15)))
  )
  (fp_text value WSON-8-1EP_2x2mm_P0.5mm_EP0.9x1.6mm_ThermalVias (at 0.01 2.14) (layer F.Fab)
    (effects (font (size 1 1) (thickness 0.15)))
  )
  (fp_text user %R (at 0 0) (layer F.Fab)
    (effects (font (size 0.7 0.7) (thickness 0.1)))
  )
  (fp_line (start -0.5 -1) (end -1 -0.5) (layer F.Fab) (width 0.1))
  (fp_line (start -1 1) (end -1 -0.5) (layer F.Fab) (width 0.1))
  (fp_line (start 1 1) (end -1 1) (layer F.Fab) (width 0.1))
  (fp_line (start 1 -1) (end 1 1) (layer F.Fab) (width 0.1))
  (fp_line (start -0.5 -1) (end 1 -1) (layer F.Fab) (width 0.1))
  (fp_line (start -1.6 -1.25) (end -1.6 1.25) (layer F.CrtYd) (width 0.05))
  (fp_line (start 1.6 -1.25) (end 1.6 1.25) (layer F.CrtYd) (width 0.05))
  (fp_line (start -1.6 -1.25) (end 1.6 -1.25) (layer F.CrtYd) (width 0.05))
  (fp_line (start -1.6 1.25) (end 1.6 1.25) (layer F.CrtYd) (width 0.05))
  (fp_line (start 0.5 1.12) (end -0.5 1.12) (layer F.SilkS) (width 0.12))
  (fp_line (start -1.5 -1.12) (end 0.5 -1.12) (layer F.SilkS) (width 0.12))
  (pad 3 smd rect (at -0.95 0.25) (size 0.5 0.25) (layers F.Cu F.Paste F.Mask))
  (pad 7 smd rect (at 0.95 -0.25) (size 0.5 0.25) (layers F.Cu F.Paste F.Mask))
  (pad 8 smd rect (at 0.95 -0.75) (size 0.5 0.25) (layers F.Cu F.Paste F.Mask))
  (pad 9 thru_hole circle (at 0 -0.5) (size 0.6 0.6) (drill 0.25) (layers *.Cu))
  (pad 9 thru_hole circle (at 0 0.5) (size 0.6 0.6) (drill 0.25) (layers *.Cu))
  (pad 9 smd rect (at 0 0) (size 0.9 1.6) (layers F.Cu F.Mask))
  (pad 1 smd rect (at -0.95 -0.75) (size 0.5 0.25) (layers F.Cu F.Paste F.Mask))
  (pad 2 smd rect (at -0.95 -0.25) (size 0.5 0.25) (layers F.Cu F.Paste F.Mask))
  (pad 4 smd rect (at -0.95 0.75) (size 0.5 0.25) (layers F.Cu F.Paste F.Mask))
  (pad 5 smd rect (at 0.95 0.75) (size 0.5 0.25) (layers F.Cu F.Paste F.Mask))
  (pad 6 smd rect (at 0.95 0.25) (size 0.5 0.25) (layers F.Cu F.Paste F.Mask))
  (pad 9 smd rect (at 0 0) (size 0.9 1.6) (layers B.Cu))
  (pad "" smd rect (at 0 0.4) (size 0.75 0.65) (layers F.Paste))
  (pad "" smd rect (at 0 -0.4) (size 0.75 0.65) (layers F.Paste))
  (model ${KIPRJMOD}/kicad_libs_k/models_k.3d/Package_SON_k.3dshapes/WSON-8-1EP_2x2mm_P0.5mm_EP0.9x1.6mm_k.wrl
    (at (xyz 0 0 0))
    (scale (xyz 1 1 1))
    (rotate (xyz 0 0 0))
  )
)
