(module WSON-16_3.3x1.35_P0.4mm (layer F.Cu) (tedit 5A02F1D8)
  (descr "WSON-16 3.3 x 1.35mm  Pitch 0.4mm http://www.chip.tomsk.ru/chip/chipdoc.nsf/Package/C67E729A4D6C883A4725793E004C8739!OpenDocument")
  (tags "WSON-16 3.3 x 1.35mm  Pitch 0.4mm")
  (attr smd)
  (fp_text reference REF** (at -0.004943 -3) (layer F.SilkS)
    (effects (font (size 1 1) (thickness 0.15)))
  )
  (fp_text value WSON-16_3.3x1.35_P0.4mm (at -0.004943 3) (layer F.Fab)
    (effects (font (size 1 1) (thickness 0.15)))
  )
  (fp_text user %R (at -0.004943 0 90) (layer F.Fab)
    (effects (font (size 0.75 0.75) (thickness 0.1)))
  )
  (fp_line (start -0.425 -1.65) (end -0.675 -1.4) (layer F.Fab) (width 0.1))
  (fp_line (start -1.12 -1.9) (end 1.12 -1.9) (layer F.CrtYd) (width 0.05))
  (fp_line (start -1.12 1.9) (end -1.12 -1.9) (layer F.CrtYd) (width 0.05))
  (fp_line (start 1.12 1.9) (end -1.12 1.9) (layer F.CrtYd) (width 0.05))
  (fp_line (start 1.12 -1.9) (end 1.12 1.9) (layer F.CrtYd) (width 0.05))
  (fp_line (start 0.7 1.75) (end -0.7 1.75) (layer F.SilkS) (width 0.12))
  (fp_line (start 0.7 -1.75) (end -1.05 -1.75) (layer F.SilkS) (width 0.12))
  (fp_line (start -0.425 -1.65) (end 0.675 -1.65) (layer F.Fab) (width 0.1))
  (fp_line (start -0.675 1.65) (end -0.675 -1.4) (layer F.Fab) (width 0.1))
  (fp_line (start 0.675 1.65) (end -0.675 1.65) (layer F.Fab) (width 0.1))
  (fp_line (start 0.675 -1.65) (end 0.675 1.65) (layer F.Fab) (width 0.1))
  (pad 3 smd rect (at -0.625 -0.6 270) (size 0.2 0.5) (layers F.Cu F.Paste F.Mask))
  (pad 1 smd rect (at -0.625 -1.4 270) (size 0.2 0.5) (layers F.Cu F.Paste F.Mask))
  (pad 2 smd rect (at -0.625 -1 270) (size 0.2 0.5) (layers F.Cu F.Paste F.Mask))
  (pad 4 smd rect (at -0.625 -0.2 270) (size 0.2 0.5) (layers F.Cu F.Paste F.Mask))
  (pad 6 smd rect (at -0.625 0.6 270) (size 0.2 0.5) (layers F.Cu F.Paste F.Mask))
  (pad 5 smd rect (at -0.625 0.2 270) (size 0.2 0.5) (layers F.Cu F.Paste F.Mask))
  (pad 7 smd rect (at -0.625 1 270) (size 0.2 0.5) (layers F.Cu F.Paste F.Mask))
  (pad 8 smd rect (at -0.625 1.4 270) (size 0.2 0.5) (layers F.Cu F.Paste F.Mask))
  (pad 12 smd rect (at 0.625 0.2 270) (size 0.2 0.5) (layers F.Cu F.Paste F.Mask))
  (pad 11 smd rect (at 0.625 0.6 270) (size 0.2 0.5) (layers F.Cu F.Paste F.Mask))
  (pad 9 smd rect (at 0.625 1.4 270) (size 0.2 0.5) (layers F.Cu F.Paste F.Mask))
  (pad 10 smd rect (at 0.625 1 270) (size 0.2 0.5) (layers F.Cu F.Paste F.Mask))
  (pad 16 smd rect (at 0.625 -1.4 270) (size 0.2 0.5) (layers F.Cu F.Paste F.Mask))
  (pad 13 smd rect (at 0.625 -0.2 270) (size 0.2 0.5) (layers F.Cu F.Paste F.Mask))
  (pad 14 smd rect (at 0.625 -0.6 270) (size 0.2 0.5) (layers F.Cu F.Paste F.Mask))
  (pad 15 smd rect (at 0.625 -1 270) (size 0.2 0.5) (layers F.Cu F.Paste F.Mask))
  (pad 17 smd rect (at 0 -1.05 270) (size 0.7 0.4) (layers F.Cu F.Paste F.Mask))
  (pad 17 smd rect (at 0 -0.35 270) (size 0.7 0.4) (layers F.Cu F.Paste F.Mask))
  (pad 17 smd rect (at 0 0.35 270) (size 0.7 0.4) (layers F.Cu F.Paste F.Mask))
  (pad 17 smd rect (at 0 1.05 270) (size 0.7 0.4) (layers F.Cu F.Paste F.Mask))
  (model ${KIPRJMOD}/kicad_libs_k/models_k.3d/Package_SON_k.3dshapes/WSON-16_3.3x1.35_P0.4mm_k.wrl
    (at (xyz 0 0 0))
    (scale (xyz 1 1 1))
    (rotate (xyz 0 0 0))
  )
)
