(module WSON-14-1EP_4.0x4.0mm_P0.5mm_EP2.6x2.6mm (layer F.Cu) (tedit 5A65F5CE)
  (descr "14-Lead Plastic Dual Flat, No Lead Package - 4.0x4.0x0.8 mm Body [WSON], http://www.ti.com/lit/ml/mpds421/mpds421.pdf")
  (tags NHL014B)
  (attr smd)
  (fp_text reference REF** (at 0.027363 -3.153276) (layer F.SilkS)
    (effects (font (size 1 1) (thickness 0.15)))
  )
  (fp_text value WSON-14-1EP_4.0x4.0mm_P0.5mm_EP2.6x2.6mm (at 0 4) (layer F.Fab)
    (effects (font (size 1 1) (thickness 0.15)))
  )
  (fp_text user %R (at 0.05 0.025) (layer F.Fab)
    (effects (font (size 0.5 0.5) (thickness 0.05)))
  )
  (fp_line (start -2 -1.5) (end -1.5 -2) (layer F.Fab) (width 0.1))
  (fp_line (start -2.125 2.125) (end -2.125 1.75) (layer F.SilkS) (width 0.1))
  (fp_line (start 2.125 2.125) (end -2.1 2.125) (layer F.SilkS) (width 0.1))
  (fp_line (start 2.125 1.75) (end 2.125 2.125) (layer F.SilkS) (width 0.1))
  (fp_line (start -2.125 -2.125) (end -2.125 -1.875) (layer F.SilkS) (width 0.1))
  (fp_line (start -2.425 -1.875) (end -2.125 -1.875) (layer F.SilkS) (width 0.1))
  (fp_line (start 2.125 -2.125) (end 2.125 -1.825) (layer F.SilkS) (width 0.1))
  (fp_line (start 2.125 -2.125) (end -2.125 -2.125) (layer F.SilkS) (width 0.1))
  (fp_line (start -2.45 -2.25) (end 2.45 -2.25) (layer F.CrtYd) (width 0.05))
  (fp_line (start -2.45 2.25) (end -2.45 -2.25) (layer F.CrtYd) (width 0.05))
  (fp_line (start 2.45 2.25) (end -2.44 2.25) (layer F.CrtYd) (width 0.05))
  (fp_line (start 2.45 -2.25) (end 2.45 2.25) (layer F.CrtYd) (width 0.05))
  (fp_line (start 2 2) (end 2 -2) (layer F.Fab) (width 0.1))
  (fp_line (start -2 2) (end 2 2) (layer F.Fab) (width 0.1))
  (fp_line (start -2 -1.5) (end -2 2) (layer F.Fab) (width 0.1))
  (fp_line (start 2 -2) (end -1.5 -2) (layer F.Fab) (width 0.1))
  (pad 14 smd rect (at 1.9 -1.5 270) (size 0.25 0.6) (layers F.Cu F.Paste F.Mask))
  (pad 13 smd rect (at 1.9 -1 270) (size 0.25 0.6) (layers F.Cu F.Paste F.Mask))
  (pad 12 smd rect (at 1.9 -0.5 270) (size 0.25 0.6) (layers F.Cu F.Paste F.Mask))
  (pad 11 smd rect (at 1.9 0 270) (size 0.25 0.6) (layers F.Cu F.Paste F.Mask))
  (pad 10 smd rect (at 1.9 0.5 270) (size 0.25 0.6) (layers F.Cu F.Paste F.Mask))
  (pad 9 smd rect (at 1.9 1 270) (size 0.25 0.6) (layers F.Cu F.Paste F.Mask))
  (pad 8 smd rect (at 1.9 1.5 270) (size 0.25 0.6) (layers F.Cu F.Paste F.Mask))
  (pad 7 smd rect (at -1.9 1.5 270) (size 0.25 0.6) (layers F.Cu F.Paste F.Mask))
  (pad 6 smd rect (at -1.9 1 270) (size 0.25 0.6) (layers F.Cu F.Paste F.Mask))
  (pad 5 smd rect (at -1.9 0.5 270) (size 0.25 0.6) (layers F.Cu F.Paste F.Mask))
  (pad 4 smd rect (at -1.9 0 270) (size 0.25 0.6) (layers F.Cu F.Paste F.Mask))
  (pad 3 smd rect (at -1.9 -0.5 270) (size 0.25 0.6) (layers F.Cu F.Paste F.Mask))
  (pad 2 smd rect (at -1.9 -1 270) (size 0.25 0.6) (layers F.Cu F.Paste F.Mask))
  (pad 1 smd rect (at -1.9 -1.5 270) (size 0.25 0.6) (layers F.Cu F.Paste F.Mask))
  (pad 15 smd rect (at 0.025 0 270) (size 2.6 2.6) (layers F.Cu F.Mask))
  (pad "" smd rect (at -0.65 -0.65 270) (size 1.05 1.05) (layers F.Paste))
  (pad "" smd rect (at 0.65 -0.65 270) (size 1.05 1.05) (layers F.Paste))
  (pad "" smd rect (at 0.65 0.65 270) (size 1.05 1.05) (layers F.Paste))
  (pad "" smd rect (at -0.65 0.65 270) (size 1.05 1.05) (layers F.Paste))
  (model ${KIPRJMOD}/kicad_libs_k/models_k.3d/Package_SON_k.3dshapes/WSON-14-1EP_4.0x4.0mm_P0.5mm_EP2.6x2.6mm_k.wrl
    (at (xyz 0 0 0))
    (scale (xyz 1 1 1))
    (rotate (xyz 0 0 0))
  )
)
