(module X2SON-8_1.4x1mm_P0.35mm (layer F.Cu) (tedit 5A02F1D8)
  (descr "X2SON-8 1.4x1mm Pitch0.35mm http://www.ti.com/lit/ds/symlink/pca9306.pdf")
  (tags "X2SON-8 1.4x1mm Pitch0.35mm")
  (attr smd)
  (fp_text reference REF** (at 0 -2) (layer F.SilkS)
    (effects (font (size 1 1) (thickness 0.15)))
  )
  (fp_text value X2SON-8_1.4x1mm_P0.35mm (at 0 2) (layer F.Fab)
    (effects (font (size 1 1) (thickness 0.15)))
  )
  (fp_text user %R (at 0 0 90) (layer F.Fab)
    (effects (font (size 0.3 0.3) (thickness 0.05)))
  )
  (fp_line (start -0.85 -0.95) (end 0.85 -0.95) (layer F.CrtYd) (width 0.05))
  (fp_line (start -0.85 0.95) (end -0.85 -0.95) (layer F.CrtYd) (width 0.05))
  (fp_line (start 0.85 0.95) (end -0.85 0.95) (layer F.CrtYd) (width 0.05))
  (fp_line (start 0.85 -0.95) (end 0.85 0.95) (layer F.CrtYd) (width 0.05))
  (fp_line (start 0.5 0.8) (end -0.5 0.8) (layer F.SilkS) (width 0.12))
  (fp_line (start 0.5 -0.8) (end -0.7 -0.8) (layer F.SilkS) (width 0.12))
  (fp_line (start 0 -0.7) (end -0.5 -0.2) (layer F.Fab) (width 0.1))
  (fp_line (start 0 -0.7) (end 0.5 -0.7) (layer F.Fab) (width 0.1))
  (fp_line (start -0.5 0.7) (end -0.5 -0.2) (layer F.Fab) (width 0.1))
  (fp_line (start 0.5 0.7) (end -0.5 0.7) (layer F.Fab) (width 0.1))
  (fp_line (start 0.5 -0.7) (end 0.5 0.7) (layer F.Fab) (width 0.1))
  (pad 1 smd rect (at -0.335 -0.525 270) (size 0.2 0.53) (layers F.Cu F.Paste F.Mask))
  (pad 2 smd rect (at -0.335 -0.175 270) (size 0.2 0.53) (layers F.Cu F.Paste F.Mask))
  (pad 3 smd rect (at -0.335 0.175 270) (size 0.2 0.53) (layers F.Cu F.Paste F.Mask))
  (pad 4 smd rect (at -0.335 0.525 270) (size 0.2 0.53) (layers F.Cu F.Paste F.Mask))
  (pad 5 smd rect (at 0.335 0.525 270) (size 0.2 0.53) (layers F.Cu F.Paste F.Mask))
  (pad 6 smd rect (at 0.335 0.175 270) (size 0.2 0.53) (layers F.Cu F.Paste F.Mask))
  (pad 7 smd rect (at 0.335 -0.175 270) (size 0.2 0.53) (layers F.Cu F.Paste F.Mask))
  (pad 8 smd rect (at 0.335 -0.525 270) (size 0.2 0.53) (layers F.Cu F.Paste F.Mask))
  (model ${KIPRJMOD}/kicad_libs_k/models_k.3d/Package_SON_k.3dshapes/X2SON-8_1.4x1mm_P0.35mm_k.wrl
    (at (xyz 0 0 0))
    (scale (xyz 1 1 1))
    (rotate (xyz 0 0 0))
  )
)
