(module Crystal_Round_D3.0mm_Vertical (layer F.Cu) (tedit 5A0FD1B2)
  (descr "Crystal THT C38-LF 8.0mm length 3.0mm diameter")
  (tags ['C38-LF'])
  (fp_text reference REF** (at 0.95 -2.7) (layer F.SilkS)
    (effects (font (size 1 1) (thickness 0.15)))
  )
  (fp_text value Crystal_Round_D3.0mm_Vertical (at 0.95 2.7) (layer F.Fab)
    (effects (font (size 1 1) (thickness 0.15)))
  )
  (fp_text user %R (at 0.95 0) (layer F.Fab)
    (effects (font (size 0.7 0.7) (thickness 0.105)))
  )
  (fp_circle (center 0.95 0) (end 2.45 0) (layer F.Fab) (width 0.1))
  (fp_circle (center 0.95 0) (end 2.9 0) (layer F.CrtYd) (width 0.05))
  (fp_arc (start 0.95 0) (end -0.75 0) (angle 180) (layer F.SilkS) (width 0.12))
  (fp_arc (start 0.95 0) (end -0.75 0) (angle -180) (layer F.SilkS) (width 0.12))
  (pad 1 thru_hole circle (at 0 0) (size 1 1) (drill 0.5) (layers *.Cu *.Mask))
  (pad 2 thru_hole circle (at 1.9 0) (size 1 1) (drill 0.5) (layers *.Cu *.Mask))
  (model ${KIPRJMOD}/kicad_libs_k/models_k.3d/Crystal_k.3dshapes/Crystal_Round_D3.0mm_Vertical_k.wrl
    (at (xyz 0 0 0))
    (scale (xyz 1 1 1))
    (rotate (xyz 0 0 0))
  )
)
