(module Crystal_SMD_HC49-SD_HandSoldering (layer F.Cu) (tedit 5A1AD52C)
  (descr "SMD Crystal HC-49-SD http://cdn-reichelt.de/documents/datenblatt/B400/xxx-HC49-SMD.pdf, hand-soldering, 11.4x4.7mm^2 package")
  (tags "SMD SMT crystal hand-soldering")
  (attr smd)
  (fp_text reference REF** (at 0 -3.55) (layer F.SilkS)
    (effects (font (size 1 1) (thickness 0.15)))
  )
  (fp_text value Crystal_SMD_HC49-SD_HandSoldering (at 0 3.55) (layer F.Fab)
    (effects (font (size 1 1) (thickness 0.15)))
  )
  (fp_text user %R (at 0 0) (layer F.Fab)
    (effects (font (size 1 1) (thickness 0.15)))
  )
  (fp_line (start -5.7 -2.35) (end -5.7 2.35) (layer F.Fab) (width 0.1))
  (fp_line (start -5.7 2.35) (end 5.7 2.35) (layer F.Fab) (width 0.1))
  (fp_line (start 5.7 2.35) (end 5.7 -2.35) (layer F.Fab) (width 0.1))
  (fp_line (start 5.7 -2.35) (end -5.7 -2.35) (layer F.Fab) (width 0.1))
  (fp_line (start -3.015 -2.115) (end 3.015 -2.115) (layer F.Fab) (width 0.1))
  (fp_line (start -3.015 2.115) (end 3.015 2.115) (layer F.Fab) (width 0.1))
  (fp_line (start 5.9 -2.55) (end -10.075 -2.55) (layer F.SilkS) (width 0.12))
  (fp_line (start -10.075 -2.55) (end -10.075 2.55) (layer F.SilkS) (width 0.12))
  (fp_line (start -10.075 2.55) (end 5.9 2.55) (layer F.SilkS) (width 0.12))
  (fp_line (start -10.2 -2.6) (end -10.2 2.6) (layer F.CrtYd) (width 0.05))
  (fp_line (start -10.2 2.6) (end 10.2 2.6) (layer F.CrtYd) (width 0.05))
  (fp_line (start 10.2 2.6) (end 10.2 -2.6) (layer F.CrtYd) (width 0.05))
  (fp_line (start 10.2 -2.6) (end -10.2 -2.6) (layer F.CrtYd) (width 0.05))
  (fp_arc (start -3.015 0) (end -3.015 -2.115) (angle -180) (layer F.Fab) (width 0.1))
  (fp_arc (start 3.015 0) (end 3.015 -2.115) (angle 180) (layer F.Fab) (width 0.1))
  (pad 1 smd rect (at -5.9375 0) (size 7.875 2) (layers F.Cu F.Paste F.Mask))
  (pad 2 smd rect (at 5.9375 0) (size 7.875 2) (layers F.Cu F.Paste F.Mask))
  (model ${KIPRJMOD}/kicad_libs_k/models_k.3d/Crystal_k.3dshapes/Crystal_SMD_HC49-SD_k.wrl
    (at (xyz 0 0 0))
    (scale (xyz 1 1 1))
    (rotate (xyz 0 0 0))
  )
)
