(module Crystal_HC51-U_Vertical (layer F.Cu) (tedit 5A1AD3B8)
  (descr "Crystal THT HC-51/U, http://www.crovencrystals.com/croven_pdf/HC-51_Crystal_Holder_Rev_00.pdf")
  (tags "THT crystalHC-51/U")
  (fp_text reference REF** (at 6.175 -5.65) (layer F.SilkS)
    (effects (font (size 1 1) (thickness 0.15)))
  )
  (fp_text value Crystal_HC51-U_Vertical (at 6.175 5.65) (layer F.Fab)
    (effects (font (size 1 1) (thickness 0.15)))
  )
  (fp_text user %R (at 6.175 0) (layer F.Fab)
    (effects (font (size 1 1) (thickness 0.15)))
  )
  (fp_line (start 0.975 -4.45) (end 11.375 -4.45) (layer F.Fab) (width 0.1))
  (fp_line (start 0.975 4.45) (end 11.375 4.45) (layer F.Fab) (width 0.1))
  (fp_line (start 0.975 -3.8) (end 11.375 -3.8) (layer F.Fab) (width 0.1))
  (fp_line (start 0.975 3.8) (end 11.375 3.8) (layer F.Fab) (width 0.1))
  (fp_line (start 0.975 -4.65) (end 11.375 -4.65) (layer F.SilkS) (width 0.12))
  (fp_line (start 0.975 4.65) (end 11.375 4.65) (layer F.SilkS) (width 0.12))
  (fp_line (start -4 -4.9) (end -4 4.9) (layer F.CrtYd) (width 0.05))
  (fp_line (start -4 4.9) (end 16.3 4.9) (layer F.CrtYd) (width 0.05))
  (fp_line (start 16.3 4.9) (end 16.3 -4.9) (layer F.CrtYd) (width 0.05))
  (fp_line (start 16.3 -4.9) (end -4 -4.9) (layer F.CrtYd) (width 0.05))
  (fp_arc (start 0.975 0) (end 0.975 -4.45) (angle -180) (layer F.Fab) (width 0.1))
  (fp_arc (start 11.375 0) (end 11.375 -4.45) (angle 180) (layer F.Fab) (width 0.1))
  (fp_arc (start 0.975 0) (end 0.975 -3.8) (angle -180) (layer F.Fab) (width 0.1))
  (fp_arc (start 11.375 0) (end 11.375 -3.8) (angle 180) (layer F.Fab) (width 0.1))
  (fp_arc (start 0.975 0) (end 0.975 -4.65) (angle -180) (layer F.SilkS) (width 0.12))
  (fp_arc (start 11.375 0) (end 11.375 -4.65) (angle 180) (layer F.SilkS) (width 0.12))
  (pad 1 thru_hole circle (at 0 0) (size 2.3 2.3) (drill 1.2) (layers *.Cu *.Mask))
  (pad 2 thru_hole circle (at 12.35 0) (size 2.3 2.3) (drill 1.2) (layers *.Cu *.Mask))
  (model ${KIPRJMOD}/kicad_libs_k/models_k.3d/Crystal_k.3dshapes/Crystal_HC51-U_Vertical_k.wrl
    (at (xyz 0 0 0))
    (scale (xyz 1 1 1))
    (rotate (xyz 0 0 0))
  )
)
