(module Crystal_HC49-U_Horizontal (layer F.Cu) (tedit 5A1AD3B8)
  (descr "Crystal THT HC-49/U http://5hertz.com/pdfs/04404_D.pdf")
  (tags "THT crystal")
  (fp_text reference REF** (at -4.375 3.3125 90) (layer F.SilkS)
    (effects (font (size 1 1) (thickness 0.15)))
  )
  (fp_text value Crystal_HC49-U_Horizontal (at 9.275 3.3125 90) (layer F.Fab)
    (effects (font (size 1 1) (thickness 0.15)))
  )
  (fp_text user %R (at 2.5 6.5) (layer F.Fab)
    (effects (font (size 1 1) (thickness 0.15)))
  )
  (fp_line (start -3 2) (end -3 15) (layer F.Fab) (width 0.1))
  (fp_line (start -3 15) (end 7.9 15) (layer F.Fab) (width 0.1))
  (fp_line (start 7.9 15) (end 7.9 2) (layer F.Fab) (width 0.1))
  (fp_line (start 7.9 2) (end -3 2) (layer F.Fab) (width 0.1))
  (fp_line (start 0 2) (end 0 1) (layer F.Fab) (width 0.1))
  (fp_line (start 0 1) (end 0 0) (layer F.Fab) (width 0.1))
  (fp_line (start 4.9 2) (end 4.9 1) (layer F.Fab) (width 0.1))
  (fp_line (start 4.9 1) (end 4.9 0) (layer F.Fab) (width 0.1))
  (fp_line (start -3.35 2) (end -3.35 1.9) (layer F.Fab) (width 0.1))
  (fp_line (start -3.35 1.9) (end 8.25 1.9) (layer F.Fab) (width 0.1))
  (fp_line (start 8.25 1.9) (end 8.25 2) (layer F.Fab) (width 0.1))
  (fp_line (start 8.25 2) (end -3.35 2) (layer F.Fab) (width 0.1))
  (fp_line (start -3.2 1.8) (end -3.2 15.2) (layer F.SilkS) (width 0.12))
  (fp_line (start -3.2 15.2) (end 8.1 15.2) (layer F.SilkS) (width 0.12))
  (fp_line (start 8.1 15.2) (end 8.1 1.8) (layer F.SilkS) (width 0.12))
  (fp_line (start 8.1 1.8) (end -3.2 1.8) (layer F.SilkS) (width 0.12))
  (fp_line (start 0 1.8) (end 0 0.95) (layer F.SilkS) (width 0.12))
  (fp_line (start 0 0.95) (end 0 0.95) (layer F.SilkS) (width 0.12))
  (fp_line (start 4.9 1.8) (end 4.9 0.95) (layer F.SilkS) (width 0.12))
  (fp_line (start 4.9 0.95) (end 4.9 0.95) (layer F.SilkS) (width 0.12))
  (fp_line (start -3.55 1.8) (end -3.55 1.68) (layer F.SilkS) (width 0.12))
  (fp_line (start -3.55 1.68) (end 8.45 1.68) (layer F.SilkS) (width 0.12))
  (fp_line (start 8.45 1.68) (end 8.45 1.8) (layer F.SilkS) (width 0.12))
  (fp_line (start 8.45 1.8) (end -3.55 1.8) (layer F.SilkS) (width 0.12))
  (fp_line (start -4.1 -1) (end -4.1 16.3) (layer F.CrtYd) (width 0.05))
  (fp_line (start -4.1 16.3) (end 9 16.3) (layer F.CrtYd) (width 0.05))
  (fp_line (start 9 16.3) (end 9 -1) (layer F.CrtYd) (width 0.05))
  (fp_line (start 9 -1) (end -4.1 -1) (layer F.CrtYd) (width 0.05))
  (pad 1 thru_hole circle (at 0 0) (size 1.5 1.5) (drill 0.8) (layers *.Cu *.Mask))
  (pad 2 thru_hole circle (at 4.9 0) (size 1.5 1.5) (drill 0.8) (layers *.Cu *.Mask))
  (model ${KIPRJMOD}/kicad_libs_k/models_k.3d/Crystal_k.3dshapes/Crystal_HC49-U_Horizontal_k.wrl
    (at (xyz 0 0 0))
    (scale (xyz 1 1 1))
    (rotate (xyz 0 0 0))
  )
)
