(module Crystal_SMD_SeikoEpson_MC156-4Pin_7.1x2.5mm_HandSoldering (layer F.Cu) (tedit 5A0FD1B2)
  (descr "SMD Crystal Seiko Epson MC-156 https://support.epson.biz/td/api/doc_check.php?dl=brief_MC-156_en.pdf, hand-soldering, 7.1x2.5mm^2 package")
  (tags "SMD SMT crystal hand-soldering")
  (attr smd)
  (fp_text reference REF** (at 0 -3.75) (layer F.SilkS)
    (effects (font (size 1 1) (thickness 0.15)))
  )
  (fp_text value Crystal_SMD_SeikoEpson_MC156-4Pin_7.1x2.5mm_HandSoldering (at 0 3.75) (layer F.Fab)
    (effects (font (size 1 1) (thickness 0.15)))
  )
  (fp_text user %R (at 0 0) (layer F.Fab)
    (effects (font (size 1 1) (thickness 0.15)))
  )
  (fp_line (start -3.55 -0.5) (end -3.55 -1.25) (layer F.Fab) (width 0.1))
  (fp_line (start -3.55 -1.25) (end 3.55 -1.25) (layer F.Fab) (width 0.1))
  (fp_line (start 3.55 -1.25) (end 3.55 1.25) (layer F.Fab) (width 0.1))
  (fp_line (start 3.55 1.25) (end -3.55 1.25) (layer F.Fab) (width 0.1))
  (fp_line (start -3.55 1.25) (end -3.55 0.5) (layer F.Fab) (width 0.1))
  (fp_line (start 3.46 -1.45) (end 3.75 -1.45) (layer F.SilkS) (width 0.12))
  (fp_line (start 3.75 -1.45) (end 3.75 1.45) (layer F.SilkS) (width 0.12))
  (fp_line (start 3.75 1.45) (end 3.46 1.45) (layer F.SilkS) (width 0.12))
  (fp_line (start -1.74 -1.45) (end 1.74 -1.45) (layer F.SilkS) (width 0.12))
  (fp_line (start -3.75 -0.5) (end -3.75 -1.45) (layer F.SilkS) (width 0.12))
  (fp_line (start -3.75 1.45) (end -3.75 0.5) (layer F.SilkS) (width 0.12))
  (fp_line (start -3.75 -1.45) (end -3.46 -1.45) (layer F.SilkS) (width 0.12))
  (fp_line (start -3.75 1.45) (end -3.46 1.45) (layer F.SilkS) (width 0.12))
  (fp_line (start 1.74 1.45) (end -1.74 1.45) (layer F.SilkS) (width 0.12))
  (fp_line (start -3.8 -3) (end -3.8 3) (layer F.CrtYd) (width 0.05))
  (fp_line (start -3.8 3) (end 3.8 3) (layer F.CrtYd) (width 0.05))
  (fp_line (start 3.8 3) (end 3.8 -3) (layer F.CrtYd) (width 0.05))
  (fp_line (start 3.8 -3) (end -3.8 -3) (layer F.CrtYd) (width 0.05))
  (fp_arc (start -3.55 0) (end -3.55 -0.5) (angle 180) (layer F.Fab) (width 0.1))
  (fp_arc (start -3.75 0) (end -3.75 -0.5) (angle 180) (layer F.SilkS) (width 0.12))
  (pad 1 smd rect (at -2.6 1.625) (size 1.32 2.25) (layers F.Cu F.Paste F.Mask))
  (pad 2 smd rect (at 2.6 1.625) (size 1.32 2.25) (layers F.Cu F.Paste F.Mask))
  (pad 3 smd rect (at 2.6 -1.625) (size 1.32 2.25) (layers F.Cu F.Paste F.Mask))
  (pad 4 smd rect (at -2.6 -1.625) (size 1.32 2.25) (layers F.Cu F.Paste F.Mask))
  (model ${KIPRJMOD}/kicad_libs_k/models_k.3d/Crystal_k.3dshapes/Crystal_SMD_SeikoEpson_MC156-4Pin_7.1x2.5mm_HandSoldering_k.wrl
    (at (xyz 0 0 0))
    (scale (xyz 1 1 1))
    (rotate (xyz 0 0 0))
  )
)
