(module Crystal_HC18-U_Vertical (layer F.Cu) (tedit 5A1AD3B7)
  (descr "Crystal THT HC-18/U, http://5hertz.com/pdfs/04404_D.pdf")
  (tags "THT crystalHC-18/U")
  (fp_text reference REF** (at 2.45 -3.525) (layer F.SilkS)
    (effects (font (size 1 1) (thickness 0.15)))
  )
  (fp_text value Crystal_HC18-U_Vertical (at 2.45 3.525) (layer F.Fab)
    (effects (font (size 1 1) (thickness 0.15)))
  )
  (fp_text user %R (at 2.45 0) (layer F.Fab)
    (effects (font (size 1 1) (thickness 0.15)))
  )
  (fp_line (start -0.675 -2.325) (end 5.575 -2.325) (layer F.Fab) (width 0.1))
  (fp_line (start -0.675 2.325) (end 5.575 2.325) (layer F.Fab) (width 0.1))
  (fp_line (start -0.55 -2) (end 5.45 -2) (layer F.Fab) (width 0.1))
  (fp_line (start -0.55 2) (end 5.45 2) (layer F.Fab) (width 0.1))
  (fp_line (start -0.675 -2.525) (end 5.575 -2.525) (layer F.SilkS) (width 0.12))
  (fp_line (start -0.675 2.525) (end 5.575 2.525) (layer F.SilkS) (width 0.12))
  (fp_line (start -3.5 -2.8) (end -3.5 2.8) (layer F.CrtYd) (width 0.05))
  (fp_line (start -3.5 2.8) (end 8.4 2.8) (layer F.CrtYd) (width 0.05))
  (fp_line (start 8.4 2.8) (end 8.4 -2.8) (layer F.CrtYd) (width 0.05))
  (fp_line (start 8.4 -2.8) (end -3.5 -2.8) (layer F.CrtYd) (width 0.05))
  (fp_arc (start -0.675 0) (end -0.675 -2.325) (angle -180) (layer F.Fab) (width 0.1))
  (fp_arc (start 5.575 0) (end 5.575 -2.325) (angle 180) (layer F.Fab) (width 0.1))
  (fp_arc (start -0.55 0) (end -0.55 -2) (angle -180) (layer F.Fab) (width 0.1))
  (fp_arc (start 5.45 0) (end 5.45 -2) (angle 180) (layer F.Fab) (width 0.1))
  (fp_arc (start -0.675 0) (end -0.675 -2.525) (angle -180) (layer F.SilkS) (width 0.12))
  (fp_arc (start 5.575 0) (end 5.575 -2.525) (angle 180) (layer F.SilkS) (width 0.12))
  (pad 1 thru_hole circle (at 0 0) (size 1.5 1.5) (drill 0.8) (layers *.Cu *.Mask))
  (pad 2 thru_hole circle (at 4.9 0) (size 1.5 1.5) (drill 0.8) (layers *.Cu *.Mask))
  (model ${KIPRJMOD}/kicad_libs_k/models_k.3d/Crystal_k.3dshapes/Crystal_HC18-U_Vertical_k.wrl
    (at (xyz 0 0 0))
    (scale (xyz 1 1 1))
    (rotate (xyz 0 0 0))
  )
)
