(module Crystal_SMD_EuroQuartz_MQ-4Pin_7.0x5.0mm_HandSoldering (layer F.Cu) (tedit 5A0FD1B2)
  (descr "SMD Crystal EuroQuartz MQ series http://cdn-reichelt.de/documents/datenblatt/B400/MQ.pdf, hand-soldering, 7.0x5.0mm^2 package")
  (tags "SMD SMT crystal hand-soldering")
  (attr smd)
  (fp_text reference REF** (at 0 -3.7) (layer F.SilkS)
    (effects (font (size 1 1) (thickness 0.15)))
  )
  (fp_text value Crystal_SMD_EuroQuartz_MQ-4Pin_7.0x5.0mm_HandSoldering (at 0 3.7) (layer F.Fab)
    (effects (font (size 1 1) (thickness 0.15)))
  )
  (fp_text user %R (at 0 0) (layer F.Fab)
    (effects (font (size 1 1) (thickness 0.15)))
  )
  (fp_line (start -3.4 -2.5) (end 3.4 -2.5) (layer F.Fab) (width 0.1))
  (fp_line (start 3.4 -2.5) (end 3.5 -2.4) (layer F.Fab) (width 0.1))
  (fp_line (start 3.5 -2.4) (end 3.5 2.4) (layer F.Fab) (width 0.1))
  (fp_line (start 3.5 2.4) (end 3.4 2.5) (layer F.Fab) (width 0.1))
  (fp_line (start 3.4 2.5) (end -3.4 2.5) (layer F.Fab) (width 0.1))
  (fp_line (start -3.4 2.5) (end -3.5 2.4) (layer F.Fab) (width 0.1))
  (fp_line (start -3.5 2.4) (end -3.5 -2.4) (layer F.Fab) (width 0.1))
  (fp_line (start -3.5 -2.4) (end -3.4 -2.5) (layer F.Fab) (width 0.1))
  (fp_line (start -3.5 1.5) (end -2.5 2.5) (layer F.Fab) (width 0.1))
  (fp_line (start -3.7 -2.29) (end -3.7 -2.7) (layer F.SilkS) (width 0.12))
  (fp_line (start -3.7 -2.7) (end 3.7 -2.7) (layer F.SilkS) (width 0.12))
  (fp_line (start 3.7 -2.7) (end 3.7 -2.29) (layer F.SilkS) (width 0.12))
  (fp_line (start -5.55 2.29) (end -3.7 2.29) (layer F.SilkS) (width 0.12))
  (fp_line (start -3.7 2.29) (end -3.7 2.7) (layer F.SilkS) (width 0.12))
  (fp_line (start -3.7 2.7) (end 3.7 2.7) (layer F.SilkS) (width 0.12))
  (fp_line (start 3.7 2.7) (end 3.7 2.29) (layer F.SilkS) (width 0.12))
  (fp_line (start -5.55 0.35) (end -3.7 0.35) (layer F.SilkS) (width 0.12))
  (fp_line (start -3.7 0.35) (end -3.7 -0.35) (layer F.SilkS) (width 0.12))
  (fp_line (start 3.7 -0.35) (end 3.7 0.35) (layer F.SilkS) (width 0.12))
  (fp_line (start -5.6 -2.8) (end -5.6 2.8) (layer F.CrtYd) (width 0.05))
  (fp_line (start -5.6 2.8) (end 5.6 2.8) (layer F.CrtYd) (width 0.05))
  (fp_line (start 5.6 2.8) (end 5.6 -2.8) (layer F.CrtYd) (width 0.05))
  (fp_line (start 5.6 -2.8) (end -5.6 -2.8) (layer F.CrtYd) (width 0.05))
  (pad 1 smd rect (at -3.7 1.32) (size 3.3 1.54) (layers F.Cu F.Paste F.Mask))
  (pad 2 smd rect (at 3.7 1.32) (size 3.3 1.54) (layers F.Cu F.Paste F.Mask))
  (pad 3 smd rect (at 3.7 -1.32) (size 3.3 1.54) (layers F.Cu F.Paste F.Mask))
  (pad 4 smd rect (at -3.7 -1.32) (size 3.3 1.54) (layers F.Cu F.Paste F.Mask))
  (model ${KIPRJMOD}/kicad_libs_k/models_k.3d/Crystal_k.3dshapes/Crystal_SMD_EuroQuartz_MQ-4Pin_7.0x5.0mm_HandSoldering_k.wrl
    (at (xyz 0 0 0))
    (scale (xyz 1 1 1))
    (rotate (xyz 0 0 0))
  )
)
