(module Crystal_SMD_2012-2Pin_2.0x1.2mm_HandSoldering (layer F.Cu) (tedit 5A0FD1B2)
  (descr "SMD Crystal 2012/2 http://txccrystal.com/images/pdf/9ht11.pdf, hand-soldering, 2.0x1.2mm^2 package")
  (tags "SMD SMT crystal hand-soldering")
  (attr smd)
  (fp_text reference REF** (at 0 -1.8) (layer F.SilkS)
    (effects (font (size 1 1) (thickness 0.15)))
  )
  (fp_text value Crystal_SMD_2012-2Pin_2.0x1.2mm_HandSoldering (at 0 1.8) (layer F.Fab)
    (effects (font (size 1 1) (thickness 0.15)))
  )
  (fp_text user %R (at 0 0) (layer F.Fab)
    (effects (font (size 0.5 0.5) (thickness 0.075)))
  )
  (fp_line (start -1 -0.6) (end -1 0.6) (layer F.Fab) (width 0.1))
  (fp_line (start -1 0.6) (end 1 0.6) (layer F.Fab) (width 0.1))
  (fp_line (start 1 0.6) (end 1 -0.6) (layer F.Fab) (width 0.1))
  (fp_line (start 1 -0.6) (end -1 -0.6) (layer F.Fab) (width 0.1))
  (fp_line (start -1 0.1) (end -0.5 0.6) (layer F.Fab) (width 0.1))
  (fp_line (start 1.2 -0.8) (end -1.65 -0.8) (layer F.SilkS) (width 0.12))
  (fp_line (start -1.65 -0.8) (end -1.65 0.8) (layer F.SilkS) (width 0.12))
  (fp_line (start -1.65 0.8) (end 1.2 0.8) (layer F.SilkS) (width 0.12))
  (fp_line (start -1.7 -0.9) (end -1.7 0.9) (layer F.CrtYd) (width 0.05))
  (fp_line (start -1.7 0.9) (end 1.7 0.9) (layer F.CrtYd) (width 0.05))
  (fp_line (start 1.7 0.9) (end 1.7 -0.9) (layer F.CrtYd) (width 0.05))
  (fp_line (start 1.7 -0.9) (end -1.7 -0.9) (layer F.CrtYd) (width 0.05))
  (fp_circle (center 0 0) (end 0.2 0) (layer F.Adhes) (width 0.1))
  (fp_circle (center 0 0) (end 0.166667 0) (layer F.Adhes) (width 0.0666666667))
  (fp_circle (center 0 0) (end 0.106667 0) (layer F.Adhes) (width 0.0666666667))
  (fp_circle (center 0 0) (end 0.046667 0) (layer F.Adhes) (width 0.0933333333))
  (pad 1 smd rect (at -0.925 0) (size 1.05 1.1) (layers F.Cu F.Paste F.Mask))
  (pad 2 smd rect (at 0.925 0) (size 1.05 1.1) (layers F.Cu F.Paste F.Mask))
  (model ${KIPRJMOD}/kicad_libs_k/models_k.3d/Crystal_k.3dshapes/Crystal_SMD_2012-2Pin_2.0x1.2mm_HandSoldering_k.wrl
    (at (xyz 0 0 0))
    (scale (xyz 1 1 1))
    (rotate (xyz 0 0 0))
  )
)
