(module Crystal_DS26_D2.0mm_L6.0mm_Horizontal (layer F.Cu) (tedit 5A0FD1B2)
  (descr "Crystal THT DS26 6.0mm length 2.0mm diameter http://www.microcrystal.com/images/_Product-Documentation/03_TF_metal_Packages/01_Datasheet/DS-Series.pdf")
  (tags ['DS26'])
  (fp_text reference REF** (at -1.57 1.625 90) (layer F.SilkS)
    (effects (font (size 1 1) (thickness 0.15)))
  )
  (fp_text value Crystal_DS26_D2.0mm_L6.0mm_Horizontal (at 3.47 1.625 90) (layer F.Fab)
    (effects (font (size 1 1) (thickness 0.15)))
  )
  (fp_text user %R (at 1 4.75 90) (layer F.Fab)
    (effects (font (size 0.7 0.7) (thickness 0.105)))
  )
  (fp_line (start -0.05 2) (end -0.05 8) (layer F.Fab) (width 0.1))
  (fp_line (start -0.05 8) (end 1.95 8) (layer F.Fab) (width 0.1))
  (fp_line (start 1.95 8) (end 1.95 2) (layer F.Fab) (width 0.1))
  (fp_line (start 1.95 2) (end -0.05 2) (layer F.Fab) (width 0.1))
  (fp_line (start 0.6 2) (end 0 1) (layer F.Fab) (width 0.1))
  (fp_line (start 0 1) (end 0 0) (layer F.Fab) (width 0.1))
  (fp_line (start 1.3 2) (end 1.9 1) (layer F.Fab) (width 0.1))
  (fp_line (start 1.9 1) (end 1.9 0) (layer F.Fab) (width 0.1))
  (fp_line (start -0.25 1.8) (end -0.25 8.2) (layer F.SilkS) (width 0.12))
  (fp_line (start -0.25 8.2) (end 2.15 8.2) (layer F.SilkS) (width 0.12))
  (fp_line (start 2.15 8.2) (end 2.15 1.8) (layer F.SilkS) (width 0.12))
  (fp_line (start 2.15 1.8) (end -0.25 1.8) (layer F.SilkS) (width 0.12))
  (fp_line (start 0.6 1.8) (end 0 0.9) (layer F.SilkS) (width 0.12))
  (fp_line (start 0 0.9) (end 0 0.7) (layer F.SilkS) (width 0.12))
  (fp_line (start 1.3 1.8) (end 1.9 0.9) (layer F.SilkS) (width 0.12))
  (fp_line (start 1.9 0.9) (end 1.9 0.7) (layer F.SilkS) (width 0.12))
  (fp_line (start -0.8 -0.8) (end -0.8 8.8) (layer F.CrtYd) (width 0.05))
  (fp_line (start -0.8 8.8) (end 2.7 8.8) (layer F.CrtYd) (width 0.05))
  (fp_line (start 2.7 8.8) (end 2.7 -0.8) (layer F.CrtYd) (width 0.05))
  (fp_line (start 2.7 -0.8) (end -0.8 -0.8) (layer F.CrtYd) (width 0.05))
  (pad 1 thru_hole circle (at 0 0) (size 1 1) (drill 0.5) (layers *.Cu *.Mask))
  (pad 2 thru_hole circle (at 1.9 0) (size 1 1) (drill 0.5) (layers *.Cu *.Mask))
  (model ${KIPRJMOD}/kicad_libs_k/models_k.3d/Crystal_k.3dshapes/Crystal_DS26_D2.0mm_L6.0mm_Horizontal_k.wrl
    (at (xyz 0 0 0))
    (scale (xyz 1 1 1))
    (rotate (xyz 0 0 0))
  )
)
