(module Crystal_SMD_3215-2Pin_3.2x1.5mm (layer F.Cu) (tedit 5A0FD1B2)
  (descr "SMD Crystal FC-135 https://support.epson.biz/td/api/doc_check.php?dl=brief_FC-135R_en.pdf")
  (tags "SMD SMT Crystal")
  (attr smd)
  (fp_text reference REF** (at 0 -2) (layer F.SilkS)
    (effects (font (size 1 1) (thickness 0.15)))
  )
  (fp_text value Crystal_SMD_3215-2Pin_3.2x1.5mm (at 0 2) (layer F.Fab)
    (effects (font (size 1 1) (thickness 0.15)))
  )
  (fp_text user %R (at 0 -2) (layer F.Fab)
    (effects (font (size 1 1) (thickness 0.15)))
  )
  (fp_line (start -2 -1.15) (end 2 -1.15) (layer F.CrtYd) (width 0.05))
  (fp_line (start -1.6 -0.75) (end -1.6 0.75) (layer F.Fab) (width 0.1))
  (fp_line (start -0.675 0.875) (end 0.675 0.875) (layer F.SilkS) (width 0.12))
  (fp_line (start -0.675 -0.875) (end 0.675 -0.875) (layer F.SilkS) (width 0.12))
  (fp_line (start 1.6 -0.75) (end 1.6 0.75) (layer F.Fab) (width 0.1))
  (fp_line (start -1.6 -0.75) (end 1.6 -0.75) (layer F.Fab) (width 0.1))
  (fp_line (start -1.6 0.75) (end 1.6 0.75) (layer F.Fab) (width 0.1))
  (fp_line (start -2 1.15) (end 2 1.15) (layer F.CrtYd) (width 0.05))
  (fp_line (start -2 -1.15) (end -2 1.15) (layer F.CrtYd) (width 0.05))
  (fp_line (start 2 -1.15) (end 2 1.15) (layer F.CrtYd) (width 0.05))
  (pad 1 smd rect (at 1.25 0) (size 1 1.8) (layers F.Cu F.Paste F.Mask))
  (pad 2 smd rect (at -1.25 0) (size 1 1.8) (layers F.Cu F.Paste F.Mask))
  (model ${KIPRJMOD}/kicad_libs_k/models_k.3d/Crystal_k.3dshapes/Crystal_SMD_3215-2Pin_3.2x1.5mm_k.wrl
    (at (xyz 0 0 0))
    (scale (xyz 1 1 1))
    (rotate (xyz 0 0 0))
  )
)
