(module Crystal_SMD_SeikoEpson_MC405-2Pin_9.6x4.1mm_HandSoldering (layer F.Cu) (tedit 5A0FD1B2)
  (descr "SMD Crystal Seiko Epson MC-405 https://support.epson.biz/td/api/doc_check.php?dl=brief_MC-306_en.pdf, hand-soldering, 9.6x4.1mm^2 package")
  (tags "SMD SMT crystal hand-soldering")
  (attr smd)
  (fp_text reference REF** (at 0 -3.23) (layer F.SilkS)
    (effects (font (size 1 1) (thickness 0.15)))
  )
  (fp_text value Crystal_SMD_SeikoEpson_MC405-2Pin_9.6x4.1mm_HandSoldering (at 0 3.23) (layer F.Fab)
    (effects (font (size 1 1) (thickness 0.15)))
  )
  (fp_text user %R (at 0 0) (layer F.Fab)
    (effects (font (size 1 1) (thickness 0.15)))
  )
  (fp_line (start -4.8 -2.03) (end -4.8 2.03) (layer F.Fab) (width 0.1))
  (fp_line (start -4.8 2.03) (end 4.8 2.03) (layer F.Fab) (width 0.1))
  (fp_line (start 4.8 2.03) (end 4.8 -2.03) (layer F.Fab) (width 0.1))
  (fp_line (start 4.8 -2.03) (end -4.8 -2.03) (layer F.Fab) (width 0.1))
  (fp_line (start -4.8 1.03) (end -3.8 2.03) (layer F.Fab) (width 0.1))
  (fp_line (start -1.75 -2.23) (end 1.75 -2.23) (layer F.SilkS) (width 0.12))
  (fp_line (start -1.75 2.23) (end 1.75 2.23) (layer F.SilkS) (width 0.12))
  (fp_line (start -9.325 -2.05) (end -9.325 2.05) (layer F.SilkS) (width 0.12))
  (fp_line (start -9.4 -2.3) (end -9.4 2.3) (layer F.CrtYd) (width 0.05))
  (fp_line (start -9.4 2.3) (end 9.4 2.3) (layer F.CrtYd) (width 0.05))
  (fp_line (start 9.4 2.3) (end 9.4 -2.3) (layer F.CrtYd) (width 0.05))
  (fp_line (start 9.4 -2.3) (end -9.4 -2.3) (layer F.CrtYd) (width 0.05))
  (pad 1 smd rect (at -5.5375 0) (size 7.175 4.1) (layers F.Cu F.Paste F.Mask))
  (pad 2 smd rect (at 5.5375 0) (size 7.175 4.1) (layers F.Cu F.Paste F.Mask))
  (model ${KIPRJMOD}/kicad_libs_k/models_k.3d/Crystal_k.3dshapes/Crystal_SMD_SeikoEpson_MC405-2Pin_9.6x4.1mm_HandSoldering_k.wrl
    (at (xyz 0 0 0))
    (scale (xyz 1 1 1))
    (rotate (xyz 0 0 0))
  )
)
