(module Crystal_HC52-U_Horizontal_1EP_style1 (layer F.Cu) (tedit 5A1AD3B8)
  (descr "Crystal THT HC-51/U http://www.kvg-gmbh.de/assets/uploads/files/product_pdfs/XS71xx.pdf")
  (tags "THT crystal")
  (fp_text reference REF** (at -3.725 2.175 90) (layer F.SilkS)
    (effects (font (size 1 1) (thickness 0.15)))
  )
  (fp_text value Crystal_HC52-U_Horizontal_1EP_style1 (at 7.525 2.175 90) (layer F.Fab)
    (effects (font (size 1 1) (thickness 0.15)))
  )
  (fp_text user %R (at 1.9 5.125) (layer F.Fab)
    (effects (font (size 1 1) (thickness 0.15)))
  )
  (fp_line (start -2.1 1.5) (end -2.1 10.3) (layer F.Fab) (width 0.1))
  (fp_line (start -2.1 10.3) (end 5.9 10.3) (layer F.Fab) (width 0.1))
  (fp_line (start 5.9 10.3) (end 5.9 1.5) (layer F.Fab) (width 0.1))
  (fp_line (start 5.9 1.5) (end -2.1 1.5) (layer F.Fab) (width 0.1))
  (fp_line (start 0 1.5) (end 0 0.75) (layer F.Fab) (width 0.1))
  (fp_line (start 0 0.75) (end 0 0) (layer F.Fab) (width 0.1))
  (fp_line (start 3.8 1.5) (end 3.8 0.75) (layer F.Fab) (width 0.1))
  (fp_line (start 3.8 0.75) (end 3.8 0) (layer F.Fab) (width 0.1))
  (fp_line (start -2.45 1.5) (end -2.45 1.4) (layer F.Fab) (width 0.1))
  (fp_line (start -2.45 1.4) (end 6.25 1.4) (layer F.Fab) (width 0.1))
  (fp_line (start 6.25 1.4) (end 6.25 1.5) (layer F.Fab) (width 0.1))
  (fp_line (start 6.25 1.5) (end -2.45 1.5) (layer F.Fab) (width 0.1))
  (fp_line (start -2.55 1.3) (end -2.55 11.2) (layer F.SilkS) (width 0.12))
  (fp_line (start -2.55 11.2) (end 6.35 11.2) (layer F.SilkS) (width 0.12))
  (fp_line (start 6.35 11.2) (end 6.35 1.3) (layer F.SilkS) (width 0.12))
  (fp_line (start 6.35 1.3) (end -2.55 1.3) (layer F.SilkS) (width 0.12))
  (fp_line (start 0 1.3) (end 0 0.95) (layer F.SilkS) (width 0.12))
  (fp_line (start 0 0.95) (end 0 0.95) (layer F.SilkS) (width 0.12))
  (fp_line (start 3.8 1.3) (end 3.8 0.95) (layer F.SilkS) (width 0.12))
  (fp_line (start 3.8 0.95) (end 3.8 0.95) (layer F.SilkS) (width 0.12))
  (fp_line (start -2.9 1.3) (end -2.9 1.18) (layer F.SilkS) (width 0.12))
  (fp_line (start -2.9 1.18) (end 6.7 1.18) (layer F.SilkS) (width 0.12))
  (fp_line (start 6.7 1.18) (end 6.7 1.3) (layer F.SilkS) (width 0.12))
  (fp_line (start 6.7 1.3) (end -2.9 1.3) (layer F.SilkS) (width 0.12))
  (fp_line (start -3.2 -1) (end -3.2 11.7) (layer F.CrtYd) (width 0.05))
  (fp_line (start -3.2 11.7) (end 7 11.7) (layer F.CrtYd) (width 0.05))
  (fp_line (start 7 11.7) (end 7 -1) (layer F.CrtYd) (width 0.05))
  (fp_line (start 7 -1) (end -3.2 -1) (layer F.CrtYd) (width 0.05))
  (pad 1 thru_hole circle (at 0 0) (size 1.5 1.5) (drill 0.8) (layers *.Cu *.Mask))
  (pad 2 thru_hole circle (at 3.8 0) (size 1.5 1.5) (drill 0.8) (layers *.Cu *.Mask))
  (pad 3 smd rect (at 1.9 6.25) (size 8.5 9.5) (layers F.Cu F.Paste F.Mask))
  (model ${KIPRJMOD}/kicad_libs_k/models_k.3d/Crystal_k.3dshapes/Crystal_HC52-U_Horizontal_1EP_style1_k.wrl
    (at (xyz 0 0 0))
    (scale (xyz 1 1 1))
    (rotate (xyz 0 0 0))
  )
)
