(module Crystal_SMD_EuroQuartz_EQ161-2Pin_3.2x1.5mm_HandSoldering (layer F.Cu) (tedit 5A0FD1B2)
  (descr "SMD Crystal EuroQuartz EQ161 series http://cdn-reichelt.de/documents/datenblatt/B400/PG32768C.pdf, hand-soldering, 3.2x1.5mm^2 package")
  (tags "SMD SMT crystal hand-soldering")
  (attr smd)
  (fp_text reference REF** (at 0 -1.95) (layer F.SilkS)
    (effects (font (size 1 1) (thickness 0.15)))
  )
  (fp_text value Crystal_SMD_EuroQuartz_EQ161-2Pin_3.2x1.5mm_HandSoldering (at 0 1.95) (layer F.Fab)
    (effects (font (size 1 1) (thickness 0.15)))
  )
  (fp_text user %R (at 0 0) (layer F.Fab)
    (effects (font (size 0.7 0.7) (thickness 0.105)))
  )
  (fp_line (start -1.5 -0.75) (end 1.5 -0.75) (layer F.Fab) (width 0.1))
  (fp_line (start 1.5 -0.75) (end 1.6 -0.65) (layer F.Fab) (width 0.1))
  (fp_line (start 1.6 -0.65) (end 1.6 0.65) (layer F.Fab) (width 0.1))
  (fp_line (start 1.6 0.65) (end 1.5 0.75) (layer F.Fab) (width 0.1))
  (fp_line (start 1.5 0.75) (end -1.5 0.75) (layer F.Fab) (width 0.1))
  (fp_line (start -1.5 0.75) (end -1.6 0.65) (layer F.Fab) (width 0.1))
  (fp_line (start -1.6 0.65) (end -1.6 -0.65) (layer F.Fab) (width 0.1))
  (fp_line (start -1.6 -0.65) (end -1.5 -0.75) (layer F.Fab) (width 0.1))
  (fp_line (start -1.6 0.25) (end -1.1 0.75) (layer F.Fab) (width 0.1))
  (fp_line (start -0.55 -0.95) (end 0.55 -0.95) (layer F.SilkS) (width 0.12))
  (fp_line (start -0.55 0.95) (end 0.55 0.95) (layer F.SilkS) (width 0.12))
  (fp_line (start -2.7 -0.9) (end -2.7 0.9) (layer F.SilkS) (width 0.12))
  (fp_line (start -2.8 -1.2) (end -2.8 1.2) (layer F.CrtYd) (width 0.05))
  (fp_line (start -2.8 1.2) (end 2.8 1.2) (layer F.CrtYd) (width 0.05))
  (fp_line (start 2.8 1.2) (end 2.8 -1.2) (layer F.CrtYd) (width 0.05))
  (fp_line (start 2.8 -1.2) (end -2.8 -1.2) (layer F.CrtYd) (width 0.05))
  (pad 1 smd rect (at -1.625 0) (size 1.75 1.8) (layers F.Cu F.Paste F.Mask))
  (pad 2 smd rect (at 1.625 0) (size 1.75 1.8) (layers F.Cu F.Paste F.Mask))
  (model ${KIPRJMOD}/kicad_libs_k/models_k.3d/Crystal_k.3dshapes/Crystal_SMD_EuroQuartz_EQ161-2Pin_3.2x1.5mm_HandSoldering_k.wrl
    (at (xyz 0 0 0))
    (scale (xyz 1 1 1))
    (rotate (xyz 0 0 0))
  )
)
