(module Crystal_SMD_SeikoEpson_MA505-2Pin_12.7x5.1mm (layer F.Cu) (tedit 5A0FD1B2)
  (descr "SMD Crystal Seiko Epson MC-505 http://media.digikey.com/pdf/Data%20Sheets/Epson%20PDFs/MA-505,506.pdf, 12.7x5.1mm^2 package")
  (tags "SMD SMT crystal")
  (attr smd)
  (fp_text reference REF** (at 0 -3.8) (layer F.SilkS)
    (effects (font (size 1 1) (thickness 0.15)))
  )
  (fp_text value Crystal_SMD_SeikoEpson_MA505-2Pin_12.7x5.1mm (at 0 3.8) (layer F.Fab)
    (effects (font (size 1 1) (thickness 0.15)))
  )
  (fp_text user %R (at 0 0) (layer F.Fab)
    (effects (font (size 1 1) (thickness 0.15)))
  )
  (fp_line (start -6.35 -2.54) (end -6.35 2.54) (layer F.Fab) (width 0.1))
  (fp_line (start -6.35 2.54) (end 6.35 2.54) (layer F.Fab) (width 0.1))
  (fp_line (start 6.35 2.54) (end 6.35 -2.54) (layer F.Fab) (width 0.1))
  (fp_line (start 6.35 -2.54) (end -6.35 -2.54) (layer F.Fab) (width 0.1))
  (fp_line (start -6.35 1.54) (end -5.35 2.54) (layer F.Fab) (width 0.1))
  (fp_line (start -3.3 -2.74) (end 3.3 -2.74) (layer F.SilkS) (width 0.12))
  (fp_line (start -3.3 2.74) (end 3.3 2.74) (layer F.SilkS) (width 0.12))
  (fp_line (start -7.8 -2.8) (end -7.8 2.8) (layer F.SilkS) (width 0.12))
  (fp_line (start -7.9 -3.1) (end -7.9 3.1) (layer F.CrtYd) (width 0.05))
  (fp_line (start -7.9 3.1) (end 7.9 3.1) (layer F.CrtYd) (width 0.05))
  (fp_line (start 7.9 3.1) (end 7.9 -3.1) (layer F.CrtYd) (width 0.05))
  (fp_line (start 7.9 -3.1) (end -7.9 -3.1) (layer F.CrtYd) (width 0.05))
  (pad 1 smd rect (at -5.55 0) (size 4.1 5.6) (layers F.Cu F.Paste F.Mask))
  (pad 2 smd rect (at 5.55 0) (size 4.1 5.6) (layers F.Cu F.Paste F.Mask))
  (model ${KIPRJMOD}/kicad_libs_k/models_k.3d/Crystal_k.3dshapes/Crystal_SMD_SeikoEpson_MA505-2Pin_12.7x5.1mm_k.wrl
    (at (xyz 0 0 0))
    (scale (xyz 1 1 1))
    (rotate (xyz 0 0 0))
  )
)
