(module Crystal_HC52-8mm_Horizontal (layer F.Cu) (tedit 5A1AD3B8)
  (descr "Crystal THT HC-51/8mm http://www.kvg-gmbh.de/assets/uploads/files/product_pdfs/XS71xx.pdf")
  (tags "THT crystal")
  (fp_text reference REF** (at -3.475 1.8125 90) (layer F.SilkS)
    (effects (font (size 1 1) (thickness 0.15)))
  )
  (fp_text value Crystal_HC52-8mm_Horizontal (at 7.275 1.8125 90) (layer F.Fab)
    (effects (font (size 1 1) (thickness 0.15)))
  )
  (fp_text user %R (at 2 4.75) (layer F.Fab)
    (effects (font (size 1 1) (thickness 0.15)))
  )
  (fp_line (start -2.1 1.5) (end -2.1 9.5) (layer F.Fab) (width 0.1))
  (fp_line (start -2.1 9.5) (end 5.9 9.5) (layer F.Fab) (width 0.1))
  (fp_line (start 5.9 9.5) (end 5.9 1.5) (layer F.Fab) (width 0.1))
  (fp_line (start 5.9 1.5) (end -2.1 1.5) (layer F.Fab) (width 0.1))
  (fp_line (start 0 1.5) (end 0 0.75) (layer F.Fab) (width 0.1))
  (fp_line (start 0 0.75) (end 0 0) (layer F.Fab) (width 0.1))
  (fp_line (start 3.8 1.5) (end 3.8 0.75) (layer F.Fab) (width 0.1))
  (fp_line (start 3.8 0.75) (end 3.8 0) (layer F.Fab) (width 0.1))
  (fp_line (start -2.45 1.5) (end -2.45 1.4) (layer F.Fab) (width 0.1))
  (fp_line (start -2.45 1.4) (end 6.25 1.4) (layer F.Fab) (width 0.1))
  (fp_line (start 6.25 1.4) (end 6.25 1.5) (layer F.Fab) (width 0.1))
  (fp_line (start 6.25 1.5) (end -2.45 1.5) (layer F.Fab) (width 0.1))
  (fp_line (start -2.3 1.3) (end -2.3 9.7) (layer F.SilkS) (width 0.12))
  (fp_line (start -2.3 9.7) (end 6.1 9.7) (layer F.SilkS) (width 0.12))
  (fp_line (start 6.1 9.7) (end 6.1 1.3) (layer F.SilkS) (width 0.12))
  (fp_line (start 6.1 1.3) (end -2.3 1.3) (layer F.SilkS) (width 0.12))
  (fp_line (start 0 1.3) (end 0 0.95) (layer F.SilkS) (width 0.12))
  (fp_line (start 0 0.95) (end 0 0.95) (layer F.SilkS) (width 0.12))
  (fp_line (start 3.8 1.3) (end 3.8 0.95) (layer F.SilkS) (width 0.12))
  (fp_line (start 3.8 0.95) (end 3.8 0.95) (layer F.SilkS) (width 0.12))
  (fp_line (start -2.65 1.3) (end -2.65 1.18) (layer F.SilkS) (width 0.12))
  (fp_line (start -2.65 1.18) (end 6.45 1.18) (layer F.SilkS) (width 0.12))
  (fp_line (start 6.45 1.18) (end 6.45 1.3) (layer F.SilkS) (width 0.12))
  (fp_line (start 6.45 1.3) (end -2.65 1.3) (layer F.SilkS) (width 0.12))
  (fp_line (start -3.2 -1) (end -3.2 10.3) (layer F.CrtYd) (width 0.05))
  (fp_line (start -3.2 10.3) (end 7 10.3) (layer F.CrtYd) (width 0.05))
  (fp_line (start 7 10.3) (end 7 -1) (layer F.CrtYd) (width 0.05))
  (fp_line (start 7 -1) (end -3.2 -1) (layer F.CrtYd) (width 0.05))
  (pad 1 thru_hole circle (at 0 0) (size 1.5 1.5) (drill 0.8) (layers *.Cu *.Mask))
  (pad 2 thru_hole circle (at 3.8 0) (size 1.5 1.5) (drill 0.8) (layers *.Cu *.Mask))
  (model ${KIPRJMOD}/kicad_libs_k/models_k.3d/Crystal_k.3dshapes/Crystal_HC52-8mm_Horizontal_k.wrl
    (at (xyz 0 0 0))
    (scale (xyz 1 1 1))
    (rotate (xyz 0 0 0))
  )
)
