(module Resonator_muRata_CSTLSxxxG-3Pin_W8.0mm_H3.0mm (layer F.Cu) (tedit 5A0FD1B2)
  (descr "Ceramic Resomator/Filter Murata CSTLSxxxG, http://www.murata.com/~/media/webrenewal/support/library/catalog/products/timingdevice/ceralock/p17e.ashx, length*width=8.0x3.0mm^2 package, package length=8.0mm, package width=3.0mm, 3 pins")
  (tags "THT ceramic resonator filter CSTLSxxxG")
  (fp_text reference REF** (at 2.5 -2.7) (layer F.SilkS)
    (effects (font (size 1 1) (thickness 0.15)))
  )
  (fp_text value Resonator_muRata_CSTLSxxxG-3Pin_W8.0mm_H3.0mm (at 2.5 2.7) (layer F.Fab)
    (effects (font (size 1 1) (thickness 0.15)))
  )
  (fp_text user %R (at 2.5 0) (layer F.Fab)
    (effects (font (size 1 1) (thickness 0.15)))
  )
  (fp_line (start 0 -1.5) (end 5 -1.5) (layer F.Fab) (width 0.1))
  (fp_line (start 0 1.5) (end 5 1.5) (layer F.Fab) (width 0.1))
  (fp_line (start 0 -1.5) (end 5 -1.5) (layer F.Fab) (width 0.1))
  (fp_line (start 0 1.5) (end 5 1.5) (layer F.Fab) (width 0.1))
  (fp_line (start 0 -1.7) (end 5 -1.7) (layer F.SilkS) (width 0.12))
  (fp_line (start 0 1.7) (end 5 1.7) (layer F.SilkS) (width 0.12))
  (fp_line (start -2 -2) (end -2 2) (layer F.CrtYd) (width 0.05))
  (fp_line (start -2 2) (end 7 2) (layer F.CrtYd) (width 0.05))
  (fp_line (start 7 2) (end 7 -2) (layer F.CrtYd) (width 0.05))
  (fp_line (start 7 -2) (end -2 -2) (layer F.CrtYd) (width 0.05))
  (fp_arc (start 0 0) (end 0 -1.5) (angle -180) (layer F.Fab) (width 0.1))
  (fp_arc (start 5 0) (end 5 -1.5) (angle 180) (layer F.Fab) (width 0.1))
  (fp_arc (start 0 0) (end 0 -1.5) (angle -180) (layer F.Fab) (width 0.1))
  (fp_arc (start 5 0) (end 5 -1.5) (angle 180) (layer F.Fab) (width 0.1))
  (fp_arc (start 0 0) (end 0 -1.7) (angle -180) (layer F.SilkS) (width 0.12))
  (fp_arc (start 5 0) (end 5 -1.7) (angle 180) (layer F.SilkS) (width 0.12))
  (pad 1 thru_hole circle (at 0 0) (size 1.7 1.7) (drill 1) (layers *.Cu *.Mask))
  (pad 2 thru_hole circle (at 2.5 0) (size 1.7 1.7) (drill 1) (layers *.Cu *.Mask))
  (pad 3 thru_hole circle (at 5 0) (size 1.7 1.7) (drill 1) (layers *.Cu *.Mask))
  (model ${KIPRJMOD}/kicad_libs_k/models_k.3d/Crystal_k.3dshapes/Resonator_muRata_CSTLSxxxG-3Pin_W8.0mm_H3.0mm_k.wrl
    (at (xyz 0 0 0))
    (scale (xyz 1 1 1))
    (rotate (xyz 0 0 0))
  )
)
