(module Resonator_muRata_DSS6-3Pin_W7.0mm_H2.5mm (layer F.Cu) (tedit 5A0FD1B2)
  (descr "Ceramic Resomator/Filter Murata DSS6, http://cdn-reichelt.de/documents/datenblatt/B400/DSN6NC51H.pdf, length*width=7.0x2.5mm^2 package, package length=7.0mm, package width=2.5mm, 3 pins")
  (tags "THT ceramic resonator filter DSS6")
  (fp_text reference REF** (at 2.5 -2.47) (layer F.SilkS)
    (effects (font (size 1 1) (thickness 0.15)))
  )
  (fp_text value Resonator_muRata_DSS6-3Pin_W7.0mm_H2.5mm (at 2.5 2.47) (layer F.Fab)
    (effects (font (size 1 1) (thickness 0.15)))
  )
  (fp_text user %R (at 2.5 0) (layer F.Fab)
    (effects (font (size 1 1) (thickness 0.15)))
  )
  (fp_line (start 0.27 -1.27) (end 4.73 -1.27) (layer F.Fab) (width 0.1))
  (fp_line (start 0.27 1.27) (end 4.73 1.27) (layer F.Fab) (width 0.1))
  (fp_line (start 0.27 -1.27) (end 4.73 -1.27) (layer F.Fab) (width 0.1))
  (fp_line (start 0.27 1.27) (end 4.73 1.27) (layer F.Fab) (width 0.1))
  (fp_line (start 0.27 -1.47) (end 4.73 -1.47) (layer F.SilkS) (width 0.12))
  (fp_line (start 0.27 1.47) (end 4.73 1.47) (layer F.SilkS) (width 0.12))
  (fp_line (start -1.5 -1.8) (end -1.5 1.8) (layer F.CrtYd) (width 0.05))
  (fp_line (start -1.5 1.8) (end 6.5 1.8) (layer F.CrtYd) (width 0.05))
  (fp_line (start 6.5 1.8) (end 6.5 -1.8) (layer F.CrtYd) (width 0.05))
  (fp_line (start 6.5 -1.8) (end -1.5 -1.8) (layer F.CrtYd) (width 0.05))
  (fp_arc (start 0.27 0) (end 0.27 -1.27) (angle -180) (layer F.Fab) (width 0.1))
  (fp_arc (start 4.73 0) (end 4.73 -1.27) (angle 180) (layer F.Fab) (width 0.1))
  (fp_arc (start 0.27 0) (end 0.27 -1.27) (angle -180) (layer F.Fab) (width 0.1))
  (fp_arc (start 4.73 0) (end 4.73 -1.27) (angle 180) (layer F.Fab) (width 0.1))
  (fp_arc (start 0.27 0) (end 0.27 -1.47) (angle -180) (layer F.SilkS) (width 0.12))
  (fp_arc (start 4.73 0) (end 4.73 -1.47) (angle 180) (layer F.SilkS) (width 0.12))
  (pad 1 thru_hole circle (at 0 0) (size 1.7 1.7) (drill 1) (layers *.Cu *.Mask))
  (pad 2 thru_hole circle (at 2.5 0) (size 1.7 1.7) (drill 1) (layers *.Cu *.Mask))
  (pad 3 thru_hole circle (at 5 0) (size 1.7 1.7) (drill 1) (layers *.Cu *.Mask))
  (model ${KIPRJMOD}/kicad_libs_k/models_k.3d/Crystal_k.3dshapes/Resonator_muRata_DSS6-3Pin_W7.0mm_H2.5mm_k.wrl
    (at (xyz 0 0 0))
    (scale (xyz 1 1 1))
    (rotate (xyz 0 0 0))
  )
)
