(module Resonator-2Pin_W10.0mm_H5.0mm (layer F.Cu) (tedit 5A0FD1B2)
  (descr "Ceramic Resomator/Filter 10.0x5.0 RedFrequency MG/MT/MX series, http://www.red-frequency.com/download/datenblatt/redfrequency-datenblatt-ir-zta.pdf, length*width=10.0x5.0mm^2 package, package length=10.0mm, package width=5.0mm, 2 pins")
  (tags "THT ceramic resonator filter")
  (fp_text reference REF** (at 2.5 -3.7) (layer F.SilkS)
    (effects (font (size 1 1) (thickness 0.15)))
  )
  (fp_text value Resonator-2Pin_W10.0mm_H5.0mm (at 2.5 3.7) (layer F.Fab)
    (effects (font (size 1 1) (thickness 0.15)))
  )
  (fp_text user %R (at 2.5 0) (layer F.Fab)
    (effects (font (size 1 1) (thickness 0.15)))
  )
  (fp_line (start 0 -2.5) (end 5 -2.5) (layer F.Fab) (width 0.1))
  (fp_line (start 0 2.5) (end 5 2.5) (layer F.Fab) (width 0.1))
  (fp_line (start 0 -2.5) (end 5 -2.5) (layer F.Fab) (width 0.1))
  (fp_line (start 0 2.5) (end 5 2.5) (layer F.Fab) (width 0.1))
  (fp_line (start 0 -2.7) (end 5 -2.7) (layer F.SilkS) (width 0.12))
  (fp_line (start 0 2.7) (end 5 2.7) (layer F.SilkS) (width 0.12))
  (fp_line (start -3 -3) (end -3 3) (layer F.CrtYd) (width 0.05))
  (fp_line (start -3 3) (end 8 3) (layer F.CrtYd) (width 0.05))
  (fp_line (start 8 3) (end 8 -3) (layer F.CrtYd) (width 0.05))
  (fp_line (start 8 -3) (end -3 -3) (layer F.CrtYd) (width 0.05))
  (fp_arc (start 0 0) (end 0 -2.5) (angle -180) (layer F.Fab) (width 0.1))
  (fp_arc (start 5 0) (end 5 -2.5) (angle 180) (layer F.Fab) (width 0.1))
  (fp_arc (start 0 0) (end 0 -2.5) (angle -180) (layer F.Fab) (width 0.1))
  (fp_arc (start 5 0) (end 5 -2.5) (angle 180) (layer F.Fab) (width 0.1))
  (fp_arc (start 0 0) (end 0 -2.7) (angle -180) (layer F.SilkS) (width 0.12))
  (fp_arc (start 5 0) (end 5 -2.7) (angle 180) (layer F.SilkS) (width 0.12))
  (pad 1 thru_hole circle (at 0 0) (size 1.5 1.5) (drill 0.8) (layers *.Cu *.Mask))
  (pad 2 thru_hole circle (at 5 0) (size 1.5 1.5) (drill 0.8) (layers *.Cu *.Mask))
  (model ${KIPRJMOD}/kicad_libs_k/models_k.3d/Crystal_k.3dshapes/Resonator-2Pin_W10.0mm_H5.0mm_k.wrl
    (at (xyz 0 0 0))
    (scale (xyz 1 1 1))
    (rotate (xyz 0 0 0))
  )
)
