(module Resonator_SMD-3Pin_7.2x3.0mm (layer F.Cu) (tedit 5A0FD1B2)
  (descr "SMD Resomator/Filter 7.2x3.0mm, Murata CSTCC8M00G53-R0; 8MHz resonator, SMD, Farnell (Element 14) #1170435, http://www.farnell.com/datasheets/19296.pdf?_ga=1.247244932.122297557.1475167906, 7.2x3.0mm^2 package")
  (tags "SMD SMT ceramic resonator filter filter")
  (attr smd)
  (fp_text reference REF** (at 0 -2.9) (layer F.SilkS)
    (effects (font (size 1 1) (thickness 0.15)))
  )
  (fp_text value Resonator_SMD-3Pin_7.2x3.0mm (at 0 2.9) (layer F.Fab)
    (effects (font (size 1 1) (thickness 0.15)))
  )
  (fp_text user %R (at 0 0) (layer F.Fab)
    (effects (font (size 1 1) (thickness 0.15)))
  )
  (fp_line (start -3.6 -1.5) (end -3.6 1.5) (layer F.Fab) (width 0.1))
  (fp_line (start -3.6 1.5) (end 3.6 1.5) (layer F.Fab) (width 0.1))
  (fp_line (start 3.6 1.5) (end 3.6 -1.5) (layer F.Fab) (width 0.1))
  (fp_line (start 3.6 -1.5) (end -3.6 -1.5) (layer F.Fab) (width 0.1))
  (fp_line (start -3.6 0.5) (end -2.6 1.5) (layer F.Fab) (width 0.1))
  (fp_line (start 3.4 -1.7) (end 3.8 -1.7) (layer F.SilkS) (width 0.12))
  (fp_line (start 3.8 -1.7) (end 3.8 1.7) (layer F.SilkS) (width 0.12))
  (fp_line (start 3.8 1.7) (end 3.4 1.7) (layer F.SilkS) (width 0.12))
  (fp_line (start -4.04 -1.7) (end -4.04 1.7) (layer F.SilkS) (width 0.12))
  (fp_line (start -3.4 2.1) (end -3.4 1.7) (layer F.SilkS) (width 0.12))
  (fp_line (start -3.4 1.7) (end -3.8 1.7) (layer F.SilkS) (width 0.12))
  (fp_line (start -3.8 1.7) (end -3.8 -1.7) (layer F.SilkS) (width 0.12))
  (fp_line (start -3.8 -1.7) (end -3.4 -1.7) (layer F.SilkS) (width 0.12))
  (fp_line (start -3.9 -2.2) (end -3.9 2.2) (layer F.CrtYd) (width 0.05))
  (fp_line (start -3.9 2.2) (end 3.9 2.2) (layer F.CrtYd) (width 0.05))
  (fp_line (start 3.9 2.2) (end 3.9 -2.2) (layer F.CrtYd) (width 0.05))
  (fp_line (start 3.9 -2.2) (end -3.9 -2.2) (layer F.CrtYd) (width 0.05))
  (pad 1 smd rect (at -2.5 0) (size 1.4 3.8) (layers F.Cu F.Paste F.Mask))
  (pad 2 smd rect (at 0 0) (size 1.4 3.8) (layers F.Cu F.Paste F.Mask))
  (pad 3 smd rect (at 2.5 0) (size 1.4 3.8) (layers F.Cu F.Paste F.Mask))
  (model ${KIPRJMOD}/kicad_libs_k/models_k.3d/Crystal_k.3dshapes/Resonator_SMD-3Pin_7.2x3.0mm_k.wrl
    (at (xyz 0 0 0))
    (scale (xyz 1 1 1))
    (rotate (xyz 0 0 0))
  )
)
