(module Resonator_SMD_muRata_TPSKA-3Pin_7.9x3.8mm (layer F.Cu) (tedit 5A0FD1B2)
  (descr "SMD Resomator/Filter Murata TPSKA, http://cdn-reichelt.de/documents/datenblatt/B400/SFECV-107.pdf, 7.9x3.8mm^2 package")
  (tags "SMD SMT ceramic resonator filter filter")
  (attr smd)
  (fp_text reference REF** (at 0 -3.4) (layer F.SilkS)
    (effects (font (size 1 1) (thickness 0.15)))
  )
  (fp_text value Resonator_SMD_muRata_TPSKA-3Pin_7.9x3.8mm (at 0 3.4) (layer F.Fab)
    (effects (font (size 1 1) (thickness 0.15)))
  )
  (fp_text user %R (at 0 0) (layer F.Fab)
    (effects (font (size 1 1) (thickness 0.15)))
  )
  (fp_line (start -3.95 -1.9) (end -3.95 1.9) (layer F.Fab) (width 0.1))
  (fp_line (start -3.95 1.9) (end 3.95 1.9) (layer F.Fab) (width 0.1))
  (fp_line (start 3.95 1.9) (end 3.95 -1.9) (layer F.Fab) (width 0.1))
  (fp_line (start 3.95 -1.9) (end -3.95 -1.9) (layer F.Fab) (width 0.1))
  (fp_line (start -3.95 0.9) (end -2.95 1.9) (layer F.Fab) (width 0.1))
  (fp_line (start 3.2 -2.1) (end 4.15 -2.1) (layer F.SilkS) (width 0.12))
  (fp_line (start 4.15 -2.1) (end 4.15 2.1) (layer F.SilkS) (width 0.12))
  (fp_line (start 4.15 2.1) (end 3.2 2.1) (layer F.SilkS) (width 0.12))
  (fp_line (start -4.39 -2.1) (end -4.39 2.1) (layer F.SilkS) (width 0.12))
  (fp_line (start -3.2 2.6) (end -3.2 2.1) (layer F.SilkS) (width 0.12))
  (fp_line (start -3.2 2.1) (end -4.15 2.1) (layer F.SilkS) (width 0.12))
  (fp_line (start -4.15 2.1) (end -4.15 -2.1) (layer F.SilkS) (width 0.12))
  (fp_line (start -4.15 -2.1) (end -3.2 -2.1) (layer F.SilkS) (width 0.12))
  (fp_line (start -4.2 -2.7) (end -4.2 2.7) (layer F.CrtYd) (width 0.05))
  (fp_line (start -4.2 2.7) (end 4.2 2.7) (layer F.CrtYd) (width 0.05))
  (fp_line (start 4.2 2.7) (end 4.2 -2.7) (layer F.CrtYd) (width 0.05))
  (fp_line (start 4.2 -2.7) (end -4.2 -2.7) (layer F.CrtYd) (width 0.05))
  (pad 1 smd rect (at -2.5 0) (size 1 4.8) (layers F.Cu F.Paste F.Mask))
  (pad 2 smd rect (at 0 0) (size 1 4.8) (layers F.Cu F.Paste F.Mask))
  (pad 3 smd rect (at 2.5 0) (size 1 4.8) (layers F.Cu F.Paste F.Mask))
  (model ${KIPRJMOD}/kicad_libs_k/models_k.3d/Crystal_k.3dshapes/Resonator_SMD_muRata_TPSKA-3Pin_7.9x3.8mm_k.wrl
    (at (xyz 0 0 0))
    (scale (xyz 1 1 1))
    (rotate (xyz 0 0 0))
  )
)
