(module Resonator_SMD_muRata_CDSCB-2Pin_4.5x2.0mm (layer F.Cu) (tedit 5A0FD1B2)
  (descr "SMD Resomator/Filter Murata CDSCB, http://cdn-reichelt.de/documents/datenblatt/B400/SFECV-107.pdf, 4.5x2.0mm^2 package")
  (tags "SMD SMT ceramic resonator filter filter")
  (attr smd)
  (fp_text reference REF** (at 0 -2.3) (layer F.SilkS)
    (effects (font (size 1 1) (thickness 0.15)))
  )
  (fp_text value Resonator_SMD_muRata_CDSCB-2Pin_4.5x2.0mm (at 0 2.3) (layer F.Fab)
    (effects (font (size 1 1) (thickness 0.15)))
  )
  (fp_text user %R (at 0 0) (layer F.Fab)
    (effects (font (size 1 1) (thickness 0.15)))
  )
  (fp_line (start -2.25 -1) (end -2.25 1) (layer F.Fab) (width 0.1))
  (fp_line (start -2.25 1) (end 2.25 1) (layer F.Fab) (width 0.1))
  (fp_line (start 2.25 1) (end 2.25 -1) (layer F.Fab) (width 0.1))
  (fp_line (start 2.25 -1) (end -2.25 -1) (layer F.Fab) (width 0.1))
  (fp_line (start -2.25 0) (end -1.25 1) (layer F.Fab) (width 0.1))
  (fp_line (start -0.8 -1.2) (end 0.8 -1.2) (layer F.SilkS) (width 0.12))
  (fp_line (start -0.8 1.2) (end 0.8 1.2) (layer F.SilkS) (width 0.12))
  (fp_line (start -2.45 -1.3) (end -2.45 1.3) (layer F.SilkS) (width 0.12))
  (fp_line (start -2.5 -1.6) (end -2.5 1.6) (layer F.CrtYd) (width 0.05))
  (fp_line (start -2.5 1.6) (end 2.5 1.6) (layer F.CrtYd) (width 0.05))
  (fp_line (start 2.5 1.6) (end 2.5 -1.6) (layer F.CrtYd) (width 0.05))
  (fp_line (start 2.5 -1.6) (end -2.5 -1.6) (layer F.CrtYd) (width 0.05))
  (pad 1 smd rect (at -1.5 0) (size 1 2.6) (layers F.Cu F.Paste F.Mask))
  (pad 2 smd rect (at 1.5 0) (size 1 2.6) (layers F.Cu F.Paste F.Mask))
  (model ${KIPRJMOD}/kicad_libs_k/models_k.3d/Crystal_k.3dshapes/Resonator_SMD_muRata_CDSCB-2Pin_4.5x2.0mm_k.wrl
    (at (xyz 0 0 0))
    (scale (xyz 1 1 1))
    (rotate (xyz 0 0 0))
  )
)
