(module HX04_HX05_HallEffectCurrentTransducer (layer F.Cu) (tedit 5A0567E5)
  (descr "HX04 HX05 hall effect current transducer")
  (tags "HX04 HX05 hall effect current")
  (fp_text reference REF** (at 0 -5.19) (layer F.SilkS)
    (effects (font (size 1 1) (thickness 0.15)))
  )
  (fp_text value HX04_HX05_HallEffectCurrentTransducer (at 6.5 9.81) (layer F.Fab)
    (effects (font (size 1 1) (thickness 0.15)))
  )
  (fp_line (start -3 11.51) (end 16 11.51) (layer F.SilkS) (width 0.15))
  (fp_line (start 16 11.51) (end 16 -3.89) (layer F.SilkS) (width 0.15))
  (fp_line (start 16 -3.89) (end -3 -3.89) (layer F.SilkS) (width 0.15))
  (fp_line (start -3 -3.89) (end -3 11.51) (layer F.SilkS) (width 0.15))
  (fp_line (start 16.5 -4.44) (end 16.5 12.06) (layer F.CrtYd) (width 0.05))
  (fp_line (start 16.5 12.06) (end -3.5 12.06) (layer F.CrtYd) (width 0.05))
  (fp_line (start -3.5 12.06) (end -3.5 -4.44) (layer F.CrtYd) (width 0.05))
  (fp_line (start -3.5 -4.44) (end 16.5 -4.44) (layer F.CrtYd) (width 0.05))
  (fp_text user %R (at 6.5 -1.19) (layer F.Fab)
    (effects (font (size 1 1) (thickness 0.15)))
  )
  (fp_line (start -1.9 -3.8) (end -2.9 -2.8) (layer F.Fab) (width 0.1))
  (fp_line (start -2.9 -2.8) (end -2.9 11.4) (layer F.Fab) (width 0.1))
  (fp_line (start -2.9 11.4) (end 15.9 11.4) (layer F.Fab) (width 0.1))
  (fp_line (start 15.9 11.4) (end 15.9 -3.8) (layer F.Fab) (width 0.1))
  (fp_line (start 15.9 -3.8) (end -1.9 -3.8) (layer F.Fab) (width 0.1))
  (fp_line (start -2 -4.2) (end -3.3 -4.2) (layer F.SilkS) (width 0.12))
  (fp_line (start -3.3 -2.9) (end -3.3 -4.2) (layer F.SilkS) (width 0.12))
  (pad 5 thru_hole circle (at 10.85 0.81) (size 2.2 2.2) (drill 1.2) (layers *.Cu *.Mask))
  (pad 6 thru_hole circle (at 10.85 6.81) (size 2.2 2.2) (drill 1.2) (layers *.Cu *.Mask))
  (pad 3 thru_hole circle (at 0 5.08) (size 1.75 1.75) (drill 0.8128) (layers *.Cu *.Mask))
  (pad 2 thru_hole circle (at 0 2.54) (size 1.75 1.75) (drill 0.8128) (layers *.Cu *.Mask))
  (pad 1 thru_hole rect (at 0 0) (size 1.75 1.75) (drill 0.8128) (layers *.Cu *.Mask))
  (pad 4 thru_hole circle (at 0 7.62) (size 1.75 1.75) (drill 0.8128) (layers *.Cu *.Mask))
  (model ${KIPRJMOD}/kicad_libs_k/models_k.3d/Sensor_Current_k.3dshapes/HX04_HX05_HallEffectCurrentTransducer_k.wrl
    (at (xyz 0 0 0))
    (scale (xyz 1 1 1))
    (rotate (xyz 0 0 0))
  )
)
