(module LEM_HO8-NP (layer F.Cu) (tedit 5B0DB146)
  (descr "LEM HO 8/15/25-NP Current Transducer (https://www.lem.com/sites/default/files/products_datasheets/ho-np-0000_series.pdf)")
  (tags "current transducer")
  (fp_text reference REF** (at 4.25 -2 180) (layer F.SilkS)
    (effects (font (size 1 1) (thickness 0.15)))
  )
  (fp_text value LEM_HO8-NP (at 2.81 11.735 90) (layer F.Fab)
    (effects (font (size 1 1) (thickness 0.15)))
  )
  (fp_line (start 9.27 19.2) (end 9.27 20.24) (layer F.SilkS) (width 0.12))
  (fp_line (start 9.27 16.1) (end 9.27 16.7) (layer F.SilkS) (width 0.12))
  (fp_line (start 9.27 13) (end 9.27 13.6) (layer F.SilkS) (width 0.12))
  (fp_line (start -1.65 19.2) (end -1.65 20.24) (layer F.SilkS) (width 0.12))
  (fp_line (start -1.65 16.1) (end -1.65 16.7) (layer F.SilkS) (width 0.12))
  (fp_line (start -1.65 13) (end -1.65 13.6) (layer F.SilkS) (width 0.12))
  (fp_line (start -0.95 0.83) (end -0.95 -0.7) (layer F.SilkS) (width 0.12))
  (fp_line (start 0 1.44) (end 0.5 0.94) (layer F.Fab) (width 0.1))
  (fp_line (start -0.5 0.94) (end 0 1.44) (layer F.Fab) (width 0.1))
  (fp_line (start 0.01 23.94) (end 7.61 23.94) (layer F.Fab) (width 0.1))
  (fp_line (start 9.81 0.94) (end -2.19 0.94) (layer F.Fab) (width 0.1))
  (fp_line (start 9.16 10.94) (end 9.16 20.14) (layer F.Fab) (width 0.1))
  (fp_line (start 7.61 23.94) (end 7.61 20.14) (layer F.Fab) (width 0.1))
  (fp_line (start 7.61 20.14) (end 9.16 20.14) (layer F.Fab) (width 0.1))
  (fp_line (start 0.01 23.94) (end 0.01 20.14) (layer F.Fab) (width 0.1))
  (fp_line (start 0.01 20.14) (end -1.54 20.14) (layer F.Fab) (width 0.1))
  (fp_line (start -2.19 10.94) (end -2.19 0.94) (layer F.Fab) (width 0.1))
  (fp_line (start -2.3 0.83) (end -2.3 10.8) (layer F.SilkS) (width 0.12))
  (fp_line (start -1.65 20.25) (end -0.1 20.25) (layer F.SilkS) (width 0.12))
  (fp_line (start -0.1 20.25) (end -0.1 24.05) (layer F.SilkS) (width 0.12))
  (fp_line (start -0.1 24.05) (end 7.72 24.05) (layer F.SilkS) (width 0.12))
  (fp_line (start 7.72 24.05) (end 7.72 20.25) (layer F.SilkS) (width 0.12))
  (fp_line (start 7.72 20.25) (end 9.27 20.25) (layer F.SilkS) (width 0.12))
  (fp_line (start 9.92 10.8) (end 9.92 0.83) (layer F.SilkS) (width 0.12))
  (fp_text user %R (at 5.01 11.735 270) (layer F.Fab)
    (effects (font (size 1 1) (thickness 0.15)))
  )
  (fp_line (start 10.34 -0.95) (end -2.72 -0.95) (layer F.CrtYd) (width 0.05))
  (fp_line (start -2.72 -0.95) (end -2.72 24.19) (layer F.CrtYd) (width 0.05))
  (fp_line (start -2.72 24.19) (end 10.34 24.19) (layer F.CrtYd) (width 0.05))
  (fp_line (start 10.34 24.19) (end 10.34 -0.95) (layer F.CrtYd) (width 0.05))
  (fp_line (start -2.3 0.83) (end -0.95 0.83) (layer F.SilkS) (width 0.12))
  (fp_line (start 9.92 0.83) (end 8.4 0.83) (layer F.SilkS) (width 0.12))
  (fp_line (start -1.54 10.94) (end -1.54 20.14) (layer F.Fab) (width 0.1))
  (fp_line (start 9.81 0.94) (end 9.81 10.94) (layer F.Fab) (width 0.1))
  (fp_line (start 9.81 10.94) (end 9.16 10.94) (layer F.Fab) (width 0.1))
  (fp_line (start -2.19 10.94) (end -1.54 10.94) (layer F.Fab) (width 0.1))
  (pad 12 thru_hole oval (at -1.09 14.835) (size 2.75 2.1) (drill 1.5) (layers *.Cu *.Mask))
  (pad 13 thru_hole oval (at -1.09 11.735) (size 2.75 2.1) (drill 1.5) (layers *.Cu *.Mask))
  (pad 11 thru_hole oval (at -1.09 17.935) (size 2.75 2.1) (drill 1.5) (layers *.Cu *.Mask))
  (pad 10 thru_hole oval (at 8.71 17.935) (size 2.75 2.1) (drill 1.5) (layers *.Cu *.Mask))
  (pad 8 thru_hole oval (at 8.71 11.735) (size 2.75 2.1) (drill 1.5) (layers *.Cu *.Mask))
  (pad 9 thru_hole oval (at 8.71 14.835) (size 2.75 2.1) (drill 1.5) (layers *.Cu *.Mask))
  (pad 4 thru_hole circle (at 3.81 1.905) (size 1.4 1.4) (drill 0.9) (layers *.Cu *.Mask))
  (pad 6 thru_hole circle (at 6.35 1.905) (size 1.4 1.4) (drill 0.9) (layers *.Cu *.Mask))
  (pad 2 thru_hole circle (at 1.27 1.905) (size 1.4 1.4) (drill 0.9) (layers *.Cu *.Mask))
  (pad 3 thru_hole circle (at 2.54 0) (size 1.4 1.4) (drill 0.9) (layers *.Cu *.Mask))
  (pad 5 thru_hole circle (at 5.08 0) (size 1.4 1.4) (drill 0.9) (layers *.Cu *.Mask))
  (pad 7 thru_hole circle (at 7.62 0) (size 1.4 1.4) (drill 0.9) (layers *.Cu *.Mask))
  (pad 1 thru_hole rect (at 0 0) (size 1.4 1.4) (drill 0.9) (layers *.Cu *.Mask))
  (model ${KIPRJMOD}/kicad_libs_k/models_k.3d/Sensor_Current_k.3dshapes/LEM_HO8-NP_k.wrl
    (at (xyz 0 0 0))
    (scale (xyz 1 1 1))
    (rotate (xyz 0 0 0))
  )
)
