(module LEM_HX50-P-SP2 (layer F.Cu) (tedit 5B0F0565)
  (descr "LEM HX50-P-SP2 hall effect current transducer (https://www.lem.com/sites/default/files/products_datasheets/hx%203_50-p_sp2_e%20v07.pdf)")
  (tags "hall current")
  (fp_text reference REF** (at 5.42 -5) (layer F.SilkS)
    (effects (font (size 1 1) (thickness 0.15)))
  )
  (fp_text value LEM_HX50-P-SP2 (at 5.42 4.81) (layer F.Fab)
    (effects (font (size 1 1) (thickness 0.15)))
  )
  (fp_line (start -3.11 11.62) (end 16.11 11.62) (layer F.SilkS) (width 0.12))
  (fp_line (start 16.11 11.62) (end 16.11 -4) (layer F.SilkS) (width 0.12))
  (fp_line (start 16.11 -4) (end -3.11 -4) (layer F.SilkS) (width 0.12))
  (fp_line (start -3.11 -4) (end -3.11 11.62) (layer F.SilkS) (width 0.12))
  (fp_line (start -2 -3.89) (end -3 -2.89) (layer F.Fab) (width 0.1))
  (fp_line (start -3 -2.89) (end -3 11.51) (layer F.Fab) (width 0.1))
  (fp_line (start -3 11.51) (end 16 11.51) (layer F.Fab) (width 0.1))
  (fp_line (start 16 11.51) (end 16 -4) (layer F.Fab) (width 0.1))
  (fp_line (start 16 -3.89) (end -2 -3.89) (layer F.Fab) (width 0.1))
  (fp_line (start -3.25 -4.14) (end -3.25 11.76) (layer F.CrtYd) (width 0.05))
  (fp_line (start -3.25 11.76) (end 16.25 11.76) (layer F.CrtYd) (width 0.05))
  (fp_line (start 16.25 11.76) (end 16.25 -4.14) (layer F.CrtYd) (width 0.05))
  (fp_line (start 16.25 -4.14) (end -3.25 -4.14) (layer F.CrtYd) (width 0.05))
  (fp_text user %R (at 5.42 2.81) (layer F.Fab)
    (effects (font (size 1 1) (thickness 0.15)))
  )
  (fp_line (start -1.9 -4.25) (end -3.36 -4.25) (layer F.SilkS) (width 0.12))
  (fp_line (start -3.36 -2.79) (end -3.36 -4.25) (layer F.SilkS) (width 0.12))
  (pad 5 thru_hole oval (at 14.2 3.81) (size 3 11) (drill oval 1.5 8) (layers *.Cu *.Mask))
  (pad 6 thru_hole oval (at 8.8 3.81) (size 3 11) (drill oval 1.5 8) (layers *.Cu *.Mask))
  (pad 3 thru_hole circle (at 0 5.08) (size 1.75 1.75) (drill 0.76) (layers *.Cu *.Mask))
  (pad 2 thru_hole circle (at 0 2.54) (size 1.75 1.75) (drill 0.76) (layers *.Cu *.Mask))
  (pad 1 thru_hole rect (at 0 0) (size 1.75 1.75) (drill 0.76) (layers *.Cu *.Mask))
  (pad 4 thru_hole circle (at 0 7.62) (size 1.75 1.75) (drill 0.76) (layers *.Cu *.Mask))
  (model ${KIPRJMOD}/kicad_libs_k/models_k.3d/Sensor_Current_k.3dshapes/LEM_HX50-P-SP2_k.wrl
    (at (xyz 0 0 0))
    (scale (xyz 1 1 1))
    (rotate (xyz 0 0 0))
  )
)
