(module LEM_LV25-P (layer F.Cu) (tedit 5A89852B)
  (descr "LEM LV25-P Voltage transducer, http://www.lem.com/docs/products/lv_25-p.pdf")
  (tags "LEM Hall Effect Voltage transducer")
  (fp_text reference REF** (at -1.524 -6.731 180) (layer F.SilkS)
    (effects (font (size 1 1) (thickness 0.15)))
  )
  (fp_text value LEM_LV25-P (at 21.209 -6.35 180) (layer F.Fab)
    (effects (font (size 1 1) (thickness 0.15)))
  )
  (fp_text user %R (at 11.16 7.62 180) (layer F.Fab)
    (effects (font (size 1 1) (thickness 0.15)))
  )
  (fp_line (start -3.44 20.62) (end -3.44 -4.38) (layer F.Fab) (width 0.1))
  (fp_line (start -2.44 -5.38) (end 25.76 -5.38) (layer F.Fab) (width 0.1))
  (fp_line (start 25.76 -5.38) (end 25.76 20.62) (layer F.Fab) (width 0.1))
  (fp_line (start 25.76 20.62) (end -3.44 20.62) (layer F.Fab) (width 0.1))
  (fp_line (start -3.56 20.74) (end -3.56 -5.5) (layer F.SilkS) (width 0.12))
  (fp_line (start -3.56 -5.5) (end 25.88 -5.5) (layer F.SilkS) (width 0.12))
  (fp_line (start 25.88 -5.5) (end 25.88 20.74) (layer F.SilkS) (width 0.12))
  (fp_line (start 25.88 20.74) (end -3.56 20.74) (layer F.SilkS) (width 0.12))
  (fp_line (start -3.69 20.86) (end -3.69 -5.63) (layer F.CrtYd) (width 0.05))
  (fp_line (start -3.69 20.86) (end 26.01 20.86) (layer F.CrtYd) (width 0.05))
  (fp_line (start 26.01 -5.63) (end -3.69 -5.63) (layer F.CrtYd) (width 0.05))
  (fp_line (start 26.01 -5.63) (end 26.01 20.86) (layer F.CrtYd) (width 0.05))
  (fp_line (start -3.81 -5.88) (end -3.81 -3) (layer F.SilkS) (width 0.12))
  (fp_line (start -3.44 -4.38) (end -2.44 -5.38) (layer F.Fab) (width 0.1))
  (fp_line (start -3.81 -5.88) (end -1 -5.88) (layer F.SilkS) (width 0.12))
  (pad 3 thru_hole circle (at 0 15.24 90) (size 2 2) (drill 1) (layers *.Cu *.Mask))
  (pad 1 thru_hole rect (at 0 0 90) (size 2 2) (drill 1) (layers *.Cu *.Mask))
  (pad 4 thru_hole circle (at 20.32 15.24 90) (size 3 3) (drill 1.5) (layers *.Cu *.Mask))
  (pad 6 thru_hole circle (at 20.32 0 90) (size 3 3) (drill 1.5) (layers *.Cu *.Mask))
  (pad 5 thru_hole circle (at 20.32 7.62 90) (size 3 3) (drill 1.5) (layers *.Cu *.Mask))
  (model ${KIPRJMOD}/kicad_libs_k/models_k.3d/Sensor_Current_k.3dshapes/LEM_LV25-P_k.wrl
    (at (xyz 0 0 0))
    (scale (xyz 1 1 1))
    (rotate (xyz 0 0 0))
  )
)
