(module 3M_Textool_240-1288-00-0602J_2x20_P2.54mm (layer F.Cu) (tedit 5A22F375)
  (descr "3M 40-pin zero insertion force socket, though-hole, row spacing 25.4 mm (1000 mils)")
  (tags "THT DIP DIL ZIF 25.4mm 1000mil Socket")
  (fp_text reference REF** (at 7.62 -11.68) (layer F.SilkS)
    (effects (font (size 1 1) (thickness 0.15)))
  )
  (fp_text value 3M_Textool_240-1288-00-0602J_2x20_P2.54mm (at 7.62 54.48) (layer F.Fab)
    (effects (font (size 0.6 0.6) (thickness 0.09)))
  )
  (fp_line (start -1.7 -25.4) (end -0.4 -24) (layer F.Fab) (width 0.1))
  (fp_line (start -3.7 -25.4) (end -5 -24) (layer F.Fab) (width 0.1))
  (fp_line (start -3.7 -25.4) (end -1.7 -25.4) (layer F.Fab) (width 0.1))
  (fp_line (start -5 -24) (end -0.4 -24) (layer F.Fab) (width 0.1))
  (fp_line (start -5 -20.4) (end -5 -24) (layer F.Fab) (width 0.1))
  (fp_line (start -5 -20.4) (end -3.5 -18.4) (layer F.Fab) (width 0.1))
  (fp_line (start -0.4 -20.4) (end -1.9 -18.4) (layer F.Fab) (width 0.1))
  (fp_line (start -5 -20.4) (end -0.4 -20.4) (layer F.Fab) (width 0.1))
  (fp_line (start -3.5 -18.4) (end -3.5 -9.75) (layer F.Fab) (width 0.1))
  (fp_line (start -1.9 -18.4) (end -1.9 -10.4) (layer F.Fab) (width 0.1))
  (fp_line (start -1.9 -18.4) (end -3.5 -18.4) (layer F.Fab) (width 0.1))
  (fp_line (start -3.95 -10.5) (end -3.95 -8.8) (layer F.SilkS) (width 0.12))
  (fp_line (start -1.65 -10.4) (end -1.65 -8.4) (layer F.SilkS) (width 0.12))
  (fp_circle (center -3.2 -6.35) (end -0.65 -6.35) (layer F.SilkS) (width 0.12))
  (fp_line (start -1.645 1.27) (end -1.645 -1.27) (layer F.SilkS) (width 0.12))
  (fp_line (start 5.455 -1.27) (end 5.455 1.27) (layer F.SilkS) (width 0.12))
  (fp_line (start -1.645 -1.27) (end 5.455 -1.27) (layer F.SilkS) (width 0.12))
  (fp_line (start -3.95 -3.9) (end -3.95 55.5) (layer F.SilkS) (width 0.12))
  (fp_line (start -3.95 55.5) (end 19.15 55.5) (layer F.SilkS) (width 0.12))
  (fp_line (start 19.15 55.5) (end 19.15 -10.5) (layer F.SilkS) (width 0.12))
  (fp_line (start 19.15 -10.5) (end -3.95 -10.5) (layer F.SilkS) (width 0.12))
  (fp_line (start -3.85 -9.4) (end -2.85 -10.4) (layer F.Fab) (width 0.1))
  (fp_line (start -2.85 -10.4) (end 19.05 -10.4) (layer F.Fab) (width 0.1))
  (fp_line (start -3.85 55.4) (end 19.05 55.4) (layer F.Fab) (width 0.1))
  (fp_line (start -3.85 55.4) (end -3.85 -9.4) (layer F.Fab) (width 0.1))
  (fp_line (start 19.05 55.4) (end 19.05 -10.4) (layer F.Fab) (width 0.1))
  (fp_line (start 19.6 -10.9) (end -4.3 -10.9) (layer F.CrtYd) (width 0.05))
  (fp_text user %R (at 7.62 24.765) (layer F.Fab)
    (effects (font (size 1 1) (thickness 0.15)))
  )
  (fp_line (start -1.645 3.81) (end -1.645 1.27) (layer F.SilkS) (width 0.12))
  (fp_line (start -1.645 1.27) (end 5.455 1.27) (layer F.SilkS) (width 0.12))
  (fp_line (start 5.455 1.27) (end 5.455 3.81) (layer F.SilkS) (width 0.12))
  (fp_line (start -1.645 8.89) (end -1.645 6.35) (layer F.SilkS) (width 0.12))
  (fp_line (start -1.645 6.35) (end 5.455 6.35) (layer F.SilkS) (width 0.12))
  (fp_line (start 5.455 6.35) (end 5.455 8.89) (layer F.SilkS) (width 0.12))
  (fp_line (start -1.645 6.35) (end -1.645 3.81) (layer F.SilkS) (width 0.12))
  (fp_line (start -1.645 3.81) (end 5.455 3.81) (layer F.SilkS) (width 0.12))
  (fp_line (start 5.455 3.81) (end 5.455 6.35) (layer F.SilkS) (width 0.12))
  (fp_line (start -1.645 19.05) (end -1.645 16.51) (layer F.SilkS) (width 0.12))
  (fp_line (start -1.645 16.51) (end 5.455 16.51) (layer F.SilkS) (width 0.12))
  (fp_line (start 5.455 16.51) (end 5.455 19.05) (layer F.SilkS) (width 0.12))
  (fp_line (start -1.645 16.51) (end -1.645 13.97) (layer F.SilkS) (width 0.12))
  (fp_line (start -1.645 13.97) (end 5.455 13.97) (layer F.SilkS) (width 0.12))
  (fp_line (start 5.455 13.97) (end 5.455 16.51) (layer F.SilkS) (width 0.12))
  (fp_line (start -1.645 8.89) (end 5.455 8.89) (layer F.SilkS) (width 0.12))
  (fp_line (start 5.455 8.89) (end 5.455 11.43) (layer F.SilkS) (width 0.12))
  (fp_line (start -1.645 11.43) (end 5.455 11.43) (layer F.SilkS) (width 0.12))
  (fp_line (start -1.645 11.43) (end -1.645 8.89) (layer F.SilkS) (width 0.12))
  (fp_line (start -1.645 13.97) (end -1.645 11.43) (layer F.SilkS) (width 0.12))
  (fp_line (start 5.455 11.43) (end 5.455 13.97) (layer F.SilkS) (width 0.12))
  (fp_line (start -1.645 29.21) (end -1.645 26.67) (layer F.SilkS) (width 0.12))
  (fp_line (start -1.645 26.67) (end 5.455 26.67) (layer F.SilkS) (width 0.12))
  (fp_line (start 5.455 26.67) (end 5.455 29.21) (layer F.SilkS) (width 0.12))
  (fp_line (start -1.645 26.67) (end -1.645 24.13) (layer F.SilkS) (width 0.12))
  (fp_line (start -1.645 24.13) (end 5.455 24.13) (layer F.SilkS) (width 0.12))
  (fp_line (start 5.455 24.13) (end 5.455 26.67) (layer F.SilkS) (width 0.12))
  (fp_line (start -1.645 19.05) (end 5.455 19.05) (layer F.SilkS) (width 0.12))
  (fp_line (start 5.455 19.05) (end 5.455 21.59) (layer F.SilkS) (width 0.12))
  (fp_line (start -1.645 21.59) (end 5.455 21.59) (layer F.SilkS) (width 0.12))
  (fp_line (start -1.645 21.59) (end -1.645 19.05) (layer F.SilkS) (width 0.12))
  (fp_line (start -1.645 24.13) (end -1.645 21.59) (layer F.SilkS) (width 0.12))
  (fp_line (start 5.455 21.59) (end 5.455 24.13) (layer F.SilkS) (width 0.12))
  (fp_line (start -1.645 39.37) (end -1.645 36.83) (layer F.SilkS) (width 0.12))
  (fp_line (start -1.645 36.83) (end 5.455 36.83) (layer F.SilkS) (width 0.12))
  (fp_line (start 5.455 36.83) (end 5.455 39.37) (layer F.SilkS) (width 0.12))
  (fp_line (start -1.645 36.83) (end -1.645 34.29) (layer F.SilkS) (width 0.12))
  (fp_line (start -1.645 34.29) (end 5.455 34.29) (layer F.SilkS) (width 0.12))
  (fp_line (start 5.455 34.29) (end 5.455 36.83) (layer F.SilkS) (width 0.12))
  (fp_line (start -1.645 29.21) (end 5.455 29.21) (layer F.SilkS) (width 0.12))
  (fp_line (start 5.455 29.21) (end 5.455 31.75) (layer F.SilkS) (width 0.12))
  (fp_line (start -1.645 31.75) (end 5.455 31.75) (layer F.SilkS) (width 0.12))
  (fp_line (start -1.645 31.75) (end -1.645 29.21) (layer F.SilkS) (width 0.12))
  (fp_line (start -1.645 34.29) (end -1.645 31.75) (layer F.SilkS) (width 0.12))
  (fp_line (start 5.455 31.75) (end 5.455 34.29) (layer F.SilkS) (width 0.12))
  (fp_line (start -1.645 49.53) (end -1.645 46.99) (layer F.SilkS) (width 0.12))
  (fp_line (start -1.645 46.99) (end 5.455 46.99) (layer F.SilkS) (width 0.12))
  (fp_line (start 5.455 46.99) (end 5.455 49.53) (layer F.SilkS) (width 0.12))
  (fp_line (start -1.645 46.99) (end -1.645 44.45) (layer F.SilkS) (width 0.12))
  (fp_line (start -1.645 44.45) (end 5.455 44.45) (layer F.SilkS) (width 0.12))
  (fp_line (start 5.455 44.45) (end 5.455 46.99) (layer F.SilkS) (width 0.12))
  (fp_line (start -1.645 39.37) (end 5.455 39.37) (layer F.SilkS) (width 0.12))
  (fp_line (start 5.455 39.37) (end 5.455 41.91) (layer F.SilkS) (width 0.12))
  (fp_line (start -1.645 41.91) (end 5.455 41.91) (layer F.SilkS) (width 0.12))
  (fp_line (start -1.645 41.91) (end -1.645 39.37) (layer F.SilkS) (width 0.12))
  (fp_line (start -1.645 44.45) (end -1.645 41.91) (layer F.SilkS) (width 0.12))
  (fp_line (start 5.455 41.91) (end 5.455 44.45) (layer F.SilkS) (width 0.12))
  (fp_line (start -1.645 49.53) (end 5.455 49.53) (layer F.SilkS) (width 0.12))
  (fp_line (start 9.785 1.27) (end 9.785 -1.27) (layer F.SilkS) (width 0.12))
  (fp_line (start 9.785 -1.27) (end 16.885 -1.27) (layer F.SilkS) (width 0.12))
  (fp_line (start 16.885 -1.27) (end 16.885 1.27) (layer F.SilkS) (width 0.12))
  (fp_line (start 9.785 1.27) (end 16.885 1.27) (layer F.SilkS) (width 0.12))
  (fp_line (start 9.785 8.89) (end 9.785 6.35) (layer F.SilkS) (width 0.12))
  (fp_line (start 16.885 8.89) (end 16.885 11.43) (layer F.SilkS) (width 0.12))
  (fp_line (start 9.785 11.43) (end 9.785 8.89) (layer F.SilkS) (width 0.12))
  (fp_line (start 9.785 8.89) (end 16.885 8.89) (layer F.SilkS) (width 0.12))
  (fp_line (start 16.885 6.35) (end 16.885 8.89) (layer F.SilkS) (width 0.12))
  (fp_line (start 9.785 11.43) (end 16.885 11.43) (layer F.SilkS) (width 0.12))
  (fp_line (start 9.785 3.81) (end 9.785 1.27) (layer F.SilkS) (width 0.12))
  (fp_line (start 16.885 1.27) (end 16.885 3.81) (layer F.SilkS) (width 0.12))
  (fp_line (start 9.785 3.81) (end 16.885 3.81) (layer F.SilkS) (width 0.12))
  (fp_line (start 16.885 3.81) (end 16.885 6.35) (layer F.SilkS) (width 0.12))
  (fp_line (start 9.785 6.35) (end 9.785 3.81) (layer F.SilkS) (width 0.12))
  (fp_line (start 9.785 6.35) (end 16.885 6.35) (layer F.SilkS) (width 0.12))
  (fp_line (start 16.885 46.99) (end 16.885 49.53) (layer F.SilkS) (width 0.12))
  (fp_line (start 9.785 49.53) (end 9.785 46.99) (layer F.SilkS) (width 0.12))
  (fp_line (start 9.785 49.53) (end 16.885 49.53) (layer F.SilkS) (width 0.12))
  (fp_line (start 16.885 11.43) (end 16.885 13.97) (layer F.SilkS) (width 0.12))
  (fp_line (start 16.885 13.97) (end 16.885 16.51) (layer F.SilkS) (width 0.12))
  (fp_line (start 9.785 13.97) (end 16.885 13.97) (layer F.SilkS) (width 0.12))
  (fp_line (start 9.785 13.97) (end 9.785 11.43) (layer F.SilkS) (width 0.12))
  (fp_line (start 9.785 16.51) (end 9.785 13.97) (layer F.SilkS) (width 0.12))
  (fp_line (start 9.785 26.67) (end 9.785 24.13) (layer F.SilkS) (width 0.12))
  (fp_line (start 16.885 24.13) (end 16.885 26.67) (layer F.SilkS) (width 0.12))
  (fp_line (start 9.785 24.13) (end 16.885 24.13) (layer F.SilkS) (width 0.12))
  (fp_line (start 16.885 21.59) (end 16.885 24.13) (layer F.SilkS) (width 0.12))
  (fp_line (start 9.785 24.13) (end 9.785 21.59) (layer F.SilkS) (width 0.12))
  (fp_line (start 9.785 29.21) (end 16.885 29.21) (layer F.SilkS) (width 0.12))
  (fp_line (start 16.885 26.67) (end 16.885 29.21) (layer F.SilkS) (width 0.12))
  (fp_line (start 9.785 26.67) (end 16.885 26.67) (layer F.SilkS) (width 0.12))
  (fp_line (start 9.785 29.21) (end 9.785 26.67) (layer F.SilkS) (width 0.12))
  (fp_line (start 16.885 16.51) (end 16.885 19.05) (layer F.SilkS) (width 0.12))
  (fp_line (start 9.785 19.05) (end 16.885 19.05) (layer F.SilkS) (width 0.12))
  (fp_line (start 9.785 21.59) (end 16.885 21.59) (layer F.SilkS) (width 0.12))
  (fp_line (start 16.885 19.05) (end 16.885 21.59) (layer F.SilkS) (width 0.12))
  (fp_line (start 9.785 19.05) (end 9.785 16.51) (layer F.SilkS) (width 0.12))
  (fp_line (start 9.785 21.59) (end 9.785 19.05) (layer F.SilkS) (width 0.12))
  (fp_line (start 9.785 36.83) (end 16.885 36.83) (layer F.SilkS) (width 0.12))
  (fp_line (start 16.885 39.37) (end 16.885 41.91) (layer F.SilkS) (width 0.12))
  (fp_line (start 9.785 41.91) (end 9.785 39.37) (layer F.SilkS) (width 0.12))
  (fp_line (start 9.785 39.37) (end 9.785 36.83) (layer F.SilkS) (width 0.12))
  (fp_line (start 9.785 41.91) (end 16.885 41.91) (layer F.SilkS) (width 0.12))
  (fp_line (start 9.785 39.37) (end 16.885 39.37) (layer F.SilkS) (width 0.12))
  (fp_line (start 9.785 31.75) (end 9.785 29.21) (layer F.SilkS) (width 0.12))
  (fp_line (start 16.885 29.21) (end 16.885 31.75) (layer F.SilkS) (width 0.12))
  (fp_line (start 16.885 34.29) (end 16.885 36.83) (layer F.SilkS) (width 0.12))
  (fp_line (start 16.885 36.83) (end 16.885 39.37) (layer F.SilkS) (width 0.12))
  (fp_line (start 9.785 36.83) (end 9.785 34.29) (layer F.SilkS) (width 0.12))
  (fp_line (start 16.885 31.75) (end 16.885 34.29) (layer F.SilkS) (width 0.12))
  (fp_line (start 9.785 34.29) (end 16.885 34.29) (layer F.SilkS) (width 0.12))
  (fp_line (start 9.785 31.75) (end 16.885 31.75) (layer F.SilkS) (width 0.12))
  (fp_line (start 9.785 34.29) (end 9.785 31.75) (layer F.SilkS) (width 0.12))
  (fp_line (start 9.785 46.99) (end 9.785 44.45) (layer F.SilkS) (width 0.12))
  (fp_line (start 16.885 41.91) (end 16.885 44.45) (layer F.SilkS) (width 0.12))
  (fp_line (start 9.785 46.99) (end 16.885 46.99) (layer F.SilkS) (width 0.12))
  (fp_line (start 16.885 44.45) (end 16.885 46.99) (layer F.SilkS) (width 0.12))
  (fp_line (start 9.785 44.45) (end 9.785 41.91) (layer F.SilkS) (width 0.12))
  (fp_line (start 9.785 44.45) (end 16.885 44.45) (layer F.SilkS) (width 0.12))
  (fp_line (start 9.785 16.51) (end 16.885 16.51) (layer F.SilkS) (width 0.12))
  (fp_circle (center -3.2 -6.35) (end -2.3 -6.35) (layer F.SilkS) (width 0.12))
  (fp_line (start -4.3 55.9) (end -4.3 -10.9) (layer F.CrtYd) (width 0.05))
  (fp_line (start 19.6 55.9) (end 19.6 -10.9) (layer F.CrtYd) (width 0.05))
  (fp_line (start 19.6 55.9) (end -4.3 55.9) (layer F.CrtYd) (width 0.05))
  (fp_line (start -4.95 1.27) (end -4.95 -1.27) (layer F.SilkS) (width 0.12))
  (fp_line (start -0.4 -20.4) (end -0.4 -24) (layer F.Fab) (width 0.1))
  (pad 1 thru_hole rect (at 0 0) (size 2 1.44) (drill 1) (layers *.Cu *.Mask))
  (pad 21 thru_hole oval (at 15.24 48.26) (size 2 1.44) (drill 1) (layers *.Cu *.Mask))
  (pad 2 thru_hole oval (at 0 2.54) (size 2 1.44) (drill 1) (layers *.Cu *.Mask))
  (pad 22 thru_hole oval (at 15.24 45.72) (size 2 1.44) (drill 1) (layers *.Cu *.Mask))
  (pad 3 thru_hole oval (at 0 5.08) (size 2 1.44) (drill 1) (layers *.Cu *.Mask))
  (pad 23 thru_hole oval (at 15.24 43.18) (size 2 1.44) (drill 1) (layers *.Cu *.Mask))
  (pad 4 thru_hole oval (at 0 7.62) (size 2 1.44) (drill 1) (layers *.Cu *.Mask))
  (pad 24 thru_hole oval (at 15.24 40.64) (size 2 1.44) (drill 1) (layers *.Cu *.Mask))
  (pad 5 thru_hole oval (at 0 10.16) (size 2 1.44) (drill 1) (layers *.Cu *.Mask))
  (pad 25 thru_hole oval (at 15.24 38.1) (size 2 1.44) (drill 1) (layers *.Cu *.Mask))
  (pad 6 thru_hole oval (at 0 12.7) (size 2 1.44) (drill 1) (layers *.Cu *.Mask))
  (pad 26 thru_hole oval (at 15.24 35.56) (size 2 1.44) (drill 1) (layers *.Cu *.Mask))
  (pad 7 thru_hole oval (at 0 15.24) (size 2 1.44) (drill 1) (layers *.Cu *.Mask))
  (pad 27 thru_hole oval (at 15.24 33.02) (size 2 1.44) (drill 1) (layers *.Cu *.Mask))
  (pad 8 thru_hole oval (at 0 17.78) (size 2 1.44) (drill 1) (layers *.Cu *.Mask))
  (pad 28 thru_hole oval (at 15.24 30.48) (size 2 1.44) (drill 1) (layers *.Cu *.Mask))
  (pad 9 thru_hole oval (at 0 20.32) (size 2 1.44) (drill 1) (layers *.Cu *.Mask))
  (pad 29 thru_hole oval (at 15.24 27.94) (size 2 1.44) (drill 1) (layers *.Cu *.Mask))
  (pad 10 thru_hole oval (at 0 22.86) (size 2 1.44) (drill 1) (layers *.Cu *.Mask))
  (pad 30 thru_hole oval (at 15.24 25.4) (size 2 1.44) (drill 1) (layers *.Cu *.Mask))
  (pad 11 thru_hole oval (at 0 25.4) (size 2 1.44) (drill 1) (layers *.Cu *.Mask))
  (pad 31 thru_hole oval (at 15.24 22.86) (size 2 1.44) (drill 1) (layers *.Cu *.Mask))
  (pad 12 thru_hole oval (at 0 27.94) (size 2 1.44) (drill 1) (layers *.Cu *.Mask))
  (pad 32 thru_hole oval (at 15.24 20.32) (size 2 1.44) (drill 1) (layers *.Cu *.Mask))
  (pad 13 thru_hole oval (at 0 30.48) (size 2 1.44) (drill 1) (layers *.Cu *.Mask))
  (pad 33 thru_hole oval (at 15.24 17.78) (size 2 1.44) (drill 1) (layers *.Cu *.Mask))
  (pad 14 thru_hole oval (at 0 33.02) (size 2 1.44) (drill 1) (layers *.Cu *.Mask))
  (pad 34 thru_hole oval (at 15.24 15.24) (size 2 1.44) (drill 1) (layers *.Cu *.Mask))
  (pad 15 thru_hole oval (at 0 35.56) (size 2 1.44) (drill 1) (layers *.Cu *.Mask))
  (pad 35 thru_hole oval (at 15.24 12.7) (size 2 1.44) (drill 1) (layers *.Cu *.Mask))
  (pad 16 thru_hole oval (at 0 38.1) (size 2 1.44) (drill 1) (layers *.Cu *.Mask))
  (pad 36 thru_hole oval (at 15.24 10.16) (size 2 1.44) (drill 1) (layers *.Cu *.Mask))
  (pad 17 thru_hole oval (at 0 40.64) (size 2 1.44) (drill 1) (layers *.Cu *.Mask))
  (pad 37 thru_hole oval (at 15.24 7.62) (size 2 1.44) (drill 1) (layers *.Cu *.Mask))
  (pad 18 thru_hole oval (at 0 43.18) (size 2 1.44) (drill 1) (layers *.Cu *.Mask))
  (pad 38 thru_hole oval (at 15.24 5.08) (size 2 1.44) (drill 1) (layers *.Cu *.Mask))
  (pad 19 thru_hole oval (at 0 45.72) (size 2 1.44) (drill 1) (layers *.Cu *.Mask))
  (pad 39 thru_hole oval (at 15.24 2.54) (size 2 1.44) (drill 1) (layers *.Cu *.Mask))
  (pad 20 thru_hole oval (at 0 48.26) (size 2 1.44) (drill 1) (layers *.Cu *.Mask))
  (pad 40 thru_hole oval (at 15.24 0) (size 2 1.44) (drill 1) (layers *.Cu *.Mask))
  (model ${KIPRJMOD}/kicad_libs_k/models_k.3d/Socket_k.3dshapes/3M_Textool_240-1288-00-0602J_2x20_P2.54mm_k.wrl
    (at (xyz 0 0 0))
    (scale (xyz 1 1 1))
    (rotate (xyz 0 0 0))
  )
)
