(module BNC_PanelMountable_Vertical (layer F.Cu) (tedit 5A1DC01E)
  (descr "Panel-mountable BNC connector mounted through PCB, vertical")
  (tags "BNC connector")
  (fp_text reference REF** (at -2.75 -5.5) (layer F.SilkS)
    (effects (font (size 1 1) (thickness 0.15)))
  )
  (fp_text value BNC_PanelMountable_Vertical (at -0.15 5.3) (layer F.Fab)
    (effects (font (size 1 1) (thickness 0.15)))
  )
  (fp_text user %R (at -8.89 0) (layer F.Fab)
    (effects (font (size 1 1) (thickness 0.15)))
  )
  (fp_line (start -4.75 -4.5) (end 1.25 -4.5) (layer F.CrtYd) (width 0.05))
  (fp_line (start 1.25 -4.5) (end 4.5 -1.25) (layer F.CrtYd) (width 0.05))
  (fp_line (start 4.5 -1.25) (end 4.5 1.25) (layer F.CrtYd) (width 0.05))
  (fp_line (start 4.5 1.25) (end 1.25 4.5) (layer F.CrtYd) (width 0.05))
  (fp_line (start 1.25 4.5) (end -4.75 4.5) (layer F.CrtYd) (width 0.05))
  (fp_line (start -5.08 3.81) (end 1.27 3.81) (layer F.SilkS) (width 0.12))
  (fp_line (start 1.27 3.81) (end 3.81 1.27) (layer F.SilkS) (width 0.12))
  (fp_line (start 3.81 1.27) (end 3.81 -1.27) (layer F.SilkS) (width 0.12))
  (fp_line (start 3.81 -1.27) (end 1.27 -3.81) (layer F.SilkS) (width 0.12))
  (fp_line (start 1.27 -3.81) (end -5.08 -3.81) (layer F.SilkS) (width 0.12))
  (fp_circle (center -12.75 0) (end -6.75 5.75) (layer F.Fab) (width 0.1))
  (fp_circle (center -12.7 0) (end -5.08 3.81) (layer F.SilkS) (width 0.12))
  (fp_arc (start -12.7 0) (end -4.75 4.5) (angle 301) (layer F.CrtYd) (width 0.05))
  (pad 2 thru_hole circle (at -12.7 0) (size 15.24 15.24) (drill 9.65) (layers *.Cu *.Mask))
  (pad 1 thru_hole circle (at 0 0) (size 5.08 5.08) (drill 2.54) (layers *.Cu *.Mask))
  (model ${KIPRJMOD}/kicad_libs_k/models_k.3d/Connector_Coaxial_k.3dshapes/BNC_PanelMountable_Vertical_k.wrl
    (at (xyz 0 0 0))
    (scale (xyz 1 1 1))
    (rotate (xyz 0 0 0))
  )
)
