(module U.FL_Molex_MCRF_73412-0110_Vertical (layer F.Cu) (tedit 5A1B5B59)
  (descr "Molex Microcoaxial RF Connectors (MCRF), mates Hirose U.FL, (http://www.molex.com/pdm_docs/sd/734120110_sd.pdf)")
  (tags "mcrf hirose ufl u.fl microcoaxial")
  (attr smd)
  (fp_text reference REF** (at 0 3.5) (layer F.SilkS)
    (effects (font (size 1 1) (thickness 0.15)))
  )
  (fp_text value U.FL_Molex_MCRF_73412-0110_Vertical (at 0 -3.302) (layer F.Fab)
    (effects (font (size 1 1) (thickness 0.15)))
  )
  (fp_line (start 0 1) (end 0.3 1.3) (layer F.Fab) (width 0.1))
  (fp_line (start -0.3 1.3) (end 0 1) (layer F.Fab) (width 0.1))
  (fp_line (start 0.7 1.5) (end 0.7 2) (layer F.SilkS) (width 0.12))
  (fp_line (start -0.7 1.5) (end -0.7 2) (layer F.SilkS) (width 0.12))
  (fp_text user %R (at 0 3.5) (layer F.Fab)
    (effects (font (size 1 1) (thickness 0.15)))
  )
  (fp_circle (center 0 0) (end 0 0.05) (layer F.Fab) (width 0.1))
  (fp_circle (center 0 0) (end 0 0.125) (layer F.Fab) (width 0.1))
  (fp_line (start -0.7 1.5) (end -1.3 1.5) (layer F.SilkS) (width 0.12))
  (fp_line (start -1.3 1.5) (end -1.5 1.3) (layer F.SilkS) (width 0.12))
  (fp_line (start 1.5 1.3) (end 1.5 1.5) (layer F.SilkS) (width 0.12))
  (fp_line (start 1.5 1.5) (end 0.7 1.5) (layer F.SilkS) (width 0.12))
  (fp_line (start 0.7 -1.5) (end 1.5 -1.5) (layer F.SilkS) (width 0.12))
  (fp_line (start 1.5 -1.5) (end 1.5 -1.3) (layer F.SilkS) (width 0.12))
  (fp_line (start -1.5 -1.3) (end -1.5 -1.5) (layer F.SilkS) (width 0.12))
  (fp_line (start -1.5 -1.5) (end -0.7 -1.5) (layer F.SilkS) (width 0.12))
  (fp_circle (center 0 0) (end 0.9 0) (layer F.Fab) (width 0.1))
  (fp_line (start -1.3 -1.3) (end 1.3 -1.3) (layer F.Fab) (width 0.1))
  (fp_line (start -1.3 -1.3) (end -1.3 1) (layer F.Fab) (width 0.1))
  (fp_line (start -1.3 1) (end -1 1.3) (layer F.Fab) (width 0.1))
  (fp_line (start 1.3 -1.3) (end 1.3 1.3) (layer F.Fab) (width 0.1))
  (fp_line (start -2.5 -2.5) (end -2.5 2.5) (layer F.CrtYd) (width 0.05))
  (fp_line (start -2.5 2.5) (end 2.5 2.5) (layer F.CrtYd) (width 0.05))
  (fp_line (start 2.5 2.5) (end 2.5 -2.5) (layer F.CrtYd) (width 0.05))
  (fp_line (start 2.5 -2.5) (end -2.5 -2.5) (layer F.CrtYd) (width 0.05))
  (fp_line (start -1 1.3) (end 1.3 1.3) (layer F.Fab) (width 0.1))
  (fp_circle (center 0 0) (end 0 0.2) (layer F.Fab) (width 0.1))
  (pad 2 smd rect (at -1.475 0) (size 1.05 2.2) (layers F.Cu F.Paste F.Mask))
  (pad 2 smd rect (at 1.475 0) (size 1.05 2.2) (layers F.Cu F.Paste F.Mask))
  (pad 2 smd rect (at 0 -1.5) (size 1 1) (layers F.Cu F.Paste F.Mask))
  (pad 1 smd rect (at 0 1.5) (size 1 1) (layers F.Cu F.Paste F.Mask))
  (model ${KIPRJMOD}/kicad_libs_k/models_k.3d/Connector_Coaxial_k.3dshapes/U.FL_Molex_MCRF_73412-0110_Vertical_k.wrl
    (at (xyz 0 0 0))
    (scale (xyz 1 1 1))
    (rotate (xyz 0 0 0))
  )
)
