(module DSUB-62-HD_Female_Horizontal_P2.41x1.98mm_EdgePinOffset8.35mm_Housed_MountingHolesOffset10.89mm (layer F.Cu) (tedit 59FEDEE2)
  (descr "62-pin D-Sub connector, horizontal/angled (90 deg), THT-mount, female, pitch 2.41x1.98mm, pin-PCB-offset 8.35mm, distance of mounting holes 63.5mm, distance of mounting holes to PCB edge 10.889999999999999mm, see https://disti-assets.s3.amazonaws.com/tonar/files/datasheets/16730.pdf")
  (tags "62-pin D-Sub connector horizontal angled 90deg THT female pitch 2.41x1.98mm pin-PCB-offset 8.35mm mounting-holes-distance 63.5mm mounting-hole-offset 63.5mm")
  (fp_text reference REF** (at -23.545 -2.58) (layer F.SilkS)
    (effects (font (size 1 1) (thickness 0.15)))
  )
  (fp_text value DSUB-62-HD_Female_Horizontal_P2.41x1.98mm_EdgePinOffset8.35mm_Housed_MountingHolesOffset10.89mm (at -23.545 20.21) (layer F.Fab)
    (effects (font (size 1 1) (thickness 0.15)))
  )
  (fp_arc (start -55.295 1.42) (end -56.895 1.42) (angle 180.000000) (layer F.Fab) (width 0.1))
  (fp_arc (start 8.205 1.42) (end 6.605 1.42) (angle 180.000000) (layer F.Fab) (width 0.1))
  (fp_line (start -58.245 -1.58) (end -58.245 12.31) (layer F.Fab) (width 0.1))
  (fp_line (start -58.245 12.31) (end 11.155 12.31) (layer F.Fab) (width 0.1))
  (fp_line (start 11.155 12.31) (end 11.155 -1.58) (layer F.Fab) (width 0.1))
  (fp_line (start 11.155 -1.58) (end -58.245 -1.58) (layer F.Fab) (width 0.1))
  (fp_line (start -58.245 12.31) (end -58.245 12.71) (layer F.Fab) (width 0.1))
  (fp_line (start -58.245 12.71) (end 11.155 12.71) (layer F.Fab) (width 0.1))
  (fp_line (start 11.155 12.71) (end 11.155 12.31) (layer F.Fab) (width 0.1))
  (fp_line (start 11.155 12.31) (end -58.245 12.31) (layer F.Fab) (width 0.1))
  (fp_line (start -50.945 12.71) (end -50.945 18.71) (layer F.Fab) (width 0.1))
  (fp_line (start -50.945 18.71) (end 3.855 18.71) (layer F.Fab) (width 0.1))
  (fp_line (start 3.855 18.71) (end 3.855 12.71) (layer F.Fab) (width 0.1))
  (fp_line (start 3.855 12.71) (end -50.945 12.71) (layer F.Fab) (width 0.1))
  (fp_line (start -57.795 12.71) (end -57.795 17.71) (layer F.Fab) (width 0.1))
  (fp_line (start -57.795 17.71) (end -52.795 17.71) (layer F.Fab) (width 0.1))
  (fp_line (start -52.795 17.71) (end -52.795 12.71) (layer F.Fab) (width 0.1))
  (fp_line (start -52.795 12.71) (end -57.795 12.71) (layer F.Fab) (width 0.1))
  (fp_line (start 5.705 12.71) (end 5.705 17.71) (layer F.Fab) (width 0.1))
  (fp_line (start 5.705 17.71) (end 10.705 17.71) (layer F.Fab) (width 0.1))
  (fp_line (start 10.705 17.71) (end 10.705 12.71) (layer F.Fab) (width 0.1))
  (fp_line (start 10.705 12.71) (end 5.705 12.71) (layer F.Fab) (width 0.1))
  (fp_line (start -56.895 12.31) (end -56.895 1.42) (layer F.Fab) (width 0.1))
  (fp_line (start -53.695 12.31) (end -53.695 1.42) (layer F.Fab) (width 0.1))
  (fp_line (start 6.605 12.31) (end 6.605 1.42) (layer F.Fab) (width 0.1))
  (fp_line (start 9.805 12.31) (end 9.805 1.42) (layer F.Fab) (width 0.1))
  (fp_line (start -58.305 12.25) (end -58.305 -1.64) (layer F.SilkS) (width 0.12))
  (fp_line (start -58.305 -1.64) (end 11.215 -1.64) (layer F.SilkS) (width 0.12))
  (fp_line (start 11.215 -1.64) (end 11.215 12.25) (layer F.SilkS) (width 0.12))
  (fp_line (start -0.25 -2.534338) (end 0.25 -2.534338) (layer F.SilkS) (width 0.12))
  (fp_line (start 0.25 -2.534338) (end 0 -2.101325) (layer F.SilkS) (width 0.12))
  (fp_line (start 0 -2.101325) (end -0.25 -2.534338) (layer F.SilkS) (width 0.12))
  (fp_line (start -58.75 -2.1) (end -58.75 19.25) (layer F.CrtYd) (width 0.05))
  (fp_line (start -58.75 19.25) (end 11.7 19.25) (layer F.CrtYd) (width 0.05))
  (fp_line (start 11.7 19.25) (end 11.7 -2.1) (layer F.CrtYd) (width 0.05))
  (fp_line (start 11.7 -2.1) (end -58.75 -2.1) (layer F.CrtYd) (width 0.05))
  (pad 1 thru_hole rect (at 0 0) (size 1.6 1.6) (drill 1) (layers *.Cu *.Mask))
  (pad 2 thru_hole circle (at -2.41 0) (size 1.6 1.6) (drill 1) (layers *.Cu *.Mask))
  (pad 3 thru_hole circle (at -4.82 0) (size 1.6 1.6) (drill 1) (layers *.Cu *.Mask))
  (pad 4 thru_hole circle (at -7.23 0) (size 1.6 1.6) (drill 1) (layers *.Cu *.Mask))
  (pad 5 thru_hole circle (at -9.64 0) (size 1.6 1.6) (drill 1) (layers *.Cu *.Mask))
  (pad 6 thru_hole circle (at -12.05 0) (size 1.6 1.6) (drill 1) (layers *.Cu *.Mask))
  (pad 7 thru_hole circle (at -14.46 0) (size 1.6 1.6) (drill 1) (layers *.Cu *.Mask))
  (pad 8 thru_hole circle (at -16.87 0) (size 1.6 1.6) (drill 1) (layers *.Cu *.Mask))
  (pad 9 thru_hole circle (at -19.28 0) (size 1.6 1.6) (drill 1) (layers *.Cu *.Mask))
  (pad 10 thru_hole circle (at -21.69 0) (size 1.6 1.6) (drill 1) (layers *.Cu *.Mask))
  (pad 11 thru_hole circle (at -24.1 0) (size 1.6 1.6) (drill 1) (layers *.Cu *.Mask))
  (pad 12 thru_hole circle (at -26.51 0) (size 1.6 1.6) (drill 1) (layers *.Cu *.Mask))
  (pad 13 thru_hole circle (at -28.92 0) (size 1.6 1.6) (drill 1) (layers *.Cu *.Mask))
  (pad 14 thru_hole circle (at -31.33 0) (size 1.6 1.6) (drill 1) (layers *.Cu *.Mask))
  (pad 15 thru_hole circle (at -33.74 0) (size 1.6 1.6) (drill 1) (layers *.Cu *.Mask))
  (pad 16 thru_hole circle (at -36.15 0) (size 1.6 1.6) (drill 1) (layers *.Cu *.Mask))
  (pad 17 thru_hole circle (at -38.56 0) (size 1.6 1.6) (drill 1) (layers *.Cu *.Mask))
  (pad 18 thru_hole circle (at -40.97 0) (size 1.6 1.6) (drill 1) (layers *.Cu *.Mask))
  (pad 19 thru_hole circle (at -43.38 0) (size 1.6 1.6) (drill 1) (layers *.Cu *.Mask))
  (pad 20 thru_hole circle (at -45.79 0) (size 1.6 1.6) (drill 1) (layers *.Cu *.Mask))
  (pad 21 thru_hole circle (at -48.2 0) (size 1.6 1.6) (drill 1) (layers *.Cu *.Mask))
  (pad 22 thru_hole circle (at 1.205 1.98) (size 1.6 1.6) (drill 1) (layers *.Cu *.Mask))
  (pad 23 thru_hole circle (at -1.205 1.98) (size 1.6 1.6) (drill 1) (layers *.Cu *.Mask))
  (pad 24 thru_hole circle (at -3.615 1.98) (size 1.6 1.6) (drill 1) (layers *.Cu *.Mask))
  (pad 25 thru_hole circle (at -6.025 1.98) (size 1.6 1.6) (drill 1) (layers *.Cu *.Mask))
  (pad 26 thru_hole circle (at -8.435 1.98) (size 1.6 1.6) (drill 1) (layers *.Cu *.Mask))
  (pad 27 thru_hole circle (at -10.845 1.98) (size 1.6 1.6) (drill 1) (layers *.Cu *.Mask))
  (pad 28 thru_hole circle (at -13.255 1.98) (size 1.6 1.6) (drill 1) (layers *.Cu *.Mask))
  (pad 29 thru_hole circle (at -15.665 1.98) (size 1.6 1.6) (drill 1) (layers *.Cu *.Mask))
  (pad 30 thru_hole circle (at -18.075 1.98) (size 1.6 1.6) (drill 1) (layers *.Cu *.Mask))
  (pad 31 thru_hole circle (at -20.485 1.98) (size 1.6 1.6) (drill 1) (layers *.Cu *.Mask))
  (pad 32 thru_hole circle (at -22.895 1.98) (size 1.6 1.6) (drill 1) (layers *.Cu *.Mask))
  (pad 33 thru_hole circle (at -25.305 1.98) (size 1.6 1.6) (drill 1) (layers *.Cu *.Mask))
  (pad 34 thru_hole circle (at -27.715 1.98) (size 1.6 1.6) (drill 1) (layers *.Cu *.Mask))
  (pad 35 thru_hole circle (at -30.125 1.98) (size 1.6 1.6) (drill 1) (layers *.Cu *.Mask))
  (pad 36 thru_hole circle (at -32.535 1.98) (size 1.6 1.6) (drill 1) (layers *.Cu *.Mask))
  (pad 37 thru_hole circle (at -34.945 1.98) (size 1.6 1.6) (drill 1) (layers *.Cu *.Mask))
  (pad 38 thru_hole circle (at -37.355 1.98) (size 1.6 1.6) (drill 1) (layers *.Cu *.Mask))
  (pad 39 thru_hole circle (at -39.765 1.98) (size 1.6 1.6) (drill 1) (layers *.Cu *.Mask))
  (pad 40 thru_hole circle (at -42.175 1.98) (size 1.6 1.6) (drill 1) (layers *.Cu *.Mask))
  (pad 41 thru_hole circle (at -44.585 1.98) (size 1.6 1.6) (drill 1) (layers *.Cu *.Mask))
  (pad 42 thru_hole circle (at -46.995 1.98) (size 1.6 1.6) (drill 1) (layers *.Cu *.Mask))
  (pad 43 thru_hole circle (at 0 3.96) (size 1.6 1.6) (drill 1) (layers *.Cu *.Mask))
  (pad 44 thru_hole circle (at -2.41 3.96) (size 1.6 1.6) (drill 1) (layers *.Cu *.Mask))
  (pad 45 thru_hole circle (at -4.82 3.96) (size 1.6 1.6) (drill 1) (layers *.Cu *.Mask))
  (pad 46 thru_hole circle (at -7.23 3.96) (size 1.6 1.6) (drill 1) (layers *.Cu *.Mask))
  (pad 47 thru_hole circle (at -9.64 3.96) (size 1.6 1.6) (drill 1) (layers *.Cu *.Mask))
  (pad 48 thru_hole circle (at -12.05 3.96) (size 1.6 1.6) (drill 1) (layers *.Cu *.Mask))
  (pad 49 thru_hole circle (at -14.46 3.96) (size 1.6 1.6) (drill 1) (layers *.Cu *.Mask))
  (pad 50 thru_hole circle (at -16.87 3.96) (size 1.6 1.6) (drill 1) (layers *.Cu *.Mask))
  (pad 51 thru_hole circle (at -19.28 3.96) (size 1.6 1.6) (drill 1) (layers *.Cu *.Mask))
  (pad 52 thru_hole circle (at -21.69 3.96) (size 1.6 1.6) (drill 1) (layers *.Cu *.Mask))
  (pad 53 thru_hole circle (at -24.1 3.96) (size 1.6 1.6) (drill 1) (layers *.Cu *.Mask))
  (pad 54 thru_hole circle (at -26.51 3.96) (size 1.6 1.6) (drill 1) (layers *.Cu *.Mask))
  (pad 55 thru_hole circle (at -28.92 3.96) (size 1.6 1.6) (drill 1) (layers *.Cu *.Mask))
  (pad 56 thru_hole circle (at -31.33 3.96) (size 1.6 1.6) (drill 1) (layers *.Cu *.Mask))
  (pad 57 thru_hole circle (at -33.74 3.96) (size 1.6 1.6) (drill 1) (layers *.Cu *.Mask))
  (pad 58 thru_hole circle (at -36.15 3.96) (size 1.6 1.6) (drill 1) (layers *.Cu *.Mask))
  (pad 59 thru_hole circle (at -38.56 3.96) (size 1.6 1.6) (drill 1) (layers *.Cu *.Mask))
  (pad 60 thru_hole circle (at -40.97 3.96) (size 1.6 1.6) (drill 1) (layers *.Cu *.Mask))
  (pad 61 thru_hole circle (at -43.38 3.96) (size 1.6 1.6) (drill 1) (layers *.Cu *.Mask))
  (pad 62 thru_hole circle (at -45.79 3.96) (size 1.6 1.6) (drill 1) (layers *.Cu *.Mask))
  (pad 0 thru_hole circle (at -55.295 1.42) (size 4 4) (drill 3.2) (layers *.Cu *.Mask))
  (pad 0 thru_hole circle (at 8.205 1.42) (size 4 4) (drill 3.2) (layers *.Cu *.Mask))
  (fp_text user %R (at -23.545 15.71) (layer F.Fab)
    (effects (font (size 1 1) (thickness 0.15)))
  )
  (model ${KIPRJMOD}/kicad_libs_k/models_k.3d/Connector_Dsub_k.3dshapes/DSUB-62-HD_Female_Horizontal_P2.41x1.98mm_EdgePinOffset8.35mm_Housed_MountingHolesOffset10.89mm_k.wrl
    (at (xyz 0 0 0))
    (scale (xyz 1 1 1))
    (rotate (xyz 0 0 0))
  )
)