(module DSUB-37_Male_Horizontal_P2.77x2.84mm_EdgePinOffset14.56mm_Housed_MountingHolesOffset8.20mm (layer F.Cu) (tedit 59FEDEE2)
  (descr "37-pin D-Sub connector, horizontal/angled (90 deg), THT-mount, male, pitch 2.77x2.84mm, pin-PCB-offset 14.56mm, distance of mounting holes 63.5mm, distance of mounting holes to PCB edge 8.2mm, see https://disti-assets.s3.amazonaws.com/tonar/files/datasheets/16730.pdf")
  (tags "37-pin D-Sub connector horizontal angled 90deg THT male pitch 2.77x2.84mm pin-PCB-offset 14.56mm mounting-holes-distance 63.5mm mounting-hole-offset 63.5mm")
  (fp_text reference REF** (at 24.93 -2.8) (layer F.SilkS)
    (effects (font (size 1 1) (thickness 0.15)))
  )
  (fp_text value DSUB-37_Male_Horizontal_P2.77x2.84mm_EdgePinOffset14.56mm_Housed_MountingHolesOffset8.20mm (at 24.93 25.3) (layer F.Fab)
    (effects (font (size 1 1) (thickness 0.15)))
  )
  (fp_arc (start -6.82 9.2) (end -8.42 9.2) (angle 180.000000) (layer F.Fab) (width 0.1))
  (fp_arc (start 56.68 9.2) (end 55.08 9.2) (angle 180.000000) (layer F.Fab) (width 0.1))
  (fp_line (start -9.77 -1.8) (end -9.77 17.4) (layer F.Fab) (width 0.1))
  (fp_line (start -9.77 17.4) (end 59.63 17.4) (layer F.Fab) (width 0.1))
  (fp_line (start 59.63 17.4) (end 59.63 -1.8) (layer F.Fab) (width 0.1))
  (fp_line (start 59.63 -1.8) (end -9.77 -1.8) (layer F.Fab) (width 0.1))
  (fp_line (start -9.77 17.4) (end -9.77 17.8) (layer F.Fab) (width 0.1))
  (fp_line (start -9.77 17.8) (end 59.63 17.8) (layer F.Fab) (width 0.1))
  (fp_line (start 59.63 17.8) (end 59.63 17.4) (layer F.Fab) (width 0.1))
  (fp_line (start 59.63 17.4) (end -9.77 17.4) (layer F.Fab) (width 0.1))
  (fp_line (start -2.47 17.8) (end -2.47 23.8) (layer F.Fab) (width 0.1))
  (fp_line (start -2.47 23.8) (end 52.33 23.8) (layer F.Fab) (width 0.1))
  (fp_line (start 52.33 23.8) (end 52.33 17.8) (layer F.Fab) (width 0.1))
  (fp_line (start 52.33 17.8) (end -2.47 17.8) (layer F.Fab) (width 0.1))
  (fp_line (start -9.32 17.8) (end -9.32 22.8) (layer F.Fab) (width 0.1))
  (fp_line (start -9.32 22.8) (end -4.32 22.8) (layer F.Fab) (width 0.1))
  (fp_line (start -4.32 22.8) (end -4.32 17.8) (layer F.Fab) (width 0.1))
  (fp_line (start -4.32 17.8) (end -9.32 17.8) (layer F.Fab) (width 0.1))
  (fp_line (start 54.18 17.8) (end 54.18 22.8) (layer F.Fab) (width 0.1))
  (fp_line (start 54.18 22.8) (end 59.18 22.8) (layer F.Fab) (width 0.1))
  (fp_line (start 59.18 22.8) (end 59.18 17.8) (layer F.Fab) (width 0.1))
  (fp_line (start 59.18 17.8) (end 54.18 17.8) (layer F.Fab) (width 0.1))
  (fp_line (start -8.42 17.4) (end -8.42 9.2) (layer F.Fab) (width 0.1))
  (fp_line (start -5.22 17.4) (end -5.22 9.2) (layer F.Fab) (width 0.1))
  (fp_line (start 55.08 17.4) (end 55.08 9.2) (layer F.Fab) (width 0.1))
  (fp_line (start 58.28 17.4) (end 58.28 9.2) (layer F.Fab) (width 0.1))
  (fp_line (start -9.83 17.34) (end -9.83 -1.86) (layer F.SilkS) (width 0.12))
  (fp_line (start -9.83 -1.86) (end 59.69 -1.86) (layer F.SilkS) (width 0.12))
  (fp_line (start 59.69 -1.86) (end 59.69 17.34) (layer F.SilkS) (width 0.12))
  (fp_line (start -0.25 -2.754338) (end 0.25 -2.754338) (layer F.SilkS) (width 0.12))
  (fp_line (start 0.25 -2.754338) (end 0 -2.321325) (layer F.SilkS) (width 0.12))
  (fp_line (start 0 -2.321325) (end -0.25 -2.754338) (layer F.SilkS) (width 0.12))
  (fp_line (start -10.3 -2.3) (end -10.3 24.3) (layer F.CrtYd) (width 0.05))
  (fp_line (start -10.3 24.3) (end 60.15 24.3) (layer F.CrtYd) (width 0.05))
  (fp_line (start 60.15 24.3) (end 60.15 -2.3) (layer F.CrtYd) (width 0.05))
  (fp_line (start 60.15 -2.3) (end -10.3 -2.3) (layer F.CrtYd) (width 0.05))
  (pad 1 thru_hole rect (at 0 0) (size 1.6 1.6) (drill 1) (layers *.Cu *.Mask))
  (pad 2 thru_hole circle (at 2.77 0) (size 1.6 1.6) (drill 1) (layers *.Cu *.Mask))
  (pad 3 thru_hole circle (at 5.54 0) (size 1.6 1.6) (drill 1) (layers *.Cu *.Mask))
  (pad 4 thru_hole circle (at 8.31 0) (size 1.6 1.6) (drill 1) (layers *.Cu *.Mask))
  (pad 5 thru_hole circle (at 11.08 0) (size 1.6 1.6) (drill 1) (layers *.Cu *.Mask))
  (pad 6 thru_hole circle (at 13.85 0) (size 1.6 1.6) (drill 1) (layers *.Cu *.Mask))
  (pad 7 thru_hole circle (at 16.62 0) (size 1.6 1.6) (drill 1) (layers *.Cu *.Mask))
  (pad 8 thru_hole circle (at 19.39 0) (size 1.6 1.6) (drill 1) (layers *.Cu *.Mask))
  (pad 9 thru_hole circle (at 22.16 0) (size 1.6 1.6) (drill 1) (layers *.Cu *.Mask))
  (pad 10 thru_hole circle (at 24.93 0) (size 1.6 1.6) (drill 1) (layers *.Cu *.Mask))
  (pad 11 thru_hole circle (at 27.7 0) (size 1.6 1.6) (drill 1) (layers *.Cu *.Mask))
  (pad 12 thru_hole circle (at 30.47 0) (size 1.6 1.6) (drill 1) (layers *.Cu *.Mask))
  (pad 13 thru_hole circle (at 33.24 0) (size 1.6 1.6) (drill 1) (layers *.Cu *.Mask))
  (pad 14 thru_hole circle (at 36.01 0) (size 1.6 1.6) (drill 1) (layers *.Cu *.Mask))
  (pad 15 thru_hole circle (at 38.78 0) (size 1.6 1.6) (drill 1) (layers *.Cu *.Mask))
  (pad 16 thru_hole circle (at 41.55 0) (size 1.6 1.6) (drill 1) (layers *.Cu *.Mask))
  (pad 17 thru_hole circle (at 44.32 0) (size 1.6 1.6) (drill 1) (layers *.Cu *.Mask))
  (pad 18 thru_hole circle (at 47.09 0) (size 1.6 1.6) (drill 1) (layers *.Cu *.Mask))
  (pad 19 thru_hole circle (at 49.86 0) (size 1.6 1.6) (drill 1) (layers *.Cu *.Mask))
  (pad 20 thru_hole circle (at 1.385 2.84) (size 1.6 1.6) (drill 1) (layers *.Cu *.Mask))
  (pad 21 thru_hole circle (at 4.155 2.84) (size 1.6 1.6) (drill 1) (layers *.Cu *.Mask))
  (pad 22 thru_hole circle (at 6.925 2.84) (size 1.6 1.6) (drill 1) (layers *.Cu *.Mask))
  (pad 23 thru_hole circle (at 9.695 2.84) (size 1.6 1.6) (drill 1) (layers *.Cu *.Mask))
  (pad 24 thru_hole circle (at 12.465 2.84) (size 1.6 1.6) (drill 1) (layers *.Cu *.Mask))
  (pad 25 thru_hole circle (at 15.235 2.84) (size 1.6 1.6) (drill 1) (layers *.Cu *.Mask))
  (pad 26 thru_hole circle (at 18.005 2.84) (size 1.6 1.6) (drill 1) (layers *.Cu *.Mask))
  (pad 27 thru_hole circle (at 20.775 2.84) (size 1.6 1.6) (drill 1) (layers *.Cu *.Mask))
  (pad 28 thru_hole circle (at 23.545 2.84) (size 1.6 1.6) (drill 1) (layers *.Cu *.Mask))
  (pad 29 thru_hole circle (at 26.315 2.84) (size 1.6 1.6) (drill 1) (layers *.Cu *.Mask))
  (pad 30 thru_hole circle (at 29.085 2.84) (size 1.6 1.6) (drill 1) (layers *.Cu *.Mask))
  (pad 31 thru_hole circle (at 31.855 2.84) (size 1.6 1.6) (drill 1) (layers *.Cu *.Mask))
  (pad 32 thru_hole circle (at 34.625 2.84) (size 1.6 1.6) (drill 1) (layers *.Cu *.Mask))
  (pad 33 thru_hole circle (at 37.395 2.84) (size 1.6 1.6) (drill 1) (layers *.Cu *.Mask))
  (pad 34 thru_hole circle (at 40.165 2.84) (size 1.6 1.6) (drill 1) (layers *.Cu *.Mask))
  (pad 35 thru_hole circle (at 42.935 2.84) (size 1.6 1.6) (drill 1) (layers *.Cu *.Mask))
  (pad 36 thru_hole circle (at 45.705 2.84) (size 1.6 1.6) (drill 1) (layers *.Cu *.Mask))
  (pad 37 thru_hole circle (at 48.475 2.84) (size 1.6 1.6) (drill 1) (layers *.Cu *.Mask))
  (pad 0 thru_hole circle (at -6.82 9.2) (size 4 4) (drill 3.2) (layers *.Cu *.Mask))
  (pad 0 thru_hole circle (at 56.68 9.2) (size 4 4) (drill 3.2) (layers *.Cu *.Mask))
  (fp_text user %R (at 24.93 20.8) (layer F.Fab)
    (effects (font (size 1 1) (thickness 0.15)))
  )
  (model ${KIPRJMOD}/kicad_libs_k/models_k.3d/Connector_Dsub_k.3dshapes/DSUB-37_Male_Horizontal_P2.77x2.84mm_EdgePinOffset14.56mm_Housed_MountingHolesOffset8.20mm_k.wrl
    (at (xyz 0 0 0))
    (scale (xyz 1 1 1))
    (rotate (xyz 0 0 0))
  )
)