(module DSUB-15-HD_Male_Horizontal_P2.29x1.98mm_EdgePinOffset8.35mm_Housed_MountingHolesOffset10.89mm (layer F.Cu) (tedit 59FEDEE2)
  (descr "15-pin D-Sub connector, horizontal/angled (90 deg), THT-mount, male, pitch 2.29x1.98mm, pin-PCB-offset 8.35mm, distance of mounting holes 25mm, distance of mounting holes to PCB edge 10.889999999999999mm, see https://disti-assets.s3.amazonaws.com/tonar/files/datasheets/16730.pdf")
  (tags "15-pin D-Sub connector horizontal angled 90deg THT male pitch 2.29x1.98mm pin-PCB-offset 8.35mm mounting-holes-distance 25mm mounting-hole-offset 25mm")
  (fp_text reference REF** (at 4.315 -2.58) (layer F.SilkS)
    (effects (font (size 1 1) (thickness 0.15)))
  )
  (fp_text value DSUB-15-HD_Male_Horizontal_P2.29x1.98mm_EdgePinOffset8.35mm_Housed_MountingHolesOffset10.89mm (at 4.315 20.21) (layer F.Fab)
    (effects (font (size 1 1) (thickness 0.15)))
  )
  (fp_arc (start -8.185 1.42) (end -9.785 1.42) (angle 180.000000) (layer F.Fab) (width 0.1))
  (fp_arc (start 16.815 1.42) (end 15.215 1.42) (angle 180.000000) (layer F.Fab) (width 0.1))
  (fp_line (start -11.11 -1.58) (end -11.11 12.31) (layer F.Fab) (width 0.1))
  (fp_line (start -11.11 12.31) (end 19.74 12.31) (layer F.Fab) (width 0.1))
  (fp_line (start 19.74 12.31) (end 19.74 -1.58) (layer F.Fab) (width 0.1))
  (fp_line (start 19.74 -1.58) (end -11.11 -1.58) (layer F.Fab) (width 0.1))
  (fp_line (start -11.11 12.31) (end -11.11 12.71) (layer F.Fab) (width 0.1))
  (fp_line (start -11.11 12.71) (end 19.74 12.71) (layer F.Fab) (width 0.1))
  (fp_line (start 19.74 12.71) (end 19.74 12.31) (layer F.Fab) (width 0.1))
  (fp_line (start 19.74 12.31) (end -11.11 12.31) (layer F.Fab) (width 0.1))
  (fp_line (start -3.835 12.71) (end -3.835 18.71) (layer F.Fab) (width 0.1))
  (fp_line (start -3.835 18.71) (end 12.465 18.71) (layer F.Fab) (width 0.1))
  (fp_line (start 12.465 18.71) (end 12.465 12.71) (layer F.Fab) (width 0.1))
  (fp_line (start 12.465 12.71) (end -3.835 12.71) (layer F.Fab) (width 0.1))
  (fp_line (start -10.685 12.71) (end -10.685 17.71) (layer F.Fab) (width 0.1))
  (fp_line (start -10.685 17.71) (end -5.685 17.71) (layer F.Fab) (width 0.1))
  (fp_line (start -5.685 17.71) (end -5.685 12.71) (layer F.Fab) (width 0.1))
  (fp_line (start -5.685 12.71) (end -10.685 12.71) (layer F.Fab) (width 0.1))
  (fp_line (start 14.315 12.71) (end 14.315 17.71) (layer F.Fab) (width 0.1))
  (fp_line (start 14.315 17.71) (end 19.315 17.71) (layer F.Fab) (width 0.1))
  (fp_line (start 19.315 17.71) (end 19.315 12.71) (layer F.Fab) (width 0.1))
  (fp_line (start 19.315 12.71) (end 14.315 12.71) (layer F.Fab) (width 0.1))
  (fp_line (start -9.785 12.31) (end -9.785 1.42) (layer F.Fab) (width 0.1))
  (fp_line (start -6.585 12.31) (end -6.585 1.42) (layer F.Fab) (width 0.1))
  (fp_line (start 15.215 12.31) (end 15.215 1.42) (layer F.Fab) (width 0.1))
  (fp_line (start 18.415 12.31) (end 18.415 1.42) (layer F.Fab) (width 0.1))
  (fp_line (start -11.17 12.25) (end -11.17 -1.64) (layer F.SilkS) (width 0.12))
  (fp_line (start -11.17 -1.64) (end 19.8 -1.64) (layer F.SilkS) (width 0.12))
  (fp_line (start 19.8 -1.64) (end 19.8 12.25) (layer F.SilkS) (width 0.12))
  (fp_line (start -0.25 -2.534338) (end 0.25 -2.534338) (layer F.SilkS) (width 0.12))
  (fp_line (start 0.25 -2.534338) (end 0 -2.101325) (layer F.SilkS) (width 0.12))
  (fp_line (start 0 -2.101325) (end -0.25 -2.534338) (layer F.SilkS) (width 0.12))
  (fp_line (start -11.65 -2.1) (end -11.65 19.25) (layer F.CrtYd) (width 0.05))
  (fp_line (start -11.65 19.25) (end 20.25 19.25) (layer F.CrtYd) (width 0.05))
  (fp_line (start 20.25 19.25) (end 20.25 -2.1) (layer F.CrtYd) (width 0.05))
  (fp_line (start 20.25 -2.1) (end -11.65 -2.1) (layer F.CrtYd) (width 0.05))
  (pad 1 thru_hole rect (at 0 0) (size 1.6 1.6) (drill 1) (layers *.Cu *.Mask))
  (pad 2 thru_hole circle (at 2.29 0) (size 1.6 1.6) (drill 1) (layers *.Cu *.Mask))
  (pad 3 thru_hole circle (at 4.58 0) (size 1.6 1.6) (drill 1) (layers *.Cu *.Mask))
  (pad 4 thru_hole circle (at 6.87 0) (size 1.6 1.6) (drill 1) (layers *.Cu *.Mask))
  (pad 5 thru_hole circle (at 9.16 0) (size 1.6 1.6) (drill 1) (layers *.Cu *.Mask))
  (pad 6 thru_hole circle (at -1.145 1.98) (size 1.6 1.6) (drill 1) (layers *.Cu *.Mask))
  (pad 7 thru_hole circle (at 1.145 1.98) (size 1.6 1.6) (drill 1) (layers *.Cu *.Mask))
  (pad 8 thru_hole circle (at 3.435 1.98) (size 1.6 1.6) (drill 1) (layers *.Cu *.Mask))
  (pad 9 thru_hole circle (at 5.725 1.98) (size 1.6 1.6) (drill 1) (layers *.Cu *.Mask))
  (pad 10 thru_hole circle (at 8.015 1.98) (size 1.6 1.6) (drill 1) (layers *.Cu *.Mask))
  (pad 11 thru_hole circle (at 0 3.96) (size 1.6 1.6) (drill 1) (layers *.Cu *.Mask))
  (pad 12 thru_hole circle (at 2.29 3.96) (size 1.6 1.6) (drill 1) (layers *.Cu *.Mask))
  (pad 13 thru_hole circle (at 4.58 3.96) (size 1.6 1.6) (drill 1) (layers *.Cu *.Mask))
  (pad 14 thru_hole circle (at 6.87 3.96) (size 1.6 1.6) (drill 1) (layers *.Cu *.Mask))
  (pad 15 thru_hole circle (at 9.16 3.96) (size 1.6 1.6) (drill 1) (layers *.Cu *.Mask))
  (pad 0 thru_hole circle (at -8.185 1.42) (size 4 4) (drill 3.2) (layers *.Cu *.Mask))
  (pad 0 thru_hole circle (at 16.815 1.42) (size 4 4) (drill 3.2) (layers *.Cu *.Mask))
  (fp_text user %R (at 4.315 15.71) (layer F.Fab)
    (effects (font (size 1 1) (thickness 0.15)))
  )
  (model ${KIPRJMOD}/kicad_libs_k/models_k.3d/Connector_Dsub_k.3dshapes/DSUB-15-HD_Male_Horizontal_P2.29x1.98mm_EdgePinOffset8.35mm_Housed_MountingHolesOffset10.89mm_k.wrl
    (at (xyz 0 0 0))
    (scale (xyz 1 1 1))
    (rotate (xyz 0 0 0))
  )
)