(module DSUB-37_Male_Horizontal_P2.77x2.84mm_EdgePinOffset9.90mm_Housed_MountingHolesOffset11.32mm (layer F.Cu) (tedit 59FEDEE2)
  (descr "37-pin D-Sub connector, horizontal/angled (90 deg), THT-mount, male, pitch 2.77x2.84mm, pin-PCB-offset 9.9mm, distance of mounting holes 63.5mm, distance of mounting holes to PCB edge 11.32mm, see https://disti-assets.s3.amazonaws.com/tonar/files/datasheets/16730.pdf")
  (tags "37-pin D-Sub connector horizontal angled 90deg THT male pitch 2.77x2.84mm pin-PCB-offset 9.9mm mounting-holes-distance 63.5mm mounting-hole-offset 63.5mm")
  (fp_text reference REF** (at 24.93 -2.8) (layer F.SilkS)
    (effects (font (size 1 1) (thickness 0.15)))
  )
  (fp_text value DSUB-37_Male_Horizontal_P2.77x2.84mm_EdgePinOffset9.90mm_Housed_MountingHolesOffset11.32mm (at 24.93 20.64) (layer F.Fab)
    (effects (font (size 1 1) (thickness 0.15)))
  )
  (fp_arc (start -6.82 1.42) (end -8.42 1.42) (angle 180.000000) (layer F.Fab) (width 0.1))
  (fp_arc (start 56.68 1.42) (end 55.08 1.42) (angle 180.000000) (layer F.Fab) (width 0.1))
  (fp_line (start -9.77 -1.8) (end -9.77 12.74) (layer F.Fab) (width 0.1))
  (fp_line (start -9.77 12.74) (end 59.63 12.74) (layer F.Fab) (width 0.1))
  (fp_line (start 59.63 12.74) (end 59.63 -1.8) (layer F.Fab) (width 0.1))
  (fp_line (start 59.63 -1.8) (end -9.77 -1.8) (layer F.Fab) (width 0.1))
  (fp_line (start -9.77 12.74) (end -9.77 13.14) (layer F.Fab) (width 0.1))
  (fp_line (start -9.77 13.14) (end 59.63 13.14) (layer F.Fab) (width 0.1))
  (fp_line (start 59.63 13.14) (end 59.63 12.74) (layer F.Fab) (width 0.1))
  (fp_line (start 59.63 12.74) (end -9.77 12.74) (layer F.Fab) (width 0.1))
  (fp_line (start -2.47 13.14) (end -2.47 19.14) (layer F.Fab) (width 0.1))
  (fp_line (start -2.47 19.14) (end 52.33 19.14) (layer F.Fab) (width 0.1))
  (fp_line (start 52.33 19.14) (end 52.33 13.14) (layer F.Fab) (width 0.1))
  (fp_line (start 52.33 13.14) (end -2.47 13.14) (layer F.Fab) (width 0.1))
  (fp_line (start -9.32 13.14) (end -9.32 18.14) (layer F.Fab) (width 0.1))
  (fp_line (start -9.32 18.14) (end -4.32 18.14) (layer F.Fab) (width 0.1))
  (fp_line (start -4.32 18.14) (end -4.32 13.14) (layer F.Fab) (width 0.1))
  (fp_line (start -4.32 13.14) (end -9.32 13.14) (layer F.Fab) (width 0.1))
  (fp_line (start 54.18 13.14) (end 54.18 18.14) (layer F.Fab) (width 0.1))
  (fp_line (start 54.18 18.14) (end 59.18 18.14) (layer F.Fab) (width 0.1))
  (fp_line (start 59.18 18.14) (end 59.18 13.14) (layer F.Fab) (width 0.1))
  (fp_line (start 59.18 13.14) (end 54.18 13.14) (layer F.Fab) (width 0.1))
  (fp_line (start -8.42 12.74) (end -8.42 1.42) (layer F.Fab) (width 0.1))
  (fp_line (start -5.22 12.74) (end -5.22 1.42) (layer F.Fab) (width 0.1))
  (fp_line (start 55.08 12.74) (end 55.08 1.42) (layer F.Fab) (width 0.1))
  (fp_line (start 58.28 12.74) (end 58.28 1.42) (layer F.Fab) (width 0.1))
  (fp_line (start -9.83 12.68) (end -9.83 -1.86) (layer F.SilkS) (width 0.12))
  (fp_line (start -9.83 -1.86) (end 59.69 -1.86) (layer F.SilkS) (width 0.12))
  (fp_line (start 59.69 -1.86) (end 59.69 12.68) (layer F.SilkS) (width 0.12))
  (fp_line (start -0.25 -2.754338) (end 0.25 -2.754338) (layer F.SilkS) (width 0.12))
  (fp_line (start 0.25 -2.754338) (end 0 -2.321325) (layer F.SilkS) (width 0.12))
  (fp_line (start 0 -2.321325) (end -0.25 -2.754338) (layer F.SilkS) (width 0.12))
  (fp_line (start -10.3 -2.35) (end -10.3 19.65) (layer F.CrtYd) (width 0.05))
  (fp_line (start -10.3 19.65) (end 60.15 19.65) (layer F.CrtYd) (width 0.05))
  (fp_line (start 60.15 19.65) (end 60.15 -2.35) (layer F.CrtYd) (width 0.05))
  (fp_line (start 60.15 -2.35) (end -10.3 -2.35) (layer F.CrtYd) (width 0.05))
  (pad 1 thru_hole rect (at 0 0) (size 1.6 1.6) (drill 1) (layers *.Cu *.Mask))
  (pad 2 thru_hole circle (at 2.77 0) (size 1.6 1.6) (drill 1) (layers *.Cu *.Mask))
  (pad 3 thru_hole circle (at 5.54 0) (size 1.6 1.6) (drill 1) (layers *.Cu *.Mask))
  (pad 4 thru_hole circle (at 8.31 0) (size 1.6 1.6) (drill 1) (layers *.Cu *.Mask))
  (pad 5 thru_hole circle (at 11.08 0) (size 1.6 1.6) (drill 1) (layers *.Cu *.Mask))
  (pad 6 thru_hole circle (at 13.85 0) (size 1.6 1.6) (drill 1) (layers *.Cu *.Mask))
  (pad 7 thru_hole circle (at 16.62 0) (size 1.6 1.6) (drill 1) (layers *.Cu *.Mask))
  (pad 8 thru_hole circle (at 19.39 0) (size 1.6 1.6) (drill 1) (layers *.Cu *.Mask))
  (pad 9 thru_hole circle (at 22.16 0) (size 1.6 1.6) (drill 1) (layers *.Cu *.Mask))
  (pad 10 thru_hole circle (at 24.93 0) (size 1.6 1.6) (drill 1) (layers *.Cu *.Mask))
  (pad 11 thru_hole circle (at 27.7 0) (size 1.6 1.6) (drill 1) (layers *.Cu *.Mask))
  (pad 12 thru_hole circle (at 30.47 0) (size 1.6 1.6) (drill 1) (layers *.Cu *.Mask))
  (pad 13 thru_hole circle (at 33.24 0) (size 1.6 1.6) (drill 1) (layers *.Cu *.Mask))
  (pad 14 thru_hole circle (at 36.01 0) (size 1.6 1.6) (drill 1) (layers *.Cu *.Mask))
  (pad 15 thru_hole circle (at 38.78 0) (size 1.6 1.6) (drill 1) (layers *.Cu *.Mask))
  (pad 16 thru_hole circle (at 41.55 0) (size 1.6 1.6) (drill 1) (layers *.Cu *.Mask))
  (pad 17 thru_hole circle (at 44.32 0) (size 1.6 1.6) (drill 1) (layers *.Cu *.Mask))
  (pad 18 thru_hole circle (at 47.09 0) (size 1.6 1.6) (drill 1) (layers *.Cu *.Mask))
  (pad 19 thru_hole circle (at 49.86 0) (size 1.6 1.6) (drill 1) (layers *.Cu *.Mask))
  (pad 20 thru_hole circle (at 1.385 2.84) (size 1.6 1.6) (drill 1) (layers *.Cu *.Mask))
  (pad 21 thru_hole circle (at 4.155 2.84) (size 1.6 1.6) (drill 1) (layers *.Cu *.Mask))
  (pad 22 thru_hole circle (at 6.925 2.84) (size 1.6 1.6) (drill 1) (layers *.Cu *.Mask))
  (pad 23 thru_hole circle (at 9.695 2.84) (size 1.6 1.6) (drill 1) (layers *.Cu *.Mask))
  (pad 24 thru_hole circle (at 12.465 2.84) (size 1.6 1.6) (drill 1) (layers *.Cu *.Mask))
  (pad 25 thru_hole circle (at 15.235 2.84) (size 1.6 1.6) (drill 1) (layers *.Cu *.Mask))
  (pad 26 thru_hole circle (at 18.005 2.84) (size 1.6 1.6) (drill 1) (layers *.Cu *.Mask))
  (pad 27 thru_hole circle (at 20.775 2.84) (size 1.6 1.6) (drill 1) (layers *.Cu *.Mask))
  (pad 28 thru_hole circle (at 23.545 2.84) (size 1.6 1.6) (drill 1) (layers *.Cu *.Mask))
  (pad 29 thru_hole circle (at 26.315 2.84) (size 1.6 1.6) (drill 1) (layers *.Cu *.Mask))
  (pad 30 thru_hole circle (at 29.085 2.84) (size 1.6 1.6) (drill 1) (layers *.Cu *.Mask))
  (pad 31 thru_hole circle (at 31.855 2.84) (size 1.6 1.6) (drill 1) (layers *.Cu *.Mask))
  (pad 32 thru_hole circle (at 34.625 2.84) (size 1.6 1.6) (drill 1) (layers *.Cu *.Mask))
  (pad 33 thru_hole circle (at 37.395 2.84) (size 1.6 1.6) (drill 1) (layers *.Cu *.Mask))
  (pad 34 thru_hole circle (at 40.165 2.84) (size 1.6 1.6) (drill 1) (layers *.Cu *.Mask))
  (pad 35 thru_hole circle (at 42.935 2.84) (size 1.6 1.6) (drill 1) (layers *.Cu *.Mask))
  (pad 36 thru_hole circle (at 45.705 2.84) (size 1.6 1.6) (drill 1) (layers *.Cu *.Mask))
  (pad 37 thru_hole circle (at 48.475 2.84) (size 1.6 1.6) (drill 1) (layers *.Cu *.Mask))
  (pad 0 thru_hole circle (at -6.82 1.42) (size 4 4) (drill 3.2) (layers *.Cu *.Mask))
  (pad 0 thru_hole circle (at 56.68 1.42) (size 4 4) (drill 3.2) (layers *.Cu *.Mask))
  (fp_text user %R (at 24.93 16.14) (layer F.Fab)
    (effects (font (size 1 1) (thickness 0.15)))
  )
  (model ${KIPRJMOD}/kicad_libs_k/models_k.3d/Connector_Dsub_k.3dshapes/DSUB-37_Male_Horizontal_P2.77x2.84mm_EdgePinOffset9.90mm_Housed_MountingHolesOffset11.32mm_k.wrl
    (at (xyz 0 0 0))
    (scale (xyz 1 1 1))
    (rotate (xyz 0 0 0))
  )
)