(module DSUB-15_Male_Horizontal_P2.77x2.84mm_EdgePinOffset4.94mm_Housed_MountingHolesOffset7.48mm (layer F.Cu) (tedit 59FEDEE2)
  (descr "15-pin D-Sub connector, horizontal/angled (90 deg), THT-mount, male, pitch 2.77x2.84mm, pin-PCB-offset 4.9399999999999995mm, distance of mounting holes 33.3mm, distance of mounting holes to PCB edge 7.4799999999999995mm, see https://disti-assets.s3.amazonaws.com/tonar/files/datasheets/16730.pdf")
  (tags "15-pin D-Sub connector horizontal angled 90deg THT male pitch 2.77x2.84mm pin-PCB-offset 4.9399999999999995mm mounting-holes-distance 33.3mm mounting-hole-offset 33.3mm")
  (fp_text reference REF** (at 9.695 -3.7) (layer F.SilkS)
    (effects (font (size 1 1) (thickness 0.15)))
  )
  (fp_text value DSUB-15_Male_Horizontal_P2.77x2.84mm_EdgePinOffset4.94mm_Housed_MountingHolesOffset7.48mm (at 9.695 15.68) (layer F.Fab)
    (effects (font (size 1 1) (thickness 0.15)))
  )
  (fp_arc (start -6.955 0.3) (end -8.555 0.3) (angle 180.000000) (layer F.Fab) (width 0.1))
  (fp_arc (start 26.345 0.3) (end 24.745 0.3) (angle 180.000000) (layer F.Fab) (width 0.1))
  (fp_line (start -9.905 -2.7) (end -9.905 7.78) (layer F.Fab) (width 0.1))
  (fp_line (start -9.905 7.78) (end 29.295 7.78) (layer F.Fab) (width 0.1))
  (fp_line (start 29.295 7.78) (end 29.295 -2.7) (layer F.Fab) (width 0.1))
  (fp_line (start 29.295 -2.7) (end -9.905 -2.7) (layer F.Fab) (width 0.1))
  (fp_line (start -9.905 7.78) (end -9.905 8.18) (layer F.Fab) (width 0.1))
  (fp_line (start -9.905 8.18) (end 29.295 8.18) (layer F.Fab) (width 0.1))
  (fp_line (start 29.295 8.18) (end 29.295 7.78) (layer F.Fab) (width 0.1))
  (fp_line (start 29.295 7.78) (end -9.905 7.78) (layer F.Fab) (width 0.1))
  (fp_line (start -2.605 8.18) (end -2.605 14.18) (layer F.Fab) (width 0.1))
  (fp_line (start -2.605 14.18) (end 21.995 14.18) (layer F.Fab) (width 0.1))
  (fp_line (start 21.995 14.18) (end 21.995 8.18) (layer F.Fab) (width 0.1))
  (fp_line (start 21.995 8.18) (end -2.605 8.18) (layer F.Fab) (width 0.1))
  (fp_line (start -9.455 8.18) (end -9.455 13.18) (layer F.Fab) (width 0.1))
  (fp_line (start -9.455 13.18) (end -4.455 13.18) (layer F.Fab) (width 0.1))
  (fp_line (start -4.455 13.18) (end -4.455 8.18) (layer F.Fab) (width 0.1))
  (fp_line (start -4.455 8.18) (end -9.455 8.18) (layer F.Fab) (width 0.1))
  (fp_line (start 23.845 8.18) (end 23.845 13.18) (layer F.Fab) (width 0.1))
  (fp_line (start 23.845 13.18) (end 28.845 13.18) (layer F.Fab) (width 0.1))
  (fp_line (start 28.845 13.18) (end 28.845 8.18) (layer F.Fab) (width 0.1))
  (fp_line (start 28.845 8.18) (end 23.845 8.18) (layer F.Fab) (width 0.1))
  (fp_line (start -8.555 7.78) (end -8.555 0.3) (layer F.Fab) (width 0.1))
  (fp_line (start -5.355 7.78) (end -5.355 0.3) (layer F.Fab) (width 0.1))
  (fp_line (start 24.745 7.78) (end 24.745 0.3) (layer F.Fab) (width 0.1))
  (fp_line (start 27.945 7.78) (end 27.945 0.3) (layer F.Fab) (width 0.1))
  (fp_line (start -9.965 7.72) (end -9.965 -2.76) (layer F.SilkS) (width 0.12))
  (fp_line (start -9.965 -2.76) (end 29.355 -2.76) (layer F.SilkS) (width 0.12))
  (fp_line (start 29.355 -2.76) (end 29.355 7.72) (layer F.SilkS) (width 0.12))
  (fp_line (start -0.25 -3.654338) (end 0.25 -3.654338) (layer F.SilkS) (width 0.12))
  (fp_line (start 0.25 -3.654338) (end 0 -3.221325) (layer F.SilkS) (width 0.12))
  (fp_line (start 0 -3.221325) (end -0.25 -3.654338) (layer F.SilkS) (width 0.12))
  (fp_line (start -10.45 -3.25) (end -10.45 14.7) (layer F.CrtYd) (width 0.05))
  (fp_line (start -10.45 14.7) (end 29.8 14.7) (layer F.CrtYd) (width 0.05))
  (fp_line (start 29.8 14.7) (end 29.8 -3.25) (layer F.CrtYd) (width 0.05))
  (fp_line (start 29.8 -3.25) (end -10.45 -3.25) (layer F.CrtYd) (width 0.05))
  (pad 1 thru_hole rect (at 0 0) (size 1.6 1.6) (drill 1) (layers *.Cu *.Mask))
  (pad 2 thru_hole circle (at 2.77 0) (size 1.6 1.6) (drill 1) (layers *.Cu *.Mask))
  (pad 3 thru_hole circle (at 5.54 0) (size 1.6 1.6) (drill 1) (layers *.Cu *.Mask))
  (pad 4 thru_hole circle (at 8.31 0) (size 1.6 1.6) (drill 1) (layers *.Cu *.Mask))
  (pad 5 thru_hole circle (at 11.08 0) (size 1.6 1.6) (drill 1) (layers *.Cu *.Mask))
  (pad 6 thru_hole circle (at 13.85 0) (size 1.6 1.6) (drill 1) (layers *.Cu *.Mask))
  (pad 7 thru_hole circle (at 16.62 0) (size 1.6 1.6) (drill 1) (layers *.Cu *.Mask))
  (pad 8 thru_hole circle (at 19.39 0) (size 1.6 1.6) (drill 1) (layers *.Cu *.Mask))
  (pad 9 thru_hole circle (at 1.385 2.84) (size 1.6 1.6) (drill 1) (layers *.Cu *.Mask))
  (pad 10 thru_hole circle (at 4.155 2.84) (size 1.6 1.6) (drill 1) (layers *.Cu *.Mask))
  (pad 11 thru_hole circle (at 6.925 2.84) (size 1.6 1.6) (drill 1) (layers *.Cu *.Mask))
  (pad 12 thru_hole circle (at 9.695 2.84) (size 1.6 1.6) (drill 1) (layers *.Cu *.Mask))
  (pad 13 thru_hole circle (at 12.465 2.84) (size 1.6 1.6) (drill 1) (layers *.Cu *.Mask))
  (pad 14 thru_hole circle (at 15.235 2.84) (size 1.6 1.6) (drill 1) (layers *.Cu *.Mask))
  (pad 15 thru_hole circle (at 18.005 2.84) (size 1.6 1.6) (drill 1) (layers *.Cu *.Mask))
  (pad 0 thru_hole circle (at -6.955 0.3) (size 4 4) (drill 3.2) (layers *.Cu *.Mask))
  (pad 0 thru_hole circle (at 26.345 0.3) (size 4 4) (drill 3.2) (layers *.Cu *.Mask))
  (fp_text user %R (at 9.695 11.18) (layer F.Fab)
    (effects (font (size 1 1) (thickness 0.15)))
  )
  (model ${KIPRJMOD}/kicad_libs_k/models_k.3d/Connector_Dsub_k.3dshapes/DSUB-15_Male_Horizontal_P2.77x2.84mm_EdgePinOffset4.94mm_Housed_MountingHolesOffset7.48mm_k.wrl
    (at (xyz 0 0 0))
    (scale (xyz 1 1 1))
    (rotate (xyz 0 0 0))
  )
)