(module DSUB-15_Male_Vertical_P2.77x2.84mm (layer F.Cu) (tedit 59FEDEE2)
  (descr "15-pin D-Sub connector, straight/vertical, THT-mount, male, pitch 2.77x2.84mm, distance of mounting holes 33.3mm, see https://disti-assets.s3.amazonaws.com/tonar/files/datasheets/16730.pdf")
  (tags "15-pin D-Sub connector straight vertical THT male pitch 2.77x2.84mm mounting holes distance 33.3mm")
  (fp_text reference REF** (at 9.695 -5.89) (layer F.SilkS)
    (effects (font (size 1 1) (thickness 0.15)))
  )
  (fp_text value DSUB-15_Male_Vertical_P2.77x2.84mm (at 9.695 8.73) (layer F.Fab)
    (effects (font (size 1 1) (thickness 0.15)))
  )
  (fp_arc (start -8.905 -3.83) (end -9.905 -3.83) (angle 90.000000) (layer F.Fab) (width 0.1))
  (fp_arc (start 28.295 -3.83) (end 28.295 -4.83) (angle 90.000000) (layer F.Fab) (width 0.1))
  (fp_arc (start -8.905 6.67) (end -9.905 6.67) (angle -90.000000) (layer F.Fab) (width 0.1))
  (fp_arc (start 28.295 6.67) (end 29.295 6.67) (angle 90.000000) (layer F.Fab) (width 0.1))
  (fp_arc (start -8.905 -3.83) (end -9.965 -3.83) (angle 90.000000) (layer F.SilkS) (width 0.12))
  (fp_arc (start 28.295 -3.83) (end 28.295 -4.89) (angle 90.000000) (layer F.SilkS) (width 0.12))
  (fp_arc (start -8.905 6.67) (end -9.965 6.67) (angle -90.000000) (layer F.SilkS) (width 0.12))
  (fp_arc (start 28.295 6.67) (end 29.355 6.67) (angle 90.000000) (layer F.SilkS) (width 0.12))
  (fp_arc (start -0.698194 -1.13) (end -0.698194 -2.73) (angle -100.000000) (layer F.Fab) (width 0.1))
  (fp_arc (start 20.088194 -1.13) (end 20.088194 -2.73) (angle 100.000000) (layer F.Fab) (width 0.1))
  (fp_arc (start 0.201073 3.97) (end 0.201073 5.57) (angle 80.000000) (layer F.Fab) (width 0.1))
  (fp_arc (start 19.188927 3.97) (end 19.188927 5.57) (angle -80.000000) (layer F.Fab) (width 0.1))
  (fp_arc (start -0.686689 -1.13) (end -0.686689 -2.79) (angle -100.000000) (layer F.SilkS) (width 0.12))
  (fp_arc (start 20.076689 -1.13) (end 20.076689 -2.79) (angle 100.000000) (layer F.SilkS) (width 0.12))
  (fp_arc (start 0.212579 3.97) (end 0.212579 5.63) (angle 80.000000) (layer F.SilkS) (width 0.12))
  (fp_arc (start 19.177421 3.97) (end 19.177421 5.63) (angle -80.000000) (layer F.SilkS) (width 0.12))
  (fp_line (start -8.905 -4.83) (end 28.295 -4.83) (layer F.Fab) (width 0.1))
  (fp_line (start 29.295 -3.83) (end 29.295 6.67) (layer F.Fab) (width 0.1))
  (fp_line (start 28.295 7.67) (end -8.905 7.67) (layer F.Fab) (width 0.1))
  (fp_line (start -9.905 6.67) (end -9.905 -3.83) (layer F.Fab) (width 0.1))
  (fp_line (start -8.905 -4.89) (end 28.295 -4.89) (layer F.SilkS) (width 0.12))
  (fp_line (start 29.355 -3.83) (end 29.355 6.67) (layer F.SilkS) (width 0.12))
  (fp_line (start 28.295 7.73) (end -8.905 7.73) (layer F.SilkS) (width 0.12))
  (fp_line (start -9.965 6.67) (end -9.965 -3.83) (layer F.SilkS) (width 0.12))
  (fp_line (start -0.25 -5.784338) (end 0.25 -5.784338) (layer F.SilkS) (width 0.12))
  (fp_line (start 0.25 -5.784338) (end 0 -5.351325) (layer F.SilkS) (width 0.12))
  (fp_line (start 0 -5.351325) (end -0.25 -5.784338) (layer F.SilkS) (width 0.12))
  (fp_line (start -0.698194 -2.73) (end 20.088194 -2.73) (layer F.Fab) (width 0.1))
  (fp_line (start 0.201073 5.57) (end 19.188927 5.57) (layer F.Fab) (width 0.1))
  (fp_line (start 21.663887 -0.852163) (end 20.764619 4.247837) (layer F.Fab) (width 0.1))
  (fp_line (start -2.273887 -0.852163) (end -1.374619 4.247837) (layer F.Fab) (width 0.1))
  (fp_line (start -0.686689 -2.79) (end 20.076689 -2.79) (layer F.SilkS) (width 0.12))
  (fp_line (start 0.212579 5.63) (end 19.177421 5.63) (layer F.SilkS) (width 0.12))
  (fp_line (start 21.71147 -0.841744) (end 20.812202 4.258256) (layer F.SilkS) (width 0.12))
  (fp_line (start -2.32147 -0.841744) (end -1.422202 4.258256) (layer F.SilkS) (width 0.12))
  (fp_line (start -10.45 -5.35) (end -10.45 8.2) (layer F.CrtYd) (width 0.05))
  (fp_line (start -10.45 8.2) (end 29.8 8.2) (layer F.CrtYd) (width 0.05))
  (fp_line (start 29.8 8.2) (end 29.8 -5.35) (layer F.CrtYd) (width 0.05))
  (fp_line (start 29.8 -5.35) (end -10.45 -5.35) (layer F.CrtYd) (width 0.05))
  (pad 1 thru_hole rect (at 0 0) (size 1.6 1.6) (drill 1) (layers *.Cu *.Mask))
  (pad 2 thru_hole circle (at 2.77 0) (size 1.6 1.6) (drill 1) (layers *.Cu *.Mask))
  (pad 3 thru_hole circle (at 5.54 0) (size 1.6 1.6) (drill 1) (layers *.Cu *.Mask))
  (pad 4 thru_hole circle (at 8.31 0) (size 1.6 1.6) (drill 1) (layers *.Cu *.Mask))
  (pad 5 thru_hole circle (at 11.08 0) (size 1.6 1.6) (drill 1) (layers *.Cu *.Mask))
  (pad 6 thru_hole circle (at 13.85 0) (size 1.6 1.6) (drill 1) (layers *.Cu *.Mask))
  (pad 7 thru_hole circle (at 16.62 0) (size 1.6 1.6) (drill 1) (layers *.Cu *.Mask))
  (pad 8 thru_hole circle (at 19.39 0) (size 1.6 1.6) (drill 1) (layers *.Cu *.Mask))
  (pad 9 thru_hole circle (at 1.385 2.84) (size 1.6 1.6) (drill 1) (layers *.Cu *.Mask))
  (pad 10 thru_hole circle (at 4.155 2.84) (size 1.6 1.6) (drill 1) (layers *.Cu *.Mask))
  (pad 11 thru_hole circle (at 6.925 2.84) (size 1.6 1.6) (drill 1) (layers *.Cu *.Mask))
  (pad 12 thru_hole circle (at 9.695 2.84) (size 1.6 1.6) (drill 1) (layers *.Cu *.Mask))
  (pad 13 thru_hole circle (at 12.465 2.84) (size 1.6 1.6) (drill 1) (layers *.Cu *.Mask))
  (pad 14 thru_hole circle (at 15.235 2.84) (size 1.6 1.6) (drill 1) (layers *.Cu *.Mask))
  (pad 15 thru_hole circle (at 18.005 2.84) (size 1.6 1.6) (drill 1) (layers *.Cu *.Mask))
  (fp_text user %R (at 9.695 1.42) (layer F.Fab)
    (effects (font (size 1 1) (thickness 0.15)))
  )
  (model ${KIPRJMOD}/kicad_libs_k/models_k.3d/Connector_Dsub_k.3dshapes/DSUB-15_Male_Vertical_P2.77x2.84mm_k.wrl
    (at (xyz 0 0 0))
    (scale (xyz 1 1 1))
    (rotate (xyz 0 0 0))
  )
)