(module DSUB-15-HD_Female_Vertical_P2.29x1.98mm_MountingHoles (layer F.Cu) (tedit 59FEDEE2)
  (descr "15-pin D-Sub connector, straight/vertical, THT-mount, female, pitch 2.29x1.98mm, distance of mounting holes 25mm, see https://disti-assets.s3.amazonaws.com/tonar/files/datasheets/16730.pdf")
  (tags "15-pin D-Sub connector straight vertical THT female pitch 2.29x1.98mm mounting holes distance 25mm")
  (fp_text reference REF** (at -4.315 -5.33) (layer F.SilkS)
    (effects (font (size 1 1) (thickness 0.15)))
  )
  (fp_text value DSUB-15-HD_Female_Vertical_P2.29x1.98mm_MountingHoles (at -4.315 9.29) (layer F.Fab)
    (effects (font (size 1 1) (thickness 0.15)))
  )
  (fp_arc (start -18.74 -3.27) (end -19.74 -3.27) (angle 90.000000) (layer F.Fab) (width 0.1))
  (fp_arc (start 10.11 -3.27) (end 10.11 -4.27) (angle 90.000000) (layer F.Fab) (width 0.1))
  (fp_arc (start -18.74 7.23) (end -19.74 7.23) (angle -90.000000) (layer F.Fab) (width 0.1))
  (fp_arc (start 10.11 7.23) (end 11.11 7.23) (angle 90.000000) (layer F.Fab) (width 0.1))
  (fp_arc (start -18.74 -3.27) (end -19.8 -3.27) (angle 90.000000) (layer F.SilkS) (width 0.12))
  (fp_arc (start 10.11 -3.27) (end 10.11 -4.33) (angle 90.000000) (layer F.SilkS) (width 0.12))
  (fp_arc (start -18.74 7.23) (end -19.8 7.23) (angle -90.000000) (layer F.SilkS) (width 0.12))
  (fp_arc (start 10.11 7.23) (end 11.17 7.23) (angle 90.000000) (layer F.SilkS) (width 0.12))
  (fp_arc (start -10.558194 -0.37) (end -10.558194 -1.97) (angle -100.000000) (layer F.Fab) (width 0.1))
  (fp_arc (start 1.928194 -0.37) (end 1.928194 -1.97) (angle 100.000000) (layer F.Fab) (width 0.1))
  (fp_arc (start -9.729457 4.33) (end -9.729457 5.93) (angle 80.000000) (layer F.Fab) (width 0.1))
  (fp_arc (start 1.099457 4.33) (end 1.099457 5.93) (angle -80.000000) (layer F.Fab) (width 0.1))
  (fp_arc (start -10.546689 -0.37) (end -10.546689 -2.03) (angle -100.000000) (layer F.SilkS) (width 0.12))
  (fp_arc (start 1.916689 -0.37) (end 1.916689 -2.03) (angle 100.000000) (layer F.SilkS) (width 0.12))
  (fp_arc (start -9.717952 4.33) (end -9.717952 5.99) (angle 80.000000) (layer F.SilkS) (width 0.12))
  (fp_arc (start 1.087952 4.33) (end 1.087952 5.99) (angle -80.000000) (layer F.SilkS) (width 0.12))
  (fp_line (start -18.74 -4.27) (end 10.11 -4.27) (layer F.Fab) (width 0.1))
  (fp_line (start 11.11 -3.27) (end 11.11 7.23) (layer F.Fab) (width 0.1))
  (fp_line (start 10.11 8.23) (end -18.74 8.23) (layer F.Fab) (width 0.1))
  (fp_line (start -19.74 7.23) (end -19.74 -3.27) (layer F.Fab) (width 0.1))
  (fp_line (start -18.74 -4.33) (end 10.11 -4.33) (layer F.SilkS) (width 0.12))
  (fp_line (start 11.17 -3.27) (end 11.17 7.23) (layer F.SilkS) (width 0.12))
  (fp_line (start 10.11 8.29) (end -18.74 8.29) (layer F.SilkS) (width 0.12))
  (fp_line (start -19.8 7.23) (end -19.8 -3.27) (layer F.SilkS) (width 0.12))
  (fp_line (start -0.25 -5.224338) (end 0.25 -5.224338) (layer F.SilkS) (width 0.12))
  (fp_line (start 0.25 -5.224338) (end 0 -4.791325) (layer F.SilkS) (width 0.12))
  (fp_line (start 0 -4.791325) (end -0.25 -5.224338) (layer F.SilkS) (width 0.12))
  (fp_line (start -10.558194 -1.97) (end 1.928194 -1.97) (layer F.Fab) (width 0.1))
  (fp_line (start -9.729457 5.93) (end 1.099457 5.93) (layer F.Fab) (width 0.1))
  (fp_line (start 3.503887 -0.092163) (end 2.67515 4.607837) (layer F.Fab) (width 0.1))
  (fp_line (start -12.133887 -0.092163) (end -11.30515 4.607837) (layer F.Fab) (width 0.1))
  (fp_line (start -10.546689 -2.03) (end 1.916689 -2.03) (layer F.SilkS) (width 0.12))
  (fp_line (start -9.717952 5.99) (end 1.087952 5.99) (layer F.SilkS) (width 0.12))
  (fp_line (start 3.55147 -0.081744) (end 2.722733 4.618256) (layer F.SilkS) (width 0.12))
  (fp_line (start -12.18147 -0.081744) (end -11.352733 4.618256) (layer F.SilkS) (width 0.12))
  (fp_line (start -20.25 -4.8) (end -20.25 8.75) (layer F.CrtYd) (width 0.05))
  (fp_line (start -20.25 8.75) (end 11.65 8.75) (layer F.CrtYd) (width 0.05))
  (fp_line (start 11.65 8.75) (end 11.65 -4.8) (layer F.CrtYd) (width 0.05))
  (fp_line (start 11.65 -4.8) (end -20.25 -4.8) (layer F.CrtYd) (width 0.05))
  (pad 1 thru_hole rect (at 0 0) (size 1.6 1.6) (drill 1) (layers *.Cu *.Mask))
  (pad 2 thru_hole circle (at -2.29 0) (size 1.6 1.6) (drill 1) (layers *.Cu *.Mask))
  (pad 3 thru_hole circle (at -4.58 0) (size 1.6 1.6) (drill 1) (layers *.Cu *.Mask))
  (pad 4 thru_hole circle (at -6.87 0) (size 1.6 1.6) (drill 1) (layers *.Cu *.Mask))
  (pad 5 thru_hole circle (at -9.16 0) (size 1.6 1.6) (drill 1) (layers *.Cu *.Mask))
  (pad 6 thru_hole circle (at 1.145 1.98) (size 1.6 1.6) (drill 1) (layers *.Cu *.Mask))
  (pad 7 thru_hole circle (at -1.145 1.98) (size 1.6 1.6) (drill 1) (layers *.Cu *.Mask))
  (pad 8 thru_hole circle (at -3.435 1.98) (size 1.6 1.6) (drill 1) (layers *.Cu *.Mask))
  (pad 9 thru_hole circle (at -5.725 1.98) (size 1.6 1.6) (drill 1) (layers *.Cu *.Mask))
  (pad 10 thru_hole circle (at -8.015 1.98) (size 1.6 1.6) (drill 1) (layers *.Cu *.Mask))
  (pad 11 thru_hole circle (at 0 3.96) (size 1.6 1.6) (drill 1) (layers *.Cu *.Mask))
  (pad 12 thru_hole circle (at -2.29 3.96) (size 1.6 1.6) (drill 1) (layers *.Cu *.Mask))
  (pad 13 thru_hole circle (at -4.58 3.96) (size 1.6 1.6) (drill 1) (layers *.Cu *.Mask))
  (pad 14 thru_hole circle (at -6.87 3.96) (size 1.6 1.6) (drill 1) (layers *.Cu *.Mask))
  (pad 15 thru_hole circle (at -9.16 3.96) (size 1.6 1.6) (drill 1) (layers *.Cu *.Mask))
  (pad 0 thru_hole circle (at -16.815 1.98) (size 4 4) (drill 3.2) (layers *.Cu *.Mask))
  (pad 0 thru_hole circle (at 8.185 1.98) (size 4 4) (drill 3.2) (layers *.Cu *.Mask))
  (fp_text user %R (at -4.315 1.98) (layer F.Fab)
    (effects (font (size 1 1) (thickness 0.15)))
  )
  (model ${KIPRJMOD}/kicad_libs_k/models_k.3d/Connector_Dsub_k.3dshapes/DSUB-15-HD_Female_Vertical_P2.29x1.98mm_MountingHoles_k.wrl
    (at (xyz 0 0 0))
    (scale (xyz 1 1 1))
    (rotate (xyz 0 0 0))
  )
)