(module DSUB-62-HD_Female_Horizontal_P2.41x1.98mm_EdgePinOffset9.40mm (layer F.Cu) (tedit 59FEDEE2)
  (descr "62-pin D-Sub connector, horizontal/angled (90 deg), THT-mount, female, pitch 2.41x1.98mm, pin-PCB-offset 9.4mm, see http://docs-europe.electrocomponents.com/webdocs/1585/0900766b81585df2.pdf")
  (tags "62-pin D-Sub connector horizontal angled 90deg THT female pitch 2.41x1.98mm pin-PCB-offset 9.4mm")
  (fp_text reference REF** (at -23.545 -1.8) (layer F.SilkS)
    (effects (font (size 1 1) (thickness 0.15)))
  )
  (fp_text value DSUB-62-HD_Female_Horizontal_P2.41x1.98mm_EdgePinOffset9.40mm (at -23.545 21.43) (layer F.Fab)
    (effects (font (size 1 1) (thickness 0.15)))
  )
  (fp_line (start -0.1 0) (end -0.1 9.26) (layer F.Fab) (width 0.1))
  (fp_line (start 0 0) (end 0 9.26) (layer F.Fab) (width 0.1))
  (fp_line (start 0.1 0) (end 0.1 9.26) (layer F.Fab) (width 0.1))
  (fp_line (start -2.51 0) (end -2.51 9.26) (layer F.Fab) (width 0.1))
  (fp_line (start -2.41 0) (end -2.41 9.26) (layer F.Fab) (width 0.1))
  (fp_line (start -2.31 0) (end -2.31 9.26) (layer F.Fab) (width 0.1))
  (fp_line (start -4.92 0) (end -4.92 9.26) (layer F.Fab) (width 0.1))
  (fp_line (start -4.82 0) (end -4.82 9.26) (layer F.Fab) (width 0.1))
  (fp_line (start -4.72 0) (end -4.72 9.26) (layer F.Fab) (width 0.1))
  (fp_line (start -7.33 0) (end -7.33 9.26) (layer F.Fab) (width 0.1))
  (fp_line (start -7.23 0) (end -7.23 9.26) (layer F.Fab) (width 0.1))
  (fp_line (start -7.13 0) (end -7.13 9.26) (layer F.Fab) (width 0.1))
  (fp_line (start -9.74 0) (end -9.74 9.26) (layer F.Fab) (width 0.1))
  (fp_line (start -9.64 0) (end -9.64 9.26) (layer F.Fab) (width 0.1))
  (fp_line (start -9.54 0) (end -9.54 9.26) (layer F.Fab) (width 0.1))
  (fp_line (start -12.15 0) (end -12.15 9.26) (layer F.Fab) (width 0.1))
  (fp_line (start -12.05 0) (end -12.05 9.26) (layer F.Fab) (width 0.1))
  (fp_line (start -11.95 0) (end -11.95 9.26) (layer F.Fab) (width 0.1))
  (fp_line (start -14.56 0) (end -14.56 9.26) (layer F.Fab) (width 0.1))
  (fp_line (start -14.46 0) (end -14.46 9.26) (layer F.Fab) (width 0.1))
  (fp_line (start -14.36 0) (end -14.36 9.26) (layer F.Fab) (width 0.1))
  (fp_line (start -16.97 0) (end -16.97 9.26) (layer F.Fab) (width 0.1))
  (fp_line (start -16.87 0) (end -16.87 9.26) (layer F.Fab) (width 0.1))
  (fp_line (start -16.77 0) (end -16.77 9.26) (layer F.Fab) (width 0.1))
  (fp_line (start -19.38 0) (end -19.38 9.26) (layer F.Fab) (width 0.1))
  (fp_line (start -19.28 0) (end -19.28 9.26) (layer F.Fab) (width 0.1))
  (fp_line (start -19.18 0) (end -19.18 9.26) (layer F.Fab) (width 0.1))
  (fp_line (start -21.79 0) (end -21.79 9.26) (layer F.Fab) (width 0.1))
  (fp_line (start -21.69 0) (end -21.69 9.26) (layer F.Fab) (width 0.1))
  (fp_line (start -21.59 0) (end -21.59 9.26) (layer F.Fab) (width 0.1))
  (fp_line (start -24.2 0) (end -24.2 9.26) (layer F.Fab) (width 0.1))
  (fp_line (start -24.1 0) (end -24.1 9.26) (layer F.Fab) (width 0.1))
  (fp_line (start -24 0) (end -24 9.26) (layer F.Fab) (width 0.1))
  (fp_line (start -26.61 0) (end -26.61 9.26) (layer F.Fab) (width 0.1))
  (fp_line (start -26.51 0) (end -26.51 9.26) (layer F.Fab) (width 0.1))
  (fp_line (start -26.41 0) (end -26.41 9.26) (layer F.Fab) (width 0.1))
  (fp_line (start -29.02 0) (end -29.02 9.26) (layer F.Fab) (width 0.1))
  (fp_line (start -28.92 0) (end -28.92 9.26) (layer F.Fab) (width 0.1))
  (fp_line (start -28.82 0) (end -28.82 9.26) (layer F.Fab) (width 0.1))
  (fp_line (start -31.43 0) (end -31.43 9.26) (layer F.Fab) (width 0.1))
  (fp_line (start -31.33 0) (end -31.33 9.26) (layer F.Fab) (width 0.1))
  (fp_line (start -31.23 0) (end -31.23 9.26) (layer F.Fab) (width 0.1))
  (fp_line (start -33.84 0) (end -33.84 9.26) (layer F.Fab) (width 0.1))
  (fp_line (start -33.74 0) (end -33.74 9.26) (layer F.Fab) (width 0.1))
  (fp_line (start -33.64 0) (end -33.64 9.26) (layer F.Fab) (width 0.1))
  (fp_line (start -36.25 0) (end -36.25 9.26) (layer F.Fab) (width 0.1))
  (fp_line (start -36.15 0) (end -36.15 9.26) (layer F.Fab) (width 0.1))
  (fp_line (start -36.05 0) (end -36.05 9.26) (layer F.Fab) (width 0.1))
  (fp_line (start -38.66 0) (end -38.66 9.26) (layer F.Fab) (width 0.1))
  (fp_line (start -38.56 0) (end -38.56 9.26) (layer F.Fab) (width 0.1))
  (fp_line (start -38.46 0) (end -38.46 9.26) (layer F.Fab) (width 0.1))
  (fp_line (start -41.07 0) (end -41.07 9.26) (layer F.Fab) (width 0.1))
  (fp_line (start -40.97 0) (end -40.97 9.26) (layer F.Fab) (width 0.1))
  (fp_line (start -40.87 0) (end -40.87 9.26) (layer F.Fab) (width 0.1))
  (fp_line (start -43.48 0) (end -43.48 9.26) (layer F.Fab) (width 0.1))
  (fp_line (start -43.38 0) (end -43.38 9.26) (layer F.Fab) (width 0.1))
  (fp_line (start -43.28 0) (end -43.28 9.26) (layer F.Fab) (width 0.1))
  (fp_line (start -45.89 0) (end -45.89 9.26) (layer F.Fab) (width 0.1))
  (fp_line (start -45.79 0) (end -45.79 9.26) (layer F.Fab) (width 0.1))
  (fp_line (start -45.69 0) (end -45.69 9.26) (layer F.Fab) (width 0.1))
  (fp_line (start -48.3 0) (end -48.3 9.26) (layer F.Fab) (width 0.1))
  (fp_line (start -48.2 0) (end -48.2 9.26) (layer F.Fab) (width 0.1))
  (fp_line (start -48.1 0) (end -48.1 9.26) (layer F.Fab) (width 0.1))
  (fp_line (start 1.105 1.98) (end 1.105 9.26) (layer F.Fab) (width 0.1))
  (fp_line (start 1.205 1.98) (end 1.205 9.26) (layer F.Fab) (width 0.1))
  (fp_line (start 1.305 1.98) (end 1.305 9.26) (layer F.Fab) (width 0.1))
  (fp_line (start -1.305 1.98) (end -1.305 9.26) (layer F.Fab) (width 0.1))
  (fp_line (start -1.205 1.98) (end -1.205 9.26) (layer F.Fab) (width 0.1))
  (fp_line (start -1.105 1.98) (end -1.105 9.26) (layer F.Fab) (width 0.1))
  (fp_line (start -3.715 1.98) (end -3.715 9.26) (layer F.Fab) (width 0.1))
  (fp_line (start -3.615 1.98) (end -3.615 9.26) (layer F.Fab) (width 0.1))
  (fp_line (start -3.515 1.98) (end -3.515 9.26) (layer F.Fab) (width 0.1))
  (fp_line (start -6.125 1.98) (end -6.125 9.26) (layer F.Fab) (width 0.1))
  (fp_line (start -6.025 1.98) (end -6.025 9.26) (layer F.Fab) (width 0.1))
  (fp_line (start -5.925 1.98) (end -5.925 9.26) (layer F.Fab) (width 0.1))
  (fp_line (start -8.535 1.98) (end -8.535 9.26) (layer F.Fab) (width 0.1))
  (fp_line (start -8.435 1.98) (end -8.435 9.26) (layer F.Fab) (width 0.1))
  (fp_line (start -8.335 1.98) (end -8.335 9.26) (layer F.Fab) (width 0.1))
  (fp_line (start -10.945 1.98) (end -10.945 9.26) (layer F.Fab) (width 0.1))
  (fp_line (start -10.845 1.98) (end -10.845 9.26) (layer F.Fab) (width 0.1))
  (fp_line (start -10.745 1.98) (end -10.745 9.26) (layer F.Fab) (width 0.1))
  (fp_line (start -13.355 1.98) (end -13.355 9.26) (layer F.Fab) (width 0.1))
  (fp_line (start -13.255 1.98) (end -13.255 9.26) (layer F.Fab) (width 0.1))
  (fp_line (start -13.155 1.98) (end -13.155 9.26) (layer F.Fab) (width 0.1))
  (fp_line (start -15.765 1.98) (end -15.765 9.26) (layer F.Fab) (width 0.1))
  (fp_line (start -15.665 1.98) (end -15.665 9.26) (layer F.Fab) (width 0.1))
  (fp_line (start -15.565 1.98) (end -15.565 9.26) (layer F.Fab) (width 0.1))
  (fp_line (start -18.175 1.98) (end -18.175 9.26) (layer F.Fab) (width 0.1))
  (fp_line (start -18.075 1.98) (end -18.075 9.26) (layer F.Fab) (width 0.1))
  (fp_line (start -17.975 1.98) (end -17.975 9.26) (layer F.Fab) (width 0.1))
  (fp_line (start -20.585 1.98) (end -20.585 9.26) (layer F.Fab) (width 0.1))
  (fp_line (start -20.485 1.98) (end -20.485 9.26) (layer F.Fab) (width 0.1))
  (fp_line (start -20.385 1.98) (end -20.385 9.26) (layer F.Fab) (width 0.1))
  (fp_line (start -22.995 1.98) (end -22.995 9.26) (layer F.Fab) (width 0.1))
  (fp_line (start -22.895 1.98) (end -22.895 9.26) (layer F.Fab) (width 0.1))
  (fp_line (start -22.795 1.98) (end -22.795 9.26) (layer F.Fab) (width 0.1))
  (fp_line (start -25.405 1.98) (end -25.405 9.26) (layer F.Fab) (width 0.1))
  (fp_line (start -25.305 1.98) (end -25.305 9.26) (layer F.Fab) (width 0.1))
  (fp_line (start -25.205 1.98) (end -25.205 9.26) (layer F.Fab) (width 0.1))
  (fp_line (start -27.815 1.98) (end -27.815 9.26) (layer F.Fab) (width 0.1))
  (fp_line (start -27.715 1.98) (end -27.715 9.26) (layer F.Fab) (width 0.1))
  (fp_line (start -27.615 1.98) (end -27.615 9.26) (layer F.Fab) (width 0.1))
  (fp_line (start -30.225 1.98) (end -30.225 9.26) (layer F.Fab) (width 0.1))
  (fp_line (start -30.125 1.98) (end -30.125 9.26) (layer F.Fab) (width 0.1))
  (fp_line (start -30.025 1.98) (end -30.025 9.26) (layer F.Fab) (width 0.1))
  (fp_line (start -32.635 1.98) (end -32.635 9.26) (layer F.Fab) (width 0.1))
  (fp_line (start -32.535 1.98) (end -32.535 9.26) (layer F.Fab) (width 0.1))
  (fp_line (start -32.435 1.98) (end -32.435 9.26) (layer F.Fab) (width 0.1))
  (fp_line (start -35.045 1.98) (end -35.045 9.26) (layer F.Fab) (width 0.1))
  (fp_line (start -34.945 1.98) (end -34.945 9.26) (layer F.Fab) (width 0.1))
  (fp_line (start -34.845 1.98) (end -34.845 9.26) (layer F.Fab) (width 0.1))
  (fp_line (start -37.455 1.98) (end -37.455 9.26) (layer F.Fab) (width 0.1))
  (fp_line (start -37.355 1.98) (end -37.355 9.26) (layer F.Fab) (width 0.1))
  (fp_line (start -37.255 1.98) (end -37.255 9.26) (layer F.Fab) (width 0.1))
  (fp_line (start -39.865 1.98) (end -39.865 9.26) (layer F.Fab) (width 0.1))
  (fp_line (start -39.765 1.98) (end -39.765 9.26) (layer F.Fab) (width 0.1))
  (fp_line (start -39.665 1.98) (end -39.665 9.26) (layer F.Fab) (width 0.1))
  (fp_line (start -42.275 1.98) (end -42.275 9.26) (layer F.Fab) (width 0.1))
  (fp_line (start -42.175 1.98) (end -42.175 9.26) (layer F.Fab) (width 0.1))
  (fp_line (start -42.075 1.98) (end -42.075 9.26) (layer F.Fab) (width 0.1))
  (fp_line (start -44.685 1.98) (end -44.685 9.26) (layer F.Fab) (width 0.1))
  (fp_line (start -44.585 1.98) (end -44.585 9.26) (layer F.Fab) (width 0.1))
  (fp_line (start -44.485 1.98) (end -44.485 9.26) (layer F.Fab) (width 0.1))
  (fp_line (start -47.095 1.98) (end -47.095 9.26) (layer F.Fab) (width 0.1))
  (fp_line (start -46.995 1.98) (end -46.995 9.26) (layer F.Fab) (width 0.1))
  (fp_line (start -46.895 1.98) (end -46.895 9.26) (layer F.Fab) (width 0.1))
  (fp_line (start -0.1 3.96) (end -0.1 9.26) (layer F.Fab) (width 0.1))
  (fp_line (start 0 3.96) (end 0 9.26) (layer F.Fab) (width 0.1))
  (fp_line (start 0.1 3.96) (end 0.1 9.26) (layer F.Fab) (width 0.1))
  (fp_line (start -2.51 3.96) (end -2.51 9.26) (layer F.Fab) (width 0.1))
  (fp_line (start -2.41 3.96) (end -2.41 9.26) (layer F.Fab) (width 0.1))
  (fp_line (start -2.31 3.96) (end -2.31 9.26) (layer F.Fab) (width 0.1))
  (fp_line (start -4.92 3.96) (end -4.92 9.26) (layer F.Fab) (width 0.1))
  (fp_line (start -4.82 3.96) (end -4.82 9.26) (layer F.Fab) (width 0.1))
  (fp_line (start -4.72 3.96) (end -4.72 9.26) (layer F.Fab) (width 0.1))
  (fp_line (start -7.33 3.96) (end -7.33 9.26) (layer F.Fab) (width 0.1))
  (fp_line (start -7.23 3.96) (end -7.23 9.26) (layer F.Fab) (width 0.1))
  (fp_line (start -7.13 3.96) (end -7.13 9.26) (layer F.Fab) (width 0.1))
  (fp_line (start -9.74 3.96) (end -9.74 9.26) (layer F.Fab) (width 0.1))
  (fp_line (start -9.64 3.96) (end -9.64 9.26) (layer F.Fab) (width 0.1))
  (fp_line (start -9.54 3.96) (end -9.54 9.26) (layer F.Fab) (width 0.1))
  (fp_line (start -12.15 3.96) (end -12.15 9.26) (layer F.Fab) (width 0.1))
  (fp_line (start -12.05 3.96) (end -12.05 9.26) (layer F.Fab) (width 0.1))
  (fp_line (start -11.95 3.96) (end -11.95 9.26) (layer F.Fab) (width 0.1))
  (fp_line (start -14.56 3.96) (end -14.56 9.26) (layer F.Fab) (width 0.1))
  (fp_line (start -14.46 3.96) (end -14.46 9.26) (layer F.Fab) (width 0.1))
  (fp_line (start -14.36 3.96) (end -14.36 9.26) (layer F.Fab) (width 0.1))
  (fp_line (start -16.97 3.96) (end -16.97 9.26) (layer F.Fab) (width 0.1))
  (fp_line (start -16.87 3.96) (end -16.87 9.26) (layer F.Fab) (width 0.1))
  (fp_line (start -16.77 3.96) (end -16.77 9.26) (layer F.Fab) (width 0.1))
  (fp_line (start -19.38 3.96) (end -19.38 9.26) (layer F.Fab) (width 0.1))
  (fp_line (start -19.28 3.96) (end -19.28 9.26) (layer F.Fab) (width 0.1))
  (fp_line (start -19.18 3.96) (end -19.18 9.26) (layer F.Fab) (width 0.1))
  (fp_line (start -21.79 3.96) (end -21.79 9.26) (layer F.Fab) (width 0.1))
  (fp_line (start -21.69 3.96) (end -21.69 9.26) (layer F.Fab) (width 0.1))
  (fp_line (start -21.59 3.96) (end -21.59 9.26) (layer F.Fab) (width 0.1))
  (fp_line (start -24.2 3.96) (end -24.2 9.26) (layer F.Fab) (width 0.1))
  (fp_line (start -24.1 3.96) (end -24.1 9.26) (layer F.Fab) (width 0.1))
  (fp_line (start -24 3.96) (end -24 9.26) (layer F.Fab) (width 0.1))
  (fp_line (start -26.61 3.96) (end -26.61 9.26) (layer F.Fab) (width 0.1))
  (fp_line (start -26.51 3.96) (end -26.51 9.26) (layer F.Fab) (width 0.1))
  (fp_line (start -26.41 3.96) (end -26.41 9.26) (layer F.Fab) (width 0.1))
  (fp_line (start -29.02 3.96) (end -29.02 9.26) (layer F.Fab) (width 0.1))
  (fp_line (start -28.92 3.96) (end -28.92 9.26) (layer F.Fab) (width 0.1))
  (fp_line (start -28.82 3.96) (end -28.82 9.26) (layer F.Fab) (width 0.1))
  (fp_line (start -31.43 3.96) (end -31.43 9.26) (layer F.Fab) (width 0.1))
  (fp_line (start -31.33 3.96) (end -31.33 9.26) (layer F.Fab) (width 0.1))
  (fp_line (start -31.23 3.96) (end -31.23 9.26) (layer F.Fab) (width 0.1))
  (fp_line (start -33.84 3.96) (end -33.84 9.26) (layer F.Fab) (width 0.1))
  (fp_line (start -33.74 3.96) (end -33.74 9.26) (layer F.Fab) (width 0.1))
  (fp_line (start -33.64 3.96) (end -33.64 9.26) (layer F.Fab) (width 0.1))
  (fp_line (start -36.25 3.96) (end -36.25 9.26) (layer F.Fab) (width 0.1))
  (fp_line (start -36.15 3.96) (end -36.15 9.26) (layer F.Fab) (width 0.1))
  (fp_line (start -36.05 3.96) (end -36.05 9.26) (layer F.Fab) (width 0.1))
  (fp_line (start -38.66 3.96) (end -38.66 9.26) (layer F.Fab) (width 0.1))
  (fp_line (start -38.56 3.96) (end -38.56 9.26) (layer F.Fab) (width 0.1))
  (fp_line (start -38.46 3.96) (end -38.46 9.26) (layer F.Fab) (width 0.1))
  (fp_line (start -41.07 3.96) (end -41.07 9.26) (layer F.Fab) (width 0.1))
  (fp_line (start -40.97 3.96) (end -40.97 9.26) (layer F.Fab) (width 0.1))
  (fp_line (start -40.87 3.96) (end -40.87 9.26) (layer F.Fab) (width 0.1))
  (fp_line (start -43.48 3.96) (end -43.48 9.26) (layer F.Fab) (width 0.1))
  (fp_line (start -43.38 3.96) (end -43.38 9.26) (layer F.Fab) (width 0.1))
  (fp_line (start -43.28 3.96) (end -43.28 9.26) (layer F.Fab) (width 0.1))
  (fp_line (start -45.89 3.96) (end -45.89 9.26) (layer F.Fab) (width 0.1))
  (fp_line (start -45.79 3.96) (end -45.79 9.26) (layer F.Fab) (width 0.1))
  (fp_line (start -45.69 3.96) (end -45.69 9.26) (layer F.Fab) (width 0.1))
  (fp_line (start -51.345 9.26) (end -51.345 13.36) (layer F.Fab) (width 0.1))
  (fp_line (start -51.345 13.36) (end 4.255 13.36) (layer F.Fab) (width 0.1))
  (fp_line (start 4.255 13.36) (end 4.255 9.26) (layer F.Fab) (width 0.1))
  (fp_line (start 4.255 9.26) (end -51.345 9.26) (layer F.Fab) (width 0.1))
  (fp_line (start -58.245 13.36) (end -58.245 13.76) (layer F.Fab) (width 0.1))
  (fp_line (start -58.245 13.76) (end 11.155 13.76) (layer F.Fab) (width 0.1))
  (fp_line (start 11.155 13.76) (end 11.155 13.36) (layer F.Fab) (width 0.1))
  (fp_line (start 11.155 13.36) (end -58.245 13.36) (layer F.Fab) (width 0.1))
  (fp_line (start -50.945 13.76) (end -50.945 19.93) (layer F.Fab) (width 0.1))
  (fp_line (start -50.945 19.93) (end 3.855 19.93) (layer F.Fab) (width 0.1))
  (fp_line (start 3.855 19.93) (end 3.855 13.76) (layer F.Fab) (width 0.1))
  (fp_line (start 3.855 13.76) (end -50.945 13.76) (layer F.Fab) (width 0.1))
  (fp_line (start -51.405 13.3) (end -51.405 9.2) (layer F.SilkS) (width 0.12))
  (fp_line (start -51.405 9.2) (end -49.26 9.2) (layer F.SilkS) (width 0.12))
  (fp_line (start -49.26 9.2) (end -49.26 -1.06) (layer F.SilkS) (width 0.12))
  (fp_line (start -49.26 -1.06) (end 2.265 -1.06) (layer F.SilkS) (width 0.12))
  (fp_line (start 2.265 -1.06) (end 2.265 9.2) (layer F.SilkS) (width 0.12))
  (fp_line (start 2.265 9.2) (end 4.315 9.2) (layer F.SilkS) (width 0.12))
  (fp_line (start 4.315 9.2) (end 4.315 13.3) (layer F.SilkS) (width 0.12))
  (fp_line (start -0.25 -1.754338) (end 0.25 -1.754338) (layer F.SilkS) (width 0.12))
  (fp_line (start 0.25 -1.754338) (end 0 -1.321325) (layer F.SilkS) (width 0.12))
  (fp_line (start 0 -1.321325) (end -0.25 -1.754338) (layer F.SilkS) (width 0.12))
  (fp_line (start -51.45 20.45) (end -51.45 14.3) (layer F.CrtYd) (width 0.05))
  (fp_line (start -51.45 14.3) (end -58.75 14.3) (layer F.CrtYd) (width 0.05))
  (fp_line (start -58.75 14.3) (end -58.75 12.9) (layer F.CrtYd) (width 0.05))
  (fp_line (start -58.75 12.9) (end -51.85 12.9) (layer F.CrtYd) (width 0.05))
  (fp_line (start -51.85 12.9) (end -51.85 8.8) (layer F.CrtYd) (width 0.05))
  (fp_line (start -51.85 8.8) (end -49.5 8.8) (layer F.CrtYd) (width 0.05))
  (fp_line (start -49.5 8.8) (end -49.5 -1.3) (layer F.CrtYd) (width 0.05))
  (fp_line (start -49.5 -1.3) (end 2.55 -1.3) (layer F.CrtYd) (width 0.05))
  (fp_line (start 2.55 -1.3) (end 2.55 8.8) (layer F.CrtYd) (width 0.05))
  (fp_line (start 2.55 8.8) (end 4.8 8.8) (layer F.CrtYd) (width 0.05))
  (fp_line (start 4.8 8.8) (end 4.8 12.9) (layer F.CrtYd) (width 0.05))
  (fp_line (start 4.8 12.9) (end 11.7 12.9) (layer F.CrtYd) (width 0.05))
  (fp_line (start 11.7 12.9) (end 11.7 14.3) (layer F.CrtYd) (width 0.05))
  (fp_line (start 11.7 14.3) (end 4.4 14.3) (layer F.CrtYd) (width 0.05))
  (fp_line (start 4.4 14.3) (end 4.4 20.45) (layer F.CrtYd) (width 0.05))
  (fp_line (start 4.4 20.45) (end -51.45 20.45) (layer F.CrtYd) (width 0.05))
  (pad 1 thru_hole rect (at 0 0) (size 1.6 1.6) (drill 1) (layers *.Cu *.Mask))
  (pad 2 thru_hole circle (at -2.41 0) (size 1.6 1.6) (drill 1) (layers *.Cu *.Mask))
  (pad 3 thru_hole circle (at -4.82 0) (size 1.6 1.6) (drill 1) (layers *.Cu *.Mask))
  (pad 4 thru_hole circle (at -7.23 0) (size 1.6 1.6) (drill 1) (layers *.Cu *.Mask))
  (pad 5 thru_hole circle (at -9.64 0) (size 1.6 1.6) (drill 1) (layers *.Cu *.Mask))
  (pad 6 thru_hole circle (at -12.05 0) (size 1.6 1.6) (drill 1) (layers *.Cu *.Mask))
  (pad 7 thru_hole circle (at -14.46 0) (size 1.6 1.6) (drill 1) (layers *.Cu *.Mask))
  (pad 8 thru_hole circle (at -16.87 0) (size 1.6 1.6) (drill 1) (layers *.Cu *.Mask))
  (pad 9 thru_hole circle (at -19.28 0) (size 1.6 1.6) (drill 1) (layers *.Cu *.Mask))
  (pad 10 thru_hole circle (at -21.69 0) (size 1.6 1.6) (drill 1) (layers *.Cu *.Mask))
  (pad 11 thru_hole circle (at -24.1 0) (size 1.6 1.6) (drill 1) (layers *.Cu *.Mask))
  (pad 12 thru_hole circle (at -26.51 0) (size 1.6 1.6) (drill 1) (layers *.Cu *.Mask))
  (pad 13 thru_hole circle (at -28.92 0) (size 1.6 1.6) (drill 1) (layers *.Cu *.Mask))
  (pad 14 thru_hole circle (at -31.33 0) (size 1.6 1.6) (drill 1) (layers *.Cu *.Mask))
  (pad 15 thru_hole circle (at -33.74 0) (size 1.6 1.6) (drill 1) (layers *.Cu *.Mask))
  (pad 16 thru_hole circle (at -36.15 0) (size 1.6 1.6) (drill 1) (layers *.Cu *.Mask))
  (pad 17 thru_hole circle (at -38.56 0) (size 1.6 1.6) (drill 1) (layers *.Cu *.Mask))
  (pad 18 thru_hole circle (at -40.97 0) (size 1.6 1.6) (drill 1) (layers *.Cu *.Mask))
  (pad 19 thru_hole circle (at -43.38 0) (size 1.6 1.6) (drill 1) (layers *.Cu *.Mask))
  (pad 20 thru_hole circle (at -45.79 0) (size 1.6 1.6) (drill 1) (layers *.Cu *.Mask))
  (pad 21 thru_hole circle (at -48.2 0) (size 1.6 1.6) (drill 1) (layers *.Cu *.Mask))
  (pad 22 thru_hole circle (at 1.205 1.98) (size 1.6 1.6) (drill 1) (layers *.Cu *.Mask))
  (pad 23 thru_hole circle (at -1.205 1.98) (size 1.6 1.6) (drill 1) (layers *.Cu *.Mask))
  (pad 24 thru_hole circle (at -3.615 1.98) (size 1.6 1.6) (drill 1) (layers *.Cu *.Mask))
  (pad 25 thru_hole circle (at -6.025 1.98) (size 1.6 1.6) (drill 1) (layers *.Cu *.Mask))
  (pad 26 thru_hole circle (at -8.435 1.98) (size 1.6 1.6) (drill 1) (layers *.Cu *.Mask))
  (pad 27 thru_hole circle (at -10.845 1.98) (size 1.6 1.6) (drill 1) (layers *.Cu *.Mask))
  (pad 28 thru_hole circle (at -13.255 1.98) (size 1.6 1.6) (drill 1) (layers *.Cu *.Mask))
  (pad 29 thru_hole circle (at -15.665 1.98) (size 1.6 1.6) (drill 1) (layers *.Cu *.Mask))
  (pad 30 thru_hole circle (at -18.075 1.98) (size 1.6 1.6) (drill 1) (layers *.Cu *.Mask))
  (pad 31 thru_hole circle (at -20.485 1.98) (size 1.6 1.6) (drill 1) (layers *.Cu *.Mask))
  (pad 32 thru_hole circle (at -22.895 1.98) (size 1.6 1.6) (drill 1) (layers *.Cu *.Mask))
  (pad 33 thru_hole circle (at -25.305 1.98) (size 1.6 1.6) (drill 1) (layers *.Cu *.Mask))
  (pad 34 thru_hole circle (at -27.715 1.98) (size 1.6 1.6) (drill 1) (layers *.Cu *.Mask))
  (pad 35 thru_hole circle (at -30.125 1.98) (size 1.6 1.6) (drill 1) (layers *.Cu *.Mask))
  (pad 36 thru_hole circle (at -32.535 1.98) (size 1.6 1.6) (drill 1) (layers *.Cu *.Mask))
  (pad 37 thru_hole circle (at -34.945 1.98) (size 1.6 1.6) (drill 1) (layers *.Cu *.Mask))
  (pad 38 thru_hole circle (at -37.355 1.98) (size 1.6 1.6) (drill 1) (layers *.Cu *.Mask))
  (pad 39 thru_hole circle (at -39.765 1.98) (size 1.6 1.6) (drill 1) (layers *.Cu *.Mask))
  (pad 40 thru_hole circle (at -42.175 1.98) (size 1.6 1.6) (drill 1) (layers *.Cu *.Mask))
  (pad 41 thru_hole circle (at -44.585 1.98) (size 1.6 1.6) (drill 1) (layers *.Cu *.Mask))
  (pad 42 thru_hole circle (at -46.995 1.98) (size 1.6 1.6) (drill 1) (layers *.Cu *.Mask))
  (pad 43 thru_hole circle (at 0 3.96) (size 1.6 1.6) (drill 1) (layers *.Cu *.Mask))
  (pad 44 thru_hole circle (at -2.41 3.96) (size 1.6 1.6) (drill 1) (layers *.Cu *.Mask))
  (pad 45 thru_hole circle (at -4.82 3.96) (size 1.6 1.6) (drill 1) (layers *.Cu *.Mask))
  (pad 46 thru_hole circle (at -7.23 3.96) (size 1.6 1.6) (drill 1) (layers *.Cu *.Mask))
  (pad 47 thru_hole circle (at -9.64 3.96) (size 1.6 1.6) (drill 1) (layers *.Cu *.Mask))
  (pad 48 thru_hole circle (at -12.05 3.96) (size 1.6 1.6) (drill 1) (layers *.Cu *.Mask))
  (pad 49 thru_hole circle (at -14.46 3.96) (size 1.6 1.6) (drill 1) (layers *.Cu *.Mask))
  (pad 50 thru_hole circle (at -16.87 3.96) (size 1.6 1.6) (drill 1) (layers *.Cu *.Mask))
  (pad 51 thru_hole circle (at -19.28 3.96) (size 1.6 1.6) (drill 1) (layers *.Cu *.Mask))
  (pad 52 thru_hole circle (at -21.69 3.96) (size 1.6 1.6) (drill 1) (layers *.Cu *.Mask))
  (pad 53 thru_hole circle (at -24.1 3.96) (size 1.6 1.6) (drill 1) (layers *.Cu *.Mask))
  (pad 54 thru_hole circle (at -26.51 3.96) (size 1.6 1.6) (drill 1) (layers *.Cu *.Mask))
  (pad 55 thru_hole circle (at -28.92 3.96) (size 1.6 1.6) (drill 1) (layers *.Cu *.Mask))
  (pad 56 thru_hole circle (at -31.33 3.96) (size 1.6 1.6) (drill 1) (layers *.Cu *.Mask))
  (pad 57 thru_hole circle (at -33.74 3.96) (size 1.6 1.6) (drill 1) (layers *.Cu *.Mask))
  (pad 58 thru_hole circle (at -36.15 3.96) (size 1.6 1.6) (drill 1) (layers *.Cu *.Mask))
  (pad 59 thru_hole circle (at -38.56 3.96) (size 1.6 1.6) (drill 1) (layers *.Cu *.Mask))
  (pad 60 thru_hole circle (at -40.97 3.96) (size 1.6 1.6) (drill 1) (layers *.Cu *.Mask))
  (pad 61 thru_hole circle (at -43.38 3.96) (size 1.6 1.6) (drill 1) (layers *.Cu *.Mask))
  (pad 62 thru_hole circle (at -45.79 3.96) (size 1.6 1.6) (drill 1) (layers *.Cu *.Mask))
  (fp_text user %R (at -23.545 16.845) (layer F.Fab)
    (effects (font (size 1 1) (thickness 0.15)))
  )
  (model ${KIPRJMOD}/kicad_libs_k/models_k.3d/Connector_Dsub_k.3dshapes/DSUB-62-HD_Female_Horizontal_P2.41x1.98mm_EdgePinOffset9.40mm_k.wrl
    (at (xyz 0 0 0))
    (scale (xyz 1 1 1))
    (rotate (xyz 0 0 0))
  )
)