(module DSUB-37_Male_Vertical_P2.77x2.84mm (layer F.Cu) (tedit 59FEDEE2)
  (descr "37-pin D-Sub connector, straight/vertical, THT-mount, male, pitch 2.77x2.84mm, distance of mounting holes 63.5mm, see https://disti-assets.s3.amazonaws.com/tonar/files/datasheets/16730.pdf")
  (tags "37-pin D-Sub connector straight vertical THT male pitch 2.77x2.84mm mounting holes distance 63.5mm")
  (fp_text reference REF** (at 24.93 -5.89) (layer F.SilkS)
    (effects (font (size 1 1) (thickness 0.15)))
  )
  (fp_text value DSUB-37_Male_Vertical_P2.77x2.84mm (at 24.93 8.73) (layer F.Fab)
    (effects (font (size 1 1) (thickness 0.15)))
  )
  (fp_arc (start -8.77 -3.83) (end -9.77 -3.83) (angle 90.000000) (layer F.Fab) (width 0.1))
  (fp_arc (start 58.63 -3.83) (end 58.63 -4.83) (angle 90.000000) (layer F.Fab) (width 0.1))
  (fp_arc (start -8.77 6.67) (end -9.77 6.67) (angle -90.000000) (layer F.Fab) (width 0.1))
  (fp_arc (start 58.63 6.67) (end 59.63 6.67) (angle 90.000000) (layer F.Fab) (width 0.1))
  (fp_arc (start -8.77 -3.83) (end -9.83 -3.83) (angle 90.000000) (layer F.SilkS) (width 0.12))
  (fp_arc (start 58.63 -3.83) (end 58.63 -4.89) (angle 90.000000) (layer F.SilkS) (width 0.12))
  (fp_arc (start -8.77 6.67) (end -9.83 6.67) (angle -90.000000) (layer F.SilkS) (width 0.12))
  (fp_arc (start 58.63 6.67) (end 59.69 6.67) (angle 90.000000) (layer F.SilkS) (width 0.12))
  (fp_arc (start -0.563194 -1.13) (end -0.563194 -2.73) (angle -100.000000) (layer F.Fab) (width 0.1))
  (fp_arc (start 50.423194 -1.13) (end 50.423194 -2.73) (angle 100.000000) (layer F.Fab) (width 0.1))
  (fp_arc (start 0.336073 3.97) (end 0.336073 5.57) (angle 80.000000) (layer F.Fab) (width 0.1))
  (fp_arc (start 49.523927 3.97) (end 49.523927 5.57) (angle -80.000000) (layer F.Fab) (width 0.1))
  (fp_arc (start -0.551689 -1.13) (end -0.551689 -2.79) (angle -100.000000) (layer F.SilkS) (width 0.12))
  (fp_arc (start 50.411689 -1.13) (end 50.411689 -2.79) (angle 100.000000) (layer F.SilkS) (width 0.12))
  (fp_arc (start 0.347579 3.97) (end 0.347579 5.63) (angle 80.000000) (layer F.SilkS) (width 0.12))
  (fp_arc (start 49.512421 3.97) (end 49.512421 5.63) (angle -80.000000) (layer F.SilkS) (width 0.12))
  (fp_line (start -8.77 -4.83) (end 58.63 -4.83) (layer F.Fab) (width 0.1))
  (fp_line (start 59.63 -3.83) (end 59.63 6.67) (layer F.Fab) (width 0.1))
  (fp_line (start 58.63 7.67) (end -8.77 7.67) (layer F.Fab) (width 0.1))
  (fp_line (start -9.77 6.67) (end -9.77 -3.83) (layer F.Fab) (width 0.1))
  (fp_line (start -8.77 -4.89) (end 58.63 -4.89) (layer F.SilkS) (width 0.12))
  (fp_line (start 59.69 -3.83) (end 59.69 6.67) (layer F.SilkS) (width 0.12))
  (fp_line (start 58.63 7.73) (end -8.77 7.73) (layer F.SilkS) (width 0.12))
  (fp_line (start -9.83 6.67) (end -9.83 -3.83) (layer F.SilkS) (width 0.12))
  (fp_line (start -0.25 -5.784338) (end 0.25 -5.784338) (layer F.SilkS) (width 0.12))
  (fp_line (start 0.25 -5.784338) (end 0 -5.351325) (layer F.SilkS) (width 0.12))
  (fp_line (start 0 -5.351325) (end -0.25 -5.784338) (layer F.SilkS) (width 0.12))
  (fp_line (start -0.563194 -2.73) (end 50.423194 -2.73) (layer F.Fab) (width 0.1))
  (fp_line (start 0.336073 5.57) (end 49.523927 5.57) (layer F.Fab) (width 0.1))
  (fp_line (start 51.998887 -0.852163) (end 51.099619 4.247837) (layer F.Fab) (width 0.1))
  (fp_line (start -2.138887 -0.852163) (end -1.239619 4.247837) (layer F.Fab) (width 0.1))
  (fp_line (start -0.551689 -2.79) (end 50.411689 -2.79) (layer F.SilkS) (width 0.12))
  (fp_line (start 0.347579 5.63) (end 49.512421 5.63) (layer F.SilkS) (width 0.12))
  (fp_line (start 52.04647 -0.841744) (end 51.147202 4.258256) (layer F.SilkS) (width 0.12))
  (fp_line (start -2.18647 -0.841744) (end -1.287202 4.258256) (layer F.SilkS) (width 0.12))
  (fp_line (start -10.3 -5.35) (end -10.3 8.2) (layer F.CrtYd) (width 0.05))
  (fp_line (start -10.3 8.2) (end 60.15 8.2) (layer F.CrtYd) (width 0.05))
  (fp_line (start 60.15 8.2) (end 60.15 -5.35) (layer F.CrtYd) (width 0.05))
  (fp_line (start 60.15 -5.35) (end -10.3 -5.35) (layer F.CrtYd) (width 0.05))
  (pad 1 thru_hole rect (at 0 0) (size 1.6 1.6) (drill 1) (layers *.Cu *.Mask))
  (pad 2 thru_hole circle (at 2.77 0) (size 1.6 1.6) (drill 1) (layers *.Cu *.Mask))
  (pad 3 thru_hole circle (at 5.54 0) (size 1.6 1.6) (drill 1) (layers *.Cu *.Mask))
  (pad 4 thru_hole circle (at 8.31 0) (size 1.6 1.6) (drill 1) (layers *.Cu *.Mask))
  (pad 5 thru_hole circle (at 11.08 0) (size 1.6 1.6) (drill 1) (layers *.Cu *.Mask))
  (pad 6 thru_hole circle (at 13.85 0) (size 1.6 1.6) (drill 1) (layers *.Cu *.Mask))
  (pad 7 thru_hole circle (at 16.62 0) (size 1.6 1.6) (drill 1) (layers *.Cu *.Mask))
  (pad 8 thru_hole circle (at 19.39 0) (size 1.6 1.6) (drill 1) (layers *.Cu *.Mask))
  (pad 9 thru_hole circle (at 22.16 0) (size 1.6 1.6) (drill 1) (layers *.Cu *.Mask))
  (pad 10 thru_hole circle (at 24.93 0) (size 1.6 1.6) (drill 1) (layers *.Cu *.Mask))
  (pad 11 thru_hole circle (at 27.7 0) (size 1.6 1.6) (drill 1) (layers *.Cu *.Mask))
  (pad 12 thru_hole circle (at 30.47 0) (size 1.6 1.6) (drill 1) (layers *.Cu *.Mask))
  (pad 13 thru_hole circle (at 33.24 0) (size 1.6 1.6) (drill 1) (layers *.Cu *.Mask))
  (pad 14 thru_hole circle (at 36.01 0) (size 1.6 1.6) (drill 1) (layers *.Cu *.Mask))
  (pad 15 thru_hole circle (at 38.78 0) (size 1.6 1.6) (drill 1) (layers *.Cu *.Mask))
  (pad 16 thru_hole circle (at 41.55 0) (size 1.6 1.6) (drill 1) (layers *.Cu *.Mask))
  (pad 17 thru_hole circle (at 44.32 0) (size 1.6 1.6) (drill 1) (layers *.Cu *.Mask))
  (pad 18 thru_hole circle (at 47.09 0) (size 1.6 1.6) (drill 1) (layers *.Cu *.Mask))
  (pad 19 thru_hole circle (at 49.86 0) (size 1.6 1.6) (drill 1) (layers *.Cu *.Mask))
  (pad 20 thru_hole circle (at 1.385 2.84) (size 1.6 1.6) (drill 1) (layers *.Cu *.Mask))
  (pad 21 thru_hole circle (at 4.155 2.84) (size 1.6 1.6) (drill 1) (layers *.Cu *.Mask))
  (pad 22 thru_hole circle (at 6.925 2.84) (size 1.6 1.6) (drill 1) (layers *.Cu *.Mask))
  (pad 23 thru_hole circle (at 9.695 2.84) (size 1.6 1.6) (drill 1) (layers *.Cu *.Mask))
  (pad 24 thru_hole circle (at 12.465 2.84) (size 1.6 1.6) (drill 1) (layers *.Cu *.Mask))
  (pad 25 thru_hole circle (at 15.235 2.84) (size 1.6 1.6) (drill 1) (layers *.Cu *.Mask))
  (pad 26 thru_hole circle (at 18.005 2.84) (size 1.6 1.6) (drill 1) (layers *.Cu *.Mask))
  (pad 27 thru_hole circle (at 20.775 2.84) (size 1.6 1.6) (drill 1) (layers *.Cu *.Mask))
  (pad 28 thru_hole circle (at 23.545 2.84) (size 1.6 1.6) (drill 1) (layers *.Cu *.Mask))
  (pad 29 thru_hole circle (at 26.315 2.84) (size 1.6 1.6) (drill 1) (layers *.Cu *.Mask))
  (pad 30 thru_hole circle (at 29.085 2.84) (size 1.6 1.6) (drill 1) (layers *.Cu *.Mask))
  (pad 31 thru_hole circle (at 31.855 2.84) (size 1.6 1.6) (drill 1) (layers *.Cu *.Mask))
  (pad 32 thru_hole circle (at 34.625 2.84) (size 1.6 1.6) (drill 1) (layers *.Cu *.Mask))
  (pad 33 thru_hole circle (at 37.395 2.84) (size 1.6 1.6) (drill 1) (layers *.Cu *.Mask))
  (pad 34 thru_hole circle (at 40.165 2.84) (size 1.6 1.6) (drill 1) (layers *.Cu *.Mask))
  (pad 35 thru_hole circle (at 42.935 2.84) (size 1.6 1.6) (drill 1) (layers *.Cu *.Mask))
  (pad 36 thru_hole circle (at 45.705 2.84) (size 1.6 1.6) (drill 1) (layers *.Cu *.Mask))
  (pad 37 thru_hole circle (at 48.475 2.84) (size 1.6 1.6) (drill 1) (layers *.Cu *.Mask))
  (fp_text user %R (at 24.93 1.42) (layer F.Fab)
    (effects (font (size 1 1) (thickness 0.15)))
  )
  (model ${KIPRJMOD}/kicad_libs_k/models_k.3d/Connector_Dsub_k.3dshapes/DSUB-37_Male_Vertical_P2.77x2.84mm_k.wrl
    (at (xyz 0 0 0))
    (scale (xyz 1 1 1))
    (rotate (xyz 0 0 0))
  )
)