(module DSUB-44-HD_Male_Vertical_P2.29x1.98mm_MountingHoles (layer F.Cu) (tedit 59FEDEE2)
  (descr "44-pin D-Sub connector, straight/vertical, THT-mount, male, pitch 2.29x1.98mm, distance of mounting holes 47.1mm, see https://disti-assets.s3.amazonaws.com/tonar/files/datasheets/16730.pdf")
  (tags "44-pin D-Sub connector straight vertical THT male pitch 2.29x1.98mm mounting holes distance 47.1mm")
  (fp_text reference REF** (at 15.525 -5.33) (layer F.SilkS)
    (effects (font (size 1 1) (thickness 0.15)))
  )
  (fp_text value DSUB-44-HD_Male_Vertical_P2.29x1.98mm_MountingHoles (at 15.525 9.29) (layer F.Fab)
    (effects (font (size 1 1) (thickness 0.15)))
  )
  (fp_arc (start -10.025 -3.27) (end -11.025 -3.27) (angle 90.000000) (layer F.Fab) (width 0.1))
  (fp_arc (start 41.075 -3.27) (end 41.075 -4.27) (angle 90.000000) (layer F.Fab) (width 0.1))
  (fp_arc (start -10.025 7.23) (end -11.025 7.23) (angle -90.000000) (layer F.Fab) (width 0.1))
  (fp_arc (start 41.075 7.23) (end 42.075 7.23) (angle 90.000000) (layer F.Fab) (width 0.1))
  (fp_arc (start -10.025 -3.27) (end -11.085 -3.27) (angle 90.000000) (layer F.SilkS) (width 0.12))
  (fp_arc (start 41.075 -3.27) (end 41.075 -4.33) (angle 90.000000) (layer F.SilkS) (width 0.12))
  (fp_arc (start -10.025 7.23) (end -11.085 7.23) (angle -90.000000) (layer F.SilkS) (width 0.12))
  (fp_arc (start 41.075 7.23) (end 42.135 7.23) (angle 90.000000) (layer F.SilkS) (width 0.12))
  (fp_arc (start -1.718194 -0.57) (end -1.718194 -2.17) (angle -100.000000) (layer F.Fab) (width 0.1))
  (fp_arc (start 32.768194 -0.57) (end 32.768194 -2.17) (angle 100.000000) (layer F.Fab) (width 0.1))
  (fp_arc (start -0.818927 4.53) (end -0.818927 6.13) (angle 80.000000) (layer F.Fab) (width 0.1))
  (fp_arc (start 31.868927 4.53) (end 31.868927 6.13) (angle -80.000000) (layer F.Fab) (width 0.1))
  (fp_arc (start -1.706689 -0.57) (end -1.706689 -2.23) (angle -100.000000) (layer F.SilkS) (width 0.12))
  (fp_arc (start 32.756689 -0.57) (end 32.756689 -2.23) (angle 100.000000) (layer F.SilkS) (width 0.12))
  (fp_arc (start -0.807421 4.53) (end -0.807421 6.19) (angle 80.000000) (layer F.SilkS) (width 0.12))
  (fp_arc (start 31.857421 4.53) (end 31.857421 6.19) (angle -80.000000) (layer F.SilkS) (width 0.12))
  (fp_line (start -10.025 -4.27) (end 41.075 -4.27) (layer F.Fab) (width 0.1))
  (fp_line (start 42.075 -3.27) (end 42.075 7.23) (layer F.Fab) (width 0.1))
  (fp_line (start 41.075 8.23) (end -10.025 8.23) (layer F.Fab) (width 0.1))
  (fp_line (start -11.025 7.23) (end -11.025 -3.27) (layer F.Fab) (width 0.1))
  (fp_line (start -10.025 -4.33) (end 41.075 -4.33) (layer F.SilkS) (width 0.12))
  (fp_line (start 42.135 -3.27) (end 42.135 7.23) (layer F.SilkS) (width 0.12))
  (fp_line (start 41.075 8.29) (end -10.025 8.29) (layer F.SilkS) (width 0.12))
  (fp_line (start -11.085 7.23) (end -11.085 -3.27) (layer F.SilkS) (width 0.12))
  (fp_line (start -0.25 -5.224338) (end 0.25 -5.224338) (layer F.SilkS) (width 0.12))
  (fp_line (start 0.25 -5.224338) (end 0 -4.791325) (layer F.SilkS) (width 0.12))
  (fp_line (start 0 -4.791325) (end -0.25 -5.224338) (layer F.SilkS) (width 0.12))
  (fp_line (start -1.718194 -2.17) (end 32.768194 -2.17) (layer F.Fab) (width 0.1))
  (fp_line (start -0.818927 6.13) (end 31.868927 6.13) (layer F.Fab) (width 0.1))
  (fp_line (start 34.343887 -0.292163) (end 33.444619 4.807837) (layer F.Fab) (width 0.1))
  (fp_line (start -3.293887 -0.292163) (end -2.394619 4.807837) (layer F.Fab) (width 0.1))
  (fp_line (start -1.706689 -2.23) (end 32.756689 -2.23) (layer F.SilkS) (width 0.12))
  (fp_line (start -0.807421 6.19) (end 31.857421 6.19) (layer F.SilkS) (width 0.12))
  (fp_line (start 34.39147 -0.281744) (end 33.492202 4.818256) (layer F.SilkS) (width 0.12))
  (fp_line (start -3.34147 -0.281744) (end -2.442202 4.818256) (layer F.SilkS) (width 0.12))
  (fp_line (start -11.55 -4.8) (end -11.55 8.75) (layer F.CrtYd) (width 0.05))
  (fp_line (start -11.55 8.75) (end 42.6 8.75) (layer F.CrtYd) (width 0.05))
  (fp_line (start 42.6 8.75) (end 42.6 -4.8) (layer F.CrtYd) (width 0.05))
  (fp_line (start 42.6 -4.8) (end -11.55 -4.8) (layer F.CrtYd) (width 0.05))
  (pad 1 thru_hole rect (at 0 0) (size 1.6 1.6) (drill 1) (layers *.Cu *.Mask))
  (pad 2 thru_hole circle (at 2.29 0) (size 1.6 1.6) (drill 1) (layers *.Cu *.Mask))
  (pad 3 thru_hole circle (at 4.58 0) (size 1.6 1.6) (drill 1) (layers *.Cu *.Mask))
  (pad 4 thru_hole circle (at 6.87 0) (size 1.6 1.6) (drill 1) (layers *.Cu *.Mask))
  (pad 5 thru_hole circle (at 9.16 0) (size 1.6 1.6) (drill 1) (layers *.Cu *.Mask))
  (pad 6 thru_hole circle (at 11.45 0) (size 1.6 1.6) (drill 1) (layers *.Cu *.Mask))
  (pad 7 thru_hole circle (at 13.74 0) (size 1.6 1.6) (drill 1) (layers *.Cu *.Mask))
  (pad 8 thru_hole circle (at 16.03 0) (size 1.6 1.6) (drill 1) (layers *.Cu *.Mask))
  (pad 9 thru_hole circle (at 18.32 0) (size 1.6 1.6) (drill 1) (layers *.Cu *.Mask))
  (pad 10 thru_hole circle (at 20.61 0) (size 1.6 1.6) (drill 1) (layers *.Cu *.Mask))
  (pad 11 thru_hole circle (at 22.9 0) (size 1.6 1.6) (drill 1) (layers *.Cu *.Mask))
  (pad 12 thru_hole circle (at 25.19 0) (size 1.6 1.6) (drill 1) (layers *.Cu *.Mask))
  (pad 13 thru_hole circle (at 27.48 0) (size 1.6 1.6) (drill 1) (layers *.Cu *.Mask))
  (pad 14 thru_hole circle (at 29.77 0) (size 1.6 1.6) (drill 1) (layers *.Cu *.Mask))
  (pad 15 thru_hole circle (at 32.06 0) (size 1.6 1.6) (drill 1) (layers *.Cu *.Mask))
  (pad 16 thru_hole circle (at -1.145 1.98) (size 1.6 1.6) (drill 1) (layers *.Cu *.Mask))
  (pad 17 thru_hole circle (at 1.145 1.98) (size 1.6 1.6) (drill 1) (layers *.Cu *.Mask))
  (pad 18 thru_hole circle (at 3.435 1.98) (size 1.6 1.6) (drill 1) (layers *.Cu *.Mask))
  (pad 19 thru_hole circle (at 5.725 1.98) (size 1.6 1.6) (drill 1) (layers *.Cu *.Mask))
  (pad 20 thru_hole circle (at 8.015 1.98) (size 1.6 1.6) (drill 1) (layers *.Cu *.Mask))
  (pad 21 thru_hole circle (at 10.305 1.98) (size 1.6 1.6) (drill 1) (layers *.Cu *.Mask))
  (pad 22 thru_hole circle (at 12.595 1.98) (size 1.6 1.6) (drill 1) (layers *.Cu *.Mask))
  (pad 23 thru_hole circle (at 14.885 1.98) (size 1.6 1.6) (drill 1) (layers *.Cu *.Mask))
  (pad 24 thru_hole circle (at 17.175 1.98) (size 1.6 1.6) (drill 1) (layers *.Cu *.Mask))
  (pad 25 thru_hole circle (at 19.465 1.98) (size 1.6 1.6) (drill 1) (layers *.Cu *.Mask))
  (pad 26 thru_hole circle (at 21.755 1.98) (size 1.6 1.6) (drill 1) (layers *.Cu *.Mask))
  (pad 27 thru_hole circle (at 24.045 1.98) (size 1.6 1.6) (drill 1) (layers *.Cu *.Mask))
  (pad 28 thru_hole circle (at 26.335 1.98) (size 1.6 1.6) (drill 1) (layers *.Cu *.Mask))
  (pad 29 thru_hole circle (at 28.625 1.98) (size 1.6 1.6) (drill 1) (layers *.Cu *.Mask))
  (pad 30 thru_hole circle (at 30.915 1.98) (size 1.6 1.6) (drill 1) (layers *.Cu *.Mask))
  (pad 31 thru_hole circle (at 0 3.96) (size 1.6 1.6) (drill 1) (layers *.Cu *.Mask))
  (pad 32 thru_hole circle (at 2.29 3.96) (size 1.6 1.6) (drill 1) (layers *.Cu *.Mask))
  (pad 33 thru_hole circle (at 4.58 3.96) (size 1.6 1.6) (drill 1) (layers *.Cu *.Mask))
  (pad 34 thru_hole circle (at 6.87 3.96) (size 1.6 1.6) (drill 1) (layers *.Cu *.Mask))
  (pad 35 thru_hole circle (at 9.16 3.96) (size 1.6 1.6) (drill 1) (layers *.Cu *.Mask))
  (pad 36 thru_hole circle (at 11.45 3.96) (size 1.6 1.6) (drill 1) (layers *.Cu *.Mask))
  (pad 37 thru_hole circle (at 13.74 3.96) (size 1.6 1.6) (drill 1) (layers *.Cu *.Mask))
  (pad 38 thru_hole circle (at 16.03 3.96) (size 1.6 1.6) (drill 1) (layers *.Cu *.Mask))
  (pad 39 thru_hole circle (at 18.32 3.96) (size 1.6 1.6) (drill 1) (layers *.Cu *.Mask))
  (pad 40 thru_hole circle (at 20.61 3.96) (size 1.6 1.6) (drill 1) (layers *.Cu *.Mask))
  (pad 41 thru_hole circle (at 22.9 3.96) (size 1.6 1.6) (drill 1) (layers *.Cu *.Mask))
  (pad 42 thru_hole circle (at 25.19 3.96) (size 1.6 1.6) (drill 1) (layers *.Cu *.Mask))
  (pad 43 thru_hole circle (at 27.48 3.96) (size 1.6 1.6) (drill 1) (layers *.Cu *.Mask))
  (pad 44 thru_hole circle (at 29.77 3.96) (size 1.6 1.6) (drill 1) (layers *.Cu *.Mask))
  (pad 0 thru_hole circle (at -8.025 1.98) (size 4 4) (drill 3.2) (layers *.Cu *.Mask))
  (pad 0 thru_hole circle (at 39.075 1.98) (size 4 4) (drill 3.2) (layers *.Cu *.Mask))
  (fp_text user %R (at 15.525 1.98) (layer F.Fab)
    (effects (font (size 1 1) (thickness 0.15)))
  )
  (model ${KIPRJMOD}/kicad_libs_k/models_k.3d/Connector_Dsub_k.3dshapes/DSUB-44-HD_Male_Vertical_P2.29x1.98mm_MountingHoles_k.wrl
    (at (xyz 0 0 0))
    (scale (xyz 1 1 1))
    (rotate (xyz 0 0 0))
  )
)