(module DSUB-25_Female_Vertical_P2.77x2.84mm (layer F.Cu) (tedit 59FEDEE2)
  (descr "25-pin D-Sub connector, straight/vertical, THT-mount, female, pitch 2.77x2.84mm, distance of mounting holes 47.1mm, see https://disti-assets.s3.amazonaws.com/tonar/files/datasheets/16730.pdf")
  (tags "25-pin D-Sub connector straight vertical THT female pitch 2.77x2.84mm mounting holes distance 47.1mm")
  (fp_text reference REF** (at -16.62 -5.89) (layer F.SilkS)
    (effects (font (size 1 1) (thickness 0.15)))
  )
  (fp_text value DSUB-25_Female_Vertical_P2.77x2.84mm (at -16.62 8.73) (layer F.Fab)
    (effects (font (size 1 1) (thickness 0.15)))
  )
  (fp_arc (start -42.17 -3.83) (end -43.17 -3.83) (angle 90.000000) (layer F.Fab) (width 0.1))
  (fp_arc (start 8.93 -3.83) (end 8.93 -4.83) (angle 90.000000) (layer F.Fab) (width 0.1))
  (fp_arc (start -42.17 6.67) (end -43.17 6.67) (angle -90.000000) (layer F.Fab) (width 0.1))
  (fp_arc (start 8.93 6.67) (end 9.93 6.67) (angle 90.000000) (layer F.Fab) (width 0.1))
  (fp_arc (start -42.17 -3.83) (end -43.23 -3.83) (angle 90.000000) (layer F.SilkS) (width 0.12))
  (fp_arc (start 8.93 -3.83) (end 8.93 -4.89) (angle 90.000000) (layer F.SilkS) (width 0.12))
  (fp_arc (start -42.17 6.67) (end -43.23 6.67) (angle -90.000000) (layer F.SilkS) (width 0.12))
  (fp_arc (start 8.93 6.67) (end 9.99 6.67) (angle 90.000000) (layer F.SilkS) (width 0.12))
  (fp_arc (start -33.863194 -0.93) (end -33.863194 -2.53) (angle -100.000000) (layer F.Fab) (width 0.1))
  (fp_arc (start 0.623194 -0.93) (end 0.623194 -2.53) (angle 100.000000) (layer F.Fab) (width 0.1))
  (fp_arc (start -33.034457 3.77) (end -33.034457 5.37) (angle 80.000000) (layer F.Fab) (width 0.1))
  (fp_arc (start -0.205543 3.77) (end -0.205543 5.37) (angle -80.000000) (layer F.Fab) (width 0.1))
  (fp_arc (start -33.851689 -0.93) (end -33.851689 -2.59) (angle -100.000000) (layer F.SilkS) (width 0.12))
  (fp_arc (start 0.611689 -0.93) (end 0.611689 -2.59) (angle 100.000000) (layer F.SilkS) (width 0.12))
  (fp_arc (start -33.022952 3.77) (end -33.022952 5.43) (angle 80.000000) (layer F.SilkS) (width 0.12))
  (fp_arc (start -0.217048 3.77) (end -0.217048 5.43) (angle -80.000000) (layer F.SilkS) (width 0.12))
  (fp_line (start -42.17 -4.83) (end 8.93 -4.83) (layer F.Fab) (width 0.1))
  (fp_line (start 9.93 -3.83) (end 9.93 6.67) (layer F.Fab) (width 0.1))
  (fp_line (start 8.93 7.67) (end -42.17 7.67) (layer F.Fab) (width 0.1))
  (fp_line (start -43.17 6.67) (end -43.17 -3.83) (layer F.Fab) (width 0.1))
  (fp_line (start -42.17 -4.89) (end 8.93 -4.89) (layer F.SilkS) (width 0.12))
  (fp_line (start 9.99 -3.83) (end 9.99 6.67) (layer F.SilkS) (width 0.12))
  (fp_line (start 8.93 7.73) (end -42.17 7.73) (layer F.SilkS) (width 0.12))
  (fp_line (start -43.23 6.67) (end -43.23 -3.83) (layer F.SilkS) (width 0.12))
  (fp_line (start -0.25 -5.784338) (end 0.25 -5.784338) (layer F.SilkS) (width 0.12))
  (fp_line (start 0.25 -5.784338) (end 0 -5.351325) (layer F.SilkS) (width 0.12))
  (fp_line (start 0 -5.351325) (end -0.25 -5.784338) (layer F.SilkS) (width 0.12))
  (fp_line (start -33.863194 -2.53) (end 0.623194 -2.53) (layer F.Fab) (width 0.1))
  (fp_line (start -33.034457 5.37) (end -0.205543 5.37) (layer F.Fab) (width 0.1))
  (fp_line (start 2.198887 -0.652163) (end 1.37015 4.047837) (layer F.Fab) (width 0.1))
  (fp_line (start -35.438887 -0.652163) (end -34.61015 4.047837) (layer F.Fab) (width 0.1))
  (fp_line (start -33.851689 -2.59) (end 0.611689 -2.59) (layer F.SilkS) (width 0.12))
  (fp_line (start -33.022952 5.43) (end -0.217048 5.43) (layer F.SilkS) (width 0.12))
  (fp_line (start 2.24647 -0.641744) (end 1.417733 4.058256) (layer F.SilkS) (width 0.12))
  (fp_line (start -35.48647 -0.641744) (end -34.657733 4.058256) (layer F.SilkS) (width 0.12))
  (fp_line (start -43.7 -5.35) (end -43.7 8.2) (layer F.CrtYd) (width 0.05))
  (fp_line (start -43.7 8.2) (end 10.45 8.2) (layer F.CrtYd) (width 0.05))
  (fp_line (start 10.45 8.2) (end 10.45 -5.35) (layer F.CrtYd) (width 0.05))
  (fp_line (start 10.45 -5.35) (end -43.7 -5.35) (layer F.CrtYd) (width 0.05))
  (pad 1 thru_hole rect (at 0 0) (size 1.6 1.6) (drill 1) (layers *.Cu *.Mask))
  (pad 2 thru_hole circle (at -2.77 0) (size 1.6 1.6) (drill 1) (layers *.Cu *.Mask))
  (pad 3 thru_hole circle (at -5.54 0) (size 1.6 1.6) (drill 1) (layers *.Cu *.Mask))
  (pad 4 thru_hole circle (at -8.31 0) (size 1.6 1.6) (drill 1) (layers *.Cu *.Mask))
  (pad 5 thru_hole circle (at -11.08 0) (size 1.6 1.6) (drill 1) (layers *.Cu *.Mask))
  (pad 6 thru_hole circle (at -13.85 0) (size 1.6 1.6) (drill 1) (layers *.Cu *.Mask))
  (pad 7 thru_hole circle (at -16.62 0) (size 1.6 1.6) (drill 1) (layers *.Cu *.Mask))
  (pad 8 thru_hole circle (at -19.39 0) (size 1.6 1.6) (drill 1) (layers *.Cu *.Mask))
  (pad 9 thru_hole circle (at -22.16 0) (size 1.6 1.6) (drill 1) (layers *.Cu *.Mask))
  (pad 10 thru_hole circle (at -24.93 0) (size 1.6 1.6) (drill 1) (layers *.Cu *.Mask))
  (pad 11 thru_hole circle (at -27.7 0) (size 1.6 1.6) (drill 1) (layers *.Cu *.Mask))
  (pad 12 thru_hole circle (at -30.47 0) (size 1.6 1.6) (drill 1) (layers *.Cu *.Mask))
  (pad 13 thru_hole circle (at -33.24 0) (size 1.6 1.6) (drill 1) (layers *.Cu *.Mask))
  (pad 14 thru_hole circle (at -1.385 2.84) (size 1.6 1.6) (drill 1) (layers *.Cu *.Mask))
  (pad 15 thru_hole circle (at -4.155 2.84) (size 1.6 1.6) (drill 1) (layers *.Cu *.Mask))
  (pad 16 thru_hole circle (at -6.925 2.84) (size 1.6 1.6) (drill 1) (layers *.Cu *.Mask))
  (pad 17 thru_hole circle (at -9.695 2.84) (size 1.6 1.6) (drill 1) (layers *.Cu *.Mask))
  (pad 18 thru_hole circle (at -12.465 2.84) (size 1.6 1.6) (drill 1) (layers *.Cu *.Mask))
  (pad 19 thru_hole circle (at -15.235 2.84) (size 1.6 1.6) (drill 1) (layers *.Cu *.Mask))
  (pad 20 thru_hole circle (at -18.005 2.84) (size 1.6 1.6) (drill 1) (layers *.Cu *.Mask))
  (pad 21 thru_hole circle (at -20.775 2.84) (size 1.6 1.6) (drill 1) (layers *.Cu *.Mask))
  (pad 22 thru_hole circle (at -23.545 2.84) (size 1.6 1.6) (drill 1) (layers *.Cu *.Mask))
  (pad 23 thru_hole circle (at -26.315 2.84) (size 1.6 1.6) (drill 1) (layers *.Cu *.Mask))
  (pad 24 thru_hole circle (at -29.085 2.84) (size 1.6 1.6) (drill 1) (layers *.Cu *.Mask))
  (pad 25 thru_hole circle (at -31.855 2.84) (size 1.6 1.6) (drill 1) (layers *.Cu *.Mask))
  (fp_text user %R (at -16.62 1.42) (layer F.Fab)
    (effects (font (size 1 1) (thickness 0.15)))
  )
  (model ${KIPRJMOD}/kicad_libs_k/models_k.3d/Connector_Dsub_k.3dshapes/DSUB-25_Female_Vertical_P2.77x2.84mm_k.wrl
    (at (xyz 0 0 0))
    (scale (xyz 1 1 1))
    (rotate (xyz 0 0 0))
  )
)