(module DSUB-44-HD_Male_Horizontal_P2.29x1.98mm_EdgePinOffset8.35mm_Housed_MountingHolesOffset10.89mm (layer F.Cu) (tedit 59FEDEE2)
  (descr "44-pin D-Sub connector, horizontal/angled (90 deg), THT-mount, male, pitch 2.29x1.98mm, pin-PCB-offset 8.35mm, distance of mounting holes 47.1mm, distance of mounting holes to PCB edge 10.889999999999999mm, see https://disti-assets.s3.amazonaws.com/tonar/files/datasheets/16730.pdf")
  (tags "44-pin D-Sub connector horizontal angled 90deg THT male pitch 2.29x1.98mm pin-PCB-offset 8.35mm mounting-holes-distance 47.1mm mounting-hole-offset 47.1mm")
  (fp_text reference REF** (at 15.525 -2.58) (layer F.SilkS)
    (effects (font (size 1 1) (thickness 0.15)))
  )
  (fp_text value DSUB-44-HD_Male_Horizontal_P2.29x1.98mm_EdgePinOffset8.35mm_Housed_MountingHolesOffset10.89mm (at 15.525 20.21) (layer F.Fab)
    (effects (font (size 1 1) (thickness 0.15)))
  )
  (fp_arc (start -8.025 1.42) (end -9.625 1.42) (angle 180.000000) (layer F.Fab) (width 0.1))
  (fp_arc (start 39.075 1.42) (end 37.475 1.42) (angle 180.000000) (layer F.Fab) (width 0.1))
  (fp_line (start -11.025 -1.58) (end -11.025 12.31) (layer F.Fab) (width 0.1))
  (fp_line (start -11.025 12.31) (end 42.075 12.31) (layer F.Fab) (width 0.1))
  (fp_line (start 42.075 12.31) (end 42.075 -1.58) (layer F.Fab) (width 0.1))
  (fp_line (start 42.075 -1.58) (end -11.025 -1.58) (layer F.Fab) (width 0.1))
  (fp_line (start -11.025 12.31) (end -11.025 12.71) (layer F.Fab) (width 0.1))
  (fp_line (start -11.025 12.71) (end 42.075 12.71) (layer F.Fab) (width 0.1))
  (fp_line (start 42.075 12.71) (end 42.075 12.31) (layer F.Fab) (width 0.1))
  (fp_line (start 42.075 12.31) (end -11.025 12.31) (layer F.Fab) (width 0.1))
  (fp_line (start -3.625 12.71) (end -3.625 18.71) (layer F.Fab) (width 0.1))
  (fp_line (start -3.625 18.71) (end 34.675 18.71) (layer F.Fab) (width 0.1))
  (fp_line (start 34.675 18.71) (end 34.675 12.71) (layer F.Fab) (width 0.1))
  (fp_line (start 34.675 12.71) (end -3.625 12.71) (layer F.Fab) (width 0.1))
  (fp_line (start -10.525 12.71) (end -10.525 17.71) (layer F.Fab) (width 0.1))
  (fp_line (start -10.525 17.71) (end -5.525 17.71) (layer F.Fab) (width 0.1))
  (fp_line (start -5.525 17.71) (end -5.525 12.71) (layer F.Fab) (width 0.1))
  (fp_line (start -5.525 12.71) (end -10.525 12.71) (layer F.Fab) (width 0.1))
  (fp_line (start 36.575 12.71) (end 36.575 17.71) (layer F.Fab) (width 0.1))
  (fp_line (start 36.575 17.71) (end 41.575 17.71) (layer F.Fab) (width 0.1))
  (fp_line (start 41.575 17.71) (end 41.575 12.71) (layer F.Fab) (width 0.1))
  (fp_line (start 41.575 12.71) (end 36.575 12.71) (layer F.Fab) (width 0.1))
  (fp_line (start -9.625 12.31) (end -9.625 1.42) (layer F.Fab) (width 0.1))
  (fp_line (start -6.425 12.31) (end -6.425 1.42) (layer F.Fab) (width 0.1))
  (fp_line (start 37.475 12.31) (end 37.475 1.42) (layer F.Fab) (width 0.1))
  (fp_line (start 40.675 12.31) (end 40.675 1.42) (layer F.Fab) (width 0.1))
  (fp_line (start -11.085 12.25) (end -11.085 -1.64) (layer F.SilkS) (width 0.12))
  (fp_line (start -11.085 -1.64) (end 42.135 -1.64) (layer F.SilkS) (width 0.12))
  (fp_line (start 42.135 -1.64) (end 42.135 12.25) (layer F.SilkS) (width 0.12))
  (fp_line (start -0.25 -2.534338) (end 0.25 -2.534338) (layer F.SilkS) (width 0.12))
  (fp_line (start 0.25 -2.534338) (end 0 -2.101325) (layer F.SilkS) (width 0.12))
  (fp_line (start 0 -2.101325) (end -0.25 -2.534338) (layer F.SilkS) (width 0.12))
  (fp_line (start -11.55 -2.1) (end -11.55 19.25) (layer F.CrtYd) (width 0.05))
  (fp_line (start -11.55 19.25) (end 42.6 19.25) (layer F.CrtYd) (width 0.05))
  (fp_line (start 42.6 19.25) (end 42.6 -2.1) (layer F.CrtYd) (width 0.05))
  (fp_line (start 42.6 -2.1) (end -11.55 -2.1) (layer F.CrtYd) (width 0.05))
  (pad 1 thru_hole rect (at 0 0) (size 1.6 1.6) (drill 1) (layers *.Cu *.Mask))
  (pad 2 thru_hole circle (at 2.29 0) (size 1.6 1.6) (drill 1) (layers *.Cu *.Mask))
  (pad 3 thru_hole circle (at 4.58 0) (size 1.6 1.6) (drill 1) (layers *.Cu *.Mask))
  (pad 4 thru_hole circle (at 6.87 0) (size 1.6 1.6) (drill 1) (layers *.Cu *.Mask))
  (pad 5 thru_hole circle (at 9.16 0) (size 1.6 1.6) (drill 1) (layers *.Cu *.Mask))
  (pad 6 thru_hole circle (at 11.45 0) (size 1.6 1.6) (drill 1) (layers *.Cu *.Mask))
  (pad 7 thru_hole circle (at 13.74 0) (size 1.6 1.6) (drill 1) (layers *.Cu *.Mask))
  (pad 8 thru_hole circle (at 16.03 0) (size 1.6 1.6) (drill 1) (layers *.Cu *.Mask))
  (pad 9 thru_hole circle (at 18.32 0) (size 1.6 1.6) (drill 1) (layers *.Cu *.Mask))
  (pad 10 thru_hole circle (at 20.61 0) (size 1.6 1.6) (drill 1) (layers *.Cu *.Mask))
  (pad 11 thru_hole circle (at 22.9 0) (size 1.6 1.6) (drill 1) (layers *.Cu *.Mask))
  (pad 12 thru_hole circle (at 25.19 0) (size 1.6 1.6) (drill 1) (layers *.Cu *.Mask))
  (pad 13 thru_hole circle (at 27.48 0) (size 1.6 1.6) (drill 1) (layers *.Cu *.Mask))
  (pad 14 thru_hole circle (at 29.77 0) (size 1.6 1.6) (drill 1) (layers *.Cu *.Mask))
  (pad 15 thru_hole circle (at 32.06 0) (size 1.6 1.6) (drill 1) (layers *.Cu *.Mask))
  (pad 16 thru_hole circle (at -1.145 1.98) (size 1.6 1.6) (drill 1) (layers *.Cu *.Mask))
  (pad 17 thru_hole circle (at 1.145 1.98) (size 1.6 1.6) (drill 1) (layers *.Cu *.Mask))
  (pad 18 thru_hole circle (at 3.435 1.98) (size 1.6 1.6) (drill 1) (layers *.Cu *.Mask))
  (pad 19 thru_hole circle (at 5.725 1.98) (size 1.6 1.6) (drill 1) (layers *.Cu *.Mask))
  (pad 20 thru_hole circle (at 8.015 1.98) (size 1.6 1.6) (drill 1) (layers *.Cu *.Mask))
  (pad 21 thru_hole circle (at 10.305 1.98) (size 1.6 1.6) (drill 1) (layers *.Cu *.Mask))
  (pad 22 thru_hole circle (at 12.595 1.98) (size 1.6 1.6) (drill 1) (layers *.Cu *.Mask))
  (pad 23 thru_hole circle (at 14.885 1.98) (size 1.6 1.6) (drill 1) (layers *.Cu *.Mask))
  (pad 24 thru_hole circle (at 17.175 1.98) (size 1.6 1.6) (drill 1) (layers *.Cu *.Mask))
  (pad 25 thru_hole circle (at 19.465 1.98) (size 1.6 1.6) (drill 1) (layers *.Cu *.Mask))
  (pad 26 thru_hole circle (at 21.755 1.98) (size 1.6 1.6) (drill 1) (layers *.Cu *.Mask))
  (pad 27 thru_hole circle (at 24.045 1.98) (size 1.6 1.6) (drill 1) (layers *.Cu *.Mask))
  (pad 28 thru_hole circle (at 26.335 1.98) (size 1.6 1.6) (drill 1) (layers *.Cu *.Mask))
  (pad 29 thru_hole circle (at 28.625 1.98) (size 1.6 1.6) (drill 1) (layers *.Cu *.Mask))
  (pad 30 thru_hole circle (at 30.915 1.98) (size 1.6 1.6) (drill 1) (layers *.Cu *.Mask))
  (pad 31 thru_hole circle (at 0 3.96) (size 1.6 1.6) (drill 1) (layers *.Cu *.Mask))
  (pad 32 thru_hole circle (at 2.29 3.96) (size 1.6 1.6) (drill 1) (layers *.Cu *.Mask))
  (pad 33 thru_hole circle (at 4.58 3.96) (size 1.6 1.6) (drill 1) (layers *.Cu *.Mask))
  (pad 34 thru_hole circle (at 6.87 3.96) (size 1.6 1.6) (drill 1) (layers *.Cu *.Mask))
  (pad 35 thru_hole circle (at 9.16 3.96) (size 1.6 1.6) (drill 1) (layers *.Cu *.Mask))
  (pad 36 thru_hole circle (at 11.45 3.96) (size 1.6 1.6) (drill 1) (layers *.Cu *.Mask))
  (pad 37 thru_hole circle (at 13.74 3.96) (size 1.6 1.6) (drill 1) (layers *.Cu *.Mask))
  (pad 38 thru_hole circle (at 16.03 3.96) (size 1.6 1.6) (drill 1) (layers *.Cu *.Mask))
  (pad 39 thru_hole circle (at 18.32 3.96) (size 1.6 1.6) (drill 1) (layers *.Cu *.Mask))
  (pad 40 thru_hole circle (at 20.61 3.96) (size 1.6 1.6) (drill 1) (layers *.Cu *.Mask))
  (pad 41 thru_hole circle (at 22.9 3.96) (size 1.6 1.6) (drill 1) (layers *.Cu *.Mask))
  (pad 42 thru_hole circle (at 25.19 3.96) (size 1.6 1.6) (drill 1) (layers *.Cu *.Mask))
  (pad 43 thru_hole circle (at 27.48 3.96) (size 1.6 1.6) (drill 1) (layers *.Cu *.Mask))
  (pad 44 thru_hole circle (at 29.77 3.96) (size 1.6 1.6) (drill 1) (layers *.Cu *.Mask))
  (pad 0 thru_hole circle (at -8.025 1.42) (size 4 4) (drill 3.2) (layers *.Cu *.Mask))
  (pad 0 thru_hole circle (at 39.075 1.42) (size 4 4) (drill 3.2) (layers *.Cu *.Mask))
  (fp_text user %R (at 15.525 15.71) (layer F.Fab)
    (effects (font (size 1 1) (thickness 0.15)))
  )
  (model ${KIPRJMOD}/kicad_libs_k/models_k.3d/Connector_Dsub_k.3dshapes/DSUB-44-HD_Male_Horizontal_P2.29x1.98mm_EdgePinOffset8.35mm_Housed_MountingHolesOffset10.89mm_k.wrl
    (at (xyz 0 0 0))
    (scale (xyz 1 1 1))
    (rotate (xyz 0 0 0))
  )
)