(module DSUB-25_Female_EdgeMount_P2.77mm (layer F.Cu) (tedit 59FEDEE2)
  (descr "25-pin D-Sub connector, solder-cups edge-mounted, female, x-pin-pitch 2.77mm, distance of mounting holes 47.1mm, see https://disti-assets.s3.amazonaws.com/tonar/files/datasheets/16730.pdf")
  (tags "25-pin D-Sub connector edge mount solder cup female x-pin-pitch 2.77mm mounting holes distance 47.1mm")
  (attr smd)
  (fp_text reference REF** (at -20.543333 0) (layer F.SilkS)
    (effects (font (size 1 1) (thickness 0.15)))
  )
  (fp_text value DSUB-25_Female_EdgeMount_P2.77mm (at 0 16.86) (layer F.Fab)
    (effects (font (size 1 1) (thickness 0.15)))
  )
  (fp_line (start 16.02 -0.91) (end 16.02 1.99) (layer F.Fab) (width 0.1))
  (fp_line (start 16.02 1.99) (end 17.22 1.99) (layer F.Fab) (width 0.1))
  (fp_line (start 17.22 1.99) (end 17.22 -0.91) (layer F.Fab) (width 0.1))
  (fp_line (start 17.22 -0.91) (end 16.02 -0.91) (layer F.Fab) (width 0.1))
  (fp_line (start 13.25 -0.91) (end 13.25 1.99) (layer F.Fab) (width 0.1))
  (fp_line (start 13.25 1.99) (end 14.45 1.99) (layer F.Fab) (width 0.1))
  (fp_line (start 14.45 1.99) (end 14.45 -0.91) (layer F.Fab) (width 0.1))
  (fp_line (start 14.45 -0.91) (end 13.25 -0.91) (layer F.Fab) (width 0.1))
  (fp_line (start 10.48 -0.91) (end 10.48 1.99) (layer F.Fab) (width 0.1))
  (fp_line (start 10.48 1.99) (end 11.68 1.99) (layer F.Fab) (width 0.1))
  (fp_line (start 11.68 1.99) (end 11.68 -0.91) (layer F.Fab) (width 0.1))
  (fp_line (start 11.68 -0.91) (end 10.48 -0.91) (layer F.Fab) (width 0.1))
  (fp_line (start 7.71 -0.91) (end 7.71 1.99) (layer F.Fab) (width 0.1))
  (fp_line (start 7.71 1.99) (end 8.91 1.99) (layer F.Fab) (width 0.1))
  (fp_line (start 8.91 1.99) (end 8.91 -0.91) (layer F.Fab) (width 0.1))
  (fp_line (start 8.91 -0.91) (end 7.71 -0.91) (layer F.Fab) (width 0.1))
  (fp_line (start 4.94 -0.91) (end 4.94 1.99) (layer F.Fab) (width 0.1))
  (fp_line (start 4.94 1.99) (end 6.14 1.99) (layer F.Fab) (width 0.1))
  (fp_line (start 6.14 1.99) (end 6.14 -0.91) (layer F.Fab) (width 0.1))
  (fp_line (start 6.14 -0.91) (end 4.94 -0.91) (layer F.Fab) (width 0.1))
  (fp_line (start 2.17 -0.91) (end 2.17 1.99) (layer F.Fab) (width 0.1))
  (fp_line (start 2.17 1.99) (end 3.37 1.99) (layer F.Fab) (width 0.1))
  (fp_line (start 3.37 1.99) (end 3.37 -0.91) (layer F.Fab) (width 0.1))
  (fp_line (start 3.37 -0.91) (end 2.17 -0.91) (layer F.Fab) (width 0.1))
  (fp_line (start -0.6 -0.91) (end -0.6 1.99) (layer F.Fab) (width 0.1))
  (fp_line (start -0.6 1.99) (end 0.6 1.99) (layer F.Fab) (width 0.1))
  (fp_line (start 0.6 1.99) (end 0.6 -0.91) (layer F.Fab) (width 0.1))
  (fp_line (start 0.6 -0.91) (end -0.6 -0.91) (layer F.Fab) (width 0.1))
  (fp_line (start -3.37 -0.91) (end -3.37 1.99) (layer F.Fab) (width 0.1))
  (fp_line (start -3.37 1.99) (end -2.17 1.99) (layer F.Fab) (width 0.1))
  (fp_line (start -2.17 1.99) (end -2.17 -0.91) (layer F.Fab) (width 0.1))
  (fp_line (start -2.17 -0.91) (end -3.37 -0.91) (layer F.Fab) (width 0.1))
  (fp_line (start -6.14 -0.91) (end -6.14 1.99) (layer F.Fab) (width 0.1))
  (fp_line (start -6.14 1.99) (end -4.94 1.99) (layer F.Fab) (width 0.1))
  (fp_line (start -4.94 1.99) (end -4.94 -0.91) (layer F.Fab) (width 0.1))
  (fp_line (start -4.94 -0.91) (end -6.14 -0.91) (layer F.Fab) (width 0.1))
  (fp_line (start -8.91 -0.91) (end -8.91 1.99) (layer F.Fab) (width 0.1))
  (fp_line (start -8.91 1.99) (end -7.71 1.99) (layer F.Fab) (width 0.1))
  (fp_line (start -7.71 1.99) (end -7.71 -0.91) (layer F.Fab) (width 0.1))
  (fp_line (start -7.71 -0.91) (end -8.91 -0.91) (layer F.Fab) (width 0.1))
  (fp_line (start -11.68 -0.91) (end -11.68 1.99) (layer F.Fab) (width 0.1))
  (fp_line (start -11.68 1.99) (end -10.48 1.99) (layer F.Fab) (width 0.1))
  (fp_line (start -10.48 1.99) (end -10.48 -0.91) (layer F.Fab) (width 0.1))
  (fp_line (start -10.48 -0.91) (end -11.68 -0.91) (layer F.Fab) (width 0.1))
  (fp_line (start -14.45 -0.91) (end -14.45 1.99) (layer F.Fab) (width 0.1))
  (fp_line (start -14.45 1.99) (end -13.25 1.99) (layer F.Fab) (width 0.1))
  (fp_line (start -13.25 1.99) (end -13.25 -0.91) (layer F.Fab) (width 0.1))
  (fp_line (start -13.25 -0.91) (end -14.45 -0.91) (layer F.Fab) (width 0.1))
  (fp_line (start -17.22 -0.91) (end -17.22 1.99) (layer F.Fab) (width 0.1))
  (fp_line (start -17.22 1.99) (end -16.02 1.99) (layer F.Fab) (width 0.1))
  (fp_line (start -16.02 1.99) (end -16.02 -0.91) (layer F.Fab) (width 0.1))
  (fp_line (start -16.02 -0.91) (end -17.22 -0.91) (layer F.Fab) (width 0.1))
  (fp_line (start 14.635 -0.91) (end 14.635 1.99) (layer B.Fab) (width 0.1))
  (fp_line (start 14.635 1.99) (end 15.835 1.99) (layer B.Fab) (width 0.1))
  (fp_line (start 15.835 1.99) (end 15.835 -0.91) (layer B.Fab) (width 0.1))
  (fp_line (start 15.835 -0.91) (end 14.635 -0.91) (layer B.Fab) (width 0.1))
  (fp_line (start 11.865 -0.91) (end 11.865 1.99) (layer B.Fab) (width 0.1))
  (fp_line (start 11.865 1.99) (end 13.065 1.99) (layer B.Fab) (width 0.1))
  (fp_line (start 13.065 1.99) (end 13.065 -0.91) (layer B.Fab) (width 0.1))
  (fp_line (start 13.065 -0.91) (end 11.865 -0.91) (layer B.Fab) (width 0.1))
  (fp_line (start 9.095 -0.91) (end 9.095 1.99) (layer B.Fab) (width 0.1))
  (fp_line (start 9.095 1.99) (end 10.295 1.99) (layer B.Fab) (width 0.1))
  (fp_line (start 10.295 1.99) (end 10.295 -0.91) (layer B.Fab) (width 0.1))
  (fp_line (start 10.295 -0.91) (end 9.095 -0.91) (layer B.Fab) (width 0.1))
  (fp_line (start 6.325 -0.91) (end 6.325 1.99) (layer B.Fab) (width 0.1))
  (fp_line (start 6.325 1.99) (end 7.525 1.99) (layer B.Fab) (width 0.1))
  (fp_line (start 7.525 1.99) (end 7.525 -0.91) (layer B.Fab) (width 0.1))
  (fp_line (start 7.525 -0.91) (end 6.325 -0.91) (layer B.Fab) (width 0.1))
  (fp_line (start 3.555 -0.91) (end 3.555 1.99) (layer B.Fab) (width 0.1))
  (fp_line (start 3.555 1.99) (end 4.755 1.99) (layer B.Fab) (width 0.1))
  (fp_line (start 4.755 1.99) (end 4.755 -0.91) (layer B.Fab) (width 0.1))
  (fp_line (start 4.755 -0.91) (end 3.555 -0.91) (layer B.Fab) (width 0.1))
  (fp_line (start 0.785 -0.91) (end 0.785 1.99) (layer B.Fab) (width 0.1))
  (fp_line (start 0.785 1.99) (end 1.985 1.99) (layer B.Fab) (width 0.1))
  (fp_line (start 1.985 1.99) (end 1.985 -0.91) (layer B.Fab) (width 0.1))
  (fp_line (start 1.985 -0.91) (end 0.785 -0.91) (layer B.Fab) (width 0.1))
  (fp_line (start -1.985 -0.91) (end -1.985 1.99) (layer B.Fab) (width 0.1))
  (fp_line (start -1.985 1.99) (end -0.785 1.99) (layer B.Fab) (width 0.1))
  (fp_line (start -0.785 1.99) (end -0.785 -0.91) (layer B.Fab) (width 0.1))
  (fp_line (start -0.785 -0.91) (end -1.985 -0.91) (layer B.Fab) (width 0.1))
  (fp_line (start -4.755 -0.91) (end -4.755 1.99) (layer B.Fab) (width 0.1))
  (fp_line (start -4.755 1.99) (end -3.555 1.99) (layer B.Fab) (width 0.1))
  (fp_line (start -3.555 1.99) (end -3.555 -0.91) (layer B.Fab) (width 0.1))
  (fp_line (start -3.555 -0.91) (end -4.755 -0.91) (layer B.Fab) (width 0.1))
  (fp_line (start -7.525 -0.91) (end -7.525 1.99) (layer B.Fab) (width 0.1))
  (fp_line (start -7.525 1.99) (end -6.325 1.99) (layer B.Fab) (width 0.1))
  (fp_line (start -6.325 1.99) (end -6.325 -0.91) (layer B.Fab) (width 0.1))
  (fp_line (start -6.325 -0.91) (end -7.525 -0.91) (layer B.Fab) (width 0.1))
  (fp_line (start -10.295 -0.91) (end -10.295 1.99) (layer B.Fab) (width 0.1))
  (fp_line (start -10.295 1.99) (end -9.095 1.99) (layer B.Fab) (width 0.1))
  (fp_line (start -9.095 1.99) (end -9.095 -0.91) (layer B.Fab) (width 0.1))
  (fp_line (start -9.095 -0.91) (end -10.295 -0.91) (layer B.Fab) (width 0.1))
  (fp_line (start -13.065 -0.91) (end -13.065 1.99) (layer B.Fab) (width 0.1))
  (fp_line (start -13.065 1.99) (end -11.865 1.99) (layer B.Fab) (width 0.1))
  (fp_line (start -11.865 1.99) (end -11.865 -0.91) (layer B.Fab) (width 0.1))
  (fp_line (start -11.865 -0.91) (end -13.065 -0.91) (layer B.Fab) (width 0.1))
  (fp_line (start -15.835 -0.91) (end -15.835 1.99) (layer B.Fab) (width 0.1))
  (fp_line (start -15.835 1.99) (end -14.635 1.99) (layer B.Fab) (width 0.1))
  (fp_line (start -14.635 1.99) (end -14.635 -0.91) (layer B.Fab) (width 0.1))
  (fp_line (start -14.635 -0.91) (end -15.835 -0.91) (layer B.Fab) (width 0.1))
  (fp_line (start -18.55 1.99) (end -18.55 4.79) (layer F.Fab) (width 0.1))
  (fp_line (start -18.55 4.79) (end 18.55 4.79) (layer F.Fab) (width 0.1))
  (fp_line (start 18.55 4.79) (end 18.55 1.99) (layer F.Fab) (width 0.1))
  (fp_line (start 18.55 1.99) (end -18.55 1.99) (layer F.Fab) (width 0.1))
  (fp_line (start -19.55 4.79) (end -19.55 9.29) (layer F.Fab) (width 0.1))
  (fp_line (start -19.55 9.29) (end 19.55 9.29) (layer F.Fab) (width 0.1))
  (fp_line (start 19.55 9.29) (end 19.55 4.79) (layer F.Fab) (width 0.1))
  (fp_line (start 19.55 4.79) (end -19.55 4.79) (layer F.Fab) (width 0.1))
  (fp_line (start -26.55 9.29) (end -26.55 9.69) (layer F.Fab) (width 0.1))
  (fp_line (start -26.55 9.69) (end 26.55 9.69) (layer F.Fab) (width 0.1))
  (fp_line (start 26.55 9.69) (end 26.55 9.29) (layer F.Fab) (width 0.1))
  (fp_line (start 26.55 9.29) (end -26.55 9.29) (layer F.Fab) (width 0.1))
  (fp_line (start -19.15 9.69) (end -19.15 15.86) (layer F.Fab) (width 0.1))
  (fp_line (start -19.15 15.86) (end 19.15 15.86) (layer F.Fab) (width 0.1))
  (fp_line (start 19.15 15.86) (end 19.15 9.69) (layer F.Fab) (width 0.1))
  (fp_line (start 19.15 9.69) (end -19.15 9.69) (layer F.Fab) (width 0.1))
  (fp_line (start -18.05 -2.25) (end 18.05 -2.25) (layer F.CrtYd) (width 0.05))
  (fp_line (start 18.05 -2.25) (end 18.05 1.5) (layer F.CrtYd) (width 0.05))
  (fp_line (start 18.05 1.5) (end 19.05 1.5) (layer F.CrtYd) (width 0.05))
  (fp_line (start 19.05 1.5) (end 19.05 4.3) (layer F.CrtYd) (width 0.05))
  (fp_line (start 19.05 4.3) (end 20.05 4.3) (layer F.CrtYd) (width 0.05))
  (fp_line (start 20.05 4.3) (end 20.05 8.8) (layer F.CrtYd) (width 0.05))
  (fp_line (start 20.05 8.8) (end 27.05 8.8) (layer F.CrtYd) (width 0.05))
  (fp_line (start 27.05 8.8) (end 27.05 10.2) (layer F.CrtYd) (width 0.05))
  (fp_line (start 27.05 10.2) (end 19.65 10.2) (layer F.CrtYd) (width 0.05))
  (fp_line (start 19.65 10.2) (end 19.65 16.4) (layer F.CrtYd) (width 0.05))
  (fp_line (start 19.65 16.4) (end -19.65 16.4) (layer F.CrtYd) (width 0.05))
  (fp_line (start -19.65 16.4) (end -19.65 10.2) (layer F.CrtYd) (width 0.05))
  (fp_line (start -19.65 10.2) (end -27.05 10.2) (layer F.CrtYd) (width 0.05))
  (fp_line (start -27.05 10.2) (end -27.05 8.8) (layer F.CrtYd) (width 0.05))
  (fp_line (start -27.05 8.8) (end -20.05 8.8) (layer F.CrtYd) (width 0.05))
  (fp_line (start -20.05 8.8) (end -20.05 4.3) (layer F.CrtYd) (width 0.05))
  (fp_line (start -20.05 4.3) (end -19.05 4.3) (layer F.CrtYd) (width 0.05))
  (fp_line (start -19.05 4.3) (end -19.05 1.5) (layer F.CrtYd) (width 0.05))
  (fp_line (start -19.05 1.5) (end -18.05 1.5) (layer F.CrtYd) (width 0.05))
  (fp_line (start -18.05 1.5) (end -18.05 -2.25) (layer F.CrtYd) (width 0.05))
  (fp_line (start 17.803333 1.74) (end 17.803333 -2) (layer F.SilkS) (width 0.12))
  (fp_line (start 17.803333 -2) (end -17.803333 -2) (layer F.SilkS) (width 0.12))
  (fp_line (start -17.803333 -2) (end -17.803333 1.74) (layer F.SilkS) (width 0.12))
  (fp_line (start 18.043333 0) (end 18.043333 -2.24) (layer F.SilkS) (width 0.12))
  (fp_line (start 18.043333 -2.24) (end 13.85 -2.24) (layer F.SilkS) (width 0.12))
  (fp_line (start -26.55 1.99) (end 26.55 1.99) (layer Dwgs.User) (width 0.05))
  (pad 1 smd rect (at 16.62 0) (size 1.846667 3.48) (layers F.Cu F.Mask F.Paste))
  (pad 2 smd rect (at 13.85 0) (size 1.846667 3.48) (layers F.Cu F.Mask F.Paste))
  (pad 3 smd rect (at 11.08 0) (size 1.846667 3.48) (layers F.Cu F.Mask F.Paste))
  (pad 4 smd rect (at 8.31 0) (size 1.846667 3.48) (layers F.Cu F.Mask F.Paste))
  (pad 5 smd rect (at 5.54 0) (size 1.846667 3.48) (layers F.Cu F.Mask F.Paste))
  (pad 6 smd rect (at 2.77 0) (size 1.846667 3.48) (layers F.Cu F.Mask F.Paste))
  (pad 7 smd rect (at 0 0) (size 1.846667 3.48) (layers F.Cu F.Mask F.Paste))
  (pad 8 smd rect (at -2.77 0) (size 1.846667 3.48) (layers F.Cu F.Mask F.Paste))
  (pad 9 smd rect (at -5.54 0) (size 1.846667 3.48) (layers F.Cu F.Mask F.Paste))
  (pad 10 smd rect (at -8.31 0) (size 1.846667 3.48) (layers F.Cu F.Mask F.Paste))
  (pad 11 smd rect (at -11.08 0) (size 1.846667 3.48) (layers F.Cu F.Mask F.Paste))
  (pad 12 smd rect (at -13.85 0) (size 1.846667 3.48) (layers F.Cu F.Mask F.Paste))
  (pad 13 smd rect (at -16.62 0) (size 1.846667 3.48) (layers F.Cu F.Mask F.Paste))
  (pad 14 smd rect (at 15.235 0) (size 1.846667 3.48) (layers B.Cu B.Mask B.Paste))
  (pad 15 smd rect (at 12.465 0) (size 1.846667 3.48) (layers B.Cu B.Mask B.Paste))
  (pad 16 smd rect (at 9.695 0) (size 1.846667 3.48) (layers B.Cu B.Mask B.Paste))
  (pad 17 smd rect (at 6.925 0) (size 1.846667 3.48) (layers B.Cu B.Mask B.Paste))
  (pad 18 smd rect (at 4.155 0) (size 1.846667 3.48) (layers B.Cu B.Mask B.Paste))
  (pad 19 smd rect (at 1.385 0) (size 1.846667 3.48) (layers B.Cu B.Mask B.Paste))
  (pad 20 smd rect (at -1.385 0) (size 1.846667 3.48) (layers B.Cu B.Mask B.Paste))
  (pad 21 smd rect (at -4.155 0) (size 1.846667 3.48) (layers B.Cu B.Mask B.Paste))
  (pad 22 smd rect (at -6.925 0) (size 1.846667 3.48) (layers B.Cu B.Mask B.Paste))
  (pad 23 smd rect (at -9.695 0) (size 1.846667 3.48) (layers B.Cu B.Mask B.Paste))
  (pad 24 smd rect (at -12.465 0) (size 1.846667 3.48) (layers B.Cu B.Mask B.Paste))
  (pad 25 smd rect (at -15.235 0) (size 1.846667 3.48) (layers B.Cu B.Mask B.Paste))
  (fp_text user %R (at 0 3.39) (layer F.Fab)
    (effects (font (size 1 1) (thickness 0.15)))
  )
  (fp_text user "PCB edge" (at -21.55 1.323333) (layer Dwgs.User)
    (effects (font (size 0.5 0.5) (thickness 0.075)))
  )
  (model ${KIPRJMOD}/kicad_libs_k/models_k.3d/Connector_Dsub_k.3dshapes/DSUB-25_Female_EdgeMount_P2.77mm_k.wrl
    (at (xyz 0 0 0))
    (scale (xyz 1 1 1))
    (rotate (xyz 0 0 0))
  )
)