(module R_Array_SIP7 (layer F.Cu) (tedit 5A14249F)
  (descr "7-pin Resistor SIP pack")
  (tags R)
  (fp_text reference REF** (at 8.89 -2.4) (layer F.SilkS)
    (effects (font (size 1 1) (thickness 0.15)))
  )
  (fp_text value R_Array_SIP7 (at 8.89 2.4) (layer F.Fab)
    (effects (font (size 1 1) (thickness 0.15)))
  )
  (fp_text user %R (at 7.62 0) (layer F.Fab)
    (effects (font (size 1 1) (thickness 0.15)))
  )
  (fp_line (start -1.29 -1.25) (end -1.29 1.25) (layer F.Fab) (width 0.1))
  (fp_line (start -1.29 1.25) (end 16.53 1.25) (layer F.Fab) (width 0.1))
  (fp_line (start 16.53 1.25) (end 16.53 -1.25) (layer F.Fab) (width 0.1))
  (fp_line (start 16.53 -1.25) (end -1.29 -1.25) (layer F.Fab) (width 0.1))
  (fp_line (start 1.27 -1.25) (end 1.27 1.25) (layer F.Fab) (width 0.1))
  (fp_line (start -1.44 -1.4) (end -1.44 1.4) (layer F.SilkS) (width 0.12))
  (fp_line (start -1.44 1.4) (end 16.68 1.4) (layer F.SilkS) (width 0.12))
  (fp_line (start 16.68 1.4) (end 16.68 -1.4) (layer F.SilkS) (width 0.12))
  (fp_line (start 16.68 -1.4) (end -1.44 -1.4) (layer F.SilkS) (width 0.12))
  (fp_line (start 1.27 -1.4) (end 1.27 1.4) (layer F.SilkS) (width 0.12))
  (fp_line (start -1.7 -1.65) (end -1.7 1.65) (layer F.CrtYd) (width 0.05))
  (fp_line (start -1.7 1.65) (end 16.95 1.65) (layer F.CrtYd) (width 0.05))
  (fp_line (start 16.95 1.65) (end 16.95 -1.65) (layer F.CrtYd) (width 0.05))
  (fp_line (start 16.95 -1.65) (end -1.7 -1.65) (layer F.CrtYd) (width 0.05))
  (pad 1 thru_hole rect (at 0 0) (size 1.6 1.6) (drill 0.8) (layers *.Cu *.Mask))
  (pad 2 thru_hole oval (at 2.54 0) (size 1.6 1.6) (drill 0.8) (layers *.Cu *.Mask))
  (pad 3 thru_hole oval (at 5.08 0) (size 1.6 1.6) (drill 0.8) (layers *.Cu *.Mask))
  (pad 4 thru_hole oval (at 7.62 0) (size 1.6 1.6) (drill 0.8) (layers *.Cu *.Mask))
  (pad 5 thru_hole oval (at 10.16 0) (size 1.6 1.6) (drill 0.8) (layers *.Cu *.Mask))
  (pad 6 thru_hole oval (at 12.7 0) (size 1.6 1.6) (drill 0.8) (layers *.Cu *.Mask))
  (pad 7 thru_hole oval (at 15.24 0) (size 1.6 1.6) (drill 0.8) (layers *.Cu *.Mask))
  (model ${KIPRJMOD}/kicad_libs_k/models_k.3d/Resistor_THT_k.3dshapes/R_Array_SIP7_k.wrl
    (at (xyz 0 0 0))
    (scale (xyz 1 1 1))
    (rotate (xyz 0 0 0))
  )
)
