(module R_Axial_DIN0411_L9.9mm_D3.6mm_P7.62mm_Vertical (layer F.Cu) (tedit 5AE5139B)
  (descr "Resistor, Axial_DIN0411 series, Axial, Vertical, pin pitch=7.62mm, 1W, length*diameter=9.9*3.6mm^2")
  (tags "Resistor Axial_DIN0411 series Axial Vertical pin pitch 7.62mm 1W length 9.9mm diameter 3.6mm")
  (fp_text reference REF** (at 3.81 -2.92) (layer F.SilkS)
    (effects (font (size 1 1) (thickness 0.15)))
  )
  (fp_text value R_Axial_DIN0411_L9.9mm_D3.6mm_P7.62mm_Vertical (at 3.81 2.92) (layer F.Fab)
    (effects (font (size 1 1) (thickness 0.15)))
  )
  (fp_circle (center 0 0) (end 1.8 0) (layer F.Fab) (width 0.1))
  (fp_circle (center 0 0) (end 1.92 0) (layer F.SilkS) (width 0.12))
  (fp_line (start 0 0) (end 7.62 0) (layer F.Fab) (width 0.1))
  (fp_line (start 1.92 0) (end 6.12 0) (layer F.SilkS) (width 0.12))
  (fp_line (start -2.05 -2.05) (end -2.05 2.05) (layer F.CrtYd) (width 0.05))
  (fp_line (start -2.05 2.05) (end 9.07 2.05) (layer F.CrtYd) (width 0.05))
  (fp_line (start 9.07 2.05) (end 9.07 -2.05) (layer F.CrtYd) (width 0.05))
  (fp_line (start 9.07 -2.05) (end -2.05 -2.05) (layer F.CrtYd) (width 0.05))
  (pad 1 thru_hole circle (at 0 0) (size 2.4 2.4) (drill 1.2) (layers *.Cu *.Mask))
  (pad 2 thru_hole oval (at 7.62 0) (size 2.4 2.4) (drill 1.2) (layers *.Cu *.Mask))
  (fp_text user %R (at 3.81 -2.92) (layer F.Fab)
    (effects (font (size 1 1) (thickness 0.15)))
  )
  (model ${KIPRJMOD}/kicad_libs_k/models_k.3d/Resistor_THT_k.3dshapes/R_Axial_DIN0411_L9.9mm_D3.6mm_P7.62mm_Vertical_k.wrl
    (at (xyz 0 0 0))
    (scale (xyz 1 1 1))
    (rotate (xyz 0 0 0))
  )
)