(module R_Axial_Power_L60.0mm_W14.0mm_P66.04mm (layer F.Cu) (tedit 5AE5139B)
  (descr "Resistor, Axial_Power series, Box, pin pitch=66.04mm, 25W, length*width*height=60*14*14mm^3, http://cdn-reichelt.de/documents/datenblatt/B400/5WAXIAL_9WAXIAL_11WAXIAL_17WAXIAL%23YAG.pdf")
  (tags "Resistor Axial_Power series Box pin pitch 66.04mm 25W length 60mm width 14mm height 14mm")
  (fp_text reference REF** (at 33.02 -8.12) (layer F.SilkS)
    (effects (font (size 1 1) (thickness 0.15)))
  )
  (fp_text value R_Axial_Power_L60.0mm_W14.0mm_P66.04mm (at 33.02 8.12) (layer F.Fab)
    (effects (font (size 1 1) (thickness 0.15)))
  )
  (fp_line (start 3.02 -7) (end 3.02 7) (layer F.Fab) (width 0.1))
  (fp_line (start 3.02 7) (end 63.02 7) (layer F.Fab) (width 0.1))
  (fp_line (start 63.02 7) (end 63.02 -7) (layer F.Fab) (width 0.1))
  (fp_line (start 63.02 -7) (end 3.02 -7) (layer F.Fab) (width 0.1))
  (fp_line (start 0 0) (end 3.02 0) (layer F.Fab) (width 0.1))
  (fp_line (start 66.04 0) (end 63.02 0) (layer F.Fab) (width 0.1))
  (fp_line (start 2.9 -7.12) (end 2.9 7.12) (layer F.SilkS) (width 0.12))
  (fp_line (start 2.9 7.12) (end 63.14 7.12) (layer F.SilkS) (width 0.12))
  (fp_line (start 63.14 7.12) (end 63.14 -7.12) (layer F.SilkS) (width 0.12))
  (fp_line (start 63.14 -7.12) (end 2.9 -7.12) (layer F.SilkS) (width 0.12))
  (fp_line (start 1.44 0) (end 2.9 0) (layer F.SilkS) (width 0.12))
  (fp_line (start 64.6 0) (end 63.14 0) (layer F.SilkS) (width 0.12))
  (fp_line (start -1.45 -7.25) (end -1.45 7.25) (layer F.CrtYd) (width 0.05))
  (fp_line (start -1.45 7.25) (end 67.5 7.25) (layer F.CrtYd) (width 0.05))
  (fp_line (start 67.5 7.25) (end 67.5 -7.25) (layer F.CrtYd) (width 0.05))
  (fp_line (start 67.5 -7.25) (end -1.45 -7.25) (layer F.CrtYd) (width 0.05))
  (pad 1 thru_hole circle (at 0 0) (size 2.4 2.4) (drill 1.2) (layers *.Cu *.Mask))
  (pad 2 thru_hole oval (at 66.04 0) (size 2.4 2.4) (drill 1.2) (layers *.Cu *.Mask))
  (fp_text user %R (at 33.02 0) (layer F.Fab)
    (effects (font (size 1 1) (thickness 0.15)))
  )
  (model ${KIPRJMOD}/kicad_libs_k/models_k.3d/Resistor_THT_k.3dshapes/R_Axial_Power_L60.0mm_W14.0mm_P66.04mm_k.wrl
    (at (xyz 0 0 0))
    (scale (xyz 1 1 1))
    (rotate (xyz 0 0 0))
  )
)