(module R_Axial_DIN0614_L14.3mm_D5.7mm_P7.62mm_Vertical (layer F.Cu) (tedit 5AE5139B)
  (descr "Resistor, Axial_DIN0614 series, Axial, Vertical, pin pitch=7.62mm, 1.5W, length*diameter=14.3*5.7mm^2")
  (tags "Resistor Axial_DIN0614 series Axial Vertical pin pitch 7.62mm 1.5W length 14.3mm diameter 5.7mm")
  (fp_text reference REF** (at 3.81 -3.97) (layer F.SilkS)
    (effects (font (size 1 1) (thickness 0.15)))
  )
  (fp_text value R_Axial_DIN0614_L14.3mm_D5.7mm_P7.62mm_Vertical (at 3.81 3.97) (layer F.Fab)
    (effects (font (size 1 1) (thickness 0.15)))
  )
  (fp_circle (center 0 0) (end 2.85 0) (layer F.Fab) (width 0.1))
  (fp_circle (center 0 0) (end 2.97 0) (layer F.SilkS) (width 0.12))
  (fp_line (start 0 0) (end 7.62 0) (layer F.Fab) (width 0.1))
  (fp_line (start 2.97 0) (end 5.92 0) (layer F.SilkS) (width 0.12))
  (fp_line (start -3.1 -3.1) (end -3.1 3.1) (layer F.CrtYd) (width 0.05))
  (fp_line (start -3.1 3.1) (end 9.28 3.1) (layer F.CrtYd) (width 0.05))
  (fp_line (start 9.28 3.1) (end 9.28 -3.1) (layer F.CrtYd) (width 0.05))
  (fp_line (start 9.28 -3.1) (end -3.1 -3.1) (layer F.CrtYd) (width 0.05))
  (pad 1 thru_hole circle (at 0 0) (size 2.8 2.8) (drill 1.4) (layers *.Cu *.Mask))
  (pad 2 thru_hole oval (at 7.62 0) (size 2.8 2.8) (drill 1.4) (layers *.Cu *.Mask))
  (fp_text user %R (at 3.81 -3.97) (layer F.Fab)
    (effects (font (size 1 1) (thickness 0.15)))
  )
  (model ${KIPRJMOD}/kicad_libs_k/models_k.3d/Resistor_THT_k.3dshapes/R_Axial_DIN0614_L14.3mm_D5.7mm_P7.62mm_Vertical_k.wrl
    (at (xyz 0 0 0))
    (scale (xyz 1 1 1))
    (rotate (xyz 0 0 0))
  )
)