(module R_Axial_Power_L75.0mm_W9.0mm_P86.36mm (layer F.Cu) (tedit 5AE5139B)
  (descr "Resistor, Axial_Power series, Box, pin pitch=86.36mm, 17W, length*width*height=75*9*9mm^3, http://cdn-reichelt.de/documents/datenblatt/B400/5WAXIAL_9WAXIAL_11WAXIAL_17WAXIAL%23YAG.pdf")
  (tags "Resistor Axial_Power series Box pin pitch 86.36mm 17W length 75mm width 9mm height 9mm")
  (fp_text reference REF** (at 43.18 -5.62) (layer F.SilkS)
    (effects (font (size 1 1) (thickness 0.15)))
  )
  (fp_text value R_Axial_Power_L75.0mm_W9.0mm_P86.36mm (at 43.18 5.62) (layer F.Fab)
    (effects (font (size 1 1) (thickness 0.15)))
  )
  (fp_line (start 5.68 -4.5) (end 5.68 4.5) (layer F.Fab) (width 0.1))
  (fp_line (start 5.68 4.5) (end 80.68 4.5) (layer F.Fab) (width 0.1))
  (fp_line (start 80.68 4.5) (end 80.68 -4.5) (layer F.Fab) (width 0.1))
  (fp_line (start 80.68 -4.5) (end 5.68 -4.5) (layer F.Fab) (width 0.1))
  (fp_line (start 0 0) (end 5.68 0) (layer F.Fab) (width 0.1))
  (fp_line (start 86.36 0) (end 80.68 0) (layer F.Fab) (width 0.1))
  (fp_line (start 5.56 -4.62) (end 5.56 4.62) (layer F.SilkS) (width 0.12))
  (fp_line (start 5.56 4.62) (end 80.8 4.62) (layer F.SilkS) (width 0.12))
  (fp_line (start 80.8 4.62) (end 80.8 -4.62) (layer F.SilkS) (width 0.12))
  (fp_line (start 80.8 -4.62) (end 5.56 -4.62) (layer F.SilkS) (width 0.12))
  (fp_line (start 1.44 0) (end 5.56 0) (layer F.SilkS) (width 0.12))
  (fp_line (start 84.92 0) (end 80.8 0) (layer F.SilkS) (width 0.12))
  (fp_line (start -1.45 -4.75) (end -1.45 4.75) (layer F.CrtYd) (width 0.05))
  (fp_line (start -1.45 4.75) (end 87.81 4.75) (layer F.CrtYd) (width 0.05))
  (fp_line (start 87.81 4.75) (end 87.81 -4.75) (layer F.CrtYd) (width 0.05))
  (fp_line (start 87.81 -4.75) (end -1.45 -4.75) (layer F.CrtYd) (width 0.05))
  (pad 1 thru_hole circle (at 0 0) (size 2.4 2.4) (drill 1.2) (layers *.Cu *.Mask))
  (pad 2 thru_hole oval (at 86.36 0) (size 2.4 2.4) (drill 1.2) (layers *.Cu *.Mask))
  (fp_text user %R (at 43.18 0) (layer F.Fab)
    (effects (font (size 1 1) (thickness 0.15)))
  )
  (model ${KIPRJMOD}/kicad_libs_k/models_k.3d/Resistor_THT_k.3dshapes/R_Axial_Power_L75.0mm_W9.0mm_P86.36mm_k.wrl
    (at (xyz 0 0 0))
    (scale (xyz 1 1 1))
    (rotate (xyz 0 0 0))
  )
)