(module R_Axial_Power_L20.0mm_W6.4mm_P30.48mm (layer F.Cu) (tedit 5AE5139B)
  (descr "Resistor, Axial_Power series, Box, pin pitch=30.48mm, 4W, length*width*height=20*6.4*6.4mm^3, http://cdn-reichelt.de/documents/datenblatt/B400/5WAXIAL_9WAXIAL_11WAXIAL_17WAXIAL%23YAG.pdf")
  (tags "Resistor Axial_Power series Box pin pitch 30.48mm 4W length 20mm width 6.4mm height 6.4mm")
  (fp_text reference REF** (at 15.24 -4.32) (layer F.SilkS)
    (effects (font (size 1 1) (thickness 0.15)))
  )
  (fp_text value R_Axial_Power_L20.0mm_W6.4mm_P30.48mm (at 15.24 4.32) (layer F.Fab)
    (effects (font (size 1 1) (thickness 0.15)))
  )
  (fp_line (start 5.24 -3.2) (end 5.24 3.2) (layer F.Fab) (width 0.1))
  (fp_line (start 5.24 3.2) (end 25.24 3.2) (layer F.Fab) (width 0.1))
  (fp_line (start 25.24 3.2) (end 25.24 -3.2) (layer F.Fab) (width 0.1))
  (fp_line (start 25.24 -3.2) (end 5.24 -3.2) (layer F.Fab) (width 0.1))
  (fp_line (start 0 0) (end 5.24 0) (layer F.Fab) (width 0.1))
  (fp_line (start 30.48 0) (end 25.24 0) (layer F.Fab) (width 0.1))
  (fp_line (start 5.12 -3.32) (end 5.12 3.32) (layer F.SilkS) (width 0.12))
  (fp_line (start 5.12 3.32) (end 25.36 3.32) (layer F.SilkS) (width 0.12))
  (fp_line (start 25.36 3.32) (end 25.36 -3.32) (layer F.SilkS) (width 0.12))
  (fp_line (start 25.36 -3.32) (end 5.12 -3.32) (layer F.SilkS) (width 0.12))
  (fp_line (start 1.44 0) (end 5.12 0) (layer F.SilkS) (width 0.12))
  (fp_line (start 29.04 0) (end 25.36 0) (layer F.SilkS) (width 0.12))
  (fp_line (start -1.45 -3.45) (end -1.45 3.45) (layer F.CrtYd) (width 0.05))
  (fp_line (start -1.45 3.45) (end 31.94 3.45) (layer F.CrtYd) (width 0.05))
  (fp_line (start 31.94 3.45) (end 31.94 -3.45) (layer F.CrtYd) (width 0.05))
  (fp_line (start 31.94 -3.45) (end -1.45 -3.45) (layer F.CrtYd) (width 0.05))
  (pad 1 thru_hole circle (at 0 0) (size 2.4 2.4) (drill 1.2) (layers *.Cu *.Mask))
  (pad 2 thru_hole oval (at 30.48 0) (size 2.4 2.4) (drill 1.2) (layers *.Cu *.Mask))
  (fp_text user %R (at 15.24 0) (layer F.Fab)
    (effects (font (size 1 1) (thickness 0.15)))
  )
  (model ${KIPRJMOD}/kicad_libs_k/models_k.3d/Resistor_THT_k.3dshapes/R_Axial_Power_L20.0mm_W6.4mm_P30.48mm_k.wrl
    (at (xyz 0 0 0))
    (scale (xyz 1 1 1))
    (rotate (xyz 0 0 0))
  )
)