(module R_Axial_Power_L25.0mm_W6.4mm_P27.94mm (layer F.Cu) (tedit 5AE5139B)
  (descr "Resistor, Axial_Power series, Box, pin pitch=27.94mm, 5W, length*width*height=25*6.4*6.4mm^3, http://cdn-reichelt.de/documents/datenblatt/B400/5WAXIAL_9WAXIAL_11WAXIAL_17WAXIAL%23YAG.pdf")
  (tags "Resistor Axial_Power series Box pin pitch 27.94mm 5W length 25mm width 6.4mm height 6.4mm")
  (fp_text reference REF** (at 13.97 -4.32) (layer F.SilkS)
    (effects (font (size 1 1) (thickness 0.15)))
  )
  (fp_text value R_Axial_Power_L25.0mm_W6.4mm_P27.94mm (at 13.97 4.32) (layer F.Fab)
    (effects (font (size 1 1) (thickness 0.15)))
  )
  (fp_line (start 1.47 -3.2) (end 1.47 3.2) (layer F.Fab) (width 0.1))
  (fp_line (start 1.47 3.2) (end 26.47 3.2) (layer F.Fab) (width 0.1))
  (fp_line (start 26.47 3.2) (end 26.47 -3.2) (layer F.Fab) (width 0.1))
  (fp_line (start 26.47 -3.2) (end 1.47 -3.2) (layer F.Fab) (width 0.1))
  (fp_line (start 0 0) (end 1.47 0) (layer F.Fab) (width 0.1))
  (fp_line (start 27.94 0) (end 26.47 0) (layer F.Fab) (width 0.1))
  (fp_line (start 1.35 -1.44) (end 1.35 -3.32) (layer F.SilkS) (width 0.12))
  (fp_line (start 1.35 -3.32) (end 26.59 -3.32) (layer F.SilkS) (width 0.12))
  (fp_line (start 26.59 -3.32) (end 26.59 -1.44) (layer F.SilkS) (width 0.12))
  (fp_line (start 1.35 1.44) (end 1.35 3.32) (layer F.SilkS) (width 0.12))
  (fp_line (start 1.35 3.32) (end 26.59 3.32) (layer F.SilkS) (width 0.12))
  (fp_line (start 26.59 3.32) (end 26.59 1.44) (layer F.SilkS) (width 0.12))
  (fp_line (start -1.45 -3.45) (end -1.45 3.45) (layer F.CrtYd) (width 0.05))
  (fp_line (start -1.45 3.45) (end 29.39 3.45) (layer F.CrtYd) (width 0.05))
  (fp_line (start 29.39 3.45) (end 29.39 -3.45) (layer F.CrtYd) (width 0.05))
  (fp_line (start 29.39 -3.45) (end -1.45 -3.45) (layer F.CrtYd) (width 0.05))
  (pad 1 thru_hole circle (at 0 0) (size 2.4 2.4) (drill 1.2) (layers *.Cu *.Mask))
  (pad 2 thru_hole oval (at 27.94 0) (size 2.4 2.4) (drill 1.2) (layers *.Cu *.Mask))
  (fp_text user %R (at 13.97 0) (layer F.Fab)
    (effects (font (size 1 1) (thickness 0.15)))
  )
  (model ${KIPRJMOD}/kicad_libs_k/models_k.3d/Resistor_THT_k.3dshapes/R_Axial_Power_L25.0mm_W6.4mm_P27.94mm_k.wrl
    (at (xyz 0 0 0))
    (scale (xyz 1 1 1))
    (rotate (xyz 0 0 0))
  )
)