(module PinSocket_2x08_P2.54mm_Vertical_SMD (layer F.Cu) (tedit 5A19A42E)
  (descr "surface-mounted straight socket strip, 2x08, 2.54mm pitch, double cols (from Kicad 4.0.7), script generated")
  (tags "Surface mounted socket strip SMD 2x08 2.54mm double row")
  (attr smd)
  (fp_text reference REF** (at 0 -11.66) (layer F.SilkS)
    (effects (font (size 1 1) (thickness 0.15)))
  )
  (fp_text value PinSocket_2x08_P2.54mm_Vertical_SMD (at 0 11.66) (layer F.Fab)
    (effects (font (size 1 1) (thickness 0.15)))
  )
  (fp_line (start -2.6 -10.22) (end 2.6 -10.22) (layer F.SilkS) (width 0.12))
  (fp_line (start 2.6 -10.22) (end 2.6 -9.65) (layer F.SilkS) (width 0.12))
  (fp_line (start 2.6 -8.13) (end 2.6 -7.11) (layer F.SilkS) (width 0.12))
  (fp_line (start 2.6 -5.59) (end 2.6 -4.57) (layer F.SilkS) (width 0.12))
  (fp_line (start 2.6 -3.05) (end 2.6 -2.03) (layer F.SilkS) (width 0.12))
  (fp_line (start 2.6 -0.51) (end 2.6 0.51) (layer F.SilkS) (width 0.12))
  (fp_line (start 2.6 2.03) (end 2.6 3.05) (layer F.SilkS) (width 0.12))
  (fp_line (start 2.6 4.57) (end 2.6 5.59) (layer F.SilkS) (width 0.12))
  (fp_line (start 2.6 7.11) (end 2.6 8.13) (layer F.SilkS) (width 0.12))
  (fp_line (start 2.6 9.65) (end 2.6 10.22) (layer F.SilkS) (width 0.12))
  (fp_line (start -2.6 10.22) (end 2.6 10.22) (layer F.SilkS) (width 0.12))
  (fp_line (start -2.6 -10.22) (end -2.6 -9.65) (layer F.SilkS) (width 0.12))
  (fp_line (start -2.6 -8.13) (end -2.6 -7.11) (layer F.SilkS) (width 0.12))
  (fp_line (start -2.6 -5.59) (end -2.6 -4.57) (layer F.SilkS) (width 0.12))
  (fp_line (start -2.6 -3.05) (end -2.6 -2.03) (layer F.SilkS) (width 0.12))
  (fp_line (start -2.6 -0.51) (end -2.6 0.51) (layer F.SilkS) (width 0.12))
  (fp_line (start -2.6 2.03) (end -2.6 3.05) (layer F.SilkS) (width 0.12))
  (fp_line (start -2.6 4.57) (end -2.6 5.59) (layer F.SilkS) (width 0.12))
  (fp_line (start -2.6 7.11) (end -2.6 8.13) (layer F.SilkS) (width 0.12))
  (fp_line (start -2.6 9.65) (end -2.6 10.22) (layer F.SilkS) (width 0.12))
  (fp_line (start 2.6 -9.65) (end 3.96 -9.65) (layer F.SilkS) (width 0.12))
  (fp_line (start -2.54 -10.16) (end 1.54 -10.16) (layer F.Fab) (width 0.1))
  (fp_line (start 1.54 -10.16) (end 2.54 -9.16) (layer F.Fab) (width 0.1))
  (fp_line (start 2.54 -9.16) (end 2.54 10.16) (layer F.Fab) (width 0.1))
  (fp_line (start 2.54 10.16) (end -2.54 10.16) (layer F.Fab) (width 0.1))
  (fp_line (start -2.54 10.16) (end -2.54 -10.16) (layer F.Fab) (width 0.1))
  (fp_line (start -3.92 -9.21) (end -2.54 -9.21) (layer F.Fab) (width 0.1))
  (fp_line (start -2.54 -8.57) (end -3.92 -8.57) (layer F.Fab) (width 0.1))
  (fp_line (start -3.92 -8.57) (end -3.92 -9.21) (layer F.Fab) (width 0.1))
  (fp_line (start 2.54 -9.21) (end 3.92 -9.21) (layer F.Fab) (width 0.1))
  (fp_line (start 3.92 -9.21) (end 3.92 -8.57) (layer F.Fab) (width 0.1))
  (fp_line (start 3.92 -8.57) (end 2.54 -8.57) (layer F.Fab) (width 0.1))
  (fp_line (start -3.92 -6.67) (end -2.54 -6.67) (layer F.Fab) (width 0.1))
  (fp_line (start -2.54 -6.03) (end -3.92 -6.03) (layer F.Fab) (width 0.1))
  (fp_line (start -3.92 -6.03) (end -3.92 -6.67) (layer F.Fab) (width 0.1))
  (fp_line (start 2.54 -6.67) (end 3.92 -6.67) (layer F.Fab) (width 0.1))
  (fp_line (start 3.92 -6.67) (end 3.92 -6.03) (layer F.Fab) (width 0.1))
  (fp_line (start 3.92 -6.03) (end 2.54 -6.03) (layer F.Fab) (width 0.1))
  (fp_line (start -3.92 -4.13) (end -2.54 -4.13) (layer F.Fab) (width 0.1))
  (fp_line (start -2.54 -3.49) (end -3.92 -3.49) (layer F.Fab) (width 0.1))
  (fp_line (start -3.92 -3.49) (end -3.92 -4.13) (layer F.Fab) (width 0.1))
  (fp_line (start 2.54 -4.13) (end 3.92 -4.13) (layer F.Fab) (width 0.1))
  (fp_line (start 3.92 -4.13) (end 3.92 -3.49) (layer F.Fab) (width 0.1))
  (fp_line (start 3.92 -3.49) (end 2.54 -3.49) (layer F.Fab) (width 0.1))
  (fp_line (start -3.92 -1.59) (end -2.54 -1.59) (layer F.Fab) (width 0.1))
  (fp_line (start -2.54 -0.95) (end -3.92 -0.95) (layer F.Fab) (width 0.1))
  (fp_line (start -3.92 -0.95) (end -3.92 -1.59) (layer F.Fab) (width 0.1))
  (fp_line (start 2.54 -1.59) (end 3.92 -1.59) (layer F.Fab) (width 0.1))
  (fp_line (start 3.92 -1.59) (end 3.92 -0.95) (layer F.Fab) (width 0.1))
  (fp_line (start 3.92 -0.95) (end 2.54 -0.95) (layer F.Fab) (width 0.1))
  (fp_line (start -3.92 0.95) (end -2.54 0.95) (layer F.Fab) (width 0.1))
  (fp_line (start -2.54 1.59) (end -3.92 1.59) (layer F.Fab) (width 0.1))
  (fp_line (start -3.92 1.59) (end -3.92 0.95) (layer F.Fab) (width 0.1))
  (fp_line (start 2.54 0.95) (end 3.92 0.95) (layer F.Fab) (width 0.1))
  (fp_line (start 3.92 0.95) (end 3.92 1.59) (layer F.Fab) (width 0.1))
  (fp_line (start 3.92 1.59) (end 2.54 1.59) (layer F.Fab) (width 0.1))
  (fp_line (start -3.92 3.49) (end -2.54 3.49) (layer F.Fab) (width 0.1))
  (fp_line (start -2.54 4.13) (end -3.92 4.13) (layer F.Fab) (width 0.1))
  (fp_line (start -3.92 4.13) (end -3.92 3.49) (layer F.Fab) (width 0.1))
  (fp_line (start 2.54 3.49) (end 3.92 3.49) (layer F.Fab) (width 0.1))
  (fp_line (start 3.92 3.49) (end 3.92 4.13) (layer F.Fab) (width 0.1))
  (fp_line (start 3.92 4.13) (end 2.54 4.13) (layer F.Fab) (width 0.1))
  (fp_line (start -3.92 6.03) (end -2.54 6.03) (layer F.Fab) (width 0.1))
  (fp_line (start -2.54 6.67) (end -3.92 6.67) (layer F.Fab) (width 0.1))
  (fp_line (start -3.92 6.67) (end -3.92 6.03) (layer F.Fab) (width 0.1))
  (fp_line (start 2.54 6.03) (end 3.92 6.03) (layer F.Fab) (width 0.1))
  (fp_line (start 3.92 6.03) (end 3.92 6.67) (layer F.Fab) (width 0.1))
  (fp_line (start 3.92 6.67) (end 2.54 6.67) (layer F.Fab) (width 0.1))
  (fp_line (start -3.92 8.57) (end -2.54 8.57) (layer F.Fab) (width 0.1))
  (fp_line (start -2.54 9.21) (end -3.92 9.21) (layer F.Fab) (width 0.1))
  (fp_line (start -3.92 9.21) (end -3.92 8.57) (layer F.Fab) (width 0.1))
  (fp_line (start 2.54 8.57) (end 3.92 8.57) (layer F.Fab) (width 0.1))
  (fp_line (start 3.92 8.57) (end 3.92 9.21) (layer F.Fab) (width 0.1))
  (fp_line (start 3.92 9.21) (end 2.54 9.21) (layer F.Fab) (width 0.1))
  (fp_line (start -4.55 -10.7) (end 4.5 -10.7) (layer F.CrtYd) (width 0.05))
  (fp_line (start 4.5 -10.7) (end 4.5 10.65) (layer F.CrtYd) (width 0.05))
  (fp_line (start 4.5 10.65) (end -4.55 10.65) (layer F.CrtYd) (width 0.05))
  (fp_line (start -4.55 10.65) (end -4.55 -10.7) (layer F.CrtYd) (width 0.05))
  (pad 1 smd rect (at 2.52 -8.89) (size 3 1) (layers F.Cu F.Mask F.Paste))
  (pad 2 smd rect (at -2.52 -8.89) (size 3 1) (layers F.Cu F.Mask F.Paste))
  (pad 3 smd rect (at 2.52 -6.35) (size 3 1) (layers F.Cu F.Mask F.Paste))
  (pad 4 smd rect (at -2.52 -6.35) (size 3 1) (layers F.Cu F.Mask F.Paste))
  (pad 5 smd rect (at 2.52 -3.81) (size 3 1) (layers F.Cu F.Mask F.Paste))
  (pad 6 smd rect (at -2.52 -3.81) (size 3 1) (layers F.Cu F.Mask F.Paste))
  (pad 7 smd rect (at 2.52 -1.27) (size 3 1) (layers F.Cu F.Mask F.Paste))
  (pad 8 smd rect (at -2.52 -1.27) (size 3 1) (layers F.Cu F.Mask F.Paste))
  (pad 9 smd rect (at 2.52 1.27) (size 3 1) (layers F.Cu F.Mask F.Paste))
  (pad 10 smd rect (at -2.52 1.27) (size 3 1) (layers F.Cu F.Mask F.Paste))
  (pad 11 smd rect (at 2.52 3.81) (size 3 1) (layers F.Cu F.Mask F.Paste))
  (pad 12 smd rect (at -2.52 3.81) (size 3 1) (layers F.Cu F.Mask F.Paste))
  (pad 13 smd rect (at 2.52 6.35) (size 3 1) (layers F.Cu F.Mask F.Paste))
  (pad 14 smd rect (at -2.52 6.35) (size 3 1) (layers F.Cu F.Mask F.Paste))
  (pad 15 smd rect (at 2.52 8.89) (size 3 1) (layers F.Cu F.Mask F.Paste))
  (pad 16 smd rect (at -2.52 8.89) (size 3 1) (layers F.Cu F.Mask F.Paste))
  (fp_text user %R (at 0 0 90) (layer F.Fab)
    (effects (font (size 1 1) (thickness 0.15)))
  )
  (model ${KIPRJMOD}/kicad_libs_k/models_k.3d/Connector_PinSocket_2.54mm_k.3dshapes/PinSocket_2x08_P2.54mm_Vertical_SMD_k.wrl
    (at (xyz 0 0 0))
    (scale (xyz 1 1 1))
    (rotate (xyz 0 0 0))
  )
)