(module PinSocket_2x35_P2.54mm_Horizontal (layer F.Cu) (tedit 5A19A41C)
  (descr "Through hole angled socket strip, 2x35, 2.54mm pitch, 8.51mm socket length, double cols (from Kicad 4.0.7), script generated")
  (tags "Through hole angled socket strip THT 2x35 2.54mm double row")
  (fp_text reference REF** (at -5.65 -2.77) (layer F.SilkS)
    (effects (font (size 1 1) (thickness 0.15)))
  )
  (fp_text value PinSocket_2x35_P2.54mm_Horizontal (at -5.65 89.13) (layer F.Fab)
    (effects (font (size 1 1) (thickness 0.15)))
  )
  (fp_line (start -12.57 -1.27) (end -5.03 -1.27) (layer F.Fab) (width 0.1))
  (fp_line (start -5.03 -1.27) (end -4.06 -0.3) (layer F.Fab) (width 0.1))
  (fp_line (start -4.06 -0.3) (end -4.06 87.63) (layer F.Fab) (width 0.1))
  (fp_line (start -4.06 87.63) (end -12.57 87.63) (layer F.Fab) (width 0.1))
  (fp_line (start -12.57 87.63) (end -12.57 -1.27) (layer F.Fab) (width 0.1))
  (fp_line (start 0 -0.3) (end -4.06 -0.3) (layer F.Fab) (width 0.1))
  (fp_line (start -4.06 0.3) (end 0 0.3) (layer F.Fab) (width 0.1))
  (fp_line (start 0 0.3) (end 0 -0.3) (layer F.Fab) (width 0.1))
  (fp_line (start 0 2.24) (end -4.06 2.24) (layer F.Fab) (width 0.1))
  (fp_line (start -4.06 2.84) (end 0 2.84) (layer F.Fab) (width 0.1))
  (fp_line (start 0 2.84) (end 0 2.24) (layer F.Fab) (width 0.1))
  (fp_line (start 0 4.78) (end -4.06 4.78) (layer F.Fab) (width 0.1))
  (fp_line (start -4.06 5.38) (end 0 5.38) (layer F.Fab) (width 0.1))
  (fp_line (start 0 5.38) (end 0 4.78) (layer F.Fab) (width 0.1))
  (fp_line (start 0 7.32) (end -4.06 7.32) (layer F.Fab) (width 0.1))
  (fp_line (start -4.06 7.92) (end 0 7.92) (layer F.Fab) (width 0.1))
  (fp_line (start 0 7.92) (end 0 7.32) (layer F.Fab) (width 0.1))
  (fp_line (start 0 9.86) (end -4.06 9.86) (layer F.Fab) (width 0.1))
  (fp_line (start -4.06 10.46) (end 0 10.46) (layer F.Fab) (width 0.1))
  (fp_line (start 0 10.46) (end 0 9.86) (layer F.Fab) (width 0.1))
  (fp_line (start 0 12.4) (end -4.06 12.4) (layer F.Fab) (width 0.1))
  (fp_line (start -4.06 13) (end 0 13) (layer F.Fab) (width 0.1))
  (fp_line (start 0 13) (end 0 12.4) (layer F.Fab) (width 0.1))
  (fp_line (start 0 14.94) (end -4.06 14.94) (layer F.Fab) (width 0.1))
  (fp_line (start -4.06 15.54) (end 0 15.54) (layer F.Fab) (width 0.1))
  (fp_line (start 0 15.54) (end 0 14.94) (layer F.Fab) (width 0.1))
  (fp_line (start 0 17.48) (end -4.06 17.48) (layer F.Fab) (width 0.1))
  (fp_line (start -4.06 18.08) (end 0 18.08) (layer F.Fab) (width 0.1))
  (fp_line (start 0 18.08) (end 0 17.48) (layer F.Fab) (width 0.1))
  (fp_line (start 0 20.02) (end -4.06 20.02) (layer F.Fab) (width 0.1))
  (fp_line (start -4.06 20.62) (end 0 20.62) (layer F.Fab) (width 0.1))
  (fp_line (start 0 20.62) (end 0 20.02) (layer F.Fab) (width 0.1))
  (fp_line (start 0 22.56) (end -4.06 22.56) (layer F.Fab) (width 0.1))
  (fp_line (start -4.06 23.16) (end 0 23.16) (layer F.Fab) (width 0.1))
  (fp_line (start 0 23.16) (end 0 22.56) (layer F.Fab) (width 0.1))
  (fp_line (start 0 25.1) (end -4.06 25.1) (layer F.Fab) (width 0.1))
  (fp_line (start -4.06 25.7) (end 0 25.7) (layer F.Fab) (width 0.1))
  (fp_line (start 0 25.7) (end 0 25.1) (layer F.Fab) (width 0.1))
  (fp_line (start 0 27.64) (end -4.06 27.64) (layer F.Fab) (width 0.1))
  (fp_line (start -4.06 28.24) (end 0 28.24) (layer F.Fab) (width 0.1))
  (fp_line (start 0 28.24) (end 0 27.64) (layer F.Fab) (width 0.1))
  (fp_line (start 0 30.18) (end -4.06 30.18) (layer F.Fab) (width 0.1))
  (fp_line (start -4.06 30.78) (end 0 30.78) (layer F.Fab) (width 0.1))
  (fp_line (start 0 30.78) (end 0 30.18) (layer F.Fab) (width 0.1))
  (fp_line (start 0 32.72) (end -4.06 32.72) (layer F.Fab) (width 0.1))
  (fp_line (start -4.06 33.32) (end 0 33.32) (layer F.Fab) (width 0.1))
  (fp_line (start 0 33.32) (end 0 32.72) (layer F.Fab) (width 0.1))
  (fp_line (start 0 35.26) (end -4.06 35.26) (layer F.Fab) (width 0.1))
  (fp_line (start -4.06 35.86) (end 0 35.86) (layer F.Fab) (width 0.1))
  (fp_line (start 0 35.86) (end 0 35.26) (layer F.Fab) (width 0.1))
  (fp_line (start 0 37.8) (end -4.06 37.8) (layer F.Fab) (width 0.1))
  (fp_line (start -4.06 38.4) (end 0 38.4) (layer F.Fab) (width 0.1))
  (fp_line (start 0 38.4) (end 0 37.8) (layer F.Fab) (width 0.1))
  (fp_line (start 0 40.34) (end -4.06 40.34) (layer F.Fab) (width 0.1))
  (fp_line (start -4.06 40.94) (end 0 40.94) (layer F.Fab) (width 0.1))
  (fp_line (start 0 40.94) (end 0 40.34) (layer F.Fab) (width 0.1))
  (fp_line (start 0 42.88) (end -4.06 42.88) (layer F.Fab) (width 0.1))
  (fp_line (start -4.06 43.48) (end 0 43.48) (layer F.Fab) (width 0.1))
  (fp_line (start 0 43.48) (end 0 42.88) (layer F.Fab) (width 0.1))
  (fp_line (start 0 45.42) (end -4.06 45.42) (layer F.Fab) (width 0.1))
  (fp_line (start -4.06 46.02) (end 0 46.02) (layer F.Fab) (width 0.1))
  (fp_line (start 0 46.02) (end 0 45.42) (layer F.Fab) (width 0.1))
  (fp_line (start 0 47.96) (end -4.06 47.96) (layer F.Fab) (width 0.1))
  (fp_line (start -4.06 48.56) (end 0 48.56) (layer F.Fab) (width 0.1))
  (fp_line (start 0 48.56) (end 0 47.96) (layer F.Fab) (width 0.1))
  (fp_line (start 0 50.5) (end -4.06 50.5) (layer F.Fab) (width 0.1))
  (fp_line (start -4.06 51.1) (end 0 51.1) (layer F.Fab) (width 0.1))
  (fp_line (start 0 51.1) (end 0 50.5) (layer F.Fab) (width 0.1))
  (fp_line (start 0 53.04) (end -4.06 53.04) (layer F.Fab) (width 0.1))
  (fp_line (start -4.06 53.64) (end 0 53.64) (layer F.Fab) (width 0.1))
  (fp_line (start 0 53.64) (end 0 53.04) (layer F.Fab) (width 0.1))
  (fp_line (start 0 55.58) (end -4.06 55.58) (layer F.Fab) (width 0.1))
  (fp_line (start -4.06 56.18) (end 0 56.18) (layer F.Fab) (width 0.1))
  (fp_line (start 0 56.18) (end 0 55.58) (layer F.Fab) (width 0.1))
  (fp_line (start 0 58.12) (end -4.06 58.12) (layer F.Fab) (width 0.1))
  (fp_line (start -4.06 58.72) (end 0 58.72) (layer F.Fab) (width 0.1))
  (fp_line (start 0 58.72) (end 0 58.12) (layer F.Fab) (width 0.1))
  (fp_line (start 0 60.66) (end -4.06 60.66) (layer F.Fab) (width 0.1))
  (fp_line (start -4.06 61.26) (end 0 61.26) (layer F.Fab) (width 0.1))
  (fp_line (start 0 61.26) (end 0 60.66) (layer F.Fab) (width 0.1))
  (fp_line (start 0 63.2) (end -4.06 63.2) (layer F.Fab) (width 0.1))
  (fp_line (start -4.06 63.8) (end 0 63.8) (layer F.Fab) (width 0.1))
  (fp_line (start 0 63.8) (end 0 63.2) (layer F.Fab) (width 0.1))
  (fp_line (start 0 65.74) (end -4.06 65.74) (layer F.Fab) (width 0.1))
  (fp_line (start -4.06 66.34) (end 0 66.34) (layer F.Fab) (width 0.1))
  (fp_line (start 0 66.34) (end 0 65.74) (layer F.Fab) (width 0.1))
  (fp_line (start 0 68.28) (end -4.06 68.28) (layer F.Fab) (width 0.1))
  (fp_line (start -4.06 68.88) (end 0 68.88) (layer F.Fab) (width 0.1))
  (fp_line (start 0 68.88) (end 0 68.28) (layer F.Fab) (width 0.1))
  (fp_line (start 0 70.82) (end -4.06 70.82) (layer F.Fab) (width 0.1))
  (fp_line (start -4.06 71.42) (end 0 71.42) (layer F.Fab) (width 0.1))
  (fp_line (start 0 71.42) (end 0 70.82) (layer F.Fab) (width 0.1))
  (fp_line (start 0 73.36) (end -4.06 73.36) (layer F.Fab) (width 0.1))
  (fp_line (start -4.06 73.96) (end 0 73.96) (layer F.Fab) (width 0.1))
  (fp_line (start 0 73.96) (end 0 73.36) (layer F.Fab) (width 0.1))
  (fp_line (start 0 75.9) (end -4.06 75.9) (layer F.Fab) (width 0.1))
  (fp_line (start -4.06 76.5) (end 0 76.5) (layer F.Fab) (width 0.1))
  (fp_line (start 0 76.5) (end 0 75.9) (layer F.Fab) (width 0.1))
  (fp_line (start 0 78.44) (end -4.06 78.44) (layer F.Fab) (width 0.1))
  (fp_line (start -4.06 79.04) (end 0 79.04) (layer F.Fab) (width 0.1))
  (fp_line (start 0 79.04) (end 0 78.44) (layer F.Fab) (width 0.1))
  (fp_line (start 0 80.98) (end -4.06 80.98) (layer F.Fab) (width 0.1))
  (fp_line (start -4.06 81.58) (end 0 81.58) (layer F.Fab) (width 0.1))
  (fp_line (start 0 81.58) (end 0 80.98) (layer F.Fab) (width 0.1))
  (fp_line (start 0 83.52) (end -4.06 83.52) (layer F.Fab) (width 0.1))
  (fp_line (start -4.06 84.12) (end 0 84.12) (layer F.Fab) (width 0.1))
  (fp_line (start 0 84.12) (end 0 83.52) (layer F.Fab) (width 0.1))
  (fp_line (start 0 86.06) (end -4.06 86.06) (layer F.Fab) (width 0.1))
  (fp_line (start -4.06 86.66) (end 0 86.66) (layer F.Fab) (width 0.1))
  (fp_line (start 0 86.66) (end 0 86.06) (layer F.Fab) (width 0.1))
  (fp_line (start -12.63 -1.21) (end -4 -1.21) (layer F.SilkS) (width 0.12))
  (fp_line (start -12.63 -1.091905) (end -4 -1.091905) (layer F.SilkS) (width 0.12))
  (fp_line (start -12.63 -0.97381) (end -4 -0.97381) (layer F.SilkS) (width 0.12))
  (fp_line (start -12.63 -0.855715) (end -4 -0.855715) (layer F.SilkS) (width 0.12))
  (fp_line (start -12.63 -0.73762) (end -4 -0.73762) (layer F.SilkS) (width 0.12))
  (fp_line (start -12.63 -0.619525) (end -4 -0.619525) (layer F.SilkS) (width 0.12))
  (fp_line (start -12.63 -0.50143) (end -4 -0.50143) (layer F.SilkS) (width 0.12))
  (fp_line (start -12.63 -0.383335) (end -4 -0.383335) (layer F.SilkS) (width 0.12))
  (fp_line (start -12.63 -0.26524) (end -4 -0.26524) (layer F.SilkS) (width 0.12))
  (fp_line (start -12.63 -0.147145) (end -4 -0.147145) (layer F.SilkS) (width 0.12))
  (fp_line (start -12.63 -0.02905) (end -4 -0.02905) (layer F.SilkS) (width 0.12))
  (fp_line (start -12.63 0.089045) (end -4 0.089045) (layer F.SilkS) (width 0.12))
  (fp_line (start -12.63 0.20714) (end -4 0.20714) (layer F.SilkS) (width 0.12))
  (fp_line (start -12.63 0.325235) (end -4 0.325235) (layer F.SilkS) (width 0.12))
  (fp_line (start -12.63 0.44333) (end -4 0.44333) (layer F.SilkS) (width 0.12))
  (fp_line (start -12.63 0.561425) (end -4 0.561425) (layer F.SilkS) (width 0.12))
  (fp_line (start -12.63 0.67952) (end -4 0.67952) (layer F.SilkS) (width 0.12))
  (fp_line (start -12.63 0.797615) (end -4 0.797615) (layer F.SilkS) (width 0.12))
  (fp_line (start -12.63 0.91571) (end -4 0.91571) (layer F.SilkS) (width 0.12))
  (fp_line (start -12.63 1.033805) (end -4 1.033805) (layer F.SilkS) (width 0.12))
  (fp_line (start -12.63 1.1519) (end -4 1.1519) (layer F.SilkS) (width 0.12))
  (fp_line (start -4 -0.36) (end -3.59 -0.36) (layer F.SilkS) (width 0.12))
  (fp_line (start -1.49 -0.36) (end -1.11 -0.36) (layer F.SilkS) (width 0.12))
  (fp_line (start -4 0.36) (end -3.59 0.36) (layer F.SilkS) (width 0.12))
  (fp_line (start -1.49 0.36) (end -1.11 0.36) (layer F.SilkS) (width 0.12))
  (fp_line (start -4 2.18) (end -3.59 2.18) (layer F.SilkS) (width 0.12))
  (fp_line (start -1.49 2.18) (end -1.05 2.18) (layer F.SilkS) (width 0.12))
  (fp_line (start -4 2.9) (end -3.59 2.9) (layer F.SilkS) (width 0.12))
  (fp_line (start -1.49 2.9) (end -1.05 2.9) (layer F.SilkS) (width 0.12))
  (fp_line (start -4 4.72) (end -3.59 4.72) (layer F.SilkS) (width 0.12))
  (fp_line (start -1.49 4.72) (end -1.05 4.72) (layer F.SilkS) (width 0.12))
  (fp_line (start -4 5.44) (end -3.59 5.44) (layer F.SilkS) (width 0.12))
  (fp_line (start -1.49 5.44) (end -1.05 5.44) (layer F.SilkS) (width 0.12))
  (fp_line (start -4 7.26) (end -3.59 7.26) (layer F.SilkS) (width 0.12))
  (fp_line (start -1.49 7.26) (end -1.05 7.26) (layer F.SilkS) (width 0.12))
  (fp_line (start -4 7.98) (end -3.59 7.98) (layer F.SilkS) (width 0.12))
  (fp_line (start -1.49 7.98) (end -1.05 7.98) (layer F.SilkS) (width 0.12))
  (fp_line (start -4 9.8) (end -3.59 9.8) (layer F.SilkS) (width 0.12))
  (fp_line (start -1.49 9.8) (end -1.05 9.8) (layer F.SilkS) (width 0.12))
  (fp_line (start -4 10.52) (end -3.59 10.52) (layer F.SilkS) (width 0.12))
  (fp_line (start -1.49 10.52) (end -1.05 10.52) (layer F.SilkS) (width 0.12))
  (fp_line (start -4 12.34) (end -3.59 12.34) (layer F.SilkS) (width 0.12))
  (fp_line (start -1.49 12.34) (end -1.05 12.34) (layer F.SilkS) (width 0.12))
  (fp_line (start -4 13.06) (end -3.59 13.06) (layer F.SilkS) (width 0.12))
  (fp_line (start -1.49 13.06) (end -1.05 13.06) (layer F.SilkS) (width 0.12))
  (fp_line (start -4 14.88) (end -3.59 14.88) (layer F.SilkS) (width 0.12))
  (fp_line (start -1.49 14.88) (end -1.05 14.88) (layer F.SilkS) (width 0.12))
  (fp_line (start -4 15.6) (end -3.59 15.6) (layer F.SilkS) (width 0.12))
  (fp_line (start -1.49 15.6) (end -1.05 15.6) (layer F.SilkS) (width 0.12))
  (fp_line (start -4 17.42) (end -3.59 17.42) (layer F.SilkS) (width 0.12))
  (fp_line (start -1.49 17.42) (end -1.05 17.42) (layer F.SilkS) (width 0.12))
  (fp_line (start -4 18.14) (end -3.59 18.14) (layer F.SilkS) (width 0.12))
  (fp_line (start -1.49 18.14) (end -1.05 18.14) (layer F.SilkS) (width 0.12))
  (fp_line (start -4 19.96) (end -3.59 19.96) (layer F.SilkS) (width 0.12))
  (fp_line (start -1.49 19.96) (end -1.05 19.96) (layer F.SilkS) (width 0.12))
  (fp_line (start -4 20.68) (end -3.59 20.68) (layer F.SilkS) (width 0.12))
  (fp_line (start -1.49 20.68) (end -1.05 20.68) (layer F.SilkS) (width 0.12))
  (fp_line (start -4 22.5) (end -3.59 22.5) (layer F.SilkS) (width 0.12))
  (fp_line (start -1.49 22.5) (end -1.05 22.5) (layer F.SilkS) (width 0.12))
  (fp_line (start -4 23.22) (end -3.59 23.22) (layer F.SilkS) (width 0.12))
  (fp_line (start -1.49 23.22) (end -1.05 23.22) (layer F.SilkS) (width 0.12))
  (fp_line (start -4 25.04) (end -3.59 25.04) (layer F.SilkS) (width 0.12))
  (fp_line (start -1.49 25.04) (end -1.05 25.04) (layer F.SilkS) (width 0.12))
  (fp_line (start -4 25.76) (end -3.59 25.76) (layer F.SilkS) (width 0.12))
  (fp_line (start -1.49 25.76) (end -1.05 25.76) (layer F.SilkS) (width 0.12))
  (fp_line (start -4 27.58) (end -3.59 27.58) (layer F.SilkS) (width 0.12))
  (fp_line (start -1.49 27.58) (end -1.05 27.58) (layer F.SilkS) (width 0.12))
  (fp_line (start -4 28.3) (end -3.59 28.3) (layer F.SilkS) (width 0.12))
  (fp_line (start -1.49 28.3) (end -1.05 28.3) (layer F.SilkS) (width 0.12))
  (fp_line (start -4 30.12) (end -3.59 30.12) (layer F.SilkS) (width 0.12))
  (fp_line (start -1.49 30.12) (end -1.05 30.12) (layer F.SilkS) (width 0.12))
  (fp_line (start -4 30.84) (end -3.59 30.84) (layer F.SilkS) (width 0.12))
  (fp_line (start -1.49 30.84) (end -1.05 30.84) (layer F.SilkS) (width 0.12))
  (fp_line (start -4 32.66) (end -3.59 32.66) (layer F.SilkS) (width 0.12))
  (fp_line (start -1.49 32.66) (end -1.05 32.66) (layer F.SilkS) (width 0.12))
  (fp_line (start -4 33.38) (end -3.59 33.38) (layer F.SilkS) (width 0.12))
  (fp_line (start -1.49 33.38) (end -1.05 33.38) (layer F.SilkS) (width 0.12))
  (fp_line (start -4 35.2) (end -3.59 35.2) (layer F.SilkS) (width 0.12))
  (fp_line (start -1.49 35.2) (end -1.05 35.2) (layer F.SilkS) (width 0.12))
  (fp_line (start -4 35.92) (end -3.59 35.92) (layer F.SilkS) (width 0.12))
  (fp_line (start -1.49 35.92) (end -1.05 35.92) (layer F.SilkS) (width 0.12))
  (fp_line (start -4 37.74) (end -3.59 37.74) (layer F.SilkS) (width 0.12))
  (fp_line (start -1.49 37.74) (end -1.05 37.74) (layer F.SilkS) (width 0.12))
  (fp_line (start -4 38.46) (end -3.59 38.46) (layer F.SilkS) (width 0.12))
  (fp_line (start -1.49 38.46) (end -1.05 38.46) (layer F.SilkS) (width 0.12))
  (fp_line (start -4 40.28) (end -3.59 40.28) (layer F.SilkS) (width 0.12))
  (fp_line (start -1.49 40.28) (end -1.05 40.28) (layer F.SilkS) (width 0.12))
  (fp_line (start -4 41) (end -3.59 41) (layer F.SilkS) (width 0.12))
  (fp_line (start -1.49 41) (end -1.05 41) (layer F.SilkS) (width 0.12))
  (fp_line (start -4 42.82) (end -3.59 42.82) (layer F.SilkS) (width 0.12))
  (fp_line (start -1.49 42.82) (end -1.05 42.82) (layer F.SilkS) (width 0.12))
  (fp_line (start -4 43.54) (end -3.59 43.54) (layer F.SilkS) (width 0.12))
  (fp_line (start -1.49 43.54) (end -1.05 43.54) (layer F.SilkS) (width 0.12))
  (fp_line (start -4 45.36) (end -3.59 45.36) (layer F.SilkS) (width 0.12))
  (fp_line (start -1.49 45.36) (end -1.05 45.36) (layer F.SilkS) (width 0.12))
  (fp_line (start -4 46.08) (end -3.59 46.08) (layer F.SilkS) (width 0.12))
  (fp_line (start -1.49 46.08) (end -1.05 46.08) (layer F.SilkS) (width 0.12))
  (fp_line (start -4 47.9) (end -3.59 47.9) (layer F.SilkS) (width 0.12))
  (fp_line (start -1.49 47.9) (end -1.05 47.9) (layer F.SilkS) (width 0.12))
  (fp_line (start -4 48.62) (end -3.59 48.62) (layer F.SilkS) (width 0.12))
  (fp_line (start -1.49 48.62) (end -1.05 48.62) (layer F.SilkS) (width 0.12))
  (fp_line (start -4 50.44) (end -3.59 50.44) (layer F.SilkS) (width 0.12))
  (fp_line (start -1.49 50.44) (end -1.05 50.44) (layer F.SilkS) (width 0.12))
  (fp_line (start -4 51.16) (end -3.59 51.16) (layer F.SilkS) (width 0.12))
  (fp_line (start -1.49 51.16) (end -1.05 51.16) (layer F.SilkS) (width 0.12))
  (fp_line (start -4 52.98) (end -3.59 52.98) (layer F.SilkS) (width 0.12))
  (fp_line (start -1.49 52.98) (end -1.05 52.98) (layer F.SilkS) (width 0.12))
  (fp_line (start -4 53.7) (end -3.59 53.7) (layer F.SilkS) (width 0.12))
  (fp_line (start -1.49 53.7) (end -1.05 53.7) (layer F.SilkS) (width 0.12))
  (fp_line (start -4 55.52) (end -3.59 55.52) (layer F.SilkS) (width 0.12))
  (fp_line (start -1.49 55.52) (end -1.05 55.52) (layer F.SilkS) (width 0.12))
  (fp_line (start -4 56.24) (end -3.59 56.24) (layer F.SilkS) (width 0.12))
  (fp_line (start -1.49 56.24) (end -1.05 56.24) (layer F.SilkS) (width 0.12))
  (fp_line (start -4 58.06) (end -3.59 58.06) (layer F.SilkS) (width 0.12))
  (fp_line (start -1.49 58.06) (end -1.05 58.06) (layer F.SilkS) (width 0.12))
  (fp_line (start -4 58.78) (end -3.59 58.78) (layer F.SilkS) (width 0.12))
  (fp_line (start -1.49 58.78) (end -1.05 58.78) (layer F.SilkS) (width 0.12))
  (fp_line (start -4 60.6) (end -3.59 60.6) (layer F.SilkS) (width 0.12))
  (fp_line (start -1.49 60.6) (end -1.05 60.6) (layer F.SilkS) (width 0.12))
  (fp_line (start -4 61.32) (end -3.59 61.32) (layer F.SilkS) (width 0.12))
  (fp_line (start -1.49 61.32) (end -1.05 61.32) (layer F.SilkS) (width 0.12))
  (fp_line (start -4 63.14) (end -3.59 63.14) (layer F.SilkS) (width 0.12))
  (fp_line (start -1.49 63.14) (end -1.05 63.14) (layer F.SilkS) (width 0.12))
  (fp_line (start -4 63.86) (end -3.59 63.86) (layer F.SilkS) (width 0.12))
  (fp_line (start -1.49 63.86) (end -1.05 63.86) (layer F.SilkS) (width 0.12))
  (fp_line (start -4 65.68) (end -3.59 65.68) (layer F.SilkS) (width 0.12))
  (fp_line (start -1.49 65.68) (end -1.05 65.68) (layer F.SilkS) (width 0.12))
  (fp_line (start -4 66.4) (end -3.59 66.4) (layer F.SilkS) (width 0.12))
  (fp_line (start -1.49 66.4) (end -1.05 66.4) (layer F.SilkS) (width 0.12))
  (fp_line (start -4 68.22) (end -3.59 68.22) (layer F.SilkS) (width 0.12))
  (fp_line (start -1.49 68.22) (end -1.05 68.22) (layer F.SilkS) (width 0.12))
  (fp_line (start -4 68.94) (end -3.59 68.94) (layer F.SilkS) (width 0.12))
  (fp_line (start -1.49 68.94) (end -1.05 68.94) (layer F.SilkS) (width 0.12))
  (fp_line (start -4 70.76) (end -3.59 70.76) (layer F.SilkS) (width 0.12))
  (fp_line (start -1.49 70.76) (end -1.05 70.76) (layer F.SilkS) (width 0.12))
  (fp_line (start -4 71.48) (end -3.59 71.48) (layer F.SilkS) (width 0.12))
  (fp_line (start -1.49 71.48) (end -1.05 71.48) (layer F.SilkS) (width 0.12))
  (fp_line (start -4 73.3) (end -3.59 73.3) (layer F.SilkS) (width 0.12))
  (fp_line (start -1.49 73.3) (end -1.05 73.3) (layer F.SilkS) (width 0.12))
  (fp_line (start -4 74.02) (end -3.59 74.02) (layer F.SilkS) (width 0.12))
  (fp_line (start -1.49 74.02) (end -1.05 74.02) (layer F.SilkS) (width 0.12))
  (fp_line (start -4 75.84) (end -3.59 75.84) (layer F.SilkS) (width 0.12))
  (fp_line (start -1.49 75.84) (end -1.05 75.84) (layer F.SilkS) (width 0.12))
  (fp_line (start -4 76.56) (end -3.59 76.56) (layer F.SilkS) (width 0.12))
  (fp_line (start -1.49 76.56) (end -1.05 76.56) (layer F.SilkS) (width 0.12))
  (fp_line (start -4 78.38) (end -3.59 78.38) (layer F.SilkS) (width 0.12))
  (fp_line (start -1.49 78.38) (end -1.05 78.38) (layer F.SilkS) (width 0.12))
  (fp_line (start -4 79.1) (end -3.59 79.1) (layer F.SilkS) (width 0.12))
  (fp_line (start -1.49 79.1) (end -1.05 79.1) (layer F.SilkS) (width 0.12))
  (fp_line (start -4 80.92) (end -3.59 80.92) (layer F.SilkS) (width 0.12))
  (fp_line (start -1.49 80.92) (end -1.05 80.92) (layer F.SilkS) (width 0.12))
  (fp_line (start -4 81.64) (end -3.59 81.64) (layer F.SilkS) (width 0.12))
  (fp_line (start -1.49 81.64) (end -1.05 81.64) (layer F.SilkS) (width 0.12))
  (fp_line (start -4 83.46) (end -3.59 83.46) (layer F.SilkS) (width 0.12))
  (fp_line (start -1.49 83.46) (end -1.05 83.46) (layer F.SilkS) (width 0.12))
  (fp_line (start -4 84.18) (end -3.59 84.18) (layer F.SilkS) (width 0.12))
  (fp_line (start -1.49 84.18) (end -1.05 84.18) (layer F.SilkS) (width 0.12))
  (fp_line (start -4 86) (end -3.59 86) (layer F.SilkS) (width 0.12))
  (fp_line (start -1.49 86) (end -1.05 86) (layer F.SilkS) (width 0.12))
  (fp_line (start -4 86.72) (end -3.59 86.72) (layer F.SilkS) (width 0.12))
  (fp_line (start -1.49 86.72) (end -1.05 86.72) (layer F.SilkS) (width 0.12))
  (fp_line (start -12.63 1.27) (end -4 1.27) (layer F.SilkS) (width 0.12))
  (fp_line (start -12.63 3.81) (end -4 3.81) (layer F.SilkS) (width 0.12))
  (fp_line (start -12.63 6.35) (end -4 6.35) (layer F.SilkS) (width 0.12))
  (fp_line (start -12.63 8.89) (end -4 8.89) (layer F.SilkS) (width 0.12))
  (fp_line (start -12.63 11.43) (end -4 11.43) (layer F.SilkS) (width 0.12))
  (fp_line (start -12.63 13.97) (end -4 13.97) (layer F.SilkS) (width 0.12))
  (fp_line (start -12.63 16.51) (end -4 16.51) (layer F.SilkS) (width 0.12))
  (fp_line (start -12.63 19.05) (end -4 19.05) (layer F.SilkS) (width 0.12))
  (fp_line (start -12.63 21.59) (end -4 21.59) (layer F.SilkS) (width 0.12))
  (fp_line (start -12.63 24.13) (end -4 24.13) (layer F.SilkS) (width 0.12))
  (fp_line (start -12.63 26.67) (end -4 26.67) (layer F.SilkS) (width 0.12))
  (fp_line (start -12.63 29.21) (end -4 29.21) (layer F.SilkS) (width 0.12))
  (fp_line (start -12.63 31.75) (end -4 31.75) (layer F.SilkS) (width 0.12))
  (fp_line (start -12.63 34.29) (end -4 34.29) (layer F.SilkS) (width 0.12))
  (fp_line (start -12.63 36.83) (end -4 36.83) (layer F.SilkS) (width 0.12))
  (fp_line (start -12.63 39.37) (end -4 39.37) (layer F.SilkS) (width 0.12))
  (fp_line (start -12.63 41.91) (end -4 41.91) (layer F.SilkS) (width 0.12))
  (fp_line (start -12.63 44.45) (end -4 44.45) (layer F.SilkS) (width 0.12))
  (fp_line (start -12.63 46.99) (end -4 46.99) (layer F.SilkS) (width 0.12))
  (fp_line (start -12.63 49.53) (end -4 49.53) (layer F.SilkS) (width 0.12))
  (fp_line (start -12.63 52.07) (end -4 52.07) (layer F.SilkS) (width 0.12))
  (fp_line (start -12.63 54.61) (end -4 54.61) (layer F.SilkS) (width 0.12))
  (fp_line (start -12.63 57.15) (end -4 57.15) (layer F.SilkS) (width 0.12))
  (fp_line (start -12.63 59.69) (end -4 59.69) (layer F.SilkS) (width 0.12))
  (fp_line (start -12.63 62.23) (end -4 62.23) (layer F.SilkS) (width 0.12))
  (fp_line (start -12.63 64.77) (end -4 64.77) (layer F.SilkS) (width 0.12))
  (fp_line (start -12.63 67.31) (end -4 67.31) (layer F.SilkS) (width 0.12))
  (fp_line (start -12.63 69.85) (end -4 69.85) (layer F.SilkS) (width 0.12))
  (fp_line (start -12.63 72.39) (end -4 72.39) (layer F.SilkS) (width 0.12))
  (fp_line (start -12.63 74.93) (end -4 74.93) (layer F.SilkS) (width 0.12))
  (fp_line (start -12.63 77.47) (end -4 77.47) (layer F.SilkS) (width 0.12))
  (fp_line (start -12.63 80.01) (end -4 80.01) (layer F.SilkS) (width 0.12))
  (fp_line (start -12.63 82.55) (end -4 82.55) (layer F.SilkS) (width 0.12))
  (fp_line (start -12.63 85.09) (end -4 85.09) (layer F.SilkS) (width 0.12))
  (fp_line (start -12.63 -1.33) (end -4 -1.33) (layer F.SilkS) (width 0.12))
  (fp_line (start -4 -1.33) (end -4 87.69) (layer F.SilkS) (width 0.12))
  (fp_line (start -12.63 87.69) (end -4 87.69) (layer F.SilkS) (width 0.12))
  (fp_line (start -12.63 -1.33) (end -12.63 87.69) (layer F.SilkS) (width 0.12))
  (fp_line (start 1.11 -1.33) (end 1.11 0) (layer F.SilkS) (width 0.12))
  (fp_line (start 0 -1.33) (end 1.11 -1.33) (layer F.SilkS) (width 0.12))
  (fp_line (start 1.8 -1.75) (end -13.05 -1.75) (layer F.CrtYd) (width 0.05))
  (fp_line (start -13.05 -1.75) (end -13.05 88.15) (layer F.CrtYd) (width 0.05))
  (fp_line (start -13.05 88.15) (end 1.8 88.15) (layer F.CrtYd) (width 0.05))
  (fp_line (start 1.8 88.15) (end 1.8 -1.75) (layer F.CrtYd) (width 0.05))
  (pad 1 thru_hole rect (at 0 0) (size 1.7 1.7) (drill 1) (layers *.Cu *.Mask))
  (pad 2 thru_hole oval (at -2.54 0) (size 1.7 1.7) (drill 1) (layers *.Cu *.Mask))
  (pad 3 thru_hole oval (at 0 2.54) (size 1.7 1.7) (drill 1) (layers *.Cu *.Mask))
  (pad 4 thru_hole oval (at -2.54 2.54) (size 1.7 1.7) (drill 1) (layers *.Cu *.Mask))
  (pad 5 thru_hole oval (at 0 5.08) (size 1.7 1.7) (drill 1) (layers *.Cu *.Mask))
  (pad 6 thru_hole oval (at -2.54 5.08) (size 1.7 1.7) (drill 1) (layers *.Cu *.Mask))
  (pad 7 thru_hole oval (at 0 7.62) (size 1.7 1.7) (drill 1) (layers *.Cu *.Mask))
  (pad 8 thru_hole oval (at -2.54 7.62) (size 1.7 1.7) (drill 1) (layers *.Cu *.Mask))
  (pad 9 thru_hole oval (at 0 10.16) (size 1.7 1.7) (drill 1) (layers *.Cu *.Mask))
  (pad 10 thru_hole oval (at -2.54 10.16) (size 1.7 1.7) (drill 1) (layers *.Cu *.Mask))
  (pad 11 thru_hole oval (at 0 12.7) (size 1.7 1.7) (drill 1) (layers *.Cu *.Mask))
  (pad 12 thru_hole oval (at -2.54 12.7) (size 1.7 1.7) (drill 1) (layers *.Cu *.Mask))
  (pad 13 thru_hole oval (at 0 15.24) (size 1.7 1.7) (drill 1) (layers *.Cu *.Mask))
  (pad 14 thru_hole oval (at -2.54 15.24) (size 1.7 1.7) (drill 1) (layers *.Cu *.Mask))
  (pad 15 thru_hole oval (at 0 17.78) (size 1.7 1.7) (drill 1) (layers *.Cu *.Mask))
  (pad 16 thru_hole oval (at -2.54 17.78) (size 1.7 1.7) (drill 1) (layers *.Cu *.Mask))
  (pad 17 thru_hole oval (at 0 20.32) (size 1.7 1.7) (drill 1) (layers *.Cu *.Mask))
  (pad 18 thru_hole oval (at -2.54 20.32) (size 1.7 1.7) (drill 1) (layers *.Cu *.Mask))
  (pad 19 thru_hole oval (at 0 22.86) (size 1.7 1.7) (drill 1) (layers *.Cu *.Mask))
  (pad 20 thru_hole oval (at -2.54 22.86) (size 1.7 1.7) (drill 1) (layers *.Cu *.Mask))
  (pad 21 thru_hole oval (at 0 25.4) (size 1.7 1.7) (drill 1) (layers *.Cu *.Mask))
  (pad 22 thru_hole oval (at -2.54 25.4) (size 1.7 1.7) (drill 1) (layers *.Cu *.Mask))
  (pad 23 thru_hole oval (at 0 27.94) (size 1.7 1.7) (drill 1) (layers *.Cu *.Mask))
  (pad 24 thru_hole oval (at -2.54 27.94) (size 1.7 1.7) (drill 1) (layers *.Cu *.Mask))
  (pad 25 thru_hole oval (at 0 30.48) (size 1.7 1.7) (drill 1) (layers *.Cu *.Mask))
  (pad 26 thru_hole oval (at -2.54 30.48) (size 1.7 1.7) (drill 1) (layers *.Cu *.Mask))
  (pad 27 thru_hole oval (at 0 33.02) (size 1.7 1.7) (drill 1) (layers *.Cu *.Mask))
  (pad 28 thru_hole oval (at -2.54 33.02) (size 1.7 1.7) (drill 1) (layers *.Cu *.Mask))
  (pad 29 thru_hole oval (at 0 35.56) (size 1.7 1.7) (drill 1) (layers *.Cu *.Mask))
  (pad 30 thru_hole oval (at -2.54 35.56) (size 1.7 1.7) (drill 1) (layers *.Cu *.Mask))
  (pad 31 thru_hole oval (at 0 38.1) (size 1.7 1.7) (drill 1) (layers *.Cu *.Mask))
  (pad 32 thru_hole oval (at -2.54 38.1) (size 1.7 1.7) (drill 1) (layers *.Cu *.Mask))
  (pad 33 thru_hole oval (at 0 40.64) (size 1.7 1.7) (drill 1) (layers *.Cu *.Mask))
  (pad 34 thru_hole oval (at -2.54 40.64) (size 1.7 1.7) (drill 1) (layers *.Cu *.Mask))
  (pad 35 thru_hole oval (at 0 43.18) (size 1.7 1.7) (drill 1) (layers *.Cu *.Mask))
  (pad 36 thru_hole oval (at -2.54 43.18) (size 1.7 1.7) (drill 1) (layers *.Cu *.Mask))
  (pad 37 thru_hole oval (at 0 45.72) (size 1.7 1.7) (drill 1) (layers *.Cu *.Mask))
  (pad 38 thru_hole oval (at -2.54 45.72) (size 1.7 1.7) (drill 1) (layers *.Cu *.Mask))
  (pad 39 thru_hole oval (at 0 48.26) (size 1.7 1.7) (drill 1) (layers *.Cu *.Mask))
  (pad 40 thru_hole oval (at -2.54 48.26) (size 1.7 1.7) (drill 1) (layers *.Cu *.Mask))
  (pad 41 thru_hole oval (at 0 50.8) (size 1.7 1.7) (drill 1) (layers *.Cu *.Mask))
  (pad 42 thru_hole oval (at -2.54 50.8) (size 1.7 1.7) (drill 1) (layers *.Cu *.Mask))
  (pad 43 thru_hole oval (at 0 53.34) (size 1.7 1.7) (drill 1) (layers *.Cu *.Mask))
  (pad 44 thru_hole oval (at -2.54 53.34) (size 1.7 1.7) (drill 1) (layers *.Cu *.Mask))
  (pad 45 thru_hole oval (at 0 55.88) (size 1.7 1.7) (drill 1) (layers *.Cu *.Mask))
  (pad 46 thru_hole oval (at -2.54 55.88) (size 1.7 1.7) (drill 1) (layers *.Cu *.Mask))
  (pad 47 thru_hole oval (at 0 58.42) (size 1.7 1.7) (drill 1) (layers *.Cu *.Mask))
  (pad 48 thru_hole oval (at -2.54 58.42) (size 1.7 1.7) (drill 1) (layers *.Cu *.Mask))
  (pad 49 thru_hole oval (at 0 60.96) (size 1.7 1.7) (drill 1) (layers *.Cu *.Mask))
  (pad 50 thru_hole oval (at -2.54 60.96) (size 1.7 1.7) (drill 1) (layers *.Cu *.Mask))
  (pad 51 thru_hole oval (at 0 63.5) (size 1.7 1.7) (drill 1) (layers *.Cu *.Mask))
  (pad 52 thru_hole oval (at -2.54 63.5) (size 1.7 1.7) (drill 1) (layers *.Cu *.Mask))
  (pad 53 thru_hole oval (at 0 66.04) (size 1.7 1.7) (drill 1) (layers *.Cu *.Mask))
  (pad 54 thru_hole oval (at -2.54 66.04) (size 1.7 1.7) (drill 1) (layers *.Cu *.Mask))
  (pad 55 thru_hole oval (at 0 68.58) (size 1.7 1.7) (drill 1) (layers *.Cu *.Mask))
  (pad 56 thru_hole oval (at -2.54 68.58) (size 1.7 1.7) (drill 1) (layers *.Cu *.Mask))
  (pad 57 thru_hole oval (at 0 71.12) (size 1.7 1.7) (drill 1) (layers *.Cu *.Mask))
  (pad 58 thru_hole oval (at -2.54 71.12) (size 1.7 1.7) (drill 1) (layers *.Cu *.Mask))
  (pad 59 thru_hole oval (at 0 73.66) (size 1.7 1.7) (drill 1) (layers *.Cu *.Mask))
  (pad 60 thru_hole oval (at -2.54 73.66) (size 1.7 1.7) (drill 1) (layers *.Cu *.Mask))
  (pad 61 thru_hole oval (at 0 76.2) (size 1.7 1.7) (drill 1) (layers *.Cu *.Mask))
  (pad 62 thru_hole oval (at -2.54 76.2) (size 1.7 1.7) (drill 1) (layers *.Cu *.Mask))
  (pad 63 thru_hole oval (at 0 78.74) (size 1.7 1.7) (drill 1) (layers *.Cu *.Mask))
  (pad 64 thru_hole oval (at -2.54 78.74) (size 1.7 1.7) (drill 1) (layers *.Cu *.Mask))
  (pad 65 thru_hole oval (at 0 81.28) (size 1.7 1.7) (drill 1) (layers *.Cu *.Mask))
  (pad 66 thru_hole oval (at -2.54 81.28) (size 1.7 1.7) (drill 1) (layers *.Cu *.Mask))
  (pad 67 thru_hole oval (at 0 83.82) (size 1.7 1.7) (drill 1) (layers *.Cu *.Mask))
  (pad 68 thru_hole oval (at -2.54 83.82) (size 1.7 1.7) (drill 1) (layers *.Cu *.Mask))
  (pad 69 thru_hole oval (at 0 86.36) (size 1.7 1.7) (drill 1) (layers *.Cu *.Mask))
  (pad 70 thru_hole oval (at -2.54 86.36) (size 1.7 1.7) (drill 1) (layers *.Cu *.Mask))
  (fp_text user %R (at -8.315 43.18 90) (layer F.Fab)
    (effects (font (size 1 1) (thickness 0.15)))
  )
  (model ${KIPRJMOD}/kicad_libs_k/models_k.3d/Connector_PinSocket_2.54mm_k.3dshapes/PinSocket_2x35_P2.54mm_Horizontal_k.wrl
    (at (xyz 0 0 0))
    (scale (xyz 1 1 1))
    (rotate (xyz 0 0 0))
  )
)