(module PinSocket_2x08_P2.54mm_Horizontal (layer F.Cu) (tedit 5A19A430)
  (descr "Through hole angled socket strip, 2x08, 2.54mm pitch, 8.51mm socket length, double cols (from Kicad 4.0.7), script generated")
  (tags "Through hole angled socket strip THT 2x08 2.54mm double row")
  (fp_text reference REF** (at -5.65 -2.77) (layer F.SilkS)
    (effects (font (size 1 1) (thickness 0.15)))
  )
  (fp_text value PinSocket_2x08_P2.54mm_Horizontal (at -5.65 20.55) (layer F.Fab)
    (effects (font (size 1 1) (thickness 0.15)))
  )
  (fp_line (start -12.57 -1.27) (end -5.03 -1.27) (layer F.Fab) (width 0.1))
  (fp_line (start -5.03 -1.27) (end -4.06 -0.3) (layer F.Fab) (width 0.1))
  (fp_line (start -4.06 -0.3) (end -4.06 19.05) (layer F.Fab) (width 0.1))
  (fp_line (start -4.06 19.05) (end -12.57 19.05) (layer F.Fab) (width 0.1))
  (fp_line (start -12.57 19.05) (end -12.57 -1.27) (layer F.Fab) (width 0.1))
  (fp_line (start 0 -0.3) (end -4.06 -0.3) (layer F.Fab) (width 0.1))
  (fp_line (start -4.06 0.3) (end 0 0.3) (layer F.Fab) (width 0.1))
  (fp_line (start 0 0.3) (end 0 -0.3) (layer F.Fab) (width 0.1))
  (fp_line (start 0 2.24) (end -4.06 2.24) (layer F.Fab) (width 0.1))
  (fp_line (start -4.06 2.84) (end 0 2.84) (layer F.Fab) (width 0.1))
  (fp_line (start 0 2.84) (end 0 2.24) (layer F.Fab) (width 0.1))
  (fp_line (start 0 4.78) (end -4.06 4.78) (layer F.Fab) (width 0.1))
  (fp_line (start -4.06 5.38) (end 0 5.38) (layer F.Fab) (width 0.1))
  (fp_line (start 0 5.38) (end 0 4.78) (layer F.Fab) (width 0.1))
  (fp_line (start 0 7.32) (end -4.06 7.32) (layer F.Fab) (width 0.1))
  (fp_line (start -4.06 7.92) (end 0 7.92) (layer F.Fab) (width 0.1))
  (fp_line (start 0 7.92) (end 0 7.32) (layer F.Fab) (width 0.1))
  (fp_line (start 0 9.86) (end -4.06 9.86) (layer F.Fab) (width 0.1))
  (fp_line (start -4.06 10.46) (end 0 10.46) (layer F.Fab) (width 0.1))
  (fp_line (start 0 10.46) (end 0 9.86) (layer F.Fab) (width 0.1))
  (fp_line (start 0 12.4) (end -4.06 12.4) (layer F.Fab) (width 0.1))
  (fp_line (start -4.06 13) (end 0 13) (layer F.Fab) (width 0.1))
  (fp_line (start 0 13) (end 0 12.4) (layer F.Fab) (width 0.1))
  (fp_line (start 0 14.94) (end -4.06 14.94) (layer F.Fab) (width 0.1))
  (fp_line (start -4.06 15.54) (end 0 15.54) (layer F.Fab) (width 0.1))
  (fp_line (start 0 15.54) (end 0 14.94) (layer F.Fab) (width 0.1))
  (fp_line (start 0 17.48) (end -4.06 17.48) (layer F.Fab) (width 0.1))
  (fp_line (start -4.06 18.08) (end 0 18.08) (layer F.Fab) (width 0.1))
  (fp_line (start 0 18.08) (end 0 17.48) (layer F.Fab) (width 0.1))
  (fp_line (start -12.63 -1.21) (end -4 -1.21) (layer F.SilkS) (width 0.12))
  (fp_line (start -12.63 -1.091905) (end -4 -1.091905) (layer F.SilkS) (width 0.12))
  (fp_line (start -12.63 -0.97381) (end -4 -0.97381) (layer F.SilkS) (width 0.12))
  (fp_line (start -12.63 -0.855715) (end -4 -0.855715) (layer F.SilkS) (width 0.12))
  (fp_line (start -12.63 -0.73762) (end -4 -0.73762) (layer F.SilkS) (width 0.12))
  (fp_line (start -12.63 -0.619525) (end -4 -0.619525) (layer F.SilkS) (width 0.12))
  (fp_line (start -12.63 -0.50143) (end -4 -0.50143) (layer F.SilkS) (width 0.12))
  (fp_line (start -12.63 -0.383335) (end -4 -0.383335) (layer F.SilkS) (width 0.12))
  (fp_line (start -12.63 -0.26524) (end -4 -0.26524) (layer F.SilkS) (width 0.12))
  (fp_line (start -12.63 -0.147145) (end -4 -0.147145) (layer F.SilkS) (width 0.12))
  (fp_line (start -12.63 -0.02905) (end -4 -0.02905) (layer F.SilkS) (width 0.12))
  (fp_line (start -12.63 0.089045) (end -4 0.089045) (layer F.SilkS) (width 0.12))
  (fp_line (start -12.63 0.20714) (end -4 0.20714) (layer F.SilkS) (width 0.12))
  (fp_line (start -12.63 0.325235) (end -4 0.325235) (layer F.SilkS) (width 0.12))
  (fp_line (start -12.63 0.44333) (end -4 0.44333) (layer F.SilkS) (width 0.12))
  (fp_line (start -12.63 0.561425) (end -4 0.561425) (layer F.SilkS) (width 0.12))
  (fp_line (start -12.63 0.67952) (end -4 0.67952) (layer F.SilkS) (width 0.12))
  (fp_line (start -12.63 0.797615) (end -4 0.797615) (layer F.SilkS) (width 0.12))
  (fp_line (start -12.63 0.91571) (end -4 0.91571) (layer F.SilkS) (width 0.12))
  (fp_line (start -12.63 1.033805) (end -4 1.033805) (layer F.SilkS) (width 0.12))
  (fp_line (start -12.63 1.1519) (end -4 1.1519) (layer F.SilkS) (width 0.12))
  (fp_line (start -4 -0.36) (end -3.59 -0.36) (layer F.SilkS) (width 0.12))
  (fp_line (start -1.49 -0.36) (end -1.11 -0.36) (layer F.SilkS) (width 0.12))
  (fp_line (start -4 0.36) (end -3.59 0.36) (layer F.SilkS) (width 0.12))
  (fp_line (start -1.49 0.36) (end -1.11 0.36) (layer F.SilkS) (width 0.12))
  (fp_line (start -4 2.18) (end -3.59 2.18) (layer F.SilkS) (width 0.12))
  (fp_line (start -1.49 2.18) (end -1.05 2.18) (layer F.SilkS) (width 0.12))
  (fp_line (start -4 2.9) (end -3.59 2.9) (layer F.SilkS) (width 0.12))
  (fp_line (start -1.49 2.9) (end -1.05 2.9) (layer F.SilkS) (width 0.12))
  (fp_line (start -4 4.72) (end -3.59 4.72) (layer F.SilkS) (width 0.12))
  (fp_line (start -1.49 4.72) (end -1.05 4.72) (layer F.SilkS) (width 0.12))
  (fp_line (start -4 5.44) (end -3.59 5.44) (layer F.SilkS) (width 0.12))
  (fp_line (start -1.49 5.44) (end -1.05 5.44) (layer F.SilkS) (width 0.12))
  (fp_line (start -4 7.26) (end -3.59 7.26) (layer F.SilkS) (width 0.12))
  (fp_line (start -1.49 7.26) (end -1.05 7.26) (layer F.SilkS) (width 0.12))
  (fp_line (start -4 7.98) (end -3.59 7.98) (layer F.SilkS) (width 0.12))
  (fp_line (start -1.49 7.98) (end -1.05 7.98) (layer F.SilkS) (width 0.12))
  (fp_line (start -4 9.8) (end -3.59 9.8) (layer F.SilkS) (width 0.12))
  (fp_line (start -1.49 9.8) (end -1.05 9.8) (layer F.SilkS) (width 0.12))
  (fp_line (start -4 10.52) (end -3.59 10.52) (layer F.SilkS) (width 0.12))
  (fp_line (start -1.49 10.52) (end -1.05 10.52) (layer F.SilkS) (width 0.12))
  (fp_line (start -4 12.34) (end -3.59 12.34) (layer F.SilkS) (width 0.12))
  (fp_line (start -1.49 12.34) (end -1.05 12.34) (layer F.SilkS) (width 0.12))
  (fp_line (start -4 13.06) (end -3.59 13.06) (layer F.SilkS) (width 0.12))
  (fp_line (start -1.49 13.06) (end -1.05 13.06) (layer F.SilkS) (width 0.12))
  (fp_line (start -4 14.88) (end -3.59 14.88) (layer F.SilkS) (width 0.12))
  (fp_line (start -1.49 14.88) (end -1.05 14.88) (layer F.SilkS) (width 0.12))
  (fp_line (start -4 15.6) (end -3.59 15.6) (layer F.SilkS) (width 0.12))
  (fp_line (start -1.49 15.6) (end -1.05 15.6) (layer F.SilkS) (width 0.12))
  (fp_line (start -4 17.42) (end -3.59 17.42) (layer F.SilkS) (width 0.12))
  (fp_line (start -1.49 17.42) (end -1.05 17.42) (layer F.SilkS) (width 0.12))
  (fp_line (start -4 18.14) (end -3.59 18.14) (layer F.SilkS) (width 0.12))
  (fp_line (start -1.49 18.14) (end -1.05 18.14) (layer F.SilkS) (width 0.12))
  (fp_line (start -12.63 1.27) (end -4 1.27) (layer F.SilkS) (width 0.12))
  (fp_line (start -12.63 3.81) (end -4 3.81) (layer F.SilkS) (width 0.12))
  (fp_line (start -12.63 6.35) (end -4 6.35) (layer F.SilkS) (width 0.12))
  (fp_line (start -12.63 8.89) (end -4 8.89) (layer F.SilkS) (width 0.12))
  (fp_line (start -12.63 11.43) (end -4 11.43) (layer F.SilkS) (width 0.12))
  (fp_line (start -12.63 13.97) (end -4 13.97) (layer F.SilkS) (width 0.12))
  (fp_line (start -12.63 16.51) (end -4 16.51) (layer F.SilkS) (width 0.12))
  (fp_line (start -12.63 -1.33) (end -4 -1.33) (layer F.SilkS) (width 0.12))
  (fp_line (start -4 -1.33) (end -4 19.11) (layer F.SilkS) (width 0.12))
  (fp_line (start -12.63 19.11) (end -4 19.11) (layer F.SilkS) (width 0.12))
  (fp_line (start -12.63 -1.33) (end -12.63 19.11) (layer F.SilkS) (width 0.12))
  (fp_line (start 1.11 -1.33) (end 1.11 0) (layer F.SilkS) (width 0.12))
  (fp_line (start 0 -1.33) (end 1.11 -1.33) (layer F.SilkS) (width 0.12))
  (fp_line (start 1.8 -1.8) (end -13.05 -1.8) (layer F.CrtYd) (width 0.05))
  (fp_line (start -13.05 -1.8) (end -13.05 19.55) (layer F.CrtYd) (width 0.05))
  (fp_line (start -13.05 19.55) (end 1.8 19.55) (layer F.CrtYd) (width 0.05))
  (fp_line (start 1.8 19.55) (end 1.8 -1.8) (layer F.CrtYd) (width 0.05))
  (pad 1 thru_hole rect (at 0 0) (size 1.7 1.7) (drill 1) (layers *.Cu *.Mask))
  (pad 2 thru_hole oval (at -2.54 0) (size 1.7 1.7) (drill 1) (layers *.Cu *.Mask))
  (pad 3 thru_hole oval (at 0 2.54) (size 1.7 1.7) (drill 1) (layers *.Cu *.Mask))
  (pad 4 thru_hole oval (at -2.54 2.54) (size 1.7 1.7) (drill 1) (layers *.Cu *.Mask))
  (pad 5 thru_hole oval (at 0 5.08) (size 1.7 1.7) (drill 1) (layers *.Cu *.Mask))
  (pad 6 thru_hole oval (at -2.54 5.08) (size 1.7 1.7) (drill 1) (layers *.Cu *.Mask))
  (pad 7 thru_hole oval (at 0 7.62) (size 1.7 1.7) (drill 1) (layers *.Cu *.Mask))
  (pad 8 thru_hole oval (at -2.54 7.62) (size 1.7 1.7) (drill 1) (layers *.Cu *.Mask))
  (pad 9 thru_hole oval (at 0 10.16) (size 1.7 1.7) (drill 1) (layers *.Cu *.Mask))
  (pad 10 thru_hole oval (at -2.54 10.16) (size 1.7 1.7) (drill 1) (layers *.Cu *.Mask))
  (pad 11 thru_hole oval (at 0 12.7) (size 1.7 1.7) (drill 1) (layers *.Cu *.Mask))
  (pad 12 thru_hole oval (at -2.54 12.7) (size 1.7 1.7) (drill 1) (layers *.Cu *.Mask))
  (pad 13 thru_hole oval (at 0 15.24) (size 1.7 1.7) (drill 1) (layers *.Cu *.Mask))
  (pad 14 thru_hole oval (at -2.54 15.24) (size 1.7 1.7) (drill 1) (layers *.Cu *.Mask))
  (pad 15 thru_hole oval (at 0 17.78) (size 1.7 1.7) (drill 1) (layers *.Cu *.Mask))
  (pad 16 thru_hole oval (at -2.54 17.78) (size 1.7 1.7) (drill 1) (layers *.Cu *.Mask))
  (fp_text user %R (at -8.315 8.89 90) (layer F.Fab)
    (effects (font (size 1 1) (thickness 0.15)))
  )
  (model ${KIPRJMOD}/kicad_libs_k/models_k.3d/Connector_PinSocket_2.54mm_k.3dshapes/PinSocket_2x08_P2.54mm_Horizontal_k.wrl
    (at (xyz 0 0 0))
    (scale (xyz 1 1 1))
    (rotate (xyz 0 0 0))
  )
)