(module PinSocket_2x32_P2.54mm_Vertical_SMD (layer F.Cu) (tedit 5A19A42D)
  (descr "surface-mounted straight socket strip, 2x32, 2.54mm pitch, double cols (from Kicad 4.0.7), script generated")
  (tags "Surface mounted socket strip SMD 2x32 2.54mm double row")
  (attr smd)
  (fp_text reference REF** (at 0 -42.14) (layer F.SilkS)
    (effects (font (size 1 1) (thickness 0.15)))
  )
  (fp_text value PinSocket_2x32_P2.54mm_Vertical_SMD (at 0 42.14) (layer F.Fab)
    (effects (font (size 1 1) (thickness 0.15)))
  )
  (fp_line (start -2.6 -40.7) (end 2.6 -40.7) (layer F.SilkS) (width 0.12))
  (fp_line (start 2.6 -40.7) (end 2.6 -40.13) (layer F.SilkS) (width 0.12))
  (fp_line (start 2.6 -38.61) (end 2.6 -37.59) (layer F.SilkS) (width 0.12))
  (fp_line (start 2.6 -36.07) (end 2.6 -35.05) (layer F.SilkS) (width 0.12))
  (fp_line (start 2.6 -33.53) (end 2.6 -32.51) (layer F.SilkS) (width 0.12))
  (fp_line (start 2.6 -30.99) (end 2.6 -29.97) (layer F.SilkS) (width 0.12))
  (fp_line (start 2.6 -28.45) (end 2.6 -27.43) (layer F.SilkS) (width 0.12))
  (fp_line (start 2.6 -25.91) (end 2.6 -24.89) (layer F.SilkS) (width 0.12))
  (fp_line (start 2.6 -23.37) (end 2.6 -22.35) (layer F.SilkS) (width 0.12))
  (fp_line (start 2.6 -20.83) (end 2.6 -19.81) (layer F.SilkS) (width 0.12))
  (fp_line (start 2.6 -18.29) (end 2.6 -17.27) (layer F.SilkS) (width 0.12))
  (fp_line (start 2.6 -15.75) (end 2.6 -14.73) (layer F.SilkS) (width 0.12))
  (fp_line (start 2.6 -13.21) (end 2.6 -12.19) (layer F.SilkS) (width 0.12))
  (fp_line (start 2.6 -10.67) (end 2.6 -9.65) (layer F.SilkS) (width 0.12))
  (fp_line (start 2.6 -8.13) (end 2.6 -7.11) (layer F.SilkS) (width 0.12))
  (fp_line (start 2.6 -5.59) (end 2.6 -4.57) (layer F.SilkS) (width 0.12))
  (fp_line (start 2.6 -3.05) (end 2.6 -2.03) (layer F.SilkS) (width 0.12))
  (fp_line (start 2.6 -0.51) (end 2.6 0.51) (layer F.SilkS) (width 0.12))
  (fp_line (start 2.6 2.03) (end 2.6 3.05) (layer F.SilkS) (width 0.12))
  (fp_line (start 2.6 4.57) (end 2.6 5.59) (layer F.SilkS) (width 0.12))
  (fp_line (start 2.6 7.11) (end 2.6 8.13) (layer F.SilkS) (width 0.12))
  (fp_line (start 2.6 9.65) (end 2.6 10.67) (layer F.SilkS) (width 0.12))
  (fp_line (start 2.6 12.19) (end 2.6 13.21) (layer F.SilkS) (width 0.12))
  (fp_line (start 2.6 14.73) (end 2.6 15.75) (layer F.SilkS) (width 0.12))
  (fp_line (start 2.6 17.27) (end 2.6 18.29) (layer F.SilkS) (width 0.12))
  (fp_line (start 2.6 19.81) (end 2.6 20.83) (layer F.SilkS) (width 0.12))
  (fp_line (start 2.6 22.35) (end 2.6 23.37) (layer F.SilkS) (width 0.12))
  (fp_line (start 2.6 24.89) (end 2.6 25.91) (layer F.SilkS) (width 0.12))
  (fp_line (start 2.6 27.43) (end 2.6 28.45) (layer F.SilkS) (width 0.12))
  (fp_line (start 2.6 29.97) (end 2.6 30.99) (layer F.SilkS) (width 0.12))
  (fp_line (start 2.6 32.51) (end 2.6 33.53) (layer F.SilkS) (width 0.12))
  (fp_line (start 2.6 35.05) (end 2.6 36.07) (layer F.SilkS) (width 0.12))
  (fp_line (start 2.6 37.59) (end 2.6 38.61) (layer F.SilkS) (width 0.12))
  (fp_line (start 2.6 40.13) (end 2.6 40.7) (layer F.SilkS) (width 0.12))
  (fp_line (start -2.6 40.7) (end 2.6 40.7) (layer F.SilkS) (width 0.12))
  (fp_line (start -2.6 -40.7) (end -2.6 -40.13) (layer F.SilkS) (width 0.12))
  (fp_line (start -2.6 -38.61) (end -2.6 -37.59) (layer F.SilkS) (width 0.12))
  (fp_line (start -2.6 -36.07) (end -2.6 -35.05) (layer F.SilkS) (width 0.12))
  (fp_line (start -2.6 -33.53) (end -2.6 -32.51) (layer F.SilkS) (width 0.12))
  (fp_line (start -2.6 -30.99) (end -2.6 -29.97) (layer F.SilkS) (width 0.12))
  (fp_line (start -2.6 -28.45) (end -2.6 -27.43) (layer F.SilkS) (width 0.12))
  (fp_line (start -2.6 -25.91) (end -2.6 -24.89) (layer F.SilkS) (width 0.12))
  (fp_line (start -2.6 -23.37) (end -2.6 -22.35) (layer F.SilkS) (width 0.12))
  (fp_line (start -2.6 -20.83) (end -2.6 -19.81) (layer F.SilkS) (width 0.12))
  (fp_line (start -2.6 -18.29) (end -2.6 -17.27) (layer F.SilkS) (width 0.12))
  (fp_line (start -2.6 -15.75) (end -2.6 -14.73) (layer F.SilkS) (width 0.12))
  (fp_line (start -2.6 -13.21) (end -2.6 -12.19) (layer F.SilkS) (width 0.12))
  (fp_line (start -2.6 -10.67) (end -2.6 -9.65) (layer F.SilkS) (width 0.12))
  (fp_line (start -2.6 -8.13) (end -2.6 -7.11) (layer F.SilkS) (width 0.12))
  (fp_line (start -2.6 -5.59) (end -2.6 -4.57) (layer F.SilkS) (width 0.12))
  (fp_line (start -2.6 -3.05) (end -2.6 -2.03) (layer F.SilkS) (width 0.12))
  (fp_line (start -2.6 -0.51) (end -2.6 0.51) (layer F.SilkS) (width 0.12))
  (fp_line (start -2.6 2.03) (end -2.6 3.05) (layer F.SilkS) (width 0.12))
  (fp_line (start -2.6 4.57) (end -2.6 5.59) (layer F.SilkS) (width 0.12))
  (fp_line (start -2.6 7.11) (end -2.6 8.13) (layer F.SilkS) (width 0.12))
  (fp_line (start -2.6 9.65) (end -2.6 10.67) (layer F.SilkS) (width 0.12))
  (fp_line (start -2.6 12.19) (end -2.6 13.21) (layer F.SilkS) (width 0.12))
  (fp_line (start -2.6 14.73) (end -2.6 15.75) (layer F.SilkS) (width 0.12))
  (fp_line (start -2.6 17.27) (end -2.6 18.29) (layer F.SilkS) (width 0.12))
  (fp_line (start -2.6 19.81) (end -2.6 20.83) (layer F.SilkS) (width 0.12))
  (fp_line (start -2.6 22.35) (end -2.6 23.37) (layer F.SilkS) (width 0.12))
  (fp_line (start -2.6 24.89) (end -2.6 25.91) (layer F.SilkS) (width 0.12))
  (fp_line (start -2.6 27.43) (end -2.6 28.45) (layer F.SilkS) (width 0.12))
  (fp_line (start -2.6 29.97) (end -2.6 30.99) (layer F.SilkS) (width 0.12))
  (fp_line (start -2.6 32.51) (end -2.6 33.53) (layer F.SilkS) (width 0.12))
  (fp_line (start -2.6 35.05) (end -2.6 36.07) (layer F.SilkS) (width 0.12))
  (fp_line (start -2.6 37.59) (end -2.6 38.61) (layer F.SilkS) (width 0.12))
  (fp_line (start -2.6 40.13) (end -2.6 40.7) (layer F.SilkS) (width 0.12))
  (fp_line (start 2.6 -40.13) (end 3.96 -40.13) (layer F.SilkS) (width 0.12))
  (fp_line (start -2.54 -40.64) (end 1.54 -40.64) (layer F.Fab) (width 0.1))
  (fp_line (start 1.54 -40.64) (end 2.54 -39.64) (layer F.Fab) (width 0.1))
  (fp_line (start 2.54 -39.64) (end 2.54 40.64) (layer F.Fab) (width 0.1))
  (fp_line (start 2.54 40.64) (end -2.54 40.64) (layer F.Fab) (width 0.1))
  (fp_line (start -2.54 40.64) (end -2.54 -40.64) (layer F.Fab) (width 0.1))
  (fp_line (start -3.92 -39.69) (end -2.54 -39.69) (layer F.Fab) (width 0.1))
  (fp_line (start -2.54 -39.05) (end -3.92 -39.05) (layer F.Fab) (width 0.1))
  (fp_line (start -3.92 -39.05) (end -3.92 -39.69) (layer F.Fab) (width 0.1))
  (fp_line (start 2.54 -39.69) (end 3.92 -39.69) (layer F.Fab) (width 0.1))
  (fp_line (start 3.92 -39.69) (end 3.92 -39.05) (layer F.Fab) (width 0.1))
  (fp_line (start 3.92 -39.05) (end 2.54 -39.05) (layer F.Fab) (width 0.1))
  (fp_line (start -3.92 -37.15) (end -2.54 -37.15) (layer F.Fab) (width 0.1))
  (fp_line (start -2.54 -36.51) (end -3.92 -36.51) (layer F.Fab) (width 0.1))
  (fp_line (start -3.92 -36.51) (end -3.92 -37.15) (layer F.Fab) (width 0.1))
  (fp_line (start 2.54 -37.15) (end 3.92 -37.15) (layer F.Fab) (width 0.1))
  (fp_line (start 3.92 -37.15) (end 3.92 -36.51) (layer F.Fab) (width 0.1))
  (fp_line (start 3.92 -36.51) (end 2.54 -36.51) (layer F.Fab) (width 0.1))
  (fp_line (start -3.92 -34.61) (end -2.54 -34.61) (layer F.Fab) (width 0.1))
  (fp_line (start -2.54 -33.97) (end -3.92 -33.97) (layer F.Fab) (width 0.1))
  (fp_line (start -3.92 -33.97) (end -3.92 -34.61) (layer F.Fab) (width 0.1))
  (fp_line (start 2.54 -34.61) (end 3.92 -34.61) (layer F.Fab) (width 0.1))
  (fp_line (start 3.92 -34.61) (end 3.92 -33.97) (layer F.Fab) (width 0.1))
  (fp_line (start 3.92 -33.97) (end 2.54 -33.97) (layer F.Fab) (width 0.1))
  (fp_line (start -3.92 -32.07) (end -2.54 -32.07) (layer F.Fab) (width 0.1))
  (fp_line (start -2.54 -31.43) (end -3.92 -31.43) (layer F.Fab) (width 0.1))
  (fp_line (start -3.92 -31.43) (end -3.92 -32.07) (layer F.Fab) (width 0.1))
  (fp_line (start 2.54 -32.07) (end 3.92 -32.07) (layer F.Fab) (width 0.1))
  (fp_line (start 3.92 -32.07) (end 3.92 -31.43) (layer F.Fab) (width 0.1))
  (fp_line (start 3.92 -31.43) (end 2.54 -31.43) (layer F.Fab) (width 0.1))
  (fp_line (start -3.92 -29.53) (end -2.54 -29.53) (layer F.Fab) (width 0.1))
  (fp_line (start -2.54 -28.89) (end -3.92 -28.89) (layer F.Fab) (width 0.1))
  (fp_line (start -3.92 -28.89) (end -3.92 -29.53) (layer F.Fab) (width 0.1))
  (fp_line (start 2.54 -29.53) (end 3.92 -29.53) (layer F.Fab) (width 0.1))
  (fp_line (start 3.92 -29.53) (end 3.92 -28.89) (layer F.Fab) (width 0.1))
  (fp_line (start 3.92 -28.89) (end 2.54 -28.89) (layer F.Fab) (width 0.1))
  (fp_line (start -3.92 -26.99) (end -2.54 -26.99) (layer F.Fab) (width 0.1))
  (fp_line (start -2.54 -26.35) (end -3.92 -26.35) (layer F.Fab) (width 0.1))
  (fp_line (start -3.92 -26.35) (end -3.92 -26.99) (layer F.Fab) (width 0.1))
  (fp_line (start 2.54 -26.99) (end 3.92 -26.99) (layer F.Fab) (width 0.1))
  (fp_line (start 3.92 -26.99) (end 3.92 -26.35) (layer F.Fab) (width 0.1))
  (fp_line (start 3.92 -26.35) (end 2.54 -26.35) (layer F.Fab) (width 0.1))
  (fp_line (start -3.92 -24.45) (end -2.54 -24.45) (layer F.Fab) (width 0.1))
  (fp_line (start -2.54 -23.81) (end -3.92 -23.81) (layer F.Fab) (width 0.1))
  (fp_line (start -3.92 -23.81) (end -3.92 -24.45) (layer F.Fab) (width 0.1))
  (fp_line (start 2.54 -24.45) (end 3.92 -24.45) (layer F.Fab) (width 0.1))
  (fp_line (start 3.92 -24.45) (end 3.92 -23.81) (layer F.Fab) (width 0.1))
  (fp_line (start 3.92 -23.81) (end 2.54 -23.81) (layer F.Fab) (width 0.1))
  (fp_line (start -3.92 -21.91) (end -2.54 -21.91) (layer F.Fab) (width 0.1))
  (fp_line (start -2.54 -21.27) (end -3.92 -21.27) (layer F.Fab) (width 0.1))
  (fp_line (start -3.92 -21.27) (end -3.92 -21.91) (layer F.Fab) (width 0.1))
  (fp_line (start 2.54 -21.91) (end 3.92 -21.91) (layer F.Fab) (width 0.1))
  (fp_line (start 3.92 -21.91) (end 3.92 -21.27) (layer F.Fab) (width 0.1))
  (fp_line (start 3.92 -21.27) (end 2.54 -21.27) (layer F.Fab) (width 0.1))
  (fp_line (start -3.92 -19.37) (end -2.54 -19.37) (layer F.Fab) (width 0.1))
  (fp_line (start -2.54 -18.73) (end -3.92 -18.73) (layer F.Fab) (width 0.1))
  (fp_line (start -3.92 -18.73) (end -3.92 -19.37) (layer F.Fab) (width 0.1))
  (fp_line (start 2.54 -19.37) (end 3.92 -19.37) (layer F.Fab) (width 0.1))
  (fp_line (start 3.92 -19.37) (end 3.92 -18.73) (layer F.Fab) (width 0.1))
  (fp_line (start 3.92 -18.73) (end 2.54 -18.73) (layer F.Fab) (width 0.1))
  (fp_line (start -3.92 -16.83) (end -2.54 -16.83) (layer F.Fab) (width 0.1))
  (fp_line (start -2.54 -16.19) (end -3.92 -16.19) (layer F.Fab) (width 0.1))
  (fp_line (start -3.92 -16.19) (end -3.92 -16.83) (layer F.Fab) (width 0.1))
  (fp_line (start 2.54 -16.83) (end 3.92 -16.83) (layer F.Fab) (width 0.1))
  (fp_line (start 3.92 -16.83) (end 3.92 -16.19) (layer F.Fab) (width 0.1))
  (fp_line (start 3.92 -16.19) (end 2.54 -16.19) (layer F.Fab) (width 0.1))
  (fp_line (start -3.92 -14.29) (end -2.54 -14.29) (layer F.Fab) (width 0.1))
  (fp_line (start -2.54 -13.65) (end -3.92 -13.65) (layer F.Fab) (width 0.1))
  (fp_line (start -3.92 -13.65) (end -3.92 -14.29) (layer F.Fab) (width 0.1))
  (fp_line (start 2.54 -14.29) (end 3.92 -14.29) (layer F.Fab) (width 0.1))
  (fp_line (start 3.92 -14.29) (end 3.92 -13.65) (layer F.Fab) (width 0.1))
  (fp_line (start 3.92 -13.65) (end 2.54 -13.65) (layer F.Fab) (width 0.1))
  (fp_line (start -3.92 -11.75) (end -2.54 -11.75) (layer F.Fab) (width 0.1))
  (fp_line (start -2.54 -11.11) (end -3.92 -11.11) (layer F.Fab) (width 0.1))
  (fp_line (start -3.92 -11.11) (end -3.92 -11.75) (layer F.Fab) (width 0.1))
  (fp_line (start 2.54 -11.75) (end 3.92 -11.75) (layer F.Fab) (width 0.1))
  (fp_line (start 3.92 -11.75) (end 3.92 -11.11) (layer F.Fab) (width 0.1))
  (fp_line (start 3.92 -11.11) (end 2.54 -11.11) (layer F.Fab) (width 0.1))
  (fp_line (start -3.92 -9.21) (end -2.54 -9.21) (layer F.Fab) (width 0.1))
  (fp_line (start -2.54 -8.57) (end -3.92 -8.57) (layer F.Fab) (width 0.1))
  (fp_line (start -3.92 -8.57) (end -3.92 -9.21) (layer F.Fab) (width 0.1))
  (fp_line (start 2.54 -9.21) (end 3.92 -9.21) (layer F.Fab) (width 0.1))
  (fp_line (start 3.92 -9.21) (end 3.92 -8.57) (layer F.Fab) (width 0.1))
  (fp_line (start 3.92 -8.57) (end 2.54 -8.57) (layer F.Fab) (width 0.1))
  (fp_line (start -3.92 -6.67) (end -2.54 -6.67) (layer F.Fab) (width 0.1))
  (fp_line (start -2.54 -6.03) (end -3.92 -6.03) (layer F.Fab) (width 0.1))
  (fp_line (start -3.92 -6.03) (end -3.92 -6.67) (layer F.Fab) (width 0.1))
  (fp_line (start 2.54 -6.67) (end 3.92 -6.67) (layer F.Fab) (width 0.1))
  (fp_line (start 3.92 -6.67) (end 3.92 -6.03) (layer F.Fab) (width 0.1))
  (fp_line (start 3.92 -6.03) (end 2.54 -6.03) (layer F.Fab) (width 0.1))
  (fp_line (start -3.92 -4.13) (end -2.54 -4.13) (layer F.Fab) (width 0.1))
  (fp_line (start -2.54 -3.49) (end -3.92 -3.49) (layer F.Fab) (width 0.1))
  (fp_line (start -3.92 -3.49) (end -3.92 -4.13) (layer F.Fab) (width 0.1))
  (fp_line (start 2.54 -4.13) (end 3.92 -4.13) (layer F.Fab) (width 0.1))
  (fp_line (start 3.92 -4.13) (end 3.92 -3.49) (layer F.Fab) (width 0.1))
  (fp_line (start 3.92 -3.49) (end 2.54 -3.49) (layer F.Fab) (width 0.1))
  (fp_line (start -3.92 -1.59) (end -2.54 -1.59) (layer F.Fab) (width 0.1))
  (fp_line (start -2.54 -0.95) (end -3.92 -0.95) (layer F.Fab) (width 0.1))
  (fp_line (start -3.92 -0.95) (end -3.92 -1.59) (layer F.Fab) (width 0.1))
  (fp_line (start 2.54 -1.59) (end 3.92 -1.59) (layer F.Fab) (width 0.1))
  (fp_line (start 3.92 -1.59) (end 3.92 -0.95) (layer F.Fab) (width 0.1))
  (fp_line (start 3.92 -0.95) (end 2.54 -0.95) (layer F.Fab) (width 0.1))
  (fp_line (start -3.92 0.95) (end -2.54 0.95) (layer F.Fab) (width 0.1))
  (fp_line (start -2.54 1.59) (end -3.92 1.59) (layer F.Fab) (width 0.1))
  (fp_line (start -3.92 1.59) (end -3.92 0.95) (layer F.Fab) (width 0.1))
  (fp_line (start 2.54 0.95) (end 3.92 0.95) (layer F.Fab) (width 0.1))
  (fp_line (start 3.92 0.95) (end 3.92 1.59) (layer F.Fab) (width 0.1))
  (fp_line (start 3.92 1.59) (end 2.54 1.59) (layer F.Fab) (width 0.1))
  (fp_line (start -3.92 3.49) (end -2.54 3.49) (layer F.Fab) (width 0.1))
  (fp_line (start -2.54 4.13) (end -3.92 4.13) (layer F.Fab) (width 0.1))
  (fp_line (start -3.92 4.13) (end -3.92 3.49) (layer F.Fab) (width 0.1))
  (fp_line (start 2.54 3.49) (end 3.92 3.49) (layer F.Fab) (width 0.1))
  (fp_line (start 3.92 3.49) (end 3.92 4.13) (layer F.Fab) (width 0.1))
  (fp_line (start 3.92 4.13) (end 2.54 4.13) (layer F.Fab) (width 0.1))
  (fp_line (start -3.92 6.03) (end -2.54 6.03) (layer F.Fab) (width 0.1))
  (fp_line (start -2.54 6.67) (end -3.92 6.67) (layer F.Fab) (width 0.1))
  (fp_line (start -3.92 6.67) (end -3.92 6.03) (layer F.Fab) (width 0.1))
  (fp_line (start 2.54 6.03) (end 3.92 6.03) (layer F.Fab) (width 0.1))
  (fp_line (start 3.92 6.03) (end 3.92 6.67) (layer F.Fab) (width 0.1))
  (fp_line (start 3.92 6.67) (end 2.54 6.67) (layer F.Fab) (width 0.1))
  (fp_line (start -3.92 8.57) (end -2.54 8.57) (layer F.Fab) (width 0.1))
  (fp_line (start -2.54 9.21) (end -3.92 9.21) (layer F.Fab) (width 0.1))
  (fp_line (start -3.92 9.21) (end -3.92 8.57) (layer F.Fab) (width 0.1))
  (fp_line (start 2.54 8.57) (end 3.92 8.57) (layer F.Fab) (width 0.1))
  (fp_line (start 3.92 8.57) (end 3.92 9.21) (layer F.Fab) (width 0.1))
  (fp_line (start 3.92 9.21) (end 2.54 9.21) (layer F.Fab) (width 0.1))
  (fp_line (start -3.92 11.11) (end -2.54 11.11) (layer F.Fab) (width 0.1))
  (fp_line (start -2.54 11.75) (end -3.92 11.75) (layer F.Fab) (width 0.1))
  (fp_line (start -3.92 11.75) (end -3.92 11.11) (layer F.Fab) (width 0.1))
  (fp_line (start 2.54 11.11) (end 3.92 11.11) (layer F.Fab) (width 0.1))
  (fp_line (start 3.92 11.11) (end 3.92 11.75) (layer F.Fab) (width 0.1))
  (fp_line (start 3.92 11.75) (end 2.54 11.75) (layer F.Fab) (width 0.1))
  (fp_line (start -3.92 13.65) (end -2.54 13.65) (layer F.Fab) (width 0.1))
  (fp_line (start -2.54 14.29) (end -3.92 14.29) (layer F.Fab) (width 0.1))
  (fp_line (start -3.92 14.29) (end -3.92 13.65) (layer F.Fab) (width 0.1))
  (fp_line (start 2.54 13.65) (end 3.92 13.65) (layer F.Fab) (width 0.1))
  (fp_line (start 3.92 13.65) (end 3.92 14.29) (layer F.Fab) (width 0.1))
  (fp_line (start 3.92 14.29) (end 2.54 14.29) (layer F.Fab) (width 0.1))
  (fp_line (start -3.92 16.19) (end -2.54 16.19) (layer F.Fab) (width 0.1))
  (fp_line (start -2.54 16.83) (end -3.92 16.83) (layer F.Fab) (width 0.1))
  (fp_line (start -3.92 16.83) (end -3.92 16.19) (layer F.Fab) (width 0.1))
  (fp_line (start 2.54 16.19) (end 3.92 16.19) (layer F.Fab) (width 0.1))
  (fp_line (start 3.92 16.19) (end 3.92 16.83) (layer F.Fab) (width 0.1))
  (fp_line (start 3.92 16.83) (end 2.54 16.83) (layer F.Fab) (width 0.1))
  (fp_line (start -3.92 18.73) (end -2.54 18.73) (layer F.Fab) (width 0.1))
  (fp_line (start -2.54 19.37) (end -3.92 19.37) (layer F.Fab) (width 0.1))
  (fp_line (start -3.92 19.37) (end -3.92 18.73) (layer F.Fab) (width 0.1))
  (fp_line (start 2.54 18.73) (end 3.92 18.73) (layer F.Fab) (width 0.1))
  (fp_line (start 3.92 18.73) (end 3.92 19.37) (layer F.Fab) (width 0.1))
  (fp_line (start 3.92 19.37) (end 2.54 19.37) (layer F.Fab) (width 0.1))
  (fp_line (start -3.92 21.27) (end -2.54 21.27) (layer F.Fab) (width 0.1))
  (fp_line (start -2.54 21.91) (end -3.92 21.91) (layer F.Fab) (width 0.1))
  (fp_line (start -3.92 21.91) (end -3.92 21.27) (layer F.Fab) (width 0.1))
  (fp_line (start 2.54 21.27) (end 3.92 21.27) (layer F.Fab) (width 0.1))
  (fp_line (start 3.92 21.27) (end 3.92 21.91) (layer F.Fab) (width 0.1))
  (fp_line (start 3.92 21.91) (end 2.54 21.91) (layer F.Fab) (width 0.1))
  (fp_line (start -3.92 23.81) (end -2.54 23.81) (layer F.Fab) (width 0.1))
  (fp_line (start -2.54 24.45) (end -3.92 24.45) (layer F.Fab) (width 0.1))
  (fp_line (start -3.92 24.45) (end -3.92 23.81) (layer F.Fab) (width 0.1))
  (fp_line (start 2.54 23.81) (end 3.92 23.81) (layer F.Fab) (width 0.1))
  (fp_line (start 3.92 23.81) (end 3.92 24.45) (layer F.Fab) (width 0.1))
  (fp_line (start 3.92 24.45) (end 2.54 24.45) (layer F.Fab) (width 0.1))
  (fp_line (start -3.92 26.35) (end -2.54 26.35) (layer F.Fab) (width 0.1))
  (fp_line (start -2.54 26.99) (end -3.92 26.99) (layer F.Fab) (width 0.1))
  (fp_line (start -3.92 26.99) (end -3.92 26.35) (layer F.Fab) (width 0.1))
  (fp_line (start 2.54 26.35) (end 3.92 26.35) (layer F.Fab) (width 0.1))
  (fp_line (start 3.92 26.35) (end 3.92 26.99) (layer F.Fab) (width 0.1))
  (fp_line (start 3.92 26.99) (end 2.54 26.99) (layer F.Fab) (width 0.1))
  (fp_line (start -3.92 28.89) (end -2.54 28.89) (layer F.Fab) (width 0.1))
  (fp_line (start -2.54 29.53) (end -3.92 29.53) (layer F.Fab) (width 0.1))
  (fp_line (start -3.92 29.53) (end -3.92 28.89) (layer F.Fab) (width 0.1))
  (fp_line (start 2.54 28.89) (end 3.92 28.89) (layer F.Fab) (width 0.1))
  (fp_line (start 3.92 28.89) (end 3.92 29.53) (layer F.Fab) (width 0.1))
  (fp_line (start 3.92 29.53) (end 2.54 29.53) (layer F.Fab) (width 0.1))
  (fp_line (start -3.92 31.43) (end -2.54 31.43) (layer F.Fab) (width 0.1))
  (fp_line (start -2.54 32.07) (end -3.92 32.07) (layer F.Fab) (width 0.1))
  (fp_line (start -3.92 32.07) (end -3.92 31.43) (layer F.Fab) (width 0.1))
  (fp_line (start 2.54 31.43) (end 3.92 31.43) (layer F.Fab) (width 0.1))
  (fp_line (start 3.92 31.43) (end 3.92 32.07) (layer F.Fab) (width 0.1))
  (fp_line (start 3.92 32.07) (end 2.54 32.07) (layer F.Fab) (width 0.1))
  (fp_line (start -3.92 33.97) (end -2.54 33.97) (layer F.Fab) (width 0.1))
  (fp_line (start -2.54 34.61) (end -3.92 34.61) (layer F.Fab) (width 0.1))
  (fp_line (start -3.92 34.61) (end -3.92 33.97) (layer F.Fab) (width 0.1))
  (fp_line (start 2.54 33.97) (end 3.92 33.97) (layer F.Fab) (width 0.1))
  (fp_line (start 3.92 33.97) (end 3.92 34.61) (layer F.Fab) (width 0.1))
  (fp_line (start 3.92 34.61) (end 2.54 34.61) (layer F.Fab) (width 0.1))
  (fp_line (start -3.92 36.51) (end -2.54 36.51) (layer F.Fab) (width 0.1))
  (fp_line (start -2.54 37.15) (end -3.92 37.15) (layer F.Fab) (width 0.1))
  (fp_line (start -3.92 37.15) (end -3.92 36.51) (layer F.Fab) (width 0.1))
  (fp_line (start 2.54 36.51) (end 3.92 36.51) (layer F.Fab) (width 0.1))
  (fp_line (start 3.92 36.51) (end 3.92 37.15) (layer F.Fab) (width 0.1))
  (fp_line (start 3.92 37.15) (end 2.54 37.15) (layer F.Fab) (width 0.1))
  (fp_line (start -3.92 39.05) (end -2.54 39.05) (layer F.Fab) (width 0.1))
  (fp_line (start -2.54 39.69) (end -3.92 39.69) (layer F.Fab) (width 0.1))
  (fp_line (start -3.92 39.69) (end -3.92 39.05) (layer F.Fab) (width 0.1))
  (fp_line (start 2.54 39.05) (end 3.92 39.05) (layer F.Fab) (width 0.1))
  (fp_line (start 3.92 39.05) (end 3.92 39.69) (layer F.Fab) (width 0.1))
  (fp_line (start 3.92 39.69) (end 2.54 39.69) (layer F.Fab) (width 0.1))
  (fp_line (start -4.55 -41.2) (end 4.5 -41.2) (layer F.CrtYd) (width 0.05))
  (fp_line (start 4.5 -41.2) (end 4.5 41.15) (layer F.CrtYd) (width 0.05))
  (fp_line (start 4.5 41.15) (end -4.55 41.15) (layer F.CrtYd) (width 0.05))
  (fp_line (start -4.55 41.15) (end -4.55 -41.2) (layer F.CrtYd) (width 0.05))
  (pad 1 smd rect (at 2.52 -39.37) (size 3 1) (layers F.Cu F.Mask F.Paste))
  (pad 2 smd rect (at -2.52 -39.37) (size 3 1) (layers F.Cu F.Mask F.Paste))
  (pad 3 smd rect (at 2.52 -36.83) (size 3 1) (layers F.Cu F.Mask F.Paste))
  (pad 4 smd rect (at -2.52 -36.83) (size 3 1) (layers F.Cu F.Mask F.Paste))
  (pad 5 smd rect (at 2.52 -34.29) (size 3 1) (layers F.Cu F.Mask F.Paste))
  (pad 6 smd rect (at -2.52 -34.29) (size 3 1) (layers F.Cu F.Mask F.Paste))
  (pad 7 smd rect (at 2.52 -31.75) (size 3 1) (layers F.Cu F.Mask F.Paste))
  (pad 8 smd rect (at -2.52 -31.75) (size 3 1) (layers F.Cu F.Mask F.Paste))
  (pad 9 smd rect (at 2.52 -29.21) (size 3 1) (layers F.Cu F.Mask F.Paste))
  (pad 10 smd rect (at -2.52 -29.21) (size 3 1) (layers F.Cu F.Mask F.Paste))
  (pad 11 smd rect (at 2.52 -26.67) (size 3 1) (layers F.Cu F.Mask F.Paste))
  (pad 12 smd rect (at -2.52 -26.67) (size 3 1) (layers F.Cu F.Mask F.Paste))
  (pad 13 smd rect (at 2.52 -24.13) (size 3 1) (layers F.Cu F.Mask F.Paste))
  (pad 14 smd rect (at -2.52 -24.13) (size 3 1) (layers F.Cu F.Mask F.Paste))
  (pad 15 smd rect (at 2.52 -21.59) (size 3 1) (layers F.Cu F.Mask F.Paste))
  (pad 16 smd rect (at -2.52 -21.59) (size 3 1) (layers F.Cu F.Mask F.Paste))
  (pad 17 smd rect (at 2.52 -19.05) (size 3 1) (layers F.Cu F.Mask F.Paste))
  (pad 18 smd rect (at -2.52 -19.05) (size 3 1) (layers F.Cu F.Mask F.Paste))
  (pad 19 smd rect (at 2.52 -16.51) (size 3 1) (layers F.Cu F.Mask F.Paste))
  (pad 20 smd rect (at -2.52 -16.51) (size 3 1) (layers F.Cu F.Mask F.Paste))
  (pad 21 smd rect (at 2.52 -13.97) (size 3 1) (layers F.Cu F.Mask F.Paste))
  (pad 22 smd rect (at -2.52 -13.97) (size 3 1) (layers F.Cu F.Mask F.Paste))
  (pad 23 smd rect (at 2.52 -11.43) (size 3 1) (layers F.Cu F.Mask F.Paste))
  (pad 24 smd rect (at -2.52 -11.43) (size 3 1) (layers F.Cu F.Mask F.Paste))
  (pad 25 smd rect (at 2.52 -8.89) (size 3 1) (layers F.Cu F.Mask F.Paste))
  (pad 26 smd rect (at -2.52 -8.89) (size 3 1) (layers F.Cu F.Mask F.Paste))
  (pad 27 smd rect (at 2.52 -6.35) (size 3 1) (layers F.Cu F.Mask F.Paste))
  (pad 28 smd rect (at -2.52 -6.35) (size 3 1) (layers F.Cu F.Mask F.Paste))
  (pad 29 smd rect (at 2.52 -3.81) (size 3 1) (layers F.Cu F.Mask F.Paste))
  (pad 30 smd rect (at -2.52 -3.81) (size 3 1) (layers F.Cu F.Mask F.Paste))
  (pad 31 smd rect (at 2.52 -1.27) (size 3 1) (layers F.Cu F.Mask F.Paste))
  (pad 32 smd rect (at -2.52 -1.27) (size 3 1) (layers F.Cu F.Mask F.Paste))
  (pad 33 smd rect (at 2.52 1.27) (size 3 1) (layers F.Cu F.Mask F.Paste))
  (pad 34 smd rect (at -2.52 1.27) (size 3 1) (layers F.Cu F.Mask F.Paste))
  (pad 35 smd rect (at 2.52 3.81) (size 3 1) (layers F.Cu F.Mask F.Paste))
  (pad 36 smd rect (at -2.52 3.81) (size 3 1) (layers F.Cu F.Mask F.Paste))
  (pad 37 smd rect (at 2.52 6.35) (size 3 1) (layers F.Cu F.Mask F.Paste))
  (pad 38 smd rect (at -2.52 6.35) (size 3 1) (layers F.Cu F.Mask F.Paste))
  (pad 39 smd rect (at 2.52 8.89) (size 3 1) (layers F.Cu F.Mask F.Paste))
  (pad 40 smd rect (at -2.52 8.89) (size 3 1) (layers F.Cu F.Mask F.Paste))
  (pad 41 smd rect (at 2.52 11.43) (size 3 1) (layers F.Cu F.Mask F.Paste))
  (pad 42 smd rect (at -2.52 11.43) (size 3 1) (layers F.Cu F.Mask F.Paste))
  (pad 43 smd rect (at 2.52 13.97) (size 3 1) (layers F.Cu F.Mask F.Paste))
  (pad 44 smd rect (at -2.52 13.97) (size 3 1) (layers F.Cu F.Mask F.Paste))
  (pad 45 smd rect (at 2.52 16.51) (size 3 1) (layers F.Cu F.Mask F.Paste))
  (pad 46 smd rect (at -2.52 16.51) (size 3 1) (layers F.Cu F.Mask F.Paste))
  (pad 47 smd rect (at 2.52 19.05) (size 3 1) (layers F.Cu F.Mask F.Paste))
  (pad 48 smd rect (at -2.52 19.05) (size 3 1) (layers F.Cu F.Mask F.Paste))
  (pad 49 smd rect (at 2.52 21.59) (size 3 1) (layers F.Cu F.Mask F.Paste))
  (pad 50 smd rect (at -2.52 21.59) (size 3 1) (layers F.Cu F.Mask F.Paste))
  (pad 51 smd rect (at 2.52 24.13) (size 3 1) (layers F.Cu F.Mask F.Paste))
  (pad 52 smd rect (at -2.52 24.13) (size 3 1) (layers F.Cu F.Mask F.Paste))
  (pad 53 smd rect (at 2.52 26.67) (size 3 1) (layers F.Cu F.Mask F.Paste))
  (pad 54 smd rect (at -2.52 26.67) (size 3 1) (layers F.Cu F.Mask F.Paste))
  (pad 55 smd rect (at 2.52 29.21) (size 3 1) (layers F.Cu F.Mask F.Paste))
  (pad 56 smd rect (at -2.52 29.21) (size 3 1) (layers F.Cu F.Mask F.Paste))
  (pad 57 smd rect (at 2.52 31.75) (size 3 1) (layers F.Cu F.Mask F.Paste))
  (pad 58 smd rect (at -2.52 31.75) (size 3 1) (layers F.Cu F.Mask F.Paste))
  (pad 59 smd rect (at 2.52 34.29) (size 3 1) (layers F.Cu F.Mask F.Paste))
  (pad 60 smd rect (at -2.52 34.29) (size 3 1) (layers F.Cu F.Mask F.Paste))
  (pad 61 smd rect (at 2.52 36.83) (size 3 1) (layers F.Cu F.Mask F.Paste))
  (pad 62 smd rect (at -2.52 36.83) (size 3 1) (layers F.Cu F.Mask F.Paste))
  (pad 63 smd rect (at 2.52 39.37) (size 3 1) (layers F.Cu F.Mask F.Paste))
  (pad 64 smd rect (at -2.52 39.37) (size 3 1) (layers F.Cu F.Mask F.Paste))
  (fp_text user %R (at 0 0 90) (layer F.Fab)
    (effects (font (size 1 1) (thickness 0.15)))
  )
  (model ${KIPRJMOD}/kicad_libs_k/models_k.3d/Connector_PinSocket_2.54mm_k.3dshapes/PinSocket_2x32_P2.54mm_Vertical_SMD_k.wrl
    (at (xyz 0 0 0))
    (scale (xyz 1 1 1))
    (rotate (xyz 0 0 0))
  )
)