(module PinSocket_1x02_P2.54mm_Vertical_SMD_Pin1Left (layer F.Cu) (tedit 5A19A41D)
  (descr "surface-mounted straight socket strip, 1x02, 2.54mm pitch, single row, style 1 (pin 1 left) (https://cdn.harwin.com/pdfs/M20-786.pdf), script generated")
  (tags "Surface mounted socket strip SMD 1x02 2.54mm single row style1 pin1 left")
  (attr smd)
  (fp_text reference REF** (at 0 -4.14) (layer F.SilkS)
    (effects (font (size 1 1) (thickness 0.15)))
  )
  (fp_text value PinSocket_1x02_P2.54mm_Vertical_SMD_Pin1Left (at 0 4.14) (layer F.Fab)
    (effects (font (size 1 1) (thickness 0.15)))
  )
  (fp_line (start -1.33 -2.7) (end 1.33 -2.7) (layer F.SilkS) (width 0.12))
  (fp_line (start 1.33 -2.7) (end 1.33 0.51) (layer F.SilkS) (width 0.12))
  (fp_line (start 1.33 2.03) (end 1.33 2.7) (layer F.SilkS) (width 0.12))
  (fp_line (start -1.33 2.7) (end 1.33 2.7) (layer F.SilkS) (width 0.12))
  (fp_line (start -1.33 -2.7) (end -1.33 -2.03) (layer F.SilkS) (width 0.12))
  (fp_line (start -1.33 -0.51) (end -1.33 2.7) (layer F.SilkS) (width 0.12))
  (fp_line (start -2.54 -2.03) (end -1.33 -2.03) (layer F.SilkS) (width 0.12))
  (fp_line (start -0.635 -2.64) (end 1.27 -2.64) (layer F.Fab) (width 0.1))
  (fp_line (start 1.27 -2.64) (end 1.27 2.64) (layer F.Fab) (width 0.1))
  (fp_line (start 1.27 2.64) (end -1.27 2.64) (layer F.Fab) (width 0.1))
  (fp_line (start -1.27 2.64) (end -1.27 -2.005) (layer F.Fab) (width 0.1))
  (fp_line (start -1.27 -2.005) (end -0.635 -2.64) (layer F.Fab) (width 0.1))
  (fp_line (start -2.27 -1.57) (end -1.27 -1.57) (layer F.Fab) (width 0.1))
  (fp_line (start -1.27 -0.97) (end -2.27 -0.97) (layer F.Fab) (width 0.1))
  (fp_line (start -2.27 -0.97) (end -2.27 -1.57) (layer F.Fab) (width 0.1))
  (fp_line (start 1.27 0.97) (end 2.27 0.97) (layer F.Fab) (width 0.1))
  (fp_line (start 2.27 0.97) (end 2.27 1.57) (layer F.Fab) (width 0.1))
  (fp_line (start 2.27 1.57) (end 1.27 1.57) (layer F.Fab) (width 0.1))
  (fp_line (start -3.1 -3.2) (end 3.1 -3.2) (layer F.CrtYd) (width 0.05))
  (fp_line (start 3.1 -3.2) (end 3.1 3.15) (layer F.CrtYd) (width 0.05))
  (fp_line (start 3.1 3.15) (end -3.1 3.15) (layer F.CrtYd) (width 0.05))
  (fp_line (start -3.1 3.15) (end -3.1 -3.2) (layer F.CrtYd) (width 0.05))
  (pad 1 smd rect (at -1.65 -1.27) (size 1.9 1) (layers F.Cu F.Mask F.Paste))
  (pad 2 smd rect (at 1.65 1.27) (size 1.9 1) (layers F.Cu F.Mask F.Paste))
  (fp_text user %R (at 0 0 90) (layer F.Fab)
    (effects (font (size 1 1) (thickness 0.15)))
  )
  (model ${KIPRJMOD}/kicad_libs_k/models_k.3d/Connector_PinSocket_2.54mm_k.3dshapes/PinSocket_1x02_P2.54mm_Vertical_SMD_Pin1Left_k.wrl
    (at (xyz 0 0 0))
    (scale (xyz 1 1 1))
    (rotate (xyz 0 0 0))
  )
)