(module TerminalBlock_TE_282834-7_1x07_P2.54mm_Horizontal (layer F.Cu) (tedit 5B1EC513)
  (descr "Terminal Block TE 282834-7, 7 pins, pitch 2.54mm, size 18.240000000000002x6.5mm^2, drill diamater 1.1mm, pad diameter 2.1mm, see http://www.te.com/commerce/DocumentDelivery/DDEController?Action=showdoc&DocId=Customer+Drawing%7F282834%7FC1%7Fpdf%7FEnglish%7FENG_CD_282834_C1.pdf, script-generated using https://github.com/pointhi/kicad-footprint-generator/scripts/TerminalBlock_TE-Connectivity")
  (tags "THT Terminal Block TE 282834-7 pitch 2.54mm size 18.240000000000002x6.5mm^2 drill 1.1mm pad 2.1mm")
  (fp_text reference REF** (at 7.62 -4.37) (layer F.SilkS)
    (effects (font (size 1 1) (thickness 0.15)))
  )
  (fp_text value TerminalBlock_TE_282834-7_1x07_P2.54mm_Horizontal (at 7.62 4.37) (layer F.Fab)
    (effects (font (size 1 1) (thickness 0.15)))
  )
  (fp_circle (center 0 0) (end 1.1 0) (layer F.Fab) (width 0.1))
  (fp_circle (center 2.54 0) (end 3.64 0) (layer F.Fab) (width 0.1))
  (fp_circle (center 5.08 0) (end 6.18 0) (layer F.Fab) (width 0.1))
  (fp_circle (center 7.62 0) (end 8.72 0) (layer F.Fab) (width 0.1))
  (fp_circle (center 10.16 0) (end 11.26 0) (layer F.Fab) (width 0.1))
  (fp_circle (center 12.7 0) (end 13.8 0) (layer F.Fab) (width 0.1))
  (fp_circle (center 15.24 0) (end 16.34 0) (layer F.Fab) (width 0.1))
  (fp_line (start -1.5 -3.25) (end 16.74 -3.25) (layer F.Fab) (width 0.1))
  (fp_line (start 16.74 -3.25) (end 16.74 3.25) (layer F.Fab) (width 0.1))
  (fp_line (start 16.74 3.25) (end -1.1 3.25) (layer F.Fab) (width 0.1))
  (fp_line (start -1.1 3.25) (end -1.5 2.85) (layer F.Fab) (width 0.1))
  (fp_line (start -1.5 2.85) (end -1.5 -3.25) (layer F.Fab) (width 0.1))
  (fp_line (start -1.5 2.85) (end 16.74 2.85) (layer F.Fab) (width 0.1))
  (fp_line (start -1.62 2.85) (end 16.86 2.85) (layer F.SilkS) (width 0.12))
  (fp_line (start -1.5 -2.25) (end 16.74 -2.25) (layer F.Fab) (width 0.1))
  (fp_line (start -1.62 -2.25) (end 16.86 -2.25) (layer F.SilkS) (width 0.12))
  (fp_line (start -1.62 -3.37) (end 16.86 -3.37) (layer F.SilkS) (width 0.12))
  (fp_line (start -1.62 3.37) (end 16.86 3.37) (layer F.SilkS) (width 0.12))
  (fp_line (start -1.62 -3.37) (end -1.62 3.37) (layer F.SilkS) (width 0.12))
  (fp_line (start 16.86 -3.37) (end 16.86 3.37) (layer F.SilkS) (width 0.12))
  (fp_line (start 0.835 -0.7) (end -0.701 0.835) (layer F.Fab) (width 0.1))
  (fp_line (start 0.701 -0.835) (end -0.835 0.7) (layer F.Fab) (width 0.1))
  (fp_line (start 3.375 -0.7) (end 1.84 0.835) (layer F.Fab) (width 0.1))
  (fp_line (start 3.241 -0.835) (end 1.706 0.7) (layer F.Fab) (width 0.1))
  (fp_line (start 5.915 -0.7) (end 4.38 0.835) (layer F.Fab) (width 0.1))
  (fp_line (start 5.781 -0.835) (end 4.246 0.7) (layer F.Fab) (width 0.1))
  (fp_line (start 8.455 -0.7) (end 6.92 0.835) (layer F.Fab) (width 0.1))
  (fp_line (start 8.321 -0.835) (end 6.786 0.7) (layer F.Fab) (width 0.1))
  (fp_line (start 10.995 -0.7) (end 9.46 0.835) (layer F.Fab) (width 0.1))
  (fp_line (start 10.861 -0.835) (end 9.326 0.7) (layer F.Fab) (width 0.1))
  (fp_line (start 13.535 -0.7) (end 12 0.835) (layer F.Fab) (width 0.1))
  (fp_line (start 13.401 -0.835) (end 11.866 0.7) (layer F.Fab) (width 0.1))
  (fp_line (start 16.075 -0.7) (end 14.54 0.835) (layer F.Fab) (width 0.1))
  (fp_line (start 15.941 -0.835) (end 14.406 0.7) (layer F.Fab) (width 0.1))
  (fp_line (start -1.86 2.97) (end -1.86 3.61) (layer F.SilkS) (width 0.12))
  (fp_line (start -1.86 3.61) (end -1.46 3.61) (layer F.SilkS) (width 0.12))
  (fp_line (start -2 -3.75) (end -2 3.75) (layer F.CrtYd) (width 0.05))
  (fp_line (start -2 3.75) (end 17.25 3.75) (layer F.CrtYd) (width 0.05))
  (fp_line (start 17.25 3.75) (end 17.25 -3.75) (layer F.CrtYd) (width 0.05))
  (fp_line (start 17.25 -3.75) (end -2 -3.75) (layer F.CrtYd) (width 0.05))
  (pad 1 thru_hole rect (at 0 0) (size 2.1 2.1) (drill 1.1) (layers *.Cu *.Mask))
  (pad 2 thru_hole circle (at 2.54 0) (size 2.1 2.1) (drill 1.1) (layers *.Cu *.Mask))
  (pad 3 thru_hole circle (at 5.08 0) (size 2.1 2.1) (drill 1.1) (layers *.Cu *.Mask))
  (pad 4 thru_hole circle (at 7.62 0) (size 2.1 2.1) (drill 1.1) (layers *.Cu *.Mask))
  (pad 5 thru_hole circle (at 10.16 0) (size 2.1 2.1) (drill 1.1) (layers *.Cu *.Mask))
  (pad 6 thru_hole circle (at 12.7 0) (size 2.1 2.1) (drill 1.1) (layers *.Cu *.Mask))
  (pad 7 thru_hole circle (at 15.24 0) (size 2.1 2.1) (drill 1.1) (layers *.Cu *.Mask))
  (fp_text user %R (at 7.62 2) (layer F.Fab)
    (effects (font (size 1 1) (thickness 0.15)))
  )
  (model ${KIPRJMOD}/kicad_libs_k/models_k.3d/TerminalBlock_TE-Connectivity_k.3dshapes/TerminalBlock_TE_282834-7_1x07_P2.54mm_Horizontal_k.wrl
    (at (xyz 0 0 0))
    (scale (xyz 1 1 1))
    (rotate (xyz 0 0 0))
  )
)