(module D_5KP_P7.62mm_Vertical_KathodeUp (layer F.Cu) (tedit 5AE50CD5)
  (descr "Diode, 5KP series, Axial, Vertical, pin pitch=7.62mm, , length*diameter=7.62*9.53mm^2, , http://www.diodes.com/_files/packages/8686949.gif")
  (tags "Diode 5KP series Axial Vertical pin pitch 7.62mm  length 7.62mm diameter 9.53mm")
  (fp_text reference REF** (at 3.81 -5.885) (layer F.SilkS)
    (effects (font (size 1 1) (thickness 0.15)))
  )
  (fp_text value D_5KP_P7.62mm_Vertical_KathodeUp (at 3.81 5.885) (layer F.Fab)
    (effects (font (size 1 1) (thickness 0.15)))
  )
  (fp_circle (center 7.62 0) (end 12.385 0) (layer F.Fab) (width 0.1))
  (fp_circle (center 7.62 0) (end 12.505 0) (layer F.SilkS) (width 0.12))
  (fp_line (start 0 0) (end 7.62 0) (layer F.Fab) (width 0.1))
  (fp_line (start 2.735 0) (end 1.7 0) (layer F.SilkS) (width 0.12))
  (fp_line (start -1.65 -5.02) (end -1.65 5.02) (layer F.CrtYd) (width 0.05))
  (fp_line (start -1.65 5.02) (end 12.64 5.02) (layer F.CrtYd) (width 0.05))
  (fp_line (start 12.64 5.02) (end 12.64 -5.02) (layer F.CrtYd) (width 0.05))
  (fp_line (start 12.64 -5.02) (end -1.65 -5.02) (layer F.CrtYd) (width 0.05))
  (pad 1 thru_hole rect (at 0 0) (size 2.8 2.8) (drill 1.4) (layers *.Cu *.Mask))
  (pad 2 thru_hole oval (at 7.62 0) (size 2.8 2.8) (drill 1.4) (layers *.Cu *.Mask))
  (fp_text user %R (at 7.62 -1.9) (layer F.Fab)
    (effects (font (size 1 1) (thickness 0.15)))
  )
  (fp_text user K (at 0 2.4) (layer F.Fab)
    (effects (font (size 1 1) (thickness 0.15)))
  )
  (fp_text user K (at 0 2.4) (layer F.SilkS)
    (effects (font (size 1 1) (thickness 0.15)))
  )
  (model ${KIPRJMOD}/kicad_libs_k/models_k.3d/Diode_THT_k.3dshapes/D_5KP_P7.62mm_Vertical_KathodeUp_k.wrl
    (at (xyz 0 0 0))
    (scale (xyz 1 1 1))
    (rotate (xyz 0 0 0))
  )
)