(module D_DO-201AD_P5.08mm_Vertical_KathodeUp (layer F.Cu) (tedit 5AE50CD5)
  (descr "Diode, DO-201AD series, Axial, Vertical, pin pitch=5.08mm, , length*diameter=9.5*5.2mm^2, , http://www.diodes.com/_files/packages/DO-201AD.pdf")
  (tags "Diode DO-201AD series Axial Vertical pin pitch 5.08mm  length 9.5mm diameter 5.2mm")
  (fp_text reference REF** (at 2.54 -3.72) (layer F.SilkS)
    (effects (font (size 1 1) (thickness 0.15)))
  )
  (fp_text value D_DO-201AD_P5.08mm_Vertical_KathodeUp (at 2.54 5.498) (layer F.Fab)
    (effects (font (size 1 1) (thickness 0.15)))
  )
  (fp_circle (center 5.08 0) (end 7.68 0) (layer F.Fab) (width 0.1))
  (fp_circle (center 5.08 0) (end 7.8 0) (layer F.SilkS) (width 0.12))
  (fp_line (start 0 0) (end 5.08 0) (layer F.Fab) (width 0.1))
  (fp_line (start 2.36 0) (end 1.9 0) (layer F.SilkS) (width 0.12))
  (fp_line (start -1.85 -2.85) (end -1.85 2.85) (layer F.CrtYd) (width 0.05))
  (fp_line (start -1.85 2.85) (end 7.93 2.85) (layer F.CrtYd) (width 0.05))
  (fp_line (start 7.93 2.85) (end 7.93 -2.85) (layer F.CrtYd) (width 0.05))
  (fp_line (start 7.93 -2.85) (end -1.85 -2.85) (layer F.CrtYd) (width 0.05))
  (pad 1 thru_hole rect (at 0 0) (size 3.2 3.2) (drill 1.6) (layers *.Cu *.Mask))
  (pad 2 thru_hole oval (at 5.08 0) (size 3.2 3.2) (drill 1.6) (layers *.Cu *.Mask))
  (fp_text user %R (at 2.54 -3.72) (layer F.Fab)
    (effects (font (size 1 1) (thickness 0.15)))
  )
  (fp_text user K (at 0 2.6) (layer F.Fab)
    (effects (font (size 1 1) (thickness 0.15)))
  )
  (fp_text user K (at 0 2.6) (layer F.SilkS)
    (effects (font (size 1 1) (thickness 0.15)))
  )
  (model ${KIPRJMOD}/kicad_libs_k/models_k.3d/Diode_THT_k.3dshapes/D_DO-201AD_P5.08mm_Vertical_KathodeUp_k.wrl
    (at (xyz 0 0 0))
    (scale (xyz 1 1 1))
    (rotate (xyz 0 0 0))
  )
)