(module D_DO-27_P5.08mm_Vertical_AnodeUp (layer F.Cu) (tedit 5AE50CD5)
  (descr "Diode, DO-27 series, Axial, Vertical, pin pitch=5.08mm, , length*diameter=9.52*5.33mm^2, , http://www.slottechforum.com/slotinfo/Techstuff/CD2%20Diodes%20and%20Transistors/Cases/Diode%20DO-27.jpg")
  (tags "Diode DO-27 series Axial Vertical pin pitch 5.08mm  length 9.52mm diameter 5.33mm")
  (fp_text reference REF** (at 2.54 -3.785) (layer F.SilkS)
    (effects (font (size 1 1) (thickness 0.15)))
  )
  (fp_text value D_DO-27_P5.08mm_Vertical_AnodeUp (at 2.54 3.785) (layer F.Fab)
    (effects (font (size 1 1) (thickness 0.15)))
  )
  (fp_circle (center 0 0) (end 2.665 0) (layer F.Fab) (width 0.1))
  (fp_circle (center 0 0) (end 2.785 0) (layer F.SilkS) (width 0.12))
  (fp_line (start 0 0) (end 5.08 0) (layer F.Fab) (width 0.1))
  (fp_line (start 2.785 0) (end 3.58 0) (layer F.SilkS) (width 0.12))
  (fp_line (start -2.92 -2.92) (end -2.92 2.92) (layer F.CrtYd) (width 0.05))
  (fp_line (start -2.92 2.92) (end 6.53 2.92) (layer F.CrtYd) (width 0.05))
  (fp_line (start 6.53 2.92) (end 6.53 -2.92) (layer F.CrtYd) (width 0.05))
  (fp_line (start 6.53 -2.92) (end -2.92 -2.92) (layer F.CrtYd) (width 0.05))
  (pad 1 thru_hole rect (at 0 0) (size 2.4 2.4) (drill 1.2) (layers *.Cu *.Mask))
  (pad 2 thru_hole oval (at 5.08 0) (size 2.4 2.4) (drill 1.2) (layers *.Cu *.Mask))
  (fp_text user %R (at 2.54 -3.785) (layer F.Fab)
    (effects (font (size 1 1) (thickness 0.15)))
  )
  (fp_text user A (at 5.08 2.2) (layer F.Fab)
    (effects (font (size 1 1) (thickness 0.15)))
  )
  (fp_text user A (at 5.08 2.2) (layer F.SilkS)
    (effects (font (size 1 1) (thickness 0.15)))
  )
  (model ${KIPRJMOD}/kicad_libs_k/models_k.3d/Diode_THT_k.3dshapes/D_DO-27_P5.08mm_Vertical_AnodeUp_k.wrl
    (at (xyz 0 0 0))
    (scale (xyz 1 1 1))
    (rotate (xyz 0 0 0))
  )
)