(module D_DO-27_P12.70mm_Horizontal (layer F.Cu) (tedit 5AE50CD5)
  (descr "Diode, DO-27 series, Axial, Horizontal, pin pitch=12.7mm, , length*diameter=9.52*5.33mm^2, , http://www.slottechforum.com/slotinfo/Techstuff/CD2%20Diodes%20and%20Transistors/Cases/Diode%20DO-27.jpg")
  (tags "Diode DO-27 series Axial Horizontal pin pitch 12.7mm  length 9.52mm diameter 5.33mm")
  (fp_text reference REF** (at 6.35 -3.785) (layer F.SilkS)
    (effects (font (size 1 1) (thickness 0.15)))
  )
  (fp_text value D_DO-27_P12.70mm_Horizontal (at 6.35 3.785) (layer F.Fab)
    (effects (font (size 1 1) (thickness 0.15)))
  )
  (fp_line (start 1.59 -2.665) (end 1.59 2.665) (layer F.Fab) (width 0.1))
  (fp_line (start 1.59 2.665) (end 11.11 2.665) (layer F.Fab) (width 0.1))
  (fp_line (start 11.11 2.665) (end 11.11 -2.665) (layer F.Fab) (width 0.1))
  (fp_line (start 11.11 -2.665) (end 1.59 -2.665) (layer F.Fab) (width 0.1))
  (fp_line (start 0 0) (end 1.59 0) (layer F.Fab) (width 0.1))
  (fp_line (start 12.7 0) (end 11.11 0) (layer F.Fab) (width 0.1))
  (fp_line (start 3.018 -2.665) (end 3.018 2.665) (layer F.Fab) (width 0.1))
  (fp_line (start 3.118 -2.665) (end 3.118 2.665) (layer F.Fab) (width 0.1))
  (fp_line (start 2.918 -2.665) (end 2.918 2.665) (layer F.Fab) (width 0.1))
  (fp_line (start 1.47 -2.785) (end 1.47 2.785) (layer F.SilkS) (width 0.12))
  (fp_line (start 1.47 2.785) (end 11.23 2.785) (layer F.SilkS) (width 0.12))
  (fp_line (start 11.23 2.785) (end 11.23 -2.785) (layer F.SilkS) (width 0.12))
  (fp_line (start 11.23 -2.785) (end 1.47 -2.785) (layer F.SilkS) (width 0.12))
  (fp_line (start 1.44 0) (end 1.47 0) (layer F.SilkS) (width 0.12))
  (fp_line (start 11.26 0) (end 11.23 0) (layer F.SilkS) (width 0.12))
  (fp_line (start 3.018 -2.785) (end 3.018 2.785) (layer F.SilkS) (width 0.12))
  (fp_line (start 3.138 -2.785) (end 3.138 2.785) (layer F.SilkS) (width 0.12))
  (fp_line (start 2.898 -2.785) (end 2.898 2.785) (layer F.SilkS) (width 0.12))
  (fp_line (start -1.45 -2.92) (end -1.45 2.92) (layer F.CrtYd) (width 0.05))
  (fp_line (start -1.45 2.92) (end 14.15 2.92) (layer F.CrtYd) (width 0.05))
  (fp_line (start 14.15 2.92) (end 14.15 -2.92) (layer F.CrtYd) (width 0.05))
  (fp_line (start 14.15 -2.92) (end -1.45 -2.92) (layer F.CrtYd) (width 0.05))
  (pad 1 thru_hole rect (at 0 0) (size 2.4 2.4) (drill 1.2) (layers *.Cu *.Mask))
  (pad 2 thru_hole oval (at 12.7 0) (size 2.4 2.4) (drill 1.2) (layers *.Cu *.Mask))
  (fp_text user %R (at 7.064 0) (layer F.Fab)
    (effects (font (size 1 1) (thickness 0.15)))
  )
  (fp_text user K (at 0 -2.2) (layer F.Fab)
    (effects (font (size 1 1) (thickness 0.15)))
  )
  (fp_text user K (at 0 -2.2) (layer F.SilkS)
    (effects (font (size 1 1) (thickness 0.15)))
  )
  (model ${KIPRJMOD}/kicad_libs_k/models_k.3d/Diode_THT_k.3dshapes/D_DO-27_P12.70mm_Horizontal_k.wrl
    (at (xyz 0 0 0))
    (scale (xyz 1 1 1))
    (rotate (xyz 0 0 0))
  )
)