(module D_DO-34_SOD68_P12.70mm_Horizontal (layer F.Cu) (tedit 5AE50CD5)
  (descr "Diode, DO-34_SOD68 series, Axial, Horizontal, pin pitch=12.7mm, , length*diameter=3.04*1.6mm^2, , https://www.nxp.com/docs/en/data-sheet/KTY83_SER.pdf")
  (tags "Diode DO-34_SOD68 series Axial Horizontal pin pitch 12.7mm  length 3.04mm diameter 1.6mm")
  (fp_text reference REF** (at 6.35 -1.92) (layer F.SilkS)
    (effects (font (size 1 1) (thickness 0.15)))
  )
  (fp_text value D_DO-34_SOD68_P12.70mm_Horizontal (at 6.35 1.92) (layer F.Fab)
    (effects (font (size 1 1) (thickness 0.15)))
  )
  (fp_line (start 4.83 -0.8) (end 4.83 0.8) (layer F.Fab) (width 0.1))
  (fp_line (start 4.83 0.8) (end 7.87 0.8) (layer F.Fab) (width 0.1))
  (fp_line (start 7.87 0.8) (end 7.87 -0.8) (layer F.Fab) (width 0.1))
  (fp_line (start 7.87 -0.8) (end 4.83 -0.8) (layer F.Fab) (width 0.1))
  (fp_line (start 0 0) (end 4.83 0) (layer F.Fab) (width 0.1))
  (fp_line (start 12.7 0) (end 7.87 0) (layer F.Fab) (width 0.1))
  (fp_line (start 5.286 -0.8) (end 5.286 0.8) (layer F.Fab) (width 0.1))
  (fp_line (start 5.386 -0.8) (end 5.386 0.8) (layer F.Fab) (width 0.1))
  (fp_line (start 5.186 -0.8) (end 5.186 0.8) (layer F.Fab) (width 0.1))
  (fp_line (start 4.71 -0.92) (end 4.71 0.92) (layer F.SilkS) (width 0.12))
  (fp_line (start 4.71 0.92) (end 7.99 0.92) (layer F.SilkS) (width 0.12))
  (fp_line (start 7.99 0.92) (end 7.99 -0.92) (layer F.SilkS) (width 0.12))
  (fp_line (start 7.99 -0.92) (end 4.71 -0.92) (layer F.SilkS) (width 0.12))
  (fp_line (start 0.99 0) (end 4.71 0) (layer F.SilkS) (width 0.12))
  (fp_line (start 11.71 0) (end 7.99 0) (layer F.SilkS) (width 0.12))
  (fp_line (start 5.286 -0.92) (end 5.286 0.92) (layer F.SilkS) (width 0.12))
  (fp_line (start 5.406 -0.92) (end 5.406 0.92) (layer F.SilkS) (width 0.12))
  (fp_line (start 5.166 -0.92) (end 5.166 0.92) (layer F.SilkS) (width 0.12))
  (fp_line (start -1 -1.05) (end -1 1.05) (layer F.CrtYd) (width 0.05))
  (fp_line (start -1 1.05) (end 13.7 1.05) (layer F.CrtYd) (width 0.05))
  (fp_line (start 13.7 1.05) (end 13.7 -1.05) (layer F.CrtYd) (width 0.05))
  (fp_line (start 13.7 -1.05) (end -1 -1.05) (layer F.CrtYd) (width 0.05))
  (pad 1 thru_hole rect (at 0 0) (size 1.5 1.5) (drill 0.75) (layers *.Cu *.Mask))
  (pad 2 thru_hole oval (at 12.7 0) (size 1.5 1.5) (drill 0.75) (layers *.Cu *.Mask))
  (fp_text user %R (at 6.578 0) (layer F.Fab)
    (effects (font (size 0.608 0.608) (thickness 0.0912)))
  )
  (fp_text user K (at 0 -1.75) (layer F.Fab)
    (effects (font (size 1 1) (thickness 0.15)))
  )
  (fp_text user K (at 0 -1.75) (layer F.SilkS)
    (effects (font (size 1 1) (thickness 0.15)))
  )
  (model ${KIPRJMOD}/kicad_libs_k/models_k.3d/Diode_THT_k.3dshapes/D_DO-34_SOD68_P12.70mm_Horizontal_k.wrl
    (at (xyz 0 0 0))
    (scale (xyz 1 1 1))
    (rotate (xyz 0 0 0))
  )
)