(module D_DO-201_P5.08mm_Vertical_AnodeUp (layer F.Cu) (tedit 5AE50CD5)
  (descr "Diode, DO-201 series, Axial, Vertical, pin pitch=5.08mm, , length*diameter=9.53*5.21mm^2, , http://www.diodes.com/_files/packages/DO-201.pdf")
  (tags "Diode DO-201 series Axial Vertical pin pitch 5.08mm  length 9.53mm diameter 5.21mm")
  (fp_text reference REF** (at 2.54 -3.725) (layer F.SilkS)
    (effects (font (size 1 1) (thickness 0.15)))
  )
  (fp_text value D_DO-201_P5.08mm_Vertical_AnodeUp (at 2.54 3.725) (layer F.Fab)
    (effects (font (size 1 1) (thickness 0.15)))
  )
  (fp_circle (center 0 0) (end 2.605 0) (layer F.Fab) (width 0.1))
  (fp_circle (center 0 0) (end 2.725 0) (layer F.SilkS) (width 0.12))
  (fp_line (start 0 0) (end 5.08 0) (layer F.Fab) (width 0.1))
  (fp_line (start 2.725 0) (end 3.48 0) (layer F.SilkS) (width 0.12))
  (fp_line (start -2.86 -2.86) (end -2.86 2.86) (layer F.CrtYd) (width 0.05))
  (fp_line (start -2.86 2.86) (end 6.64 2.86) (layer F.CrtYd) (width 0.05))
  (fp_line (start 6.64 2.86) (end 6.64 -2.86) (layer F.CrtYd) (width 0.05))
  (fp_line (start 6.64 -2.86) (end -2.86 -2.86) (layer F.CrtYd) (width 0.05))
  (pad 1 thru_hole rect (at 0 0) (size 2.6 2.6) (drill 1.3) (layers *.Cu *.Mask))
  (pad 2 thru_hole oval (at 5.08 0) (size 2.6 2.6) (drill 1.3) (layers *.Cu *.Mask))
  (fp_text user %R (at 2.54 -3.725) (layer F.Fab)
    (effects (font (size 1 1) (thickness 0.15)))
  )
  (fp_text user A (at 5.08 2.3) (layer F.Fab)
    (effects (font (size 1 1) (thickness 0.15)))
  )
  (fp_text user A (at 5.08 2.3) (layer F.SilkS)
    (effects (font (size 1 1) (thickness 0.15)))
  )
  (model ${KIPRJMOD}/kicad_libs_k/models_k.3d/Diode_THT_k.3dshapes/D_DO-201_P5.08mm_Vertical_AnodeUp_k.wrl
    (at (xyz 0 0 0))
    (scale (xyz 1 1 1))
    (rotate (xyz 0 0 0))
  )
)