(module D_P600_R-6_P7.62mm_Vertical_AnodeUp (layer F.Cu) (tedit 5AE50CD5)
  (descr "Diode, P600_R-6 series, Axial, Vertical, pin pitch=7.62mm, , length*diameter=9.1*9.1mm^2, , http://www.vishay.com/docs/88692/p600a.pdf, http://www.diodes.com/_files/packages/R-6.pdf")
  (tags "Diode P600_R-6 series Axial Vertical pin pitch 7.62mm  length 9.1mm diameter 9.1mm")
  (fp_text reference REF** (at 3.81 -5.67) (layer F.SilkS)
    (effects (font (size 1 1) (thickness 0.15)))
  )
  (fp_text value D_P600_R-6_P7.62mm_Vertical_AnodeUp (at 3.81 5.67) (layer F.Fab)
    (effects (font (size 1 1) (thickness 0.15)))
  )
  (fp_circle (center 0 0) (end 4.55 0) (layer F.Fab) (width 0.1))
  (fp_circle (center 0 0) (end 4.67 0) (layer F.SilkS) (width 0.12))
  (fp_line (start 0 0) (end 7.62 0) (layer F.Fab) (width 0.1))
  (fp_line (start 4.67 0) (end 5.72 0) (layer F.SilkS) (width 0.12))
  (fp_line (start -4.8 -4.8) (end -4.8 4.8) (layer F.CrtYd) (width 0.05))
  (fp_line (start -4.8 4.8) (end 9.47 4.8) (layer F.CrtYd) (width 0.05))
  (fp_line (start 9.47 4.8) (end 9.47 -4.8) (layer F.CrtYd) (width 0.05))
  (fp_line (start 9.47 -4.8) (end -4.8 -4.8) (layer F.CrtYd) (width 0.05))
  (pad 1 thru_hole rect (at 0 0) (size 3.2 3.2) (drill 1.6) (layers *.Cu *.Mask))
  (pad 2 thru_hole oval (at 7.62 0) (size 3.2 3.2) (drill 1.6) (layers *.Cu *.Mask))
  (fp_text user %R (at 0 -2.1) (layer F.Fab)
    (effects (font (size 1 1) (thickness 0.15)))
  )
  (fp_text user A (at 7.62 2.6) (layer F.Fab)
    (effects (font (size 1 1) (thickness 0.15)))
  )
  (fp_text user A (at 7.62 2.6) (layer F.SilkS)
    (effects (font (size 1 1) (thickness 0.15)))
  )
  (model ${KIPRJMOD}/kicad_libs_k/models_k.3d/Diode_THT_k.3dshapes/D_P600_R-6_P7.62mm_Vertical_AnodeUp_k.wrl
    (at (xyz 0 0 0))
    (scale (xyz 1 1 1))
    (rotate (xyz 0 0 0))
  )
)