(module D_T-1_P12.70mm_Horizontal (layer F.Cu) (tedit 5AE50CD5)
  (descr "Diode, T-1 series, Axial, Horizontal, pin pitch=12.7mm, , length*diameter=3.2*2.6mm^2, , http://www.diodes.com/_files/packages/T-1.pdf")
  (tags "Diode T-1 series Axial Horizontal pin pitch 12.7mm  length 3.2mm diameter 2.6mm")
  (fp_text reference REF** (at 6.35 -2.42) (layer F.SilkS)
    (effects (font (size 1 1) (thickness 0.15)))
  )
  (fp_text value D_T-1_P12.70mm_Horizontal (at 6.35 2.42) (layer F.Fab)
    (effects (font (size 1 1) (thickness 0.15)))
  )
  (fp_line (start 4.75 -1.3) (end 4.75 1.3) (layer F.Fab) (width 0.1))
  (fp_line (start 4.75 1.3) (end 7.95 1.3) (layer F.Fab) (width 0.1))
  (fp_line (start 7.95 1.3) (end 7.95 -1.3) (layer F.Fab) (width 0.1))
  (fp_line (start 7.95 -1.3) (end 4.75 -1.3) (layer F.Fab) (width 0.1))
  (fp_line (start 0 0) (end 4.75 0) (layer F.Fab) (width 0.1))
  (fp_line (start 12.7 0) (end 7.95 0) (layer F.Fab) (width 0.1))
  (fp_line (start 5.23 -1.3) (end 5.23 1.3) (layer F.Fab) (width 0.1))
  (fp_line (start 5.33 -1.3) (end 5.33 1.3) (layer F.Fab) (width 0.1))
  (fp_line (start 5.13 -1.3) (end 5.13 1.3) (layer F.Fab) (width 0.1))
  (fp_line (start 4.63 -1.42) (end 4.63 1.42) (layer F.SilkS) (width 0.12))
  (fp_line (start 4.63 1.42) (end 8.07 1.42) (layer F.SilkS) (width 0.12))
  (fp_line (start 8.07 1.42) (end 8.07 -1.42) (layer F.SilkS) (width 0.12))
  (fp_line (start 8.07 -1.42) (end 4.63 -1.42) (layer F.SilkS) (width 0.12))
  (fp_line (start 1.24 0) (end 4.63 0) (layer F.SilkS) (width 0.12))
  (fp_line (start 11.46 0) (end 8.07 0) (layer F.SilkS) (width 0.12))
  (fp_line (start 5.23 -1.42) (end 5.23 1.42) (layer F.SilkS) (width 0.12))
  (fp_line (start 5.35 -1.42) (end 5.35 1.42) (layer F.SilkS) (width 0.12))
  (fp_line (start 5.11 -1.42) (end 5.11 1.42) (layer F.SilkS) (width 0.12))
  (fp_line (start -1.25 -1.55) (end -1.25 1.55) (layer F.CrtYd) (width 0.05))
  (fp_line (start -1.25 1.55) (end 13.95 1.55) (layer F.CrtYd) (width 0.05))
  (fp_line (start 13.95 1.55) (end 13.95 -1.55) (layer F.CrtYd) (width 0.05))
  (fp_line (start 13.95 -1.55) (end -1.25 -1.55) (layer F.CrtYd) (width 0.05))
  (pad 1 thru_hole rect (at 0 0) (size 2 2) (drill 1) (layers *.Cu *.Mask))
  (pad 2 thru_hole oval (at 12.7 0) (size 2 2) (drill 1) (layers *.Cu *.Mask))
  (fp_text user %R (at 6.59 0) (layer F.Fab)
    (effects (font (size 0.64 0.64) (thickness 0.096)))
  )
  (fp_text user K (at 0 -2) (layer F.Fab)
    (effects (font (size 1 1) (thickness 0.15)))
  )
  (fp_text user K (at 0 -2) (layer F.SilkS)
    (effects (font (size 1 1) (thickness 0.15)))
  )
  (model ${KIPRJMOD}/kicad_libs_k/models_k.3d/Diode_THT_k.3dshapes/D_T-1_P12.70mm_Horizontal_k.wrl
    (at (xyz 0 0 0))
    (scale (xyz 1 1 1))
    (rotate (xyz 0 0 0))
  )
)