(module Diode_Bridge_Vishay_KBPC6 (layer F.Cu) (tedit 5A638B70)
  (descr "Single phase bridge rectifier case KBPC6, see http://www.vishay.com/docs/93585/vs-kbpc1series.pdf")
  (tags "Diode Bridge")
  (fp_text reference REF** (at 10.75 14.05 180) (layer F.SilkS)
    (effects (font (size 1 1) (thickness 0.15)))
  )
  (fp_text value Diode_Bridge_Vishay_KBPC6 (at 6 -3.7 180) (layer F.Fab)
    (effects (font (size 1 1) (thickness 0.15)))
  )
  (fp_circle (center 5.2 5.2) (end 5.2 7.1) (layer F.SilkS) (width 0.12))
  (fp_line (start -0.65 -2.75) (end 13.05 -2.75) (layer F.CrtYd) (width 0.05))
  (fp_line (start -2.75 -0.65) (end -0.65 -2.75) (layer F.CrtYd) (width 0.05))
  (fp_line (start -2.8 13.05) (end -2.75 -0.65) (layer F.CrtYd) (width 0.05))
  (fp_line (start 13.05 13.05) (end -2.8 13.05) (layer F.CrtYd) (width 0.05))
  (fp_line (start 13.05 -2.75) (end 13.05 13.05) (layer F.CrtYd) (width 0.05))
  (fp_line (start 12.85 12.85) (end 12.85 -2.55) (layer F.SilkS) (width 0.12))
  (fp_line (start -2.65 12.85) (end 12.85 12.85) (layer F.SilkS) (width 0.12))
  (fp_line (start -2.55 -0.55) (end -2.65 12.85) (layer F.SilkS) (width 0.12))
  (fp_line (start -0.55 -2.55) (end -2.55 -0.55) (layer F.SilkS) (width 0.12))
  (fp_line (start 12.85 -2.55) (end -0.55 -2.55) (layer F.SilkS) (width 0.12))
  (fp_line (start -2.55 12.8) (end -2.5 -0.5) (layer F.Fab) (width 0.12))
  (fp_line (start 12.8 12.8) (end -2.55 12.8) (layer F.Fab) (width 0.12))
  (fp_line (start 12.8 -2.5) (end 12.8 12.8) (layer F.Fab) (width 0.12))
  (fp_line (start -0.5 -2.5) (end 12.8 -2.5) (layer F.Fab) (width 0.12))
  (fp_line (start -2.5 -0.5) (end -0.5 -2.5) (layer F.Fab) (width 0.12))
  (fp_text user %R (at 5.2 5.415 180) (layer F.Fab)
    (effects (font (size 1 1) (thickness 0.15)))
  )
  (pad 3 thru_hole circle (at 10.4 10.4) (size 2.6 2.6) (drill 1.3) (layers *.Cu *.Mask))
  (pad 4 thru_hole circle (at 10.4 0) (size 2.6 2.6) (drill 1.3) (layers *.Cu *.Mask))
  (pad 1 thru_hole rect (at 0 0) (size 2.6 2.6) (drill 1.3) (layers *.Cu *.Mask))
  (pad 2 thru_hole circle (at 0 10.4) (size 2.6 2.6) (drill 1.3) (layers *.Cu *.Mask))
  (model ${KIPRJMOD}/kicad_libs_k/models_k.3d/Diode_THT_k.3dshapes/Diode_Bridge_Vishay_KBPC6_k.wrl
    (at (xyz 0 0 0))
    (scale (xyz 1 1 1))
    (rotate (xyz 0 0 0))
  )
)
