(module Filter_1411-5_1.4x1.1mm (layer F.Cu) (tedit 5A928511)
  (descr "5-pin filter package - 1.4x1.1 mm Body; (see https://www.mouser.com/ds/2/40/AVX_140127%20Connectivity-1158389.pdf)")
  (tags "Filter 5")
  (attr smd)
  (fp_text reference REF** (at 0 1.6) (layer F.SilkS)
    (effects (font (size 1 1) (thickness 0.15)))
  )
  (fp_text value Filter_1411-5_1.4x1.1mm (at 0 -1.4) (layer F.Fab)
    (effects (font (size 1 1) (thickness 0.15)))
  )
  (fp_line (start -0.7 0.15) (end -0.7 0.55) (layer F.Fab) (width 0.1))
  (fp_line (start -0.55 0) (end -0.7 0.15) (layer F.Fab) (width 0.1))
  (fp_line (start -0.7 -0.15) (end -0.55 0) (layer F.Fab) (width 0.1))
  (fp_line (start -0.7 -0.55) (end -0.7 -0.15) (layer F.Fab) (width 0.1))
  (fp_text user %R (at 0 -2.7) (layer F.Fab)
    (effects (font (size 1 1) (thickness 0.15)))
  )
  (fp_line (start -0.9 0.7) (end -0.9 -0.7) (layer F.CrtYd) (width 0.05))
  (fp_line (start 0.9 0.7) (end -0.9 0.7) (layer F.CrtYd) (width 0.05))
  (fp_line (start 0.9 -0.7) (end 0.9 0.7) (layer F.CrtYd) (width 0.05))
  (fp_line (start -0.9 -0.7) (end 0.9 -0.7) (layer F.CrtYd) (width 0.05))
  (fp_line (start 0.7 0.55) (end -0.7 0.55) (layer F.Fab) (width 0.1))
  (fp_line (start 0.7 -0.55) (end 0.7 0.55) (layer F.Fab) (width 0.1))
  (fp_line (start -0.7 -0.55) (end 0.7 -0.55) (layer F.Fab) (width 0.1))
  (fp_line (start 0.75 0.6) (end 0.75 -0.6) (layer F.SilkS) (width 0.1))
  (fp_line (start -0.75 0.6) (end 0.75 0.6) (layer F.SilkS) (width 0.1))
  (fp_line (start -0.75 -0.6) (end -0.75 0.6) (layer F.SilkS) (width 0.1))
  (fp_line (start 0.75 -0.6) (end -0.75 -0.6) (layer F.SilkS) (width 0.1))
  (fp_line (start -0.95 -0.6) (end -0.95 0.6) (layer F.SilkS) (width 0.1))
  (pad 5 smd rect (at 0 -0.2875 90) (size 0.325 0.25) (layers F.Cu F.Paste F.Mask))
  (pad 4 smd rect (at 0.5 -0.2875 90) (size 0.325 0.25) (layers F.Cu F.Paste F.Mask))
  (pad 3 smd rect (at 0.5 0.2875 90) (size 0.325 0.25) (layers F.Cu F.Paste F.Mask))
  (pad 2 smd rect (at 0 0.2875 90) (size 0.325 0.25) (layers F.Cu F.Paste F.Mask))
  (pad 1 smd rect (at -0.5 0 90) (size 0.325 0.25) (layers F.Cu F.Paste F.Mask))
  (model ${KIPRJMOD}/kicad_libs_k/models_k.3d/Filter_k.3dshapes/Filter_1411-5_1.4x1.1mm_k.wrl
    (at (xyz 0 0 0))
    (scale (xyz 1 1 1))
    (rotate (xyz 0 0 0))
  )
)
