(module Samtec_HLE-190-02-xxx-DV-A_2x45_P2.54mm_Horizontal (layer F.Cu) (tedit 5A369BEF)
  (descr "Samtec HLE .100\" Tiger Beam Cost-effective Single Beam Socket Strip, HLE-190-02-xxx-DV-A, 45 Pins per row (http://suddendocs.samtec.com/prints/hle-1xx-02-xxx-dv-xx-xx-xx-mkt.pdf, http://suddendocs.samtec.com/prints/hle-dv-footprint.pdf), generated with kicad-footprint-generator")
  (tags "connector Samtec  top entry")
  (attr smd)
  (fp_text reference REF** (at 0 -4.87) (layer F.SilkS)
    (effects (font (size 1 1) (thickness 0.15)))
  )
  (fp_text value Samtec_HLE-190-02-xxx-DV-A_2x45_P2.54mm_Horizontal (at 0 4.87) (layer F.Fab)
    (effects (font (size 1 1) (thickness 0.15)))
  )
  (fp_line (start -57.15 -2.54) (end 57.15 -2.54) (layer F.Fab) (width 0.1))
  (fp_line (start 57.15 -2.54) (end 57.15 2.54) (layer F.Fab) (width 0.1))
  (fp_line (start 57.15 2.54) (end -57.15 2.54) (layer F.Fab) (width 0.1))
  (fp_line (start -57.15 2.54) (end -57.15 -2.54) (layer F.Fab) (width 0.1))
  (fp_line (start -56.38 -2.54) (end -55.88 -1.832893) (layer F.Fab) (width 0.1))
  (fp_line (start -55.88 -1.832893) (end -55.38 -2.54) (layer F.Fab) (width 0.1))
  (fp_line (start -56.775 -3.67) (end -56.775 -2.65) (layer F.SilkS) (width 0.12))
  (fp_line (start -56.775 -2.65) (end -57.26 -2.65) (layer F.SilkS) (width 0.12))
  (fp_line (start -57.26 -2.65) (end -57.26 2.65) (layer F.SilkS) (width 0.12))
  (fp_line (start -57.26 2.65) (end -56.775 2.65) (layer F.SilkS) (width 0.12))
  (fp_line (start 56.775 -2.65) (end 57.26 -2.65) (layer F.SilkS) (width 0.12))
  (fp_line (start 57.26 -2.65) (end 57.26 2.65) (layer F.SilkS) (width 0.12))
  (fp_line (start 57.26 2.65) (end 56.775 2.65) (layer F.SilkS) (width 0.12))
  (fp_line (start -54.985 -2.65) (end -54.235 -2.65) (layer F.SilkS) (width 0.12))
  (fp_line (start -54.985 2.65) (end -54.235 2.65) (layer F.SilkS) (width 0.12))
  (fp_line (start -52.445 -2.65) (end -51.695 -2.65) (layer F.SilkS) (width 0.12))
  (fp_line (start -52.445 2.65) (end -51.695 2.65) (layer F.SilkS) (width 0.12))
  (fp_line (start -49.905 -2.65) (end -49.155 -2.65) (layer F.SilkS) (width 0.12))
  (fp_line (start -49.905 2.65) (end -49.155 2.65) (layer F.SilkS) (width 0.12))
  (fp_line (start -47.365 -2.65) (end -46.615 -2.65) (layer F.SilkS) (width 0.12))
  (fp_line (start -47.365 2.65) (end -46.615 2.65) (layer F.SilkS) (width 0.12))
  (fp_line (start -44.825 -2.65) (end -44.075 -2.65) (layer F.SilkS) (width 0.12))
  (fp_line (start -44.825 2.65) (end -44.075 2.65) (layer F.SilkS) (width 0.12))
  (fp_line (start -42.285 -2.65) (end -41.535 -2.65) (layer F.SilkS) (width 0.12))
  (fp_line (start -42.285 2.65) (end -41.535 2.65) (layer F.SilkS) (width 0.12))
  (fp_line (start -39.745 -2.65) (end -38.995 -2.65) (layer F.SilkS) (width 0.12))
  (fp_line (start -39.745 2.65) (end -38.995 2.65) (layer F.SilkS) (width 0.12))
  (fp_line (start -37.205 -2.65) (end -36.455 -2.65) (layer F.SilkS) (width 0.12))
  (fp_line (start -37.205 2.65) (end -36.455 2.65) (layer F.SilkS) (width 0.12))
  (fp_line (start -34.665 -2.65) (end -33.915 -2.65) (layer F.SilkS) (width 0.12))
  (fp_line (start -34.665 2.65) (end -33.915 2.65) (layer F.SilkS) (width 0.12))
  (fp_line (start -32.125 -2.65) (end -31.375 -2.65) (layer F.SilkS) (width 0.12))
  (fp_line (start -32.125 2.65) (end -31.375 2.65) (layer F.SilkS) (width 0.12))
  (fp_line (start -29.585 -2.65) (end -28.835 -2.65) (layer F.SilkS) (width 0.12))
  (fp_line (start -29.585 2.65) (end -28.835 2.65) (layer F.SilkS) (width 0.12))
  (fp_line (start -27.045 -2.65) (end -26.295 -2.65) (layer F.SilkS) (width 0.12))
  (fp_line (start -27.045 2.65) (end -26.295 2.65) (layer F.SilkS) (width 0.12))
  (fp_line (start -24.505 -2.65) (end -23.755 -2.65) (layer F.SilkS) (width 0.12))
  (fp_line (start -24.505 2.65) (end -23.755 2.65) (layer F.SilkS) (width 0.12))
  (fp_line (start -21.965 -2.65) (end -21.215 -2.65) (layer F.SilkS) (width 0.12))
  (fp_line (start -21.965 2.65) (end -21.215 2.65) (layer F.SilkS) (width 0.12))
  (fp_line (start -19.425 -2.65) (end -18.675 -2.65) (layer F.SilkS) (width 0.12))
  (fp_line (start -19.425 2.65) (end -18.675 2.65) (layer F.SilkS) (width 0.12))
  (fp_line (start -16.885 -2.65) (end -16.135 -2.65) (layer F.SilkS) (width 0.12))
  (fp_line (start -16.885 2.65) (end -16.135 2.65) (layer F.SilkS) (width 0.12))
  (fp_line (start -14.345 -2.65) (end -13.595 -2.65) (layer F.SilkS) (width 0.12))
  (fp_line (start -14.345 2.65) (end -13.595 2.65) (layer F.SilkS) (width 0.12))
  (fp_line (start -11.805 -2.65) (end -11.055 -2.65) (layer F.SilkS) (width 0.12))
  (fp_line (start -11.805 2.65) (end -11.055 2.65) (layer F.SilkS) (width 0.12))
  (fp_line (start -9.265 -2.65) (end -8.515 -2.65) (layer F.SilkS) (width 0.12))
  (fp_line (start -9.265 2.65) (end -8.515 2.65) (layer F.SilkS) (width 0.12))
  (fp_line (start -6.725 -2.65) (end -5.975 -2.65) (layer F.SilkS) (width 0.12))
  (fp_line (start -6.725 2.65) (end -5.975 2.65) (layer F.SilkS) (width 0.12))
  (fp_line (start -4.185 -2.65) (end -3.435 -2.65) (layer F.SilkS) (width 0.12))
  (fp_line (start -4.185 2.65) (end -3.435 2.65) (layer F.SilkS) (width 0.12))
  (fp_line (start -1.645 -2.65) (end -0.895 -2.65) (layer F.SilkS) (width 0.12))
  (fp_line (start -1.645 2.65) (end -0.895 2.65) (layer F.SilkS) (width 0.12))
  (fp_line (start 0.895 -2.65) (end 1.645 -2.65) (layer F.SilkS) (width 0.12))
  (fp_line (start 0.895 2.65) (end 1.645 2.65) (layer F.SilkS) (width 0.12))
  (fp_line (start 3.435 -2.65) (end 4.185 -2.65) (layer F.SilkS) (width 0.12))
  (fp_line (start 3.435 2.65) (end 4.185 2.65) (layer F.SilkS) (width 0.12))
  (fp_line (start 5.975 -2.65) (end 6.725 -2.65) (layer F.SilkS) (width 0.12))
  (fp_line (start 5.975 2.65) (end 6.725 2.65) (layer F.SilkS) (width 0.12))
  (fp_line (start 8.515 -2.65) (end 9.265 -2.65) (layer F.SilkS) (width 0.12))
  (fp_line (start 8.515 2.65) (end 9.265 2.65) (layer F.SilkS) (width 0.12))
  (fp_line (start 11.055 -2.65) (end 11.805 -2.65) (layer F.SilkS) (width 0.12))
  (fp_line (start 11.055 2.65) (end 11.805 2.65) (layer F.SilkS) (width 0.12))
  (fp_line (start 13.595 -2.65) (end 14.345 -2.65) (layer F.SilkS) (width 0.12))
  (fp_line (start 13.595 2.65) (end 14.345 2.65) (layer F.SilkS) (width 0.12))
  (fp_line (start 16.135 -2.65) (end 16.885 -2.65) (layer F.SilkS) (width 0.12))
  (fp_line (start 16.135 2.65) (end 16.885 2.65) (layer F.SilkS) (width 0.12))
  (fp_line (start 18.675 -2.65) (end 19.425 -2.65) (layer F.SilkS) (width 0.12))
  (fp_line (start 18.675 2.65) (end 19.425 2.65) (layer F.SilkS) (width 0.12))
  (fp_line (start 21.215 -2.65) (end 21.965 -2.65) (layer F.SilkS) (width 0.12))
  (fp_line (start 21.215 2.65) (end 21.965 2.65) (layer F.SilkS) (width 0.12))
  (fp_line (start 23.755 -2.65) (end 24.505 -2.65) (layer F.SilkS) (width 0.12))
  (fp_line (start 23.755 2.65) (end 24.505 2.65) (layer F.SilkS) (width 0.12))
  (fp_line (start 26.295 -2.65) (end 27.045 -2.65) (layer F.SilkS) (width 0.12))
  (fp_line (start 26.295 2.65) (end 27.045 2.65) (layer F.SilkS) (width 0.12))
  (fp_line (start 28.835 -2.65) (end 29.585 -2.65) (layer F.SilkS) (width 0.12))
  (fp_line (start 28.835 2.65) (end 29.585 2.65) (layer F.SilkS) (width 0.12))
  (fp_line (start 31.375 -2.65) (end 32.125 -2.65) (layer F.SilkS) (width 0.12))
  (fp_line (start 31.375 2.65) (end 32.125 2.65) (layer F.SilkS) (width 0.12))
  (fp_line (start 33.915 -2.65) (end 34.665 -2.65) (layer F.SilkS) (width 0.12))
  (fp_line (start 33.915 2.65) (end 34.665 2.65) (layer F.SilkS) (width 0.12))
  (fp_line (start 36.455 -2.65) (end 37.205 -2.65) (layer F.SilkS) (width 0.12))
  (fp_line (start 36.455 2.65) (end 37.205 2.65) (layer F.SilkS) (width 0.12))
  (fp_line (start 38.995 -2.65) (end 39.745 -2.65) (layer F.SilkS) (width 0.12))
  (fp_line (start 38.995 2.65) (end 39.745 2.65) (layer F.SilkS) (width 0.12))
  (fp_line (start 41.535 -2.65) (end 42.285 -2.65) (layer F.SilkS) (width 0.12))
  (fp_line (start 41.535 2.65) (end 42.285 2.65) (layer F.SilkS) (width 0.12))
  (fp_line (start 44.075 -2.65) (end 44.825 -2.65) (layer F.SilkS) (width 0.12))
  (fp_line (start 44.075 2.65) (end 44.825 2.65) (layer F.SilkS) (width 0.12))
  (fp_line (start 46.615 -2.65) (end 47.365 -2.65) (layer F.SilkS) (width 0.12))
  (fp_line (start 46.615 2.65) (end 47.365 2.65) (layer F.SilkS) (width 0.12))
  (fp_line (start 49.155 -2.65) (end 49.905 -2.65) (layer F.SilkS) (width 0.12))
  (fp_line (start 49.155 2.65) (end 49.905 2.65) (layer F.SilkS) (width 0.12))
  (fp_line (start 51.695 -2.65) (end 52.445 -2.65) (layer F.SilkS) (width 0.12))
  (fp_line (start 51.695 2.65) (end 52.445 2.65) (layer F.SilkS) (width 0.12))
  (fp_line (start 54.235 -2.65) (end 54.985 -2.65) (layer F.SilkS) (width 0.12))
  (fp_line (start 54.235 2.65) (end 54.985 2.65) (layer F.SilkS) (width 0.12))
  (fp_line (start -57.65 -4.17) (end 57.65 -4.17) (layer F.CrtYd) (width 0.05))
  (fp_line (start 57.65 -4.17) (end 57.65 4.17) (layer F.CrtYd) (width 0.05))
  (fp_line (start 57.65 4.17) (end -57.65 4.17) (layer F.CrtYd) (width 0.05))
  (fp_line (start -57.65 4.17) (end -57.65 -4.17) (layer F.CrtYd) (width 0.05))
  (pad "" np_thru_hole circle (at -54.61 0) (size 1.78 1.78) (drill 1.78) (layers *.Cu *.Mask))
  (pad "" np_thru_hole circle (at 54.61 0) (size 1.78 1.78) (drill 1.78) (layers *.Cu *.Mask))
  (pad 1 smd rect (at -55.88 -2.525) (size 1.27 2.29) (layers F.Cu F.Mask F.Paste))
  (pad 3 smd rect (at -53.34 -2.525) (size 1.27 2.29) (layers F.Cu F.Mask F.Paste))
  (pad 5 smd rect (at -50.8 -2.525) (size 1.27 2.29) (layers F.Cu F.Mask F.Paste))
  (pad 7 smd rect (at -48.26 -2.525) (size 1.27 2.29) (layers F.Cu F.Mask F.Paste))
  (pad 9 smd rect (at -45.72 -2.525) (size 1.27 2.29) (layers F.Cu F.Mask F.Paste))
  (pad 11 smd rect (at -43.18 -2.525) (size 1.27 2.29) (layers F.Cu F.Mask F.Paste))
  (pad 13 smd rect (at -40.64 -2.525) (size 1.27 2.29) (layers F.Cu F.Mask F.Paste))
  (pad 15 smd rect (at -38.1 -2.525) (size 1.27 2.29) (layers F.Cu F.Mask F.Paste))
  (pad 17 smd rect (at -35.56 -2.525) (size 1.27 2.29) (layers F.Cu F.Mask F.Paste))
  (pad 19 smd rect (at -33.02 -2.525) (size 1.27 2.29) (layers F.Cu F.Mask F.Paste))
  (pad 21 smd rect (at -30.48 -2.525) (size 1.27 2.29) (layers F.Cu F.Mask F.Paste))
  (pad 23 smd rect (at -27.94 -2.525) (size 1.27 2.29) (layers F.Cu F.Mask F.Paste))
  (pad 25 smd rect (at -25.4 -2.525) (size 1.27 2.29) (layers F.Cu F.Mask F.Paste))
  (pad 27 smd rect (at -22.86 -2.525) (size 1.27 2.29) (layers F.Cu F.Mask F.Paste))
  (pad 29 smd rect (at -20.32 -2.525) (size 1.27 2.29) (layers F.Cu F.Mask F.Paste))
  (pad 31 smd rect (at -17.78 -2.525) (size 1.27 2.29) (layers F.Cu F.Mask F.Paste))
  (pad 33 smd rect (at -15.24 -2.525) (size 1.27 2.29) (layers F.Cu F.Mask F.Paste))
  (pad 35 smd rect (at -12.7 -2.525) (size 1.27 2.29) (layers F.Cu F.Mask F.Paste))
  (pad 37 smd rect (at -10.16 -2.525) (size 1.27 2.29) (layers F.Cu F.Mask F.Paste))
  (pad 39 smd rect (at -7.62 -2.525) (size 1.27 2.29) (layers F.Cu F.Mask F.Paste))
  (pad 41 smd rect (at -5.08 -2.525) (size 1.27 2.29) (layers F.Cu F.Mask F.Paste))
  (pad 43 smd rect (at -2.54 -2.525) (size 1.27 2.29) (layers F.Cu F.Mask F.Paste))
  (pad 45 smd rect (at 0 -2.525) (size 1.27 2.29) (layers F.Cu F.Mask F.Paste))
  (pad 47 smd rect (at 2.54 -2.525) (size 1.27 2.29) (layers F.Cu F.Mask F.Paste))
  (pad 49 smd rect (at 5.08 -2.525) (size 1.27 2.29) (layers F.Cu F.Mask F.Paste))
  (pad 51 smd rect (at 7.62 -2.525) (size 1.27 2.29) (layers F.Cu F.Mask F.Paste))
  (pad 53 smd rect (at 10.16 -2.525) (size 1.27 2.29) (layers F.Cu F.Mask F.Paste))
  (pad 55 smd rect (at 12.7 -2.525) (size 1.27 2.29) (layers F.Cu F.Mask F.Paste))
  (pad 57 smd rect (at 15.24 -2.525) (size 1.27 2.29) (layers F.Cu F.Mask F.Paste))
  (pad 59 smd rect (at 17.78 -2.525) (size 1.27 2.29) (layers F.Cu F.Mask F.Paste))
  (pad 61 smd rect (at 20.32 -2.525) (size 1.27 2.29) (layers F.Cu F.Mask F.Paste))
  (pad 63 smd rect (at 22.86 -2.525) (size 1.27 2.29) (layers F.Cu F.Mask F.Paste))
  (pad 65 smd rect (at 25.4 -2.525) (size 1.27 2.29) (layers F.Cu F.Mask F.Paste))
  (pad 67 smd rect (at 27.94 -2.525) (size 1.27 2.29) (layers F.Cu F.Mask F.Paste))
  (pad 69 smd rect (at 30.48 -2.525) (size 1.27 2.29) (layers F.Cu F.Mask F.Paste))
  (pad 71 smd rect (at 33.02 -2.525) (size 1.27 2.29) (layers F.Cu F.Mask F.Paste))
  (pad 73 smd rect (at 35.56 -2.525) (size 1.27 2.29) (layers F.Cu F.Mask F.Paste))
  (pad 75 smd rect (at 38.1 -2.525) (size 1.27 2.29) (layers F.Cu F.Mask F.Paste))
  (pad 77 smd rect (at 40.64 -2.525) (size 1.27 2.29) (layers F.Cu F.Mask F.Paste))
  (pad 79 smd rect (at 43.18 -2.525) (size 1.27 2.29) (layers F.Cu F.Mask F.Paste))
  (pad 81 smd rect (at 45.72 -2.525) (size 1.27 2.29) (layers F.Cu F.Mask F.Paste))
  (pad 83 smd rect (at 48.26 -2.525) (size 1.27 2.29) (layers F.Cu F.Mask F.Paste))
  (pad 85 smd rect (at 50.8 -2.525) (size 1.27 2.29) (layers F.Cu F.Mask F.Paste))
  (pad 87 smd rect (at 53.34 -2.525) (size 1.27 2.29) (layers F.Cu F.Mask F.Paste))
  (pad 89 smd rect (at 55.88 -2.525) (size 1.27 2.29) (layers F.Cu F.Mask F.Paste))
  (pad 2 smd rect (at -55.88 2.525) (size 1.27 2.29) (layers F.Cu F.Mask F.Paste))
  (pad 4 smd rect (at -53.34 2.525) (size 1.27 2.29) (layers F.Cu F.Mask F.Paste))
  (pad 6 smd rect (at -50.8 2.525) (size 1.27 2.29) (layers F.Cu F.Mask F.Paste))
  (pad 8 smd rect (at -48.26 2.525) (size 1.27 2.29) (layers F.Cu F.Mask F.Paste))
  (pad 10 smd rect (at -45.72 2.525) (size 1.27 2.29) (layers F.Cu F.Mask F.Paste))
  (pad 12 smd rect (at -43.18 2.525) (size 1.27 2.29) (layers F.Cu F.Mask F.Paste))
  (pad 14 smd rect (at -40.64 2.525) (size 1.27 2.29) (layers F.Cu F.Mask F.Paste))
  (pad 16 smd rect (at -38.1 2.525) (size 1.27 2.29) (layers F.Cu F.Mask F.Paste))
  (pad 18 smd rect (at -35.56 2.525) (size 1.27 2.29) (layers F.Cu F.Mask F.Paste))
  (pad 20 smd rect (at -33.02 2.525) (size 1.27 2.29) (layers F.Cu F.Mask F.Paste))
  (pad 22 smd rect (at -30.48 2.525) (size 1.27 2.29) (layers F.Cu F.Mask F.Paste))
  (pad 24 smd rect (at -27.94 2.525) (size 1.27 2.29) (layers F.Cu F.Mask F.Paste))
  (pad 26 smd rect (at -25.4 2.525) (size 1.27 2.29) (layers F.Cu F.Mask F.Paste))
  (pad 28 smd rect (at -22.86 2.525) (size 1.27 2.29) (layers F.Cu F.Mask F.Paste))
  (pad 30 smd rect (at -20.32 2.525) (size 1.27 2.29) (layers F.Cu F.Mask F.Paste))
  (pad 32 smd rect (at -17.78 2.525) (size 1.27 2.29) (layers F.Cu F.Mask F.Paste))
  (pad 34 smd rect (at -15.24 2.525) (size 1.27 2.29) (layers F.Cu F.Mask F.Paste))
  (pad 36 smd rect (at -12.7 2.525) (size 1.27 2.29) (layers F.Cu F.Mask F.Paste))
  (pad 38 smd rect (at -10.16 2.525) (size 1.27 2.29) (layers F.Cu F.Mask F.Paste))
  (pad 40 smd rect (at -7.62 2.525) (size 1.27 2.29) (layers F.Cu F.Mask F.Paste))
  (pad 42 smd rect (at -5.08 2.525) (size 1.27 2.29) (layers F.Cu F.Mask F.Paste))
  (pad 44 smd rect (at -2.54 2.525) (size 1.27 2.29) (layers F.Cu F.Mask F.Paste))
  (pad 46 smd rect (at 0 2.525) (size 1.27 2.29) (layers F.Cu F.Mask F.Paste))
  (pad 48 smd rect (at 2.54 2.525) (size 1.27 2.29) (layers F.Cu F.Mask F.Paste))
  (pad 50 smd rect (at 5.08 2.525) (size 1.27 2.29) (layers F.Cu F.Mask F.Paste))
  (pad 52 smd rect (at 7.62 2.525) (size 1.27 2.29) (layers F.Cu F.Mask F.Paste))
  (pad 54 smd rect (at 10.16 2.525) (size 1.27 2.29) (layers F.Cu F.Mask F.Paste))
  (pad 56 smd rect (at 12.7 2.525) (size 1.27 2.29) (layers F.Cu F.Mask F.Paste))
  (pad 58 smd rect (at 15.24 2.525) (size 1.27 2.29) (layers F.Cu F.Mask F.Paste))
  (pad 60 smd rect (at 17.78 2.525) (size 1.27 2.29) (layers F.Cu F.Mask F.Paste))
  (pad 62 smd rect (at 20.32 2.525) (size 1.27 2.29) (layers F.Cu F.Mask F.Paste))
  (pad 64 smd rect (at 22.86 2.525) (size 1.27 2.29) (layers F.Cu F.Mask F.Paste))
  (pad 66 smd rect (at 25.4 2.525) (size 1.27 2.29) (layers F.Cu F.Mask F.Paste))
  (pad 68 smd rect (at 27.94 2.525) (size 1.27 2.29) (layers F.Cu F.Mask F.Paste))
  (pad 70 smd rect (at 30.48 2.525) (size 1.27 2.29) (layers F.Cu F.Mask F.Paste))
  (pad 72 smd rect (at 33.02 2.525) (size 1.27 2.29) (layers F.Cu F.Mask F.Paste))
  (pad 74 smd rect (at 35.56 2.525) (size 1.27 2.29) (layers F.Cu F.Mask F.Paste))
  (pad 76 smd rect (at 38.1 2.525) (size 1.27 2.29) (layers F.Cu F.Mask F.Paste))
  (pad 78 smd rect (at 40.64 2.525) (size 1.27 2.29) (layers F.Cu F.Mask F.Paste))
  (pad 80 smd rect (at 43.18 2.525) (size 1.27 2.29) (layers F.Cu F.Mask F.Paste))
  (pad 82 smd rect (at 45.72 2.525) (size 1.27 2.29) (layers F.Cu F.Mask F.Paste))
  (pad 84 smd rect (at 48.26 2.525) (size 1.27 2.29) (layers F.Cu F.Mask F.Paste))
  (pad 86 smd rect (at 50.8 2.525) (size 1.27 2.29) (layers F.Cu F.Mask F.Paste))
  (pad 88 smd rect (at 53.34 2.525) (size 1.27 2.29) (layers F.Cu F.Mask F.Paste))
  (pad 90 smd rect (at 55.88 2.525) (size 1.27 2.29) (layers F.Cu F.Mask F.Paste))
  (fp_text user %R (at 0 1.84) (layer F.Fab)
    (effects (font (size 1 1) (thickness 0.15)))
  )
  (model ${KIPRJMOD}/kicad_libs_k/models_k.3d/Connector_Samtec_HLE_SMD_k.3dshapes/Samtec_HLE-190-02-xxx-DV-A_2x45_P2.54mm_Horizontal_k.wrl
    (at (xyz 0 0 0))
    (scale (xyz 1 1 1))
    (rotate (xyz 0 0 0))
  )
)