(module DIP-24_W10.16mm_LongPads (layer F.Cu) (tedit 5A02E8C5)
  (descr "24-lead though-hole mounted DIP package, row spacing 10.16 mm (400 mils), LongPads")
  (tags "THT DIP DIL PDIP 2.54mm 10.16mm 400mil LongPads")
  (fp_text reference REF** (at 5.08 -2.33) (layer F.SilkS)
    (effects (font (size 1 1) (thickness 0.15)))
  )
  (fp_text value DIP-24_W10.16mm_LongPads (at 5.08 30.27) (layer F.Fab)
    (effects (font (size 1 1) (thickness 0.15)))
  )
  (fp_arc (start 5.08 -1.33) (end 4.08 -1.33) (angle -180.000000) (layer F.SilkS) (width 0.12))
  (fp_line (start 1.51 -1.27) (end 9.65 -1.27) (layer F.Fab) (width 0.1))
  (fp_line (start 9.65 -1.27) (end 9.65 29.21) (layer F.Fab) (width 0.1))
  (fp_line (start 9.65 29.21) (end 0.51 29.21) (layer F.Fab) (width 0.1))
  (fp_line (start 0.51 29.21) (end 0.51 -0.27) (layer F.Fab) (width 0.1))
  (fp_line (start 0.51 -0.27) (end 1.51 -1.27) (layer F.Fab) (width 0.1))
  (fp_line (start 4.08 -1.33) (end 1.56 -1.33) (layer F.SilkS) (width 0.12))
  (fp_line (start 1.56 -1.33) (end 1.56 29.27) (layer F.SilkS) (width 0.12))
  (fp_line (start 1.56 29.27) (end 8.6 29.27) (layer F.SilkS) (width 0.12))
  (fp_line (start 8.6 29.27) (end 8.6 -1.33) (layer F.SilkS) (width 0.12))
  (fp_line (start 8.6 -1.33) (end 6.08 -1.33) (layer F.SilkS) (width 0.12))
  (fp_line (start -1.5 -1.55) (end -1.5 29.5) (layer F.CrtYd) (width 0.05))
  (fp_line (start -1.5 29.5) (end 11.65 29.5) (layer F.CrtYd) (width 0.05))
  (fp_line (start 11.65 29.5) (end 11.65 -1.55) (layer F.CrtYd) (width 0.05))
  (fp_line (start 11.65 -1.55) (end -1.5 -1.55) (layer F.CrtYd) (width 0.05))
  (pad 1 thru_hole rect (at 0 0) (size 2.4 1.6) (drill 0.8) (layers *.Cu *.Mask))
  (pad 13 thru_hole oval (at 10.16 27.94) (size 2.4 1.6) (drill 0.8) (layers *.Cu *.Mask))
  (pad 2 thru_hole oval (at 0 2.54) (size 2.4 1.6) (drill 0.8) (layers *.Cu *.Mask))
  (pad 14 thru_hole oval (at 10.16 25.4) (size 2.4 1.6) (drill 0.8) (layers *.Cu *.Mask))
  (pad 3 thru_hole oval (at 0 5.08) (size 2.4 1.6) (drill 0.8) (layers *.Cu *.Mask))
  (pad 15 thru_hole oval (at 10.16 22.86) (size 2.4 1.6) (drill 0.8) (layers *.Cu *.Mask))
  (pad 4 thru_hole oval (at 0 7.62) (size 2.4 1.6) (drill 0.8) (layers *.Cu *.Mask))
  (pad 16 thru_hole oval (at 10.16 20.32) (size 2.4 1.6) (drill 0.8) (layers *.Cu *.Mask))
  (pad 5 thru_hole oval (at 0 10.16) (size 2.4 1.6) (drill 0.8) (layers *.Cu *.Mask))
  (pad 17 thru_hole oval (at 10.16 17.78) (size 2.4 1.6) (drill 0.8) (layers *.Cu *.Mask))
  (pad 6 thru_hole oval (at 0 12.7) (size 2.4 1.6) (drill 0.8) (layers *.Cu *.Mask))
  (pad 18 thru_hole oval (at 10.16 15.24) (size 2.4 1.6) (drill 0.8) (layers *.Cu *.Mask))
  (pad 7 thru_hole oval (at 0 15.24) (size 2.4 1.6) (drill 0.8) (layers *.Cu *.Mask))
  (pad 19 thru_hole oval (at 10.16 12.7) (size 2.4 1.6) (drill 0.8) (layers *.Cu *.Mask))
  (pad 8 thru_hole oval (at 0 17.78) (size 2.4 1.6) (drill 0.8) (layers *.Cu *.Mask))
  (pad 20 thru_hole oval (at 10.16 10.16) (size 2.4 1.6) (drill 0.8) (layers *.Cu *.Mask))
  (pad 9 thru_hole oval (at 0 20.32) (size 2.4 1.6) (drill 0.8) (layers *.Cu *.Mask))
  (pad 21 thru_hole oval (at 10.16 7.62) (size 2.4 1.6) (drill 0.8) (layers *.Cu *.Mask))
  (pad 10 thru_hole oval (at 0 22.86) (size 2.4 1.6) (drill 0.8) (layers *.Cu *.Mask))
  (pad 22 thru_hole oval (at 10.16 5.08) (size 2.4 1.6) (drill 0.8) (layers *.Cu *.Mask))
  (pad 11 thru_hole oval (at 0 25.4) (size 2.4 1.6) (drill 0.8) (layers *.Cu *.Mask))
  (pad 23 thru_hole oval (at 10.16 2.54) (size 2.4 1.6) (drill 0.8) (layers *.Cu *.Mask))
  (pad 12 thru_hole oval (at 0 27.94) (size 2.4 1.6) (drill 0.8) (layers *.Cu *.Mask))
  (pad 24 thru_hole oval (at 10.16 0) (size 2.4 1.6) (drill 0.8) (layers *.Cu *.Mask))
  (fp_text user %R (at 5.08 13.97) (layer F.Fab)
    (effects (font (size 1 1) (thickness 0.15)))
  )
  (model ${KIPRJMOD}/kicad_libs_k/models_k.3d/Package_DIP_k.3dshapes/DIP-24_W10.16mm_k.wrl
    (at (xyz 0 0 0))
    (scale (xyz 1 1 1))
    (rotate (xyz 0 0 0))
  )
)