(module DIP-24_W8.89mm_SMDSocket_LongPads (layer F.Cu) (tedit 5A02E8C5)
  (descr "24-lead though-hole mounted DIP package, row spacing 8.89 mm (350 mils), SMDSocket, LongPads")
  (tags "THT DIP DIL PDIP 2.54mm 8.89mm 350mil SMDSocket LongPads")
  (attr smd)
  (fp_text reference REF** (at 0 -16.3) (layer F.SilkS)
    (effects (font (size 1 1) (thickness 0.15)))
  )
  (fp_text value DIP-24_W8.89mm_SMDSocket_LongPads (at 0 16.3) (layer F.Fab)
    (effects (font (size 1 1) (thickness 0.15)))
  )
  (fp_arc (start 0 -15.3) (end -1 -15.3) (angle -180.000000) (layer F.SilkS) (width 0.12))
  (fp_line (start -2.175 -15.24) (end 3.175 -15.24) (layer F.Fab) (width 0.1))
  (fp_line (start 3.175 -15.24) (end 3.175 15.24) (layer F.Fab) (width 0.1))
  (fp_line (start 3.175 15.24) (end -3.175 15.24) (layer F.Fab) (width 0.1))
  (fp_line (start -3.175 15.24) (end -3.175 -14.24) (layer F.Fab) (width 0.1))
  (fp_line (start -3.175 -14.24) (end -2.175 -15.24) (layer F.Fab) (width 0.1))
  (fp_line (start -5.08 -15.3) (end -5.08 15.3) (layer F.Fab) (width 0.1))
  (fp_line (start -5.08 15.3) (end 5.08 15.3) (layer F.Fab) (width 0.1))
  (fp_line (start 5.08 15.3) (end 5.08 -15.3) (layer F.Fab) (width 0.1))
  (fp_line (start 5.08 -15.3) (end -5.08 -15.3) (layer F.Fab) (width 0.1))
  (fp_line (start -1 -15.3) (end -2.535 -15.3) (layer F.SilkS) (width 0.12))
  (fp_line (start -2.535 -15.3) (end -2.535 15.3) (layer F.SilkS) (width 0.12))
  (fp_line (start -2.535 15.3) (end 2.535 15.3) (layer F.SilkS) (width 0.12))
  (fp_line (start 2.535 15.3) (end 2.535 -15.3) (layer F.SilkS) (width 0.12))
  (fp_line (start 2.535 -15.3) (end 1 -15.3) (layer F.SilkS) (width 0.12))
  (fp_line (start -6.235 -15.36) (end -6.235 15.36) (layer F.SilkS) (width 0.12))
  (fp_line (start -6.235 15.36) (end 6.235 15.36) (layer F.SilkS) (width 0.12))
  (fp_line (start 6.235 15.36) (end 6.235 -15.36) (layer F.SilkS) (width 0.12))
  (fp_line (start 6.235 -15.36) (end -6.235 -15.36) (layer F.SilkS) (width 0.12))
  (fp_line (start -6.25 -15.55) (end -6.25 15.55) (layer F.CrtYd) (width 0.05))
  (fp_line (start -6.25 15.55) (end 6.25 15.55) (layer F.CrtYd) (width 0.05))
  (fp_line (start 6.25 15.55) (end 6.25 -15.55) (layer F.CrtYd) (width 0.05))
  (fp_line (start 6.25 -15.55) (end -6.25 -15.55) (layer F.CrtYd) (width 0.05))
  (pad 1 smd rect (at -4.445 -13.97) (size 3.1 1.6) (layers F.Cu F.Mask F.Paste))
  (pad 13 smd rect (at 4.445 13.97) (size 3.1 1.6) (layers F.Cu F.Mask F.Paste))
  (pad 2 smd rect (at -4.445 -11.43) (size 3.1 1.6) (layers F.Cu F.Mask F.Paste))
  (pad 14 smd rect (at 4.445 11.43) (size 3.1 1.6) (layers F.Cu F.Mask F.Paste))
  (pad 3 smd rect (at -4.445 -8.89) (size 3.1 1.6) (layers F.Cu F.Mask F.Paste))
  (pad 15 smd rect (at 4.445 8.89) (size 3.1 1.6) (layers F.Cu F.Mask F.Paste))
  (pad 4 smd rect (at -4.445 -6.35) (size 3.1 1.6) (layers F.Cu F.Mask F.Paste))
  (pad 16 smd rect (at 4.445 6.35) (size 3.1 1.6) (layers F.Cu F.Mask F.Paste))
  (pad 5 smd rect (at -4.445 -3.81) (size 3.1 1.6) (layers F.Cu F.Mask F.Paste))
  (pad 17 smd rect (at 4.445 3.81) (size 3.1 1.6) (layers F.Cu F.Mask F.Paste))
  (pad 6 smd rect (at -4.445 -1.27) (size 3.1 1.6) (layers F.Cu F.Mask F.Paste))
  (pad 18 smd rect (at 4.445 1.27) (size 3.1 1.6) (layers F.Cu F.Mask F.Paste))
  (pad 7 smd rect (at -4.445 1.27) (size 3.1 1.6) (layers F.Cu F.Mask F.Paste))
  (pad 19 smd rect (at 4.445 -1.27) (size 3.1 1.6) (layers F.Cu F.Mask F.Paste))
  (pad 8 smd rect (at -4.445 3.81) (size 3.1 1.6) (layers F.Cu F.Mask F.Paste))
  (pad 20 smd rect (at 4.445 -3.81) (size 3.1 1.6) (layers F.Cu F.Mask F.Paste))
  (pad 9 smd rect (at -4.445 6.35) (size 3.1 1.6) (layers F.Cu F.Mask F.Paste))
  (pad 21 smd rect (at 4.445 -6.35) (size 3.1 1.6) (layers F.Cu F.Mask F.Paste))
  (pad 10 smd rect (at -4.445 8.89) (size 3.1 1.6) (layers F.Cu F.Mask F.Paste))
  (pad 22 smd rect (at 4.445 -8.89) (size 3.1 1.6) (layers F.Cu F.Mask F.Paste))
  (pad 11 smd rect (at -4.445 11.43) (size 3.1 1.6) (layers F.Cu F.Mask F.Paste))
  (pad 23 smd rect (at 4.445 -11.43) (size 3.1 1.6) (layers F.Cu F.Mask F.Paste))
  (pad 12 smd rect (at -4.445 13.97) (size 3.1 1.6) (layers F.Cu F.Mask F.Paste))
  (pad 24 smd rect (at 4.445 -13.97) (size 3.1 1.6) (layers F.Cu F.Mask F.Paste))
  (fp_text user %R (at 0 0) (layer F.Fab)
    (effects (font (size 1 1) (thickness 0.15)))
  )
  (model ${KIPRJMOD}/kicad_libs_k/models_k.3d/Package_DIP_k.3dshapes/DIP-24_W8.89mm_SMDSocket_k.wrl
    (at (xyz 0 0 0))
    (scale (xyz 1 1 1))
    (rotate (xyz 0 0 0))
  )
)