(module DIP-14_W10.16mm (layer F.Cu) (tedit 5A02E8C5)
  (descr "14-lead though-hole mounted DIP package, row spacing 10.16 mm (400 mils)")
  (tags "THT DIP DIL PDIP 2.54mm 10.16mm 400mil")
  (fp_text reference REF** (at 5.08 -2.33) (layer F.SilkS)
    (effects (font (size 1 1) (thickness 0.15)))
  )
  (fp_text value DIP-14_W10.16mm (at 5.08 17.57) (layer F.Fab)
    (effects (font (size 1 1) (thickness 0.15)))
  )
  (fp_arc (start 5.08 -1.33) (end 4.08 -1.33) (angle -180.000000) (layer F.SilkS) (width 0.12))
  (fp_line (start 2.905 -1.27) (end 8.255 -1.27) (layer F.Fab) (width 0.1))
  (fp_line (start 8.255 -1.27) (end 8.255 16.51) (layer F.Fab) (width 0.1))
  (fp_line (start 8.255 16.51) (end 1.905 16.51) (layer F.Fab) (width 0.1))
  (fp_line (start 1.905 16.51) (end 1.905 -0.27) (layer F.Fab) (width 0.1))
  (fp_line (start 1.905 -0.27) (end 2.905 -1.27) (layer F.Fab) (width 0.1))
  (fp_line (start 4.08 -1.33) (end 1.845 -1.33) (layer F.SilkS) (width 0.12))
  (fp_line (start 1.845 -1.33) (end 1.845 16.57) (layer F.SilkS) (width 0.12))
  (fp_line (start 1.845 16.57) (end 8.315 16.57) (layer F.SilkS) (width 0.12))
  (fp_line (start 8.315 16.57) (end 8.315 -1.33) (layer F.SilkS) (width 0.12))
  (fp_line (start 8.315 -1.33) (end 6.08 -1.33) (layer F.SilkS) (width 0.12))
  (fp_line (start -1.05 -1.55) (end -1.05 16.8) (layer F.CrtYd) (width 0.05))
  (fp_line (start -1.05 16.8) (end 11.25 16.8) (layer F.CrtYd) (width 0.05))
  (fp_line (start 11.25 16.8) (end 11.25 -1.55) (layer F.CrtYd) (width 0.05))
  (fp_line (start 11.25 -1.55) (end -1.05 -1.55) (layer F.CrtYd) (width 0.05))
  (pad 1 thru_hole rect (at 0 0) (size 1.6 1.6) (drill 0.8) (layers *.Cu *.Mask))
  (pad 8 thru_hole oval (at 10.16 15.24) (size 1.6 1.6) (drill 0.8) (layers *.Cu *.Mask))
  (pad 2 thru_hole oval (at 0 2.54) (size 1.6 1.6) (drill 0.8) (layers *.Cu *.Mask))
  (pad 9 thru_hole oval (at 10.16 12.7) (size 1.6 1.6) (drill 0.8) (layers *.Cu *.Mask))
  (pad 3 thru_hole oval (at 0 5.08) (size 1.6 1.6) (drill 0.8) (layers *.Cu *.Mask))
  (pad 10 thru_hole oval (at 10.16 10.16) (size 1.6 1.6) (drill 0.8) (layers *.Cu *.Mask))
  (pad 4 thru_hole oval (at 0 7.62) (size 1.6 1.6) (drill 0.8) (layers *.Cu *.Mask))
  (pad 11 thru_hole oval (at 10.16 7.62) (size 1.6 1.6) (drill 0.8) (layers *.Cu *.Mask))
  (pad 5 thru_hole oval (at 0 10.16) (size 1.6 1.6) (drill 0.8) (layers *.Cu *.Mask))
  (pad 12 thru_hole oval (at 10.16 5.08) (size 1.6 1.6) (drill 0.8) (layers *.Cu *.Mask))
  (pad 6 thru_hole oval (at 0 12.7) (size 1.6 1.6) (drill 0.8) (layers *.Cu *.Mask))
  (pad 13 thru_hole oval (at 10.16 2.54) (size 1.6 1.6) (drill 0.8) (layers *.Cu *.Mask))
  (pad 7 thru_hole oval (at 0 15.24) (size 1.6 1.6) (drill 0.8) (layers *.Cu *.Mask))
  (pad 14 thru_hole oval (at 10.16 0) (size 1.6 1.6) (drill 0.8) (layers *.Cu *.Mask))
  (fp_text user %R (at 5.08 7.62) (layer F.Fab)
    (effects (font (size 1 1) (thickness 0.15)))
  )
  (model ${KIPRJMOD}/kicad_libs_k/models_k.3d/Package_DIP_k.3dshapes/DIP-14_W10.16mm_k.wrl
    (at (xyz 0 0 0))
    (scale (xyz 1 1 1))
    (rotate (xyz 0 0 0))
  )
)