(module DIP-42_W15.24mm_Socket_LongPads (layer F.Cu) (tedit 5A02E8C5)
  (descr "42-lead though-hole mounted DIP package, row spacing 15.24 mm (600 mils), Socket, LongPads")
  (tags "THT DIP DIL PDIP 2.54mm 15.24mm 600mil Socket LongPads")
  (fp_text reference REF** (at 7.62 -2.33) (layer F.SilkS)
    (effects (font (size 1 1) (thickness 0.15)))
  )
  (fp_text value DIP-42_W15.24mm_Socket_LongPads (at 7.62 53.13) (layer F.Fab)
    (effects (font (size 1 1) (thickness 0.15)))
  )
  (fp_arc (start 7.62 -1.33) (end 6.62 -1.33) (angle -180.000000) (layer F.SilkS) (width 0.12))
  (fp_line (start 1.255 -1.27) (end 14.985 -1.27) (layer F.Fab) (width 0.1))
  (fp_line (start 14.985 -1.27) (end 14.985 52.07) (layer F.Fab) (width 0.1))
  (fp_line (start 14.985 52.07) (end 0.255 52.07) (layer F.Fab) (width 0.1))
  (fp_line (start 0.255 52.07) (end 0.255 -0.27) (layer F.Fab) (width 0.1))
  (fp_line (start 0.255 -0.27) (end 1.255 -1.27) (layer F.Fab) (width 0.1))
  (fp_line (start -1.27 -1.33) (end -1.27 52.13) (layer F.Fab) (width 0.1))
  (fp_line (start -1.27 52.13) (end 16.51 52.13) (layer F.Fab) (width 0.1))
  (fp_line (start 16.51 52.13) (end 16.51 -1.33) (layer F.Fab) (width 0.1))
  (fp_line (start 16.51 -1.33) (end -1.27 -1.33) (layer F.Fab) (width 0.1))
  (fp_line (start 6.62 -1.33) (end 1.56 -1.33) (layer F.SilkS) (width 0.12))
  (fp_line (start 1.56 -1.33) (end 1.56 52.13) (layer F.SilkS) (width 0.12))
  (fp_line (start 1.56 52.13) (end 13.68 52.13) (layer F.SilkS) (width 0.12))
  (fp_line (start 13.68 52.13) (end 13.68 -1.33) (layer F.SilkS) (width 0.12))
  (fp_line (start 13.68 -1.33) (end 8.62 -1.33) (layer F.SilkS) (width 0.12))
  (fp_line (start -1.44 -1.39) (end -1.44 52.19) (layer F.SilkS) (width 0.12))
  (fp_line (start -1.44 52.19) (end 16.68 52.19) (layer F.SilkS) (width 0.12))
  (fp_line (start 16.68 52.19) (end 16.68 -1.39) (layer F.SilkS) (width 0.12))
  (fp_line (start 16.68 -1.39) (end -1.44 -1.39) (layer F.SilkS) (width 0.12))
  (fp_line (start -1.55 -1.6) (end -1.55 52.4) (layer F.CrtYd) (width 0.05))
  (fp_line (start -1.55 52.4) (end 16.8 52.4) (layer F.CrtYd) (width 0.05))
  (fp_line (start 16.8 52.4) (end 16.8 -1.6) (layer F.CrtYd) (width 0.05))
  (fp_line (start 16.8 -1.6) (end -1.55 -1.6) (layer F.CrtYd) (width 0.05))
  (pad 1 thru_hole rect (at 0 0) (size 2.4 1.6) (drill 0.8) (layers *.Cu *.Mask))
  (pad 22 thru_hole oval (at 15.24 50.8) (size 2.4 1.6) (drill 0.8) (layers *.Cu *.Mask))
  (pad 2 thru_hole oval (at 0 2.54) (size 2.4 1.6) (drill 0.8) (layers *.Cu *.Mask))
  (pad 23 thru_hole oval (at 15.24 48.26) (size 2.4 1.6) (drill 0.8) (layers *.Cu *.Mask))
  (pad 3 thru_hole oval (at 0 5.08) (size 2.4 1.6) (drill 0.8) (layers *.Cu *.Mask))
  (pad 24 thru_hole oval (at 15.24 45.72) (size 2.4 1.6) (drill 0.8) (layers *.Cu *.Mask))
  (pad 4 thru_hole oval (at 0 7.62) (size 2.4 1.6) (drill 0.8) (layers *.Cu *.Mask))
  (pad 25 thru_hole oval (at 15.24 43.18) (size 2.4 1.6) (drill 0.8) (layers *.Cu *.Mask))
  (pad 5 thru_hole oval (at 0 10.16) (size 2.4 1.6) (drill 0.8) (layers *.Cu *.Mask))
  (pad 26 thru_hole oval (at 15.24 40.64) (size 2.4 1.6) (drill 0.8) (layers *.Cu *.Mask))
  (pad 6 thru_hole oval (at 0 12.7) (size 2.4 1.6) (drill 0.8) (layers *.Cu *.Mask))
  (pad 27 thru_hole oval (at 15.24 38.1) (size 2.4 1.6) (drill 0.8) (layers *.Cu *.Mask))
  (pad 7 thru_hole oval (at 0 15.24) (size 2.4 1.6) (drill 0.8) (layers *.Cu *.Mask))
  (pad 28 thru_hole oval (at 15.24 35.56) (size 2.4 1.6) (drill 0.8) (layers *.Cu *.Mask))
  (pad 8 thru_hole oval (at 0 17.78) (size 2.4 1.6) (drill 0.8) (layers *.Cu *.Mask))
  (pad 29 thru_hole oval (at 15.24 33.02) (size 2.4 1.6) (drill 0.8) (layers *.Cu *.Mask))
  (pad 9 thru_hole oval (at 0 20.32) (size 2.4 1.6) (drill 0.8) (layers *.Cu *.Mask))
  (pad 30 thru_hole oval (at 15.24 30.48) (size 2.4 1.6) (drill 0.8) (layers *.Cu *.Mask))
  (pad 10 thru_hole oval (at 0 22.86) (size 2.4 1.6) (drill 0.8) (layers *.Cu *.Mask))
  (pad 31 thru_hole oval (at 15.24 27.94) (size 2.4 1.6) (drill 0.8) (layers *.Cu *.Mask))
  (pad 11 thru_hole oval (at 0 25.4) (size 2.4 1.6) (drill 0.8) (layers *.Cu *.Mask))
  (pad 32 thru_hole oval (at 15.24 25.4) (size 2.4 1.6) (drill 0.8) (layers *.Cu *.Mask))
  (pad 12 thru_hole oval (at 0 27.94) (size 2.4 1.6) (drill 0.8) (layers *.Cu *.Mask))
  (pad 33 thru_hole oval (at 15.24 22.86) (size 2.4 1.6) (drill 0.8) (layers *.Cu *.Mask))
  (pad 13 thru_hole oval (at 0 30.48) (size 2.4 1.6) (drill 0.8) (layers *.Cu *.Mask))
  (pad 34 thru_hole oval (at 15.24 20.32) (size 2.4 1.6) (drill 0.8) (layers *.Cu *.Mask))
  (pad 14 thru_hole oval (at 0 33.02) (size 2.4 1.6) (drill 0.8) (layers *.Cu *.Mask))
  (pad 35 thru_hole oval (at 15.24 17.78) (size 2.4 1.6) (drill 0.8) (layers *.Cu *.Mask))
  (pad 15 thru_hole oval (at 0 35.56) (size 2.4 1.6) (drill 0.8) (layers *.Cu *.Mask))
  (pad 36 thru_hole oval (at 15.24 15.24) (size 2.4 1.6) (drill 0.8) (layers *.Cu *.Mask))
  (pad 16 thru_hole oval (at 0 38.1) (size 2.4 1.6) (drill 0.8) (layers *.Cu *.Mask))
  (pad 37 thru_hole oval (at 15.24 12.7) (size 2.4 1.6) (drill 0.8) (layers *.Cu *.Mask))
  (pad 17 thru_hole oval (at 0 40.64) (size 2.4 1.6) (drill 0.8) (layers *.Cu *.Mask))
  (pad 38 thru_hole oval (at 15.24 10.16) (size 2.4 1.6) (drill 0.8) (layers *.Cu *.Mask))
  (pad 18 thru_hole oval (at 0 43.18) (size 2.4 1.6) (drill 0.8) (layers *.Cu *.Mask))
  (pad 39 thru_hole oval (at 15.24 7.62) (size 2.4 1.6) (drill 0.8) (layers *.Cu *.Mask))
  (pad 19 thru_hole oval (at 0 45.72) (size 2.4 1.6) (drill 0.8) (layers *.Cu *.Mask))
  (pad 40 thru_hole oval (at 15.24 5.08) (size 2.4 1.6) (drill 0.8) (layers *.Cu *.Mask))
  (pad 20 thru_hole oval (at 0 48.26) (size 2.4 1.6) (drill 0.8) (layers *.Cu *.Mask))
  (pad 41 thru_hole oval (at 15.24 2.54) (size 2.4 1.6) (drill 0.8) (layers *.Cu *.Mask))
  (pad 21 thru_hole oval (at 0 50.8) (size 2.4 1.6) (drill 0.8) (layers *.Cu *.Mask))
  (pad 42 thru_hole oval (at 15.24 0) (size 2.4 1.6) (drill 0.8) (layers *.Cu *.Mask))
  (fp_text user %R (at 7.62 25.4) (layer F.Fab)
    (effects (font (size 1 1) (thickness 0.15)))
  )
  (model ${KIPRJMOD}/kicad_libs_k/models_k.3d/Package_DIP_k.3dshapes/DIP-42_W15.24mm_Socket_k.wrl
    (at (xyz 0 0 0))
    (scale (xyz 1 1 1))
    (rotate (xyz 0 0 0))
  )
)