(module Fairchild_LSOP-8 (layer F.Cu) (tedit 5A6787B8)
  (descr "8-Lead, 300\\\" Wide, Surface Mount Package (https://www.fairchildsemi.com/package-drawings/ML/MLSOP08A.pdf)")
  (tags "LSOP 2.54mm 300mil")
  (attr smd)
  (fp_text reference REF** (at 0 -6) (layer F.SilkS)
    (effects (font (size 1 1) (thickness 0.15)))
  )
  (fp_text value Fairchild_LSOP-8 (at 0 6) (layer F.Fab)
    (effects (font (size 1 1) (thickness 0.15)))
  )
  (fp_text user %R (at 0 0) (layer F.Fab)
    (effects (font (size 1 1) (thickness 0.15)))
  )
  (fp_line (start -2.2 -4.6) (end 3.2 -4.6) (layer F.Fab) (width 0.15))
  (fp_line (start 3.2 -4.6) (end 3.2 4.6) (layer F.Fab) (width 0.15))
  (fp_line (start 3.2 4.6) (end -3.2 4.6) (layer F.Fab) (width 0.15))
  (fp_line (start -3.2 4.6) (end -3.2 -3.6) (layer F.Fab) (width 0.15))
  (fp_line (start -2.2 -4.6) (end -3.2 -3.6) (layer F.Fab) (width 0.15))
  (fp_line (start -1 -4.8) (end -2.45 -4.8) (layer F.SilkS) (width 0.12))
  (fp_line (start -2.45 -4.8) (end -2.45 4.8) (layer F.SilkS) (width 0.12))
  (fp_line (start -2.4 4.8) (end 2.4 4.8) (layer F.SilkS) (width 0.12))
  (fp_line (start 2.45 4.8) (end 2.45 -4.8) (layer F.SilkS) (width 0.12))
  (fp_line (start 2.45 -4.8) (end 1 -4.8) (layer F.SilkS) (width 0.12))
  (fp_line (start -5.6 -5.1) (end -5.6 5.1) (layer F.CrtYd) (width 0.05))
  (fp_line (start 5.6 -5.1) (end 5.6 5.1) (layer F.CrtYd) (width 0.05))
  (fp_line (start -5.6 -5.1) (end 5.6 -5.1) (layer F.CrtYd) (width 0.05))
  (fp_line (start -5.6 5.1) (end 5.6 5.1) (layer F.CrtYd) (width 0.05))
  (fp_arc (start 0 -4.8) (end -1 -4.8) (angle -180) (layer F.SilkS) (width 0.12))
  (pad 1 smd rect (at -4.35 -3.81) (size 2 1.252) (drill (offset 0 0.266)) (layers F.Cu F.Paste F.Mask))
  (pad 2 smd rect (at -4.35 -1.27) (size 2 1.784) (layers F.Cu F.Paste F.Mask))
  (pad 3 smd rect (at -4.35 1.27) (size 2 1.784) (layers F.Cu F.Paste F.Mask))
  (pad 4 smd rect (at -4.35 3.81) (size 2 1.252) (drill (offset 0 -0.266)) (layers F.Cu F.Paste F.Mask))
  (pad 5 smd rect (at 4.35 3.81) (size 2 1.252) (drill (offset 0 -0.266)) (layers F.Cu F.Paste F.Mask))
  (pad 6 smd rect (at 4.35 1.27) (size 2 1.784) (layers F.Cu F.Paste F.Mask))
  (pad 7 smd rect (at 4.35 -1.27) (size 2 1.784) (layers F.Cu F.Paste F.Mask))
  (pad 8 smd rect (at 4.35 -3.81) (size 2 1.252) (drill (offset 0 0.266)) (layers F.Cu F.Paste F.Mask))
  (model ${KIPRJMOD}/kicad_libs_k/models_k.3d/Package_DIP_k.3dshapes/SMDIP-8_W7.62mm_k.step
    (at (xyz 0 0 0))
    (scale (xyz 1 1 1))
    (rotate (xyz 0 0 0))
  )
)
