(module SMDIP-18_W11.48mm (layer F.Cu) (tedit 5A02E8C5)
  (descr "18-lead surface-mounted (SMD) DIP package, row spacing 11.48 mm (451 mils)")
  (tags "SMD DIP DIL PDIP SMDIP 2.54mm 11.48mm 451mil")
  (attr smd)
  (fp_text reference REF** (at 0 -12.49) (layer F.SilkS)
    (effects (font (size 1 1) (thickness 0.15)))
  )
  (fp_text value SMDIP-18_W11.48mm (at 0 12.49) (layer F.Fab)
    (effects (font (size 1 1) (thickness 0.15)))
  )
  (fp_arc (start 0 -11.49) (end -1 -11.49) (angle -180.000000) (layer F.SilkS) (width 0.12))
  (fp_line (start -2.175 -11.43) (end 3.175 -11.43) (layer F.Fab) (width 0.1))
  (fp_line (start 3.175 -11.43) (end 3.175 11.43) (layer F.Fab) (width 0.1))
  (fp_line (start 3.175 11.43) (end -3.175 11.43) (layer F.Fab) (width 0.1))
  (fp_line (start -3.175 11.43) (end -3.175 -10.43) (layer F.Fab) (width 0.1))
  (fp_line (start -3.175 -10.43) (end -2.175 -11.43) (layer F.Fab) (width 0.1))
  (fp_line (start -1 -11.49) (end -3.235 -11.49) (layer F.SilkS) (width 0.12))
  (fp_line (start -3.235 -11.49) (end -3.235 11.49) (layer F.SilkS) (width 0.12))
  (fp_line (start -3.235 11.49) (end 3.235 11.49) (layer F.SilkS) (width 0.12))
  (fp_line (start 3.235 11.49) (end 3.235 -11.49) (layer F.SilkS) (width 0.12))
  (fp_line (start 3.235 -11.49) (end 1 -11.49) (layer F.SilkS) (width 0.12))
  (fp_line (start -7 -11.7) (end -7 11.7) (layer F.CrtYd) (width 0.05))
  (fp_line (start -7 11.7) (end 7 11.7) (layer F.CrtYd) (width 0.05))
  (fp_line (start 7 11.7) (end 7 -11.7) (layer F.CrtYd) (width 0.05))
  (fp_line (start 7 -11.7) (end -7 -11.7) (layer F.CrtYd) (width 0.05))
  (pad 1 smd rect (at -5.74 -10.16) (size 2 1.78) (layers F.Cu F.Mask F.Paste))
  (pad 10 smd rect (at 5.74 10.16) (size 2 1.78) (layers F.Cu F.Mask F.Paste))
  (pad 2 smd rect (at -5.74 -7.62) (size 2 1.78) (layers F.Cu F.Mask F.Paste))
  (pad 11 smd rect (at 5.74 7.62) (size 2 1.78) (layers F.Cu F.Mask F.Paste))
  (pad 3 smd rect (at -5.74 -5.08) (size 2 1.78) (layers F.Cu F.Mask F.Paste))
  (pad 12 smd rect (at 5.74 5.08) (size 2 1.78) (layers F.Cu F.Mask F.Paste))
  (pad 4 smd rect (at -5.74 -2.54) (size 2 1.78) (layers F.Cu F.Mask F.Paste))
  (pad 13 smd rect (at 5.74 2.54) (size 2 1.78) (layers F.Cu F.Mask F.Paste))
  (pad 5 smd rect (at -5.74 0) (size 2 1.78) (layers F.Cu F.Mask F.Paste))
  (pad 14 smd rect (at 5.74 0) (size 2 1.78) (layers F.Cu F.Mask F.Paste))
  (pad 6 smd rect (at -5.74 2.54) (size 2 1.78) (layers F.Cu F.Mask F.Paste))
  (pad 15 smd rect (at 5.74 -2.54) (size 2 1.78) (layers F.Cu F.Mask F.Paste))
  (pad 7 smd rect (at -5.74 5.08) (size 2 1.78) (layers F.Cu F.Mask F.Paste))
  (pad 16 smd rect (at 5.74 -5.08) (size 2 1.78) (layers F.Cu F.Mask F.Paste))
  (pad 8 smd rect (at -5.74 7.62) (size 2 1.78) (layers F.Cu F.Mask F.Paste))
  (pad 17 smd rect (at 5.74 -7.62) (size 2 1.78) (layers F.Cu F.Mask F.Paste))
  (pad 9 smd rect (at -5.74 10.16) (size 2 1.78) (layers F.Cu F.Mask F.Paste))
  (pad 18 smd rect (at 5.74 -10.16) (size 2 1.78) (layers F.Cu F.Mask F.Paste))
  (fp_text user %R (at 0 0) (layer F.Fab)
    (effects (font (size 1 1) (thickness 0.15)))
  )
  (model ${KIPRJMOD}/kicad_libs_k/models_k.3d/Package_DIP_k.3dshapes/SMDIP-18_W11.48mm_k.wrl
    (at (xyz 0 0 0))
    (scale (xyz 1 1 1))
    (rotate (xyz 0 0 0))
  )
)