(module PLCC-44_16.6x16.6mm_P1.27mm (layer F.Cu) (tedit 5B298677)
  (descr "PLCC, 44 Pin (http://www.microsemi.com/index.php?option=com_docman&task=doc_download&gid=131095), generated with kicad-footprint-generator ipc_plcc_jLead_generator.py")
  (tags "PLCC LCC")
  (attr smd)
  (fp_text reference REF** (at 0 -9.8) (layer F.SilkS)
    (effects (font (size 1 1) (thickness 0.15)))
  )
  (fp_text value PLCC-44_16.6x16.6mm_P1.27mm (at 0 9.8) (layer F.Fab)
    (effects (font (size 1 1) (thickness 0.15)))
  )
  (fp_line (start 6.91 -8.4031) (end 8.4031 -8.4031) (layer F.SilkS) (width 0.12))
  (fp_line (start 8.4031 -8.4031) (end 8.4031 -6.91) (layer F.SilkS) (width 0.12))
  (fp_line (start -6.91 8.4031) (end -8.4031 8.4031) (layer F.SilkS) (width 0.12))
  (fp_line (start -8.4031 8.4031) (end -8.4031 6.91) (layer F.SilkS) (width 0.12))
  (fp_line (start 6.91 8.4031) (end 8.4031 8.4031) (layer F.SilkS) (width 0.12))
  (fp_line (start 8.4031 8.4031) (end 8.4031 6.91) (layer F.SilkS) (width 0.12))
  (fp_line (start -6.91 -8.4031) (end -7.227882 -8.4031) (layer F.SilkS) (width 0.12))
  (fp_line (start -7.227882 -8.4031) (end -8.4031 -7.227882) (layer F.SilkS) (width 0.12))
  (fp_line (start -8.4031 -7.227882) (end -8.4031 -6.91) (layer F.SilkS) (width 0.12))
  (fp_line (start 0 -7.585993) (end 0.5 -8.2931) (layer F.Fab) (width 0.1))
  (fp_line (start 0.5 -8.2931) (end 8.2931 -8.2931) (layer F.Fab) (width 0.1))
  (fp_line (start 8.2931 -8.2931) (end 8.2931 8.2931) (layer F.Fab) (width 0.1))
  (fp_line (start 8.2931 8.2931) (end -8.2931 8.2931) (layer F.Fab) (width 0.1))
  (fp_line (start -8.2931 8.2931) (end -8.2931 -7.1501) (layer F.Fab) (width 0.1))
  (fp_line (start -8.2931 -7.1501) (end -7.1501 -8.2931) (layer F.Fab) (width 0.1))
  (fp_line (start -7.1501 -8.2931) (end -0.5 -8.2931) (layer F.Fab) (width 0.1))
  (fp_line (start -0.5 -8.2931) (end 0 -7.585993) (layer F.Fab) (width 0.1))
  (fp_line (start 0 -9.1) (end 6.9 -9.1) (layer F.CrtYd) (width 0.05))
  (fp_line (start 6.9 -9.1) (end 6.9 -8.54) (layer F.CrtYd) (width 0.05))
  (fp_line (start 6.9 -8.54) (end 8.54 -8.54) (layer F.CrtYd) (width 0.05))
  (fp_line (start 8.54 -8.54) (end 8.54 -6.9) (layer F.CrtYd) (width 0.05))
  (fp_line (start 8.54 -6.9) (end 9.1 -6.9) (layer F.CrtYd) (width 0.05))
  (fp_line (start 9.1 -6.9) (end 9.1 0) (layer F.CrtYd) (width 0.05))
  (fp_line (start 0 9.1) (end -6.9 9.1) (layer F.CrtYd) (width 0.05))
  (fp_line (start -6.9 9.1) (end -6.9 8.54) (layer F.CrtYd) (width 0.05))
  (fp_line (start -6.9 8.54) (end -8.54 8.54) (layer F.CrtYd) (width 0.05))
  (fp_line (start -8.54 8.54) (end -8.54 6.9) (layer F.CrtYd) (width 0.05))
  (fp_line (start -8.54 6.9) (end -9.1 6.9) (layer F.CrtYd) (width 0.05))
  (fp_line (start -9.1 6.9) (end -9.1 0) (layer F.CrtYd) (width 0.05))
  (fp_line (start 0 9.1) (end 6.9 9.1) (layer F.CrtYd) (width 0.05))
  (fp_line (start 6.9 9.1) (end 6.9 8.54) (layer F.CrtYd) (width 0.05))
  (fp_line (start 6.9 8.54) (end 8.54 8.54) (layer F.CrtYd) (width 0.05))
  (fp_line (start 8.54 8.54) (end 8.54 6.9) (layer F.CrtYd) (width 0.05))
  (fp_line (start 8.54 6.9) (end 9.1 6.9) (layer F.CrtYd) (width 0.05))
  (fp_line (start 9.1 6.9) (end 9.1 0) (layer F.CrtYd) (width 0.05))
  (fp_line (start 0 -9.1) (end -6.9 -9.1) (layer F.CrtYd) (width 0.05))
  (fp_line (start -6.9 -9.1) (end -6.9 -8.54) (layer F.CrtYd) (width 0.05))
  (fp_line (start -6.9 -8.54) (end -7.25 -8.54) (layer F.CrtYd) (width 0.05))
  (fp_line (start -7.25 -8.54) (end -8.54 -7.25) (layer F.CrtYd) (width 0.05))
  (fp_line (start -8.54 -7.25) (end -8.54 -6.9) (layer F.CrtYd) (width 0.05))
  (fp_line (start -8.54 -6.9) (end -9.1 -6.9) (layer F.CrtYd) (width 0.05))
  (fp_line (start -9.1 -6.9) (end -9.1 0) (layer F.CrtYd) (width 0.05))
  (pad 1 smd roundrect (at 0 -8) (size 0.6 1.7) (layers F.Cu F.Mask F.Paste) (roundrect_rratio 0.25))
  (pad 2 smd roundrect (at -1.27 -8) (size 0.6 1.7) (layers F.Cu F.Mask F.Paste) (roundrect_rratio 0.25))
  (pad 3 smd roundrect (at -2.54 -8) (size 0.6 1.7) (layers F.Cu F.Mask F.Paste) (roundrect_rratio 0.25))
  (pad 4 smd roundrect (at -3.81 -8) (size 0.6 1.7) (layers F.Cu F.Mask F.Paste) (roundrect_rratio 0.25))
  (pad 5 smd roundrect (at -5.08 -8) (size 0.6 1.7) (layers F.Cu F.Mask F.Paste) (roundrect_rratio 0.25))
  (pad 6 smd roundrect (at -6.35 -8) (size 0.6 1.7) (layers F.Cu F.Mask F.Paste) (roundrect_rratio 0.25))
  (pad 7 smd roundrect (at -8 -6.35) (size 1.7 0.6) (layers F.Cu F.Mask F.Paste) (roundrect_rratio 0.25))
  (pad 8 smd roundrect (at -8 -5.08) (size 1.7 0.6) (layers F.Cu F.Mask F.Paste) (roundrect_rratio 0.25))
  (pad 9 smd roundrect (at -8 -3.81) (size 1.7 0.6) (layers F.Cu F.Mask F.Paste) (roundrect_rratio 0.25))
  (pad 10 smd roundrect (at -8 -2.54) (size 1.7 0.6) (layers F.Cu F.Mask F.Paste) (roundrect_rratio 0.25))
  (pad 11 smd roundrect (at -8 -1.27) (size 1.7 0.6) (layers F.Cu F.Mask F.Paste) (roundrect_rratio 0.25))
  (pad 12 smd roundrect (at -8 0) (size 1.7 0.6) (layers F.Cu F.Mask F.Paste) (roundrect_rratio 0.25))
  (pad 13 smd roundrect (at -8 1.27) (size 1.7 0.6) (layers F.Cu F.Mask F.Paste) (roundrect_rratio 0.25))
  (pad 14 smd roundrect (at -8 2.54) (size 1.7 0.6) (layers F.Cu F.Mask F.Paste) (roundrect_rratio 0.25))
  (pad 15 smd roundrect (at -8 3.81) (size 1.7 0.6) (layers F.Cu F.Mask F.Paste) (roundrect_rratio 0.25))
  (pad 16 smd roundrect (at -8 5.08) (size 1.7 0.6) (layers F.Cu F.Mask F.Paste) (roundrect_rratio 0.25))
  (pad 17 smd roundrect (at -8 6.35) (size 1.7 0.6) (layers F.Cu F.Mask F.Paste) (roundrect_rratio 0.25))
  (pad 18 smd roundrect (at -6.35 8) (size 0.6 1.7) (layers F.Cu F.Mask F.Paste) (roundrect_rratio 0.25))
  (pad 19 smd roundrect (at -5.08 8) (size 0.6 1.7) (layers F.Cu F.Mask F.Paste) (roundrect_rratio 0.25))
  (pad 20 smd roundrect (at -3.81 8) (size 0.6 1.7) (layers F.Cu F.Mask F.Paste) (roundrect_rratio 0.25))
  (pad 21 smd roundrect (at -2.54 8) (size 0.6 1.7) (layers F.Cu F.Mask F.Paste) (roundrect_rratio 0.25))
  (pad 22 smd roundrect (at -1.27 8) (size 0.6 1.7) (layers F.Cu F.Mask F.Paste) (roundrect_rratio 0.25))
  (pad 23 smd roundrect (at 0 8) (size 0.6 1.7) (layers F.Cu F.Mask F.Paste) (roundrect_rratio 0.25))
  (pad 24 smd roundrect (at 1.27 8) (size 0.6 1.7) (layers F.Cu F.Mask F.Paste) (roundrect_rratio 0.25))
  (pad 25 smd roundrect (at 2.54 8) (size 0.6 1.7) (layers F.Cu F.Mask F.Paste) (roundrect_rratio 0.25))
  (pad 26 smd roundrect (at 3.81 8) (size 0.6 1.7) (layers F.Cu F.Mask F.Paste) (roundrect_rratio 0.25))
  (pad 27 smd roundrect (at 5.08 8) (size 0.6 1.7) (layers F.Cu F.Mask F.Paste) (roundrect_rratio 0.25))
  (pad 28 smd roundrect (at 6.35 8) (size 0.6 1.7) (layers F.Cu F.Mask F.Paste) (roundrect_rratio 0.25))
  (pad 29 smd roundrect (at 8 6.35) (size 1.7 0.6) (layers F.Cu F.Mask F.Paste) (roundrect_rratio 0.25))
  (pad 30 smd roundrect (at 8 5.08) (size 1.7 0.6) (layers F.Cu F.Mask F.Paste) (roundrect_rratio 0.25))
  (pad 31 smd roundrect (at 8 3.81) (size 1.7 0.6) (layers F.Cu F.Mask F.Paste) (roundrect_rratio 0.25))
  (pad 32 smd roundrect (at 8 2.54) (size 1.7 0.6) (layers F.Cu F.Mask F.Paste) (roundrect_rratio 0.25))
  (pad 33 smd roundrect (at 8 1.27) (size 1.7 0.6) (layers F.Cu F.Mask F.Paste) (roundrect_rratio 0.25))
  (pad 34 smd roundrect (at 8 0) (size 1.7 0.6) (layers F.Cu F.Mask F.Paste) (roundrect_rratio 0.25))
  (pad 35 smd roundrect (at 8 -1.27) (size 1.7 0.6) (layers F.Cu F.Mask F.Paste) (roundrect_rratio 0.25))
  (pad 36 smd roundrect (at 8 -2.54) (size 1.7 0.6) (layers F.Cu F.Mask F.Paste) (roundrect_rratio 0.25))
  (pad 37 smd roundrect (at 8 -3.81) (size 1.7 0.6) (layers F.Cu F.Mask F.Paste) (roundrect_rratio 0.25))
  (pad 38 smd roundrect (at 8 -5.08) (size 1.7 0.6) (layers F.Cu F.Mask F.Paste) (roundrect_rratio 0.25))
  (pad 39 smd roundrect (at 8 -6.35) (size 1.7 0.6) (layers F.Cu F.Mask F.Paste) (roundrect_rratio 0.25))
  (pad 40 smd roundrect (at 6.35 -8) (size 0.6 1.7) (layers F.Cu F.Mask F.Paste) (roundrect_rratio 0.25))
  (pad 41 smd roundrect (at 5.08 -8) (size 0.6 1.7) (layers F.Cu F.Mask F.Paste) (roundrect_rratio 0.25))
  (pad 42 smd roundrect (at 3.81 -8) (size 0.6 1.7) (layers F.Cu F.Mask F.Paste) (roundrect_rratio 0.25))
  (pad 43 smd roundrect (at 2.54 -8) (size 0.6 1.7) (layers F.Cu F.Mask F.Paste) (roundrect_rratio 0.25))
  (pad 44 smd roundrect (at 1.27 -8) (size 0.6 1.7) (layers F.Cu F.Mask F.Paste) (roundrect_rratio 0.25))
  (fp_text user %R (at 0 0) (layer F.Fab)
    (effects (font (size 1 1) (thickness 0.15)))
  )
  (model ${KIPRJMOD}/kicad_libs_k/models_k.3d/Package_LCC_k.3dshapes/PLCC-44_16.6x16.6mm_P1.27mm_k.wrl
    (at (xyz 0 0 0))
    (scale (xyz 1 1 1))
    (rotate (xyz 0 0 0))
  )
)