(module PLCC-32_THT-Socket (layer F.Cu) (tedit 5A02ECC8)
  (descr "PLCC, 32 pins, through hole")
  (tags "plcc leaded")
  (fp_text reference REF** (at -1.27 -6.22) (layer F.SilkS)
    (effects (font (size 1 1) (thickness 0.15)))
  )
  (fp_text value PLCC-32_THT-Socket (at -1.27 16.38) (layer F.Fab)
    (effects (font (size 1 1) (thickness 0.15)))
  )
  (fp_line (start -9.295 -5.22) (end -10.295 -4.22) (layer F.Fab) (width 0.1))
  (fp_line (start -10.295 -4.22) (end -10.295 15.38) (layer F.Fab) (width 0.1))
  (fp_line (start -10.295 15.38) (end 7.755 15.38) (layer F.Fab) (width 0.1))
  (fp_line (start 7.755 15.38) (end 7.755 -5.22) (layer F.Fab) (width 0.1))
  (fp_line (start 7.755 -5.22) (end -9.295 -5.22) (layer F.Fab) (width 0.1))
  (fp_line (start -10.77 -5.72) (end -10.77 15.88) (layer F.CrtYd) (width 0.05))
  (fp_line (start -10.77 15.88) (end 8.23 15.88) (layer F.CrtYd) (width 0.05))
  (fp_line (start 8.23 15.88) (end 8.23 -5.72) (layer F.CrtYd) (width 0.05))
  (fp_line (start 8.23 -5.72) (end -10.77 -5.72) (layer F.CrtYd) (width 0.05))
  (fp_line (start -7.755 -2.68) (end -7.755 12.84) (layer F.Fab) (width 0.1))
  (fp_line (start -7.755 12.84) (end 5.215 12.84) (layer F.Fab) (width 0.1))
  (fp_line (start 5.215 12.84) (end 5.215 -2.68) (layer F.Fab) (width 0.1))
  (fp_line (start 5.215 -2.68) (end -7.755 -2.68) (layer F.Fab) (width 0.1))
  (fp_line (start -1.77 -5.22) (end -1.27 -4.22) (layer F.Fab) (width 0.1))
  (fp_line (start -1.27 -4.22) (end -0.77 -5.22) (layer F.Fab) (width 0.1))
  (fp_line (start -2.27 -5.32) (end -9.395 -5.32) (layer F.SilkS) (width 0.12))
  (fp_line (start -9.395 -5.32) (end -10.395 -4.32) (layer F.SilkS) (width 0.12))
  (fp_line (start -10.395 -4.32) (end -10.395 15.48) (layer F.SilkS) (width 0.12))
  (fp_line (start -10.395 15.48) (end 7.855 15.48) (layer F.SilkS) (width 0.12))
  (fp_line (start 7.855 15.48) (end 7.855 -5.32) (layer F.SilkS) (width 0.12))
  (fp_line (start 7.855 -5.32) (end -0.27 -5.32) (layer F.SilkS) (width 0.12))
  (pad 1 thru_hole rect (at 0 0) (size 1.4224 1.4224) (drill 0.8) (layers *.Cu *.Mask))
  (pad 3 thru_hole circle (at -2.54 0) (size 1.4224 1.4224) (drill 0.8) (layers *.Cu *.Mask))
  (pad 31 thru_hole circle (at 2.54 0) (size 1.4224 1.4224) (drill 0.8) (layers *.Cu *.Mask))
  (pad 2 thru_hole circle (at -2.54 -2.54) (size 1.4224 1.4224) (drill 0.8) (layers *.Cu *.Mask))
  (pad 4 thru_hole circle (at -5.08 -2.54) (size 1.4224 1.4224) (drill 0.8) (layers *.Cu *.Mask))
  (pad 32 thru_hole circle (at 0 -2.54) (size 1.4224 1.4224) (drill 0.8) (layers *.Cu *.Mask))
  (pad 30 thru_hole circle (at 2.54 -2.54) (size 1.4224 1.4224) (drill 0.8) (layers *.Cu *.Mask))
  (pad 6 thru_hole circle (at -5.08 0) (size 1.4224 1.4224) (drill 0.8) (layers *.Cu *.Mask))
  (pad 8 thru_hole circle (at -5.08 2.54) (size 1.4224 1.4224) (drill 0.8) (layers *.Cu *.Mask))
  (pad 10 thru_hole circle (at -5.08 5.08) (size 1.4224 1.4224) (drill 0.8) (layers *.Cu *.Mask))
  (pad 12 thru_hole circle (at -5.08 7.62) (size 1.4224 1.4224) (drill 0.8) (layers *.Cu *.Mask))
  (pad 5 thru_hole circle (at -7.62 0) (size 1.4224 1.4224) (drill 0.8) (layers *.Cu *.Mask))
  (pad 7 thru_hole circle (at -7.62 2.54) (size 1.4224 1.4224) (drill 0.8) (layers *.Cu *.Mask))
  (pad 9 thru_hole circle (at -7.62 5.08) (size 1.4224 1.4224) (drill 0.8) (layers *.Cu *.Mask))
  (pad 11 thru_hole circle (at -7.62 7.62) (size 1.4224 1.4224) (drill 0.8) (layers *.Cu *.Mask))
  (pad 13 thru_hole circle (at -7.62 10.16) (size 1.4224 1.4224) (drill 0.8) (layers *.Cu *.Mask))
  (pad 15 thru_hole circle (at -5.08 10.16) (size 1.4224 1.4224) (drill 0.8) (layers *.Cu *.Mask))
  (pad 17 thru_hole circle (at -2.54 10.16) (size 1.4224 1.4224) (drill 0.8) (layers *.Cu *.Mask))
  (pad 19 thru_hole circle (at 0 10.16) (size 1.4224 1.4224) (drill 0.8) (layers *.Cu *.Mask))
  (pad 21 thru_hole circle (at 5.08 10.16) (size 1.4224 1.4224) (drill 0.8) (layers *.Cu *.Mask))
  (pad 14 thru_hole circle (at -5.08 12.7) (size 1.4224 1.4224) (drill 0.8) (layers *.Cu *.Mask))
  (pad 16 thru_hole circle (at -2.54 12.7) (size 1.4224 1.4224) (drill 0.8) (layers *.Cu *.Mask))
  (pad 18 thru_hole circle (at 0 12.7) (size 1.4224 1.4224) (drill 0.8) (layers *.Cu *.Mask))
  (pad 20 thru_hole circle (at 2.54 12.7) (size 1.4224 1.4224) (drill 0.8) (layers *.Cu *.Mask))
  (pad 22 thru_hole circle (at 2.54 10.16) (size 1.4224 1.4224) (drill 0.8) (layers *.Cu *.Mask))
  (pad 24 thru_hole circle (at 2.54 7.62) (size 1.4224 1.4224) (drill 0.8) (layers *.Cu *.Mask))
  (pad 26 thru_hole circle (at 2.54 5.08) (size 1.4224 1.4224) (drill 0.8) (layers *.Cu *.Mask))
  (pad 28 thru_hole circle (at 2.54 2.54) (size 1.4224 1.4224) (drill 0.8) (layers *.Cu *.Mask))
  (pad 23 thru_hole circle (at 5.08 7.62) (size 1.4224 1.4224) (drill 0.8) (layers *.Cu *.Mask))
  (pad 25 thru_hole circle (at 5.08 5.08) (size 1.4224 1.4224) (drill 0.8) (layers *.Cu *.Mask))
  (pad 27 thru_hole circle (at 5.08 2.54) (size 1.4224 1.4224) (drill 0.8) (layers *.Cu *.Mask))
  (pad 29 thru_hole circle (at 5.08 0) (size 1.4224 1.4224) (drill 0.8) (layers *.Cu *.Mask))
  (fp_text user %R (at -1.27 5.08) (layer F.Fab)
    (effects (font (size 1 1) (thickness 0.15)))
  )
  (model ${KIPRJMOD}/kicad_libs_k/models_k.3d/Package_LCC_k.3dshapes/PLCC-32_THT-Socket_k.wrl
    (at (xyz 0 0 0))
    (scale (xyz 1 1 1))
    (rotate (xyz 0 0 0))
  )
)