(module PLCC-28_SMD-Socket (layer F.Cu) (tedit 5A02ECC8)
  (descr "PLCC, 28 pins, surface mount")
  (tags "plcc smt")
  (attr smd)
  (fp_text reference REF** (at 0 -10.09) (layer F.SilkS)
    (effects (font (size 1 1) (thickness 0.15)))
  )
  (fp_text value PLCC-28_SMD-Socket (at 0 10.09) (layer F.Fab)
    (effects (font (size 1 1) (thickness 0.15)))
  )
  (fp_line (start -8.09 -9.09) (end -9.09 -8.09) (layer F.Fab) (width 0.1))
  (fp_line (start -9.09 -8.09) (end -9.09 9.09) (layer F.Fab) (width 0.1))
  (fp_line (start -9.09 9.09) (end 9.09 9.09) (layer F.Fab) (width 0.1))
  (fp_line (start 9.09 9.09) (end 9.09 -9.09) (layer F.Fab) (width 0.1))
  (fp_line (start 9.09 -9.09) (end -8.09 -9.09) (layer F.Fab) (width 0.1))
  (fp_line (start -9.55 -9.55) (end -9.55 9.55) (layer F.CrtYd) (width 0.05))
  (fp_line (start -9.55 9.55) (end 9.55 9.55) (layer F.CrtYd) (width 0.05))
  (fp_line (start 9.55 9.55) (end 9.55 -9.55) (layer F.CrtYd) (width 0.05))
  (fp_line (start 9.55 -9.55) (end -9.55 -9.55) (layer F.CrtYd) (width 0.05))
  (fp_line (start -5.285 -6.285) (end -6.285 -5.285) (layer F.Fab) (width 0.1))
  (fp_line (start -6.285 -5.285) (end -6.285 6.285) (layer F.Fab) (width 0.1))
  (fp_line (start -6.285 6.285) (end 6.285 6.285) (layer F.Fab) (width 0.1))
  (fp_line (start 6.285 6.285) (end 6.285 -6.285) (layer F.Fab) (width 0.1))
  (fp_line (start 6.285 -6.285) (end -5.285 -6.285) (layer F.Fab) (width 0.1))
  (fp_line (start -7.82 -7.82) (end -7.82 7.82) (layer F.Fab) (width 0.1))
  (fp_line (start -7.82 7.82) (end 7.82 7.82) (layer F.Fab) (width 0.1))
  (fp_line (start 7.82 7.82) (end 7.82 -7.82) (layer F.Fab) (width 0.1))
  (fp_line (start 7.82 -7.82) (end -7.82 -7.82) (layer F.Fab) (width 0.1))
  (fp_line (start -0.5 -9.09) (end 0 -8.09) (layer F.Fab) (width 0.1))
  (fp_line (start 0 -8.09) (end 0.5 -9.09) (layer F.Fab) (width 0.1))
  (fp_line (start -1 -9.24) (end -8.24 -9.24) (layer F.SilkS) (width 0.12))
  (fp_line (start -8.24 -9.24) (end -9.24 -8.24) (layer F.SilkS) (width 0.12))
  (fp_line (start -9.24 -8.24) (end -9.24 9.24) (layer F.SilkS) (width 0.12))
  (fp_line (start -9.24 9.24) (end 9.24 9.24) (layer F.SilkS) (width 0.12))
  (fp_line (start 9.24 9.24) (end 9.24 -9.24) (layer F.SilkS) (width 0.12))
  (fp_line (start 9.24 -9.24) (end 1 -9.24) (layer F.SilkS) (width 0.12))
  (fp_line (start -4.785 -6.435) (end -5.285 -6.435) (layer F.SilkS) (width 0.1))
  (fp_line (start -5.285 -6.435) (end -6.435 -5.285) (layer F.SilkS) (width 0.1))
  (fp_line (start -6.435 -5.285) (end -6.435 -4.785) (layer F.SilkS) (width 0.1))
  (fp_line (start 4.785 -6.435) (end 6.435 -6.435) (layer F.SilkS) (width 0.1))
  (fp_line (start 6.435 -6.435) (end 6.435 -4.785) (layer F.SilkS) (width 0.1))
  (fp_line (start -4.785 6.435) (end -6.435 6.435) (layer F.SilkS) (width 0.1))
  (fp_line (start -6.435 6.435) (end -6.435 4.785) (layer F.SilkS) (width 0.1))
  (fp_line (start 4.785 6.435) (end 6.435 6.435) (layer F.SilkS) (width 0.1))
  (fp_line (start 6.435 6.435) (end 6.435 4.785) (layer F.SilkS) (width 0.1))
  (pad 1 smd rect (at 0 -5.3225) (size 0.7 1.925) (layers F.Cu F.Mask F.Paste))
  (pad 2 smd rect (at -1.27 -5.3225) (size 0.7 1.925) (layers F.Cu F.Mask F.Paste))
  (pad 3 smd rect (at -2.54 -5.3225) (size 0.7 1.925) (layers F.Cu F.Mask F.Paste))
  (pad 4 smd rect (at -3.81 -5.3225) (size 0.7 1.925) (layers F.Cu F.Mask F.Paste))
  (pad 28 smd rect (at 1.27 -5.3225) (size 0.7 1.925) (layers F.Cu F.Mask F.Paste))
  (pad 27 smd rect (at 2.54 -5.3225) (size 0.7 1.925) (layers F.Cu F.Mask F.Paste))
  (pad 26 smd rect (at 3.81 -5.3225) (size 0.7 1.925) (layers F.Cu F.Mask F.Paste))
  (pad 5 smd rect (at -5.3225 -3.81) (size 1.925 0.7) (layers F.Cu F.Mask F.Paste))
  (pad 6 smd rect (at -5.3225 -2.54) (size 1.925 0.7) (layers F.Cu F.Mask F.Paste))
  (pad 7 smd rect (at -5.3225 -1.27) (size 1.925 0.7) (layers F.Cu F.Mask F.Paste))
  (pad 8 smd rect (at -5.3225 0) (size 1.925 0.7) (layers F.Cu F.Mask F.Paste))
  (pad 9 smd rect (at -5.3225 1.27) (size 1.925 0.7) (layers F.Cu F.Mask F.Paste))
  (pad 10 smd rect (at -5.3225 2.54) (size 1.925 0.7) (layers F.Cu F.Mask F.Paste))
  (pad 11 smd rect (at -5.3225 3.81) (size 1.925 0.7) (layers F.Cu F.Mask F.Paste))
  (pad 12 smd rect (at -3.81 5.3225) (size 0.7 1.925) (layers F.Cu F.Mask F.Paste))
  (pad 13 smd rect (at -2.54 5.3225) (size 0.7 1.925) (layers F.Cu F.Mask F.Paste))
  (pad 14 smd rect (at -1.27 5.3225) (size 0.7 1.925) (layers F.Cu F.Mask F.Paste))
  (pad 15 smd rect (at 0 5.3225) (size 0.7 1.925) (layers F.Cu F.Mask F.Paste))
  (pad 16 smd rect (at 1.27 5.3225) (size 0.7 1.925) (layers F.Cu F.Mask F.Paste))
  (pad 17 smd rect (at 2.54 5.3225) (size 0.7 1.925) (layers F.Cu F.Mask F.Paste))
  (pad 18 smd rect (at 3.81 5.3225) (size 0.7 1.925) (layers F.Cu F.Mask F.Paste))
  (pad 19 smd rect (at 5.3225 3.81) (size 1.925 0.7) (layers F.Cu F.Mask F.Paste))
  (pad 20 smd rect (at 5.3225 2.54) (size 1.925 0.7) (layers F.Cu F.Mask F.Paste))
  (pad 21 smd rect (at 5.3225 1.27) (size 1.925 0.7) (layers F.Cu F.Mask F.Paste))
  (pad 22 smd rect (at 5.3225 0) (size 1.925 0.7) (layers F.Cu F.Mask F.Paste))
  (pad 23 smd rect (at 5.3225 -1.27) (size 1.925 0.7) (layers F.Cu F.Mask F.Paste))
  (pad 24 smd rect (at 5.3225 -2.54) (size 1.925 0.7) (layers F.Cu F.Mask F.Paste))
  (pad 25 smd rect (at 5.3225 -3.81) (size 1.925 0.7) (layers F.Cu F.Mask F.Paste))
  (fp_text user %R (at 0 0) (layer F.Fab)
    (effects (font (size 1 1) (thickness 0.15)))
  )
  (model ${KIPRJMOD}/kicad_libs_k/models_k.3d/Package_LCC_k.3dshapes/PLCC-28_SMD-Socket_k.wrl
    (at (xyz 0 0 0))
    (scale (xyz 1 1 1))
    (rotate (xyz 0 0 0))
  )
)