(module AMS_QFN-4-1EP_2x2mm_P0.95mm_EP0.7x1.6mm (layer F.Cu) (tedit 5A64B884)
  (descr "UFD Package, 4-Lead Plastic QFN (2mm x 2mm), http://ams.com/eng/content/download/950231/2267959/483138")
  (tags "QFN 0.95")
  (attr smd)
  (fp_text reference REF** (at 0 -2) (layer F.SilkS)
    (effects (font (size 1 1) (thickness 0.15)))
  )
  (fp_text value AMS_QFN-4-1EP_2x2mm_P0.95mm_EP0.7x1.6mm (at 0 2) (layer F.Fab)
    (effects (font (size 1 1) (thickness 0.15)))
  )
  (fp_text user %R (at 0 0) (layer F.Fab)
    (effects (font (size 0.4 0.4) (thickness 0.04)))
  )
  (fp_line (start -1.5 -1.25) (end 1.5 -1.25) (layer F.CrtYd) (width 0.05))
  (fp_line (start 1.5 -1.25) (end 1.5 1.25) (layer F.CrtYd) (width 0.05))
  (fp_line (start 1.5 1.25) (end -1.5 1.25) (layer F.CrtYd) (width 0.05))
  (fp_line (start -1.5 1.25) (end -1.5 -1.25) (layer F.CrtYd) (width 0.05))
  (fp_line (start 1.1 -1.1) (end 0.5 -1.1) (layer F.SilkS) (width 0.1))
  (fp_line (start 1.1 -1.1) (end 1.1 -0.85) (layer F.SilkS) (width 0.1))
  (fp_line (start 1.1 1.1) (end 1.1 0.85) (layer F.SilkS) (width 0.1))
  (fp_line (start 1.1 1.1) (end 0.5 1.1) (layer F.SilkS) (width 0.1))
  (fp_line (start -1.1 1.1) (end -1.1 0.85) (layer F.SilkS) (width 0.1))
  (fp_line (start -1.1 1.1) (end -0.5 1.1) (layer F.SilkS) (width 0.1))
  (fp_line (start -0.49 -1.1) (end -1.1 -1.1) (layer F.SilkS) (width 0.1))
  (fp_line (start -1 -0.7) (end -0.7 -1) (layer F.Fab) (width 0.1))
  (fp_line (start 1 -1) (end 1 1) (layer F.Fab) (width 0.1))
  (fp_line (start 1 1) (end -1 1) (layer F.Fab) (width 0.1))
  (fp_line (start -1 1) (end -1 -0.7) (layer F.Fab) (width 0.1))
  (fp_line (start -0.7 -1) (end 1 -1) (layer F.Fab) (width 0.1))
  (pad 5 smd rect (at 0 0) (size 0.7 1.6) (layers F.Cu F.Mask))
  (pad "" smd rect (at 0 0) (size 0.35 0.8) (layers F.Paste))
  (pad 4 smd rect (at 0.95 -0.475) (size 0.6 0.4) (layers F.Cu F.Paste F.Mask)
    (solder_paste_margin -0.05))
  (pad 2 smd rect (at -0.95 0.475) (size 0.6 0.4) (layers F.Cu F.Paste F.Mask)
    (solder_paste_margin -0.05))
  (pad 1 smd rect (at -0.95 -0.475) (size 0.6 0.4) (layers F.Cu F.Paste F.Mask)
    (solder_paste_margin -0.05))
  (pad 3 smd rect (at 0.95 0.475) (size 0.6 0.4) (layers F.Cu F.Paste F.Mask)
    (solder_paste_margin -0.05))
  (model ${KIPRJMOD}/kicad_libs_k/models_k.3d/Package_DFN_QFN_k.3dshapes/AMS_QFN-4-1EP_2x2mm_P0.95mm_k.wrl
    (at (xyz 0 0 0))
    (scale (xyz 1 1 1))
    (rotate (xyz 0 0 0))
  )
)
