(module Cypress_QFN-56-1EP_8x8mm_P0.5mm_EP6.22x6.22mm_ThermalVias (layer F.Cu) (tedit 5B148AF3)
  (descr "56-Lead Plastic Quad Flat, No Lead Package (ML) - 8x8x0.9 mm Body [QFN] (see datasheet at http://www.cypress.com/file/138911/download and app note at http://www.cypress.com/file/140006/download)")
  (tags "QFN 0.5")
  (attr smd)
  (fp_text reference REF** (at 0 -5.395) (layer F.SilkS)
    (effects (font (size 1 1) (thickness 0.15)))
  )
  (fp_text value Cypress_QFN-56-1EP_8x8mm_P0.5mm_EP6.22x6.22mm_ThermalVias (at 0 5.395) (layer F.Fab)
    (effects (font (size 1 1) (thickness 0.15)))
  )
  (fp_text user %R (at 0 0) (layer F.Fab)
    (effects (font (size 1 1) (thickness 0.15)))
  )
  (fp_line (start -4 4) (end -4 -3.5) (layer F.Fab) (width 0.1))
  (fp_line (start 4 4) (end -4 4) (layer F.Fab) (width 0.1))
  (fp_line (start 4 -4) (end 4 4) (layer F.Fab) (width 0.1))
  (fp_line (start -3.5 -4) (end 4 -4) (layer F.Fab) (width 0.1))
  (fp_line (start -4 -3.5) (end -3.5 -4) (layer F.Fab) (width 0.1))
  (fp_line (start 3.72 -4.12) (end 4.12 -4.12) (layer F.SilkS) (width 0.12))
  (fp_line (start 4.12 -4.12) (end 4.12 -3.72) (layer F.SilkS) (width 0.12))
  (fp_line (start -4.12 4.12) (end -4.12 3.72) (layer F.SilkS) (width 0.12))
  (fp_line (start -4.12 4.12) (end -3.72 4.12) (layer F.SilkS) (width 0.12))
  (fp_line (start 4.12 3.72) (end 4.12 4.12) (layer F.SilkS) (width 0.12))
  (fp_line (start 4.12 4.12) (end 3.72 4.12) (layer F.SilkS) (width 0.12))
  (fp_line (start -4.43 -4.43) (end 4.43 -4.43) (layer F.CrtYd) (width 0.05))
  (fp_line (start 4.43 -4.43) (end 4.43 4.43) (layer F.CrtYd) (width 0.05))
  (fp_line (start 4.43 4.43) (end -4.43 4.43) (layer F.CrtYd) (width 0.05))
  (fp_line (start -4.43 4.43) (end -4.43 -4.43) (layer F.CrtYd) (width 0.05))
  (fp_line (start -3.72 -4.12) (end -4.12 -4.12) (layer F.SilkS) (width 0.12))
  (fp_circle (center 0 0) (end 0 -0.3) (layer F.Mask) (width 0.2))
  (fp_line (start -1.905 -2.54) (end -1.905 2.54) (layer F.Mask) (width 0.8636))
  (fp_line (start -0.635 -2.54) (end -0.635 2.54) (layer F.Mask) (width 0.8636))
  (fp_line (start 0.635 -2.54) (end 0.635 2.54) (layer F.Mask) (width 0.8636))
  (fp_line (start 1.905 -2.54) (end 1.905 2.54) (layer F.Mask) (width 0.8636))
  (fp_line (start -2.54 1.905) (end 2.54 1.905) (layer F.Mask) (width 0.8636))
  (fp_line (start -2.54 0.635) (end 2.54 0.635) (layer F.Mask) (width 0.8636))
  (fp_line (start -2.54 -0.635) (end 2.54 -0.635) (layer F.Mask) (width 0.8636))
  (fp_line (start -2.54 -1.905) (end 2.54 -1.905) (layer F.Mask) (width 0.8636))
  (fp_poly (pts (xy 3.11 -3.11) (xy 3.11 -2.75) (xy -3.11 -2.75) (xy -3.11 -3.11)) (layer F.Mask) (width 0))
  (fp_poly (pts (xy -3.11 -3.11) (xy -2.75 -3.11) (xy -2.75 3.11) (xy -3.11 3.11)) (layer F.Mask) (width 0))
  (fp_poly (pts (xy -3.11 3.11) (xy -3.11 2.75) (xy 3.11 2.75) (xy 3.11 3.11)) (layer F.Mask) (width 0))
  (fp_poly (pts (xy 3.11 3.11) (xy 2.75 3.11) (xy 2.75 -3.11) (xy 3.11 -3.11)) (layer F.Mask) (width 0))
  (fp_circle (center 1.27 0) (end 1.57 0) (layer F.Mask) (width 0.2))
  (fp_circle (center 2.54 0) (end 2.84 0) (layer F.Mask) (width 0.2))
  (fp_circle (center -1.27 0) (end -0.97 0) (layer F.Mask) (width 0.2))
  (fp_circle (center -2.54 0) (end -2.24 0) (layer F.Mask) (width 0.2))
  (fp_circle (center -2.54 -1.27) (end -2.24 -1.27) (layer F.Mask) (width 0.2))
  (fp_circle (center -1.27 -1.27) (end -0.97 -1.27) (layer F.Mask) (width 0.2))
  (fp_circle (center 0 -1.27) (end 0.3 -1.27) (layer F.Mask) (width 0.2))
  (fp_circle (center 1.27 -1.27) (end 1.57 -1.27) (layer F.Mask) (width 0.2))
  (fp_circle (center 2.54 -1.27) (end 2.84 -1.27) (layer F.Mask) (width 0.2))
  (fp_circle (center 2.54 -2.54) (end 2.84 -2.54) (layer F.Mask) (width 0.2))
  (fp_circle (center 1.27 -2.54) (end 1.57 -2.54) (layer F.Mask) (width 0.2))
  (fp_circle (center 0 -2.54) (end 0.3 -2.54) (layer F.Mask) (width 0.2))
  (fp_circle (center -1.27 -2.54) (end -0.97 -2.54) (layer F.Mask) (width 0.2))
  (fp_circle (center -2.54 -2.54) (end -2.24 -2.54) (layer F.Mask) (width 0.2))
  (fp_circle (center -2.54 1.27) (end -2.24 1.27) (layer F.Mask) (width 0.2))
  (fp_circle (center -1.27 1.27) (end -0.97 1.27) (layer F.Mask) (width 0.2))
  (fp_circle (center 0 1.27) (end 0.3 1.27) (layer F.Mask) (width 0.2))
  (fp_circle (center 1.27 1.27) (end 1.57 1.27) (layer F.Mask) (width 0.2))
  (fp_circle (center 2.54 1.27) (end 2.84 1.27) (layer F.Mask) (width 0.2))
  (fp_circle (center 2.54 2.54) (end 2.84 2.54) (layer F.Mask) (width 0.2))
  (fp_circle (center 1.27 2.54) (end 1.57 2.54) (layer F.Mask) (width 0.2))
  (fp_circle (center 0 2.54) (end 0.3 2.54) (layer F.Mask) (width 0.2))
  (fp_circle (center -1.27 2.54) (end -0.97 2.54) (layer F.Mask) (width 0.2))
  (fp_circle (center -2.54 2.54) (end -2.24 2.54) (layer F.Mask) (width 0.2))
  (pad 1 smd oval (at -4 -3.25) (size 1 0.28) (layers F.Cu F.Paste F.Mask))
  (pad 2 smd oval (at -4 -2.75) (size 1 0.28) (layers F.Cu F.Paste F.Mask))
  (pad 3 smd oval (at -4 -2.25) (size 1 0.28) (layers F.Cu F.Paste F.Mask))
  (pad 4 smd oval (at -4 -1.75) (size 1 0.28) (layers F.Cu F.Paste F.Mask))
  (pad 5 smd oval (at -4 -1.25) (size 1 0.28) (layers F.Cu F.Paste F.Mask))
  (pad 6 smd oval (at -4 -0.75) (size 1 0.28) (layers F.Cu F.Paste F.Mask))
  (pad 7 smd oval (at -4 -0.25) (size 1 0.28) (layers F.Cu F.Paste F.Mask))
  (pad 8 smd oval (at -4 0.25) (size 1 0.28) (layers F.Cu F.Paste F.Mask))
  (pad 9 smd oval (at -4 0.75) (size 1 0.28) (layers F.Cu F.Paste F.Mask))
  (pad 10 smd oval (at -4 1.25) (size 1 0.28) (layers F.Cu F.Paste F.Mask))
  (pad 11 smd oval (at -4 1.75) (size 1 0.28) (layers F.Cu F.Paste F.Mask))
  (pad 12 smd oval (at -4 2.25) (size 1 0.28) (layers F.Cu F.Paste F.Mask))
  (pad 13 smd oval (at -4 2.75) (size 1 0.28) (layers F.Cu F.Paste F.Mask))
  (pad 14 smd oval (at -4 3.25) (size 1 0.28) (layers F.Cu F.Paste F.Mask))
  (pad 15 smd oval (at -3.25 4) (size 0.28 1) (layers F.Cu F.Paste F.Mask))
  (pad 16 smd oval (at -2.75 4) (size 0.28 1) (layers F.Cu F.Paste F.Mask))
  (pad 17 smd oval (at -2.25 4) (size 0.28 1) (layers F.Cu F.Paste F.Mask))
  (pad 18 smd oval (at -1.75 4) (size 0.28 1) (layers F.Cu F.Paste F.Mask))
  (pad 19 smd oval (at -1.25 4) (size 0.28 1) (layers F.Cu F.Paste F.Mask))
  (pad 20 smd oval (at -0.75 4) (size 0.28 1) (layers F.Cu F.Paste F.Mask))
  (pad 21 smd oval (at -0.25 4) (size 0.28 1) (layers F.Cu F.Paste F.Mask))
  (pad 22 smd oval (at 0.25 4) (size 0.28 1) (layers F.Cu F.Paste F.Mask))
  (pad 23 smd oval (at 0.75 4) (size 0.28 1) (layers F.Cu F.Paste F.Mask))
  (pad 24 smd oval (at 1.25 4) (size 0.28 1) (layers F.Cu F.Paste F.Mask))
  (pad 25 smd oval (at 1.75 4) (size 0.28 1) (layers F.Cu F.Paste F.Mask))
  (pad 26 smd oval (at 2.25 4) (size 0.28 1) (layers F.Cu F.Paste F.Mask))
  (pad 27 smd oval (at 2.75 4) (size 0.28 1) (layers F.Cu F.Paste F.Mask))
  (pad 28 smd oval (at 3.25 4) (size 0.28 1) (layers F.Cu F.Paste F.Mask))
  (pad 29 smd oval (at 4 3.25) (size 1 0.28) (layers F.Cu F.Paste F.Mask))
  (pad 30 smd oval (at 4 2.75) (size 1 0.28) (layers F.Cu F.Paste F.Mask))
  (pad 31 smd oval (at 4 2.25) (size 1 0.28) (layers F.Cu F.Paste F.Mask))
  (pad 32 smd oval (at 4 1.75) (size 1 0.28) (layers F.Cu F.Paste F.Mask))
  (pad 33 smd oval (at 4 1.25) (size 1 0.28) (layers F.Cu F.Paste F.Mask))
  (pad 34 smd oval (at 4 0.75) (size 1 0.28) (layers F.Cu F.Paste F.Mask))
  (pad 35 smd oval (at 4 0.25) (size 1 0.28) (layers F.Cu F.Paste F.Mask))
  (pad 36 smd oval (at 4 -0.25) (size 1 0.28) (layers F.Cu F.Paste F.Mask))
  (pad 37 smd oval (at 4 -0.75) (size 1 0.28) (layers F.Cu F.Paste F.Mask))
  (pad 38 smd oval (at 4 -1.25) (size 1 0.28) (layers F.Cu F.Paste F.Mask))
  (pad 39 smd oval (at 4 -1.75) (size 1 0.28) (layers F.Cu F.Paste F.Mask))
  (pad 40 smd oval (at 4 -2.25) (size 1 0.28) (layers F.Cu F.Paste F.Mask))
  (pad 41 smd oval (at 4 -2.75) (size 1 0.28) (layers F.Cu F.Paste F.Mask))
  (pad 42 smd oval (at 4 -3.25) (size 1 0.28) (layers F.Cu F.Paste F.Mask))
  (pad 43 smd oval (at 3.25 -4) (size 0.28 1) (layers F.Cu F.Paste F.Mask))
  (pad 44 smd oval (at 2.75 -4) (size 0.28 1) (layers F.Cu F.Paste F.Mask))
  (pad 45 smd oval (at 2.25 -4) (size 0.28 1) (layers F.Cu F.Paste F.Mask))
  (pad 46 smd oval (at 1.75 -4) (size 0.28 1) (layers F.Cu F.Paste F.Mask))
  (pad 47 smd oval (at 1.25 -4) (size 0.28 1) (layers F.Cu F.Paste F.Mask))
  (pad 48 smd oval (at 0.75 -4) (size 0.28 1) (layers F.Cu F.Paste F.Mask))
  (pad 49 smd oval (at 0.25 -4) (size 0.28 1) (layers F.Cu F.Paste F.Mask))
  (pad 50 smd oval (at -0.25 -4) (size 0.28 1) (layers F.Cu F.Paste F.Mask))
  (pad 51 smd oval (at -0.75 -4) (size 0.28 1) (layers F.Cu F.Paste F.Mask))
  (pad 52 smd oval (at -1.25 -4) (size 0.28 1) (layers F.Cu F.Paste F.Mask))
  (pad 53 smd oval (at -1.75 -4) (size 0.28 1) (layers F.Cu F.Paste F.Mask))
  (pad 54 smd oval (at -2.25 -4) (size 0.28 1) (layers F.Cu F.Paste F.Mask))
  (pad 55 smd oval (at -2.75 -4) (size 0.28 1) (layers F.Cu F.Paste F.Mask))
  (pad 56 smd oval (at -3.25 -4) (size 0.28 1) (layers F.Cu F.Paste F.Mask))
  (pad 57 smd rect (at 0 0) (size 6.22 6.22) (layers F.Cu))
  (pad "" smd rect (at -1.555 1.555) (size 2.6 2.6) (layers F.Paste))
  (pad "" smd rect (at 1.555 1.555) (size 2.6 2.6) (layers F.Paste))
  (pad "" smd rect (at -1.555 -1.555) (size 2.6 2.6) (layers F.Paste))
  (pad "" smd rect (at 1.555 -1.555) (size 2.6 2.6) (layers F.Paste))
  (pad 57 thru_hole circle (at 0 0) (size 0.6 0.6) (drill 0.3) (layers *.Cu))
  (pad 57 thru_hole circle (at 1.27 0) (size 0.6 0.6) (drill 0.3) (layers *.Cu))
  (pad 57 thru_hole circle (at 2.54 0) (size 0.6 0.6) (drill 0.3) (layers *.Cu))
  (pad 57 thru_hole circle (at -1.27 0) (size 0.6 0.6) (drill 0.3) (layers *.Cu))
  (pad 57 thru_hole circle (at -2.54 0) (size 0.6 0.6) (drill 0.3) (layers *.Cu))
  (pad 57 thru_hole circle (at -2.54 -1.27) (size 0.6 0.6) (drill 0.3) (layers *.Cu))
  (pad 57 thru_hole circle (at -1.27 -1.27) (size 0.6 0.6) (drill 0.3) (layers *.Cu))
  (pad 57 thru_hole circle (at 0 -1.27) (size 0.6 0.6) (drill 0.3) (layers *.Cu))
  (pad 57 thru_hole circle (at 1.27 -1.27) (size 0.6 0.6) (drill 0.3) (layers *.Cu))
  (pad 57 thru_hole circle (at 2.54 -1.27) (size 0.6 0.6) (drill 0.3) (layers *.Cu))
  (pad 57 thru_hole circle (at 2.54 -2.54) (size 0.6 0.6) (drill 0.3) (layers *.Cu))
  (pad 57 thru_hole circle (at 1.27 -2.54) (size 0.6 0.6) (drill 0.3) (layers *.Cu))
  (pad 57 thru_hole circle (at 0 -2.54) (size 0.6 0.6) (drill 0.3) (layers *.Cu))
  (pad 57 thru_hole circle (at -1.27 -2.54) (size 0.6 0.6) (drill 0.3) (layers *.Cu))
  (pad 57 thru_hole circle (at -2.54 -2.54) (size 0.6 0.6) (drill 0.3) (layers *.Cu))
  (pad 57 thru_hole circle (at -2.54 1.27) (size 0.6 0.6) (drill 0.3) (layers *.Cu))
  (pad 57 thru_hole circle (at -1.27 1.27) (size 0.6 0.6) (drill 0.3) (layers *.Cu))
  (pad 57 thru_hole circle (at 0 1.27) (size 0.6 0.6) (drill 0.3) (layers *.Cu))
  (pad 57 thru_hole circle (at 1.27 1.27) (size 0.6 0.6) (drill 0.3) (layers *.Cu))
  (pad 57 thru_hole circle (at 2.54 1.27) (size 0.6 0.6) (drill 0.3) (layers *.Cu))
  (pad 57 thru_hole circle (at 2.54 2.54) (size 0.6 0.6) (drill 0.3) (layers *.Cu))
  (pad 57 thru_hole circle (at 1.27 2.54) (size 0.6 0.6) (drill 0.3) (layers *.Cu))
  (pad 57 thru_hole circle (at 0 2.54) (size 0.6 0.6) (drill 0.3) (layers *.Cu))
  (pad 57 thru_hole circle (at -1.27 2.54) (size 0.6 0.6) (drill 0.3) (layers *.Cu))
  (pad 57 thru_hole circle (at -2.54 2.54) (size 0.6 0.6) (drill 0.3) (layers *.Cu))
  (pad 57 smd rect (at 0 0) (size 6.1 6.1) (layers B.Cu))
  (model ${KIPRJMOD}/kicad_libs_k/models_k.3d/Package_DFN_QFN_k.3dshapes/QFN-56-1EP_8x8mm_P0.5mm_EP6.22x6.22mm_ThermalVias_k.wrl
    (at (xyz 0 0 0))
    (scale (xyz 1 1 1))
    (rotate (xyz 0 0 0))
  )
)
