(module DFN-8-1EP_3x3mm_P0.5mm_EP1.66x2.38mm (layer F.Cu) (tedit 5A64E8E3)
  (descr "DD Package; 8-Lead Plastic DFN (3mm x 3mm) (see Linear Technology DFN_8_05-08-1698.pdf)")
  (tags "DFN 0.5")
  (attr smd)
  (fp_text reference REF** (at 0 -2.55) (layer F.SilkS)
    (effects (font (size 1 1) (thickness 0.15)))
  )
  (fp_text value DFN-8-1EP_3x3mm_P0.5mm_EP1.66x2.38mm (at 0 2.55) (layer F.Fab)
    (effects (font (size 1 1) (thickness 0.15)))
  )
  (fp_text user %R (at 0 0) (layer F.Fab)
    (effects (font (size 0.7 0.7) (thickness 0.105)))
  )
  (fp_line (start -0.5 -1.5) (end 1.5 -1.5) (layer F.Fab) (width 0.15))
  (fp_line (start 1.5 -1.5) (end 1.5 1.5) (layer F.Fab) (width 0.15))
  (fp_line (start 1.5 1.5) (end -1.5 1.5) (layer F.Fab) (width 0.15))
  (fp_line (start -1.5 1.5) (end -1.5 -0.5) (layer F.Fab) (width 0.15))
  (fp_line (start -1.5 -0.5) (end -0.5 -1.5) (layer F.Fab) (width 0.15))
  (fp_line (start -2 -1.8) (end -2 1.8) (layer F.CrtYd) (width 0.05))
  (fp_line (start 2 -1.8) (end 2 1.8) (layer F.CrtYd) (width 0.05))
  (fp_line (start -2 -1.8) (end 2 -1.8) (layer F.CrtYd) (width 0.05))
  (fp_line (start -2 1.8) (end 2 1.8) (layer F.CrtYd) (width 0.05))
  (fp_line (start -1.05 1.625) (end 1.05 1.625) (layer F.SilkS) (width 0.15))
  (fp_line (start -1.825 -1.625) (end 1.05 -1.625) (layer F.SilkS) (width 0.15))
  (pad 1 smd rect (at -1.4 -0.75) (size 0.7 0.25) (layers F.Cu F.Paste F.Mask))
  (pad 2 smd rect (at -1.4 -0.25) (size 0.7 0.25) (layers F.Cu F.Paste F.Mask))
  (pad 3 smd rect (at -1.4 0.25) (size 0.7 0.25) (layers F.Cu F.Paste F.Mask))
  (pad 4 smd rect (at -1.4 0.75) (size 0.7 0.25) (layers F.Cu F.Paste F.Mask))
  (pad 5 smd rect (at 1.4 0.75) (size 0.7 0.25) (layers F.Cu F.Paste F.Mask))
  (pad 6 smd rect (at 1.4 0.25) (size 0.7 0.25) (layers F.Cu F.Paste F.Mask))
  (pad 7 smd rect (at 1.4 -0.25) (size 0.7 0.25) (layers F.Cu F.Paste F.Mask))
  (pad 8 smd rect (at 1.4 -0.75) (size 0.7 0.25) (layers F.Cu F.Paste F.Mask))
  (pad "" smd rect (at 0.415 0.595) (size 0.64 1) (layers F.Paste))
  (pad 9 smd rect (at 0 0) (size 1.66 2.38) (layers F.Cu F.Mask))
  (pad "" smd rect (at -0.415 0.595) (size 0.64 1) (layers F.Paste))
  (pad "" smd rect (at 0.415 -0.595) (size 0.64 1) (layers F.Paste))
  (pad "" smd rect (at -0.415 -0.595) (size 0.64 1) (layers F.Paste))
  (model ${KIPRJMOD}/kicad_libs_k/models_k.3d/Package_DFN_QFN_k.3dshapes/DFN-8-1EP_3x3mm_P0.5mm_EP1.66x2.38mm_k.wrl
    (at (xyz 0 0 0))
    (scale (xyz 1 1 1))
    (rotate (xyz 0 0 0))
  )
)
