(module DFN-14-1EP_4x4mm_P0.5mm_EP2.86x3.6mm (layer F.Cu) (tedit 5A64CE7A)
  (descr "DFN14, 4x4, 0.5P; CASE 506CM (see ON Semiconductor 506CM.PDF)")
  (tags "DFN 0.5")
  (attr smd)
  (fp_text reference REF** (at 0 -3.05) (layer F.SilkS)
    (effects (font (size 1 1) (thickness 0.15)))
  )
  (fp_text value DFN-14-1EP_4x4mm_P0.5mm_EP2.86x3.6mm (at 0 3.05) (layer F.Fab)
    (effects (font (size 1 1) (thickness 0.15)))
  )
  (fp_text user %R (at 0 0) (layer F.Fab)
    (effects (font (size 1 1) (thickness 0.15)))
  )
  (fp_line (start -1 -2) (end 2 -2) (layer F.Fab) (width 0.15))
  (fp_line (start 2 -2) (end 2 2) (layer F.Fab) (width 0.15))
  (fp_line (start 2 2) (end -2 2) (layer F.Fab) (width 0.15))
  (fp_line (start -2 2) (end -2 -1) (layer F.Fab) (width 0.15))
  (fp_line (start -2 -1) (end -1 -2) (layer F.Fab) (width 0.15))
  (fp_line (start -2.4 -2.3) (end -2.4 2.3) (layer F.CrtYd) (width 0.05))
  (fp_line (start 2.4 -2.3) (end 2.4 2.3) (layer F.CrtYd) (width 0.05))
  (fp_line (start -2.4 -2.3) (end 2.4 -2.3) (layer F.CrtYd) (width 0.05))
  (fp_line (start -2.4 2.3) (end 2.4 2.3) (layer F.CrtYd) (width 0.05))
  (fp_line (start -1.6 2.125) (end 1.6 2.125) (layer F.SilkS) (width 0.15))
  (fp_line (start -2.225 -2.125) (end 1.6 -2.125) (layer F.SilkS) (width 0.15))
  (pad 1 smd rect (at -1.875 -1.5) (size 0.55 0.33) (layers F.Cu F.Paste F.Mask))
  (pad 2 smd rect (at -1.875 -1) (size 0.55 0.33) (layers F.Cu F.Paste F.Mask))
  (pad 3 smd rect (at -1.875 -0.5) (size 0.55 0.33) (layers F.Cu F.Paste F.Mask))
  (pad 4 smd rect (at -1.875 0) (size 0.55 0.33) (layers F.Cu F.Paste F.Mask))
  (pad 5 smd rect (at -1.875 0.5) (size 0.55 0.33) (layers F.Cu F.Paste F.Mask))
  (pad 6 smd rect (at -1.875 1) (size 0.55 0.33) (layers F.Cu F.Paste F.Mask))
  (pad 7 smd rect (at -1.875 1.5) (size 0.55 0.33) (layers F.Cu F.Paste F.Mask))
  (pad 8 smd rect (at 1.875 1.5) (size 0.55 0.33) (layers F.Cu F.Paste F.Mask))
  (pad 9 smd rect (at 1.875 1) (size 0.55 0.33) (layers F.Cu F.Paste F.Mask))
  (pad 10 smd rect (at 1.875 0.5) (size 0.55 0.33) (layers F.Cu F.Paste F.Mask))
  (pad 11 smd rect (at 1.875 0) (size 0.55 0.33) (layers F.Cu F.Paste F.Mask))
  (pad 12 smd rect (at 1.875 -0.5) (size 0.55 0.33) (layers F.Cu F.Paste F.Mask))
  (pad 13 smd rect (at 1.875 -1) (size 0.55 0.33) (layers F.Cu F.Paste F.Mask))
  (pad 14 smd rect (at 1.875 -1.5) (size 0.55 0.33) (layers F.Cu F.Paste F.Mask))
  (pad 15 smd rect (at 0 0) (size 2.86 3.6) (layers F.Cu F.Mask))
  (pad "" smd rect (at -0.715 -1.35) (size 1.2 0.7) (layers F.Paste))
  (pad "" smd rect (at 0.715 -1.35) (size 1.2 0.7) (layers F.Paste))
  (pad "" smd rect (at 0.715 -0.45) (size 1.2 0.7) (layers F.Paste))
  (pad "" smd rect (at -0.715 -0.45) (size 1.2 0.7) (layers F.Paste))
  (pad "" smd rect (at 0.715 0.45) (size 1.2 0.7) (layers F.Paste))
  (pad "" smd rect (at -0.715 0.45) (size 1.2 0.7) (layers F.Paste))
  (pad "" smd rect (at 0.715 1.35) (size 1.2 0.7) (layers F.Paste))
  (pad "" smd rect (at -0.715 1.35) (size 1.2 0.7) (layers F.Paste))
  (model ${KIPRJMOD}/kicad_libs_k/models_k.3d/Package_DFN_QFN_k.3dshapes/DFN-14-1EP_4x4mm_P0.5mm_EP2.86x3.6mm_k.wrl
    (at (xyz 0 0 0))
    (scale (xyz 1 1 1))
    (rotate (xyz 0 0 0))
  )
)
