(module DFN-12-1EP_4x4mm_P0.5mm_EP2.66x3.38mm (layer F.Cu) (tedit 5A64C7C2)
  (descr "DF Package; 12-Lead Plastic DFN (4mm x 4mm) (see Linear Technology 05081733_A_DF12.pdf)")
  (tags "DFN 0.5")
  (attr smd)
  (fp_text reference REF** (at 0 -3.05) (layer F.SilkS)
    (effects (font (size 1 1) (thickness 0.15)))
  )
  (fp_text value DFN-12-1EP_4x4mm_P0.5mm_EP2.66x3.38mm (at 0 3.05) (layer F.Fab)
    (effects (font (size 1 1) (thickness 0.15)))
  )
  (fp_text user %R (at 0 0) (layer F.Fab)
    (effects (font (size 1 1) (thickness 0.15)))
  )
  (fp_line (start -1 -2) (end 2 -2) (layer F.Fab) (width 0.15))
  (fp_line (start 2 -2) (end 2 2) (layer F.Fab) (width 0.15))
  (fp_line (start 2 2) (end -2 2) (layer F.Fab) (width 0.15))
  (fp_line (start -2 2) (end -2 -1) (layer F.Fab) (width 0.15))
  (fp_line (start -2 -1) (end -1 -2) (layer F.Fab) (width 0.15))
  (fp_line (start -2.5 -2.3) (end -2.5 2.3) (layer F.CrtYd) (width 0.05))
  (fp_line (start 2.5 -2.3) (end 2.5 2.3) (layer F.CrtYd) (width 0.05))
  (fp_line (start -2.5 -2.3) (end 2.5 -2.3) (layer F.CrtYd) (width 0.05))
  (fp_line (start -2.5 2.3) (end 2.5 2.3) (layer F.CrtYd) (width 0.05))
  (fp_line (start -1.55 2.125) (end 1.55 2.125) (layer F.SilkS) (width 0.15))
  (fp_line (start -2.325 -2.125) (end 1.55 -2.125) (layer F.SilkS) (width 0.15))
  (pad 1 smd rect (at -1.9 -1.25) (size 0.7 0.25) (layers F.Cu F.Paste F.Mask))
  (pad 2 smd rect (at -1.9 -0.75) (size 0.7 0.25) (layers F.Cu F.Paste F.Mask))
  (pad 3 smd rect (at -1.9 -0.25) (size 0.7 0.25) (layers F.Cu F.Paste F.Mask))
  (pad 4 smd rect (at -1.9 0.25) (size 0.7 0.25) (layers F.Cu F.Paste F.Mask))
  (pad 5 smd rect (at -1.9 0.75) (size 0.7 0.25) (layers F.Cu F.Paste F.Mask))
  (pad 6 smd rect (at -1.9 1.25) (size 0.7 0.25) (layers F.Cu F.Paste F.Mask))
  (pad 7 smd rect (at 1.9 1.25) (size 0.7 0.25) (layers F.Cu F.Paste F.Mask))
  (pad 8 smd rect (at 1.9 0.75) (size 0.7 0.25) (layers F.Cu F.Paste F.Mask))
  (pad 9 smd rect (at 1.9 0.25) (size 0.7 0.25) (layers F.Cu F.Paste F.Mask))
  (pad 10 smd rect (at 1.9 -0.25) (size 0.7 0.25) (layers F.Cu F.Paste F.Mask))
  (pad 11 smd rect (at 1.9 -0.75) (size 0.7 0.25) (layers F.Cu F.Paste F.Mask))
  (pad 12 smd rect (at 1.9 -1.25) (size 0.7 0.25) (layers F.Cu F.Paste F.Mask))
  (pad 13 smd rect (at 0 0) (size 2.66 3.38) (layers F.Cu F.Mask))
  (pad "" smd rect (at -0.665 -1.2675) (size 1.15 0.63) (layers F.Paste))
  (pad "" smd rect (at 0.665 -1.2675) (size 1.15 0.63) (layers F.Paste))
  (pad "" smd rect (at 0.665 -0.4225) (size 1.15 0.63) (layers F.Paste))
  (pad "" smd rect (at -0.665 -0.4225) (size 1.15 0.63) (layers F.Paste))
  (pad "" smd rect (at 0.665 0.4225) (size 1.15 0.63) (layers F.Paste))
  (pad "" smd rect (at -0.665 0.4225) (size 1.15 0.63) (layers F.Paste))
  (pad "" smd rect (at 0.665 1.2675) (size 1.15 0.63) (layers F.Paste))
  (pad "" smd rect (at -0.665 1.2675) (size 1.15 0.63) (layers F.Paste))
  (model ${KIPRJMOD}/kicad_libs_k/models_k.3d/Package_DFN_QFN_k.3dshapes/DFN-12-1EP_4x4mm_P0.5mm_EP2.66x3.38mm_k.wrl
    (at (xyz 0 0 0))
    (scale (xyz 1 1 1))
    (rotate (xyz 0 0 0))
  )
)
