(module DFN-32-1EP_4x7mm_P0.4mm_EP2.64x6.44mm (layer F.Cu) (tedit 5A64DC8D)
  (descr "DKD Package; 32-Lead Plastic DFN (7mm x 4mm) (see Linear Technology DFN_32_05-08-1734.pdf)")
  (tags "DFN 0.4")
  (attr smd)
  (fp_text reference REF** (at 0 -4.55) (layer F.SilkS)
    (effects (font (size 1 1) (thickness 0.15)))
  )
  (fp_text value DFN-32-1EP_4x7mm_P0.4mm_EP2.64x6.44mm (at 0 4.55) (layer F.Fab)
    (effects (font (size 1 1) (thickness 0.15)))
  )
  (fp_text user %R (at 0 0) (layer F.Fab)
    (effects (font (size 1 1) (thickness 0.15)))
  )
  (fp_line (start -1 -3.5) (end 2 -3.5) (layer F.Fab) (width 0.15))
  (fp_line (start 2 -3.5) (end 2 3.5) (layer F.Fab) (width 0.15))
  (fp_line (start 2 3.5) (end -2 3.5) (layer F.Fab) (width 0.15))
  (fp_line (start -2 3.5) (end -2 -2.5) (layer F.Fab) (width 0.15))
  (fp_line (start -2 -2.5) (end -1 -3.5) (layer F.Fab) (width 0.15))
  (fp_line (start -2.5 -3.8) (end -2.5 3.8) (layer F.CrtYd) (width 0.05))
  (fp_line (start 2.5 -3.8) (end 2.5 3.8) (layer F.CrtYd) (width 0.05))
  (fp_line (start -2.5 -3.8) (end 2.5 -3.8) (layer F.CrtYd) (width 0.05))
  (fp_line (start -2.5 3.8) (end 2.5 3.8) (layer F.CrtYd) (width 0.05))
  (fp_line (start -1.55 3.625) (end 1.55 3.625) (layer F.SilkS) (width 0.15))
  (fp_line (start -2.325 -3.625) (end 1.55 -3.625) (layer F.SilkS) (width 0.15))
  (pad 1 smd rect (at -1.9 -3) (size 0.7 0.2) (layers F.Cu F.Paste F.Mask))
  (pad 2 smd rect (at -1.9 -2.6) (size 0.7 0.2) (layers F.Cu F.Paste F.Mask))
  (pad 3 smd rect (at -1.9 -2.2) (size 0.7 0.2) (layers F.Cu F.Paste F.Mask))
  (pad 4 smd rect (at -1.9 -1.8) (size 0.7 0.2) (layers F.Cu F.Paste F.Mask))
  (pad 5 smd rect (at -1.9 -1.4) (size 0.7 0.2) (layers F.Cu F.Paste F.Mask))
  (pad 6 smd rect (at -1.9 -1) (size 0.7 0.2) (layers F.Cu F.Paste F.Mask))
  (pad 7 smd rect (at -1.9 -0.6) (size 0.7 0.2) (layers F.Cu F.Paste F.Mask))
  (pad 8 smd rect (at -1.9 -0.2) (size 0.7 0.2) (layers F.Cu F.Paste F.Mask))
  (pad 9 smd rect (at -1.9 0.2) (size 0.7 0.2) (layers F.Cu F.Paste F.Mask))
  (pad 10 smd rect (at -1.9 0.6) (size 0.7 0.2) (layers F.Cu F.Paste F.Mask))
  (pad 11 smd rect (at -1.9 1) (size 0.7 0.2) (layers F.Cu F.Paste F.Mask))
  (pad 12 smd rect (at -1.9 1.4) (size 0.7 0.2) (layers F.Cu F.Paste F.Mask))
  (pad 13 smd rect (at -1.9 1.8) (size 0.7 0.2) (layers F.Cu F.Paste F.Mask))
  (pad 14 smd rect (at -1.9 2.2) (size 0.7 0.2) (layers F.Cu F.Paste F.Mask))
  (pad 15 smd rect (at -1.9 2.6) (size 0.7 0.2) (layers F.Cu F.Paste F.Mask))
  (pad 16 smd rect (at -1.9 3) (size 0.7 0.2) (layers F.Cu F.Paste F.Mask))
  (pad 17 smd rect (at 1.9 3) (size 0.7 0.2) (layers F.Cu F.Paste F.Mask))
  (pad 18 smd rect (at 1.9 2.6) (size 0.7 0.2) (layers F.Cu F.Paste F.Mask))
  (pad 19 smd rect (at 1.9 2.2) (size 0.7 0.2) (layers F.Cu F.Paste F.Mask))
  (pad 20 smd rect (at 1.9 1.8) (size 0.7 0.2) (layers F.Cu F.Paste F.Mask))
  (pad 21 smd rect (at 1.9 1.4) (size 0.7 0.2) (layers F.Cu F.Paste F.Mask))
  (pad 22 smd rect (at 1.9 1) (size 0.7 0.2) (layers F.Cu F.Paste F.Mask))
  (pad 23 smd rect (at 1.9 0.6) (size 0.7 0.2) (layers F.Cu F.Paste F.Mask))
  (pad 24 smd rect (at 1.9 0.2) (size 0.7 0.2) (layers F.Cu F.Paste F.Mask))
  (pad 25 smd rect (at 1.9 -0.2) (size 0.7 0.2) (layers F.Cu F.Paste F.Mask))
  (pad 26 smd rect (at 1.9 -0.6) (size 0.7 0.2) (layers F.Cu F.Paste F.Mask))
  (pad 27 smd rect (at 1.9 -1) (size 0.7 0.2) (layers F.Cu F.Paste F.Mask))
  (pad 28 smd rect (at 1.9 -1.4) (size 0.7 0.2) (layers F.Cu F.Paste F.Mask))
  (pad 29 smd rect (at 1.9 -1.8) (size 0.7 0.2) (layers F.Cu F.Paste F.Mask))
  (pad 30 smd rect (at 1.9 -2.2) (size 0.7 0.2) (layers F.Cu F.Paste F.Mask))
  (pad 31 smd rect (at 1.9 -2.6) (size 0.7 0.2) (layers F.Cu F.Paste F.Mask))
  (pad 32 smd rect (at 1.9 -3) (size 0.7 0.2) (layers F.Cu F.Paste F.Mask))
  (pad "" smd rect (at -0.66 -2.56) (size 1.05 1.05) (layers F.Paste))
  (pad 33 smd rect (at 0 0) (size 2.64 6.44) (layers F.Cu F.Mask))
  (pad "" smd rect (at 0.66 -2.56) (size 1.05 1.05) (layers F.Paste))
  (pad "" smd rect (at 0.66 -1.28) (size 1.05 1.05) (layers F.Paste))
  (pad "" smd rect (at -0.66 -1.28) (size 1.05 1.05) (layers F.Paste))
  (pad "" smd rect (at 0.66 0) (size 1.05 1.05) (layers F.Paste))
  (pad "" smd rect (at -0.66 0) (size 1.05 1.05) (layers F.Paste))
  (pad "" smd rect (at 0.66 1.28) (size 1.05 1.05) (layers F.Paste))
  (pad "" smd rect (at -0.66 1.28) (size 1.05 1.05) (layers F.Paste))
  (pad "" smd rect (at 0.66 2.56) (size 1.05 1.05) (layers F.Paste))
  (pad "" smd rect (at -0.66 2.56) (size 1.05 1.05) (layers F.Paste))
  (model ${KIPRJMOD}/kicad_libs_k/models_k.3d/Package_DFN_QFN_k.3dshapes/DFN-32-1EP_4x7mm_P0.4mm_EP2.64x6.44mm_k.wrl
    (at (xyz 0 0 0))
    (scale (xyz 1 1 1))
    (rotate (xyz 0 0 0))
  )
)
