(module DFN-22-1EP_5x6mm_P0.5mm_EP3.14x4.3mm (layer F.Cu) (tedit 5A64D9FD)
  (descr "DFN22 6*5*0.9 MM, 0.5 P; CASE 506AF\\xe2\\x88\\x9201 (see ON Semiconductor 506AF.PDF)")
  (tags "DFN 0.5")
  (attr smd)
  (fp_text reference REF** (at 0 -4.075) (layer F.SilkS)
    (effects (font (size 1 1) (thickness 0.15)))
  )
  (fp_text value DFN-22-1EP_5x6mm_P0.5mm_EP3.14x4.3mm (at 0 4.075) (layer F.Fab)
    (effects (font (size 1 1) (thickness 0.15)))
  )
  (fp_text user %R (at 0 0) (layer F.Fab)
    (effects (font (size 1 1) (thickness 0.15)))
  )
  (fp_line (start -1.5 -3) (end 2.5 -3) (layer F.Fab) (width 0.15))
  (fp_line (start 2.5 -3) (end 2.5 3) (layer F.Fab) (width 0.15))
  (fp_line (start 2.5 3) (end -2.5 3) (layer F.Fab) (width 0.15))
  (fp_line (start -2.5 3) (end -2.5 -2) (layer F.Fab) (width 0.15))
  (fp_line (start -2.5 -2) (end -1.5 -3) (layer F.Fab) (width 0.15))
  (fp_line (start -3.15 -3.35) (end -3.15 3.35) (layer F.CrtYd) (width 0.05))
  (fp_line (start 3.15 -3.35) (end 3.15 3.35) (layer F.CrtYd) (width 0.05))
  (fp_line (start -3.15 -3.35) (end 3.15 -3.35) (layer F.CrtYd) (width 0.05))
  (fp_line (start -3.15 3.35) (end 3.15 3.35) (layer F.CrtYd) (width 0.05))
  (fp_line (start -1.905 3.15) (end 1.905 3.15) (layer F.SilkS) (width 0.15))
  (fp_line (start -2.96 -3.15) (end 1.905 -3.15) (layer F.SilkS) (width 0.15))
  (pad 1 smd rect (at -2.395 -2.5) (size 0.98 0.28) (layers F.Cu F.Paste F.Mask))
  (pad 2 smd rect (at -2.395 -2) (size 0.98 0.28) (layers F.Cu F.Paste F.Mask))
  (pad 3 smd rect (at -2.395 -1.5) (size 0.98 0.28) (layers F.Cu F.Paste F.Mask))
  (pad 4 smd rect (at -2.395 -1) (size 0.98 0.28) (layers F.Cu F.Paste F.Mask))
  (pad 5 smd rect (at -2.395 -0.5) (size 0.98 0.28) (layers F.Cu F.Paste F.Mask))
  (pad 6 smd rect (at -2.395 0) (size 0.98 0.28) (layers F.Cu F.Paste F.Mask))
  (pad 7 smd rect (at -2.395 0.5) (size 0.98 0.28) (layers F.Cu F.Paste F.Mask))
  (pad 8 smd rect (at -2.395 1) (size 0.98 0.28) (layers F.Cu F.Paste F.Mask))
  (pad 9 smd rect (at -2.395 1.5) (size 0.98 0.28) (layers F.Cu F.Paste F.Mask))
  (pad 10 smd rect (at -2.395 2) (size 0.98 0.28) (layers F.Cu F.Paste F.Mask))
  (pad 11 smd rect (at -2.395 2.5) (size 0.98 0.28) (layers F.Cu F.Paste F.Mask))
  (pad 12 smd rect (at 2.395 2.5) (size 0.98 0.28) (layers F.Cu F.Paste F.Mask))
  (pad 13 smd rect (at 2.395 2) (size 0.98 0.28) (layers F.Cu F.Paste F.Mask))
  (pad 14 smd rect (at 2.395 1.5) (size 0.98 0.28) (layers F.Cu F.Paste F.Mask))
  (pad 15 smd rect (at 2.395 1) (size 0.98 0.28) (layers F.Cu F.Paste F.Mask))
  (pad 16 smd rect (at 2.395 0.5) (size 0.98 0.28) (layers F.Cu F.Paste F.Mask))
  (pad 17 smd rect (at 2.395 0) (size 0.98 0.28) (layers F.Cu F.Paste F.Mask))
  (pad 18 smd rect (at 2.395 -0.5) (size 0.98 0.28) (layers F.Cu F.Paste F.Mask))
  (pad 19 smd rect (at 2.395 -1) (size 0.98 0.28) (layers F.Cu F.Paste F.Mask))
  (pad 20 smd rect (at 2.395 -1.5) (size 0.98 0.28) (layers F.Cu F.Paste F.Mask))
  (pad 21 smd rect (at 2.395 -2) (size 0.98 0.28) (layers F.Cu F.Paste F.Mask))
  (pad 22 smd rect (at 2.395 -2.5) (size 0.98 0.28) (layers F.Cu F.Paste F.Mask))
  (pad "" smd rect (at -1.05 -1.6125) (size 0.855 0.855) (layers F.Paste))
  (pad 23 smd rect (at 0 0) (size 3.14 4.3) (layers F.Cu F.Mask))
  (pad "" smd rect (at 0 -1.6125) (size 0.855 0.855) (layers F.Paste))
  (pad "" smd rect (at 1.05 -1.6125) (size 0.855 0.855) (layers F.Paste))
  (pad "" smd rect (at 1.05 -0.5375) (size 0.855 0.855) (layers F.Paste))
  (pad "" smd rect (at 0 -0.5375) (size 0.855 0.855) (layers F.Paste))
  (pad "" smd rect (at -1.05 -0.5375) (size 0.855 0.855) (layers F.Paste))
  (pad "" smd rect (at 1.05 0.5375) (size 0.855 0.855) (layers F.Paste))
  (pad "" smd rect (at 0 0.5375) (size 0.855 0.855) (layers F.Paste))
  (pad "" smd rect (at -1.05 0.5375) (size 0.855 0.855) (layers F.Paste))
  (pad "" smd rect (at 1.05 1.6125) (size 0.855 0.855) (layers F.Paste))
  (pad "" smd rect (at 0 1.6125) (size 0.855 0.855) (layers F.Paste))
  (pad "" smd rect (at -1.05 1.6125) (size 0.855 0.855) (layers F.Paste))
  (model ${KIPRJMOD}/kicad_libs_k/models_k.3d/Package_DFN_QFN_k.3dshapes/DFN-22-1EP_5x6mm_P0.5mm_EP3.14x4.3mm_k.wrl
    (at (xyz 0 0 0))
    (scale (xyz 1 1 1))
    (rotate (xyz 0 0 0))
  )
)
