(module DFN-16-1EP_4x5mm_P0.5mm_EP2.44x4.34mm (layer F.Cu) (tedit 5A64D1D8)
  (descr "DHD Package; 16-Lead Plastic DFN (5mm x 4mm) (see Linear Technology 05081707_A_DHD16.pdf)")
  (tags "DFN 0.5")
  (attr smd)
  (fp_text reference REF** (at 0 -3.55) (layer F.SilkS)
    (effects (font (size 1 1) (thickness 0.15)))
  )
  (fp_text value DFN-16-1EP_4x5mm_P0.5mm_EP2.44x4.34mm (at 0 3.55) (layer F.Fab)
    (effects (font (size 1 1) (thickness 0.15)))
  )
  (fp_text user %R (at 0 0) (layer F.Fab)
    (effects (font (size 1 1) (thickness 0.15)))
  )
  (fp_line (start -1 -2.5) (end 2 -2.5) (layer F.Fab) (width 0.15))
  (fp_line (start 2 -2.5) (end 2 2.5) (layer F.Fab) (width 0.15))
  (fp_line (start 2 2.5) (end -2 2.5) (layer F.Fab) (width 0.15))
  (fp_line (start -2 2.5) (end -2 -1.5) (layer F.Fab) (width 0.15))
  (fp_line (start -2 -1.5) (end -1 -2.5) (layer F.Fab) (width 0.15))
  (fp_line (start -2.5 -2.8) (end -2.5 2.8) (layer F.CrtYd) (width 0.05))
  (fp_line (start 2.5 -2.8) (end 2.5 2.8) (layer F.CrtYd) (width 0.05))
  (fp_line (start -2.5 -2.8) (end 2.5 -2.8) (layer F.CrtYd) (width 0.05))
  (fp_line (start -2.5 2.8) (end 2.5 2.8) (layer F.CrtYd) (width 0.05))
  (fp_line (start -1.55 2.625) (end 1.55 2.625) (layer F.SilkS) (width 0.15))
  (fp_line (start -2.325 -2.625) (end 1.55 -2.625) (layer F.SilkS) (width 0.15))
  (pad 1 smd rect (at -1.9 -1.75) (size 0.7 0.25) (layers F.Cu F.Paste F.Mask))
  (pad 2 smd rect (at -1.9 -1.25) (size 0.7 0.25) (layers F.Cu F.Paste F.Mask))
  (pad 3 smd rect (at -1.9 -0.75) (size 0.7 0.25) (layers F.Cu F.Paste F.Mask))
  (pad 4 smd rect (at -1.9 -0.25) (size 0.7 0.25) (layers F.Cu F.Paste F.Mask))
  (pad 5 smd rect (at -1.9 0.25) (size 0.7 0.25) (layers F.Cu F.Paste F.Mask))
  (pad 6 smd rect (at -1.9 0.75) (size 0.7 0.25) (layers F.Cu F.Paste F.Mask))
  (pad 7 smd rect (at -1.9 1.25) (size 0.7 0.25) (layers F.Cu F.Paste F.Mask))
  (pad 8 smd rect (at -1.9 1.75) (size 0.7 0.25) (layers F.Cu F.Paste F.Mask))
  (pad 9 smd rect (at 1.9 1.75) (size 0.7 0.25) (layers F.Cu F.Paste F.Mask))
  (pad 10 smd rect (at 1.9 1.25) (size 0.7 0.25) (layers F.Cu F.Paste F.Mask))
  (pad 11 smd rect (at 1.9 0.75) (size 0.7 0.25) (layers F.Cu F.Paste F.Mask))
  (pad 12 smd rect (at 1.9 0.25) (size 0.7 0.25) (layers F.Cu F.Paste F.Mask))
  (pad 13 smd rect (at 1.9 -0.25) (size 0.7 0.25) (layers F.Cu F.Paste F.Mask))
  (pad 14 smd rect (at 1.9 -0.75) (size 0.7 0.25) (layers F.Cu F.Paste F.Mask))
  (pad 15 smd rect (at 1.9 -1.25) (size 0.7 0.25) (layers F.Cu F.Paste F.Mask))
  (pad 16 smd rect (at 1.9 -1.75) (size 0.7 0.25) (layers F.Cu F.Paste F.Mask))
  (pad 17 smd rect (at 0 0) (size 2.44 4.34) (layers F.Cu F.Mask))
  (pad "" smd rect (at -0.61 -1.6275) (size 1 0.86) (layers F.Paste))
  (pad "" smd rect (at 0.61 -1.6275) (size 1 0.86) (layers F.Paste))
  (pad "" smd rect (at 0.61 -0.5425) (size 1 0.86) (layers F.Paste))
  (pad "" smd rect (at -0.61 -0.5425) (size 1 0.86) (layers F.Paste))
  (pad "" smd rect (at 0.61 0.5425) (size 1 0.86) (layers F.Paste))
  (pad "" smd rect (at -0.61 0.5425) (size 1 0.86) (layers F.Paste))
  (pad "" smd rect (at 0.61 1.6275) (size 1 0.86) (layers F.Paste))
  (pad "" smd rect (at -0.61 1.6275) (size 1 0.86) (layers F.Paste))
  (model ${KIPRJMOD}/kicad_libs_k/models_k.3d/Package_DFN_QFN_k.3dshapes/DFN-16-1EP_4x5mm_P0.5mm_EP2.44x4.34mm_k.wrl
    (at (xyz 0 0 0))
    (scale (xyz 1 1 1))
    (rotate (xyz 0 0 0))
  )
)
