(module DFN-20-1EP_5x6mm_P0.5mm_EP3.24x4.24mm (layer F.Cu) (tedit 5A64D8A8)
  (descr "DFN20, 6x5, 0.5P; CASE 505AB (see ON Semiconductor 505AB.PDF)")
  (tags "DFN 0.5")
  (attr smd)
  (fp_text reference REF** (at 0 -4.075) (layer F.SilkS)
    (effects (font (size 1 1) (thickness 0.15)))
  )
  (fp_text value DFN-20-1EP_5x6mm_P0.5mm_EP3.24x4.24mm (at 0 4.075) (layer F.Fab)
    (effects (font (size 1 1) (thickness 0.15)))
  )
  (fp_text user %R (at 0 0) (layer F.Fab)
    (effects (font (size 1 1) (thickness 0.15)))
  )
  (fp_line (start -1.5 -3) (end 2.5 -3) (layer F.Fab) (width 0.15))
  (fp_line (start 2.5 -3) (end 2.5 3) (layer F.Fab) (width 0.15))
  (fp_line (start 2.5 3) (end -2.5 3) (layer F.Fab) (width 0.15))
  (fp_line (start -2.5 3) (end -2.5 -2) (layer F.Fab) (width 0.15))
  (fp_line (start -2.5 -2) (end -1.5 -3) (layer F.Fab) (width 0.15))
  (fp_line (start -2.9 -3.35) (end -2.9 3.35) (layer F.CrtYd) (width 0.05))
  (fp_line (start 2.9 -3.35) (end 2.9 3.35) (layer F.CrtYd) (width 0.05))
  (fp_line (start -2.9 -3.35) (end 2.9 -3.35) (layer F.CrtYd) (width 0.05))
  (fp_line (start -2.9 3.35) (end 2.9 3.35) (layer F.CrtYd) (width 0.05))
  (fp_line (start -1.87 3.15) (end 1.87 3.15) (layer F.SilkS) (width 0.15))
  (fp_line (start -2.725 -3.15) (end 1.87 -3.15) (layer F.SilkS) (width 0.15))
  (pad 1 smd rect (at -2.26 -2.25) (size 0.78 0.35) (layers F.Cu F.Paste F.Mask))
  (pad 2 smd rect (at -2.26 -1.75) (size 0.78 0.35) (layers F.Cu F.Paste F.Mask))
  (pad 3 smd rect (at -2.26 -1.25) (size 0.78 0.35) (layers F.Cu F.Paste F.Mask))
  (pad 4 smd rect (at -2.26 -0.75) (size 0.78 0.35) (layers F.Cu F.Paste F.Mask))
  (pad 5 smd rect (at -2.26 -0.25) (size 0.78 0.35) (layers F.Cu F.Paste F.Mask))
  (pad 6 smd rect (at -2.26 0.25) (size 0.78 0.35) (layers F.Cu F.Paste F.Mask))
  (pad 7 smd rect (at -2.26 0.75) (size 0.78 0.35) (layers F.Cu F.Paste F.Mask))
  (pad 8 smd rect (at -2.26 1.25) (size 0.78 0.35) (layers F.Cu F.Paste F.Mask))
  (pad 9 smd rect (at -2.26 1.75) (size 0.78 0.35) (layers F.Cu F.Paste F.Mask))
  (pad 10 smd rect (at -2.26 2.25) (size 0.78 0.35) (layers F.Cu F.Paste F.Mask))
  (pad 11 smd rect (at 2.26 2.25) (size 0.78 0.35) (layers F.Cu F.Paste F.Mask))
  (pad 12 smd rect (at 2.26 1.75) (size 0.78 0.35) (layers F.Cu F.Paste F.Mask))
  (pad 13 smd rect (at 2.26 1.25) (size 0.78 0.35) (layers F.Cu F.Paste F.Mask))
  (pad 14 smd rect (at 2.26 0.75) (size 0.78 0.35) (layers F.Cu F.Paste F.Mask))
  (pad 15 smd rect (at 2.26 0.25) (size 0.78 0.35) (layers F.Cu F.Paste F.Mask))
  (pad 16 smd rect (at 2.26 -0.25) (size 0.78 0.35) (layers F.Cu F.Paste F.Mask))
  (pad 17 smd rect (at 2.26 -0.75) (size 0.78 0.35) (layers F.Cu F.Paste F.Mask))
  (pad 18 smd rect (at 2.26 -1.25) (size 0.78 0.35) (layers F.Cu F.Paste F.Mask))
  (pad 19 smd rect (at 2.26 -1.75) (size 0.78 0.35) (layers F.Cu F.Paste F.Mask))
  (pad 20 smd rect (at 2.26 -2.25) (size 0.78 0.35) (layers F.Cu F.Paste F.Mask))
  (pad "" smd rect (at -1.08 -1.59) (size 0.86 0.86) (layers F.Paste))
  (pad 21 smd rect (at 0 0) (size 3.24 4.24) (layers F.Cu F.Mask))
  (pad "" smd rect (at 0 -1.59) (size 0.86 0.86) (layers F.Paste))
  (pad "" smd rect (at 1.08 -1.59) (size 0.86 0.86) (layers F.Paste))
  (pad "" smd rect (at 1.08 -0.53) (size 0.86 0.86) (layers F.Paste))
  (pad "" smd rect (at 0 -0.53) (size 0.86 0.86) (layers F.Paste))
  (pad "" smd rect (at -1.08 -0.53) (size 0.86 0.86) (layers F.Paste))
  (pad "" smd rect (at 1.08 0.53) (size 0.86 0.86) (layers F.Paste))
  (pad "" smd rect (at 0 0.53) (size 0.86 0.86) (layers F.Paste))
  (pad "" smd rect (at -1.08 0.53) (size 0.86 0.86) (layers F.Paste))
  (pad "" smd rect (at 1.08 1.59) (size 0.86 0.86) (layers F.Paste))
  (pad "" smd rect (at 0 1.59) (size 0.86 0.86) (layers F.Paste))
  (pad "" smd rect (at -1.08 1.59) (size 0.86 0.86) (layers F.Paste))
  (model ${KIPRJMOD}/kicad_libs_k/models_k.3d/Package_DFN_QFN_k.3dshapes/DFN-20-1EP_5x6mm_P0.5mm_EP3.24x4.24mm_k.wrl
    (at (xyz 0 0 0))
    (scale (xyz 1 1 1))
    (rotate (xyz 0 0 0))
  )
)
