(module Diodes_DFN1006-3 (layer F.Cu) (tedit 5AD79694)
  (descr "DFN package size 1006 3 pins")
  (tags "DFN package size 1006 3 pins")
  (attr smd)
  (fp_text reference REF** (at 0 -1.6) (layer F.SilkS)
    (effects (font (size 1 1) (thickness 0.15)))
  )
  (fp_text value Diodes_DFN1006-3 (at 0 1.6) (layer F.Fab)
    (effects (font (size 1 1) (thickness 0.15)))
  )
  (fp_text user %R (at 0 -1.6) (layer F.Fab)
    (effects (font (size 1 1) (thickness 0.15)))
  )
  (fp_line (start -0.35 -0.3) (end -0.5 -0.15) (layer F.Fab) (width 0.1))
  (fp_line (start 0.5 -0.3) (end 0.5 0.3) (layer F.Fab) (width 0.1))
  (fp_line (start 0.5 0.3) (end -0.5 0.3) (layer F.Fab) (width 0.1))
  (fp_line (start -0.5 0.3) (end -0.5 -0.15) (layer F.Fab) (width 0.1))
  (fp_line (start -0.35 -0.3) (end 0.5 -0.3) (layer F.Fab) (width 0.1))
  (fp_line (start -0.8 -0.6) (end 0.8 -0.6) (layer F.CrtYd) (width 0.05))
  (fp_line (start 0.8 -0.6) (end 0.8 0.6) (layer F.CrtYd) (width 0.05))
  (fp_line (start 0.8 0.6) (end -0.8 0.6) (layer F.CrtYd) (width 0.05))
  (fp_line (start -0.8 0.6) (end -0.8 -0.6) (layer F.CrtYd) (width 0.05))
  (fp_line (start -0.2 -0.5) (end -0.7 -0.5) (layer F.SilkS) (width 0.12))
  (fp_line (start -0.7 -0.5) (end -0.7 0) (layer F.SilkS) (width 0.12))
  (pad 3 smd rect (at 0.35 0 270) (size 0.7 0.4) (layers F.Cu F.Paste F.Mask))
  (pad 2 smd rect (at -0.35 0.225 270) (size 0.25 0.4) (layers F.Cu F.Paste F.Mask))
  (pad 1 smd rect (at -0.35 -0.225 270) (size 0.25 0.4) (layers F.Cu F.Paste F.Mask))
  (model ${KIPRJMOD}/kicad_libs_k/models_k.3d/Package_DFN_QFN_k.3dshapes/Diodes_DFN1006-3_k.wrl
    (at (xyz 0 0 0))
    (scale (xyz 1 1 1))
    (rotate (xyz 0 0 0))
  )
)
