(module Infineon_MLPQ-40-32-1EP_7x7mm_P0.5mm (layer F.Cu) (tedit 5A0AA2C0)
  (descr "MLPQ 32 leads, 7x7mm, 0.127mm stencil (https://www.infineon.com/dgdl/Infineon-AN1170-AN-v05_00-EN.pdf?fileId=5546d462533600a40153559ac3e51134)")
  (tags "mlpq 32 7x7mm")
  (attr smd)
  (fp_text reference REF** (at 0 -4.8) (layer F.SilkS)
    (effects (font (size 1 1) (thickness 0.15)))
  )
  (fp_text value Infineon_MLPQ-40-32-1EP_7x7mm_P0.5mm (at 0 4.8) (layer F.Fab)
    (effects (font (size 1 1) (thickness 0.15)))
  )
  (fp_text user %R (at 0 0) (layer F.Fab)
    (effects (font (size 1 1) (thickness 0.15)))
  )
  (fp_line (start -2.5 -3.5) (end -3.5 -2.5) (layer F.Fab) (width 0.1))
  (fp_line (start -4.04 4.04) (end -4.04 -4.04) (layer F.CrtYd) (width 0.05))
  (fp_line (start 4.04 4.04) (end -4.04 4.04) (layer F.CrtYd) (width 0.05))
  (fp_line (start 4.04 -4.04) (end 4.04 4.04) (layer F.CrtYd) (width 0.05))
  (fp_line (start -4.04 -4.04) (end 4.04 -4.04) (layer F.CrtYd) (width 0.05))
  (fp_line (start -3.5 3.5) (end -3.5 -2.5) (layer F.Fab) (width 0.1))
  (fp_line (start 3.5 3.5) (end -3.5 3.5) (layer F.Fab) (width 0.1))
  (fp_line (start 3.5 -3.5) (end 3.5 3.5) (layer F.Fab) (width 0.1))
  (fp_line (start -2.5 -3.5) (end 3.5 -3.5) (layer F.Fab) (width 0.1))
  (fp_line (start -0.1 3.62) (end -1.4 3.62) (layer F.SilkS) (width 0.12))
  (fp_line (start -2.6 3.62) (end -3.62 3.62) (layer F.SilkS) (width 0.12))
  (fp_line (start 3.62 3.62) (end 2.1 3.62) (layer F.SilkS) (width 0.12))
  (fp_line (start -2.6 -3.62) (end -3.62 -3.62) (layer F.SilkS) (width 0.12))
  (fp_line (start -0.1 -3.62) (end -1.4 -3.62) (layer F.SilkS) (width 0.12))
  (fp_line (start 3.62 -3.62) (end 2.1 -3.62) (layer F.SilkS) (width 0.12))
  (fp_line (start 3.62 3.62) (end 3.62 2.6) (layer F.SilkS) (width 0.12))
  (fp_line (start 3.62 -3.62) (end 3.62 -2.6) (layer F.SilkS) (width 0.12))
  (fp_line (start -3.62 3.62) (end -3.62 2.6) (layer F.SilkS) (width 0.12))
  (fp_line (start -3.62 -3.62) (end -3.62 -2.6) (layer F.SilkS) (width 0.12))
  (fp_line (start -3.8 -2.6) (end -3.62 -2.6) (layer F.SilkS) (width 0.12))
  (pad 33 smd rect (at -0.2375 0.175) (size 4.675 3.85) (layers F.Cu F.Mask))
  (pad 33 smd rect (at -0.0625 -1.925) (size 4.325 0.35) (layers F.Cu F.Mask))
  (pad 33 smd rect (at -2.225 -1.75 45) (size 0.495 0.495) (layers F.Cu F.Mask))
  (pad 1 smd rect (at -3.44 -2.25) (size 0.7 0.24) (layers F.Cu F.Mask))
  (pad 2 smd rect (at -3.44 -1.75) (size 0.7 0.24) (layers F.Cu F.Mask))
  (pad 3 smd rect (at -3.44 -1.25) (size 0.7 0.24) (layers F.Cu F.Mask))
  (pad 4 smd rect (at -3.44 -0.75) (size 0.7 0.24) (layers F.Cu F.Mask))
  (pad 5 smd rect (at -3.44 -0.25) (size 0.7 0.24) (layers F.Cu F.Mask))
  (pad 6 smd rect (at -3.44 0.25) (size 0.7 0.24) (layers F.Cu F.Mask))
  (pad 7 smd rect (at -3.44 0.75) (size 0.7 0.24) (layers F.Cu F.Mask))
  (pad 8 smd rect (at -3.44 1.25) (size 0.7 0.24) (layers F.Cu F.Mask))
  (pad 9 smd rect (at -3.44 1.75) (size 0.7 0.24) (layers F.Cu F.Mask))
  (pad 10 smd rect (at -3.44 2.25) (size 0.7 0.24) (layers F.Cu F.Mask))
  (pad 17 smd rect (at 3.44 2.25) (size 0.7 0.24) (layers F.Cu F.Mask))
  (pad 18 smd rect (at 3.44 1.75) (size 0.7 0.24) (layers F.Cu F.Mask))
  (pad 19 smd rect (at 3.44 1.25) (size 0.7 0.24) (layers F.Cu F.Mask))
  (pad 20 smd rect (at 3.44 0.75) (size 0.7 0.24) (layers F.Cu F.Mask))
  (pad 21 smd rect (at 3.44 0.25) (size 0.7 0.24) (layers F.Cu F.Mask))
  (pad 22 smd rect (at 3.44 -0.25) (size 0.7 0.24) (layers F.Cu F.Mask))
  (pad 23 smd rect (at 3.44 -0.75) (size 0.7 0.24) (layers F.Cu F.Mask))
  (pad 24 smd rect (at 3.44 -1.25) (size 0.7 0.24) (layers F.Cu F.Mask))
  (pad 25 smd rect (at 3.44 -1.75) (size 0.7 0.24) (layers F.Cu F.Mask))
  (pad 26 smd rect (at 3.44 -2.25) (size 0.7 0.24) (layers F.Cu F.Mask))
  (pad 11 smd rect (at -2.25 3.44) (size 0.24 0.7) (layers F.Cu F.Mask))
  (pad 12 smd rect (at -1.75 3.44) (size 0.24 0.7) (layers F.Cu F.Mask))
  (pad 13 smd rect (at 0.25 3.44) (size 0.24 0.7) (layers F.Cu F.Mask))
  (pad 14 smd rect (at 0.75 3.44) (size 0.24 0.7) (layers F.Cu F.Mask))
  (pad 15 smd rect (at 1.25 3.44) (size 0.24 0.7) (layers F.Cu F.Mask))
  (pad 16 smd rect (at 1.75 3.44) (size 0.24 0.7) (layers F.Cu F.Mask))
  (pad 32 smd rect (at -2.25 -3.44) (size 0.24 0.7) (layers F.Cu F.Mask))
  (pad 29 smd rect (at 0.75 -3.44) (size 0.24 0.7) (layers F.Cu F.Mask))
  (pad 27 smd rect (at 1.75 -3.44) (size 0.24 0.7) (layers F.Cu F.Mask))
  (pad 28 smd rect (at 1.25 -3.44) (size 0.24 0.7) (layers F.Cu F.Mask))
  (pad 31 smd rect (at -1.75 -3.44) (size 0.24 0.7) (layers F.Cu F.Mask))
  (pad 30 smd rect (at 0.25 -3.44) (size 0.24 0.7) (layers F.Cu F.Mask))
  (pad "" smd rect (at -1.7955 0) (size 1.2 1.1) (layers F.Paste))
  (pad "" smd rect (at 1.3205 0) (size 1.2 1.1) (layers F.Paste))
  (pad "" smd rect (at -0.2375 0) (size 1.2 1.1) (layers F.Paste))
  (pad "" smd rect (at -1.7955 -1.4) (size 1.2 1.1) (layers F.Paste))
  (pad "" smd rect (at -1.7955 1.4) (size 1.2 1.1) (layers F.Paste))
  (pad "" smd rect (at 1.3205 1.4) (size 1.2 1.1) (layers F.Paste))
  (pad "" smd rect (at 1.3205 -1.4) (size 1.2 1.1) (layers F.Paste))
  (pad "" smd rect (at -0.2375 1.4) (size 1.2 1.1) (layers F.Paste))
  (pad "" smd rect (at -0.2375 -1.4) (size 1.2 1.1) (layers F.Paste))
  (pad "" smd rect (at -3.425 -2.25) (size 0.65 0.22) (layers F.Paste))
  (pad "" smd rect (at -3.425 -1.75) (size 0.65 0.22) (layers F.Paste))
  (pad "" smd rect (at -3.425 -1.25) (size 0.65 0.22) (layers F.Paste))
  (pad "" smd rect (at -3.425 -0.75) (size 0.65 0.22) (layers F.Paste))
  (pad "" smd rect (at -3.425 -0.25) (size 0.65 0.22) (layers F.Paste))
  (pad "" smd rect (at -3.425 0.25) (size 0.65 0.22) (layers F.Paste))
  (pad "" smd rect (at -3.425 0.75) (size 0.65 0.22) (layers F.Paste))
  (pad "" smd rect (at -3.425 1.25) (size 0.65 0.22) (layers F.Paste))
  (pad "" smd rect (at -3.425 1.75) (size 0.65 0.22) (layers F.Paste))
  (pad "" smd rect (at -3.425 2.25) (size 0.65 0.22) (layers F.Paste))
  (pad "" smd rect (at 3.425 2.25) (size 0.65 0.22) (layers F.Paste))
  (pad "" smd rect (at 3.425 1.75) (size 0.65 0.22) (layers F.Paste))
  (pad "" smd rect (at 3.425 1.25) (size 0.65 0.22) (layers F.Paste))
  (pad "" smd rect (at 3.425 0.75) (size 0.65 0.22) (layers F.Paste))
  (pad "" smd rect (at 3.425 0.25) (size 0.65 0.22) (layers F.Paste))
  (pad "" smd rect (at 3.425 -0.25) (size 0.65 0.22) (layers F.Paste))
  (pad "" smd rect (at 3.425 -0.75) (size 0.65 0.22) (layers F.Paste))
  (pad "" smd rect (at 3.425 -1.25) (size 0.65 0.22) (layers F.Paste))
  (pad "" smd rect (at 3.425 -1.75) (size 0.65 0.22) (layers F.Paste))
  (pad "" smd rect (at 3.425 -2.25) (size 0.65 0.22) (layers F.Paste))
  (pad "" smd rect (at -2.25 3.425) (size 0.22 0.65) (layers F.Paste))
  (pad "" smd rect (at -1.75 3.425) (size 0.22 0.65) (layers F.Paste))
  (pad "" smd rect (at 0.25 3.425) (size 0.22 0.65) (layers F.Paste))
  (pad "" smd rect (at 0.75 3.425) (size 0.22 0.65) (layers F.Paste))
  (pad "" smd rect (at 1.25 3.425) (size 0.22 0.65) (layers F.Paste))
  (pad "" smd rect (at 1.75 3.425) (size 0.22 0.65) (layers F.Paste))
  (pad "" smd rect (at 1.75 -3.425) (size 0.22 0.65) (layers F.Paste))
  (pad "" smd rect (at 1.25 -3.425) (size 0.22 0.65) (layers F.Paste))
  (pad "" smd rect (at 0.75 -3.425) (size 0.22 0.65) (layers F.Paste))
  (pad "" smd rect (at 0.25 -3.425) (size 0.22 0.65) (layers F.Paste))
  (pad "" smd rect (at -1.75 -3.425) (size 0.22 0.65) (layers F.Paste))
  (pad "" smd rect (at -2.25 -3.425) (size 0.22 0.65) (layers F.Paste))
  (model ${KIPRJMOD}/kicad_libs_k/models_k.3d/Package_DFN_QFN_k.3dshapes/Infineon_MLPQ-40-32-1EP_7x7mm_P0.5mm_k.wrl
    (at (xyz 0 0 0))
    (scale (xyz 1 1 1))
    (rotate (xyz 0 0 0))
  )
)
