(module Panasonic_HQFN-16-1EP_4x4mm_P0.65mm_EP2.9x2.9mm (layer F.Cu) (tedit 5B27EDB1)
  (descr "Panasonic HQFN-16, 4x4x0.85mm (https://industrial.panasonic.com/content/data/SC/ds/ds7/c0/PKG_HQFN016-A-0404XZL_EN.pdf)")
  (tags "panasonic hqfn")
  (solder_mask_margin 0.05)
  (attr smd)
  (fp_text reference REF** (at 0 -3.2) (layer F.SilkS)
    (effects (font (size 1 1) (thickness 0.15)))
  )
  (fp_text value Panasonic_HQFN-16-1EP_4x4mm_P0.65mm_EP2.9x2.9mm (at 0 3.2) (layer F.Fab)
    (effects (font (size 1 1) (thickness 0.15)))
  )
  (fp_line (start -1 -2) (end 2 -2) (layer F.Fab) (width 0.1))
  (fp_line (start 2 -2) (end 2 2) (layer F.Fab) (width 0.1))
  (fp_line (start 2 2) (end -2 2) (layer F.Fab) (width 0.1))
  (fp_line (start -2 2) (end -2 -1) (layer F.Fab) (width 0.1))
  (fp_line (start -1 -2) (end -2 -1) (layer F.Fab) (width 0.1))
  (fp_line (start -2.45 -2.45) (end 2.45 -2.45) (layer F.CrtYd) (width 0.05))
  (fp_line (start 2.45 -2.45) (end 2.45 2.45) (layer F.CrtYd) (width 0.05))
  (fp_line (start -2.45 2.45) (end 2.45 2.45) (layer F.CrtYd) (width 0.05))
  (fp_line (start -2.45 2.45) (end -2.45 -2.45) (layer F.CrtYd) (width 0.05))
  (fp_text user %R (at 0 0) (layer F.Fab)
    (effects (font (size 1 1) (thickness 0.15)))
  )
  (fp_line (start -1.34 2.11) (end -2.11 2.11) (layer F.SilkS) (width 0.12))
  (fp_line (start 1.34 2.11) (end 2.11 2.11) (layer F.SilkS) (width 0.12))
  (fp_line (start 1.33 -2.11) (end 2.11 -2.11) (layer F.SilkS) (width 0.12))
  (fp_line (start -1.34 -2.11) (end -2.11 -2.11) (layer F.SilkS) (width 0.12))
  (fp_line (start -2.11 1.34) (end -2.11 2.11) (layer F.SilkS) (width 0.12))
  (fp_line (start 2.11 1.34) (end 2.11 2.11) (layer F.SilkS) (width 0.12))
  (fp_line (start 2.11 -1.34) (end 2.11 -2.11) (layer F.SilkS) (width 0.12))
  (pad 17 smd rect (at 0 0) (size 2.9 2.9) (layers F.Cu F.Mask))
  (pad "" smd rect (at -0.725 -0.725) (size 1.05 1.05) (layers F.Paste))
  (pad "" smd rect (at -0.725 0.725) (size 1.05 1.05) (layers F.Paste))
  (pad "" smd rect (at 0.725 -0.725) (size 1.05 1.05) (layers F.Paste))
  (pad "" smd rect (at 0.725 0.725) (size 1.05 1.05) (layers F.Paste))
  (pad 1 smd rect (at -1.925 -0.975) (size 0.55 0.36) (layers F.Cu F.Mask))
  (pad "" smd rect (at -1.95 -0.975) (size 0.5 0.36) (layers F.Paste))
  (pad "" smd rect (at -1.95 -0.325) (size 0.5 0.36) (layers F.Paste))
  (pad "" smd rect (at -1.95 0.325) (size 0.5 0.36) (layers F.Paste))
  (pad "" smd rect (at -1.95 0.975) (size 0.5 0.36) (layers F.Paste))
  (pad "" smd rect (at 1.95 0.975) (size 0.5 0.36) (layers F.Paste))
  (pad "" smd rect (at 1.95 0.325) (size 0.5 0.36) (layers F.Paste))
  (pad "" smd rect (at 1.95 -0.325) (size 0.5 0.36) (layers F.Paste))
  (pad "" smd rect (at 1.95 -0.975) (size 0.5 0.36) (layers F.Paste))
  (pad 2 smd rect (at -1.925 -0.325) (size 0.55 0.36) (layers F.Cu F.Mask))
  (pad 3 smd rect (at -1.925 0.325) (size 0.55 0.36) (layers F.Cu F.Mask))
  (pad 4 smd rect (at -1.925 0.975) (size 0.55 0.36) (layers F.Cu F.Mask))
  (pad 9 smd rect (at 1.925 0.975) (size 0.55 0.36) (layers F.Cu F.Mask))
  (pad 10 smd rect (at 1.925 0.325) (size 0.55 0.36) (layers F.Cu F.Mask))
  (pad 11 smd rect (at 1.925 -0.325) (size 0.55 0.36) (layers F.Cu F.Mask))
  (pad 12 smd rect (at 1.925 -0.975) (size 0.55 0.36) (layers F.Cu F.Mask))
  (pad 5 smd rect (at -0.975 1.925) (size 0.36 0.55) (layers F.Cu F.Mask))
  (pad "" smd rect (at -0.975 1.95) (size 0.36 0.5) (layers F.Paste))
  (pad 6 smd rect (at -0.325 1.925) (size 0.36 0.55) (layers F.Cu F.Mask))
  (pad 7 smd rect (at 0.325 1.925) (size 0.36 0.55) (layers F.Cu F.Mask))
  (pad 8 smd rect (at 0.975 1.925) (size 0.36 0.55) (layers F.Cu F.Mask))
  (pad 13 smd rect (at 0.975 -1.925) (size 0.36 0.55) (layers F.Cu F.Mask))
  (pad 14 smd rect (at 0.325 -1.925) (size 0.36 0.55) (layers F.Cu F.Mask))
  (pad 15 smd rect (at -0.325 -1.925) (size 0.36 0.55) (layers F.Cu F.Mask))
  (pad 16 smd rect (at -0.975 -1.925) (size 0.36 0.55) (layers F.Cu F.Mask))
  (pad "" smd rect (at -0.325 1.95) (size 0.36 0.5) (layers F.Paste))
  (pad "" smd rect (at 0.325 1.95) (size 0.36 0.5) (layers F.Paste))
  (pad "" smd rect (at 0.975 1.95) (size 0.36 0.5) (layers F.Paste))
  (pad "" smd rect (at 0.975 -1.95) (size 0.36 0.5) (layers F.Paste))
  (pad "" smd rect (at 0.325 -1.95) (size 0.36 0.5) (layers F.Paste))
  (pad "" smd rect (at -0.325 -1.95) (size 0.36 0.5) (layers F.Paste))
  (pad "" smd rect (at -0.975 -1.95) (size 0.36 0.5) (layers F.Paste))
  (model ${KIPRJMOD}/kicad_libs_k/models_k.3d/Package_DFN_QFN_k.3dshapes/Panasonic_HQFN-16-1EP_4x4mm_P0.65mm_EP2.9x2.9mm_k.wrl
    (at (xyz 0 0 0))
    (scale (xyz 1 1 1))
    (rotate (xyz 0 0 0))
  )
)