(module QFN-44-1EP_9x9mm_P0.65mm_EP7.5x7.5mm (layer F.Cu) (tedit 5A65C163)
  (descr "44-Lead Plastic Quad Flat, No Lead Package - 9x9 mm Body [QFN]; see section 10.3 of https://www.parallax.com/sites/default/files/downloads/P8X32A-Propeller-Datasheet-v1.4.0_0.pdf")
  (tags "QFN 0.65")
  (attr smd)
  (fp_text reference REF** (at 0 -5.6) (layer F.SilkS)
    (effects (font (size 1 1) (thickness 0.15)))
  )
  (fp_text value QFN-44-1EP_9x9mm_P0.65mm_EP7.5x7.5mm (at 0 5.6) (layer F.Fab)
    (effects (font (size 1 1) (thickness 0.15)))
  )
  (fp_text user %R (at 0 0) (layer F.Fab)
    (effects (font (size 0.65 0.65) (thickness 0.125)))
  )
  (fp_line (start 4.5 4.5) (end -4.5 4.5) (layer F.Fab) (width 0.1))
  (fp_line (start -4.5 4.5) (end -4.5 -3.5) (layer F.Fab) (width 0.1))
  (fp_line (start -4.5 -3.5) (end -3.5 -4.5) (layer F.Fab) (width 0.1))
  (fp_line (start -3.5 -4.5) (end 4.5 -4.5) (layer F.Fab) (width 0.1))
  (fp_line (start 4.5 -4.5) (end 4.5 4.5) (layer F.Fab) (width 0.1))
  (fp_line (start -4.85 -4.85) (end -4.85 4.85) (layer F.CrtYd) (width 0.05))
  (fp_line (start -4.85 4.85) (end 4.85 4.85) (layer F.CrtYd) (width 0.05))
  (fp_line (start 4.85 4.85) (end 4.85 -4.85) (layer F.CrtYd) (width 0.05))
  (fp_line (start 4.85 -4.85) (end -4.85 -4.85) (layer F.CrtYd) (width 0.05))
  (fp_line (start 3.675 -4.625) (end 4.625 -4.625) (layer F.SilkS) (width 0.12))
  (fp_line (start 4.625 -4.625) (end 4.625 -3.675) (layer F.SilkS) (width 0.12))
  (fp_line (start -3.675 4.625) (end -4.625 4.625) (layer F.SilkS) (width 0.12))
  (fp_line (start -4.625 4.625) (end -4.625 3.675) (layer F.SilkS) (width 0.12))
  (fp_line (start 3.675 4.625) (end 4.625 4.625) (layer F.SilkS) (width 0.12))
  (fp_line (start 4.625 4.625) (end 4.625 3.675) (layer F.SilkS) (width 0.12))
  (fp_line (start -4.625 -4.625) (end -3.675 -4.625) (layer F.SilkS) (width 0.12))
  (pad 1 smd rect (at -4.3 -3.25) (size 0.6 0.33) (layers F.Cu F.Paste F.Mask))
  (pad 2 smd rect (at -4.3 -2.6) (size 0.6 0.33) (layers F.Cu F.Paste F.Mask))
  (pad 3 smd rect (at -4.3 -1.95) (size 0.6 0.33) (layers F.Cu F.Paste F.Mask))
  (pad 4 smd rect (at -4.3 -1.3) (size 0.6 0.33) (layers F.Cu F.Paste F.Mask))
  (pad 5 smd rect (at -4.3 -0.65) (size 0.6 0.33) (layers F.Cu F.Paste F.Mask))
  (pad 6 smd rect (at -4.3 0) (size 0.6 0.33) (layers F.Cu F.Paste F.Mask))
  (pad 7 smd rect (at -4.3 0.65) (size 0.6 0.33) (layers F.Cu F.Paste F.Mask))
  (pad 8 smd rect (at -4.3 1.3) (size 0.6 0.33) (layers F.Cu F.Paste F.Mask))
  (pad 9 smd rect (at -4.3 1.95) (size 0.6 0.33) (layers F.Cu F.Paste F.Mask))
  (pad 10 smd rect (at -4.3 2.6) (size 0.6 0.33) (layers F.Cu F.Paste F.Mask))
  (pad 11 smd rect (at -4.3 3.25) (size 0.6 0.33) (layers F.Cu F.Paste F.Mask))
  (pad 12 smd rect (at -3.25 4.3 90) (size 0.6 0.33) (layers F.Cu F.Paste F.Mask))
  (pad 13 smd rect (at -2.6 4.3 90) (size 0.6 0.33) (layers F.Cu F.Paste F.Mask))
  (pad 14 smd rect (at -1.95 4.3 90) (size 0.6 0.33) (layers F.Cu F.Paste F.Mask))
  (pad 15 smd rect (at -1.3 4.3 90) (size 0.6 0.33) (layers F.Cu F.Paste F.Mask))
  (pad 16 smd rect (at -0.65 4.3 90) (size 0.6 0.33) (layers F.Cu F.Paste F.Mask))
  (pad 17 smd rect (at 0 4.3 90) (size 0.6 0.33) (layers F.Cu F.Paste F.Mask))
  (pad 18 smd rect (at 0.65 4.3 90) (size 0.6 0.33) (layers F.Cu F.Paste F.Mask))
  (pad 19 smd rect (at 1.3 4.3 90) (size 0.6 0.33) (layers F.Cu F.Paste F.Mask))
  (pad 20 smd rect (at 1.95 4.3 90) (size 0.6 0.33) (layers F.Cu F.Paste F.Mask))
  (pad 21 smd rect (at 2.6 4.3 90) (size 0.6 0.33) (layers F.Cu F.Paste F.Mask))
  (pad 22 smd rect (at 3.25 4.3 90) (size 0.6 0.33) (layers F.Cu F.Paste F.Mask))
  (pad 23 smd rect (at 4.3 3.25) (size 0.6 0.33) (layers F.Cu F.Paste F.Mask))
  (pad 24 smd rect (at 4.3 2.6) (size 0.6 0.33) (layers F.Cu F.Paste F.Mask))
  (pad 25 smd rect (at 4.3 1.95) (size 0.6 0.33) (layers F.Cu F.Paste F.Mask))
  (pad 26 smd rect (at 4.3 1.3) (size 0.6 0.33) (layers F.Cu F.Paste F.Mask))
  (pad 27 smd rect (at 4.3 0.65) (size 0.6 0.33) (layers F.Cu F.Paste F.Mask))
  (pad 28 smd rect (at 4.3 0) (size 0.6 0.33) (layers F.Cu F.Paste F.Mask))
  (pad 29 smd rect (at 4.3 -0.65) (size 0.6 0.33) (layers F.Cu F.Paste F.Mask))
  (pad 30 smd rect (at 4.3 -1.3) (size 0.6 0.33) (layers F.Cu F.Paste F.Mask))
  (pad 31 smd rect (at 4.3 -1.95) (size 0.6 0.33) (layers F.Cu F.Paste F.Mask))
  (pad 32 smd rect (at 4.3 -2.6) (size 0.6 0.33) (layers F.Cu F.Paste F.Mask))
  (pad 33 smd rect (at 4.3 -3.25) (size 0.6 0.33) (layers F.Cu F.Paste F.Mask))
  (pad 34 smd rect (at 3.25 -4.3 90) (size 0.6 0.33) (layers F.Cu F.Paste F.Mask))
  (pad 35 smd rect (at 2.6 -4.3 90) (size 0.6 0.33) (layers F.Cu F.Paste F.Mask))
  (pad 36 smd rect (at 1.95 -4.3 90) (size 0.6 0.33) (layers F.Cu F.Paste F.Mask))
  (pad 37 smd rect (at 1.3 -4.3 90) (size 0.6 0.33) (layers F.Cu F.Paste F.Mask))
  (pad 38 smd rect (at 0.65 -4.3 90) (size 0.6 0.33) (layers F.Cu F.Paste F.Mask))
  (pad 39 smd rect (at 0 -4.3 90) (size 0.6 0.33) (layers F.Cu F.Paste F.Mask))
  (pad 40 smd rect (at -0.65 -4.3 90) (size 0.6 0.33) (layers F.Cu F.Paste F.Mask))
  (pad 41 smd rect (at -1.3 -4.3 90) (size 0.6 0.33) (layers F.Cu F.Paste F.Mask))
  (pad 42 smd rect (at -1.95 -4.3 90) (size 0.6 0.33) (layers F.Cu F.Paste F.Mask))
  (pad 43 smd rect (at -2.6 -4.3 90) (size 0.6 0.33) (layers F.Cu F.Paste F.Mask))
  (pad 44 smd rect (at -3.25 -4.3 90) (size 0.6 0.33) (layers F.Cu F.Paste F.Mask))
  (pad 45 smd rect (at 0 0) (size 7.5 7.5) (layers F.Cu F.Mask))
  (pad "" smd rect (at -1.875 -1.875) (size 2.65 2.65) (layers F.Paste))
  (pad "" smd rect (at -1.875 1.875) (size 2.65 2.65) (layers F.Paste))
  (pad "" smd rect (at 1.875 -1.875) (size 2.65 2.65) (layers F.Paste))
  (pad "" smd rect (at 1.875 1.875) (size 2.65 2.65) (layers F.Paste))
  (model ${KIPRJMOD}/kicad_libs_k/models_k.3d/Package_DFN_QFN_k.3dshapes/QFN-44-1EP_9x9mm_P0.65mm_EP7.5x7.5mm_k.wrl
    (at (xyz 0 0 0))
    (scale (xyz 1 1 1))
    (rotate (xyz 0 0 0))
  )
)
