(module QFN-24-1EP_3x3mm_P0.4mm_EP1.75x1.6mm (layer F.Cu) (tedit 5A650B51)
  (descr "24-Lead Plastic QFN (3mm x 3mm); Pitch 0.4mm")
  (tags "QFN 0.4")
  (attr smd)
  (fp_text reference REF** (at 0 -3.25) (layer F.SilkS)
    (effects (font (size 1 1) (thickness 0.15)))
  )
  (fp_text value QFN-24-1EP_3x3mm_P0.4mm_EP1.75x1.6mm (at 0 3.25) (layer F.Fab)
    (effects (font (size 1 1) (thickness 0.15)))
  )
  (fp_text user %R (at 0 0) (layer F.Fab)
    (effects (font (size 0.7 0.7) (thickness 0.105)))
  )
  (fp_line (start -0.5 -1.5) (end 1.5 -1.5) (layer F.Fab) (width 0.15))
  (fp_line (start 1.5 -1.5) (end 1.5 1.5) (layer F.Fab) (width 0.15))
  (fp_line (start 1.5 1.5) (end -1.5 1.5) (layer F.Fab) (width 0.15))
  (fp_line (start -1.5 1.5) (end -1.5 -0.5) (layer F.Fab) (width 0.15))
  (fp_line (start -1.5 -0.5) (end -0.5 -1.5) (layer F.Fab) (width 0.15))
  (fp_line (start 2.03 -2.03) (end 2.03 2.03) (layer F.CrtYd) (width 0.05))
  (fp_line (start 2.03 2.03) (end -2.03 2.03) (layer F.CrtYd) (width 0.05))
  (fp_line (start -2.03 2.03) (end -2.03 -2.03) (layer F.CrtYd) (width 0.05))
  (fp_line (start -2.03 -2.03) (end 2.03 -2.03) (layer F.CrtYd) (width 0.05))
  (fp_line (start -1.6 1.6) (end -1.6 1.2) (layer F.SilkS) (width 0.15))
  (fp_line (start -1.6 1.6) (end -1.2 1.6) (layer F.SilkS) (width 0.15))
  (fp_line (start 1.6 1.6) (end 1.6 1.2) (layer F.SilkS) (width 0.15))
  (fp_line (start 1.6 1.6) (end 1.2 1.6) (layer F.SilkS) (width 0.15))
  (fp_line (start 1.6 -1.6) (end 1.6 -1.2) (layer F.SilkS) (width 0.15))
  (fp_line (start 1.6 -1.6) (end 1.2 -1.6) (layer F.SilkS) (width 0.15))
  (fp_line (start -1.6 -1.6) (end -1.2 -1.6) (layer F.SilkS) (width 0.15))
  (pad 1 smd rect (at -1.5 -1) (size 0.55 0.2) (layers F.Cu F.Paste F.Mask))
  (pad 2 smd rect (at -1.5 -0.6) (size 0.55 0.2) (layers F.Cu F.Paste F.Mask))
  (pad 3 smd rect (at -1.5 -0.2) (size 0.55 0.2) (layers F.Cu F.Paste F.Mask))
  (pad 4 smd rect (at -1.5 0.2) (size 0.55 0.2) (layers F.Cu F.Paste F.Mask))
  (pad 5 smd rect (at -1.5 0.6) (size 0.55 0.2) (layers F.Cu F.Paste F.Mask))
  (pad 6 smd rect (at -1.5 1) (size 0.55 0.2) (layers F.Cu F.Paste F.Mask))
  (pad 7 smd rect (at -1 1.5 90) (size 0.55 0.2) (layers F.Cu F.Paste F.Mask))
  (pad 8 smd rect (at -0.6 1.5 90) (size 0.55 0.2) (layers F.Cu F.Paste F.Mask))
  (pad 9 smd rect (at -0.2 1.5 90) (size 0.55 0.2) (layers F.Cu F.Paste F.Mask))
  (pad 10 smd rect (at 0.2 1.5 90) (size 0.55 0.2) (layers F.Cu F.Paste F.Mask))
  (pad 11 smd rect (at 0.6 1.5 90) (size 0.55 0.2) (layers F.Cu F.Paste F.Mask))
  (pad 12 smd rect (at 1 1.5 90) (size 0.55 0.2) (layers F.Cu F.Paste F.Mask))
  (pad 13 smd rect (at 1.5 1) (size 0.55 0.2) (layers F.Cu F.Paste F.Mask))
  (pad 14 smd rect (at 1.5 0.6) (size 0.55 0.2) (layers F.Cu F.Paste F.Mask))
  (pad 15 smd rect (at 1.5 0.2) (size 0.55 0.2) (layers F.Cu F.Paste F.Mask))
  (pad 16 smd rect (at 1.5 -0.2) (size 0.55 0.2) (layers F.Cu F.Paste F.Mask))
  (pad 17 smd rect (at 1.5 -0.6) (size 0.55 0.2) (layers F.Cu F.Paste F.Mask))
  (pad 18 smd rect (at 1.5 -1) (size 0.55 0.2) (layers F.Cu F.Paste F.Mask))
  (pad 19 smd rect (at 1 -1.5 90) (size 0.55 0.2) (layers F.Cu F.Paste F.Mask))
  (pad 20 smd rect (at 0.6 -1.5 90) (size 0.55 0.2) (layers F.Cu F.Paste F.Mask))
  (pad 21 smd rect (at 0.2 -1.5 90) (size 0.55 0.2) (layers F.Cu F.Paste F.Mask))
  (pad 22 smd rect (at -0.2 -1.5 90) (size 0.55 0.2) (layers F.Cu F.Paste F.Mask))
  (pad 23 smd rect (at -0.6 -1.5 90) (size 0.55 0.2) (layers F.Cu F.Paste F.Mask))
  (pad 24 smd rect (at -1 -1.5 90) (size 0.55 0.2) (layers F.Cu F.Paste F.Mask))
  (pad "" smd rect (at -0.435 0.4) (size 0.7 0.65) (layers F.Paste))
  (pad 25 smd rect (at 0 0) (size 1.75 1.6) (layers F.Cu F.Mask))
  (pad "" smd rect (at 0.435 0.4) (size 0.7 0.65) (layers F.Paste))
  (pad "" smd rect (at 0.435 -0.4) (size 0.7 0.65) (layers F.Paste))
  (pad "" smd rect (at -0.435 -0.4) (size 0.7 0.65) (layers F.Paste))
  (model ${KIPRJMOD}/kicad_libs_k/models_k.3d/Package_DFN_QFN_k.3dshapes/QFN-24-1EP_3x3mm_P0.4mm_EP1.75x1.6mm_k.wrl
    (at (xyz 0 0 0))
    (scale (xyz 1 1 1))
    (rotate (xyz 0 0 0))
  )
)
