(module QFN-20-1EP_4x5mm_P0.5mm_EP2.65x3.65mm_ThermalVias (layer F.Cu) (tedit 5B32DAA0)
  (descr "QFN, 20 Pin (http://www.analog.com/media/en/package-pcb-resources/package/pkg_pdf/ltc-legacy-qfn/QFN_20_05-08-1742.pdf), generated with kicad-footprint-generator ipc_dfn_qfn_generator.py")
  (tags "QFN DFN_QFN")
  (attr smd)
  (fp_text reference REF** (at 0 -3.82) (layer F.SilkS)
    (effects (font (size 1 1) (thickness 0.15)))
  )
  (fp_text value QFN-20-1EP_4x5mm_P0.5mm_EP2.65x3.65mm_ThermalVias (at 0 3.82) (layer F.Fab)
    (effects (font (size 1 1) (thickness 0.15)))
  )
  (fp_line (start 1.135 -2.61) (end 2.11 -2.61) (layer F.SilkS) (width 0.12))
  (fp_line (start 2.11 -2.61) (end 2.11 -1.635) (layer F.SilkS) (width 0.12))
  (fp_line (start -1.135 2.61) (end -2.11 2.61) (layer F.SilkS) (width 0.12))
  (fp_line (start -2.11 2.61) (end -2.11 1.635) (layer F.SilkS) (width 0.12))
  (fp_line (start 1.135 2.61) (end 2.11 2.61) (layer F.SilkS) (width 0.12))
  (fp_line (start 2.11 2.61) (end 2.11 1.635) (layer F.SilkS) (width 0.12))
  (fp_line (start -1.135 -2.61) (end -2.11 -2.61) (layer F.SilkS) (width 0.12))
  (fp_line (start -1 -2.5) (end 2 -2.5) (layer F.Fab) (width 0.1))
  (fp_line (start 2 -2.5) (end 2 2.5) (layer F.Fab) (width 0.1))
  (fp_line (start 2 2.5) (end -2 2.5) (layer F.Fab) (width 0.1))
  (fp_line (start -2 2.5) (end -2 -1.5) (layer F.Fab) (width 0.1))
  (fp_line (start -2 -1.5) (end -1 -2.5) (layer F.Fab) (width 0.1))
  (fp_line (start -2.62 -3.12) (end -2.62 3.12) (layer F.CrtYd) (width 0.05))
  (fp_line (start -2.62 3.12) (end 2.62 3.12) (layer F.CrtYd) (width 0.05))
  (fp_line (start 2.62 3.12) (end 2.62 -3.12) (layer F.CrtYd) (width 0.05))
  (fp_line (start 2.62 -3.12) (end -2.62 -3.12) (layer F.CrtYd) (width 0.05))
  (pad 21 smd roundrect (at 0 0) (size 2.65 3.65) (layers F.Cu F.Mask) (roundrect_rratio 0.09434))
  (pad 21 thru_hole circle (at -1.075 -1.575) (size 0.5 0.5) (drill 0.2) (layers *.Cu))
  (pad 21 thru_hole circle (at 0 -1.575) (size 0.5 0.5) (drill 0.2) (layers *.Cu))
  (pad 21 thru_hole circle (at 1.075 -1.575) (size 0.5 0.5) (drill 0.2) (layers *.Cu))
  (pad 21 thru_hole circle (at -1.075 -0.525) (size 0.5 0.5) (drill 0.2) (layers *.Cu))
  (pad 21 thru_hole circle (at 0 -0.525) (size 0.5 0.5) (drill 0.2) (layers *.Cu))
  (pad 21 thru_hole circle (at 1.075 -0.525) (size 0.5 0.5) (drill 0.2) (layers *.Cu))
  (pad 21 thru_hole circle (at -1.075 0.525) (size 0.5 0.5) (drill 0.2) (layers *.Cu))
  (pad 21 thru_hole circle (at 0 0.525) (size 0.5 0.5) (drill 0.2) (layers *.Cu))
  (pad 21 thru_hole circle (at 1.075 0.525) (size 0.5 0.5) (drill 0.2) (layers *.Cu))
  (pad 21 thru_hole circle (at -1.075 1.575) (size 0.5 0.5) (drill 0.2) (layers *.Cu))
  (pad 21 thru_hole circle (at 0 1.575) (size 0.5 0.5) (drill 0.2) (layers *.Cu))
  (pad 21 thru_hole circle (at 1.075 1.575) (size 0.5 0.5) (drill 0.2) (layers *.Cu))
  (pad 21 smd roundrect (at 0 0) (size 2.65 3.65) (layers B.Cu) (roundrect_rratio 0.09434))
  (pad "" smd custom (at -0.5375 -1.05) (size 0.787174 0.787174) (layers F.Paste)
    (options (clearance outline) (anchor circle))
    (primitives
      (gr_poly (pts
         (xy -0.491323 -0.288334) (xy -0.328505 -0.451152) (xy 0.328505 -0.451152) (xy 0.491323 -0.288334)
         (xy 0.491323 0.288334) (xy 0.328505 0.451152) (xy -0.328505 0.451152) (xy -0.491323 0.288334)) (width 0))
    ))
  (pad "" smd custom (at -0.5375 0) (size 0.787174 0.787174) (layers F.Paste)
    (options (clearance outline) (anchor circle))
    (primitives
      (gr_poly (pts
         (xy -0.491323 -0.288334) (xy -0.328505 -0.451152) (xy 0.328505 -0.451152) (xy 0.491323 -0.288334)
         (xy 0.491323 0.288334) (xy 0.328505 0.451152) (xy -0.328505 0.451152) (xy -0.491323 0.288334)) (width 0))
    ))
  (pad "" smd custom (at -0.5375 1.05) (size 0.787174 0.787174) (layers F.Paste)
    (options (clearance outline) (anchor circle))
    (primitives
      (gr_poly (pts
         (xy -0.491323 -0.288334) (xy -0.328505 -0.451152) (xy 0.328505 -0.451152) (xy 0.491323 -0.288334)
         (xy 0.491323 0.288334) (xy 0.328505 0.451152) (xy -0.328505 0.451152) (xy -0.491323 0.288334)) (width 0))
    ))
  (pad "" smd custom (at 0.5375 -1.05) (size 0.787174 0.787174) (layers F.Paste)
    (options (clearance outline) (anchor circle))
    (primitives
      (gr_poly (pts
         (xy -0.491323 -0.288334) (xy -0.328505 -0.451152) (xy 0.328505 -0.451152) (xy 0.491323 -0.288334)
         (xy 0.491323 0.288334) (xy 0.328505 0.451152) (xy -0.328505 0.451152) (xy -0.491323 0.288334)) (width 0))
    ))
  (pad "" smd custom (at 0.5375 0) (size 0.787174 0.787174) (layers F.Paste)
    (options (clearance outline) (anchor circle))
    (primitives
      (gr_poly (pts
         (xy -0.491323 -0.288334) (xy -0.328505 -0.451152) (xy 0.328505 -0.451152) (xy 0.491323 -0.288334)
         (xy 0.491323 0.288334) (xy 0.328505 0.451152) (xy -0.328505 0.451152) (xy -0.491323 0.288334)) (width 0))
    ))
  (pad "" smd custom (at 0.5375 1.05) (size 0.787174 0.787174) (layers F.Paste)
    (options (clearance outline) (anchor circle))
    (primitives
      (gr_poly (pts
         (xy -0.491323 -0.288334) (xy -0.328505 -0.451152) (xy 0.328505 -0.451152) (xy 0.491323 -0.288334)
         (xy 0.491323 0.288334) (xy 0.328505 0.451152) (xy -0.328505 0.451152) (xy -0.491323 0.288334)) (width 0))
    ))
  (pad 1 smd roundrect (at -1.9625 -1.25) (size 0.825 0.25) (layers F.Cu F.Mask F.Paste) (roundrect_rratio 0.25))
  (pad 2 smd roundrect (at -1.9625 -0.75) (size 0.825 0.25) (layers F.Cu F.Mask F.Paste) (roundrect_rratio 0.25))
  (pad 3 smd roundrect (at -1.9625 -0.25) (size 0.825 0.25) (layers F.Cu F.Mask F.Paste) (roundrect_rratio 0.25))
  (pad 4 smd roundrect (at -1.9625 0.25) (size 0.825 0.25) (layers F.Cu F.Mask F.Paste) (roundrect_rratio 0.25))
  (pad 5 smd roundrect (at -1.9625 0.75) (size 0.825 0.25) (layers F.Cu F.Mask F.Paste) (roundrect_rratio 0.25))
  (pad 6 smd roundrect (at -1.9625 1.25) (size 0.825 0.25) (layers F.Cu F.Mask F.Paste) (roundrect_rratio 0.25))
  (pad 7 smd roundrect (at -0.75 2.4625) (size 0.25 0.825) (layers F.Cu F.Mask F.Paste) (roundrect_rratio 0.25))
  (pad 8 smd roundrect (at -0.25 2.4625) (size 0.25 0.825) (layers F.Cu F.Mask F.Paste) (roundrect_rratio 0.25))
  (pad 9 smd roundrect (at 0.25 2.4625) (size 0.25 0.825) (layers F.Cu F.Mask F.Paste) (roundrect_rratio 0.25))
  (pad 10 smd roundrect (at 0.75 2.4625) (size 0.25 0.825) (layers F.Cu F.Mask F.Paste) (roundrect_rratio 0.25))
  (pad 11 smd roundrect (at 1.9625 1.25) (size 0.825 0.25) (layers F.Cu F.Mask F.Paste) (roundrect_rratio 0.25))
  (pad 12 smd roundrect (at 1.9625 0.75) (size 0.825 0.25) (layers F.Cu F.Mask F.Paste) (roundrect_rratio 0.25))
  (pad 13 smd roundrect (at 1.9625 0.25) (size 0.825 0.25) (layers F.Cu F.Mask F.Paste) (roundrect_rratio 0.25))
  (pad 14 smd roundrect (at 1.9625 -0.25) (size 0.825 0.25) (layers F.Cu F.Mask F.Paste) (roundrect_rratio 0.25))
  (pad 15 smd roundrect (at 1.9625 -0.75) (size 0.825 0.25) (layers F.Cu F.Mask F.Paste) (roundrect_rratio 0.25))
  (pad 16 smd roundrect (at 1.9625 -1.25) (size 0.825 0.25) (layers F.Cu F.Mask F.Paste) (roundrect_rratio 0.25))
  (pad 17 smd roundrect (at 0.75 -2.4625) (size 0.25 0.825) (layers F.Cu F.Mask F.Paste) (roundrect_rratio 0.25))
  (pad 18 smd roundrect (at 0.25 -2.4625) (size 0.25 0.825) (layers F.Cu F.Mask F.Paste) (roundrect_rratio 0.25))
  (pad 19 smd roundrect (at -0.25 -2.4625) (size 0.25 0.825) (layers F.Cu F.Mask F.Paste) (roundrect_rratio 0.25))
  (pad 20 smd roundrect (at -0.75 -2.4625) (size 0.25 0.825) (layers F.Cu F.Mask F.Paste) (roundrect_rratio 0.25))
  (fp_text user %R (at 0 0) (layer F.Fab)
    (effects (font (size 1 1) (thickness 0.15)))
  )
  (model ${KIPRJMOD}/kicad_libs_k/models_k.3d/Package_DFN_QFN_k.3dshapes/QFN-20-1EP_4x5mm_P0.5mm_EP2.65x3.65mm_k.wrl
    (at (xyz 0 0 0))
    (scale (xyz 1 1 1))
    (rotate (xyz 0 0 0))
  )
)