(module QFN-20-1EP_3x4mm_P0.5mm_EP1.65x2.65mm (layer F.Cu) (tedit 5B32DAA0)
  (descr "QFN, 20 Pin (http://www.analog.com/media/en/package-pcb-resources/package/pkg_pdf/ltc-legacy-qfn/QFN_20_05-08-1742.pdf), generated with kicad-footprint-generator ipc_dfn_qfn_generator.py")
  (tags "QFN DFN_QFN")
  (attr smd)
  (fp_text reference REF** (at 0 -3.32) (layer F.SilkS)
    (effects (font (size 1 1) (thickness 0.15)))
  )
  (fp_text value QFN-20-1EP_3x4mm_P0.5mm_EP1.65x2.65mm (at 0 3.32) (layer F.Fab)
    (effects (font (size 1 1) (thickness 0.15)))
  )
  (fp_line (start 1.135 -2.11) (end 1.61 -2.11) (layer F.SilkS) (width 0.12))
  (fp_line (start 1.61 -2.11) (end 1.61 -1.635) (layer F.SilkS) (width 0.12))
  (fp_line (start -1.135 2.11) (end -1.61 2.11) (layer F.SilkS) (width 0.12))
  (fp_line (start -1.61 2.11) (end -1.61 1.635) (layer F.SilkS) (width 0.12))
  (fp_line (start 1.135 2.11) (end 1.61 2.11) (layer F.SilkS) (width 0.12))
  (fp_line (start 1.61 2.11) (end 1.61 1.635) (layer F.SilkS) (width 0.12))
  (fp_line (start -1.135 -2.11) (end -1.61 -2.11) (layer F.SilkS) (width 0.12))
  (fp_line (start -0.5 -2) (end 1.5 -2) (layer F.Fab) (width 0.1))
  (fp_line (start 1.5 -2) (end 1.5 2) (layer F.Fab) (width 0.1))
  (fp_line (start 1.5 2) (end -1.5 2) (layer F.Fab) (width 0.1))
  (fp_line (start -1.5 2) (end -1.5 -1) (layer F.Fab) (width 0.1))
  (fp_line (start -1.5 -1) (end -0.5 -2) (layer F.Fab) (width 0.1))
  (fp_line (start -2.12 -2.62) (end -2.12 2.62) (layer F.CrtYd) (width 0.05))
  (fp_line (start -2.12 2.62) (end 2.12 2.62) (layer F.CrtYd) (width 0.05))
  (fp_line (start 2.12 2.62) (end 2.12 -2.62) (layer F.CrtYd) (width 0.05))
  (fp_line (start 2.12 -2.62) (end -2.12 -2.62) (layer F.CrtYd) (width 0.05))
  (pad 21 smd roundrect (at 0 0) (size 1.65 2.65) (layers F.Cu F.Mask) (roundrect_rratio 0.151515))
  (pad "" smd roundrect (at -0.41 -0.66) (size 0.67 1.07) (layers F.Paste) (roundrect_rratio 0.25))
  (pad "" smd roundrect (at -0.41 0.66) (size 0.67 1.07) (layers F.Paste) (roundrect_rratio 0.25))
  (pad "" smd roundrect (at 0.41 -0.66) (size 0.67 1.07) (layers F.Paste) (roundrect_rratio 0.25))
  (pad "" smd roundrect (at 0.41 0.66) (size 0.67 1.07) (layers F.Paste) (roundrect_rratio 0.25))
  (pad 1 smd roundrect (at -1.4625 -1.25) (size 0.825 0.25) (layers F.Cu F.Mask F.Paste) (roundrect_rratio 0.25))
  (pad 2 smd roundrect (at -1.4625 -0.75) (size 0.825 0.25) (layers F.Cu F.Mask F.Paste) (roundrect_rratio 0.25))
  (pad 3 smd roundrect (at -1.4625 -0.25) (size 0.825 0.25) (layers F.Cu F.Mask F.Paste) (roundrect_rratio 0.25))
  (pad 4 smd roundrect (at -1.4625 0.25) (size 0.825 0.25) (layers F.Cu F.Mask F.Paste) (roundrect_rratio 0.25))
  (pad 5 smd roundrect (at -1.4625 0.75) (size 0.825 0.25) (layers F.Cu F.Mask F.Paste) (roundrect_rratio 0.25))
  (pad 6 smd roundrect (at -1.4625 1.25) (size 0.825 0.25) (layers F.Cu F.Mask F.Paste) (roundrect_rratio 0.25))
  (pad 7 smd roundrect (at -0.75 1.9625) (size 0.25 0.825) (layers F.Cu F.Mask F.Paste) (roundrect_rratio 0.25))
  (pad 8 smd roundrect (at -0.25 1.9625) (size 0.25 0.825) (layers F.Cu F.Mask F.Paste) (roundrect_rratio 0.25))
  (pad 9 smd roundrect (at 0.25 1.9625) (size 0.25 0.825) (layers F.Cu F.Mask F.Paste) (roundrect_rratio 0.25))
  (pad 10 smd roundrect (at 0.75 1.9625) (size 0.25 0.825) (layers F.Cu F.Mask F.Paste) (roundrect_rratio 0.25))
  (pad 11 smd roundrect (at 1.4625 1.25) (size 0.825 0.25) (layers F.Cu F.Mask F.Paste) (roundrect_rratio 0.25))
  (pad 12 smd roundrect (at 1.4625 0.75) (size 0.825 0.25) (layers F.Cu F.Mask F.Paste) (roundrect_rratio 0.25))
  (pad 13 smd roundrect (at 1.4625 0.25) (size 0.825 0.25) (layers F.Cu F.Mask F.Paste) (roundrect_rratio 0.25))
  (pad 14 smd roundrect (at 1.4625 -0.25) (size 0.825 0.25) (layers F.Cu F.Mask F.Paste) (roundrect_rratio 0.25))
  (pad 15 smd roundrect (at 1.4625 -0.75) (size 0.825 0.25) (layers F.Cu F.Mask F.Paste) (roundrect_rratio 0.25))
  (pad 16 smd roundrect (at 1.4625 -1.25) (size 0.825 0.25) (layers F.Cu F.Mask F.Paste) (roundrect_rratio 0.25))
  (pad 17 smd roundrect (at 0.75 -1.9625) (size 0.25 0.825) (layers F.Cu F.Mask F.Paste) (roundrect_rratio 0.25))
  (pad 18 smd roundrect (at 0.25 -1.9625) (size 0.25 0.825) (layers F.Cu F.Mask F.Paste) (roundrect_rratio 0.25))
  (pad 19 smd roundrect (at -0.25 -1.9625) (size 0.25 0.825) (layers F.Cu F.Mask F.Paste) (roundrect_rratio 0.25))
  (pad 20 smd roundrect (at -0.75 -1.9625) (size 0.25 0.825) (layers F.Cu F.Mask F.Paste) (roundrect_rratio 0.25))
  (fp_text user %R (at 0 0) (layer F.Fab)
    (effects (font (size 0.75 0.75) (thickness 0.11)))
  )
  (model ${KIPRJMOD}/kicad_libs_k/models_k.3d/Package_DFN_QFN_k.3dshapes/QFN-20-1EP_3x4mm_P0.5mm_EP1.65x2.65mm_k.wrl
    (at (xyz 0 0 0))
    (scale (xyz 1 1 1))
    (rotate (xyz 0 0 0))
  )
)