(module QFN-20-1EP_3x3mm_P0.45mm_EP1.6x1.6mm (layer F.Cu) (tedit 5AAB4F64)
  (descr "20-Lead Plastic Quad Flat No-Lead Package, 3x3mm Body (see Atmel Appnote 8826)")
  (tags "QFN 0.45")
  (attr smd)
  (fp_text reference REF** (at 0 -2.875) (layer F.SilkS)
    (effects (font (size 1 1) (thickness 0.15)))
  )
  (fp_text value QFN-20-1EP_3x3mm_P0.45mm_EP1.6x1.6mm (at 0 2.875) (layer F.Fab)
    (effects (font (size 1 1) (thickness 0.15)))
  )
  (fp_text user %R (at 0 0) (layer F.Fab)
    (effects (font (size 0.7 0.7) (thickness 0.105)))
  )
  (fp_line (start -2.15 -2.15) (end -2.15 2.15) (layer F.CrtYd) (width 0.05))
  (fp_line (start -2.15 -2.15) (end 2.15 -2.15) (layer F.CrtYd) (width 0.05))
  (fp_line (start -2.15 2.15) (end 2.15 2.15) (layer F.CrtYd) (width 0.05))
  (fp_line (start 2.15 -2.15) (end 2.15 2.15) (layer F.CrtYd) (width 0.05))
  (fp_line (start -1.5 -0.5) (end -0.5 -1.5) (layer F.Fab) (width 0.1))
  (fp_line (start -1.5 1.5) (end -1.5 -0.5) (layer F.Fab) (width 0.1))
  (fp_line (start -0.5 -1.5) (end 1.5 -1.5) (layer F.Fab) (width 0.1))
  (fp_line (start 1.5 -1.5) (end 1.5 1.5) (layer F.Fab) (width 0.1))
  (fp_line (start 1.5 1.5) (end -1.5 1.5) (layer F.Fab) (width 0.1))
  (fp_line (start -1.62 -1.62) (end -1.3 -1.62) (layer F.SilkS) (width 0.12))
  (fp_line (start -1.62 1.62) (end -1.62 1.3) (layer F.SilkS) (width 0.12))
  (fp_line (start -1.62 1.62) (end -1.3 1.62) (layer F.SilkS) (width 0.12))
  (fp_line (start 1.62 -1.62) (end 1.3 -1.62) (layer F.SilkS) (width 0.12))
  (fp_line (start 1.62 -1.62) (end 1.62 -1.3) (layer F.SilkS) (width 0.12))
  (fp_line (start 1.62 1.62) (end 1.3 1.62) (layer F.SilkS) (width 0.12))
  (fp_line (start 1.62 1.62) (end 1.62 1.3) (layer F.SilkS) (width 0.12))
  (pad 1 smd oval (at -1.5 -0.9) (size 0.8 0.25) (layers F.Cu F.Paste F.Mask))
  (pad 2 smd oval (at -1.5 -0.45) (size 0.8 0.25) (layers F.Cu F.Paste F.Mask))
  (pad 3 smd oval (at -1.5 0) (size 0.8 0.25) (layers F.Cu F.Paste F.Mask))
  (pad 4 smd oval (at -1.5 0.45) (size 0.8 0.25) (layers F.Cu F.Paste F.Mask))
  (pad 5 smd oval (at -1.5 0.9) (size 0.8 0.25) (layers F.Cu F.Paste F.Mask))
  (pad 6 smd oval (at -0.9 1.5 90) (size 0.8 0.25) (layers F.Cu F.Paste F.Mask))
  (pad 7 smd oval (at -0.45 1.5 90) (size 0.8 0.25) (layers F.Cu F.Paste F.Mask))
  (pad 8 smd oval (at 0 1.5 90) (size 0.8 0.25) (layers F.Cu F.Paste F.Mask))
  (pad 9 smd oval (at 0.45 1.5 90) (size 0.8 0.25) (layers F.Cu F.Paste F.Mask))
  (pad 10 smd oval (at 0.9 1.5 90) (size 0.8 0.25) (layers F.Cu F.Paste F.Mask))
  (pad 11 smd oval (at 1.5 0.9) (size 0.8 0.25) (layers F.Cu F.Paste F.Mask))
  (pad 12 smd oval (at 1.5 0.45) (size 0.8 0.25) (layers F.Cu F.Paste F.Mask))
  (pad 13 smd oval (at 1.5 0) (size 0.8 0.25) (layers F.Cu F.Paste F.Mask))
  (pad 14 smd oval (at 1.5 -0.45) (size 0.8 0.25) (layers F.Cu F.Paste F.Mask))
  (pad 15 smd oval (at 1.5 -0.9) (size 0.8 0.25) (layers F.Cu F.Paste F.Mask))
  (pad 16 smd oval (at 0.9 -1.5 90) (size 0.8 0.25) (layers F.Cu F.Paste F.Mask))
  (pad 17 smd oval (at 0.45 -1.5 90) (size 0.8 0.25) (layers F.Cu F.Paste F.Mask))
  (pad 18 smd oval (at 0 -1.5 90) (size 0.8 0.25) (layers F.Cu F.Paste F.Mask))
  (pad 19 smd oval (at -0.45 -1.5 90) (size 0.8 0.25) (layers F.Cu F.Paste F.Mask))
  (pad 20 smd oval (at -0.9 -1.5 90) (size 0.8 0.25) (layers F.Cu F.Paste F.Mask))
  (pad 21 smd rect (at 0 0) (size 1.6 1.6) (layers F.Cu F.Mask))
  (pad "" smd rect (at -0.4 -0.4) (size 0.7 0.7) (layers F.Paste))
  (pad "" smd rect (at -0.4 0.4) (size 0.7 0.7) (layers F.Paste))
  (pad "" smd rect (at 0.4 -0.4) (size 0.7 0.7) (layers F.Paste))
  (pad "" smd rect (at 0.4 0.4) (size 0.7 0.7) (layers F.Paste))
  (model ${KIPRJMOD}/kicad_libs_k/models_k.3d/Package_DFN_QFN_k.3dshapes/QFN-20-1EP_3x3mm_P0.45mm_EP1.6x1.6mm_k.wrl
    (at (xyz 0 0 0))
    (scale (xyz 1 1 1))
    (rotate (xyz 0 0 0))
  )
)
