(module QFN-48-1EP_6x6mm_P0.4mm_EP4.66x4.66mm_ThermalVias (layer F.Cu) (tedit 5A65C6D4)
  (descr "48-Lead Plastic Quad Flat, No Lead Package - 6x6 mm Body [QFN] with thermal vias; see figure 7.2 of https://static.dev.sifive.com/SiFive-FE310-G000-datasheet-v1.0.4.pdf")
  (tags "QFN 0.4")
  (attr smd)
  (fp_text reference REF** (at 0 -4.25) (layer F.SilkS)
    (effects (font (size 1 1) (thickness 0.15)))
  )
  (fp_text value QFN-48-1EP_6x6mm_P0.4mm_EP4.66x4.66mm_ThermalVias (at 0 4.25) (layer F.Fab)
    (effects (font (size 1 1) (thickness 0.15)))
  )
  (fp_text user %R (at 0 0) (layer F.Fab)
    (effects (font (size 0.65 0.65) (thickness 0.125)))
  )
  (fp_line (start 3 3) (end -3 3) (layer F.Fab) (width 0.1))
  (fp_line (start -3 3) (end -3 -2) (layer F.Fab) (width 0.1))
  (fp_line (start -3 -2) (end -2 -3) (layer F.Fab) (width 0.1))
  (fp_line (start -2 -3) (end 3 -3) (layer F.Fab) (width 0.1))
  (fp_line (start 3 -3) (end 3 3) (layer F.Fab) (width 0.1))
  (fp_line (start -3.5 -3.5) (end -3.5 3.5) (layer F.CrtYd) (width 0.05))
  (fp_line (start -3.5 3.5) (end 3.5 3.5) (layer F.CrtYd) (width 0.05))
  (fp_line (start 3.5 3.5) (end 3.5 -3.5) (layer F.CrtYd) (width 0.05))
  (fp_line (start 3.5 -3.5) (end -3.5 -3.5) (layer F.CrtYd) (width 0.05))
  (fp_line (start 2.56 -3.125) (end 3.125 -3.125) (layer F.SilkS) (width 0.12))
  (fp_line (start 3.125 -3.125) (end 3.125 -2.56) (layer F.SilkS) (width 0.12))
  (fp_line (start -2.56 3.125) (end -3.125 3.125) (layer F.SilkS) (width 0.12))
  (fp_line (start -3.125 3.125) (end -3.125 2.56) (layer F.SilkS) (width 0.12))
  (fp_line (start 2.56 3.125) (end 3.125 3.125) (layer F.SilkS) (width 0.12))
  (fp_line (start 3.125 3.125) (end 3.125 2.56) (layer F.SilkS) (width 0.12))
  (fp_line (start -3.125 -3.125) (end -2.56 -3.125) (layer F.SilkS) (width 0.12))
  (pad 1 smd rect (at -2.925 -2.2) (size 0.65 0.2) (layers F.Cu F.Paste F.Mask))
  (pad 2 smd rect (at -2.925 -1.8) (size 0.65 0.2) (layers F.Cu F.Paste F.Mask))
  (pad 3 smd rect (at -2.925 -1.4) (size 0.65 0.2) (layers F.Cu F.Paste F.Mask))
  (pad 4 smd rect (at -2.925 -1) (size 0.65 0.2) (layers F.Cu F.Paste F.Mask))
  (pad 5 smd rect (at -2.925 -0.6) (size 0.65 0.2) (layers F.Cu F.Paste F.Mask))
  (pad 6 smd rect (at -2.925 -0.2) (size 0.65 0.2) (layers F.Cu F.Paste F.Mask))
  (pad 7 smd rect (at -2.925 0.2) (size 0.65 0.2) (layers F.Cu F.Paste F.Mask))
  (pad 8 smd rect (at -2.925 0.6) (size 0.65 0.2) (layers F.Cu F.Paste F.Mask))
  (pad 9 smd rect (at -2.925 1) (size 0.65 0.2) (layers F.Cu F.Paste F.Mask))
  (pad 10 smd rect (at -2.925 1.4) (size 0.65 0.2) (layers F.Cu F.Paste F.Mask))
  (pad 11 smd rect (at -2.925 1.8) (size 0.65 0.2) (layers F.Cu F.Paste F.Mask))
  (pad 12 smd rect (at -2.925 2.2) (size 0.65 0.2) (layers F.Cu F.Paste F.Mask))
  (pad 13 smd rect (at -2.2 2.925 90) (size 0.65 0.2) (layers F.Cu F.Paste F.Mask))
  (pad 14 smd rect (at -1.8 2.925 90) (size 0.65 0.2) (layers F.Cu F.Paste F.Mask))
  (pad 15 smd rect (at -1.4 2.925 90) (size 0.65 0.2) (layers F.Cu F.Paste F.Mask))
  (pad 16 smd rect (at -1 2.925 90) (size 0.65 0.2) (layers F.Cu F.Paste F.Mask))
  (pad 17 smd rect (at -0.6 2.925 90) (size 0.65 0.2) (layers F.Cu F.Paste F.Mask))
  (pad 18 smd rect (at -0.2 2.925 90) (size 0.65 0.2) (layers F.Cu F.Paste F.Mask))
  (pad 19 smd rect (at 0.2 2.925 90) (size 0.65 0.2) (layers F.Cu F.Paste F.Mask))
  (pad 20 smd rect (at 0.6 2.925 90) (size 0.65 0.2) (layers F.Cu F.Paste F.Mask))
  (pad 21 smd rect (at 1 2.925 90) (size 0.65 0.2) (layers F.Cu F.Paste F.Mask))
  (pad 22 smd rect (at 1.4 2.925 90) (size 0.65 0.2) (layers F.Cu F.Paste F.Mask))
  (pad 23 smd rect (at 1.8 2.925 90) (size 0.65 0.2) (layers F.Cu F.Paste F.Mask))
  (pad 24 smd rect (at 2.2 2.925 90) (size 0.65 0.2) (layers F.Cu F.Paste F.Mask))
  (pad 25 smd rect (at 2.925 2.2) (size 0.65 0.2) (layers F.Cu F.Paste F.Mask))
  (pad 26 smd rect (at 2.925 1.8) (size 0.65 0.2) (layers F.Cu F.Paste F.Mask))
  (pad 27 smd rect (at 2.925 1.4) (size 0.65 0.2) (layers F.Cu F.Paste F.Mask))
  (pad 28 smd rect (at 2.925 1) (size 0.65 0.2) (layers F.Cu F.Paste F.Mask))
  (pad 29 smd rect (at 2.925 0.6) (size 0.65 0.2) (layers F.Cu F.Paste F.Mask))
  (pad 30 smd rect (at 2.925 0.2) (size 0.65 0.2) (layers F.Cu F.Paste F.Mask))
  (pad 31 smd rect (at 2.925 -0.2) (size 0.65 0.2) (layers F.Cu F.Paste F.Mask))
  (pad 32 smd rect (at 2.925 -0.6) (size 0.65 0.2) (layers F.Cu F.Paste F.Mask))
  (pad 33 smd rect (at 2.925 -1) (size 0.65 0.2) (layers F.Cu F.Paste F.Mask))
  (pad 34 smd rect (at 2.925 -1.4) (size 0.65 0.2) (layers F.Cu F.Paste F.Mask))
  (pad 35 smd rect (at 2.925 -1.8) (size 0.65 0.2) (layers F.Cu F.Paste F.Mask))
  (pad 36 smd rect (at 2.925 -2.2) (size 0.65 0.2) (layers F.Cu F.Paste F.Mask))
  (pad 37 smd rect (at 2.2 -2.925 90) (size 0.65 0.2) (layers F.Cu F.Paste F.Mask))
  (pad 38 smd rect (at 1.8 -2.925 90) (size 0.65 0.2) (layers F.Cu F.Paste F.Mask))
  (pad 39 smd rect (at 1.4 -2.925 90) (size 0.65 0.2) (layers F.Cu F.Paste F.Mask))
  (pad 40 smd rect (at 1 -2.925 90) (size 0.65 0.2) (layers F.Cu F.Paste F.Mask))
  (pad 41 smd rect (at 0.6 -2.925 90) (size 0.65 0.2) (layers F.Cu F.Paste F.Mask))
  (pad 42 smd rect (at 0.2 -2.925 90) (size 0.65 0.2) (layers F.Cu F.Paste F.Mask))
  (pad 43 smd rect (at -0.2 -2.925 90) (size 0.65 0.2) (layers F.Cu F.Paste F.Mask))
  (pad 44 smd rect (at -0.6 -2.925 90) (size 0.65 0.2) (layers F.Cu F.Paste F.Mask))
  (pad 45 smd rect (at -1 -2.925 90) (size 0.65 0.2) (layers F.Cu F.Paste F.Mask))
  (pad 46 smd rect (at -1.4 -2.925 90) (size 0.65 0.2) (layers F.Cu F.Paste F.Mask))
  (pad 47 smd rect (at -1.8 -2.925 90) (size 0.65 0.2) (layers F.Cu F.Paste F.Mask))
  (pad 48 smd rect (at -2.2 -2.925 90) (size 0.65 0.2) (layers F.Cu F.Paste F.Mask))
  (pad 49 smd rect (at 0 0) (size 5.4 5.4) (layers B.Cu))
  (pad 49 smd rect (at 0 0) (size 4.4 4.4) (layers F.Cu F.Mask))
  (pad "" smd rect (at -1.466667 -1.466667) (size 1.08 1.08) (layers F.Paste))
  (pad "" smd rect (at -1.466667 0) (size 1.08 1.08) (layers F.Paste))
  (pad "" smd rect (at -1.466667 1.466667) (size 1.08 1.08) (layers F.Paste))
  (pad "" smd rect (at 0 -1.466667) (size 1.08 1.08) (layers F.Paste))
  (pad "" smd rect (at 0 0) (size 1.08 1.08) (layers F.Paste))
  (pad "" smd rect (at 0 1.466667) (size 1.08 1.08) (layers F.Paste))
  (pad "" smd rect (at 1.466667 -1.466667) (size 1.08 1.08) (layers F.Paste))
  (pad "" smd rect (at 1.466667 0) (size 1.08 1.08) (layers F.Paste))
  (pad "" smd rect (at 1.466667 1.466667) (size 1.08 1.08) (layers F.Paste))
  (pad 49 thru_hole circle (at -1.466667 -0.733333) (size 0.6 0.6) (drill 0.3) (layers *.Cu))
  (pad 49 thru_hole circle (at -1.466667 0.733333) (size 0.6 0.6) (drill 0.3) (layers *.Cu))
  (pad 49 thru_hole circle (at -0.733333 -1.466667) (size 0.6 0.6) (drill 0.3) (layers *.Cu))
  (pad 49 thru_hole circle (at -0.733333 -0.733333) (size 0.6 0.6) (drill 0.3) (layers *.Cu))
  (pad 49 thru_hole circle (at -0.733333 0) (size 0.6 0.6) (drill 0.3) (layers *.Cu))
  (pad 49 thru_hole circle (at -0.733333 0.733333) (size 0.6 0.6) (drill 0.3) (layers *.Cu))
  (pad 49 thru_hole circle (at -0.733333 1.466667) (size 0.6 0.6) (drill 0.3) (layers *.Cu))
  (pad 49 thru_hole circle (at 0 -0.733333) (size 0.6 0.6) (drill 0.3) (layers *.Cu))
  (pad 49 thru_hole circle (at 0 0.733333) (size 0.6 0.6) (drill 0.3) (layers *.Cu))
  (pad 49 thru_hole circle (at 0.733333 -1.466667) (size 0.6 0.6) (drill 0.3) (layers *.Cu))
  (pad 49 thru_hole circle (at 0.733333 -0.733333) (size 0.6 0.6) (drill 0.3) (layers *.Cu))
  (pad 49 thru_hole circle (at 0.733333 0) (size 0.6 0.6) (drill 0.3) (layers *.Cu))
  (pad 49 thru_hole circle (at 0.733333 0.733333) (size 0.6 0.6) (drill 0.3) (layers *.Cu))
  (pad 49 thru_hole circle (at 0.733333 1.466667) (size 0.6 0.6) (drill 0.3) (layers *.Cu))
  (pad 49 thru_hole circle (at 1.466667 -0.733333) (size 0.6 0.6) (drill 0.3) (layers *.Cu))
  (pad 49 thru_hole circle (at 1.466667 0.733333) (size 0.6 0.6) (drill 0.3) (layers *.Cu))
  (model ${KIPRJMOD}/kicad_libs_k/models_k.3d/Package_DFN_QFN_k.3dshapes/QFN-48-1EP_6x6mm_Pitch0.4mm_EP4.66x4.66mm_k.wrl
    (at (xyz 0 0 0))
    (scale (xyz 1 1 1))
    (rotate (xyz 0 0 0))
  )
)
