(module ST_UQFN-6L_1.5x1.7mm_Pitch0.5mm (layer F.Cu) (tedit 5A9979BA)
  (descr "ST UQFN 6 pin 0.5mm Pitch http://www.st.com/resource/en/datasheet/ecmf02-2amx6.pdf")
  (tags "UQFN DFN 0.5 ST")
  (solder_paste_ratio -0.1)
  (attr smd)
  (fp_text reference REF** (at 0 -2) (layer F.SilkS)
    (effects (font (size 1 1) (thickness 0.15)))
  )
  (fp_text value ST_UQFN-6L_1.5x1.7mm_Pitch0.5mm (at 0 2) (layer F.Fab)
    (effects (font (size 1 1) (thickness 0.15)))
  )
  (fp_text user %R (at 0 0 90) (layer F.Fab)
    (effects (font (size 0.38 0.38) (thickness 0.057)))
  )
  (fp_line (start 1.2 0.88) (end 1.2 -0.88) (layer F.CrtYd) (width 0.05))
  (fp_line (start 1 0.88) (end 1.2 0.88) (layer F.CrtYd) (width 0.05))
  (fp_line (start 1 1.1) (end 1 0.88) (layer F.CrtYd) (width 0.05))
  (fp_line (start 0.7 -0.91) (end -0.89 -0.91) (layer F.SilkS) (width 0.12))
  (fp_line (start -0.375 -0.85) (end -0.75 -0.475) (layer F.Fab) (width 0.1))
  (fp_line (start -0.75 0.85) (end -0.75 -0.475) (layer F.Fab) (width 0.1))
  (fp_line (start 0.75 -0.85) (end -0.375 -0.85) (layer F.Fab) (width 0.1))
  (fp_line (start 1 1.1) (end -1 1.1) (layer F.CrtYd) (width 0.05))
  (fp_line (start 0.75 -0.85) (end 0.75 0.85) (layer F.Fab) (width 0.1))
  (fp_line (start 0.7 0.91) (end -0.7 0.91) (layer F.SilkS) (width 0.12))
  (fp_line (start 0.75 0.85) (end -0.75 0.85) (layer F.Fab) (width 0.1))
  (fp_line (start 1 -0.88) (end 1.2 -0.88) (layer F.CrtYd) (width 0.05))
  (fp_line (start 1 -1.1) (end 1 -0.88) (layer F.CrtYd) (width 0.05))
  (fp_line (start 1 -1.1) (end -1 -1.1) (layer F.CrtYd) (width 0.05))
  (fp_line (start -1 -1.1) (end -1 -0.88) (layer F.CrtYd) (width 0.05))
  (fp_line (start -1 -0.88) (end -1.2 -0.88) (layer F.CrtYd) (width 0.05))
  (fp_line (start -1 1.1) (end -1 0.88) (layer F.CrtYd) (width 0.05))
  (fp_line (start -1 0.88) (end -1.2 0.88) (layer F.CrtYd) (width 0.05))
  (fp_line (start -1.2 0.88) (end -1.2 -0.88) (layer F.CrtYd) (width 0.05))
  (pad 2 smd rect (at -0.65 0) (size 0.6 0.25) (layers F.Cu F.Paste F.Mask))
  (pad 1 smd rect (at -0.65 -0.5) (size 0.6 0.25) (layers F.Cu F.Paste F.Mask))
  (pad 3 smd rect (at -0.65 0.5) (size 0.6 0.25) (layers F.Cu F.Paste F.Mask))
  (pad 5 smd rect (at 0.65 0) (size 0.6 0.25) (layers F.Cu F.Paste F.Mask))
  (pad 6 smd rect (at 0.65 -0.5) (size 0.6 0.25) (layers F.Cu F.Paste F.Mask))
  (pad 4 smd rect (at 0.65 0.5) (size 0.6 0.25) (layers F.Cu F.Paste F.Mask))
  (model ${KIPRJMOD}/kicad_libs_k/models_k.3d/Package_DFN_QFN_k.3dshapes/ST_UQFN-6L_1.5x1.7mm_Pitch0.5mm_k.wrl
    (at (xyz 0 0 0))
    (scale (xyz 1 1 1))
    (rotate (xyz 0 0 0))
  )
)
