(module Texas_S-PWQFN-N20 (layer F.Cu) (tedit 5B098D2B)
  (descr "20-Pin Plastic Quad Flatpack No-Lead Package, Body 3.0x3.0x0.8mm, Texas Instruments (http://www.ti.com/lit/ds/symlink/tps22993.pdf)")
  (tags "QFN 0.4")
  (attr smd)
  (fp_text reference REF** (at 0 -2.7) (layer F.SilkS)
    (effects (font (size 1 1) (thickness 0.15)))
  )
  (fp_text value Texas_S-PWQFN-N20 (at 0 2.7) (layer F.Fab)
    (effects (font (size 1 1) (thickness 0.15)))
  )
  (fp_text user %R (at 0 0) (layer F.Fab)
    (effects (font (size 0.5 0.5) (thickness 0.075)))
  )
  (fp_line (start -0.75 -1.5) (end -1.5 -0.75) (layer F.Fab) (width 0.1))
  (fp_line (start -1.5 -0.75) (end -1.5 1.5) (layer F.Fab) (width 0.1))
  (fp_line (start -1.5 1.5) (end 1.5 1.5) (layer F.Fab) (width 0.1))
  (fp_line (start 1.5 1.5) (end 1.5 -1.5) (layer F.Fab) (width 0.1))
  (fp_line (start 1.5 -1.5) (end -0.75 -1.5) (layer F.Fab) (width 0.1))
  (fp_line (start 1.15 -1.65) (end 1.65 -1.65) (layer F.SilkS) (width 0.12))
  (fp_line (start 1.65 -1.65) (end 1.65 -1.15) (layer F.SilkS) (width 0.12))
  (fp_line (start 1.15 1.65) (end 1.65 1.65) (layer F.SilkS) (width 0.12))
  (fp_line (start 1.65 1.65) (end 1.65 1.15) (layer F.SilkS) (width 0.12))
  (fp_line (start -1.15 1.65) (end -1.65 1.65) (layer F.SilkS) (width 0.12))
  (fp_line (start -1.65 1.65) (end -1.65 1.15) (layer F.SilkS) (width 0.12))
  (fp_line (start -1.15 -1.65) (end -1.65 -1.65) (layer F.SilkS) (width 0.12))
  (fp_line (start -1.95 -1.95) (end 1.95 -1.95) (layer F.CrtYd) (width 0.05))
  (fp_line (start 1.95 -1.95) (end 1.95 1.95) (layer F.CrtYd) (width 0.05))
  (fp_line (start 1.95 1.95) (end -1.95 1.95) (layer F.CrtYd) (width 0.05))
  (fp_line (start -1.95 1.95) (end -1.95 -1.95) (layer F.CrtYd) (width 0.05))
  (pad 1 smd oval (at -1.4 -0.8 90) (size 0.2 0.6) (layers F.Cu F.Paste F.Mask))
  (pad 2 smd oval (at -1.4 -0.4 90) (size 0.2 0.6) (layers F.Cu F.Paste F.Mask))
  (pad 3 smd oval (at -1.4 0 90) (size 0.2 0.6) (layers F.Cu F.Paste F.Mask))
  (pad 4 smd oval (at -1.4 0.4 90) (size 0.2 0.6) (layers F.Cu F.Paste F.Mask))
  (pad 5 smd oval (at -1.4 0.8 90) (size 0.2 0.6) (layers F.Cu F.Paste F.Mask))
  (pad 6 smd oval (at -0.8 1.4) (size 0.2 0.6) (layers F.Cu F.Paste F.Mask))
  (pad 7 smd oval (at -0.4 1.4) (size 0.2 0.6) (layers F.Cu F.Paste F.Mask))
  (pad 8 smd oval (at 0 1.4) (size 0.2 0.6) (layers F.Cu F.Paste F.Mask))
  (pad 9 smd oval (at 0.4 1.4) (size 0.2 0.6) (layers F.Cu F.Paste F.Mask))
  (pad 10 smd oval (at 0.8 1.4) (size 0.2 0.6) (layers F.Cu F.Paste F.Mask))
  (pad 11 smd oval (at 1.4 0.8 90) (size 0.2 0.6) (layers F.Cu F.Paste F.Mask))
  (pad 12 smd oval (at 1.4 0.4 90) (size 0.2 0.6) (layers F.Cu F.Paste F.Mask))
  (pad 13 smd oval (at 1.4 0 90) (size 0.2 0.6) (layers F.Cu F.Paste F.Mask))
  (pad 14 smd oval (at 1.4 -0.4 90) (size 0.2 0.6) (layers F.Cu F.Paste F.Mask))
  (pad 15 smd oval (at 1.4 -0.8 90) (size 0.2 0.6) (layers F.Cu F.Paste F.Mask))
  (pad 16 smd oval (at 0.8 -1.4) (size 0.2 0.6) (layers F.Cu F.Paste F.Mask))
  (pad 17 smd oval (at 0.4 -1.4) (size 0.2 0.6) (layers F.Cu F.Paste F.Mask))
  (pad 18 smd oval (at 0 -1.4) (size 0.2 0.6) (layers F.Cu F.Paste F.Mask))
  (pad 19 smd oval (at -0.4 -1.4) (size 0.2 0.6) (layers F.Cu F.Paste F.Mask))
  (pad 20 smd oval (at -0.8 -1.4) (size 0.2 0.6) (layers F.Cu F.Paste F.Mask))
  (pad "" smd rect (at -1.2875 -1.2875) (size 0.25 0.25) (layers F.Cu F.Paste F.Mask))
  (pad "" smd rect (at -1.2875 1.2875) (size 0.25 0.25) (layers F.Cu F.Paste F.Mask))
  (pad "" smd rect (at 1.2875 -1.2875) (size 0.25 0.25) (layers F.Cu F.Paste F.Mask))
  (pad "" smd rect (at 1.2875 1.2875) (size 0.25 0.25) (layers F.Cu F.Paste F.Mask))
  (model ${KIPRJMOD}/kicad_libs_k/models_k.3d/Package_DFN_QFN_k.3dshapes/Texas_S-PWQFN-N20_k.wrl
    (at (xyz 0 0 0))
    (scale (xyz 1 1 1))
    (rotate (xyz 0 0 0))
  )
)
