(module Texas_S-PWSON-N6_ThermalVias (layer F.Cu) (tedit 5A607EE0)
  (descr "6-Lead Plastic Dual Flat 2x2mm S-PWSON-N6 DFN Texas Instruments http://www.ti.com/lit/ds/symlink/tps717.pdf")
  (tags "DFN 0.65 S-PWSON-N6 Texas 2x2mm")
  (solder_mask_margin 0.07)
  (attr smd)
  (fp_text reference REF** (at 0 -2.025) (layer F.SilkS)
    (effects (font (size 1 1) (thickness 0.15)))
  )
  (fp_text value Texas_S-PWSON-N6_ThermalVias (at 0 2.025) (layer F.Fab)
    (effects (font (size 1 1) (thickness 0.15)))
  )
  (fp_line (start -1.06 -0.93) (end -1.34 -0.93) (layer F.SilkS) (width 0.12))
  (fp_line (start 1.06 1.06) (end 1.06 0.93) (layer F.SilkS) (width 0.12))
  (fp_text user %R (at 0 0) (layer F.Fab)
    (effects (font (size 0.4 0.4) (thickness 0.06)))
  )
  (fp_line (start -0.5 -1) (end 1 -1) (layer F.Fab) (width 0.1))
  (fp_line (start 1 -1) (end 1 1) (layer F.Fab) (width 0.1))
  (fp_line (start 1 1) (end -1 1) (layer F.Fab) (width 0.1))
  (fp_line (start -1 1) (end -1 -0.5) (layer F.Fab) (width 0.1))
  (fp_line (start -0.5 -1) (end -1 -0.5) (layer F.Fab) (width 0.1))
  (fp_line (start -1.65 -1.25) (end -1.65 1.25) (layer F.CrtYd) (width 0.05))
  (fp_line (start 1.65 -1.25) (end 1.65 1.25) (layer F.CrtYd) (width 0.05))
  (fp_line (start -1.65 -1.25) (end 1.65 -1.25) (layer F.CrtYd) (width 0.05))
  (fp_line (start -1.65 1.25) (end 1.65 1.25) (layer F.CrtYd) (width 0.05))
  (fp_line (start -1.06 1.06) (end 1.06 1.06) (layer F.SilkS) (width 0.12))
  (fp_line (start -1.06 1.06) (end -1.06 0.93) (layer F.SilkS) (width 0.12))
  (fp_line (start -1.06 -1.06) (end 1.06 -1.06) (layer F.SilkS) (width 0.12))
  (fp_line (start 1.06 -1.06) (end 1.06 -0.93) (layer F.SilkS) (width 0.12))
  (fp_line (start -1.06 -1.06) (end -1.06 -0.93) (layer F.SilkS) (width 0.12))
  (pad 1 smd rect (at -1.05 -0.65) (size 0.7 0.3) (layers F.Cu F.Paste F.Mask))
  (pad 2 smd rect (at -1.05 0) (size 0.7 0.3) (layers F.Cu F.Paste F.Mask))
  (pad 3 smd rect (at -1.05 0.65) (size 0.7 0.3) (layers F.Cu F.Paste F.Mask))
  (pad 4 smd rect (at 1.05 0.65) (size 0.7 0.3) (layers F.Cu F.Paste F.Mask))
  (pad 5 smd rect (at 1.05 0) (size 0.7 0.3) (layers F.Cu F.Paste F.Mask))
  (pad 6 smd rect (at 1.05 -0.65) (size 0.7 0.3) (layers F.Cu F.Paste F.Mask))
  (pad 7 smd rect (at 0 0) (size 1 1.6) (layers F.Cu F.Mask))
  (pad "" smd rect (at 0 0) (size 0.8 1.4) (layers F.Paste))
  (pad 7 thru_hole circle (at 0 -0.4) (size 0.6 0.6) (drill 0.25) (layers *.Cu))
  (pad 7 thru_hole circle (at 0 0.4) (size 0.6 0.6) (drill 0.25) (layers *.Cu))
  (pad 7 smd rect (at 0 0) (size 0.7 1.5) (layers B.Cu))
  (model ${KIPRJMOD}/kicad_libs_k/models_k.3d/Package_DFN_QFN_k.3dshapes/Texas_S-PWSON-N6_k.wrl
    (at (xyz 0 0 0))
    (scale (xyz 1 1 1))
    (rotate (xyz 0 0 0))
  )
)
