(module Texas_S-PVQFN-N40_EP2.9x2.9mm_ThermalVias (layer F.Cu) (tedit 5A1DE60D)
  (descr "40-Pin Plastic Quad Flatpack No-Lead Package, Body 6.0x6.0x0.9mm, Pad 2.9x2.9mm, Texas Instruments (see http://www.ti.com/lit/ds/symlink/msp430fr5731.pdf)")
  (tags "RHA QFN 0.5mm")
  (solder_mask_margin 0.07)
  (attr smd)
  (fp_text reference REF** (at 0 -4.5) (layer F.SilkS)
    (effects (font (size 1 1) (thickness 0.15)))
  )
  (fp_text value Texas_S-PVQFN-N40_EP2.9x2.9mm_ThermalVias (at 0 4.5) (layer F.Fab)
    (effects (font (size 1 1) (thickness 0.15)))
  )
  (fp_line (start -3.135 2.59) (end -3.135 3.135) (layer F.SilkS) (width 0.12))
  (fp_line (start -3.135 3.135) (end -2.59 3.135) (layer F.SilkS) (width 0.12))
  (fp_line (start 3.135 2.59) (end 3.135 3.135) (layer F.SilkS) (width 0.12))
  (fp_line (start 3.135 3.135) (end 2.59 3.135) (layer F.SilkS) (width 0.12))
  (fp_line (start 3.135 -2.59) (end 3.135 -3.135) (layer F.SilkS) (width 0.12))
  (fp_line (start 3.135 -3.135) (end 2.59 -3.135) (layer F.SilkS) (width 0.12))
  (fp_line (start -3.135 -3.135) (end -2.59 -3.135) (layer F.SilkS) (width 0.12))
  (fp_line (start -2 -3) (end -3 -2) (layer F.Fab) (width 0.1))
  (fp_line (start -3 -2) (end -3 3) (layer F.Fab) (width 0.1))
  (fp_line (start -3 3) (end 3 3) (layer F.Fab) (width 0.1))
  (fp_line (start 3 3) (end 3 -3) (layer F.Fab) (width 0.1))
  (fp_line (start 3 -3) (end -2 -3) (layer F.Fab) (width 0.1))
  (fp_line (start -3.65 -3.65) (end -3.65 3.65) (layer F.CrtYd) (width 0.05))
  (fp_line (start -3.65 3.65) (end 3.65 3.65) (layer F.CrtYd) (width 0.05))
  (fp_line (start 3.65 3.65) (end 3.65 -3.65) (layer F.CrtYd) (width 0.05))
  (fp_line (start 3.65 -3.65) (end -3.65 -3.65) (layer F.CrtYd) (width 0.05))
  (fp_text user %R (at 0 0) (layer F.Fab)
    (effects (font (size 1 1) (thickness 0.15)))
  )
  (pad 1 smd rect (at -3.045 -2.25) (size 0.71 0.28) (layers F.Cu F.Paste F.Mask))
  (pad 1 smd circle (at -2.69 -2.25) (size 0.28 0.28) (layers F.Cu F.Paste F.Mask))
  (pad 2 smd rect (at -3.045 -1.75) (size 0.71 0.28) (layers F.Cu F.Paste F.Mask))
  (pad 2 smd circle (at -2.69 -1.75) (size 0.28 0.28) (layers F.Cu F.Paste F.Mask))
  (pad 3 smd rect (at -3.045 -1.25) (size 0.71 0.28) (layers F.Cu F.Paste F.Mask))
  (pad 3 smd circle (at -2.69 -1.25) (size 0.28 0.28) (layers F.Cu F.Paste F.Mask))
  (pad 4 smd rect (at -3.045 -0.75) (size 0.71 0.28) (layers F.Cu F.Paste F.Mask))
  (pad 4 smd circle (at -2.69 -0.75) (size 0.28 0.28) (layers F.Cu F.Paste F.Mask))
  (pad 5 smd rect (at -3.045 -0.25) (size 0.71 0.28) (layers F.Cu F.Paste F.Mask))
  (pad 5 smd circle (at -2.69 -0.25) (size 0.28 0.28) (layers F.Cu F.Paste F.Mask))
  (pad 6 smd rect (at -3.045 0.25) (size 0.71 0.28) (layers F.Cu F.Paste F.Mask))
  (pad 6 smd circle (at -2.69 0.25) (size 0.28 0.28) (layers F.Cu F.Paste F.Mask))
  (pad 7 smd rect (at -3.045 0.75) (size 0.71 0.28) (layers F.Cu F.Paste F.Mask))
  (pad 7 smd circle (at -2.69 0.75) (size 0.28 0.28) (layers F.Cu F.Paste F.Mask))
  (pad 8 smd rect (at -3.045 1.25) (size 0.71 0.28) (layers F.Cu F.Paste F.Mask))
  (pad 8 smd circle (at -2.69 1.25) (size 0.28 0.28) (layers F.Cu F.Paste F.Mask))
  (pad 9 smd rect (at -3.045 1.75) (size 0.71 0.28) (layers F.Cu F.Paste F.Mask))
  (pad 9 smd circle (at -2.69 1.75) (size 0.28 0.28) (layers F.Cu F.Paste F.Mask))
  (pad 10 smd rect (at -3.045 2.25) (size 0.71 0.28) (layers F.Cu F.Paste F.Mask))
  (pad 10 smd circle (at -2.69 2.25) (size 0.28 0.28) (layers F.Cu F.Paste F.Mask))
  (pad 11 smd rect (at -2.25 3.045) (size 0.28 0.71) (layers F.Cu F.Paste F.Mask))
  (pad 11 smd circle (at -2.25 2.69) (size 0.28 0.28) (layers F.Cu F.Paste F.Mask))
  (pad 12 smd rect (at -1.75 3.045) (size 0.28 0.71) (layers F.Cu F.Paste F.Mask))
  (pad 12 smd circle (at -1.75 2.69) (size 0.28 0.28) (layers F.Cu F.Paste F.Mask))
  (pad 13 smd rect (at -1.25 3.045) (size 0.28 0.71) (layers F.Cu F.Paste F.Mask))
  (pad 13 smd circle (at -1.25 2.69) (size 0.28 0.28) (layers F.Cu F.Paste F.Mask))
  (pad 14 smd rect (at -0.75 3.045) (size 0.28 0.71) (layers F.Cu F.Paste F.Mask))
  (pad 14 smd circle (at -0.75 2.69) (size 0.28 0.28) (layers F.Cu F.Paste F.Mask))
  (pad 15 smd rect (at -0.25 3.045) (size 0.28 0.71) (layers F.Cu F.Paste F.Mask))
  (pad 15 smd circle (at -0.25 2.69) (size 0.28 0.28) (layers F.Cu F.Paste F.Mask))
  (pad 16 smd rect (at 0.25 3.045) (size 0.28 0.71) (layers F.Cu F.Paste F.Mask))
  (pad 16 smd circle (at 0.25 2.69) (size 0.28 0.28) (layers F.Cu F.Paste F.Mask))
  (pad 17 smd rect (at 0.75 3.045) (size 0.28 0.71) (layers F.Cu F.Paste F.Mask))
  (pad 17 smd circle (at 0.75 2.69) (size 0.28 0.28) (layers F.Cu F.Paste F.Mask))
  (pad 18 smd rect (at 1.25 3.045) (size 0.28 0.71) (layers F.Cu F.Paste F.Mask))
  (pad 18 smd circle (at 1.25 2.69) (size 0.28 0.28) (layers F.Cu F.Paste F.Mask))
  (pad 19 smd rect (at 1.75 3.045) (size 0.28 0.71) (layers F.Cu F.Paste F.Mask))
  (pad 19 smd circle (at 1.75 2.69) (size 0.28 0.28) (layers F.Cu F.Paste F.Mask))
  (pad 20 smd rect (at 2.25 3.045) (size 0.28 0.71) (layers F.Cu F.Paste F.Mask))
  (pad 20 smd circle (at 2.25 2.69) (size 0.28 0.28) (layers F.Cu F.Paste F.Mask))
  (pad 21 smd rect (at 3.045 2.25) (size 0.71 0.28) (layers F.Cu F.Paste F.Mask))
  (pad 21 smd circle (at 2.69 2.25) (size 0.28 0.28) (layers F.Cu F.Paste F.Mask))
  (pad 22 smd rect (at 3.045 1.75) (size 0.71 0.28) (layers F.Cu F.Paste F.Mask))
  (pad 22 smd circle (at 2.69 1.75) (size 0.28 0.28) (layers F.Cu F.Paste F.Mask))
  (pad 23 smd rect (at 3.045 1.25) (size 0.71 0.28) (layers F.Cu F.Paste F.Mask))
  (pad 23 smd circle (at 2.69 1.25) (size 0.28 0.28) (layers F.Cu F.Paste F.Mask))
  (pad 24 smd rect (at 3.045 0.75) (size 0.71 0.28) (layers F.Cu F.Paste F.Mask))
  (pad 24 smd circle (at 2.69 0.75) (size 0.28 0.28) (layers F.Cu F.Paste F.Mask))
  (pad 25 smd rect (at 3.045 0.25) (size 0.71 0.28) (layers F.Cu F.Paste F.Mask))
  (pad 25 smd circle (at 2.69 0.25) (size 0.28 0.28) (layers F.Cu F.Paste F.Mask))
  (pad 26 smd rect (at 3.045 -0.25) (size 0.71 0.28) (layers F.Cu F.Paste F.Mask))
  (pad 26 smd circle (at 2.69 -0.25) (size 0.28 0.28) (layers F.Cu F.Paste F.Mask))
  (pad 27 smd rect (at 3.045 -0.75) (size 0.71 0.28) (layers F.Cu F.Paste F.Mask))
  (pad 27 smd circle (at 2.69 -0.75) (size 0.28 0.28) (layers F.Cu F.Paste F.Mask))
  (pad 28 smd rect (at 3.045 -1.25) (size 0.71 0.28) (layers F.Cu F.Paste F.Mask))
  (pad 28 smd circle (at 2.69 -1.25) (size 0.28 0.28) (layers F.Cu F.Paste F.Mask))
  (pad 29 smd rect (at 3.045 -1.75) (size 0.71 0.28) (layers F.Cu F.Paste F.Mask))
  (pad 29 smd circle (at 2.69 -1.75) (size 0.28 0.28) (layers F.Cu F.Paste F.Mask))
  (pad 30 smd rect (at 3.045 -2.25) (size 0.71 0.28) (layers F.Cu F.Paste F.Mask))
  (pad 30 smd circle (at 2.69 -2.25) (size 0.28 0.28) (layers F.Cu F.Paste F.Mask))
  (pad 31 smd rect (at 2.25 -3.045) (size 0.28 0.71) (layers F.Cu F.Paste F.Mask))
  (pad 31 smd circle (at 2.25 -2.69) (size 0.28 0.28) (layers F.Cu F.Paste F.Mask))
  (pad 32 smd rect (at 1.75 -3.045) (size 0.28 0.71) (layers F.Cu F.Paste F.Mask))
  (pad 32 smd circle (at 1.75 -2.69) (size 0.28 0.28) (layers F.Cu F.Paste F.Mask))
  (pad 33 smd rect (at 1.25 -3.045) (size 0.28 0.71) (layers F.Cu F.Paste F.Mask))
  (pad 33 smd circle (at 1.25 -2.69) (size 0.28 0.28) (layers F.Cu F.Paste F.Mask))
  (pad 34 smd rect (at 0.75 -3.045) (size 0.28 0.71) (layers F.Cu F.Paste F.Mask))
  (pad 34 smd circle (at 0.75 -2.69) (size 0.28 0.28) (layers F.Cu F.Paste F.Mask))
  (pad 35 smd rect (at 0.25 -3.045) (size 0.28 0.71) (layers F.Cu F.Paste F.Mask))
  (pad 35 smd circle (at 0.25 -2.69) (size 0.28 0.28) (layers F.Cu F.Paste F.Mask))
  (pad 36 smd rect (at -0.25 -3.045) (size 0.28 0.71) (layers F.Cu F.Paste F.Mask))
  (pad 36 smd circle (at -0.25 -2.69) (size 0.28 0.28) (layers F.Cu F.Paste F.Mask))
  (pad 37 smd rect (at -0.75 -3.045) (size 0.28 0.71) (layers F.Cu F.Paste F.Mask))
  (pad 37 smd circle (at -0.75 -2.69) (size 0.28 0.28) (layers F.Cu F.Paste F.Mask))
  (pad 38 smd rect (at -1.25 -3.045) (size 0.28 0.71) (layers F.Cu F.Paste F.Mask))
  (pad 38 smd circle (at -1.25 -2.69) (size 0.28 0.28) (layers F.Cu F.Paste F.Mask))
  (pad 39 smd rect (at -1.75 -3.045) (size 0.28 0.71) (layers F.Cu F.Paste F.Mask))
  (pad 39 smd circle (at -1.75 -2.69) (size 0.28 0.28) (layers F.Cu F.Paste F.Mask))
  (pad 40 smd rect (at -2.25 -3.045) (size 0.28 0.71) (layers F.Cu F.Paste F.Mask))
  (pad 40 smd circle (at -2.25 -2.69) (size 0.28 0.28) (layers F.Cu F.Paste F.Mask))
  (pad 41 smd rect (at 0 0) (size 2.9 2.9) (layers F.Cu F.Mask))
  (pad 41 smd rect (at 0 0) (size 2.9 2.9) (layers B.Cu))
  (pad "" smd rect (at -0.75 -0.75) (size 1.2 1.2) (layers F.Paste))
  (pad "" smd rect (at -0.75 0.75) (size 1.2 1.2) (layers F.Paste))
  (pad "" smd rect (at 0.75 -0.75) (size 1.2 1.2) (layers F.Paste))
  (pad "" smd rect (at 0.75 0.75) (size 1.2 1.2) (layers F.Paste))
  (pad 41 thru_hole circle (at -1 -1) (size 0.6 0.6) (drill 0.3) (layers *.Cu))
  (pad 41 thru_hole circle (at 0 -1) (size 0.6 0.6) (drill 0.3) (layers *.Cu))
  (pad 41 thru_hole circle (at 1 -1) (size 0.6 0.6) (drill 0.3) (layers *.Cu))
  (pad 41 thru_hole circle (at -1 0) (size 0.6 0.6) (drill 0.3) (layers *.Cu))
  (pad 41 thru_hole circle (at 0 0) (size 0.6 0.6) (drill 0.3) (layers *.Cu))
  (pad 41 thru_hole circle (at 1 0) (size 0.6 0.6) (drill 0.3) (layers *.Cu))
  (pad 41 thru_hole circle (at -1 1) (size 0.6 0.6) (drill 0.3) (layers *.Cu))
  (pad 41 thru_hole circle (at 0 1) (size 0.6 0.6) (drill 0.3) (layers *.Cu))
  (pad 41 thru_hole circle (at 1 1) (size 0.6 0.6) (drill 0.3) (layers *.Cu))
  (model ${KIPRJMOD}/kicad_libs_k/models_k.3d/Package_DFN_QFN_k.3dshapes/QFN-40-1EP_6x6mm_P0.5mm_k.wrl
    (at (xyz 0 0 0))
    (scale (xyz 1 1 1))
    (rotate (xyz 0 0 0))
  )
)
