(module Texas_S-PVQFN-N20_EP2.4x2.4mm_ThermalVias (layer F.Cu) (tedit 5B302E89)
  (descr "QFN, 20 Pin (http://www.ti.com/lit/ds/symlink/cc1101.pdf), generated with kicad-footprint-generator ipc_dfn_qfn_generator.py")
  (tags "QFN DFN_QFN")
  (attr smd)
  (fp_text reference REF** (at 0 -3.32) (layer F.SilkS)
    (effects (font (size 1 1) (thickness 0.15)))
  )
  (fp_text value Texas_S-PVQFN-N20_EP2.4x2.4mm_ThermalVias (at 0 3.32) (layer F.Fab)
    (effects (font (size 1 1) (thickness 0.15)))
  )
  (fp_line (start 1.385 -2.11) (end 2.11 -2.11) (layer F.SilkS) (width 0.12))
  (fp_line (start 2.11 -2.11) (end 2.11 -1.385) (layer F.SilkS) (width 0.12))
  (fp_line (start -1.385 2.11) (end -2.11 2.11) (layer F.SilkS) (width 0.12))
  (fp_line (start -2.11 2.11) (end -2.11 1.385) (layer F.SilkS) (width 0.12))
  (fp_line (start 1.385 2.11) (end 2.11 2.11) (layer F.SilkS) (width 0.12))
  (fp_line (start 2.11 2.11) (end 2.11 1.385) (layer F.SilkS) (width 0.12))
  (fp_line (start -1.385 -2.11) (end -2.11 -2.11) (layer F.SilkS) (width 0.12))
  (fp_line (start -1 -2) (end 2 -2) (layer F.Fab) (width 0.1))
  (fp_line (start 2 -2) (end 2 2) (layer F.Fab) (width 0.1))
  (fp_line (start 2 2) (end -2 2) (layer F.Fab) (width 0.1))
  (fp_line (start -2 2) (end -2 -1) (layer F.Fab) (width 0.1))
  (fp_line (start -2 -1) (end -1 -2) (layer F.Fab) (width 0.1))
  (fp_line (start -2.62 -2.62) (end -2.62 2.62) (layer F.CrtYd) (width 0.05))
  (fp_line (start -2.62 2.62) (end 2.62 2.62) (layer F.CrtYd) (width 0.05))
  (fp_line (start 2.62 2.62) (end 2.62 -2.62) (layer F.CrtYd) (width 0.05))
  (fp_line (start 2.62 -2.62) (end -2.62 -2.62) (layer F.CrtYd) (width 0.05))
  (pad 21 smd roundrect (at 0 0) (size 2.4 2.4) (layers F.Cu F.Mask) (roundrect_rratio 0.104167))
  (pad 21 thru_hole circle (at -0.95 -0.95) (size 0.5 0.5) (drill 0.2) (layers *.Cu))
  (pad 21 thru_hole circle (at 0 -0.95) (size 0.5 0.5) (drill 0.2) (layers *.Cu))
  (pad 21 thru_hole circle (at 0.95 -0.95) (size 0.5 0.5) (drill 0.2) (layers *.Cu))
  (pad 21 thru_hole circle (at -0.95 0) (size 0.5 0.5) (drill 0.2) (layers *.Cu))
  (pad 21 thru_hole circle (at 0 0) (size 0.5 0.5) (drill 0.2) (layers *.Cu))
  (pad 21 thru_hole circle (at 0.95 0) (size 0.5 0.5) (drill 0.2) (layers *.Cu))
  (pad 21 thru_hole circle (at -0.95 0.95) (size 0.5 0.5) (drill 0.2) (layers *.Cu))
  (pad 21 thru_hole circle (at 0 0.95) (size 0.5 0.5) (drill 0.2) (layers *.Cu))
  (pad 21 thru_hole circle (at 0.95 0.95) (size 0.5 0.5) (drill 0.2) (layers *.Cu))
  (pad 21 smd roundrect (at 0 0) (size 2.4 2.4) (layers B.Cu) (roundrect_rratio 0.104167))
  (pad "" smd custom (at -0.475 -0.475) (size 0.72028 0.72028) (layers F.Paste)
    (options (clearance outline) (anchor circle))
    (primitives
      (gr_poly (pts
         (xy -0.424264 -0.242893) (xy -0.242893 -0.424264) (xy 0.242893 -0.424264) (xy 0.424264 -0.242893)
         (xy 0.424264 0.242893) (xy 0.242893 0.424264) (xy -0.242893 0.424264) (xy -0.424264 0.242893)) (width 0))
    ))
  (pad "" smd custom (at -0.475 0.475) (size 0.72028 0.72028) (layers F.Paste)
    (options (clearance outline) (anchor circle))
    (primitives
      (gr_poly (pts
         (xy -0.424264 -0.242893) (xy -0.242893 -0.424264) (xy 0.242893 -0.424264) (xy 0.424264 -0.242893)
         (xy 0.424264 0.242893) (xy 0.242893 0.424264) (xy -0.242893 0.424264) (xy -0.424264 0.242893)) (width 0))
    ))
  (pad "" smd custom (at 0.475 -0.475) (size 0.72028 0.72028) (layers F.Paste)
    (options (clearance outline) (anchor circle))
    (primitives
      (gr_poly (pts
         (xy -0.424264 -0.242893) (xy -0.242893 -0.424264) (xy 0.242893 -0.424264) (xy 0.424264 -0.242893)
         (xy 0.424264 0.242893) (xy 0.242893 0.424264) (xy -0.242893 0.424264) (xy -0.424264 0.242893)) (width 0))
    ))
  (pad "" smd custom (at 0.475 0.475) (size 0.72028 0.72028) (layers F.Paste)
    (options (clearance outline) (anchor circle))
    (primitives
      (gr_poly (pts
         (xy -0.424264 -0.242893) (xy -0.242893 -0.424264) (xy 0.242893 -0.424264) (xy 0.424264 -0.242893)
         (xy 0.424264 0.242893) (xy 0.242893 0.424264) (xy -0.242893 0.424264) (xy -0.424264 0.242893)) (width 0))
    ))
  (pad 1 smd roundrect (at -1.9125 -1) (size 0.925 0.25) (layers F.Cu F.Mask F.Paste) (roundrect_rratio 0.25))
  (pad 2 smd roundrect (at -1.9125 -0.5) (size 0.925 0.25) (layers F.Cu F.Mask F.Paste) (roundrect_rratio 0.25))
  (pad 3 smd roundrect (at -1.9125 0) (size 0.925 0.25) (layers F.Cu F.Mask F.Paste) (roundrect_rratio 0.25))
  (pad 4 smd roundrect (at -1.9125 0.5) (size 0.925 0.25) (layers F.Cu F.Mask F.Paste) (roundrect_rratio 0.25))
  (pad 5 smd roundrect (at -1.9125 1) (size 0.925 0.25) (layers F.Cu F.Mask F.Paste) (roundrect_rratio 0.25))
  (pad 6 smd roundrect (at -1 1.9125) (size 0.25 0.925) (layers F.Cu F.Mask F.Paste) (roundrect_rratio 0.25))
  (pad 7 smd roundrect (at -0.5 1.9125) (size 0.25 0.925) (layers F.Cu F.Mask F.Paste) (roundrect_rratio 0.25))
  (pad 8 smd roundrect (at 0 1.9125) (size 0.25 0.925) (layers F.Cu F.Mask F.Paste) (roundrect_rratio 0.25))
  (pad 9 smd roundrect (at 0.5 1.9125) (size 0.25 0.925) (layers F.Cu F.Mask F.Paste) (roundrect_rratio 0.25))
  (pad 10 smd roundrect (at 1 1.9125) (size 0.25 0.925) (layers F.Cu F.Mask F.Paste) (roundrect_rratio 0.25))
  (pad 11 smd roundrect (at 1.9125 1) (size 0.925 0.25) (layers F.Cu F.Mask F.Paste) (roundrect_rratio 0.25))
  (pad 12 smd roundrect (at 1.9125 0.5) (size 0.925 0.25) (layers F.Cu F.Mask F.Paste) (roundrect_rratio 0.25))
  (pad 13 smd roundrect (at 1.9125 0) (size 0.925 0.25) (layers F.Cu F.Mask F.Paste) (roundrect_rratio 0.25))
  (pad 14 smd roundrect (at 1.9125 -0.5) (size 0.925 0.25) (layers F.Cu F.Mask F.Paste) (roundrect_rratio 0.25))
  (pad 15 smd roundrect (at 1.9125 -1) (size 0.925 0.25) (layers F.Cu F.Mask F.Paste) (roundrect_rratio 0.25))
  (pad 16 smd roundrect (at 1 -1.9125) (size 0.25 0.925) (layers F.Cu F.Mask F.Paste) (roundrect_rratio 0.25))
  (pad 17 smd roundrect (at 0.5 -1.9125) (size 0.25 0.925) (layers F.Cu F.Mask F.Paste) (roundrect_rratio 0.25))
  (pad 18 smd roundrect (at 0 -1.9125) (size 0.25 0.925) (layers F.Cu F.Mask F.Paste) (roundrect_rratio 0.25))
  (pad 19 smd roundrect (at -0.5 -1.9125) (size 0.25 0.925) (layers F.Cu F.Mask F.Paste) (roundrect_rratio 0.25))
  (pad 20 smd roundrect (at -1 -1.9125) (size 0.25 0.925) (layers F.Cu F.Mask F.Paste) (roundrect_rratio 0.25))
  (fp_text user %R (at 0 0) (layer F.Fab)
    (effects (font (size 1 1) (thickness 0.15)))
  )
  (model ${KIPRJMOD}/kicad_libs_k/models_k.3d/Package_DFN_QFN_k.3dshapes/Texas_S-PVQFN-N20_EP2.4x2.4mm_k.wrl
    (at (xyz 0 0 0))
    (scale (xyz 1 1 1))
    (rotate (xyz 0 0 0))
  )
)