(module UQFN-10_1.4x1.8mm_P0.4mm (layer F.Cu) (tedit 5A2A91D4)
  (descr "UQFN 10pin, https://www.onsemi.com/pub/Collateral/488AT.PDF")
  (tags UQFN-10_1.4x1.8mm_P0.4mm)
  (attr smd)
  (fp_text reference REF** (at 0 -2) (layer F.SilkS)
    (effects (font (size 1 1) (thickness 0.15)))
  )
  (fp_text value UQFN-10_1.4x1.8mm_P0.4mm (at 0 2) (layer F.Fab)
    (effects (font (size 1 1) (thickness 0.15)))
  )
  (fp_text user %R (at 0 0) (layer F.Fab)
    (effects (font (size 0.5 0.5) (thickness 0.05)))
  )
  (fp_line (start -0.2 -0.9) (end -0.7 -0.4) (layer F.Fab) (width 0.1))
  (fp_line (start -0.2 -0.9) (end 0.7 -0.9) (layer F.Fab) (width 0.1))
  (fp_line (start -0.7 -0.4) (end -0.7 0.9) (layer F.Fab) (width 0.1))
  (fp_line (start -0.7 0.9) (end 0.7 0.9) (layer F.Fab) (width 0.1))
  (fp_line (start 0.7 -0.9) (end 0.7 0.9) (layer F.Fab) (width 0.1))
  (fp_line (start 1.1 -1.3) (end 1.1 1.3) (layer F.CrtYd) (width 0.05))
  (fp_line (start 1.1 -1.3) (end -1.1 -1.3) (layer F.CrtYd) (width 0.05))
  (fp_line (start -1.1 1.3) (end 1.1 1.3) (layer F.CrtYd) (width 0.05))
  (fp_line (start -1.1 1.3) (end -1.1 -1.3) (layer F.CrtYd) (width 0.05))
  (fp_line (start 0.76 -0.425) (end 0.76 -0.96) (layer F.SilkS) (width 0.12))
  (fp_line (start 0.76 0.96) (end 0.76 0.425) (layer F.SilkS) (width 0.12))
  (fp_line (start 0.76 0.96) (end 0.625 0.96) (layer F.SilkS) (width 0.12))
  (fp_line (start -0.625 0.96) (end -0.76 0.96) (layer F.SilkS) (width 0.12))
  (fp_line (start 0.76 -0.96) (end 0.625 -0.96) (layer F.SilkS) (width 0.12))
  (fp_line (start -0.76 0.96) (end -0.76 0.425) (layer F.SilkS) (width 0.12))
  (pad 1 smd rect (at -0.5185 -0.2) (size 0.663 0.225) (layers F.Cu F.Paste F.Mask))
  (pad 10 smd rect (at -0.4 -0.7685) (size 0.225 0.563) (layers F.Cu F.Paste F.Mask))
  (pad 9 smd rect (at 0 -0.7685) (size 0.225 0.563) (layers F.Cu F.Paste F.Mask))
  (pad 8 smd rect (at 0.4 -0.7685) (size 0.225 0.563) (layers F.Cu F.Paste F.Mask))
  (pad 7 smd rect (at 0.5685 -0.2) (size 0.563 0.225) (layers F.Cu F.Paste F.Mask))
  (pad 6 smd rect (at 0.5685 0.2) (size 0.563 0.225) (layers F.Cu F.Paste F.Mask))
  (pad 5 smd rect (at 0.4 0.7685) (size 0.225 0.563) (layers F.Cu F.Paste F.Mask))
  (pad 4 smd rect (at 0 0.7685) (size 0.225 0.563) (layers F.Cu F.Paste F.Mask))
  (pad 3 smd rect (at -0.4 0.7685) (size 0.225 0.563) (layers F.Cu F.Paste F.Mask))
  (pad 2 smd rect (at -0.5685 0.2) (size 0.563 0.225) (layers F.Cu F.Paste F.Mask))
  (model ${KIPRJMOD}/kicad_libs_k/models_k.3d/Package_DFN_QFN_k.3dshapes/UQFN-10_1.4x1.8mm_P0.4mm_k.wrl
    (at (xyz 0 0 0))
    (scale (xyz 1 1 1))
    (rotate (xyz 0 0 0))
  )
)
