(module UQFN-20-1EP_4x4mm_P0.5mm_EP2.8x2.8mm (layer F.Cu) (tedit 5A65DA75)
  (descr "20-Lead Ultra Thin Plastic Quad Flat, No Lead Package (GZ) - 4x4x0.5 mm Body [UQFN]; (see Microchip Packaging Specification 00000049BS.pdf)")
  (tags "QFN 0.5")
  (attr smd)
  (fp_text reference REF** (at 0 -3.4) (layer F.SilkS)
    (effects (font (size 1 1) (thickness 0.15)))
  )
  (fp_text value UQFN-20-1EP_4x4mm_P0.5mm_EP2.8x2.8mm (at 0 3.4) (layer F.Fab)
    (effects (font (size 1 1) (thickness 0.15)))
  )
  (fp_text user %R (at 0 0) (layer F.Fab)
    (effects (font (size 1 1) (thickness 0.15)))
  )
  (fp_line (start -1 -2) (end 2 -2) (layer F.Fab) (width 0.15))
  (fp_line (start 2 -2) (end 2 2) (layer F.Fab) (width 0.15))
  (fp_line (start 2 2) (end -2 2) (layer F.Fab) (width 0.15))
  (fp_line (start -2 2) (end -2 -1) (layer F.Fab) (width 0.15))
  (fp_line (start -2 -1) (end -1 -2) (layer F.Fab) (width 0.15))
  (fp_line (start -2.65 -2.65) (end -2.65 2.65) (layer F.CrtYd) (width 0.05))
  (fp_line (start 2.65 -2.65) (end 2.65 2.65) (layer F.CrtYd) (width 0.05))
  (fp_line (start -2.65 -2.65) (end 2.65 -2.65) (layer F.CrtYd) (width 0.05))
  (fp_line (start -2.65 2.65) (end 2.65 2.65) (layer F.CrtYd) (width 0.05))
  (fp_line (start 2.175 -2.175) (end 2.175 -1.375) (layer F.SilkS) (width 0.15))
  (fp_line (start -2.175 2.175) (end -2.175 1.375) (layer F.SilkS) (width 0.15))
  (fp_line (start 2.175 2.175) (end 2.175 1.375) (layer F.SilkS) (width 0.15))
  (fp_line (start -2.175 -2.175) (end -1.375 -2.175) (layer F.SilkS) (width 0.15))
  (fp_line (start -2.175 2.175) (end -1.375 2.175) (layer F.SilkS) (width 0.15))
  (fp_line (start 2.175 2.175) (end 1.375 2.175) (layer F.SilkS) (width 0.15))
  (fp_line (start 2.175 -2.175) (end 1.375 -2.175) (layer F.SilkS) (width 0.15))
  (pad 1 smd oval (at -2 -1) (size 0.8 0.3) (layers F.Cu F.Paste F.Mask))
  (pad 2 smd oval (at -2 -0.5) (size 0.8 0.3) (layers F.Cu F.Paste F.Mask))
  (pad 3 smd oval (at -2 0) (size 0.8 0.3) (layers F.Cu F.Paste F.Mask))
  (pad 4 smd oval (at -2 0.5) (size 0.8 0.3) (layers F.Cu F.Paste F.Mask))
  (pad 5 smd oval (at -2 1) (size 0.8 0.3) (layers F.Cu F.Paste F.Mask))
  (pad 6 smd oval (at -1 2 90) (size 0.8 0.3) (layers F.Cu F.Paste F.Mask))
  (pad 7 smd oval (at -0.5 2 90) (size 0.8 0.3) (layers F.Cu F.Paste F.Mask))
  (pad 8 smd oval (at 0 2 90) (size 0.8 0.3) (layers F.Cu F.Paste F.Mask))
  (pad 9 smd oval (at 0.5 2 90) (size 0.8 0.3) (layers F.Cu F.Paste F.Mask))
  (pad 10 smd oval (at 1 2 90) (size 0.8 0.3) (layers F.Cu F.Paste F.Mask))
  (pad 11 smd oval (at 2 1) (size 0.8 0.3) (layers F.Cu F.Paste F.Mask))
  (pad 12 smd oval (at 2 0.5) (size 0.8 0.3) (layers F.Cu F.Paste F.Mask))
  (pad 13 smd oval (at 2 0) (size 0.8 0.3) (layers F.Cu F.Paste F.Mask))
  (pad 14 smd oval (at 2 -0.5) (size 0.8 0.3) (layers F.Cu F.Paste F.Mask))
  (pad 15 smd oval (at 2 -1) (size 0.8 0.3) (layers F.Cu F.Paste F.Mask))
  (pad 16 smd oval (at 1 -2 90) (size 0.8 0.3) (layers F.Cu F.Paste F.Mask))
  (pad 17 smd oval (at 0.5 -2 90) (size 0.8 0.3) (layers F.Cu F.Paste F.Mask))
  (pad 18 smd oval (at 0 -2 90) (size 0.8 0.3) (layers F.Cu F.Paste F.Mask))
  (pad 19 smd oval (at -0.5 -2 90) (size 0.8 0.3) (layers F.Cu F.Paste F.Mask))
  (pad 20 smd oval (at -1 -2 90) (size 0.8 0.3) (layers F.Cu F.Paste F.Mask))
  (pad "" smd rect (at 0.7 0.7) (size 1.13 1.13) (layers F.Paste))
  (pad 21 smd rect (at 0 0) (size 2.8 2.8) (layers F.Cu F.Paste F.Mask))
  (pad "" smd rect (at -0.7 0.7) (size 1.13 1.13) (layers F.Paste))
  (pad "" smd rect (at -0.7 0.7) (size 1.13 1.13) (layers F.Paste))
  (pad "" smd rect (at 0.7 0.7) (size 1.13 1.13) (layers F.Paste))
  (model ${KIPRJMOD}/kicad_libs_k/models_k.3d/Package_DFN_QFN_k.3dshapes/UQFN-20-1EP_4x4mm_P0.5mm_EP2.8x2.8mm_k.wrl
    (at (xyz 0 0 0))
    (scale (xyz 1 1 1))
    (rotate (xyz 0 0 0))
  )
)
