(module WQFN-24-1EP_4x4mm_P0.5mm_EP2.7x2.7mm_ThermalVias (layer F.Cu) (tedit 5AA6BFEE)
  (descr http://www.ti.com/lit/ml/mpqf167b/mpqf167b.pdf)
  (tags WQFN)
  (attr smd)
  (fp_text reference REF** (at 0 -3.4) (layer F.SilkS)
    (effects (font (size 1 1) (thickness 0.15)))
  )
  (fp_text value WQFN-24-1EP_4x4mm_P0.5mm_EP2.7x2.7mm_ThermalVias (at 0 3.3) (layer F.Fab)
    (effects (font (size 1 1) (thickness 0.15)))
  )
  (fp_line (start -1 -2) (end 2 -2) (layer F.Fab) (width 0.1))
  (fp_line (start 2 -2) (end 2 2) (layer F.Fab) (width 0.1))
  (fp_line (start 2 2) (end -2 2) (layer F.Fab) (width 0.1))
  (fp_line (start -2 2) (end -2 -1) (layer F.Fab) (width 0.1))
  (fp_line (start -2.65 -2.65) (end 2.65 -2.65) (layer F.CrtYd) (width 0.05))
  (fp_line (start 2.65 -2.65) (end 2.65 2.65) (layer F.CrtYd) (width 0.05))
  (fp_line (start 2.65 2.65) (end -2.65 2.65) (layer F.CrtYd) (width 0.05))
  (fp_line (start -2.65 2.65) (end -2.65 -2.65) (layer F.CrtYd) (width 0.05))
  (fp_line (start -1 -2) (end -2 -1) (layer F.Fab) (width 0.1))
  (fp_text user %R (at 0 0) (layer F.Fab)
    (effects (font (size 0.8 0.8) (thickness 0.12)))
  )
  (fp_line (start 1.65 2.2) (end 2.2 2.2) (layer F.SilkS) (width 0.12))
  (fp_line (start 2.2 2.2) (end 2.2 1.65) (layer F.SilkS) (width 0.12))
  (fp_line (start 2.2 -1.65) (end 2.2 -2.2) (layer F.SilkS) (width 0.12))
  (fp_line (start 2.2 -2.2) (end 1.65 -2.2) (layer F.SilkS) (width 0.12))
  (fp_line (start -2.2 1.65) (end -2.2 2.2) (layer F.SilkS) (width 0.12))
  (fp_line (start -2.2 2.2) (end -1.65 2.2) (layer F.SilkS) (width 0.12))
  (fp_line (start -2.2 -2.2) (end -1.65 -2.2) (layer F.SilkS) (width 0.12))
  (pad 25 thru_hole circle (at 0 0) (size 0.8 0.8) (drill 0.3) (layers *.Cu))
  (pad 25 thru_hole circle (at -0.9 0) (size 0.8 0.8) (drill 0.3) (layers *.Cu))
  (pad 25 thru_hole circle (at 0.9 0) (size 0.8 0.8) (drill 0.3) (layers *.Cu))
  (pad 25 thru_hole circle (at 0.9 -0.9) (size 0.8 0.8) (drill 0.3) (layers *.Cu))
  (pad 25 thru_hole circle (at -0.9 -0.9) (size 0.8 0.8) (drill 0.3) (layers *.Cu))
  (pad 25 thru_hole circle (at 0 -0.9) (size 0.8 0.8) (drill 0.3) (layers *.Cu))
  (pad 25 thru_hole circle (at 0.9 0.9) (size 0.8 0.8) (drill 0.3) (layers *.Cu))
  (pad 25 thru_hole circle (at -0.9 0.9) (size 0.8 0.8) (drill 0.3) (layers *.Cu))
  (pad 25 thru_hole circle (at 0 0.9) (size 0.8 0.8) (drill 0.3) (layers *.Cu))
  (pad 25 smd rect (at 0 0) (size 2.7 2.7) (layers F.Cu F.Mask))
  (pad 24 smd custom (at -1.25 -1.69 180) (size 0.28 0.28) (layers F.Cu F.Paste F.Mask)
    (zone_connect 0)
    (options (clearance outline) (anchor circle))
    (primitives
      (gr_poly (pts
         (xy -0.14 0) (xy 0.14 0) (xy 0.14 0.71) (xy -0.14 0.71)) (width 0))
    ))
  (pad 23 smd custom (at -0.75 -1.69 180) (size 0.28 0.28) (layers F.Cu F.Paste F.Mask)
    (zone_connect 0)
    (options (clearance outline) (anchor circle))
    (primitives
      (gr_poly (pts
         (xy -0.14 0) (xy 0.14 0) (xy 0.14 0.71) (xy -0.14 0.71)) (width 0))
    ))
  (pad 22 smd custom (at -0.25 -1.69 180) (size 0.28 0.28) (layers F.Cu F.Paste F.Mask)
    (zone_connect 0)
    (options (clearance outline) (anchor circle))
    (primitives
      (gr_poly (pts
         (xy -0.14 0) (xy 0.14 0) (xy 0.14 0.71) (xy -0.14 0.71)) (width 0))
    ))
  (pad 21 smd custom (at 0.25 -1.69 180) (size 0.28 0.28) (layers F.Cu F.Paste F.Mask)
    (zone_connect 0)
    (options (clearance outline) (anchor circle))
    (primitives
      (gr_poly (pts
         (xy -0.14 0) (xy 0.14 0) (xy 0.14 0.71) (xy -0.14 0.71)) (width 0))
    ))
  (pad 20 smd custom (at 0.75 -1.69 180) (size 0.28 0.28) (layers F.Cu F.Paste F.Mask)
    (zone_connect 0)
    (options (clearance outline) (anchor circle))
    (primitives
      (gr_poly (pts
         (xy -0.14 0) (xy 0.14 0) (xy 0.14 0.71) (xy -0.14 0.71)) (width 0))
    ))
  (pad 19 smd custom (at 1.25 -1.69 180) (size 0.28 0.28) (layers F.Cu F.Paste F.Mask)
    (zone_connect 0)
    (options (clearance outline) (anchor circle))
    (primitives
      (gr_poly (pts
         (xy -0.14 0) (xy 0.14 0) (xy 0.14 0.71) (xy -0.14 0.71)) (width 0))
    ))
  (pad 18 smd custom (at 1.69 -1.25 90) (size 0.28 0.28) (layers F.Cu F.Paste F.Mask)
    (zone_connect 0)
    (options (clearance outline) (anchor circle))
    (primitives
      (gr_poly (pts
         (xy -0.14 0) (xy 0.14 0) (xy 0.14 0.71) (xy -0.14 0.71)) (width 0))
    ))
  (pad 17 smd custom (at 1.69 -0.75 90) (size 0.28 0.28) (layers F.Cu F.Paste F.Mask)
    (zone_connect 0)
    (options (clearance outline) (anchor circle))
    (primitives
      (gr_poly (pts
         (xy -0.14 0) (xy 0.14 0) (xy 0.14 0.71) (xy -0.14 0.71)) (width 0))
    ))
  (pad 16 smd custom (at 1.69 -0.25 90) (size 0.28 0.28) (layers F.Cu F.Paste F.Mask)
    (zone_connect 0)
    (options (clearance outline) (anchor circle))
    (primitives
      (gr_poly (pts
         (xy -0.14 0) (xy 0.14 0) (xy 0.14 0.71) (xy -0.14 0.71)) (width 0))
    ))
  (pad 15 smd custom (at 1.69 0.25 90) (size 0.28 0.28) (layers F.Cu F.Paste F.Mask)
    (zone_connect 0)
    (options (clearance outline) (anchor circle))
    (primitives
      (gr_poly (pts
         (xy -0.14 0) (xy 0.14 0) (xy 0.14 0.71) (xy -0.14 0.71)) (width 0))
    ))
  (pad 14 smd custom (at 1.69 0.75 90) (size 0.28 0.28) (layers F.Cu F.Paste F.Mask)
    (zone_connect 0)
    (options (clearance outline) (anchor circle))
    (primitives
      (gr_poly (pts
         (xy -0.14 0) (xy 0.14 0) (xy 0.14 0.71) (xy -0.14 0.71)) (width 0))
    ))
  (pad 13 smd custom (at 1.69 1.25 90) (size 0.28 0.28) (layers F.Cu F.Paste F.Mask)
    (zone_connect 0)
    (options (clearance outline) (anchor circle))
    (primitives
      (gr_poly (pts
         (xy -0.14 0) (xy 0.14 0) (xy 0.14 0.71) (xy -0.14 0.71)) (width 0))
    ))
  (pad 12 smd custom (at 1.25 1.69) (size 0.28 0.28) (layers F.Cu F.Paste F.Mask)
    (zone_connect 0)
    (options (clearance outline) (anchor circle))
    (primitives
      (gr_poly (pts
         (xy -0.14 0) (xy 0.14 0) (xy 0.14 0.71) (xy -0.14 0.71)) (width 0))
    ))
  (pad 11 smd custom (at 0.75 1.69) (size 0.28 0.28) (layers F.Cu F.Paste F.Mask)
    (zone_connect 0)
    (options (clearance outline) (anchor circle))
    (primitives
      (gr_poly (pts
         (xy -0.14 0) (xy 0.14 0) (xy 0.14 0.71) (xy -0.14 0.71)) (width 0))
    ))
  (pad 10 smd custom (at 0.25 1.69) (size 0.28 0.28) (layers F.Cu F.Paste F.Mask)
    (zone_connect 0)
    (options (clearance outline) (anchor circle))
    (primitives
      (gr_poly (pts
         (xy -0.14 0) (xy 0.14 0) (xy 0.14 0.71) (xy -0.14 0.71)) (width 0))
    ))
  (pad 9 smd custom (at -0.25 1.69) (size 0.28 0.28) (layers F.Cu F.Paste F.Mask)
    (zone_connect 0)
    (options (clearance outline) (anchor circle))
    (primitives
      (gr_poly (pts
         (xy -0.14 0) (xy 0.14 0) (xy 0.14 0.71) (xy -0.14 0.71)) (width 0))
    ))
  (pad 8 smd custom (at -0.75 1.69) (size 0.28 0.28) (layers F.Cu F.Paste F.Mask)
    (zone_connect 0)
    (options (clearance outline) (anchor circle))
    (primitives
      (gr_poly (pts
         (xy -0.14 0) (xy 0.14 0) (xy 0.14 0.71) (xy -0.14 0.71)) (width 0))
    ))
  (pad 7 smd custom (at -1.25 1.69) (size 0.28 0.28) (layers F.Cu F.Paste F.Mask)
    (zone_connect 0)
    (options (clearance outline) (anchor circle))
    (primitives
      (gr_poly (pts
         (xy -0.14 0) (xy 0.14 0) (xy 0.14 0.71) (xy -0.14 0.71)) (width 0))
    ))
  (pad 6 smd custom (at -1.69 1.25 270) (size 0.28 0.28) (layers F.Cu F.Paste F.Mask)
    (zone_connect 0)
    (options (clearance outline) (anchor circle))
    (primitives
      (gr_poly (pts
         (xy -0.14 0) (xy 0.14 0) (xy 0.14 0.71) (xy -0.14 0.71)) (width 0))
    ))
  (pad 5 smd custom (at -1.69 0.75 270) (size 0.28 0.28) (layers F.Cu F.Paste F.Mask)
    (zone_connect 0)
    (options (clearance outline) (anchor circle))
    (primitives
      (gr_poly (pts
         (xy -0.14 0) (xy 0.14 0) (xy 0.14 0.71) (xy -0.14 0.71)) (width 0))
    ))
  (pad 4 smd custom (at -1.69 0.25 270) (size 0.28 0.28) (layers F.Cu F.Paste F.Mask)
    (zone_connect 0)
    (options (clearance outline) (anchor circle))
    (primitives
      (gr_poly (pts
         (xy -0.14 0) (xy 0.14 0) (xy 0.14 0.71) (xy -0.14 0.71)) (width 0))
    ))
  (pad 3 smd custom (at -1.69 -0.25 270) (size 0.28 0.28) (layers F.Cu F.Paste F.Mask)
    (zone_connect 0)
    (options (clearance outline) (anchor circle))
    (primitives
      (gr_poly (pts
         (xy -0.14 0) (xy 0.14 0) (xy 0.14 0.71) (xy -0.14 0.71)) (width 0))
    ))
  (pad 2 smd custom (at -1.69 -0.75 270) (size 0.28 0.28) (layers F.Cu F.Paste F.Mask)
    (zone_connect 0)
    (options (clearance outline) (anchor circle))
    (primitives
      (gr_poly (pts
         (xy -0.14 0) (xy 0.14 0) (xy 0.14 0.71) (xy -0.14 0.71)) (width 0))
    ))
  (pad 1 smd custom (at -1.69 -1.25 270) (size 0.28 0.28) (layers F.Cu F.Paste F.Mask)
    (zone_connect 0)
    (options (clearance outline) (anchor circle))
    (primitives
      (gr_poly (pts
         (xy -0.14 0) (xy 0.14 0) (xy 0.14 0.71) (xy -0.14 0.71)) (width 0))
    ))
  (pad "" smd rect (at -0.7 -0.7) (size 1.1 1.1) (layers F.Paste))
  (pad "" smd rect (at 0.7 -0.7) (size 1.1 1.1) (layers F.Paste))
  (pad "" smd rect (at 0.7 0.7) (size 1.1 1.1) (layers F.Paste))
  (pad "" smd rect (at -0.7 0.7) (size 1.1 1.1) (layers F.Paste))
  (model ${KIPRJMOD}/kicad_libs_k/models_k.3d/Package_DFN_QFN_k.3dshapes/WQFN-24-1EP_4x4mm_P0.5mm_EP2.7x2.7mm_k.wrl
    (at (xyz 0 0 0))
    (scale (xyz 1 1 1))
    (rotate (xyz 0 0 0))
  )
)
