(module WQFN-20-1EP_2.5x4.5mm_P0.5mm_EP1x2.9mm (layer F.Cu) (tedit 5ACD80C7)
  (descr http://www.onsemi.com/pub/Collateral/510CD.PDF)
  (tags "WQFN-20 4.5mm 2.5mm 0.5mm")
  (attr smd)
  (fp_text reference REF** (at 0 -4) (layer F.SilkS)
    (effects (font (size 1 1) (thickness 0.15)))
  )
  (fp_text value WQFN-20-1EP_2.5x4.5mm_P0.5mm_EP1x2.9mm (at 0 4) (layer F.Fab)
    (effects (font (size 1 1) (thickness 0.15)))
  )
  (fp_line (start -1.25 -1.625) (end -1.25 2.25) (layer F.Fab) (width 0.1))
  (fp_line (start 1.25 -2.25) (end 1.25 2.25) (layer F.Fab) (width 0.1))
  (fp_line (start 1.25 -2.25) (end -0.625 -2.25) (layer F.Fab) (width 0.1))
  (fp_line (start -1.25 2.25) (end 1.25 2.25) (layer F.Fab) (width 0.1))
  (fp_line (start -1.25 -1.625) (end -0.625 -2.25) (layer F.Fab) (width 0.1))
  (fp_text user %R (at 0 0) (layer F.Fab)
    (effects (font (size 0.4 0.4) (thickness 0.06)))
  )
  (fp_line (start -2 -3) (end -2 3) (layer F.CrtYd) (width 0.05))
  (fp_line (start 2 -3) (end 2 3) (layer F.CrtYd) (width 0.05))
  (fp_line (start -2 -3) (end 2 -3) (layer F.CrtYd) (width 0.05))
  (fp_line (start -2 3) (end 2 3) (layer F.CrtYd) (width 0.05))
  (fp_line (start 0.6 -2.35) (end 1.35 -2.35) (layer F.SilkS) (width 0.12))
  (fp_line (start 1.35 -2.35) (end 1.35 -2.1) (layer F.SilkS) (width 0.12))
  (fp_line (start -1.35 -2.35) (end -1.35 -2.1) (layer F.SilkS) (width 0.12))
  (fp_line (start 0.6 2.35) (end 1.35 2.35) (layer F.SilkS) (width 0.12))
  (fp_line (start 1.35 2.35) (end 1.35 2.1) (layer F.SilkS) (width 0.12))
  (fp_line (start -0.6 2.35) (end -1.35 2.35) (layer F.SilkS) (width 0.12))
  (fp_line (start -1.35 2.35) (end -1.35 2.1) (layer F.SilkS) (width 0.12))
  (pad 1 smd rect (at -0.25 -2.3 270) (size 0.9 0.24) (layers F.Cu F.Paste F.Mask))
  (pad 20 smd rect (at 0.25 -2.3 270) (size 0.9 0.24) (layers F.Cu F.Paste F.Mask))
  (pad 10 smd rect (at -0.25 2.3 270) (size 0.9 0.24) (layers F.Cu F.Paste F.Mask))
  (pad 11 smd rect (at 0.25 2.3 270) (size 0.9 0.24) (layers F.Cu F.Paste F.Mask))
  (pad 2 smd rect (at -1.3 -1.75) (size 0.9 0.24) (layers F.Cu F.Paste F.Mask))
  (pad 3 smd rect (at -1.3 -1.25) (size 0.9 0.24) (layers F.Cu F.Paste F.Mask))
  (pad 4 smd rect (at -1.3 -0.75) (size 0.9 0.24) (layers F.Cu F.Paste F.Mask))
  (pad 5 smd rect (at -1.3 -0.25) (size 0.9 0.24) (layers F.Cu F.Paste F.Mask))
  (pad 6 smd rect (at -1.3 0.25) (size 0.9 0.24) (layers F.Cu F.Paste F.Mask))
  (pad 7 smd rect (at -1.3 0.75) (size 0.9 0.24) (layers F.Cu F.Paste F.Mask))
  (pad 8 smd rect (at -1.3 1.25) (size 0.9 0.24) (layers F.Cu F.Paste F.Mask))
  (pad 9 smd rect (at -1.3 1.75) (size 0.9 0.24) (layers F.Cu F.Paste F.Mask))
  (pad 19 smd rect (at 1.3 -1.75) (size 0.9 0.24) (layers F.Cu F.Paste F.Mask))
  (pad 18 smd rect (at 1.3 -1.25) (size 0.9 0.24) (layers F.Cu F.Paste F.Mask))
  (pad 17 smd rect (at 1.3 -0.75) (size 0.9 0.24) (layers F.Cu F.Paste F.Mask))
  (pad 16 smd rect (at 1.3 -0.25) (size 0.9 0.24) (layers F.Cu F.Paste F.Mask))
  (pad 15 smd rect (at 1.3 0.25) (size 0.9 0.24) (layers F.Cu F.Paste F.Mask))
  (pad 14 smd rect (at 1.3 0.75) (size 0.9 0.24) (layers F.Cu F.Paste F.Mask))
  (pad 13 smd rect (at 1.3 1.25) (size 0.9 0.24) (layers F.Cu F.Paste F.Mask))
  (pad 12 smd rect (at 1.3 1.75) (size 0.9 0.24) (layers F.Cu F.Paste F.Mask))
  (pad 21 smd rect (at 0 0 270) (size 2.9 1) (layers F.Cu F.Mask))
  (pad "" smd rect (at 0 0 270) (size 0.8 0.8) (layers F.Paste))
  (pad "" smd rect (at 0 0.95 270) (size 0.8 0.8) (layers F.Paste))
  (pad "" smd rect (at 0 -0.95 270) (size 0.8 0.8) (layers F.Paste))
  (model ${KIPRJMOD}/kicad_libs_k/models_k.3d/Package_DFN_QFN_k.3dshapes/WQFN-20-1EP_2.5x4.5mm_P0.5mm_EP1x2.9mm_k.wrl
    (at (xyz 0 0 0))
    (scale (xyz 1 1 1))
    (rotate (xyz 0 0 0))
  )
)
