(module BarrelJack_CUI_PJ-063AH_Horizontal (layer F.Cu) (tedit 5B0886BD)
  (descr "Barrel Jack, 2.0mm ID, 5.5mm OD, 24V, 8A, no switch, https://www.cui.com/product/resource/pj-063ah.pdf")
  (tags "barrel jack cui dc power")
  (fp_text reference REF** (at 0 -2.3) (layer F.SilkS)
    (effects (font (size 1 1) (thickness 0.15)))
  )
  (fp_text value BarrelJack_CUI_PJ-063AH_Horizontal (at 0 13) (layer F.Fab)
    (effects (font (size 1 1) (thickness 0.15)))
  )
  (fp_line (start -5 -1) (end -1 -1) (layer F.Fab) (width 0.1))
  (fp_line (start -1 -1) (end 0 0) (layer F.Fab) (width 0.1))
  (fp_line (start 0 0) (end 1 -1) (layer F.Fab) (width 0.1))
  (fp_line (start 1 -1) (end 5 -1) (layer F.Fab) (width 0.1))
  (fp_line (start 5 -1) (end 5 12) (layer F.Fab) (width 0.1))
  (fp_line (start 5 12) (end -5 12) (layer F.Fab) (width 0.1))
  (fp_line (start -5 12) (end -5 -1) (layer F.Fab) (width 0.1))
  (fp_line (start -5.11 4.95) (end -5.11 -1.11) (layer F.SilkS) (width 0.12))
  (fp_line (start -5.11 -1.11) (end -2.3 -1.11) (layer F.SilkS) (width 0.12))
  (fp_line (start 2.3 -1.11) (end 5.11 -1.11) (layer F.SilkS) (width 0.12))
  (fp_line (start 5.11 -1.11) (end 5.11 4.95) (layer F.SilkS) (width 0.12))
  (fp_line (start 5.11 9.05) (end 5.11 12.11) (layer F.SilkS) (width 0.12))
  (fp_line (start 5.11 12.11) (end -5.11 12.11) (layer F.SilkS) (width 0.12))
  (fp_line (start -5.11 12.11) (end -5.11 9.05) (layer F.SilkS) (width 0.12))
  (fp_line (start -1 -1.3) (end 1 -1.3) (layer F.SilkS) (width 0.12))
  (fp_line (start -6 -1.5) (end -6 12.5) (layer F.CrtYd) (width 0.05))
  (fp_line (start -6 12.5) (end 6 12.5) (layer F.CrtYd) (width 0.05))
  (fp_line (start 6 12.5) (end 6 -1.5) (layer F.CrtYd) (width 0.05))
  (fp_line (start 6 -1.5) (end -6 -1.5) (layer F.CrtYd) (width 0.05))
  (pad 1 thru_hole rect (at 0 0) (size 4 2) (drill oval 3 1) (layers *.Cu *.Mask))
  (pad 2 thru_hole oval (at 0 6) (size 3.3 2) (drill oval 2.3 1) (layers *.Cu *.Mask))
  (pad MP thru_hole oval (at -4.5 7) (size 2 3.5) (drill oval 1 2.5) (layers *.Cu *.Mask))
  (pad MP thru_hole oval (at 4.5 7) (size 2 3.5) (drill oval 1 2.5) (layers *.Cu *.Mask))
  (pad "" np_thru_hole circle (at 0 9) (size 1.6 1.6) (drill 1.6) (layers *.Cu *.Mask))
  (fp_text user %R (at 0 5.5) (layer F.Fab)
    (effects (font (size 1 1) (thickness 0.15)))
  )
  (model ${KIPRJMOD}/kicad_libs_k/models_k.3d/Connector_BarrelJack_k.3dshapes/BarrelJack_CUI_PJ-063AH_Horizontal_k.wrl
    (at (xyz 0 0 0))
    (scale (xyz 1 1 1))
    (rotate (xyz 0 0 0))
  )
)