(module BarrelJack_CUI_PJ-036AH-SMT_Horizontal (layer F.Cu) (tedit 5A1DBF38)
  (descr "Surface-mount DC Barrel Jack, http://www.cui.com/product/resource/pj-036ah-smt.pdf")
  (tags "Power Jack SMT")
  (attr smd)
  (fp_text reference REF** (at -4.5 -5.75) (layer F.SilkS)
    (effects (font (size 1 1) (thickness 0.15)))
  )
  (fp_text value BarrelJack_CUI_PJ-036AH-SMT_Horizontal (at 0 11.25) (layer F.Fab)
    (effects (font (size 1 1) (thickness 0.15)))
  )
  (fp_text user %R (at 0 0) (layer F.Fab)
    (effects (font (size 1 1) (thickness 0.15)))
  )
  (fp_line (start -8.9 -8.5) (end -8.9 10.5) (layer F.CrtYd) (width 0.05))
  (fp_line (start -8.9 10.5) (end 8.9 10.5) (layer F.CrtYd) (width 0.05))
  (fp_line (start 8.9 10.5) (end 8.9 -8.5) (layer F.CrtYd) (width 0.05))
  (fp_line (start 8.9 -8.5) (end -8.9 -8.5) (layer F.CrtYd) (width 0.05))
  (fp_line (start 4.6 6.55) (end 4.6 10.1) (layer F.SilkS) (width 0.12))
  (fp_line (start 4.6 10.1) (end -4.6 10.1) (layer F.SilkS) (width 0.12))
  (fp_line (start -4.6 10.1) (end -4.6 6.55) (layer F.SilkS) (width 0.12))
  (fp_line (start -4.6 -0.15) (end -4.6 -2.6) (layer F.SilkS) (width 0.12))
  (fp_line (start -4.6 -2.6) (end -4.2 -2.6) (layer F.SilkS) (width 0.12))
  (fp_line (start -4.2 -2.6) (end -4.2 -4.6) (layer F.SilkS) (width 0.12))
  (fp_line (start -4.2 -4.6) (end -1.2 -4.6) (layer F.SilkS) (width 0.12))
  (fp_line (start 2.6 -4.6) (end 4.2 -4.6) (layer F.SilkS) (width 0.12))
  (fp_line (start 4.2 -4.6) (end 4.2 -2.6) (layer F.SilkS) (width 0.12))
  (fp_line (start 4.2 -2.6) (end 4.6 -2.6) (layer F.SilkS) (width 0.12))
  (fp_line (start 4.6 -2.6) (end 4.6 -0.15) (layer F.SilkS) (width 0.12))
  (fp_line (start -1.19 -6.5) (end -1.19 -8.24) (layer F.SilkS) (width 0.12))
  (fp_line (start -1.19 -8.24) (end 0.55 -8.24) (layer F.SilkS) (width 0.12))
  (fp_line (start 4.1 -4.5) (end -4.1 -4.5) (layer F.Fab) (width 0.1))
  (fp_line (start -4.1 -4.5) (end -4.1 -2.5) (layer F.Fab) (width 0.1))
  (fp_line (start -4.1 -2.5) (end -4.5 -2.5) (layer F.Fab) (width 0.1))
  (fp_line (start -4.5 -2.5) (end -4.5 10) (layer F.Fab) (width 0.1))
  (fp_line (start -4.5 10) (end 4.5 10) (layer F.Fab) (width 0.1))
  (fp_line (start 4.5 10) (end 4.5 -2.5) (layer F.Fab) (width 0.1))
  (fp_line (start 4.5 -2.5) (end 4.1 -2.5) (layer F.Fab) (width 0.1))
  (fp_line (start 4.1 -2.5) (end 4.1 -4.5) (layer F.Fab) (width 0.1))
  (fp_circle (center 0.7 -3.4) (end 0.75 -2.95) (layer F.Fab) (width 0.12))
  (pad 1 smd rect (at 0.7 -5.8) (size 3.3 4.4) (layers F.Cu F.Paste F.Mask))
  (pad 2 smd rect (at -6.45 3.2) (size 3.9 6.2) (layers F.Cu F.Paste F.Mask))
  (pad 3 smd rect (at 6.45 3.2) (size 3.9 6.2) (layers F.Cu F.Paste F.Mask))
  (pad "" np_thru_hole circle (at 0 7) (size 2 2) (drill 2) (layers *.Cu *.Mask))
  (model ${KIPRJMOD}/kicad_libs_k/models_k.3d/Connector_BarrelJack_k.3dshapes/BarrelJack_CUI_PJ-036AH-SMT_Horizontal_k.wrl
    (at (xyz 0 0 0))
    (scale (xyz 1 1 1))
    (rotate (xyz 0 0 0))
  )
)
