(module Samtec_HLE-134-02-xxx-DV-BE-A_2x17_P2.54mm_Horizontal (layer F.Cu) (tedit 5A369BEE)
  (descr "Samtec HLE .100\" Tiger Beam Cost-effective Single Beam Socket Strip, HLE-134-02-xxx-DV-BE-A, 17 Pins per row (http://suddendocs.samtec.com/prints/hle-1xx-02-xxx-dv-xx-xx-xx-mkt.pdf, http://suddendocs.samtec.com/prints/hle-dv-footprint.pdf), generated with kicad-footprint-generator")
  (tags "connector Samtec  top entry")
  (attr smd)
  (fp_text reference REF** (at 0 -4.76) (layer F.SilkS)
    (effects (font (size 1 1) (thickness 0.15)))
  )
  (fp_text value Samtec_HLE-134-02-xxx-DV-BE-A_2x17_P2.54mm_Horizontal (at 0 4.76) (layer F.Fab)
    (effects (font (size 1 1) (thickness 0.15)))
  )
  (fp_line (start -21.59 -2.54) (end 21.59 -2.54) (layer F.Fab) (width 0.1))
  (fp_line (start 21.59 -2.54) (end 21.59 2.54) (layer F.Fab) (width 0.1))
  (fp_line (start 21.59 2.54) (end -21.59 2.54) (layer F.Fab) (width 0.1))
  (fp_line (start -21.59 2.54) (end -21.59 -2.54) (layer F.Fab) (width 0.1))
  (fp_line (start -20.82 -2.54) (end -20.32 -1.832893) (layer F.Fab) (width 0.1))
  (fp_line (start -20.32 -1.832893) (end -19.82 -2.54) (layer F.Fab) (width 0.1))
  (fp_line (start -21.215 -3.56) (end -21.215 -2.65) (layer F.SilkS) (width 0.12))
  (fp_line (start -21.215 -2.65) (end -21.7 -2.65) (layer F.SilkS) (width 0.12))
  (fp_line (start -21.7 -2.65) (end -21.7 2.65) (layer F.SilkS) (width 0.12))
  (fp_line (start -21.7 2.65) (end -21.215 2.65) (layer F.SilkS) (width 0.12))
  (fp_line (start 21.215 -2.65) (end 21.7 -2.65) (layer F.SilkS) (width 0.12))
  (fp_line (start 21.7 -2.65) (end 21.7 2.65) (layer F.SilkS) (width 0.12))
  (fp_line (start 21.7 2.65) (end 21.215 2.65) (layer F.SilkS) (width 0.12))
  (fp_line (start -19.425 -2.65) (end -18.675 -2.65) (layer F.SilkS) (width 0.12))
  (fp_line (start -19.425 2.65) (end -18.675 2.65) (layer F.SilkS) (width 0.12))
  (fp_line (start -16.885 -2.65) (end -16.135 -2.65) (layer F.SilkS) (width 0.12))
  (fp_line (start -16.885 2.65) (end -16.135 2.65) (layer F.SilkS) (width 0.12))
  (fp_line (start -14.345 -2.65) (end -13.595 -2.65) (layer F.SilkS) (width 0.12))
  (fp_line (start -14.345 2.65) (end -13.595 2.65) (layer F.SilkS) (width 0.12))
  (fp_line (start -11.805 -2.65) (end -11.055 -2.65) (layer F.SilkS) (width 0.12))
  (fp_line (start -11.805 2.65) (end -11.055 2.65) (layer F.SilkS) (width 0.12))
  (fp_line (start -9.265 -2.65) (end -8.515 -2.65) (layer F.SilkS) (width 0.12))
  (fp_line (start -9.265 2.65) (end -8.515 2.65) (layer F.SilkS) (width 0.12))
  (fp_line (start -6.725 -2.65) (end -5.975 -2.65) (layer F.SilkS) (width 0.12))
  (fp_line (start -6.725 2.65) (end -5.975 2.65) (layer F.SilkS) (width 0.12))
  (fp_line (start -4.185 -2.65) (end -3.435 -2.65) (layer F.SilkS) (width 0.12))
  (fp_line (start -4.185 2.65) (end -3.435 2.65) (layer F.SilkS) (width 0.12))
  (fp_line (start -1.645 -2.65) (end -0.895 -2.65) (layer F.SilkS) (width 0.12))
  (fp_line (start -1.645 2.65) (end -0.895 2.65) (layer F.SilkS) (width 0.12))
  (fp_line (start 0.895 -2.65) (end 1.645 -2.65) (layer F.SilkS) (width 0.12))
  (fp_line (start 0.895 2.65) (end 1.645 2.65) (layer F.SilkS) (width 0.12))
  (fp_line (start 3.435 -2.65) (end 4.185 -2.65) (layer F.SilkS) (width 0.12))
  (fp_line (start 3.435 2.65) (end 4.185 2.65) (layer F.SilkS) (width 0.12))
  (fp_line (start 5.975 -2.65) (end 6.725 -2.65) (layer F.SilkS) (width 0.12))
  (fp_line (start 5.975 2.65) (end 6.725 2.65) (layer F.SilkS) (width 0.12))
  (fp_line (start 8.515 -2.65) (end 9.265 -2.65) (layer F.SilkS) (width 0.12))
  (fp_line (start 8.515 2.65) (end 9.265 2.65) (layer F.SilkS) (width 0.12))
  (fp_line (start 11.055 -2.65) (end 11.805 -2.65) (layer F.SilkS) (width 0.12))
  (fp_line (start 11.055 2.65) (end 11.805 2.65) (layer F.SilkS) (width 0.12))
  (fp_line (start 13.595 -2.65) (end 14.345 -2.65) (layer F.SilkS) (width 0.12))
  (fp_line (start 13.595 2.65) (end 14.345 2.65) (layer F.SilkS) (width 0.12))
  (fp_line (start 16.135 -2.65) (end 16.885 -2.65) (layer F.SilkS) (width 0.12))
  (fp_line (start 16.135 2.65) (end 16.885 2.65) (layer F.SilkS) (width 0.12))
  (fp_line (start 18.675 -2.65) (end 19.425 -2.65) (layer F.SilkS) (width 0.12))
  (fp_line (start 18.675 2.65) (end 19.425 2.65) (layer F.SilkS) (width 0.12))
  (fp_line (start -22.09 -4.06) (end 22.09 -4.06) (layer F.CrtYd) (width 0.05))
  (fp_line (start 22.09 -4.06) (end 22.09 4.06) (layer F.CrtYd) (width 0.05))
  (fp_line (start 22.09 4.06) (end -22.09 4.06) (layer F.CrtYd) (width 0.05))
  (fp_line (start -22.09 4.06) (end -22.09 -4.06) (layer F.CrtYd) (width 0.05))
  (pad "" np_thru_hole circle (at -19.05 0) (size 1.78 1.78) (drill 1.78) (layers *.Cu *.Mask))
  (pad "" np_thru_hole circle (at 19.05 0) (size 1.78 1.78) (drill 1.78) (layers *.Cu *.Mask))
  (pad "" np_thru_hole circle (at -20.32 -1.27) (size 0.97 0.97) (drill 0.97) (layers *.Cu *.Mask))
  (pad "" np_thru_hole circle (at -20.32 1.27) (size 0.97 0.97) (drill 0.97) (layers *.Cu *.Mask))
  (pad "" np_thru_hole circle (at -17.78 -1.27) (size 0.97 0.97) (drill 0.97) (layers *.Cu *.Mask))
  (pad "" np_thru_hole circle (at -17.78 1.27) (size 0.97 0.97) (drill 0.97) (layers *.Cu *.Mask))
  (pad "" np_thru_hole circle (at -15.24 -1.27) (size 0.97 0.97) (drill 0.97) (layers *.Cu *.Mask))
  (pad "" np_thru_hole circle (at -15.24 1.27) (size 0.97 0.97) (drill 0.97) (layers *.Cu *.Mask))
  (pad "" np_thru_hole circle (at -12.7 -1.27) (size 0.97 0.97) (drill 0.97) (layers *.Cu *.Mask))
  (pad "" np_thru_hole circle (at -12.7 1.27) (size 0.97 0.97) (drill 0.97) (layers *.Cu *.Mask))
  (pad "" np_thru_hole circle (at -10.16 -1.27) (size 0.97 0.97) (drill 0.97) (layers *.Cu *.Mask))
  (pad "" np_thru_hole circle (at -10.16 1.27) (size 0.97 0.97) (drill 0.97) (layers *.Cu *.Mask))
  (pad "" np_thru_hole circle (at -7.62 -1.27) (size 0.97 0.97) (drill 0.97) (layers *.Cu *.Mask))
  (pad "" np_thru_hole circle (at -7.62 1.27) (size 0.97 0.97) (drill 0.97) (layers *.Cu *.Mask))
  (pad "" np_thru_hole circle (at -5.08 -1.27) (size 0.97 0.97) (drill 0.97) (layers *.Cu *.Mask))
  (pad "" np_thru_hole circle (at -5.08 1.27) (size 0.97 0.97) (drill 0.97) (layers *.Cu *.Mask))
  (pad "" np_thru_hole circle (at -2.54 -1.27) (size 0.97 0.97) (drill 0.97) (layers *.Cu *.Mask))
  (pad "" np_thru_hole circle (at -2.54 1.27) (size 0.97 0.97) (drill 0.97) (layers *.Cu *.Mask))
  (pad "" np_thru_hole circle (at 0 -1.27) (size 0.97 0.97) (drill 0.97) (layers *.Cu *.Mask))
  (pad "" np_thru_hole circle (at 0 1.27) (size 0.97 0.97) (drill 0.97) (layers *.Cu *.Mask))
  (pad "" np_thru_hole circle (at 2.54 -1.27) (size 0.97 0.97) (drill 0.97) (layers *.Cu *.Mask))
  (pad "" np_thru_hole circle (at 2.54 1.27) (size 0.97 0.97) (drill 0.97) (layers *.Cu *.Mask))
  (pad "" np_thru_hole circle (at 5.08 -1.27) (size 0.97 0.97) (drill 0.97) (layers *.Cu *.Mask))
  (pad "" np_thru_hole circle (at 5.08 1.27) (size 0.97 0.97) (drill 0.97) (layers *.Cu *.Mask))
  (pad "" np_thru_hole circle (at 7.62 -1.27) (size 0.97 0.97) (drill 0.97) (layers *.Cu *.Mask))
  (pad "" np_thru_hole circle (at 7.62 1.27) (size 0.97 0.97) (drill 0.97) (layers *.Cu *.Mask))
  (pad "" np_thru_hole circle (at 10.16 -1.27) (size 0.97 0.97) (drill 0.97) (layers *.Cu *.Mask))
  (pad "" np_thru_hole circle (at 10.16 1.27) (size 0.97 0.97) (drill 0.97) (layers *.Cu *.Mask))
  (pad "" np_thru_hole circle (at 12.7 -1.27) (size 0.97 0.97) (drill 0.97) (layers *.Cu *.Mask))
  (pad "" np_thru_hole circle (at 12.7 1.27) (size 0.97 0.97) (drill 0.97) (layers *.Cu *.Mask))
  (pad "" np_thru_hole circle (at 15.24 -1.27) (size 0.97 0.97) (drill 0.97) (layers *.Cu *.Mask))
  (pad "" np_thru_hole circle (at 15.24 1.27) (size 0.97 0.97) (drill 0.97) (layers *.Cu *.Mask))
  (pad "" np_thru_hole circle (at 17.78 -1.27) (size 0.97 0.97) (drill 0.97) (layers *.Cu *.Mask))
  (pad "" np_thru_hole circle (at 17.78 1.27) (size 0.97 0.97) (drill 0.97) (layers *.Cu *.Mask))
  (pad "" np_thru_hole circle (at 20.32 -1.27) (size 0.97 0.97) (drill 0.97) (layers *.Cu *.Mask))
  (pad "" np_thru_hole circle (at 20.32 1.27) (size 0.97 0.97) (drill 0.97) (layers *.Cu *.Mask))
  (pad 1 smd rect (at -20.32 -2.72) (size 1.27 1.68) (layers F.Cu F.Mask F.Paste))
  (pad 3 smd rect (at -17.78 -2.72) (size 1.27 1.68) (layers F.Cu F.Mask F.Paste))
  (pad 5 smd rect (at -15.24 -2.72) (size 1.27 1.68) (layers F.Cu F.Mask F.Paste))
  (pad 7 smd rect (at -12.7 -2.72) (size 1.27 1.68) (layers F.Cu F.Mask F.Paste))
  (pad 9 smd rect (at -10.16 -2.72) (size 1.27 1.68) (layers F.Cu F.Mask F.Paste))
  (pad 11 smd rect (at -7.62 -2.72) (size 1.27 1.68) (layers F.Cu F.Mask F.Paste))
  (pad 13 smd rect (at -5.08 -2.72) (size 1.27 1.68) (layers F.Cu F.Mask F.Paste))
  (pad 15 smd rect (at -2.54 -2.72) (size 1.27 1.68) (layers F.Cu F.Mask F.Paste))
  (pad 17 smd rect (at 0 -2.72) (size 1.27 1.68) (layers F.Cu F.Mask F.Paste))
  (pad 19 smd rect (at 2.54 -2.72) (size 1.27 1.68) (layers F.Cu F.Mask F.Paste))
  (pad 21 smd rect (at 5.08 -2.72) (size 1.27 1.68) (layers F.Cu F.Mask F.Paste))
  (pad 23 smd rect (at 7.62 -2.72) (size 1.27 1.68) (layers F.Cu F.Mask F.Paste))
  (pad 25 smd rect (at 10.16 -2.72) (size 1.27 1.68) (layers F.Cu F.Mask F.Paste))
  (pad 27 smd rect (at 12.7 -2.72) (size 1.27 1.68) (layers F.Cu F.Mask F.Paste))
  (pad 29 smd rect (at 15.24 -2.72) (size 1.27 1.68) (layers F.Cu F.Mask F.Paste))
  (pad 31 smd rect (at 17.78 -2.72) (size 1.27 1.68) (layers F.Cu F.Mask F.Paste))
  (pad 33 smd rect (at 20.32 -2.72) (size 1.27 1.68) (layers F.Cu F.Mask F.Paste))
  (pad 2 smd rect (at -20.32 2.72) (size 1.27 1.68) (layers F.Cu F.Mask F.Paste))
  (pad 4 smd rect (at -17.78 2.72) (size 1.27 1.68) (layers F.Cu F.Mask F.Paste))
  (pad 6 smd rect (at -15.24 2.72) (size 1.27 1.68) (layers F.Cu F.Mask F.Paste))
  (pad 8 smd rect (at -12.7 2.72) (size 1.27 1.68) (layers F.Cu F.Mask F.Paste))
  (pad 10 smd rect (at -10.16 2.72) (size 1.27 1.68) (layers F.Cu F.Mask F.Paste))
  (pad 12 smd rect (at -7.62 2.72) (size 1.27 1.68) (layers F.Cu F.Mask F.Paste))
  (pad 14 smd rect (at -5.08 2.72) (size 1.27 1.68) (layers F.Cu F.Mask F.Paste))
  (pad 16 smd rect (at -2.54 2.72) (size 1.27 1.68) (layers F.Cu F.Mask F.Paste))
  (pad 18 smd rect (at 0 2.72) (size 1.27 1.68) (layers F.Cu F.Mask F.Paste))
  (pad 20 smd rect (at 2.54 2.72) (size 1.27 1.68) (layers F.Cu F.Mask F.Paste))
  (pad 22 smd rect (at 5.08 2.72) (size 1.27 1.68) (layers F.Cu F.Mask F.Paste))
  (pad 24 smd rect (at 7.62 2.72) (size 1.27 1.68) (layers F.Cu F.Mask F.Paste))
  (pad 26 smd rect (at 10.16 2.72) (size 1.27 1.68) (layers F.Cu F.Mask F.Paste))
  (pad 28 smd rect (at 12.7 2.72) (size 1.27 1.68) (layers F.Cu F.Mask F.Paste))
  (pad 30 smd rect (at 15.24 2.72) (size 1.27 1.68) (layers F.Cu F.Mask F.Paste))
  (pad 32 smd rect (at 17.78 2.72) (size 1.27 1.68) (layers F.Cu F.Mask F.Paste))
  (pad 34 smd rect (at 20.32 2.72) (size 1.27 1.68) (layers F.Cu F.Mask F.Paste))
  (fp_text user %R (at 0 1.84) (layer F.Fab)
    (effects (font (size 1 1) (thickness 0.15)))
  )
  (model ${KIPRJMOD}/kicad_libs_k/models_k.3d/Connector_Samtec_k.3dshapes/Samtec_HLE-134-02-xxx-DV-BE-A_2x17_P2.54mm_Horizontal_k.wrl
    (at (xyz 0 0 0))
    (scale (xyz 1 1 1))
    (rotate (xyz 0 0 0))
  )
)