(module Samtec_HLE-188-02-xxx-DV-BE-LC_2x44_P2.54mm_Horizontal (layer F.Cu) (tedit 5A369BEF)
  (descr "Samtec HLE .100\" Tiger Beam Cost-effective Single Beam Socket Strip, HLE-188-02-xxx-DV-BE-LC, 44 Pins per row (http://suddendocs.samtec.com/prints/hle-1xx-02-xxx-dv-xx-xx-xx-mkt.pdf, http://suddendocs.samtec.com/prints/hle-dv-footprint.pdf), generated with kicad-footprint-generator")
  (tags "connector Samtec  top entry")
  (attr smd)
  (fp_text reference REF** (at 0 -4.76) (layer F.SilkS)
    (effects (font (size 1 1) (thickness 0.15)))
  )
  (fp_text value Samtec_HLE-188-02-xxx-DV-BE-LC_2x44_P2.54mm_Horizontal (at 0 4.76) (layer F.Fab)
    (effects (font (size 1 1) (thickness 0.15)))
  )
  (fp_line (start -55.88 -2.54) (end 55.88 -2.54) (layer F.Fab) (width 0.1))
  (fp_line (start 55.88 -2.54) (end 55.88 2.54) (layer F.Fab) (width 0.1))
  (fp_line (start 55.88 2.54) (end -55.88 2.54) (layer F.Fab) (width 0.1))
  (fp_line (start -55.88 2.54) (end -55.88 -2.54) (layer F.Fab) (width 0.1))
  (fp_line (start -55.11 -2.54) (end -54.61 -1.832893) (layer F.Fab) (width 0.1))
  (fp_line (start -54.61 -1.832893) (end -54.11 -2.54) (layer F.Fab) (width 0.1))
  (fp_line (start -55.505 -3.56) (end -55.505 -2.65) (layer F.SilkS) (width 0.12))
  (fp_line (start -55.505 -2.65) (end -55.99 -2.65) (layer F.SilkS) (width 0.12))
  (fp_line (start -55.99 -2.65) (end -55.99 2.65) (layer F.SilkS) (width 0.12))
  (fp_line (start -55.99 2.65) (end -55.505 2.65) (layer F.SilkS) (width 0.12))
  (fp_line (start 55.505 -2.65) (end 55.99 -2.65) (layer F.SilkS) (width 0.12))
  (fp_line (start 55.99 -2.65) (end 55.99 2.65) (layer F.SilkS) (width 0.12))
  (fp_line (start 55.99 2.65) (end 55.505 2.65) (layer F.SilkS) (width 0.12))
  (fp_line (start -53.715 -2.65) (end -52.965 -2.65) (layer F.SilkS) (width 0.12))
  (fp_line (start -53.715 2.65) (end -52.965 2.65) (layer F.SilkS) (width 0.12))
  (fp_line (start -51.175 -2.65) (end -50.425 -2.65) (layer F.SilkS) (width 0.12))
  (fp_line (start -51.175 2.65) (end -50.425 2.65) (layer F.SilkS) (width 0.12))
  (fp_line (start -48.635 -2.65) (end -47.885 -2.65) (layer F.SilkS) (width 0.12))
  (fp_line (start -48.635 2.65) (end -47.885 2.65) (layer F.SilkS) (width 0.12))
  (fp_line (start -46.095 -2.65) (end -45.345 -2.65) (layer F.SilkS) (width 0.12))
  (fp_line (start -46.095 2.65) (end -45.345 2.65) (layer F.SilkS) (width 0.12))
  (fp_line (start -43.555 -2.65) (end -42.805 -2.65) (layer F.SilkS) (width 0.12))
  (fp_line (start -43.555 2.65) (end -42.805 2.65) (layer F.SilkS) (width 0.12))
  (fp_line (start -41.015 -2.65) (end -40.265 -2.65) (layer F.SilkS) (width 0.12))
  (fp_line (start -41.015 2.65) (end -40.265 2.65) (layer F.SilkS) (width 0.12))
  (fp_line (start -38.475 -2.65) (end -37.725 -2.65) (layer F.SilkS) (width 0.12))
  (fp_line (start -38.475 2.65) (end -37.725 2.65) (layer F.SilkS) (width 0.12))
  (fp_line (start -35.935 -2.65) (end -35.185 -2.65) (layer F.SilkS) (width 0.12))
  (fp_line (start -35.935 2.65) (end -35.185 2.65) (layer F.SilkS) (width 0.12))
  (fp_line (start -33.395 -2.65) (end -32.645 -2.65) (layer F.SilkS) (width 0.12))
  (fp_line (start -33.395 2.65) (end -32.645 2.65) (layer F.SilkS) (width 0.12))
  (fp_line (start -30.855 -2.65) (end -30.105 -2.65) (layer F.SilkS) (width 0.12))
  (fp_line (start -30.855 2.65) (end -30.105 2.65) (layer F.SilkS) (width 0.12))
  (fp_line (start -28.315 -2.65) (end -27.565 -2.65) (layer F.SilkS) (width 0.12))
  (fp_line (start -28.315 2.65) (end -27.565 2.65) (layer F.SilkS) (width 0.12))
  (fp_line (start -25.775 -2.65) (end -25.025 -2.65) (layer F.SilkS) (width 0.12))
  (fp_line (start -25.775 2.65) (end -25.025 2.65) (layer F.SilkS) (width 0.12))
  (fp_line (start -23.235 -2.65) (end -22.485 -2.65) (layer F.SilkS) (width 0.12))
  (fp_line (start -23.235 2.65) (end -22.485 2.65) (layer F.SilkS) (width 0.12))
  (fp_line (start -20.695 -2.65) (end -19.945 -2.65) (layer F.SilkS) (width 0.12))
  (fp_line (start -20.695 2.65) (end -19.945 2.65) (layer F.SilkS) (width 0.12))
  (fp_line (start -18.155 -2.65) (end -17.405 -2.65) (layer F.SilkS) (width 0.12))
  (fp_line (start -18.155 2.65) (end -17.405 2.65) (layer F.SilkS) (width 0.12))
  (fp_line (start -15.615 -2.65) (end -14.865 -2.65) (layer F.SilkS) (width 0.12))
  (fp_line (start -15.615 2.65) (end -14.865 2.65) (layer F.SilkS) (width 0.12))
  (fp_line (start -13.075 -2.65) (end -12.325 -2.65) (layer F.SilkS) (width 0.12))
  (fp_line (start -13.075 2.65) (end -12.325 2.65) (layer F.SilkS) (width 0.12))
  (fp_line (start -10.535 -2.65) (end -9.785 -2.65) (layer F.SilkS) (width 0.12))
  (fp_line (start -10.535 2.65) (end -9.785 2.65) (layer F.SilkS) (width 0.12))
  (fp_line (start -7.995 -2.65) (end -7.245 -2.65) (layer F.SilkS) (width 0.12))
  (fp_line (start -7.995 2.65) (end -7.245 2.65) (layer F.SilkS) (width 0.12))
  (fp_line (start -5.455 -2.65) (end -4.705 -2.65) (layer F.SilkS) (width 0.12))
  (fp_line (start -5.455 2.65) (end -4.705 2.65) (layer F.SilkS) (width 0.12))
  (fp_line (start -2.915 -2.65) (end -2.165 -2.65) (layer F.SilkS) (width 0.12))
  (fp_line (start -2.915 2.65) (end -2.165 2.65) (layer F.SilkS) (width 0.12))
  (fp_line (start -0.375 -2.65) (end 0.375 -2.65) (layer F.SilkS) (width 0.12))
  (fp_line (start -0.375 2.65) (end 0.375 2.65) (layer F.SilkS) (width 0.12))
  (fp_line (start 2.165 -2.65) (end 2.915 -2.65) (layer F.SilkS) (width 0.12))
  (fp_line (start 2.165 2.65) (end 2.915 2.65) (layer F.SilkS) (width 0.12))
  (fp_line (start 4.705 -2.65) (end 5.455 -2.65) (layer F.SilkS) (width 0.12))
  (fp_line (start 4.705 2.65) (end 5.455 2.65) (layer F.SilkS) (width 0.12))
  (fp_line (start 7.245 -2.65) (end 7.995 -2.65) (layer F.SilkS) (width 0.12))
  (fp_line (start 7.245 2.65) (end 7.995 2.65) (layer F.SilkS) (width 0.12))
  (fp_line (start 9.785 -2.65) (end 10.535 -2.65) (layer F.SilkS) (width 0.12))
  (fp_line (start 9.785 2.65) (end 10.535 2.65) (layer F.SilkS) (width 0.12))
  (fp_line (start 12.325 -2.65) (end 13.075 -2.65) (layer F.SilkS) (width 0.12))
  (fp_line (start 12.325 2.65) (end 13.075 2.65) (layer F.SilkS) (width 0.12))
  (fp_line (start 14.865 -2.65) (end 15.615 -2.65) (layer F.SilkS) (width 0.12))
  (fp_line (start 14.865 2.65) (end 15.615 2.65) (layer F.SilkS) (width 0.12))
  (fp_line (start 17.405 -2.65) (end 18.155 -2.65) (layer F.SilkS) (width 0.12))
  (fp_line (start 17.405 2.65) (end 18.155 2.65) (layer F.SilkS) (width 0.12))
  (fp_line (start 19.945 -2.65) (end 20.695 -2.65) (layer F.SilkS) (width 0.12))
  (fp_line (start 19.945 2.65) (end 20.695 2.65) (layer F.SilkS) (width 0.12))
  (fp_line (start 22.485 -2.65) (end 23.235 -2.65) (layer F.SilkS) (width 0.12))
  (fp_line (start 22.485 2.65) (end 23.235 2.65) (layer F.SilkS) (width 0.12))
  (fp_line (start 25.025 -2.65) (end 25.775 -2.65) (layer F.SilkS) (width 0.12))
  (fp_line (start 25.025 2.65) (end 25.775 2.65) (layer F.SilkS) (width 0.12))
  (fp_line (start 27.565 -2.65) (end 28.315 -2.65) (layer F.SilkS) (width 0.12))
  (fp_line (start 27.565 2.65) (end 28.315 2.65) (layer F.SilkS) (width 0.12))
  (fp_line (start 30.105 -2.65) (end 30.855 -2.65) (layer F.SilkS) (width 0.12))
  (fp_line (start 30.105 2.65) (end 30.855 2.65) (layer F.SilkS) (width 0.12))
  (fp_line (start 32.645 -2.65) (end 33.395 -2.65) (layer F.SilkS) (width 0.12))
  (fp_line (start 32.645 2.65) (end 33.395 2.65) (layer F.SilkS) (width 0.12))
  (fp_line (start 35.185 -2.65) (end 35.935 -2.65) (layer F.SilkS) (width 0.12))
  (fp_line (start 35.185 2.65) (end 35.935 2.65) (layer F.SilkS) (width 0.12))
  (fp_line (start 37.725 -2.65) (end 38.475 -2.65) (layer F.SilkS) (width 0.12))
  (fp_line (start 37.725 2.65) (end 38.475 2.65) (layer F.SilkS) (width 0.12))
  (fp_line (start 40.265 -2.65) (end 41.015 -2.65) (layer F.SilkS) (width 0.12))
  (fp_line (start 40.265 2.65) (end 41.015 2.65) (layer F.SilkS) (width 0.12))
  (fp_line (start 42.805 -2.65) (end 43.555 -2.65) (layer F.SilkS) (width 0.12))
  (fp_line (start 42.805 2.65) (end 43.555 2.65) (layer F.SilkS) (width 0.12))
  (fp_line (start 45.345 -2.65) (end 46.095 -2.65) (layer F.SilkS) (width 0.12))
  (fp_line (start 45.345 2.65) (end 46.095 2.65) (layer F.SilkS) (width 0.12))
  (fp_line (start 47.885 -2.65) (end 48.635 -2.65) (layer F.SilkS) (width 0.12))
  (fp_line (start 47.885 2.65) (end 48.635 2.65) (layer F.SilkS) (width 0.12))
  (fp_line (start 50.425 -2.65) (end 51.175 -2.65) (layer F.SilkS) (width 0.12))
  (fp_line (start 50.425 2.65) (end 51.175 2.65) (layer F.SilkS) (width 0.12))
  (fp_line (start 52.965 -2.65) (end 53.715 -2.65) (layer F.SilkS) (width 0.12))
  (fp_line (start 52.965 2.65) (end 53.715 2.65) (layer F.SilkS) (width 0.12))
  (fp_line (start -56.38 -4.06) (end 56.38 -4.06) (layer F.CrtYd) (width 0.05))
  (fp_line (start 56.38 -4.06) (end 56.38 4.06) (layer F.CrtYd) (width 0.05))
  (fp_line (start 56.38 4.06) (end -56.38 4.06) (layer F.CrtYd) (width 0.05))
  (fp_line (start -56.38 4.06) (end -56.38 -4.06) (layer F.CrtYd) (width 0.05))
  (pad "" np_thru_hole circle (at -53.34 0) (size 1.19 1.19) (drill 1.19) (layers *.Cu *.Mask))
  (pad "" np_thru_hole circle (at 53.34 0) (size 1.19 1.19) (drill 1.19) (layers *.Cu *.Mask))
  (pad "" np_thru_hole circle (at -54.61 -1.27) (size 0.97 0.97) (drill 0.97) (layers *.Cu *.Mask))
  (pad "" np_thru_hole circle (at -54.61 1.27) (size 0.97 0.97) (drill 0.97) (layers *.Cu *.Mask))
  (pad "" np_thru_hole circle (at -52.07 -1.27) (size 0.97 0.97) (drill 0.97) (layers *.Cu *.Mask))
  (pad "" np_thru_hole circle (at -52.07 1.27) (size 0.97 0.97) (drill 0.97) (layers *.Cu *.Mask))
  (pad "" np_thru_hole circle (at -49.53 -1.27) (size 0.97 0.97) (drill 0.97) (layers *.Cu *.Mask))
  (pad "" np_thru_hole circle (at -49.53 1.27) (size 0.97 0.97) (drill 0.97) (layers *.Cu *.Mask))
  (pad "" np_thru_hole circle (at -46.99 -1.27) (size 0.97 0.97) (drill 0.97) (layers *.Cu *.Mask))
  (pad "" np_thru_hole circle (at -46.99 1.27) (size 0.97 0.97) (drill 0.97) (layers *.Cu *.Mask))
  (pad "" np_thru_hole circle (at -44.45 -1.27) (size 0.97 0.97) (drill 0.97) (layers *.Cu *.Mask))
  (pad "" np_thru_hole circle (at -44.45 1.27) (size 0.97 0.97) (drill 0.97) (layers *.Cu *.Mask))
  (pad "" np_thru_hole circle (at -41.91 -1.27) (size 0.97 0.97) (drill 0.97) (layers *.Cu *.Mask))
  (pad "" np_thru_hole circle (at -41.91 1.27) (size 0.97 0.97) (drill 0.97) (layers *.Cu *.Mask))
  (pad "" np_thru_hole circle (at -39.37 -1.27) (size 0.97 0.97) (drill 0.97) (layers *.Cu *.Mask))
  (pad "" np_thru_hole circle (at -39.37 1.27) (size 0.97 0.97) (drill 0.97) (layers *.Cu *.Mask))
  (pad "" np_thru_hole circle (at -36.83 -1.27) (size 0.97 0.97) (drill 0.97) (layers *.Cu *.Mask))
  (pad "" np_thru_hole circle (at -36.83 1.27) (size 0.97 0.97) (drill 0.97) (layers *.Cu *.Mask))
  (pad "" np_thru_hole circle (at -34.29 -1.27) (size 0.97 0.97) (drill 0.97) (layers *.Cu *.Mask))
  (pad "" np_thru_hole circle (at -34.29 1.27) (size 0.97 0.97) (drill 0.97) (layers *.Cu *.Mask))
  (pad "" np_thru_hole circle (at -31.75 -1.27) (size 0.97 0.97) (drill 0.97) (layers *.Cu *.Mask))
  (pad "" np_thru_hole circle (at -31.75 1.27) (size 0.97 0.97) (drill 0.97) (layers *.Cu *.Mask))
  (pad "" np_thru_hole circle (at -29.21 -1.27) (size 0.97 0.97) (drill 0.97) (layers *.Cu *.Mask))
  (pad "" np_thru_hole circle (at -29.21 1.27) (size 0.97 0.97) (drill 0.97) (layers *.Cu *.Mask))
  (pad "" np_thru_hole circle (at -26.67 -1.27) (size 0.97 0.97) (drill 0.97) (layers *.Cu *.Mask))
  (pad "" np_thru_hole circle (at -26.67 1.27) (size 0.97 0.97) (drill 0.97) (layers *.Cu *.Mask))
  (pad "" np_thru_hole circle (at -24.13 -1.27) (size 0.97 0.97) (drill 0.97) (layers *.Cu *.Mask))
  (pad "" np_thru_hole circle (at -24.13 1.27) (size 0.97 0.97) (drill 0.97) (layers *.Cu *.Mask))
  (pad "" np_thru_hole circle (at -21.59 -1.27) (size 0.97 0.97) (drill 0.97) (layers *.Cu *.Mask))
  (pad "" np_thru_hole circle (at -21.59 1.27) (size 0.97 0.97) (drill 0.97) (layers *.Cu *.Mask))
  (pad "" np_thru_hole circle (at -19.05 -1.27) (size 0.97 0.97) (drill 0.97) (layers *.Cu *.Mask))
  (pad "" np_thru_hole circle (at -19.05 1.27) (size 0.97 0.97) (drill 0.97) (layers *.Cu *.Mask))
  (pad "" np_thru_hole circle (at -16.51 -1.27) (size 0.97 0.97) (drill 0.97) (layers *.Cu *.Mask))
  (pad "" np_thru_hole circle (at -16.51 1.27) (size 0.97 0.97) (drill 0.97) (layers *.Cu *.Mask))
  (pad "" np_thru_hole circle (at -13.97 -1.27) (size 0.97 0.97) (drill 0.97) (layers *.Cu *.Mask))
  (pad "" np_thru_hole circle (at -13.97 1.27) (size 0.97 0.97) (drill 0.97) (layers *.Cu *.Mask))
  (pad "" np_thru_hole circle (at -11.43 -1.27) (size 0.97 0.97) (drill 0.97) (layers *.Cu *.Mask))
  (pad "" np_thru_hole circle (at -11.43 1.27) (size 0.97 0.97) (drill 0.97) (layers *.Cu *.Mask))
  (pad "" np_thru_hole circle (at -8.89 -1.27) (size 0.97 0.97) (drill 0.97) (layers *.Cu *.Mask))
  (pad "" np_thru_hole circle (at -8.89 1.27) (size 0.97 0.97) (drill 0.97) (layers *.Cu *.Mask))
  (pad "" np_thru_hole circle (at -6.35 -1.27) (size 0.97 0.97) (drill 0.97) (layers *.Cu *.Mask))
  (pad "" np_thru_hole circle (at -6.35 1.27) (size 0.97 0.97) (drill 0.97) (layers *.Cu *.Mask))
  (pad "" np_thru_hole circle (at -3.81 -1.27) (size 0.97 0.97) (drill 0.97) (layers *.Cu *.Mask))
  (pad "" np_thru_hole circle (at -3.81 1.27) (size 0.97 0.97) (drill 0.97) (layers *.Cu *.Mask))
  (pad "" np_thru_hole circle (at -1.27 -1.27) (size 0.97 0.97) (drill 0.97) (layers *.Cu *.Mask))
  (pad "" np_thru_hole circle (at -1.27 1.27) (size 0.97 0.97) (drill 0.97) (layers *.Cu *.Mask))
  (pad "" np_thru_hole circle (at 1.27 -1.27) (size 0.97 0.97) (drill 0.97) (layers *.Cu *.Mask))
  (pad "" np_thru_hole circle (at 1.27 1.27) (size 0.97 0.97) (drill 0.97) (layers *.Cu *.Mask))
  (pad "" np_thru_hole circle (at 3.81 -1.27) (size 0.97 0.97) (drill 0.97) (layers *.Cu *.Mask))
  (pad "" np_thru_hole circle (at 3.81 1.27) (size 0.97 0.97) (drill 0.97) (layers *.Cu *.Mask))
  (pad "" np_thru_hole circle (at 6.35 -1.27) (size 0.97 0.97) (drill 0.97) (layers *.Cu *.Mask))
  (pad "" np_thru_hole circle (at 6.35 1.27) (size 0.97 0.97) (drill 0.97) (layers *.Cu *.Mask))
  (pad "" np_thru_hole circle (at 8.89 -1.27) (size 0.97 0.97) (drill 0.97) (layers *.Cu *.Mask))
  (pad "" np_thru_hole circle (at 8.89 1.27) (size 0.97 0.97) (drill 0.97) (layers *.Cu *.Mask))
  (pad "" np_thru_hole circle (at 11.43 -1.27) (size 0.97 0.97) (drill 0.97) (layers *.Cu *.Mask))
  (pad "" np_thru_hole circle (at 11.43 1.27) (size 0.97 0.97) (drill 0.97) (layers *.Cu *.Mask))
  (pad "" np_thru_hole circle (at 13.97 -1.27) (size 0.97 0.97) (drill 0.97) (layers *.Cu *.Mask))
  (pad "" np_thru_hole circle (at 13.97 1.27) (size 0.97 0.97) (drill 0.97) (layers *.Cu *.Mask))
  (pad "" np_thru_hole circle (at 16.51 -1.27) (size 0.97 0.97) (drill 0.97) (layers *.Cu *.Mask))
  (pad "" np_thru_hole circle (at 16.51 1.27) (size 0.97 0.97) (drill 0.97) (layers *.Cu *.Mask))
  (pad "" np_thru_hole circle (at 19.05 -1.27) (size 0.97 0.97) (drill 0.97) (layers *.Cu *.Mask))
  (pad "" np_thru_hole circle (at 19.05 1.27) (size 0.97 0.97) (drill 0.97) (layers *.Cu *.Mask))
  (pad "" np_thru_hole circle (at 21.59 -1.27) (size 0.97 0.97) (drill 0.97) (layers *.Cu *.Mask))
  (pad "" np_thru_hole circle (at 21.59 1.27) (size 0.97 0.97) (drill 0.97) (layers *.Cu *.Mask))
  (pad "" np_thru_hole circle (at 24.13 -1.27) (size 0.97 0.97) (drill 0.97) (layers *.Cu *.Mask))
  (pad "" np_thru_hole circle (at 24.13 1.27) (size 0.97 0.97) (drill 0.97) (layers *.Cu *.Mask))
  (pad "" np_thru_hole circle (at 26.67 -1.27) (size 0.97 0.97) (drill 0.97) (layers *.Cu *.Mask))
  (pad "" np_thru_hole circle (at 26.67 1.27) (size 0.97 0.97) (drill 0.97) (layers *.Cu *.Mask))
  (pad "" np_thru_hole circle (at 29.21 -1.27) (size 0.97 0.97) (drill 0.97) (layers *.Cu *.Mask))
  (pad "" np_thru_hole circle (at 29.21 1.27) (size 0.97 0.97) (drill 0.97) (layers *.Cu *.Mask))
  (pad "" np_thru_hole circle (at 31.75 -1.27) (size 0.97 0.97) (drill 0.97) (layers *.Cu *.Mask))
  (pad "" np_thru_hole circle (at 31.75 1.27) (size 0.97 0.97) (drill 0.97) (layers *.Cu *.Mask))
  (pad "" np_thru_hole circle (at 34.29 -1.27) (size 0.97 0.97) (drill 0.97) (layers *.Cu *.Mask))
  (pad "" np_thru_hole circle (at 34.29 1.27) (size 0.97 0.97) (drill 0.97) (layers *.Cu *.Mask))
  (pad "" np_thru_hole circle (at 36.83 -1.27) (size 0.97 0.97) (drill 0.97) (layers *.Cu *.Mask))
  (pad "" np_thru_hole circle (at 36.83 1.27) (size 0.97 0.97) (drill 0.97) (layers *.Cu *.Mask))
  (pad "" np_thru_hole circle (at 39.37 -1.27) (size 0.97 0.97) (drill 0.97) (layers *.Cu *.Mask))
  (pad "" np_thru_hole circle (at 39.37 1.27) (size 0.97 0.97) (drill 0.97) (layers *.Cu *.Mask))
  (pad "" np_thru_hole circle (at 41.91 -1.27) (size 0.97 0.97) (drill 0.97) (layers *.Cu *.Mask))
  (pad "" np_thru_hole circle (at 41.91 1.27) (size 0.97 0.97) (drill 0.97) (layers *.Cu *.Mask))
  (pad "" np_thru_hole circle (at 44.45 -1.27) (size 0.97 0.97) (drill 0.97) (layers *.Cu *.Mask))
  (pad "" np_thru_hole circle (at 44.45 1.27) (size 0.97 0.97) (drill 0.97) (layers *.Cu *.Mask))
  (pad "" np_thru_hole circle (at 46.99 -1.27) (size 0.97 0.97) (drill 0.97) (layers *.Cu *.Mask))
  (pad "" np_thru_hole circle (at 46.99 1.27) (size 0.97 0.97) (drill 0.97) (layers *.Cu *.Mask))
  (pad "" np_thru_hole circle (at 49.53 -1.27) (size 0.97 0.97) (drill 0.97) (layers *.Cu *.Mask))
  (pad "" np_thru_hole circle (at 49.53 1.27) (size 0.97 0.97) (drill 0.97) (layers *.Cu *.Mask))
  (pad "" np_thru_hole circle (at 52.07 -1.27) (size 0.97 0.97) (drill 0.97) (layers *.Cu *.Mask))
  (pad "" np_thru_hole circle (at 52.07 1.27) (size 0.97 0.97) (drill 0.97) (layers *.Cu *.Mask))
  (pad "" np_thru_hole circle (at 54.61 -1.27) (size 0.97 0.97) (drill 0.97) (layers *.Cu *.Mask))
  (pad "" np_thru_hole circle (at 54.61 1.27) (size 0.97 0.97) (drill 0.97) (layers *.Cu *.Mask))
  (pad 1 smd rect (at -54.61 -2.72) (size 1.27 1.68) (layers F.Cu F.Mask F.Paste))
  (pad 3 smd rect (at -52.07 -2.72) (size 1.27 1.68) (layers F.Cu F.Mask F.Paste))
  (pad 5 smd rect (at -49.53 -2.72) (size 1.27 1.68) (layers F.Cu F.Mask F.Paste))
  (pad 7 smd rect (at -46.99 -2.72) (size 1.27 1.68) (layers F.Cu F.Mask F.Paste))
  (pad 9 smd rect (at -44.45 -2.72) (size 1.27 1.68) (layers F.Cu F.Mask F.Paste))
  (pad 11 smd rect (at -41.91 -2.72) (size 1.27 1.68) (layers F.Cu F.Mask F.Paste))
  (pad 13 smd rect (at -39.37 -2.72) (size 1.27 1.68) (layers F.Cu F.Mask F.Paste))
  (pad 15 smd rect (at -36.83 -2.72) (size 1.27 1.68) (layers F.Cu F.Mask F.Paste))
  (pad 17 smd rect (at -34.29 -2.72) (size 1.27 1.68) (layers F.Cu F.Mask F.Paste))
  (pad 19 smd rect (at -31.75 -2.72) (size 1.27 1.68) (layers F.Cu F.Mask F.Paste))
  (pad 21 smd rect (at -29.21 -2.72) (size 1.27 1.68) (layers F.Cu F.Mask F.Paste))
  (pad 23 smd rect (at -26.67 -2.72) (size 1.27 1.68) (layers F.Cu F.Mask F.Paste))
  (pad 25 smd rect (at -24.13 -2.72) (size 1.27 1.68) (layers F.Cu F.Mask F.Paste))
  (pad 27 smd rect (at -21.59 -2.72) (size 1.27 1.68) (layers F.Cu F.Mask F.Paste))
  (pad 29 smd rect (at -19.05 -2.72) (size 1.27 1.68) (layers F.Cu F.Mask F.Paste))
  (pad 31 smd rect (at -16.51 -2.72) (size 1.27 1.68) (layers F.Cu F.Mask F.Paste))
  (pad 33 smd rect (at -13.97 -2.72) (size 1.27 1.68) (layers F.Cu F.Mask F.Paste))
  (pad 35 smd rect (at -11.43 -2.72) (size 1.27 1.68) (layers F.Cu F.Mask F.Paste))
  (pad 37 smd rect (at -8.89 -2.72) (size 1.27 1.68) (layers F.Cu F.Mask F.Paste))
  (pad 39 smd rect (at -6.35 -2.72) (size 1.27 1.68) (layers F.Cu F.Mask F.Paste))
  (pad 41 smd rect (at -3.81 -2.72) (size 1.27 1.68) (layers F.Cu F.Mask F.Paste))
  (pad 43 smd rect (at -1.27 -2.72) (size 1.27 1.68) (layers F.Cu F.Mask F.Paste))
  (pad 45 smd rect (at 1.27 -2.72) (size 1.27 1.68) (layers F.Cu F.Mask F.Paste))
  (pad 47 smd rect (at 3.81 -2.72) (size 1.27 1.68) (layers F.Cu F.Mask F.Paste))
  (pad 49 smd rect (at 6.35 -2.72) (size 1.27 1.68) (layers F.Cu F.Mask F.Paste))
  (pad 51 smd rect (at 8.89 -2.72) (size 1.27 1.68) (layers F.Cu F.Mask F.Paste))
  (pad 53 smd rect (at 11.43 -2.72) (size 1.27 1.68) (layers F.Cu F.Mask F.Paste))
  (pad 55 smd rect (at 13.97 -2.72) (size 1.27 1.68) (layers F.Cu F.Mask F.Paste))
  (pad 57 smd rect (at 16.51 -2.72) (size 1.27 1.68) (layers F.Cu F.Mask F.Paste))
  (pad 59 smd rect (at 19.05 -2.72) (size 1.27 1.68) (layers F.Cu F.Mask F.Paste))
  (pad 61 smd rect (at 21.59 -2.72) (size 1.27 1.68) (layers F.Cu F.Mask F.Paste))
  (pad 63 smd rect (at 24.13 -2.72) (size 1.27 1.68) (layers F.Cu F.Mask F.Paste))
  (pad 65 smd rect (at 26.67 -2.72) (size 1.27 1.68) (layers F.Cu F.Mask F.Paste))
  (pad 67 smd rect (at 29.21 -2.72) (size 1.27 1.68) (layers F.Cu F.Mask F.Paste))
  (pad 69 smd rect (at 31.75 -2.72) (size 1.27 1.68) (layers F.Cu F.Mask F.Paste))
  (pad 71 smd rect (at 34.29 -2.72) (size 1.27 1.68) (layers F.Cu F.Mask F.Paste))
  (pad 73 smd rect (at 36.83 -2.72) (size 1.27 1.68) (layers F.Cu F.Mask F.Paste))
  (pad 75 smd rect (at 39.37 -2.72) (size 1.27 1.68) (layers F.Cu F.Mask F.Paste))
  (pad 77 smd rect (at 41.91 -2.72) (size 1.27 1.68) (layers F.Cu F.Mask F.Paste))
  (pad 79 smd rect (at 44.45 -2.72) (size 1.27 1.68) (layers F.Cu F.Mask F.Paste))
  (pad 81 smd rect (at 46.99 -2.72) (size 1.27 1.68) (layers F.Cu F.Mask F.Paste))
  (pad 83 smd rect (at 49.53 -2.72) (size 1.27 1.68) (layers F.Cu F.Mask F.Paste))
  (pad 85 smd rect (at 52.07 -2.72) (size 1.27 1.68) (layers F.Cu F.Mask F.Paste))
  (pad 87 smd rect (at 54.61 -2.72) (size 1.27 1.68) (layers F.Cu F.Mask F.Paste))
  (pad 2 smd rect (at -54.61 2.72) (size 1.27 1.68) (layers F.Cu F.Mask F.Paste))
  (pad 4 smd rect (at -52.07 2.72) (size 1.27 1.68) (layers F.Cu F.Mask F.Paste))
  (pad 6 smd rect (at -49.53 2.72) (size 1.27 1.68) (layers F.Cu F.Mask F.Paste))
  (pad 8 smd rect (at -46.99 2.72) (size 1.27 1.68) (layers F.Cu F.Mask F.Paste))
  (pad 10 smd rect (at -44.45 2.72) (size 1.27 1.68) (layers F.Cu F.Mask F.Paste))
  (pad 12 smd rect (at -41.91 2.72) (size 1.27 1.68) (layers F.Cu F.Mask F.Paste))
  (pad 14 smd rect (at -39.37 2.72) (size 1.27 1.68) (layers F.Cu F.Mask F.Paste))
  (pad 16 smd rect (at -36.83 2.72) (size 1.27 1.68) (layers F.Cu F.Mask F.Paste))
  (pad 18 smd rect (at -34.29 2.72) (size 1.27 1.68) (layers F.Cu F.Mask F.Paste))
  (pad 20 smd rect (at -31.75 2.72) (size 1.27 1.68) (layers F.Cu F.Mask F.Paste))
  (pad 22 smd rect (at -29.21 2.72) (size 1.27 1.68) (layers F.Cu F.Mask F.Paste))
  (pad 24 smd rect (at -26.67 2.72) (size 1.27 1.68) (layers F.Cu F.Mask F.Paste))
  (pad 26 smd rect (at -24.13 2.72) (size 1.27 1.68) (layers F.Cu F.Mask F.Paste))
  (pad 28 smd rect (at -21.59 2.72) (size 1.27 1.68) (layers F.Cu F.Mask F.Paste))
  (pad 30 smd rect (at -19.05 2.72) (size 1.27 1.68) (layers F.Cu F.Mask F.Paste))
  (pad 32 smd rect (at -16.51 2.72) (size 1.27 1.68) (layers F.Cu F.Mask F.Paste))
  (pad 34 smd rect (at -13.97 2.72) (size 1.27 1.68) (layers F.Cu F.Mask F.Paste))
  (pad 36 smd rect (at -11.43 2.72) (size 1.27 1.68) (layers F.Cu F.Mask F.Paste))
  (pad 38 smd rect (at -8.89 2.72) (size 1.27 1.68) (layers F.Cu F.Mask F.Paste))
  (pad 40 smd rect (at -6.35 2.72) (size 1.27 1.68) (layers F.Cu F.Mask F.Paste))
  (pad 42 smd rect (at -3.81 2.72) (size 1.27 1.68) (layers F.Cu F.Mask F.Paste))
  (pad 44 smd rect (at -1.27 2.72) (size 1.27 1.68) (layers F.Cu F.Mask F.Paste))
  (pad 46 smd rect (at 1.27 2.72) (size 1.27 1.68) (layers F.Cu F.Mask F.Paste))
  (pad 48 smd rect (at 3.81 2.72) (size 1.27 1.68) (layers F.Cu F.Mask F.Paste))
  (pad 50 smd rect (at 6.35 2.72) (size 1.27 1.68) (layers F.Cu F.Mask F.Paste))
  (pad 52 smd rect (at 8.89 2.72) (size 1.27 1.68) (layers F.Cu F.Mask F.Paste))
  (pad 54 smd rect (at 11.43 2.72) (size 1.27 1.68) (layers F.Cu F.Mask F.Paste))
  (pad 56 smd rect (at 13.97 2.72) (size 1.27 1.68) (layers F.Cu F.Mask F.Paste))
  (pad 58 smd rect (at 16.51 2.72) (size 1.27 1.68) (layers F.Cu F.Mask F.Paste))
  (pad 60 smd rect (at 19.05 2.72) (size 1.27 1.68) (layers F.Cu F.Mask F.Paste))
  (pad 62 smd rect (at 21.59 2.72) (size 1.27 1.68) (layers F.Cu F.Mask F.Paste))
  (pad 64 smd rect (at 24.13 2.72) (size 1.27 1.68) (layers F.Cu F.Mask F.Paste))
  (pad 66 smd rect (at 26.67 2.72) (size 1.27 1.68) (layers F.Cu F.Mask F.Paste))
  (pad 68 smd rect (at 29.21 2.72) (size 1.27 1.68) (layers F.Cu F.Mask F.Paste))
  (pad 70 smd rect (at 31.75 2.72) (size 1.27 1.68) (layers F.Cu F.Mask F.Paste))
  (pad 72 smd rect (at 34.29 2.72) (size 1.27 1.68) (layers F.Cu F.Mask F.Paste))
  (pad 74 smd rect (at 36.83 2.72) (size 1.27 1.68) (layers F.Cu F.Mask F.Paste))
  (pad 76 smd rect (at 39.37 2.72) (size 1.27 1.68) (layers F.Cu F.Mask F.Paste))
  (pad 78 smd rect (at 41.91 2.72) (size 1.27 1.68) (layers F.Cu F.Mask F.Paste))
  (pad 80 smd rect (at 44.45 2.72) (size 1.27 1.68) (layers F.Cu F.Mask F.Paste))
  (pad 82 smd rect (at 46.99 2.72) (size 1.27 1.68) (layers F.Cu F.Mask F.Paste))
  (pad 84 smd rect (at 49.53 2.72) (size 1.27 1.68) (layers F.Cu F.Mask F.Paste))
  (pad 86 smd rect (at 52.07 2.72) (size 1.27 1.68) (layers F.Cu F.Mask F.Paste))
  (pad 88 smd rect (at 54.61 2.72) (size 1.27 1.68) (layers F.Cu F.Mask F.Paste))
  (fp_text user %R (at 0 1.84) (layer F.Fab)
    (effects (font (size 1 1) (thickness 0.15)))
  )
  (model ${KIPRJMOD}/kicad_libs_k/models_k.3d/Connector_Samtec_k.3dshapes/Samtec_HLE-188-02-xxx-DV-BE-LC_2x44_P2.54mm_Horizontal_k.wrl
    (at (xyz 0 0 0))
    (scale (xyz 1 1 1))
    (rotate (xyz 0 0 0))
  )
)