(module Samtec_HLE-116-02-xxx-DV-BE_2x08_P2.54mm_Horizontal (layer F.Cu) (tedit 5A369BEF)
  (descr "Samtec HLE .100\" Tiger Beam Cost-effective Single Beam Socket Strip, HLE-116-02-xxx-DV-BE, 8 Pins per row (http://suddendocs.samtec.com/prints/hle-1xx-02-xxx-dv-xx-xx-xx-mkt.pdf, http://suddendocs.samtec.com/prints/hle-dv-footprint.pdf), generated with kicad-footprint-generator")
  (tags "connector Samtec  top entry")
  (attr smd)
  (fp_text reference REF** (at 0 -4.76) (layer F.SilkS)
    (effects (font (size 1 1) (thickness 0.15)))
  )
  (fp_text value Samtec_HLE-116-02-xxx-DV-BE_2x08_P2.54mm_Horizontal (at 0 4.76) (layer F.Fab)
    (effects (font (size 1 1) (thickness 0.15)))
  )
  (fp_line (start -10.16 -2.54) (end 10.16 -2.54) (layer F.Fab) (width 0.1))
  (fp_line (start 10.16 -2.54) (end 10.16 2.54) (layer F.Fab) (width 0.1))
  (fp_line (start 10.16 2.54) (end -10.16 2.54) (layer F.Fab) (width 0.1))
  (fp_line (start -10.16 2.54) (end -10.16 -2.54) (layer F.Fab) (width 0.1))
  (fp_line (start -9.39 -2.54) (end -8.89 -1.832893) (layer F.Fab) (width 0.1))
  (fp_line (start -8.89 -1.832893) (end -8.39 -2.54) (layer F.Fab) (width 0.1))
  (fp_line (start -9.785 -3.56) (end -9.785 -2.65) (layer F.SilkS) (width 0.12))
  (fp_line (start -9.785 -2.65) (end -10.27 -2.65) (layer F.SilkS) (width 0.12))
  (fp_line (start -10.27 -2.65) (end -10.27 2.65) (layer F.SilkS) (width 0.12))
  (fp_line (start -10.27 2.65) (end -9.785 2.65) (layer F.SilkS) (width 0.12))
  (fp_line (start 9.785 -2.65) (end 10.27 -2.65) (layer F.SilkS) (width 0.12))
  (fp_line (start 10.27 -2.65) (end 10.27 2.65) (layer F.SilkS) (width 0.12))
  (fp_line (start 10.27 2.65) (end 9.785 2.65) (layer F.SilkS) (width 0.12))
  (fp_line (start -7.995 -2.65) (end -7.245 -2.65) (layer F.SilkS) (width 0.12))
  (fp_line (start -7.995 2.65) (end -7.245 2.65) (layer F.SilkS) (width 0.12))
  (fp_line (start -5.455 -2.65) (end -4.705 -2.65) (layer F.SilkS) (width 0.12))
  (fp_line (start -5.455 2.65) (end -4.705 2.65) (layer F.SilkS) (width 0.12))
  (fp_line (start -2.915 -2.65) (end -2.165 -2.65) (layer F.SilkS) (width 0.12))
  (fp_line (start -2.915 2.65) (end -2.165 2.65) (layer F.SilkS) (width 0.12))
  (fp_line (start -0.375 -2.65) (end 0.375 -2.65) (layer F.SilkS) (width 0.12))
  (fp_line (start -0.375 2.65) (end 0.375 2.65) (layer F.SilkS) (width 0.12))
  (fp_line (start 2.165 -2.65) (end 2.915 -2.65) (layer F.SilkS) (width 0.12))
  (fp_line (start 2.165 2.65) (end 2.915 2.65) (layer F.SilkS) (width 0.12))
  (fp_line (start 4.705 -2.65) (end 5.455 -2.65) (layer F.SilkS) (width 0.12))
  (fp_line (start 4.705 2.65) (end 5.455 2.65) (layer F.SilkS) (width 0.12))
  (fp_line (start 7.245 -2.65) (end 7.995 -2.65) (layer F.SilkS) (width 0.12))
  (fp_line (start 7.245 2.65) (end 7.995 2.65) (layer F.SilkS) (width 0.12))
  (fp_line (start -10.66 -4.06) (end 10.66 -4.06) (layer F.CrtYd) (width 0.05))
  (fp_line (start 10.66 -4.06) (end 10.66 4.06) (layer F.CrtYd) (width 0.05))
  (fp_line (start 10.66 4.06) (end -10.66 4.06) (layer F.CrtYd) (width 0.05))
  (fp_line (start -10.66 4.06) (end -10.66 -4.06) (layer F.CrtYd) (width 0.05))
  (pad "" np_thru_hole circle (at -8.89 -1.27) (size 0.97 0.97) (drill 0.97) (layers *.Cu *.Mask))
  (pad "" np_thru_hole circle (at -8.89 1.27) (size 0.97 0.97) (drill 0.97) (layers *.Cu *.Mask))
  (pad "" np_thru_hole circle (at -6.35 -1.27) (size 0.97 0.97) (drill 0.97) (layers *.Cu *.Mask))
  (pad "" np_thru_hole circle (at -6.35 1.27) (size 0.97 0.97) (drill 0.97) (layers *.Cu *.Mask))
  (pad "" np_thru_hole circle (at -3.81 -1.27) (size 0.97 0.97) (drill 0.97) (layers *.Cu *.Mask))
  (pad "" np_thru_hole circle (at -3.81 1.27) (size 0.97 0.97) (drill 0.97) (layers *.Cu *.Mask))
  (pad "" np_thru_hole circle (at -1.27 -1.27) (size 0.97 0.97) (drill 0.97) (layers *.Cu *.Mask))
  (pad "" np_thru_hole circle (at -1.27 1.27) (size 0.97 0.97) (drill 0.97) (layers *.Cu *.Mask))
  (pad "" np_thru_hole circle (at 1.27 -1.27) (size 0.97 0.97) (drill 0.97) (layers *.Cu *.Mask))
  (pad "" np_thru_hole circle (at 1.27 1.27) (size 0.97 0.97) (drill 0.97) (layers *.Cu *.Mask))
  (pad "" np_thru_hole circle (at 3.81 -1.27) (size 0.97 0.97) (drill 0.97) (layers *.Cu *.Mask))
  (pad "" np_thru_hole circle (at 3.81 1.27) (size 0.97 0.97) (drill 0.97) (layers *.Cu *.Mask))
  (pad "" np_thru_hole circle (at 6.35 -1.27) (size 0.97 0.97) (drill 0.97) (layers *.Cu *.Mask))
  (pad "" np_thru_hole circle (at 6.35 1.27) (size 0.97 0.97) (drill 0.97) (layers *.Cu *.Mask))
  (pad "" np_thru_hole circle (at 8.89 -1.27) (size 0.97 0.97) (drill 0.97) (layers *.Cu *.Mask))
  (pad "" np_thru_hole circle (at 8.89 1.27) (size 0.97 0.97) (drill 0.97) (layers *.Cu *.Mask))
  (pad 1 smd rect (at -8.89 -2.72) (size 1.27 1.68) (layers F.Cu F.Mask F.Paste))
  (pad 3 smd rect (at -6.35 -2.72) (size 1.27 1.68) (layers F.Cu F.Mask F.Paste))
  (pad 5 smd rect (at -3.81 -2.72) (size 1.27 1.68) (layers F.Cu F.Mask F.Paste))
  (pad 7 smd rect (at -1.27 -2.72) (size 1.27 1.68) (layers F.Cu F.Mask F.Paste))
  (pad 9 smd rect (at 1.27 -2.72) (size 1.27 1.68) (layers F.Cu F.Mask F.Paste))
  (pad 11 smd rect (at 3.81 -2.72) (size 1.27 1.68) (layers F.Cu F.Mask F.Paste))
  (pad 13 smd rect (at 6.35 -2.72) (size 1.27 1.68) (layers F.Cu F.Mask F.Paste))
  (pad 15 smd rect (at 8.89 -2.72) (size 1.27 1.68) (layers F.Cu F.Mask F.Paste))
  (pad 2 smd rect (at -8.89 2.72) (size 1.27 1.68) (layers F.Cu F.Mask F.Paste))
  (pad 4 smd rect (at -6.35 2.72) (size 1.27 1.68) (layers F.Cu F.Mask F.Paste))
  (pad 6 smd rect (at -3.81 2.72) (size 1.27 1.68) (layers F.Cu F.Mask F.Paste))
  (pad 8 smd rect (at -1.27 2.72) (size 1.27 1.68) (layers F.Cu F.Mask F.Paste))
  (pad 10 smd rect (at 1.27 2.72) (size 1.27 1.68) (layers F.Cu F.Mask F.Paste))
  (pad 12 smd rect (at 3.81 2.72) (size 1.27 1.68) (layers F.Cu F.Mask F.Paste))
  (pad 14 smd rect (at 6.35 2.72) (size 1.27 1.68) (layers F.Cu F.Mask F.Paste))
  (pad 16 smd rect (at 8.89 2.72) (size 1.27 1.68) (layers F.Cu F.Mask F.Paste))
  (fp_text user %R (at 0 1.84) (layer F.Fab)
    (effects (font (size 1 1) (thickness 0.15)))
  )
  (model ${KIPRJMOD}/kicad_libs_k/models_k.3d/Connector_Samtec_k.3dshapes/Samtec_HLE-116-02-xxx-DV-BE_2x08_P2.54mm_Horizontal_k.wrl
    (at (xyz 0 0 0))
    (scale (xyz 1 1 1))
    (rotate (xyz 0 0 0))
  )
)