(module Samtec_LSHM-110-xx.x-x-DV-S_2x10-1SH_P0.50mm_Vertical (layer F.Cu) (tedit 5A7E26C4)
  (descr "Molex LSHM 0.50 mm Razor Beam High-Speed Hermaphroditic Terminal/Socket Strip, LSHM-110-xx.x-x-DV-S, 10 Pins per row (http://suddendocs.samtec.com/prints/lshm-1xx-xx.x-x-dv-a-x-x-tr-footprint.pdf), generated with kicad-footprint-generator")
  (tags "connector Samtec  side entry")
  (attr smd)
  (fp_text reference REF** (at 0 -3.8) (layer F.SilkS)
    (effects (font (size 1 1) (thickness 0.15)))
  )
  (fp_text value Samtec_LSHM-110-xx.x-x-DV-S_2x10-1SH_P0.50mm_Vertical (at 0 3.8) (layer F.Fab)
    (effects (font (size 1 1) (thickness 0.15)))
  )
  (fp_line (start 0 -2.49) (end -5.325 -2.49) (layer F.Fab) (width 0.1))
  (fp_line (start -5.325 -2.49) (end -5.625 -2.19) (layer F.Fab) (width 0.1))
  (fp_line (start -5.625 -2.19) (end -5.625 2.19) (layer F.Fab) (width 0.1))
  (fp_line (start -5.625 2.19) (end -5.325 2.49) (layer F.Fab) (width 0.1))
  (fp_line (start -5.325 2.49) (end 0 2.49) (layer F.Fab) (width 0.1))
  (fp_line (start 0 -2.49) (end 5.325 -2.49) (layer F.Fab) (width 0.1))
  (fp_line (start 5.325 -2.49) (end 5.625 -2.19) (layer F.Fab) (width 0.1))
  (fp_line (start 5.625 -2.19) (end 5.625 2.19) (layer F.Fab) (width 0.1))
  (fp_line (start 5.625 2.19) (end 5.325 2.49) (layer F.Fab) (width 0.1))
  (fp_line (start 5.325 2.49) (end 0 2.49) (layer F.Fab) (width 0.1))
  (fp_line (start -2.66 -2.6) (end -5.435 -2.6) (layer F.SilkS) (width 0.12))
  (fp_line (start -5.435 -2.6) (end -5.735 -2.3) (layer F.SilkS) (width 0.12))
  (fp_line (start -5.735 -2.3) (end -5.735 0.376954) (layer F.SilkS) (width 0.12))
  (fp_line (start 2.66 -2.6) (end 5.435 -2.6) (layer F.SilkS) (width 0.12))
  (fp_line (start 5.435 -2.6) (end 5.735 -2.3) (layer F.SilkS) (width 0.12))
  (fp_line (start 5.735 -2.3) (end 5.735 0.376954) (layer F.SilkS) (width 0.12))
  (fp_line (start -5.735 1.923046) (end -5.735 2.3) (layer F.SilkS) (width 0.12))
  (fp_line (start -5.735 2.3) (end -5.435 2.6) (layer F.SilkS) (width 0.12))
  (fp_line (start -5.435 2.6) (end -2.66 2.6) (layer F.SilkS) (width 0.12))
  (fp_line (start 5.735 1.923046) (end 5.735 2.3) (layer F.SilkS) (width 0.12))
  (fp_line (start 5.735 2.3) (end 5.435 2.6) (layer F.SilkS) (width 0.12))
  (fp_line (start 5.435 2.6) (end 2.66 2.6) (layer F.SilkS) (width 0.12))
  (fp_line (start -2.25 -2.86) (end -2.45 -3.142843) (layer F.SilkS) (width 0.12))
  (fp_line (start -2.45 -3.142843) (end -2.05 -3.142843) (layer F.SilkS) (width 0.12))
  (fp_line (start -2.05 -3.142843) (end -2.25 -2.86) (layer F.SilkS) (width 0.12))
  (fp_line (start -2.75 -2.49) (end -2.25 -1.782893) (layer F.Fab) (width 0.1))
  (fp_line (start -2.25 -1.782893) (end -1.75 -2.49) (layer F.Fab) (width 0.1))
  (fp_line (start -6.22 -3.1) (end -6.22 3.1) (layer F.CrtYd) (width 0.05))
  (fp_line (start -6.22 3.1) (end 6.22 3.1) (layer F.CrtYd) (width 0.05))
  (fp_line (start 6.22 3.1) (end 6.22 -3.1) (layer F.CrtYd) (width 0.05))
  (fp_line (start 6.22 -3.1) (end -6.22 -3.1) (layer F.CrtYd) (width 0.05))
  (pad 1 smd rect (at -2.25 -1.85) (size 0.3 1.5) (layers F.Cu F.Mask F.Paste))
  (pad 3 smd rect (at -1.75 -1.85) (size 0.3 1.5) (layers F.Cu F.Mask F.Paste))
  (pad 5 smd rect (at -1.25 -1.85) (size 0.3 1.5) (layers F.Cu F.Mask F.Paste))
  (pad 7 smd rect (at -0.75 -1.85) (size 0.3 1.5) (layers F.Cu F.Mask F.Paste))
  (pad 9 smd rect (at -0.25 -1.85) (size 0.3 1.5) (layers F.Cu F.Mask F.Paste))
  (pad 11 smd rect (at 0.25 -1.85) (size 0.3 1.5) (layers F.Cu F.Mask F.Paste))
  (pad 13 smd rect (at 0.75 -1.85) (size 0.3 1.5) (layers F.Cu F.Mask F.Paste))
  (pad 15 smd rect (at 1.25 -1.85) (size 0.3 1.5) (layers F.Cu F.Mask F.Paste))
  (pad 17 smd rect (at 1.75 -1.85) (size 0.3 1.5) (layers F.Cu F.Mask F.Paste))
  (pad 19 smd rect (at 2.25 -1.85) (size 0.3 1.5) (layers F.Cu F.Mask F.Paste))
  (pad 2 smd rect (at -2.25 1.85) (size 0.3 1.5) (layers F.Cu F.Mask F.Paste))
  (pad 4 smd rect (at -1.75 1.85) (size 0.3 1.5) (layers F.Cu F.Mask F.Paste))
  (pad 6 smd rect (at -1.25 1.85) (size 0.3 1.5) (layers F.Cu F.Mask F.Paste))
  (pad 8 smd rect (at -0.75 1.85) (size 0.3 1.5) (layers F.Cu F.Mask F.Paste))
  (pad 10 smd rect (at -0.25 1.85) (size 0.3 1.5) (layers F.Cu F.Mask F.Paste))
  (pad 12 smd rect (at 0.25 1.85) (size 0.3 1.5) (layers F.Cu F.Mask F.Paste))
  (pad 14 smd rect (at 0.75 1.85) (size 0.3 1.5) (layers F.Cu F.Mask F.Paste))
  (pad 16 smd rect (at 1.25 1.85) (size 0.3 1.5) (layers F.Cu F.Mask F.Paste))
  (pad 18 smd rect (at 1.75 1.85) (size 0.3 1.5) (layers F.Cu F.Mask F.Paste))
  (pad 20 smd rect (at 2.25 1.85) (size 0.3 1.5) (layers F.Cu F.Mask F.Paste))
  (pad "" np_thru_hole circle (at 3.5 -0.85) (size 1.45 1.45) (drill 1.45) (layers *.Cu *.Mask))
  (pad "" np_thru_hole circle (at -3.5 -0.85) (size 1.45 1.45) (drill 1.45) (layers *.Cu *.Mask))
  (pad SH thru_hole circle (at 4.975 1.15) (size 1.5 1.5) (drill 1) (layers *.Cu *.Mask))
  (pad SH thru_hole circle (at -4.975 1.15) (size 1.5 1.5) (drill 1) (layers *.Cu *.Mask))
  (fp_text user %R (at 0 0) (layer F.Fab)
    (effects (font (size 1 1) (thickness 0.15)))
  )
  (model ${KIPRJMOD}/kicad_libs_k/models_k.3d/Connector_Samtec_k.3dshapes/Samtec_LSHM-110-xx.x-x-DV-S_2x10-1SH_P0.50mm_Vertical_k.wrl
    (at (xyz 0 0 0))
    (scale (xyz 1 1 1))
    (rotate (xyz 0 0 0))
  )
)