(module Samtec_HLE-112-02-xxx-DV-LC_2x06_P2.54mm_Horizontal (layer F.Cu) (tedit 5A369BF0)
  (descr "Samtec HLE .100\" Tiger Beam Cost-effective Single Beam Socket Strip, HLE-112-02-xxx-DV-LC, 6 Pins per row (http://suddendocs.samtec.com/prints/hle-1xx-02-xxx-dv-xx-xx-xx-mkt.pdf, http://suddendocs.samtec.com/prints/hle-dv-footprint.pdf), generated with kicad-footprint-generator")
  (tags "connector Samtec  top entry")
  (attr smd)
  (fp_text reference REF** (at 0 -4.87) (layer F.SilkS)
    (effects (font (size 1 1) (thickness 0.15)))
  )
  (fp_text value Samtec_HLE-112-02-xxx-DV-LC_2x06_P2.54mm_Horizontal (at 0 4.87) (layer F.Fab)
    (effects (font (size 1 1) (thickness 0.15)))
  )
  (fp_line (start -7.62 -2.54) (end 7.62 -2.54) (layer F.Fab) (width 0.1))
  (fp_line (start 7.62 -2.54) (end 7.62 2.54) (layer F.Fab) (width 0.1))
  (fp_line (start 7.62 2.54) (end -7.62 2.54) (layer F.Fab) (width 0.1))
  (fp_line (start -7.62 2.54) (end -7.62 -2.54) (layer F.Fab) (width 0.1))
  (fp_line (start -6.85 -2.54) (end -6.35 -1.832893) (layer F.Fab) (width 0.1))
  (fp_line (start -6.35 -1.832893) (end -5.85 -2.54) (layer F.Fab) (width 0.1))
  (fp_line (start -7.245 -3.67) (end -7.245 -2.65) (layer F.SilkS) (width 0.12))
  (fp_line (start -7.245 -2.65) (end -7.73 -2.65) (layer F.SilkS) (width 0.12))
  (fp_line (start -7.73 -2.65) (end -7.73 2.65) (layer F.SilkS) (width 0.12))
  (fp_line (start -7.73 2.65) (end -7.245 2.65) (layer F.SilkS) (width 0.12))
  (fp_line (start 7.245 -2.65) (end 7.73 -2.65) (layer F.SilkS) (width 0.12))
  (fp_line (start 7.73 -2.65) (end 7.73 2.65) (layer F.SilkS) (width 0.12))
  (fp_line (start 7.73 2.65) (end 7.245 2.65) (layer F.SilkS) (width 0.12))
  (fp_line (start -5.455 -2.65) (end -4.705 -2.65) (layer F.SilkS) (width 0.12))
  (fp_line (start -5.455 2.65) (end -4.705 2.65) (layer F.SilkS) (width 0.12))
  (fp_line (start -2.915 -2.65) (end -2.165 -2.65) (layer F.SilkS) (width 0.12))
  (fp_line (start -2.915 2.65) (end -2.165 2.65) (layer F.SilkS) (width 0.12))
  (fp_line (start -0.375 -2.65) (end 0.375 -2.65) (layer F.SilkS) (width 0.12))
  (fp_line (start -0.375 2.65) (end 0.375 2.65) (layer F.SilkS) (width 0.12))
  (fp_line (start 2.165 -2.65) (end 2.915 -2.65) (layer F.SilkS) (width 0.12))
  (fp_line (start 2.165 2.65) (end 2.915 2.65) (layer F.SilkS) (width 0.12))
  (fp_line (start 4.705 -2.65) (end 5.455 -2.65) (layer F.SilkS) (width 0.12))
  (fp_line (start 4.705 2.65) (end 5.455 2.65) (layer F.SilkS) (width 0.12))
  (fp_line (start -8.12 -4.17) (end 8.12 -4.17) (layer F.CrtYd) (width 0.05))
  (fp_line (start 8.12 -4.17) (end 8.12 4.17) (layer F.CrtYd) (width 0.05))
  (fp_line (start 8.12 4.17) (end -8.12 4.17) (layer F.CrtYd) (width 0.05))
  (fp_line (start -8.12 4.17) (end -8.12 -4.17) (layer F.CrtYd) (width 0.05))
  (pad "" np_thru_hole circle (at -5.08 0) (size 1.19 1.19) (drill 1.19) (layers *.Cu *.Mask))
  (pad "" np_thru_hole circle (at 5.08 0) (size 1.19 1.19) (drill 1.19) (layers *.Cu *.Mask))
  (pad 1 smd rect (at -6.35 -2.525) (size 1.27 2.29) (layers F.Cu F.Mask F.Paste))
  (pad 3 smd rect (at -3.81 -2.525) (size 1.27 2.29) (layers F.Cu F.Mask F.Paste))
  (pad 5 smd rect (at -1.27 -2.525) (size 1.27 2.29) (layers F.Cu F.Mask F.Paste))
  (pad 7 smd rect (at 1.27 -2.525) (size 1.27 2.29) (layers F.Cu F.Mask F.Paste))
  (pad 9 smd rect (at 3.81 -2.525) (size 1.27 2.29) (layers F.Cu F.Mask F.Paste))
  (pad 11 smd rect (at 6.35 -2.525) (size 1.27 2.29) (layers F.Cu F.Mask F.Paste))
  (pad 2 smd rect (at -6.35 2.525) (size 1.27 2.29) (layers F.Cu F.Mask F.Paste))
  (pad 4 smd rect (at -3.81 2.525) (size 1.27 2.29) (layers F.Cu F.Mask F.Paste))
  (pad 6 smd rect (at -1.27 2.525) (size 1.27 2.29) (layers F.Cu F.Mask F.Paste))
  (pad 8 smd rect (at 1.27 2.525) (size 1.27 2.29) (layers F.Cu F.Mask F.Paste))
  (pad 10 smd rect (at 3.81 2.525) (size 1.27 2.29) (layers F.Cu F.Mask F.Paste))
  (pad 12 smd rect (at 6.35 2.525) (size 1.27 2.29) (layers F.Cu F.Mask F.Paste))
  (fp_text user %R (at 0 1.84) (layer F.Fab)
    (effects (font (size 1 1) (thickness 0.15)))
  )
  (model ${KIPRJMOD}/kicad_libs_k/models_k.3d/Connector_Samtec_k.3dshapes/Samtec_HLE-112-02-xxx-DV-LC_2x06_P2.54mm_Horizontal_k.wrl
    (at (xyz 0 0 0))
    (scale (xyz 1 1 1))
    (rotate (xyz 0 0 0))
  )
)