(module Samtec_HLE-150-02-xx-DV-PE-LC_2x25_P2.54mm_Horizontal (layer F.Cu) (tedit 5A369BF1)
  (descr "Samtec HLE .100\" Tiger Beam Cost-effective Single Beam Socket Strip, HLE-150-02-xx-DV-PE-LC, 25 Pins per row (http://suddendocs.samtec.com/prints/hle-1xx-02-xx-dv-xe-xx-mkt.pdf, http://suddendocs.samtec.com/prints/hle-thru.pdf), generated with kicad-footprint-generator")
  (tags "connector Samtec  top entry")
  (fp_text reference REF** (at 30.48 -1.86) (layer F.SilkS)
    (effects (font (size 1 1) (thickness 0.15)))
  )
  (fp_text value Samtec_HLE-150-02-xx-DV-PE-LC_2x25_P2.54mm_Horizontal (at 30.48 9.48) (layer F.Fab)
    (effects (font (size 1 1) (thickness 0.15)))
  )
  (fp_line (start -1.27 1.27) (end 62.23 1.27) (layer F.Fab) (width 0.1))
  (fp_line (start 62.23 1.27) (end 62.23 6.35) (layer F.Fab) (width 0.1))
  (fp_line (start 62.23 6.35) (end -1.27 6.35) (layer F.Fab) (width 0.1))
  (fp_line (start -1.27 6.35) (end -1.27 1.27) (layer F.Fab) (width 0.1))
  (fp_line (start -0.5 1.27) (end 0 1.977107) (layer F.Fab) (width 0.1))
  (fp_line (start 0 1.977107) (end 0.5 1.27) (layer F.Fab) (width 0.1))
  (fp_line (start -1.38 1.16) (end 62.34 1.16) (layer F.SilkS) (width 0.12))
  (fp_line (start 62.34 1.16) (end 62.34 6.46) (layer F.SilkS) (width 0.12))
  (fp_line (start 62.34 6.46) (end -1.38 6.46) (layer F.SilkS) (width 0.12))
  (fp_line (start -1.38 6.46) (end -1.38 1.16) (layer F.SilkS) (width 0.12))
  (fp_line (start -1.77 -1.16) (end 62.73 -1.16) (layer F.CrtYd) (width 0.05))
  (fp_line (start 62.73 -1.16) (end 62.73 8.78) (layer F.CrtYd) (width 0.05))
  (fp_line (start 62.73 8.78) (end -1.77 8.78) (layer F.CrtYd) (width 0.05))
  (fp_line (start -1.77 8.78) (end -1.77 -1.16) (layer F.CrtYd) (width 0.05))
  (pad "" np_thru_hole circle (at 1.27 3.81) (size 1.19 1.19) (drill 1.19) (layers *.Cu *.Mask))
  (pad "" np_thru_hole circle (at 59.69 3.81) (size 1.19 1.19) (drill 1.19) (layers *.Cu *.Mask))
  (pad "" np_thru_hole circle (at 0 2.54) (size 1.4 1.4) (drill 1.4) (layers *.Cu *.Mask))
  (pad "" np_thru_hole circle (at 0 5.08) (size 1.4 1.4) (drill 1.4) (layers *.Cu *.Mask))
  (pad "" np_thru_hole circle (at 2.54 2.54) (size 1.4 1.4) (drill 1.4) (layers *.Cu *.Mask))
  (pad "" np_thru_hole circle (at 2.54 5.08) (size 1.4 1.4) (drill 1.4) (layers *.Cu *.Mask))
  (pad "" np_thru_hole circle (at 5.08 2.54) (size 1.4 1.4) (drill 1.4) (layers *.Cu *.Mask))
  (pad "" np_thru_hole circle (at 5.08 5.08) (size 1.4 1.4) (drill 1.4) (layers *.Cu *.Mask))
  (pad "" np_thru_hole circle (at 7.62 2.54) (size 1.4 1.4) (drill 1.4) (layers *.Cu *.Mask))
  (pad "" np_thru_hole circle (at 7.62 5.08) (size 1.4 1.4) (drill 1.4) (layers *.Cu *.Mask))
  (pad "" np_thru_hole circle (at 10.16 2.54) (size 1.4 1.4) (drill 1.4) (layers *.Cu *.Mask))
  (pad "" np_thru_hole circle (at 10.16 5.08) (size 1.4 1.4) (drill 1.4) (layers *.Cu *.Mask))
  (pad "" np_thru_hole circle (at 12.7 2.54) (size 1.4 1.4) (drill 1.4) (layers *.Cu *.Mask))
  (pad "" np_thru_hole circle (at 12.7 5.08) (size 1.4 1.4) (drill 1.4) (layers *.Cu *.Mask))
  (pad "" np_thru_hole circle (at 15.24 2.54) (size 1.4 1.4) (drill 1.4) (layers *.Cu *.Mask))
  (pad "" np_thru_hole circle (at 15.24 5.08) (size 1.4 1.4) (drill 1.4) (layers *.Cu *.Mask))
  (pad "" np_thru_hole circle (at 17.78 2.54) (size 1.4 1.4) (drill 1.4) (layers *.Cu *.Mask))
  (pad "" np_thru_hole circle (at 17.78 5.08) (size 1.4 1.4) (drill 1.4) (layers *.Cu *.Mask))
  (pad "" np_thru_hole circle (at 20.32 2.54) (size 1.4 1.4) (drill 1.4) (layers *.Cu *.Mask))
  (pad "" np_thru_hole circle (at 20.32 5.08) (size 1.4 1.4) (drill 1.4) (layers *.Cu *.Mask))
  (pad "" np_thru_hole circle (at 22.86 2.54) (size 1.4 1.4) (drill 1.4) (layers *.Cu *.Mask))
  (pad "" np_thru_hole circle (at 22.86 5.08) (size 1.4 1.4) (drill 1.4) (layers *.Cu *.Mask))
  (pad "" np_thru_hole circle (at 25.4 2.54) (size 1.4 1.4) (drill 1.4) (layers *.Cu *.Mask))
  (pad "" np_thru_hole circle (at 25.4 5.08) (size 1.4 1.4) (drill 1.4) (layers *.Cu *.Mask))
  (pad "" np_thru_hole circle (at 27.94 2.54) (size 1.4 1.4) (drill 1.4) (layers *.Cu *.Mask))
  (pad "" np_thru_hole circle (at 27.94 5.08) (size 1.4 1.4) (drill 1.4) (layers *.Cu *.Mask))
  (pad "" np_thru_hole circle (at 30.48 2.54) (size 1.4 1.4) (drill 1.4) (layers *.Cu *.Mask))
  (pad "" np_thru_hole circle (at 30.48 5.08) (size 1.4 1.4) (drill 1.4) (layers *.Cu *.Mask))
  (pad "" np_thru_hole circle (at 33.02 2.54) (size 1.4 1.4) (drill 1.4) (layers *.Cu *.Mask))
  (pad "" np_thru_hole circle (at 33.02 5.08) (size 1.4 1.4) (drill 1.4) (layers *.Cu *.Mask))
  (pad "" np_thru_hole circle (at 35.56 2.54) (size 1.4 1.4) (drill 1.4) (layers *.Cu *.Mask))
  (pad "" np_thru_hole circle (at 35.56 5.08) (size 1.4 1.4) (drill 1.4) (layers *.Cu *.Mask))
  (pad "" np_thru_hole circle (at 38.1 2.54) (size 1.4 1.4) (drill 1.4) (layers *.Cu *.Mask))
  (pad "" np_thru_hole circle (at 38.1 5.08) (size 1.4 1.4) (drill 1.4) (layers *.Cu *.Mask))
  (pad "" np_thru_hole circle (at 40.64 2.54) (size 1.4 1.4) (drill 1.4) (layers *.Cu *.Mask))
  (pad "" np_thru_hole circle (at 40.64 5.08) (size 1.4 1.4) (drill 1.4) (layers *.Cu *.Mask))
  (pad "" np_thru_hole circle (at 43.18 2.54) (size 1.4 1.4) (drill 1.4) (layers *.Cu *.Mask))
  (pad "" np_thru_hole circle (at 43.18 5.08) (size 1.4 1.4) (drill 1.4) (layers *.Cu *.Mask))
  (pad "" np_thru_hole circle (at 45.72 2.54) (size 1.4 1.4) (drill 1.4) (layers *.Cu *.Mask))
  (pad "" np_thru_hole circle (at 45.72 5.08) (size 1.4 1.4) (drill 1.4) (layers *.Cu *.Mask))
  (pad "" np_thru_hole circle (at 48.26 2.54) (size 1.4 1.4) (drill 1.4) (layers *.Cu *.Mask))
  (pad "" np_thru_hole circle (at 48.26 5.08) (size 1.4 1.4) (drill 1.4) (layers *.Cu *.Mask))
  (pad "" np_thru_hole circle (at 50.8 2.54) (size 1.4 1.4) (drill 1.4) (layers *.Cu *.Mask))
  (pad "" np_thru_hole circle (at 50.8 5.08) (size 1.4 1.4) (drill 1.4) (layers *.Cu *.Mask))
  (pad "" np_thru_hole circle (at 53.34 2.54) (size 1.4 1.4) (drill 1.4) (layers *.Cu *.Mask))
  (pad "" np_thru_hole circle (at 53.34 5.08) (size 1.4 1.4) (drill 1.4) (layers *.Cu *.Mask))
  (pad "" np_thru_hole circle (at 55.88 2.54) (size 1.4 1.4) (drill 1.4) (layers *.Cu *.Mask))
  (pad "" np_thru_hole circle (at 55.88 5.08) (size 1.4 1.4) (drill 1.4) (layers *.Cu *.Mask))
  (pad "" np_thru_hole circle (at 58.42 2.54) (size 1.4 1.4) (drill 1.4) (layers *.Cu *.Mask))
  (pad "" np_thru_hole circle (at 58.42 5.08) (size 1.4 1.4) (drill 1.4) (layers *.Cu *.Mask))
  (pad "" np_thru_hole circle (at 60.96 2.54) (size 1.4 1.4) (drill 1.4) (layers *.Cu *.Mask))
  (pad "" np_thru_hole circle (at 60.96 5.08) (size 1.4 1.4) (drill 1.4) (layers *.Cu *.Mask))
  (pad 1 thru_hole rect (at 0 0) (size 1.31 1.31) (drill 0.71) (layers *.Cu *.Mask))
  (pad 3 thru_hole circle (at 2.54 0) (size 1.31 1.31) (drill 0.71) (layers *.Cu *.Mask))
  (pad 5 thru_hole circle (at 5.08 0) (size 1.31 1.31) (drill 0.71) (layers *.Cu *.Mask))
  (pad 7 thru_hole circle (at 7.62 0) (size 1.31 1.31) (drill 0.71) (layers *.Cu *.Mask))
  (pad 9 thru_hole circle (at 10.16 0) (size 1.31 1.31) (drill 0.71) (layers *.Cu *.Mask))
  (pad 11 thru_hole circle (at 12.7 0) (size 1.31 1.31) (drill 0.71) (layers *.Cu *.Mask))
  (pad 13 thru_hole circle (at 15.24 0) (size 1.31 1.31) (drill 0.71) (layers *.Cu *.Mask))
  (pad 15 thru_hole circle (at 17.78 0) (size 1.31 1.31) (drill 0.71) (layers *.Cu *.Mask))
  (pad 17 thru_hole circle (at 20.32 0) (size 1.31 1.31) (drill 0.71) (layers *.Cu *.Mask))
  (pad 19 thru_hole circle (at 22.86 0) (size 1.31 1.31) (drill 0.71) (layers *.Cu *.Mask))
  (pad 21 thru_hole circle (at 25.4 0) (size 1.31 1.31) (drill 0.71) (layers *.Cu *.Mask))
  (pad 23 thru_hole circle (at 27.94 0) (size 1.31 1.31) (drill 0.71) (layers *.Cu *.Mask))
  (pad 25 thru_hole circle (at 30.48 0) (size 1.31 1.31) (drill 0.71) (layers *.Cu *.Mask))
  (pad 27 thru_hole circle (at 33.02 0) (size 1.31 1.31) (drill 0.71) (layers *.Cu *.Mask))
  (pad 29 thru_hole circle (at 35.56 0) (size 1.31 1.31) (drill 0.71) (layers *.Cu *.Mask))
  (pad 31 thru_hole circle (at 38.1 0) (size 1.31 1.31) (drill 0.71) (layers *.Cu *.Mask))
  (pad 33 thru_hole circle (at 40.64 0) (size 1.31 1.31) (drill 0.71) (layers *.Cu *.Mask))
  (pad 35 thru_hole circle (at 43.18 0) (size 1.31 1.31) (drill 0.71) (layers *.Cu *.Mask))
  (pad 37 thru_hole circle (at 45.72 0) (size 1.31 1.31) (drill 0.71) (layers *.Cu *.Mask))
  (pad 39 thru_hole circle (at 48.26 0) (size 1.31 1.31) (drill 0.71) (layers *.Cu *.Mask))
  (pad 41 thru_hole circle (at 50.8 0) (size 1.31 1.31) (drill 0.71) (layers *.Cu *.Mask))
  (pad 43 thru_hole circle (at 53.34 0) (size 1.31 1.31) (drill 0.71) (layers *.Cu *.Mask))
  (pad 45 thru_hole circle (at 55.88 0) (size 1.31 1.31) (drill 0.71) (layers *.Cu *.Mask))
  (pad 47 thru_hole circle (at 58.42 0) (size 1.31 1.31) (drill 0.71) (layers *.Cu *.Mask))
  (pad 49 thru_hole circle (at 60.96 0) (size 1.31 1.31) (drill 0.71) (layers *.Cu *.Mask))
  (pad 2 thru_hole circle (at 0 7.62) (size 1.31 1.31) (drill 0.71) (layers *.Cu *.Mask))
  (pad 4 thru_hole circle (at 2.54 7.62) (size 1.31 1.31) (drill 0.71) (layers *.Cu *.Mask))
  (pad 6 thru_hole circle (at 5.08 7.62) (size 1.31 1.31) (drill 0.71) (layers *.Cu *.Mask))
  (pad 8 thru_hole circle (at 7.62 7.62) (size 1.31 1.31) (drill 0.71) (layers *.Cu *.Mask))
  (pad 10 thru_hole circle (at 10.16 7.62) (size 1.31 1.31) (drill 0.71) (layers *.Cu *.Mask))
  (pad 12 thru_hole circle (at 12.7 7.62) (size 1.31 1.31) (drill 0.71) (layers *.Cu *.Mask))
  (pad 14 thru_hole circle (at 15.24 7.62) (size 1.31 1.31) (drill 0.71) (layers *.Cu *.Mask))
  (pad 16 thru_hole circle (at 17.78 7.62) (size 1.31 1.31) (drill 0.71) (layers *.Cu *.Mask))
  (pad 18 thru_hole circle (at 20.32 7.62) (size 1.31 1.31) (drill 0.71) (layers *.Cu *.Mask))
  (pad 20 thru_hole circle (at 22.86 7.62) (size 1.31 1.31) (drill 0.71) (layers *.Cu *.Mask))
  (pad 22 thru_hole circle (at 25.4 7.62) (size 1.31 1.31) (drill 0.71) (layers *.Cu *.Mask))
  (pad 24 thru_hole circle (at 27.94 7.62) (size 1.31 1.31) (drill 0.71) (layers *.Cu *.Mask))
  (pad 26 thru_hole circle (at 30.48 7.62) (size 1.31 1.31) (drill 0.71) (layers *.Cu *.Mask))
  (pad 28 thru_hole circle (at 33.02 7.62) (size 1.31 1.31) (drill 0.71) (layers *.Cu *.Mask))
  (pad 30 thru_hole circle (at 35.56 7.62) (size 1.31 1.31) (drill 0.71) (layers *.Cu *.Mask))
  (pad 32 thru_hole circle (at 38.1 7.62) (size 1.31 1.31) (drill 0.71) (layers *.Cu *.Mask))
  (pad 34 thru_hole circle (at 40.64 7.62) (size 1.31 1.31) (drill 0.71) (layers *.Cu *.Mask))
  (pad 36 thru_hole circle (at 43.18 7.62) (size 1.31 1.31) (drill 0.71) (layers *.Cu *.Mask))
  (pad 38 thru_hole circle (at 45.72 7.62) (size 1.31 1.31) (drill 0.71) (layers *.Cu *.Mask))
  (pad 40 thru_hole circle (at 48.26 7.62) (size 1.31 1.31) (drill 0.71) (layers *.Cu *.Mask))
  (pad 42 thru_hole circle (at 50.8 7.62) (size 1.31 1.31) (drill 0.71) (layers *.Cu *.Mask))
  (pad 44 thru_hole circle (at 53.34 7.62) (size 1.31 1.31) (drill 0.71) (layers *.Cu *.Mask))
  (pad 46 thru_hole circle (at 55.88 7.62) (size 1.31 1.31) (drill 0.71) (layers *.Cu *.Mask))
  (pad 48 thru_hole circle (at 58.42 7.62) (size 1.31 1.31) (drill 0.71) (layers *.Cu *.Mask))
  (pad 50 thru_hole circle (at 60.96 7.62) (size 1.31 1.31) (drill 0.71) (layers *.Cu *.Mask))
  (fp_text user %R (at 30.48 5.65) (layer F.Fab)
    (effects (font (size 1 1) (thickness 0.15)))
  )
  (model ${KIPRJMOD}/kicad_libs_k/models_k.3d/Connector_Samtec_k.3dshapes/Samtec_HLE-150-02-xx-DV-PE-LC_2x25_P2.54mm_Horizontal_k.wrl
    (at (xyz 0 0 0))
    (scale (xyz 1 1 1))
    (rotate (xyz 0 0 0))
  )
)