(module PinSocket_2x03_P1.27mm_Horizontal (layer F.Cu) (tedit 5A19A42C)
  (descr "Through hole angled socket strip, 2x03, 1.27mm pitch, 4.4mm socket length, double cols (https://gct.co/pdfjs/web/viewer.html?file=/Files/Drawings/BD091.pdf&t=1511594177220), script generated")
  (tags "Through hole angled socket strip THT 2x03 1.27mm double row")
  (fp_text reference REF** (at -2.5925 -2.135) (layer F.SilkS)
    (effects (font (size 1 1) (thickness 0.15)))
  )
  (fp_text value PinSocket_2x03_P1.27mm_Horizontal (at -2.5925 4.675) (layer F.Fab)
    (effects (font (size 1 1) (thickness 0.15)))
  )
  (fp_line (start -5.82 -0.635) (end -1.805 -0.635) (layer F.Fab) (width 0.1))
  (fp_line (start -1.805 -0.635) (end -1.42 -0.25) (layer F.Fab) (width 0.1))
  (fp_line (start -1.42 -0.25) (end -1.42 3.175) (layer F.Fab) (width 0.1))
  (fp_line (start -1.42 3.175) (end -5.82 3.175) (layer F.Fab) (width 0.1))
  (fp_line (start -5.82 3.175) (end -5.82 -0.635) (layer F.Fab) (width 0.1))
  (fp_line (start 0 -0.25) (end -1.42 -0.25) (layer F.Fab) (width 0.1))
  (fp_line (start -1.42 0.25) (end 0 0.25) (layer F.Fab) (width 0.1))
  (fp_line (start 0 0.25) (end 0 -0.25) (layer F.Fab) (width 0.1))
  (fp_line (start 0 1.02) (end -1.42 1.02) (layer F.Fab) (width 0.1))
  (fp_line (start -1.42 1.52) (end 0 1.52) (layer F.Fab) (width 0.1))
  (fp_line (start 0 1.52) (end 0 1.02) (layer F.Fab) (width 0.1))
  (fp_line (start 0 2.29) (end -1.42 2.29) (layer F.Fab) (width 0.1))
  (fp_line (start -1.42 2.79) (end 0 2.79) (layer F.Fab) (width 0.1))
  (fp_line (start 0 2.79) (end 0 2.29) (layer F.Fab) (width 0.1))
  (fp_line (start -5.88 -0.575) (end -1.766966 -0.575) (layer F.SilkS) (width 0.12))
  (fp_line (start -5.88 -0.465) (end -1.871145 -0.465) (layer F.SilkS) (width 0.12))
  (fp_line (start -5.88 -0.355) (end -1.941993 -0.355) (layer F.SilkS) (width 0.12))
  (fp_line (start -5.88 -0.245) (end -1.989427 -0.245) (layer F.SilkS) (width 0.12))
  (fp_line (start -5.88 -0.135) (end -2.017914 -0.135) (layer F.SilkS) (width 0.12))
  (fp_line (start -5.88 -0.025) (end -2.029589 -0.025) (layer F.SilkS) (width 0.12))
  (fp_line (start -5.88 0.085) (end -2.025232 0.085) (layer F.SilkS) (width 0.12))
  (fp_line (start -5.88 0.195) (end -2.004558 0.195) (layer F.SilkS) (width 0.12))
  (fp_line (start -5.88 0.305) (end -1.966114 0.305) (layer F.SilkS) (width 0.12))
  (fp_line (start -5.88 0.415) (end -1.906691 0.415) (layer F.SilkS) (width 0.12))
  (fp_line (start -5.88 0.525) (end -1.819523 0.525) (layer F.SilkS) (width 0.12))
  (fp_line (start -5.88 0.635) (end -1.687582 0.635) (layer F.SilkS) (width 0.12))
  (fp_line (start -5.88 1.905) (end -1.687582 1.905) (layer F.SilkS) (width 0.12))
  (fp_line (start -5.88 -0.695) (end -1.57753 -0.695) (layer F.SilkS) (width 0.12))
  (fp_line (start -5.88 3.235) (end -1.57753 3.235) (layer F.SilkS) (width 0.12))
  (fp_line (start -5.88 -0.695) (end -5.88 3.235) (layer F.SilkS) (width 0.12))
  (fp_line (start 0.76 -0.76) (end 0.76 0) (layer F.SilkS) (width 0.12))
  (fp_line (start 0 -0.76) (end 0.76 -0.76) (layer F.SilkS) (width 0.12))
  (fp_line (start 1.15 -1.15) (end -6.35 -1.15) (layer F.CrtYd) (width 0.05))
  (fp_line (start -6.35 -1.15) (end -6.35 3.7) (layer F.CrtYd) (width 0.05))
  (fp_line (start -6.35 3.7) (end 1.15 3.7) (layer F.CrtYd) (width 0.05))
  (fp_line (start 1.15 3.7) (end 1.15 -1.15) (layer F.CrtYd) (width 0.05))
  (pad 1 thru_hole rect (at 0 0) (size 1 1) (drill 0.65) (layers *.Cu *.Mask))
  (pad 2 thru_hole oval (at -1.27 0) (size 1 1) (drill 0.65) (layers *.Cu *.Mask))
  (pad 3 thru_hole oval (at 0 1.27) (size 1 1) (drill 0.65) (layers *.Cu *.Mask))
  (pad 4 thru_hole oval (at -1.27 1.27) (size 1 1) (drill 0.65) (layers *.Cu *.Mask))
  (pad 5 thru_hole oval (at 0 2.54) (size 1 1) (drill 0.65) (layers *.Cu *.Mask))
  (pad 6 thru_hole oval (at -1.27 2.54) (size 1 1) (drill 0.65) (layers *.Cu *.Mask))
  (fp_text user %R (at -3.62 1.27) (layer F.Fab)
    (effects (font (size 1 1) (thickness 0.15)))
  )
  (model ${KIPRJMOD}/kicad_libs_k/models_k.3d/Connector_PinSocket_1.27mm_k.3dshapes/PinSocket_2x03_P1.27mm_Horizontal_k.wrl
    (at (xyz 0 0 0))
    (scale (xyz 1 1 1))
    (rotate (xyz 0 0 0))
  )
)