(module PinSocket_1x18_P1.27mm_Vertical_SMD_Pin1Right (layer F.Cu) (tedit 5A19A426)
  (descr "surface-mounted straight socket strip, 1x18, 1.27mm pitch, single row, style 2 (pin 1 right) (https://gct.co/pdfjs/web/viewer.html?file=/Files/Drawings/BD075.pdf&t=1511594726925), script generated")
  (tags "Surface mounted socket strip SMD 1x18 1.27mm single row style2 pin1 right")
  (attr smd)
  (fp_text reference REF** (at 0 -13.105) (layer F.SilkS)
    (effects (font (size 1 1) (thickness 0.15)))
  )
  (fp_text value PinSocket_1x18_P1.27mm_Vertical_SMD_Pin1Right (at 0 13.105) (layer F.Fab)
    (effects (font (size 1 1) (thickness 0.15)))
  )
  (fp_line (start -0.96 -11.665) (end 0.96 -11.665) (layer F.SilkS) (width 0.12))
  (fp_line (start 0.96 -11.665) (end 0.96 -11.38) (layer F.SilkS) (width 0.12))
  (fp_line (start 0.96 -10.21) (end 0.96 -8.84) (layer F.SilkS) (width 0.12))
  (fp_line (start 0.96 -7.67) (end 0.96 -6.3) (layer F.SilkS) (width 0.12))
  (fp_line (start 0.96 -5.13) (end 0.96 -3.76) (layer F.SilkS) (width 0.12))
  (fp_line (start 0.96 -2.59) (end 0.96 -1.22) (layer F.SilkS) (width 0.12))
  (fp_line (start 0.96 -0.05) (end 0.96 1.32) (layer F.SilkS) (width 0.12))
  (fp_line (start 0.96 2.49) (end 0.96 3.86) (layer F.SilkS) (width 0.12))
  (fp_line (start 0.96 5.03) (end 0.96 6.4) (layer F.SilkS) (width 0.12))
  (fp_line (start 0.96 7.57) (end 0.96 8.94) (layer F.SilkS) (width 0.12))
  (fp_line (start 0.96 10.11) (end 0.96 11.665) (layer F.SilkS) (width 0.12))
  (fp_line (start -0.96 11.665) (end 0.96 11.665) (layer F.SilkS) (width 0.12))
  (fp_line (start -0.96 -11.665) (end -0.96 -10.11) (layer F.SilkS) (width 0.12))
  (fp_line (start -0.96 -8.94) (end -0.96 -7.57) (layer F.SilkS) (width 0.12))
  (fp_line (start -0.96 -6.4) (end -0.96 -5.03) (layer F.SilkS) (width 0.12))
  (fp_line (start -0.96 -3.86) (end -0.96 -2.49) (layer F.SilkS) (width 0.12))
  (fp_line (start -0.96 -1.32) (end -0.96 0.05) (layer F.SilkS) (width 0.12))
  (fp_line (start -0.96 1.22) (end -0.96 2.59) (layer F.SilkS) (width 0.12))
  (fp_line (start -0.96 3.76) (end -0.96 5.13) (layer F.SilkS) (width 0.12))
  (fp_line (start -0.96 6.3) (end -0.96 7.67) (layer F.SilkS) (width 0.12))
  (fp_line (start -0.96 8.84) (end -0.96 10.21) (layer F.SilkS) (width 0.12))
  (fp_line (start -0.96 11.38) (end -0.96 11.665) (layer F.SilkS) (width 0.12))
  (fp_line (start 0.96 -11.38) (end 2.19 -11.38) (layer F.SilkS) (width 0.12))
  (fp_line (start -0.9 -11.605) (end 0.45 -11.605) (layer F.Fab) (width 0.1))
  (fp_line (start 0.45 -11.605) (end 0.9 -11.155) (layer F.Fab) (width 0.1))
  (fp_line (start 0.9 -11.155) (end 0.9 11.605) (layer F.Fab) (width 0.1))
  (fp_line (start 0.9 11.605) (end -0.9 11.605) (layer F.Fab) (width 0.1))
  (fp_line (start -0.9 11.605) (end -0.9 -11.605) (layer F.Fab) (width 0.1))
  (fp_line (start 0.9 -11.005) (end 1.75 -11.005) (layer F.Fab) (width 0.1))
  (fp_line (start 1.75 -11.005) (end 1.75 -10.585) (layer F.Fab) (width 0.1))
  (fp_line (start 1.75 -10.585) (end 0.9 -10.585) (layer F.Fab) (width 0.1))
  (fp_line (start -1.75 -9.735) (end -0.9 -9.735) (layer F.Fab) (width 0.1))
  (fp_line (start -0.9 -9.315) (end -1.75 -9.315) (layer F.Fab) (width 0.1))
  (fp_line (start -1.75 -9.315) (end -1.75 -9.735) (layer F.Fab) (width 0.1))
  (fp_line (start 0.9 -8.465) (end 1.75 -8.465) (layer F.Fab) (width 0.1))
  (fp_line (start 1.75 -8.465) (end 1.75 -8.045) (layer F.Fab) (width 0.1))
  (fp_line (start 1.75 -8.045) (end 0.9 -8.045) (layer F.Fab) (width 0.1))
  (fp_line (start -1.75 -7.195) (end -0.9 -7.195) (layer F.Fab) (width 0.1))
  (fp_line (start -0.9 -6.775) (end -1.75 -6.775) (layer F.Fab) (width 0.1))
  (fp_line (start -1.75 -6.775) (end -1.75 -7.195) (layer F.Fab) (width 0.1))
  (fp_line (start 0.9 -5.925) (end 1.75 -5.925) (layer F.Fab) (width 0.1))
  (fp_line (start 1.75 -5.925) (end 1.75 -5.505) (layer F.Fab) (width 0.1))
  (fp_line (start 1.75 -5.505) (end 0.9 -5.505) (layer F.Fab) (width 0.1))
  (fp_line (start -1.75 -4.655) (end -0.9 -4.655) (layer F.Fab) (width 0.1))
  (fp_line (start -0.9 -4.235) (end -1.75 -4.235) (layer F.Fab) (width 0.1))
  (fp_line (start -1.75 -4.235) (end -1.75 -4.655) (layer F.Fab) (width 0.1))
  (fp_line (start 0.9 -3.385) (end 1.75 -3.385) (layer F.Fab) (width 0.1))
  (fp_line (start 1.75 -3.385) (end 1.75 -2.965) (layer F.Fab) (width 0.1))
  (fp_line (start 1.75 -2.965) (end 0.9 -2.965) (layer F.Fab) (width 0.1))
  (fp_line (start -1.75 -2.115) (end -0.9 -2.115) (layer F.Fab) (width 0.1))
  (fp_line (start -0.9 -1.695) (end -1.75 -1.695) (layer F.Fab) (width 0.1))
  (fp_line (start -1.75 -1.695) (end -1.75 -2.115) (layer F.Fab) (width 0.1))
  (fp_line (start 0.9 -0.845) (end 1.75 -0.845) (layer F.Fab) (width 0.1))
  (fp_line (start 1.75 -0.845) (end 1.75 -0.425) (layer F.Fab) (width 0.1))
  (fp_line (start 1.75 -0.425) (end 0.9 -0.425) (layer F.Fab) (width 0.1))
  (fp_line (start -1.75 0.425) (end -0.9 0.425) (layer F.Fab) (width 0.1))
  (fp_line (start -0.9 0.845) (end -1.75 0.845) (layer F.Fab) (width 0.1))
  (fp_line (start -1.75 0.845) (end -1.75 0.425) (layer F.Fab) (width 0.1))
  (fp_line (start 0.9 1.695) (end 1.75 1.695) (layer F.Fab) (width 0.1))
  (fp_line (start 1.75 1.695) (end 1.75 2.115) (layer F.Fab) (width 0.1))
  (fp_line (start 1.75 2.115) (end 0.9 2.115) (layer F.Fab) (width 0.1))
  (fp_line (start -1.75 2.965) (end -0.9 2.965) (layer F.Fab) (width 0.1))
  (fp_line (start -0.9 3.385) (end -1.75 3.385) (layer F.Fab) (width 0.1))
  (fp_line (start -1.75 3.385) (end -1.75 2.965) (layer F.Fab) (width 0.1))
  (fp_line (start 0.9 4.235) (end 1.75 4.235) (layer F.Fab) (width 0.1))
  (fp_line (start 1.75 4.235) (end 1.75 4.655) (layer F.Fab) (width 0.1))
  (fp_line (start 1.75 4.655) (end 0.9 4.655) (layer F.Fab) (width 0.1))
  (fp_line (start -1.75 5.505) (end -0.9 5.505) (layer F.Fab) (width 0.1))
  (fp_line (start -0.9 5.925) (end -1.75 5.925) (layer F.Fab) (width 0.1))
  (fp_line (start -1.75 5.925) (end -1.75 5.505) (layer F.Fab) (width 0.1))
  (fp_line (start 0.9 6.775) (end 1.75 6.775) (layer F.Fab) (width 0.1))
  (fp_line (start 1.75 6.775) (end 1.75 7.195) (layer F.Fab) (width 0.1))
  (fp_line (start 1.75 7.195) (end 0.9 7.195) (layer F.Fab) (width 0.1))
  (fp_line (start -1.75 8.045) (end -0.9 8.045) (layer F.Fab) (width 0.1))
  (fp_line (start -0.9 8.465) (end -1.75 8.465) (layer F.Fab) (width 0.1))
  (fp_line (start -1.75 8.465) (end -1.75 8.045) (layer F.Fab) (width 0.1))
  (fp_line (start 0.9 9.315) (end 1.75 9.315) (layer F.Fab) (width 0.1))
  (fp_line (start 1.75 9.315) (end 1.75 9.735) (layer F.Fab) (width 0.1))
  (fp_line (start 1.75 9.735) (end 0.9 9.735) (layer F.Fab) (width 0.1))
  (fp_line (start -1.75 10.585) (end -0.9 10.585) (layer F.Fab) (width 0.1))
  (fp_line (start -0.9 11.005) (end -1.75 11.005) (layer F.Fab) (width 0.1))
  (fp_line (start -1.75 11.005) (end -1.75 10.585) (layer F.Fab) (width 0.1))
  (fp_line (start -2.75 -12.15) (end 2.75 -12.15) (layer F.CrtYd) (width 0.05))
  (fp_line (start 2.75 -12.15) (end 2.75 12.1) (layer F.CrtYd) (width 0.05))
  (fp_line (start 2.75 12.1) (end -2.75 12.1) (layer F.CrtYd) (width 0.05))
  (fp_line (start -2.75 12.1) (end -2.75 -12.15) (layer F.CrtYd) (width 0.05))
  (pad 2 smd rect (at -1.35 -9.525) (size 1.8 0.65) (layers F.Cu F.Mask F.Paste))
  (pad 4 smd rect (at -1.35 -6.985) (size 1.8 0.65) (layers F.Cu F.Mask F.Paste))
  (pad 6 smd rect (at -1.35 -4.445) (size 1.8 0.65) (layers F.Cu F.Mask F.Paste))
  (pad 8 smd rect (at -1.35 -1.905) (size 1.8 0.65) (layers F.Cu F.Mask F.Paste))
  (pad 10 smd rect (at -1.35 0.635) (size 1.8 0.65) (layers F.Cu F.Mask F.Paste))
  (pad 12 smd rect (at -1.35 3.175) (size 1.8 0.65) (layers F.Cu F.Mask F.Paste))
  (pad 14 smd rect (at -1.35 5.715) (size 1.8 0.65) (layers F.Cu F.Mask F.Paste))
  (pad 16 smd rect (at -1.35 8.255) (size 1.8 0.65) (layers F.Cu F.Mask F.Paste))
  (pad 18 smd rect (at -1.35 10.795) (size 1.8 0.65) (layers F.Cu F.Mask F.Paste))
  (pad 1 smd rect (at 1.35 -10.795) (size 1.8 0.65) (layers F.Cu F.Mask F.Paste))
  (pad 3 smd rect (at 1.35 -8.255) (size 1.8 0.65) (layers F.Cu F.Mask F.Paste))
  (pad 5 smd rect (at 1.35 -5.715) (size 1.8 0.65) (layers F.Cu F.Mask F.Paste))
  (pad 7 smd rect (at 1.35 -3.175) (size 1.8 0.65) (layers F.Cu F.Mask F.Paste))
  (pad 9 smd rect (at 1.35 -0.635) (size 1.8 0.65) (layers F.Cu F.Mask F.Paste))
  (pad 11 smd rect (at 1.35 1.905) (size 1.8 0.65) (layers F.Cu F.Mask F.Paste))
  (pad 13 smd rect (at 1.35 4.445) (size 1.8 0.65) (layers F.Cu F.Mask F.Paste))
  (pad 15 smd rect (at 1.35 6.985) (size 1.8 0.65) (layers F.Cu F.Mask F.Paste))
  (pad 17 smd rect (at 1.35 9.525) (size 1.8 0.65) (layers F.Cu F.Mask F.Paste))
  (fp_text user %R (at 0 0 90) (layer F.Fab)
    (effects (font (size 1 1) (thickness 0.15)))
  )
  (model ${KIPRJMOD}/kicad_libs_k/models_k.3d/Connector_PinSocket_1.27mm_k.3dshapes/PinSocket_1x18_P1.27mm_Vertical_SMD_Pin1Right_k.wrl
    (at (xyz 0 0 0))
    (scale (xyz 1 1 1))
    (rotate (xyz 0 0 0))
  )
)