(module PinSocket_2x24_P1.27mm_Horizontal (layer F.Cu) (tedit 5A19A420)
  (descr "Through hole angled socket strip, 2x24, 1.27mm pitch, 4.4mm socket length, double cols (https://gct.co/pdfjs/web/viewer.html?file=/Files/Drawings/BD091.pdf&t=1511594177220), script generated")
  (tags "Through hole angled socket strip THT 2x24 1.27mm double row")
  (fp_text reference REF** (at -2.5925 -2.135) (layer F.SilkS)
    (effects (font (size 1 1) (thickness 0.15)))
  )
  (fp_text value PinSocket_2x24_P1.27mm_Horizontal (at -2.5925 31.345) (layer F.Fab)
    (effects (font (size 1 1) (thickness 0.15)))
  )
  (fp_line (start -5.82 -0.635) (end -1.805 -0.635) (layer F.Fab) (width 0.1))
  (fp_line (start -1.805 -0.635) (end -1.42 -0.25) (layer F.Fab) (width 0.1))
  (fp_line (start -1.42 -0.25) (end -1.42 29.845) (layer F.Fab) (width 0.1))
  (fp_line (start -1.42 29.845) (end -5.82 29.845) (layer F.Fab) (width 0.1))
  (fp_line (start -5.82 29.845) (end -5.82 -0.635) (layer F.Fab) (width 0.1))
  (fp_line (start 0 -0.25) (end -1.42 -0.25) (layer F.Fab) (width 0.1))
  (fp_line (start -1.42 0.25) (end 0 0.25) (layer F.Fab) (width 0.1))
  (fp_line (start 0 0.25) (end 0 -0.25) (layer F.Fab) (width 0.1))
  (fp_line (start 0 1.02) (end -1.42 1.02) (layer F.Fab) (width 0.1))
  (fp_line (start -1.42 1.52) (end 0 1.52) (layer F.Fab) (width 0.1))
  (fp_line (start 0 1.52) (end 0 1.02) (layer F.Fab) (width 0.1))
  (fp_line (start 0 2.29) (end -1.42 2.29) (layer F.Fab) (width 0.1))
  (fp_line (start -1.42 2.79) (end 0 2.79) (layer F.Fab) (width 0.1))
  (fp_line (start 0 2.79) (end 0 2.29) (layer F.Fab) (width 0.1))
  (fp_line (start 0 3.56) (end -1.42 3.56) (layer F.Fab) (width 0.1))
  (fp_line (start -1.42 4.06) (end 0 4.06) (layer F.Fab) (width 0.1))
  (fp_line (start 0 4.06) (end 0 3.56) (layer F.Fab) (width 0.1))
  (fp_line (start 0 4.83) (end -1.42 4.83) (layer F.Fab) (width 0.1))
  (fp_line (start -1.42 5.33) (end 0 5.33) (layer F.Fab) (width 0.1))
  (fp_line (start 0 5.33) (end 0 4.83) (layer F.Fab) (width 0.1))
  (fp_line (start 0 6.1) (end -1.42 6.1) (layer F.Fab) (width 0.1))
  (fp_line (start -1.42 6.6) (end 0 6.6) (layer F.Fab) (width 0.1))
  (fp_line (start 0 6.6) (end 0 6.1) (layer F.Fab) (width 0.1))
  (fp_line (start 0 7.37) (end -1.42 7.37) (layer F.Fab) (width 0.1))
  (fp_line (start -1.42 7.87) (end 0 7.87) (layer F.Fab) (width 0.1))
  (fp_line (start 0 7.87) (end 0 7.37) (layer F.Fab) (width 0.1))
  (fp_line (start 0 8.64) (end -1.42 8.64) (layer F.Fab) (width 0.1))
  (fp_line (start -1.42 9.14) (end 0 9.14) (layer F.Fab) (width 0.1))
  (fp_line (start 0 9.14) (end 0 8.64) (layer F.Fab) (width 0.1))
  (fp_line (start 0 9.91) (end -1.42 9.91) (layer F.Fab) (width 0.1))
  (fp_line (start -1.42 10.41) (end 0 10.41) (layer F.Fab) (width 0.1))
  (fp_line (start 0 10.41) (end 0 9.91) (layer F.Fab) (width 0.1))
  (fp_line (start 0 11.18) (end -1.42 11.18) (layer F.Fab) (width 0.1))
  (fp_line (start -1.42 11.68) (end 0 11.68) (layer F.Fab) (width 0.1))
  (fp_line (start 0 11.68) (end 0 11.18) (layer F.Fab) (width 0.1))
  (fp_line (start 0 12.45) (end -1.42 12.45) (layer F.Fab) (width 0.1))
  (fp_line (start -1.42 12.95) (end 0 12.95) (layer F.Fab) (width 0.1))
  (fp_line (start 0 12.95) (end 0 12.45) (layer F.Fab) (width 0.1))
  (fp_line (start 0 13.72) (end -1.42 13.72) (layer F.Fab) (width 0.1))
  (fp_line (start -1.42 14.22) (end 0 14.22) (layer F.Fab) (width 0.1))
  (fp_line (start 0 14.22) (end 0 13.72) (layer F.Fab) (width 0.1))
  (fp_line (start 0 14.99) (end -1.42 14.99) (layer F.Fab) (width 0.1))
  (fp_line (start -1.42 15.49) (end 0 15.49) (layer F.Fab) (width 0.1))
  (fp_line (start 0 15.49) (end 0 14.99) (layer F.Fab) (width 0.1))
  (fp_line (start 0 16.26) (end -1.42 16.26) (layer F.Fab) (width 0.1))
  (fp_line (start -1.42 16.76) (end 0 16.76) (layer F.Fab) (width 0.1))
  (fp_line (start 0 16.76) (end 0 16.26) (layer F.Fab) (width 0.1))
  (fp_line (start 0 17.53) (end -1.42 17.53) (layer F.Fab) (width 0.1))
  (fp_line (start -1.42 18.03) (end 0 18.03) (layer F.Fab) (width 0.1))
  (fp_line (start 0 18.03) (end 0 17.53) (layer F.Fab) (width 0.1))
  (fp_line (start 0 18.8) (end -1.42 18.8) (layer F.Fab) (width 0.1))
  (fp_line (start -1.42 19.3) (end 0 19.3) (layer F.Fab) (width 0.1))
  (fp_line (start 0 19.3) (end 0 18.8) (layer F.Fab) (width 0.1))
  (fp_line (start 0 20.07) (end -1.42 20.07) (layer F.Fab) (width 0.1))
  (fp_line (start -1.42 20.57) (end 0 20.57) (layer F.Fab) (width 0.1))
  (fp_line (start 0 20.57) (end 0 20.07) (layer F.Fab) (width 0.1))
  (fp_line (start 0 21.34) (end -1.42 21.34) (layer F.Fab) (width 0.1))
  (fp_line (start -1.42 21.84) (end 0 21.84) (layer F.Fab) (width 0.1))
  (fp_line (start 0 21.84) (end 0 21.34) (layer F.Fab) (width 0.1))
  (fp_line (start 0 22.61) (end -1.42 22.61) (layer F.Fab) (width 0.1))
  (fp_line (start -1.42 23.11) (end 0 23.11) (layer F.Fab) (width 0.1))
  (fp_line (start 0 23.11) (end 0 22.61) (layer F.Fab) (width 0.1))
  (fp_line (start 0 23.88) (end -1.42 23.88) (layer F.Fab) (width 0.1))
  (fp_line (start -1.42 24.38) (end 0 24.38) (layer F.Fab) (width 0.1))
  (fp_line (start 0 24.38) (end 0 23.88) (layer F.Fab) (width 0.1))
  (fp_line (start 0 25.15) (end -1.42 25.15) (layer F.Fab) (width 0.1))
  (fp_line (start -1.42 25.65) (end 0 25.65) (layer F.Fab) (width 0.1))
  (fp_line (start 0 25.65) (end 0 25.15) (layer F.Fab) (width 0.1))
  (fp_line (start 0 26.42) (end -1.42 26.42) (layer F.Fab) (width 0.1))
  (fp_line (start -1.42 26.92) (end 0 26.92) (layer F.Fab) (width 0.1))
  (fp_line (start 0 26.92) (end 0 26.42) (layer F.Fab) (width 0.1))
  (fp_line (start 0 27.69) (end -1.42 27.69) (layer F.Fab) (width 0.1))
  (fp_line (start -1.42 28.19) (end 0 28.19) (layer F.Fab) (width 0.1))
  (fp_line (start 0 28.19) (end 0 27.69) (layer F.Fab) (width 0.1))
  (fp_line (start 0 28.96) (end -1.42 28.96) (layer F.Fab) (width 0.1))
  (fp_line (start -1.42 29.46) (end 0 29.46) (layer F.Fab) (width 0.1))
  (fp_line (start 0 29.46) (end 0 28.96) (layer F.Fab) (width 0.1))
  (fp_line (start -5.88 -0.575) (end -1.766966 -0.575) (layer F.SilkS) (width 0.12))
  (fp_line (start -5.88 -0.465) (end -1.871145 -0.465) (layer F.SilkS) (width 0.12))
  (fp_line (start -5.88 -0.355) (end -1.941993 -0.355) (layer F.SilkS) (width 0.12))
  (fp_line (start -5.88 -0.245) (end -1.989427 -0.245) (layer F.SilkS) (width 0.12))
  (fp_line (start -5.88 -0.135) (end -2.017914 -0.135) (layer F.SilkS) (width 0.12))
  (fp_line (start -5.88 -0.025) (end -2.029589 -0.025) (layer F.SilkS) (width 0.12))
  (fp_line (start -5.88 0.085) (end -2.025232 0.085) (layer F.SilkS) (width 0.12))
  (fp_line (start -5.88 0.195) (end -2.004558 0.195) (layer F.SilkS) (width 0.12))
  (fp_line (start -5.88 0.305) (end -1.966114 0.305) (layer F.SilkS) (width 0.12))
  (fp_line (start -5.88 0.415) (end -1.906691 0.415) (layer F.SilkS) (width 0.12))
  (fp_line (start -5.88 0.525) (end -1.819523 0.525) (layer F.SilkS) (width 0.12))
  (fp_line (start -5.88 0.635) (end -1.687582 0.635) (layer F.SilkS) (width 0.12))
  (fp_line (start -5.88 1.905) (end -1.687582 1.905) (layer F.SilkS) (width 0.12))
  (fp_line (start -5.88 3.175) (end -1.687582 3.175) (layer F.SilkS) (width 0.12))
  (fp_line (start -5.88 4.445) (end -1.687582 4.445) (layer F.SilkS) (width 0.12))
  (fp_line (start -5.88 5.715) (end -1.687582 5.715) (layer F.SilkS) (width 0.12))
  (fp_line (start -5.88 6.985) (end -1.687582 6.985) (layer F.SilkS) (width 0.12))
  (fp_line (start -5.88 8.255) (end -1.687582 8.255) (layer F.SilkS) (width 0.12))
  (fp_line (start -5.88 9.525) (end -1.687582 9.525) (layer F.SilkS) (width 0.12))
  (fp_line (start -5.88 10.795) (end -1.687582 10.795) (layer F.SilkS) (width 0.12))
  (fp_line (start -5.88 12.065) (end -1.687582 12.065) (layer F.SilkS) (width 0.12))
  (fp_line (start -5.88 13.335) (end -1.687582 13.335) (layer F.SilkS) (width 0.12))
  (fp_line (start -5.88 14.605) (end -1.687582 14.605) (layer F.SilkS) (width 0.12))
  (fp_line (start -5.88 15.875) (end -1.687582 15.875) (layer F.SilkS) (width 0.12))
  (fp_line (start -5.88 17.145) (end -1.687582 17.145) (layer F.SilkS) (width 0.12))
  (fp_line (start -5.88 18.415) (end -1.687582 18.415) (layer F.SilkS) (width 0.12))
  (fp_line (start -5.88 19.685) (end -1.687582 19.685) (layer F.SilkS) (width 0.12))
  (fp_line (start -5.88 20.955) (end -1.687582 20.955) (layer F.SilkS) (width 0.12))
  (fp_line (start -5.88 22.225) (end -1.687582 22.225) (layer F.SilkS) (width 0.12))
  (fp_line (start -5.88 23.495) (end -1.687582 23.495) (layer F.SilkS) (width 0.12))
  (fp_line (start -5.88 24.765) (end -1.687582 24.765) (layer F.SilkS) (width 0.12))
  (fp_line (start -5.88 26.035) (end -1.687582 26.035) (layer F.SilkS) (width 0.12))
  (fp_line (start -5.88 27.305) (end -1.687582 27.305) (layer F.SilkS) (width 0.12))
  (fp_line (start -5.88 28.575) (end -1.687582 28.575) (layer F.SilkS) (width 0.12))
  (fp_line (start -5.88 -0.695) (end -1.57753 -0.695) (layer F.SilkS) (width 0.12))
  (fp_line (start -5.88 29.905) (end -1.57753 29.905) (layer F.SilkS) (width 0.12))
  (fp_line (start -5.88 -0.695) (end -5.88 29.905) (layer F.SilkS) (width 0.12))
  (fp_line (start 0.76 -0.76) (end 0.76 0) (layer F.SilkS) (width 0.12))
  (fp_line (start 0 -0.76) (end 0.76 -0.76) (layer F.SilkS) (width 0.12))
  (fp_line (start 1.15 -1.1) (end -6.35 -1.1) (layer F.CrtYd) (width 0.05))
  (fp_line (start -6.35 -1.1) (end -6.35 30.4) (layer F.CrtYd) (width 0.05))
  (fp_line (start -6.35 30.4) (end 1.15 30.4) (layer F.CrtYd) (width 0.05))
  (fp_line (start 1.15 30.4) (end 1.15 -1.1) (layer F.CrtYd) (width 0.05))
  (pad 1 thru_hole rect (at 0 0) (size 1 1) (drill 0.65) (layers *.Cu *.Mask))
  (pad 2 thru_hole oval (at -1.27 0) (size 1 1) (drill 0.65) (layers *.Cu *.Mask))
  (pad 3 thru_hole oval (at 0 1.27) (size 1 1) (drill 0.65) (layers *.Cu *.Mask))
  (pad 4 thru_hole oval (at -1.27 1.27) (size 1 1) (drill 0.65) (layers *.Cu *.Mask))
  (pad 5 thru_hole oval (at 0 2.54) (size 1 1) (drill 0.65) (layers *.Cu *.Mask))
  (pad 6 thru_hole oval (at -1.27 2.54) (size 1 1) (drill 0.65) (layers *.Cu *.Mask))
  (pad 7 thru_hole oval (at 0 3.81) (size 1 1) (drill 0.65) (layers *.Cu *.Mask))
  (pad 8 thru_hole oval (at -1.27 3.81) (size 1 1) (drill 0.65) (layers *.Cu *.Mask))
  (pad 9 thru_hole oval (at 0 5.08) (size 1 1) (drill 0.65) (layers *.Cu *.Mask))
  (pad 10 thru_hole oval (at -1.27 5.08) (size 1 1) (drill 0.65) (layers *.Cu *.Mask))
  (pad 11 thru_hole oval (at 0 6.35) (size 1 1) (drill 0.65) (layers *.Cu *.Mask))
  (pad 12 thru_hole oval (at -1.27 6.35) (size 1 1) (drill 0.65) (layers *.Cu *.Mask))
  (pad 13 thru_hole oval (at 0 7.62) (size 1 1) (drill 0.65) (layers *.Cu *.Mask))
  (pad 14 thru_hole oval (at -1.27 7.62) (size 1 1) (drill 0.65) (layers *.Cu *.Mask))
  (pad 15 thru_hole oval (at 0 8.89) (size 1 1) (drill 0.65) (layers *.Cu *.Mask))
  (pad 16 thru_hole oval (at -1.27 8.89) (size 1 1) (drill 0.65) (layers *.Cu *.Mask))
  (pad 17 thru_hole oval (at 0 10.16) (size 1 1) (drill 0.65) (layers *.Cu *.Mask))
  (pad 18 thru_hole oval (at -1.27 10.16) (size 1 1) (drill 0.65) (layers *.Cu *.Mask))
  (pad 19 thru_hole oval (at 0 11.43) (size 1 1) (drill 0.65) (layers *.Cu *.Mask))
  (pad 20 thru_hole oval (at -1.27 11.43) (size 1 1) (drill 0.65) (layers *.Cu *.Mask))
  (pad 21 thru_hole oval (at 0 12.7) (size 1 1) (drill 0.65) (layers *.Cu *.Mask))
  (pad 22 thru_hole oval (at -1.27 12.7) (size 1 1) (drill 0.65) (layers *.Cu *.Mask))
  (pad 23 thru_hole oval (at 0 13.97) (size 1 1) (drill 0.65) (layers *.Cu *.Mask))
  (pad 24 thru_hole oval (at -1.27 13.97) (size 1 1) (drill 0.65) (layers *.Cu *.Mask))
  (pad 25 thru_hole oval (at 0 15.24) (size 1 1) (drill 0.65) (layers *.Cu *.Mask))
  (pad 26 thru_hole oval (at -1.27 15.24) (size 1 1) (drill 0.65) (layers *.Cu *.Mask))
  (pad 27 thru_hole oval (at 0 16.51) (size 1 1) (drill 0.65) (layers *.Cu *.Mask))
  (pad 28 thru_hole oval (at -1.27 16.51) (size 1 1) (drill 0.65) (layers *.Cu *.Mask))
  (pad 29 thru_hole oval (at 0 17.78) (size 1 1) (drill 0.65) (layers *.Cu *.Mask))
  (pad 30 thru_hole oval (at -1.27 17.78) (size 1 1) (drill 0.65) (layers *.Cu *.Mask))
  (pad 31 thru_hole oval (at 0 19.05) (size 1 1) (drill 0.65) (layers *.Cu *.Mask))
  (pad 32 thru_hole oval (at -1.27 19.05) (size 1 1) (drill 0.65) (layers *.Cu *.Mask))
  (pad 33 thru_hole oval (at 0 20.32) (size 1 1) (drill 0.65) (layers *.Cu *.Mask))
  (pad 34 thru_hole oval (at -1.27 20.32) (size 1 1) (drill 0.65) (layers *.Cu *.Mask))
  (pad 35 thru_hole oval (at 0 21.59) (size 1 1) (drill 0.65) (layers *.Cu *.Mask))
  (pad 36 thru_hole oval (at -1.27 21.59) (size 1 1) (drill 0.65) (layers *.Cu *.Mask))
  (pad 37 thru_hole oval (at 0 22.86) (size 1 1) (drill 0.65) (layers *.Cu *.Mask))
  (pad 38 thru_hole oval (at -1.27 22.86) (size 1 1) (drill 0.65) (layers *.Cu *.Mask))
  (pad 39 thru_hole oval (at 0 24.13) (size 1 1) (drill 0.65) (layers *.Cu *.Mask))
  (pad 40 thru_hole oval (at -1.27 24.13) (size 1 1) (drill 0.65) (layers *.Cu *.Mask))
  (pad 41 thru_hole oval (at 0 25.4) (size 1 1) (drill 0.65) (layers *.Cu *.Mask))
  (pad 42 thru_hole oval (at -1.27 25.4) (size 1 1) (drill 0.65) (layers *.Cu *.Mask))
  (pad 43 thru_hole oval (at 0 26.67) (size 1 1) (drill 0.65) (layers *.Cu *.Mask))
  (pad 44 thru_hole oval (at -1.27 26.67) (size 1 1) (drill 0.65) (layers *.Cu *.Mask))
  (pad 45 thru_hole oval (at 0 27.94) (size 1 1) (drill 0.65) (layers *.Cu *.Mask))
  (pad 46 thru_hole oval (at -1.27 27.94) (size 1 1) (drill 0.65) (layers *.Cu *.Mask))
  (pad 47 thru_hole oval (at 0 29.21) (size 1 1) (drill 0.65) (layers *.Cu *.Mask))
  (pad 48 thru_hole oval (at -1.27 29.21) (size 1 1) (drill 0.65) (layers *.Cu *.Mask))
  (fp_text user %R (at -3.62 14.605 90) (layer F.Fab)
    (effects (font (size 1 1) (thickness 0.15)))
  )
  (model ${KIPRJMOD}/kicad_libs_k/models_k.3d/Connector_PinSocket_1.27mm_k.3dshapes/PinSocket_2x24_P1.27mm_Horizontal_k.wrl
    (at (xyz 0 0 0))
    (scale (xyz 1 1 1))
    (rotate (xyz 0 0 0))
  )
)