(module PinSocket_2x17_P1.27mm_Vertical_SMD (layer F.Cu) (tedit 5A19A42F)
  (descr "surface-mounted straight socket strip, 2x17, 1.27mm pitch, double cols (from Kicad 4.0.7!), script generated")
  (tags "Surface mounted socket strip SMD 2x17 1.27mm double row")
  (attr smd)
  (fp_text reference REF** (at 0 -12.295) (layer F.SilkS)
    (effects (font (size 1 1) (thickness 0.15)))
  )
  (fp_text value PinSocket_2x17_P1.27mm_Vertical_SMD (at 0 12.295) (layer F.Fab)
    (effects (font (size 1 1) (thickness 0.15)))
  )
  (fp_line (start -1.33 -10.855) (end 1.33 -10.855) (layer F.SilkS) (width 0.12))
  (fp_line (start 1.33 -10.855) (end 1.33 -10.795) (layer F.SilkS) (width 0.12))
  (fp_line (start 1.33 10.795) (end 1.33 10.855) (layer F.SilkS) (width 0.12))
  (fp_line (start -1.33 10.855) (end 1.33 10.855) (layer F.SilkS) (width 0.12))
  (fp_line (start -1.33 -10.855) (end -1.33 -10.795) (layer F.SilkS) (width 0.12))
  (fp_line (start -1.33 10.795) (end -1.33 10.855) (layer F.SilkS) (width 0.12))
  (fp_line (start 1.33 -10.795) (end 2.79 -10.795) (layer F.SilkS) (width 0.12))
  (fp_line (start -1.27 -10.795) (end 0.635 -10.795) (layer F.Fab) (width 0.1))
  (fp_line (start 0.635 -10.795) (end 1.27 -10.16) (layer F.Fab) (width 0.1))
  (fp_line (start 1.27 -10.16) (end 1.27 10.795) (layer F.Fab) (width 0.1))
  (fp_line (start 1.27 10.795) (end -1.27 10.795) (layer F.Fab) (width 0.1))
  (fp_line (start -1.27 10.795) (end -1.27 -10.795) (layer F.Fab) (width 0.1))
  (fp_line (start -2.555 -10.36) (end -1.27 -10.36) (layer F.Fab) (width 0.1))
  (fp_line (start -1.27 -9.96) (end -2.555 -9.96) (layer F.Fab) (width 0.1))
  (fp_line (start -2.555 -9.96) (end -2.555 -10.36) (layer F.Fab) (width 0.1))
  (fp_line (start 1.27 -10.36) (end 2.555 -10.36) (layer F.Fab) (width 0.1))
  (fp_line (start 2.555 -10.36) (end 2.555 -9.96) (layer F.Fab) (width 0.1))
  (fp_line (start 2.555 -9.96) (end 1.27 -9.96) (layer F.Fab) (width 0.1))
  (fp_line (start -2.555 -9.09) (end -1.27 -9.09) (layer F.Fab) (width 0.1))
  (fp_line (start -1.27 -8.69) (end -2.555 -8.69) (layer F.Fab) (width 0.1))
  (fp_line (start -2.555 -8.69) (end -2.555 -9.09) (layer F.Fab) (width 0.1))
  (fp_line (start 1.27 -9.09) (end 2.555 -9.09) (layer F.Fab) (width 0.1))
  (fp_line (start 2.555 -9.09) (end 2.555 -8.69) (layer F.Fab) (width 0.1))
  (fp_line (start 2.555 -8.69) (end 1.27 -8.69) (layer F.Fab) (width 0.1))
  (fp_line (start -2.555 -7.82) (end -1.27 -7.82) (layer F.Fab) (width 0.1))
  (fp_line (start -1.27 -7.42) (end -2.555 -7.42) (layer F.Fab) (width 0.1))
  (fp_line (start -2.555 -7.42) (end -2.555 -7.82) (layer F.Fab) (width 0.1))
  (fp_line (start 1.27 -7.82) (end 2.555 -7.82) (layer F.Fab) (width 0.1))
  (fp_line (start 2.555 -7.82) (end 2.555 -7.42) (layer F.Fab) (width 0.1))
  (fp_line (start 2.555 -7.42) (end 1.27 -7.42) (layer F.Fab) (width 0.1))
  (fp_line (start -2.555 -6.55) (end -1.27 -6.55) (layer F.Fab) (width 0.1))
  (fp_line (start -1.27 -6.15) (end -2.555 -6.15) (layer F.Fab) (width 0.1))
  (fp_line (start -2.555 -6.15) (end -2.555 -6.55) (layer F.Fab) (width 0.1))
  (fp_line (start 1.27 -6.55) (end 2.555 -6.55) (layer F.Fab) (width 0.1))
  (fp_line (start 2.555 -6.55) (end 2.555 -6.15) (layer F.Fab) (width 0.1))
  (fp_line (start 2.555 -6.15) (end 1.27 -6.15) (layer F.Fab) (width 0.1))
  (fp_line (start -2.555 -5.28) (end -1.27 -5.28) (layer F.Fab) (width 0.1))
  (fp_line (start -1.27 -4.88) (end -2.555 -4.88) (layer F.Fab) (width 0.1))
  (fp_line (start -2.555 -4.88) (end -2.555 -5.28) (layer F.Fab) (width 0.1))
  (fp_line (start 1.27 -5.28) (end 2.555 -5.28) (layer F.Fab) (width 0.1))
  (fp_line (start 2.555 -5.28) (end 2.555 -4.88) (layer F.Fab) (width 0.1))
  (fp_line (start 2.555 -4.88) (end 1.27 -4.88) (layer F.Fab) (width 0.1))
  (fp_line (start -2.555 -4.01) (end -1.27 -4.01) (layer F.Fab) (width 0.1))
  (fp_line (start -1.27 -3.61) (end -2.555 -3.61) (layer F.Fab) (width 0.1))
  (fp_line (start -2.555 -3.61) (end -2.555 -4.01) (layer F.Fab) (width 0.1))
  (fp_line (start 1.27 -4.01) (end 2.555 -4.01) (layer F.Fab) (width 0.1))
  (fp_line (start 2.555 -4.01) (end 2.555 -3.61) (layer F.Fab) (width 0.1))
  (fp_line (start 2.555 -3.61) (end 1.27 -3.61) (layer F.Fab) (width 0.1))
  (fp_line (start -2.555 -2.74) (end -1.27 -2.74) (layer F.Fab) (width 0.1))
  (fp_line (start -1.27 -2.34) (end -2.555 -2.34) (layer F.Fab) (width 0.1))
  (fp_line (start -2.555 -2.34) (end -2.555 -2.74) (layer F.Fab) (width 0.1))
  (fp_line (start 1.27 -2.74) (end 2.555 -2.74) (layer F.Fab) (width 0.1))
  (fp_line (start 2.555 -2.74) (end 2.555 -2.34) (layer F.Fab) (width 0.1))
  (fp_line (start 2.555 -2.34) (end 1.27 -2.34) (layer F.Fab) (width 0.1))
  (fp_line (start -2.555 -1.47) (end -1.27 -1.47) (layer F.Fab) (width 0.1))
  (fp_line (start -1.27 -1.07) (end -2.555 -1.07) (layer F.Fab) (width 0.1))
  (fp_line (start -2.555 -1.07) (end -2.555 -1.47) (layer F.Fab) (width 0.1))
  (fp_line (start 1.27 -1.47) (end 2.555 -1.47) (layer F.Fab) (width 0.1))
  (fp_line (start 2.555 -1.47) (end 2.555 -1.07) (layer F.Fab) (width 0.1))
  (fp_line (start 2.555 -1.07) (end 1.27 -1.07) (layer F.Fab) (width 0.1))
  (fp_line (start -2.555 -0.2) (end -1.27 -0.2) (layer F.Fab) (width 0.1))
  (fp_line (start -1.27 0.2) (end -2.555 0.2) (layer F.Fab) (width 0.1))
  (fp_line (start -2.555 0.2) (end -2.555 -0.2) (layer F.Fab) (width 0.1))
  (fp_line (start 1.27 -0.2) (end 2.555 -0.2) (layer F.Fab) (width 0.1))
  (fp_line (start 2.555 -0.2) (end 2.555 0.2) (layer F.Fab) (width 0.1))
  (fp_line (start 2.555 0.2) (end 1.27 0.2) (layer F.Fab) (width 0.1))
  (fp_line (start -2.555 1.07) (end -1.27 1.07) (layer F.Fab) (width 0.1))
  (fp_line (start -1.27 1.47) (end -2.555 1.47) (layer F.Fab) (width 0.1))
  (fp_line (start -2.555 1.47) (end -2.555 1.07) (layer F.Fab) (width 0.1))
  (fp_line (start 1.27 1.07) (end 2.555 1.07) (layer F.Fab) (width 0.1))
  (fp_line (start 2.555 1.07) (end 2.555 1.47) (layer F.Fab) (width 0.1))
  (fp_line (start 2.555 1.47) (end 1.27 1.47) (layer F.Fab) (width 0.1))
  (fp_line (start -2.555 2.34) (end -1.27 2.34) (layer F.Fab) (width 0.1))
  (fp_line (start -1.27 2.74) (end -2.555 2.74) (layer F.Fab) (width 0.1))
  (fp_line (start -2.555 2.74) (end -2.555 2.34) (layer F.Fab) (width 0.1))
  (fp_line (start 1.27 2.34) (end 2.555 2.34) (layer F.Fab) (width 0.1))
  (fp_line (start 2.555 2.34) (end 2.555 2.74) (layer F.Fab) (width 0.1))
  (fp_line (start 2.555 2.74) (end 1.27 2.74) (layer F.Fab) (width 0.1))
  (fp_line (start -2.555 3.61) (end -1.27 3.61) (layer F.Fab) (width 0.1))
  (fp_line (start -1.27 4.01) (end -2.555 4.01) (layer F.Fab) (width 0.1))
  (fp_line (start -2.555 4.01) (end -2.555 3.61) (layer F.Fab) (width 0.1))
  (fp_line (start 1.27 3.61) (end 2.555 3.61) (layer F.Fab) (width 0.1))
  (fp_line (start 2.555 3.61) (end 2.555 4.01) (layer F.Fab) (width 0.1))
  (fp_line (start 2.555 4.01) (end 1.27 4.01) (layer F.Fab) (width 0.1))
  (fp_line (start -2.555 4.88) (end -1.27 4.88) (layer F.Fab) (width 0.1))
  (fp_line (start -1.27 5.28) (end -2.555 5.28) (layer F.Fab) (width 0.1))
  (fp_line (start -2.555 5.28) (end -2.555 4.88) (layer F.Fab) (width 0.1))
  (fp_line (start 1.27 4.88) (end 2.555 4.88) (layer F.Fab) (width 0.1))
  (fp_line (start 2.555 4.88) (end 2.555 5.28) (layer F.Fab) (width 0.1))
  (fp_line (start 2.555 5.28) (end 1.27 5.28) (layer F.Fab) (width 0.1))
  (fp_line (start -2.555 6.15) (end -1.27 6.15) (layer F.Fab) (width 0.1))
  (fp_line (start -1.27 6.55) (end -2.555 6.55) (layer F.Fab) (width 0.1))
  (fp_line (start -2.555 6.55) (end -2.555 6.15) (layer F.Fab) (width 0.1))
  (fp_line (start 1.27 6.15) (end 2.555 6.15) (layer F.Fab) (width 0.1))
  (fp_line (start 2.555 6.15) (end 2.555 6.55) (layer F.Fab) (width 0.1))
  (fp_line (start 2.555 6.55) (end 1.27 6.55) (layer F.Fab) (width 0.1))
  (fp_line (start -2.555 7.42) (end -1.27 7.42) (layer F.Fab) (width 0.1))
  (fp_line (start -1.27 7.82) (end -2.555 7.82) (layer F.Fab) (width 0.1))
  (fp_line (start -2.555 7.82) (end -2.555 7.42) (layer F.Fab) (width 0.1))
  (fp_line (start 1.27 7.42) (end 2.555 7.42) (layer F.Fab) (width 0.1))
  (fp_line (start 2.555 7.42) (end 2.555 7.82) (layer F.Fab) (width 0.1))
  (fp_line (start 2.555 7.82) (end 1.27 7.82) (layer F.Fab) (width 0.1))
  (fp_line (start -2.555 8.69) (end -1.27 8.69) (layer F.Fab) (width 0.1))
  (fp_line (start -1.27 9.09) (end -2.555 9.09) (layer F.Fab) (width 0.1))
  (fp_line (start -2.555 9.09) (end -2.555 8.69) (layer F.Fab) (width 0.1))
  (fp_line (start 1.27 8.69) (end 2.555 8.69) (layer F.Fab) (width 0.1))
  (fp_line (start 2.555 8.69) (end 2.555 9.09) (layer F.Fab) (width 0.1))
  (fp_line (start 2.555 9.09) (end 1.27 9.09) (layer F.Fab) (width 0.1))
  (fp_line (start -2.555 9.96) (end -1.27 9.96) (layer F.Fab) (width 0.1))
  (fp_line (start -1.27 10.36) (end -2.555 10.36) (layer F.Fab) (width 0.1))
  (fp_line (start -2.555 10.36) (end -2.555 9.96) (layer F.Fab) (width 0.1))
  (fp_line (start 1.27 9.96) (end 2.555 9.96) (layer F.Fab) (width 0.1))
  (fp_line (start 2.555 9.96) (end 2.555 10.36) (layer F.Fab) (width 0.1))
  (fp_line (start 2.555 10.36) (end 1.27 10.36) (layer F.Fab) (width 0.1))
  (fp_line (start -3.35 -11.3) (end 3.35 -11.3) (layer F.CrtYd) (width 0.05))
  (fp_line (start 3.35 -11.3) (end 3.35 11.3) (layer F.CrtYd) (width 0.05))
  (fp_line (start 3.35 11.3) (end -3.35 11.3) (layer F.CrtYd) (width 0.05))
  (fp_line (start -3.35 11.3) (end -3.35 -11.3) (layer F.CrtYd) (width 0.05))
  (pad 1 smd rect (at 1.8 -10.16) (size 2.1 0.75) (layers F.Cu F.Mask F.Paste))
  (pad 2 smd rect (at -1.8 -10.16) (size 2.1 0.75) (layers F.Cu F.Mask F.Paste))
  (pad 3 smd rect (at 1.8 -8.89) (size 2.1 0.75) (layers F.Cu F.Mask F.Paste))
  (pad 4 smd rect (at -1.8 -8.89) (size 2.1 0.75) (layers F.Cu F.Mask F.Paste))
  (pad 5 smd rect (at 1.8 -7.62) (size 2.1 0.75) (layers F.Cu F.Mask F.Paste))
  (pad 6 smd rect (at -1.8 -7.62) (size 2.1 0.75) (layers F.Cu F.Mask F.Paste))
  (pad 7 smd rect (at 1.8 -6.35) (size 2.1 0.75) (layers F.Cu F.Mask F.Paste))
  (pad 8 smd rect (at -1.8 -6.35) (size 2.1 0.75) (layers F.Cu F.Mask F.Paste))
  (pad 9 smd rect (at 1.8 -5.08) (size 2.1 0.75) (layers F.Cu F.Mask F.Paste))
  (pad 10 smd rect (at -1.8 -5.08) (size 2.1 0.75) (layers F.Cu F.Mask F.Paste))
  (pad 11 smd rect (at 1.8 -3.81) (size 2.1 0.75) (layers F.Cu F.Mask F.Paste))
  (pad 12 smd rect (at -1.8 -3.81) (size 2.1 0.75) (layers F.Cu F.Mask F.Paste))
  (pad 13 smd rect (at 1.8 -2.54) (size 2.1 0.75) (layers F.Cu F.Mask F.Paste))
  (pad 14 smd rect (at -1.8 -2.54) (size 2.1 0.75) (layers F.Cu F.Mask F.Paste))
  (pad 15 smd rect (at 1.8 -1.27) (size 2.1 0.75) (layers F.Cu F.Mask F.Paste))
  (pad 16 smd rect (at -1.8 -1.27) (size 2.1 0.75) (layers F.Cu F.Mask F.Paste))
  (pad 17 smd rect (at 1.8 0) (size 2.1 0.75) (layers F.Cu F.Mask F.Paste))
  (pad 18 smd rect (at -1.8 0) (size 2.1 0.75) (layers F.Cu F.Mask F.Paste))
  (pad 19 smd rect (at 1.8 1.27) (size 2.1 0.75) (layers F.Cu F.Mask F.Paste))
  (pad 20 smd rect (at -1.8 1.27) (size 2.1 0.75) (layers F.Cu F.Mask F.Paste))
  (pad 21 smd rect (at 1.8 2.54) (size 2.1 0.75) (layers F.Cu F.Mask F.Paste))
  (pad 22 smd rect (at -1.8 2.54) (size 2.1 0.75) (layers F.Cu F.Mask F.Paste))
  (pad 23 smd rect (at 1.8 3.81) (size 2.1 0.75) (layers F.Cu F.Mask F.Paste))
  (pad 24 smd rect (at -1.8 3.81) (size 2.1 0.75) (layers F.Cu F.Mask F.Paste))
  (pad 25 smd rect (at 1.8 5.08) (size 2.1 0.75) (layers F.Cu F.Mask F.Paste))
  (pad 26 smd rect (at -1.8 5.08) (size 2.1 0.75) (layers F.Cu F.Mask F.Paste))
  (pad 27 smd rect (at 1.8 6.35) (size 2.1 0.75) (layers F.Cu F.Mask F.Paste))
  (pad 28 smd rect (at -1.8 6.35) (size 2.1 0.75) (layers F.Cu F.Mask F.Paste))
  (pad 29 smd rect (at 1.8 7.62) (size 2.1 0.75) (layers F.Cu F.Mask F.Paste))
  (pad 30 smd rect (at -1.8 7.62) (size 2.1 0.75) (layers F.Cu F.Mask F.Paste))
  (pad 31 smd rect (at 1.8 8.89) (size 2.1 0.75) (layers F.Cu F.Mask F.Paste))
  (pad 32 smd rect (at -1.8 8.89) (size 2.1 0.75) (layers F.Cu F.Mask F.Paste))
  (pad 33 smd rect (at 1.8 10.16) (size 2.1 0.75) (layers F.Cu F.Mask F.Paste))
  (pad 34 smd rect (at -1.8 10.16) (size 2.1 0.75) (layers F.Cu F.Mask F.Paste))
  (fp_text user %R (at 0 0 90) (layer F.Fab)
    (effects (font (size 1 1) (thickness 0.15)))
  )
  (model ${KIPRJMOD}/kicad_libs_k/models_k.3d/Connector_PinSocket_1.27mm_k.3dshapes/PinSocket_2x17_P1.27mm_Vertical_SMD_k.wrl
    (at (xyz 0 0 0))
    (scale (xyz 1 1 1))
    (rotate (xyz 0 0 0))
  )
)