(module PinSocket_1x06_P1.27mm_Vertical_SMD_Pin1Right (layer F.Cu) (tedit 5A19A42F)
  (descr "surface-mounted straight socket strip, 1x06, 1.27mm pitch, single row, style 2 (pin 1 right) (https://gct.co/pdfjs/web/viewer.html?file=/Files/Drawings/BD075.pdf&t=1511594726925), script generated")
  (tags "Surface mounted socket strip SMD 1x06 1.27mm single row style2 pin1 right")
  (attr smd)
  (fp_text reference REF** (at 0 -5.485) (layer F.SilkS)
    (effects (font (size 1 1) (thickness 0.15)))
  )
  (fp_text value PinSocket_1x06_P1.27mm_Vertical_SMD_Pin1Right (at 0 5.485) (layer F.Fab)
    (effects (font (size 1 1) (thickness 0.15)))
  )
  (fp_line (start -0.96 -4.045) (end 0.96 -4.045) (layer F.SilkS) (width 0.12))
  (fp_line (start 0.96 -4.045) (end 0.96 -3.76) (layer F.SilkS) (width 0.12))
  (fp_line (start 0.96 -2.59) (end 0.96 -1.22) (layer F.SilkS) (width 0.12))
  (fp_line (start 0.96 -0.05) (end 0.96 1.32) (layer F.SilkS) (width 0.12))
  (fp_line (start 0.96 2.49) (end 0.96 4.045) (layer F.SilkS) (width 0.12))
  (fp_line (start -0.96 4.045) (end 0.96 4.045) (layer F.SilkS) (width 0.12))
  (fp_line (start -0.96 -4.045) (end -0.96 -2.49) (layer F.SilkS) (width 0.12))
  (fp_line (start -0.96 -1.32) (end -0.96 0.05) (layer F.SilkS) (width 0.12))
  (fp_line (start -0.96 1.22) (end -0.96 2.59) (layer F.SilkS) (width 0.12))
  (fp_line (start -0.96 3.76) (end -0.96 4.045) (layer F.SilkS) (width 0.12))
  (fp_line (start 0.96 -3.76) (end 2.19 -3.76) (layer F.SilkS) (width 0.12))
  (fp_line (start -0.9 -3.985) (end 0.45 -3.985) (layer F.Fab) (width 0.1))
  (fp_line (start 0.45 -3.985) (end 0.9 -3.535) (layer F.Fab) (width 0.1))
  (fp_line (start 0.9 -3.535) (end 0.9 3.985) (layer F.Fab) (width 0.1))
  (fp_line (start 0.9 3.985) (end -0.9 3.985) (layer F.Fab) (width 0.1))
  (fp_line (start -0.9 3.985) (end -0.9 -3.985) (layer F.Fab) (width 0.1))
  (fp_line (start 0.9 -3.385) (end 1.75 -3.385) (layer F.Fab) (width 0.1))
  (fp_line (start 1.75 -3.385) (end 1.75 -2.965) (layer F.Fab) (width 0.1))
  (fp_line (start 1.75 -2.965) (end 0.9 -2.965) (layer F.Fab) (width 0.1))
  (fp_line (start -1.75 -2.115) (end -0.9 -2.115) (layer F.Fab) (width 0.1))
  (fp_line (start -0.9 -1.695) (end -1.75 -1.695) (layer F.Fab) (width 0.1))
  (fp_line (start -1.75 -1.695) (end -1.75 -2.115) (layer F.Fab) (width 0.1))
  (fp_line (start 0.9 -0.845) (end 1.75 -0.845) (layer F.Fab) (width 0.1))
  (fp_line (start 1.75 -0.845) (end 1.75 -0.425) (layer F.Fab) (width 0.1))
  (fp_line (start 1.75 -0.425) (end 0.9 -0.425) (layer F.Fab) (width 0.1))
  (fp_line (start -1.75 0.425) (end -0.9 0.425) (layer F.Fab) (width 0.1))
  (fp_line (start -0.9 0.845) (end -1.75 0.845) (layer F.Fab) (width 0.1))
  (fp_line (start -1.75 0.845) (end -1.75 0.425) (layer F.Fab) (width 0.1))
  (fp_line (start 0.9 1.695) (end 1.75 1.695) (layer F.Fab) (width 0.1))
  (fp_line (start 1.75 1.695) (end 1.75 2.115) (layer F.Fab) (width 0.1))
  (fp_line (start 1.75 2.115) (end 0.9 2.115) (layer F.Fab) (width 0.1))
  (fp_line (start -1.75 2.965) (end -0.9 2.965) (layer F.Fab) (width 0.1))
  (fp_line (start -0.9 3.385) (end -1.75 3.385) (layer F.Fab) (width 0.1))
  (fp_line (start -1.75 3.385) (end -1.75 2.965) (layer F.Fab) (width 0.1))
  (fp_line (start -2.75 -4.5) (end 2.75 -4.5) (layer F.CrtYd) (width 0.05))
  (fp_line (start 2.75 -4.5) (end 2.75 4.5) (layer F.CrtYd) (width 0.05))
  (fp_line (start 2.75 4.5) (end -2.75 4.5) (layer F.CrtYd) (width 0.05))
  (fp_line (start -2.75 4.5) (end -2.75 -4.5) (layer F.CrtYd) (width 0.05))
  (pad 2 smd rect (at -1.35 -1.905) (size 1.8 0.65) (layers F.Cu F.Mask F.Paste))
  (pad 4 smd rect (at -1.35 0.635) (size 1.8 0.65) (layers F.Cu F.Mask F.Paste))
  (pad 6 smd rect (at -1.35 3.175) (size 1.8 0.65) (layers F.Cu F.Mask F.Paste))
  (pad 1 smd rect (at 1.35 -3.175) (size 1.8 0.65) (layers F.Cu F.Mask F.Paste))
  (pad 3 smd rect (at 1.35 -0.635) (size 1.8 0.65) (layers F.Cu F.Mask F.Paste))
  (pad 5 smd rect (at 1.35 1.905) (size 1.8 0.65) (layers F.Cu F.Mask F.Paste))
  (fp_text user %R (at 0 0 90) (layer F.Fab)
    (effects (font (size 1 1) (thickness 0.15)))
  )
  (model ${KIPRJMOD}/kicad_libs_k/models_k.3d/Connector_PinSocket_1.27mm_k.3dshapes/PinSocket_1x06_P1.27mm_Vertical_SMD_Pin1Right_k.wrl
    (at (xyz 0 0 0))
    (scale (xyz 1 1 1))
    (rotate (xyz 0 0 0))
  )
)