(module PinSocket_2x32_P1.27mm_Vertical_SMD (layer F.Cu) (tedit 5A19A42B)
  (descr "surface-mounted straight socket strip, 2x32, 1.27mm pitch, double cols (from Kicad 4.0.7!), script generated")
  (tags "Surface mounted socket strip SMD 2x32 1.27mm double row")
  (attr smd)
  (fp_text reference REF** (at 0 -21.82) (layer F.SilkS)
    (effects (font (size 1 1) (thickness 0.15)))
  )
  (fp_text value PinSocket_2x32_P1.27mm_Vertical_SMD (at 0 21.82) (layer F.Fab)
    (effects (font (size 1 1) (thickness 0.15)))
  )
  (fp_line (start -1.33 -20.38) (end 1.33 -20.38) (layer F.SilkS) (width 0.12))
  (fp_line (start 1.33 -20.38) (end 1.33 -20.32) (layer F.SilkS) (width 0.12))
  (fp_line (start 1.33 20.32) (end 1.33 20.38) (layer F.SilkS) (width 0.12))
  (fp_line (start -1.33 20.38) (end 1.33 20.38) (layer F.SilkS) (width 0.12))
  (fp_line (start -1.33 -20.38) (end -1.33 -20.32) (layer F.SilkS) (width 0.12))
  (fp_line (start -1.33 20.32) (end -1.33 20.38) (layer F.SilkS) (width 0.12))
  (fp_line (start 1.33 -20.32) (end 2.79 -20.32) (layer F.SilkS) (width 0.12))
  (fp_line (start -1.27 -20.32) (end 0.635 -20.32) (layer F.Fab) (width 0.1))
  (fp_line (start 0.635 -20.32) (end 1.27 -19.685) (layer F.Fab) (width 0.1))
  (fp_line (start 1.27 -19.685) (end 1.27 20.32) (layer F.Fab) (width 0.1))
  (fp_line (start 1.27 20.32) (end -1.27 20.32) (layer F.Fab) (width 0.1))
  (fp_line (start -1.27 20.32) (end -1.27 -20.32) (layer F.Fab) (width 0.1))
  (fp_line (start -2.555 -19.885) (end -1.27 -19.885) (layer F.Fab) (width 0.1))
  (fp_line (start -1.27 -19.485) (end -2.555 -19.485) (layer F.Fab) (width 0.1))
  (fp_line (start -2.555 -19.485) (end -2.555 -19.885) (layer F.Fab) (width 0.1))
  (fp_line (start 1.27 -19.885) (end 2.555 -19.885) (layer F.Fab) (width 0.1))
  (fp_line (start 2.555 -19.885) (end 2.555 -19.485) (layer F.Fab) (width 0.1))
  (fp_line (start 2.555 -19.485) (end 1.27 -19.485) (layer F.Fab) (width 0.1))
  (fp_line (start -2.555 -18.615) (end -1.27 -18.615) (layer F.Fab) (width 0.1))
  (fp_line (start -1.27 -18.215) (end -2.555 -18.215) (layer F.Fab) (width 0.1))
  (fp_line (start -2.555 -18.215) (end -2.555 -18.615) (layer F.Fab) (width 0.1))
  (fp_line (start 1.27 -18.615) (end 2.555 -18.615) (layer F.Fab) (width 0.1))
  (fp_line (start 2.555 -18.615) (end 2.555 -18.215) (layer F.Fab) (width 0.1))
  (fp_line (start 2.555 -18.215) (end 1.27 -18.215) (layer F.Fab) (width 0.1))
  (fp_line (start -2.555 -17.345) (end -1.27 -17.345) (layer F.Fab) (width 0.1))
  (fp_line (start -1.27 -16.945) (end -2.555 -16.945) (layer F.Fab) (width 0.1))
  (fp_line (start -2.555 -16.945) (end -2.555 -17.345) (layer F.Fab) (width 0.1))
  (fp_line (start 1.27 -17.345) (end 2.555 -17.345) (layer F.Fab) (width 0.1))
  (fp_line (start 2.555 -17.345) (end 2.555 -16.945) (layer F.Fab) (width 0.1))
  (fp_line (start 2.555 -16.945) (end 1.27 -16.945) (layer F.Fab) (width 0.1))
  (fp_line (start -2.555 -16.075) (end -1.27 -16.075) (layer F.Fab) (width 0.1))
  (fp_line (start -1.27 -15.675) (end -2.555 -15.675) (layer F.Fab) (width 0.1))
  (fp_line (start -2.555 -15.675) (end -2.555 -16.075) (layer F.Fab) (width 0.1))
  (fp_line (start 1.27 -16.075) (end 2.555 -16.075) (layer F.Fab) (width 0.1))
  (fp_line (start 2.555 -16.075) (end 2.555 -15.675) (layer F.Fab) (width 0.1))
  (fp_line (start 2.555 -15.675) (end 1.27 -15.675) (layer F.Fab) (width 0.1))
  (fp_line (start -2.555 -14.805) (end -1.27 -14.805) (layer F.Fab) (width 0.1))
  (fp_line (start -1.27 -14.405) (end -2.555 -14.405) (layer F.Fab) (width 0.1))
  (fp_line (start -2.555 -14.405) (end -2.555 -14.805) (layer F.Fab) (width 0.1))
  (fp_line (start 1.27 -14.805) (end 2.555 -14.805) (layer F.Fab) (width 0.1))
  (fp_line (start 2.555 -14.805) (end 2.555 -14.405) (layer F.Fab) (width 0.1))
  (fp_line (start 2.555 -14.405) (end 1.27 -14.405) (layer F.Fab) (width 0.1))
  (fp_line (start -2.555 -13.535) (end -1.27 -13.535) (layer F.Fab) (width 0.1))
  (fp_line (start -1.27 -13.135) (end -2.555 -13.135) (layer F.Fab) (width 0.1))
  (fp_line (start -2.555 -13.135) (end -2.555 -13.535) (layer F.Fab) (width 0.1))
  (fp_line (start 1.27 -13.535) (end 2.555 -13.535) (layer F.Fab) (width 0.1))
  (fp_line (start 2.555 -13.535) (end 2.555 -13.135) (layer F.Fab) (width 0.1))
  (fp_line (start 2.555 -13.135) (end 1.27 -13.135) (layer F.Fab) (width 0.1))
  (fp_line (start -2.555 -12.265) (end -1.27 -12.265) (layer F.Fab) (width 0.1))
  (fp_line (start -1.27 -11.865) (end -2.555 -11.865) (layer F.Fab) (width 0.1))
  (fp_line (start -2.555 -11.865) (end -2.555 -12.265) (layer F.Fab) (width 0.1))
  (fp_line (start 1.27 -12.265) (end 2.555 -12.265) (layer F.Fab) (width 0.1))
  (fp_line (start 2.555 -12.265) (end 2.555 -11.865) (layer F.Fab) (width 0.1))
  (fp_line (start 2.555 -11.865) (end 1.27 -11.865) (layer F.Fab) (width 0.1))
  (fp_line (start -2.555 -10.995) (end -1.27 -10.995) (layer F.Fab) (width 0.1))
  (fp_line (start -1.27 -10.595) (end -2.555 -10.595) (layer F.Fab) (width 0.1))
  (fp_line (start -2.555 -10.595) (end -2.555 -10.995) (layer F.Fab) (width 0.1))
  (fp_line (start 1.27 -10.995) (end 2.555 -10.995) (layer F.Fab) (width 0.1))
  (fp_line (start 2.555 -10.995) (end 2.555 -10.595) (layer F.Fab) (width 0.1))
  (fp_line (start 2.555 -10.595) (end 1.27 -10.595) (layer F.Fab) (width 0.1))
  (fp_line (start -2.555 -9.725) (end -1.27 -9.725) (layer F.Fab) (width 0.1))
  (fp_line (start -1.27 -9.325) (end -2.555 -9.325) (layer F.Fab) (width 0.1))
  (fp_line (start -2.555 -9.325) (end -2.555 -9.725) (layer F.Fab) (width 0.1))
  (fp_line (start 1.27 -9.725) (end 2.555 -9.725) (layer F.Fab) (width 0.1))
  (fp_line (start 2.555 -9.725) (end 2.555 -9.325) (layer F.Fab) (width 0.1))
  (fp_line (start 2.555 -9.325) (end 1.27 -9.325) (layer F.Fab) (width 0.1))
  (fp_line (start -2.555 -8.455) (end -1.27 -8.455) (layer F.Fab) (width 0.1))
  (fp_line (start -1.27 -8.055) (end -2.555 -8.055) (layer F.Fab) (width 0.1))
  (fp_line (start -2.555 -8.055) (end -2.555 -8.455) (layer F.Fab) (width 0.1))
  (fp_line (start 1.27 -8.455) (end 2.555 -8.455) (layer F.Fab) (width 0.1))
  (fp_line (start 2.555 -8.455) (end 2.555 -8.055) (layer F.Fab) (width 0.1))
  (fp_line (start 2.555 -8.055) (end 1.27 -8.055) (layer F.Fab) (width 0.1))
  (fp_line (start -2.555 -7.185) (end -1.27 -7.185) (layer F.Fab) (width 0.1))
  (fp_line (start -1.27 -6.785) (end -2.555 -6.785) (layer F.Fab) (width 0.1))
  (fp_line (start -2.555 -6.785) (end -2.555 -7.185) (layer F.Fab) (width 0.1))
  (fp_line (start 1.27 -7.185) (end 2.555 -7.185) (layer F.Fab) (width 0.1))
  (fp_line (start 2.555 -7.185) (end 2.555 -6.785) (layer F.Fab) (width 0.1))
  (fp_line (start 2.555 -6.785) (end 1.27 -6.785) (layer F.Fab) (width 0.1))
  (fp_line (start -2.555 -5.915) (end -1.27 -5.915) (layer F.Fab) (width 0.1))
  (fp_line (start -1.27 -5.515) (end -2.555 -5.515) (layer F.Fab) (width 0.1))
  (fp_line (start -2.555 -5.515) (end -2.555 -5.915) (layer F.Fab) (width 0.1))
  (fp_line (start 1.27 -5.915) (end 2.555 -5.915) (layer F.Fab) (width 0.1))
  (fp_line (start 2.555 -5.915) (end 2.555 -5.515) (layer F.Fab) (width 0.1))
  (fp_line (start 2.555 -5.515) (end 1.27 -5.515) (layer F.Fab) (width 0.1))
  (fp_line (start -2.555 -4.645) (end -1.27 -4.645) (layer F.Fab) (width 0.1))
  (fp_line (start -1.27 -4.245) (end -2.555 -4.245) (layer F.Fab) (width 0.1))
  (fp_line (start -2.555 -4.245) (end -2.555 -4.645) (layer F.Fab) (width 0.1))
  (fp_line (start 1.27 -4.645) (end 2.555 -4.645) (layer F.Fab) (width 0.1))
  (fp_line (start 2.555 -4.645) (end 2.555 -4.245) (layer F.Fab) (width 0.1))
  (fp_line (start 2.555 -4.245) (end 1.27 -4.245) (layer F.Fab) (width 0.1))
  (fp_line (start -2.555 -3.375) (end -1.27 -3.375) (layer F.Fab) (width 0.1))
  (fp_line (start -1.27 -2.975) (end -2.555 -2.975) (layer F.Fab) (width 0.1))
  (fp_line (start -2.555 -2.975) (end -2.555 -3.375) (layer F.Fab) (width 0.1))
  (fp_line (start 1.27 -3.375) (end 2.555 -3.375) (layer F.Fab) (width 0.1))
  (fp_line (start 2.555 -3.375) (end 2.555 -2.975) (layer F.Fab) (width 0.1))
  (fp_line (start 2.555 -2.975) (end 1.27 -2.975) (layer F.Fab) (width 0.1))
  (fp_line (start -2.555 -2.105) (end -1.27 -2.105) (layer F.Fab) (width 0.1))
  (fp_line (start -1.27 -1.705) (end -2.555 -1.705) (layer F.Fab) (width 0.1))
  (fp_line (start -2.555 -1.705) (end -2.555 -2.105) (layer F.Fab) (width 0.1))
  (fp_line (start 1.27 -2.105) (end 2.555 -2.105) (layer F.Fab) (width 0.1))
  (fp_line (start 2.555 -2.105) (end 2.555 -1.705) (layer F.Fab) (width 0.1))
  (fp_line (start 2.555 -1.705) (end 1.27 -1.705) (layer F.Fab) (width 0.1))
  (fp_line (start -2.555 -0.835) (end -1.27 -0.835) (layer F.Fab) (width 0.1))
  (fp_line (start -1.27 -0.435) (end -2.555 -0.435) (layer F.Fab) (width 0.1))
  (fp_line (start -2.555 -0.435) (end -2.555 -0.835) (layer F.Fab) (width 0.1))
  (fp_line (start 1.27 -0.835) (end 2.555 -0.835) (layer F.Fab) (width 0.1))
  (fp_line (start 2.555 -0.835) (end 2.555 -0.435) (layer F.Fab) (width 0.1))
  (fp_line (start 2.555 -0.435) (end 1.27 -0.435) (layer F.Fab) (width 0.1))
  (fp_line (start -2.555 0.435) (end -1.27 0.435) (layer F.Fab) (width 0.1))
  (fp_line (start -1.27 0.835) (end -2.555 0.835) (layer F.Fab) (width 0.1))
  (fp_line (start -2.555 0.835) (end -2.555 0.435) (layer F.Fab) (width 0.1))
  (fp_line (start 1.27 0.435) (end 2.555 0.435) (layer F.Fab) (width 0.1))
  (fp_line (start 2.555 0.435) (end 2.555 0.835) (layer F.Fab) (width 0.1))
  (fp_line (start 2.555 0.835) (end 1.27 0.835) (layer F.Fab) (width 0.1))
  (fp_line (start -2.555 1.705) (end -1.27 1.705) (layer F.Fab) (width 0.1))
  (fp_line (start -1.27 2.105) (end -2.555 2.105) (layer F.Fab) (width 0.1))
  (fp_line (start -2.555 2.105) (end -2.555 1.705) (layer F.Fab) (width 0.1))
  (fp_line (start 1.27 1.705) (end 2.555 1.705) (layer F.Fab) (width 0.1))
  (fp_line (start 2.555 1.705) (end 2.555 2.105) (layer F.Fab) (width 0.1))
  (fp_line (start 2.555 2.105) (end 1.27 2.105) (layer F.Fab) (width 0.1))
  (fp_line (start -2.555 2.975) (end -1.27 2.975) (layer F.Fab) (width 0.1))
  (fp_line (start -1.27 3.375) (end -2.555 3.375) (layer F.Fab) (width 0.1))
  (fp_line (start -2.555 3.375) (end -2.555 2.975) (layer F.Fab) (width 0.1))
  (fp_line (start 1.27 2.975) (end 2.555 2.975) (layer F.Fab) (width 0.1))
  (fp_line (start 2.555 2.975) (end 2.555 3.375) (layer F.Fab) (width 0.1))
  (fp_line (start 2.555 3.375) (end 1.27 3.375) (layer F.Fab) (width 0.1))
  (fp_line (start -2.555 4.245) (end -1.27 4.245) (layer F.Fab) (width 0.1))
  (fp_line (start -1.27 4.645) (end -2.555 4.645) (layer F.Fab) (width 0.1))
  (fp_line (start -2.555 4.645) (end -2.555 4.245) (layer F.Fab) (width 0.1))
  (fp_line (start 1.27 4.245) (end 2.555 4.245) (layer F.Fab) (width 0.1))
  (fp_line (start 2.555 4.245) (end 2.555 4.645) (layer F.Fab) (width 0.1))
  (fp_line (start 2.555 4.645) (end 1.27 4.645) (layer F.Fab) (width 0.1))
  (fp_line (start -2.555 5.515) (end -1.27 5.515) (layer F.Fab) (width 0.1))
  (fp_line (start -1.27 5.915) (end -2.555 5.915) (layer F.Fab) (width 0.1))
  (fp_line (start -2.555 5.915) (end -2.555 5.515) (layer F.Fab) (width 0.1))
  (fp_line (start 1.27 5.515) (end 2.555 5.515) (layer F.Fab) (width 0.1))
  (fp_line (start 2.555 5.515) (end 2.555 5.915) (layer F.Fab) (width 0.1))
  (fp_line (start 2.555 5.915) (end 1.27 5.915) (layer F.Fab) (width 0.1))
  (fp_line (start -2.555 6.785) (end -1.27 6.785) (layer F.Fab) (width 0.1))
  (fp_line (start -1.27 7.185) (end -2.555 7.185) (layer F.Fab) (width 0.1))
  (fp_line (start -2.555 7.185) (end -2.555 6.785) (layer F.Fab) (width 0.1))
  (fp_line (start 1.27 6.785) (end 2.555 6.785) (layer F.Fab) (width 0.1))
  (fp_line (start 2.555 6.785) (end 2.555 7.185) (layer F.Fab) (width 0.1))
  (fp_line (start 2.555 7.185) (end 1.27 7.185) (layer F.Fab) (width 0.1))
  (fp_line (start -2.555 8.055) (end -1.27 8.055) (layer F.Fab) (width 0.1))
  (fp_line (start -1.27 8.455) (end -2.555 8.455) (layer F.Fab) (width 0.1))
  (fp_line (start -2.555 8.455) (end -2.555 8.055) (layer F.Fab) (width 0.1))
  (fp_line (start 1.27 8.055) (end 2.555 8.055) (layer F.Fab) (width 0.1))
  (fp_line (start 2.555 8.055) (end 2.555 8.455) (layer F.Fab) (width 0.1))
  (fp_line (start 2.555 8.455) (end 1.27 8.455) (layer F.Fab) (width 0.1))
  (fp_line (start -2.555 9.325) (end -1.27 9.325) (layer F.Fab) (width 0.1))
  (fp_line (start -1.27 9.725) (end -2.555 9.725) (layer F.Fab) (width 0.1))
  (fp_line (start -2.555 9.725) (end -2.555 9.325) (layer F.Fab) (width 0.1))
  (fp_line (start 1.27 9.325) (end 2.555 9.325) (layer F.Fab) (width 0.1))
  (fp_line (start 2.555 9.325) (end 2.555 9.725) (layer F.Fab) (width 0.1))
  (fp_line (start 2.555 9.725) (end 1.27 9.725) (layer F.Fab) (width 0.1))
  (fp_line (start -2.555 10.595) (end -1.27 10.595) (layer F.Fab) (width 0.1))
  (fp_line (start -1.27 10.995) (end -2.555 10.995) (layer F.Fab) (width 0.1))
  (fp_line (start -2.555 10.995) (end -2.555 10.595) (layer F.Fab) (width 0.1))
  (fp_line (start 1.27 10.595) (end 2.555 10.595) (layer F.Fab) (width 0.1))
  (fp_line (start 2.555 10.595) (end 2.555 10.995) (layer F.Fab) (width 0.1))
  (fp_line (start 2.555 10.995) (end 1.27 10.995) (layer F.Fab) (width 0.1))
  (fp_line (start -2.555 11.865) (end -1.27 11.865) (layer F.Fab) (width 0.1))
  (fp_line (start -1.27 12.265) (end -2.555 12.265) (layer F.Fab) (width 0.1))
  (fp_line (start -2.555 12.265) (end -2.555 11.865) (layer F.Fab) (width 0.1))
  (fp_line (start 1.27 11.865) (end 2.555 11.865) (layer F.Fab) (width 0.1))
  (fp_line (start 2.555 11.865) (end 2.555 12.265) (layer F.Fab) (width 0.1))
  (fp_line (start 2.555 12.265) (end 1.27 12.265) (layer F.Fab) (width 0.1))
  (fp_line (start -2.555 13.135) (end -1.27 13.135) (layer F.Fab) (width 0.1))
  (fp_line (start -1.27 13.535) (end -2.555 13.535) (layer F.Fab) (width 0.1))
  (fp_line (start -2.555 13.535) (end -2.555 13.135) (layer F.Fab) (width 0.1))
  (fp_line (start 1.27 13.135) (end 2.555 13.135) (layer F.Fab) (width 0.1))
  (fp_line (start 2.555 13.135) (end 2.555 13.535) (layer F.Fab) (width 0.1))
  (fp_line (start 2.555 13.535) (end 1.27 13.535) (layer F.Fab) (width 0.1))
  (fp_line (start -2.555 14.405) (end -1.27 14.405) (layer F.Fab) (width 0.1))
  (fp_line (start -1.27 14.805) (end -2.555 14.805) (layer F.Fab) (width 0.1))
  (fp_line (start -2.555 14.805) (end -2.555 14.405) (layer F.Fab) (width 0.1))
  (fp_line (start 1.27 14.405) (end 2.555 14.405) (layer F.Fab) (width 0.1))
  (fp_line (start 2.555 14.405) (end 2.555 14.805) (layer F.Fab) (width 0.1))
  (fp_line (start 2.555 14.805) (end 1.27 14.805) (layer F.Fab) (width 0.1))
  (fp_line (start -2.555 15.675) (end -1.27 15.675) (layer F.Fab) (width 0.1))
  (fp_line (start -1.27 16.075) (end -2.555 16.075) (layer F.Fab) (width 0.1))
  (fp_line (start -2.555 16.075) (end -2.555 15.675) (layer F.Fab) (width 0.1))
  (fp_line (start 1.27 15.675) (end 2.555 15.675) (layer F.Fab) (width 0.1))
  (fp_line (start 2.555 15.675) (end 2.555 16.075) (layer F.Fab) (width 0.1))
  (fp_line (start 2.555 16.075) (end 1.27 16.075) (layer F.Fab) (width 0.1))
  (fp_line (start -2.555 16.945) (end -1.27 16.945) (layer F.Fab) (width 0.1))
  (fp_line (start -1.27 17.345) (end -2.555 17.345) (layer F.Fab) (width 0.1))
  (fp_line (start -2.555 17.345) (end -2.555 16.945) (layer F.Fab) (width 0.1))
  (fp_line (start 1.27 16.945) (end 2.555 16.945) (layer F.Fab) (width 0.1))
  (fp_line (start 2.555 16.945) (end 2.555 17.345) (layer F.Fab) (width 0.1))
  (fp_line (start 2.555 17.345) (end 1.27 17.345) (layer F.Fab) (width 0.1))
  (fp_line (start -2.555 18.215) (end -1.27 18.215) (layer F.Fab) (width 0.1))
  (fp_line (start -1.27 18.615) (end -2.555 18.615) (layer F.Fab) (width 0.1))
  (fp_line (start -2.555 18.615) (end -2.555 18.215) (layer F.Fab) (width 0.1))
  (fp_line (start 1.27 18.215) (end 2.555 18.215) (layer F.Fab) (width 0.1))
  (fp_line (start 2.555 18.215) (end 2.555 18.615) (layer F.Fab) (width 0.1))
  (fp_line (start 2.555 18.615) (end 1.27 18.615) (layer F.Fab) (width 0.1))
  (fp_line (start -2.555 19.485) (end -1.27 19.485) (layer F.Fab) (width 0.1))
  (fp_line (start -1.27 19.885) (end -2.555 19.885) (layer F.Fab) (width 0.1))
  (fp_line (start -2.555 19.885) (end -2.555 19.485) (layer F.Fab) (width 0.1))
  (fp_line (start 1.27 19.485) (end 2.555 19.485) (layer F.Fab) (width 0.1))
  (fp_line (start 2.555 19.485) (end 2.555 19.885) (layer F.Fab) (width 0.1))
  (fp_line (start 2.555 19.885) (end 1.27 19.885) (layer F.Fab) (width 0.1))
  (fp_line (start -3.35 -20.85) (end 3.35 -20.85) (layer F.CrtYd) (width 0.05))
  (fp_line (start 3.35 -20.85) (end 3.35 20.85) (layer F.CrtYd) (width 0.05))
  (fp_line (start 3.35 20.85) (end -3.35 20.85) (layer F.CrtYd) (width 0.05))
  (fp_line (start -3.35 20.85) (end -3.35 -20.85) (layer F.CrtYd) (width 0.05))
  (pad 1 smd rect (at 1.8 -19.685) (size 2.1 0.75) (layers F.Cu F.Mask F.Paste))
  (pad 2 smd rect (at -1.8 -19.685) (size 2.1 0.75) (layers F.Cu F.Mask F.Paste))
  (pad 3 smd rect (at 1.8 -18.415) (size 2.1 0.75) (layers F.Cu F.Mask F.Paste))
  (pad 4 smd rect (at -1.8 -18.415) (size 2.1 0.75) (layers F.Cu F.Mask F.Paste))
  (pad 5 smd rect (at 1.8 -17.145) (size 2.1 0.75) (layers F.Cu F.Mask F.Paste))
  (pad 6 smd rect (at -1.8 -17.145) (size 2.1 0.75) (layers F.Cu F.Mask F.Paste))
  (pad 7 smd rect (at 1.8 -15.875) (size 2.1 0.75) (layers F.Cu F.Mask F.Paste))
  (pad 8 smd rect (at -1.8 -15.875) (size 2.1 0.75) (layers F.Cu F.Mask F.Paste))
  (pad 9 smd rect (at 1.8 -14.605) (size 2.1 0.75) (layers F.Cu F.Mask F.Paste))
  (pad 10 smd rect (at -1.8 -14.605) (size 2.1 0.75) (layers F.Cu F.Mask F.Paste))
  (pad 11 smd rect (at 1.8 -13.335) (size 2.1 0.75) (layers F.Cu F.Mask F.Paste))
  (pad 12 smd rect (at -1.8 -13.335) (size 2.1 0.75) (layers F.Cu F.Mask F.Paste))
  (pad 13 smd rect (at 1.8 -12.065) (size 2.1 0.75) (layers F.Cu F.Mask F.Paste))
  (pad 14 smd rect (at -1.8 -12.065) (size 2.1 0.75) (layers F.Cu F.Mask F.Paste))
  (pad 15 smd rect (at 1.8 -10.795) (size 2.1 0.75) (layers F.Cu F.Mask F.Paste))
  (pad 16 smd rect (at -1.8 -10.795) (size 2.1 0.75) (layers F.Cu F.Mask F.Paste))
  (pad 17 smd rect (at 1.8 -9.525) (size 2.1 0.75) (layers F.Cu F.Mask F.Paste))
  (pad 18 smd rect (at -1.8 -9.525) (size 2.1 0.75) (layers F.Cu F.Mask F.Paste))
  (pad 19 smd rect (at 1.8 -8.255) (size 2.1 0.75) (layers F.Cu F.Mask F.Paste))
  (pad 20 smd rect (at -1.8 -8.255) (size 2.1 0.75) (layers F.Cu F.Mask F.Paste))
  (pad 21 smd rect (at 1.8 -6.985) (size 2.1 0.75) (layers F.Cu F.Mask F.Paste))
  (pad 22 smd rect (at -1.8 -6.985) (size 2.1 0.75) (layers F.Cu F.Mask F.Paste))
  (pad 23 smd rect (at 1.8 -5.715) (size 2.1 0.75) (layers F.Cu F.Mask F.Paste))
  (pad 24 smd rect (at -1.8 -5.715) (size 2.1 0.75) (layers F.Cu F.Mask F.Paste))
  (pad 25 smd rect (at 1.8 -4.445) (size 2.1 0.75) (layers F.Cu F.Mask F.Paste))
  (pad 26 smd rect (at -1.8 -4.445) (size 2.1 0.75) (layers F.Cu F.Mask F.Paste))
  (pad 27 smd rect (at 1.8 -3.175) (size 2.1 0.75) (layers F.Cu F.Mask F.Paste))
  (pad 28 smd rect (at -1.8 -3.175) (size 2.1 0.75) (layers F.Cu F.Mask F.Paste))
  (pad 29 smd rect (at 1.8 -1.905) (size 2.1 0.75) (layers F.Cu F.Mask F.Paste))
  (pad 30 smd rect (at -1.8 -1.905) (size 2.1 0.75) (layers F.Cu F.Mask F.Paste))
  (pad 31 smd rect (at 1.8 -0.635) (size 2.1 0.75) (layers F.Cu F.Mask F.Paste))
  (pad 32 smd rect (at -1.8 -0.635) (size 2.1 0.75) (layers F.Cu F.Mask F.Paste))
  (pad 33 smd rect (at 1.8 0.635) (size 2.1 0.75) (layers F.Cu F.Mask F.Paste))
  (pad 34 smd rect (at -1.8 0.635) (size 2.1 0.75) (layers F.Cu F.Mask F.Paste))
  (pad 35 smd rect (at 1.8 1.905) (size 2.1 0.75) (layers F.Cu F.Mask F.Paste))
  (pad 36 smd rect (at -1.8 1.905) (size 2.1 0.75) (layers F.Cu F.Mask F.Paste))
  (pad 37 smd rect (at 1.8 3.175) (size 2.1 0.75) (layers F.Cu F.Mask F.Paste))
  (pad 38 smd rect (at -1.8 3.175) (size 2.1 0.75) (layers F.Cu F.Mask F.Paste))
  (pad 39 smd rect (at 1.8 4.445) (size 2.1 0.75) (layers F.Cu F.Mask F.Paste))
  (pad 40 smd rect (at -1.8 4.445) (size 2.1 0.75) (layers F.Cu F.Mask F.Paste))
  (pad 41 smd rect (at 1.8 5.715) (size 2.1 0.75) (layers F.Cu F.Mask F.Paste))
  (pad 42 smd rect (at -1.8 5.715) (size 2.1 0.75) (layers F.Cu F.Mask F.Paste))
  (pad 43 smd rect (at 1.8 6.985) (size 2.1 0.75) (layers F.Cu F.Mask F.Paste))
  (pad 44 smd rect (at -1.8 6.985) (size 2.1 0.75) (layers F.Cu F.Mask F.Paste))
  (pad 45 smd rect (at 1.8 8.255) (size 2.1 0.75) (layers F.Cu F.Mask F.Paste))
  (pad 46 smd rect (at -1.8 8.255) (size 2.1 0.75) (layers F.Cu F.Mask F.Paste))
  (pad 47 smd rect (at 1.8 9.525) (size 2.1 0.75) (layers F.Cu F.Mask F.Paste))
  (pad 48 smd rect (at -1.8 9.525) (size 2.1 0.75) (layers F.Cu F.Mask F.Paste))
  (pad 49 smd rect (at 1.8 10.795) (size 2.1 0.75) (layers F.Cu F.Mask F.Paste))
  (pad 50 smd rect (at -1.8 10.795) (size 2.1 0.75) (layers F.Cu F.Mask F.Paste))
  (pad 51 smd rect (at 1.8 12.065) (size 2.1 0.75) (layers F.Cu F.Mask F.Paste))
  (pad 52 smd rect (at -1.8 12.065) (size 2.1 0.75) (layers F.Cu F.Mask F.Paste))
  (pad 53 smd rect (at 1.8 13.335) (size 2.1 0.75) (layers F.Cu F.Mask F.Paste))
  (pad 54 smd rect (at -1.8 13.335) (size 2.1 0.75) (layers F.Cu F.Mask F.Paste))
  (pad 55 smd rect (at 1.8 14.605) (size 2.1 0.75) (layers F.Cu F.Mask F.Paste))
  (pad 56 smd rect (at -1.8 14.605) (size 2.1 0.75) (layers F.Cu F.Mask F.Paste))
  (pad 57 smd rect (at 1.8 15.875) (size 2.1 0.75) (layers F.Cu F.Mask F.Paste))
  (pad 58 smd rect (at -1.8 15.875) (size 2.1 0.75) (layers F.Cu F.Mask F.Paste))
  (pad 59 smd rect (at 1.8 17.145) (size 2.1 0.75) (layers F.Cu F.Mask F.Paste))
  (pad 60 smd rect (at -1.8 17.145) (size 2.1 0.75) (layers F.Cu F.Mask F.Paste))
  (pad 61 smd rect (at 1.8 18.415) (size 2.1 0.75) (layers F.Cu F.Mask F.Paste))
  (pad 62 smd rect (at -1.8 18.415) (size 2.1 0.75) (layers F.Cu F.Mask F.Paste))
  (pad 63 smd rect (at 1.8 19.685) (size 2.1 0.75) (layers F.Cu F.Mask F.Paste))
  (pad 64 smd rect (at -1.8 19.685) (size 2.1 0.75) (layers F.Cu F.Mask F.Paste))
  (fp_text user %R (at 0 0 90) (layer F.Fab)
    (effects (font (size 1 1) (thickness 0.15)))
  )
  (model ${KIPRJMOD}/kicad_libs_k/models_k.3d/Connector_PinSocket_1.27mm_k.3dshapes/PinSocket_2x32_P1.27mm_Vertical_SMD_k.wrl
    (at (xyz 0 0 0))
    (scale (xyz 1 1 1))
    (rotate (xyz 0 0 0))
  )
)