(module PinSocket_2x39_P1.27mm_Vertical_SMD (layer F.Cu) (tedit 5A19A433)
  (descr "surface-mounted straight socket strip, 2x39, 1.27mm pitch, double cols (from Kicad 4.0.7!), script generated")
  (tags "Surface mounted socket strip SMD 2x39 1.27mm double row")
  (attr smd)
  (fp_text reference REF** (at 0 -26.265) (layer F.SilkS)
    (effects (font (size 1 1) (thickness 0.15)))
  )
  (fp_text value PinSocket_2x39_P1.27mm_Vertical_SMD (at 0 26.265) (layer F.Fab)
    (effects (font (size 1 1) (thickness 0.15)))
  )
  (fp_line (start -1.33 -24.825) (end 1.33 -24.825) (layer F.SilkS) (width 0.12))
  (fp_line (start 1.33 -24.825) (end 1.33 -24.765) (layer F.SilkS) (width 0.12))
  (fp_line (start 1.33 24.765) (end 1.33 24.825) (layer F.SilkS) (width 0.12))
  (fp_line (start -1.33 24.825) (end 1.33 24.825) (layer F.SilkS) (width 0.12))
  (fp_line (start -1.33 -24.825) (end -1.33 -24.765) (layer F.SilkS) (width 0.12))
  (fp_line (start -1.33 24.765) (end -1.33 24.825) (layer F.SilkS) (width 0.12))
  (fp_line (start 1.33 -24.765) (end 2.79 -24.765) (layer F.SilkS) (width 0.12))
  (fp_line (start -1.27 -24.765) (end 0.635 -24.765) (layer F.Fab) (width 0.1))
  (fp_line (start 0.635 -24.765) (end 1.27 -24.13) (layer F.Fab) (width 0.1))
  (fp_line (start 1.27 -24.13) (end 1.27 24.765) (layer F.Fab) (width 0.1))
  (fp_line (start 1.27 24.765) (end -1.27 24.765) (layer F.Fab) (width 0.1))
  (fp_line (start -1.27 24.765) (end -1.27 -24.765) (layer F.Fab) (width 0.1))
  (fp_line (start -2.555 -24.33) (end -1.27 -24.33) (layer F.Fab) (width 0.1))
  (fp_line (start -1.27 -23.93) (end -2.555 -23.93) (layer F.Fab) (width 0.1))
  (fp_line (start -2.555 -23.93) (end -2.555 -24.33) (layer F.Fab) (width 0.1))
  (fp_line (start 1.27 -24.33) (end 2.555 -24.33) (layer F.Fab) (width 0.1))
  (fp_line (start 2.555 -24.33) (end 2.555 -23.93) (layer F.Fab) (width 0.1))
  (fp_line (start 2.555 -23.93) (end 1.27 -23.93) (layer F.Fab) (width 0.1))
  (fp_line (start -2.555 -23.06) (end -1.27 -23.06) (layer F.Fab) (width 0.1))
  (fp_line (start -1.27 -22.66) (end -2.555 -22.66) (layer F.Fab) (width 0.1))
  (fp_line (start -2.555 -22.66) (end -2.555 -23.06) (layer F.Fab) (width 0.1))
  (fp_line (start 1.27 -23.06) (end 2.555 -23.06) (layer F.Fab) (width 0.1))
  (fp_line (start 2.555 -23.06) (end 2.555 -22.66) (layer F.Fab) (width 0.1))
  (fp_line (start 2.555 -22.66) (end 1.27 -22.66) (layer F.Fab) (width 0.1))
  (fp_line (start -2.555 -21.79) (end -1.27 -21.79) (layer F.Fab) (width 0.1))
  (fp_line (start -1.27 -21.39) (end -2.555 -21.39) (layer F.Fab) (width 0.1))
  (fp_line (start -2.555 -21.39) (end -2.555 -21.79) (layer F.Fab) (width 0.1))
  (fp_line (start 1.27 -21.79) (end 2.555 -21.79) (layer F.Fab) (width 0.1))
  (fp_line (start 2.555 -21.79) (end 2.555 -21.39) (layer F.Fab) (width 0.1))
  (fp_line (start 2.555 -21.39) (end 1.27 -21.39) (layer F.Fab) (width 0.1))
  (fp_line (start -2.555 -20.52) (end -1.27 -20.52) (layer F.Fab) (width 0.1))
  (fp_line (start -1.27 -20.12) (end -2.555 -20.12) (layer F.Fab) (width 0.1))
  (fp_line (start -2.555 -20.12) (end -2.555 -20.52) (layer F.Fab) (width 0.1))
  (fp_line (start 1.27 -20.52) (end 2.555 -20.52) (layer F.Fab) (width 0.1))
  (fp_line (start 2.555 -20.52) (end 2.555 -20.12) (layer F.Fab) (width 0.1))
  (fp_line (start 2.555 -20.12) (end 1.27 -20.12) (layer F.Fab) (width 0.1))
  (fp_line (start -2.555 -19.25) (end -1.27 -19.25) (layer F.Fab) (width 0.1))
  (fp_line (start -1.27 -18.85) (end -2.555 -18.85) (layer F.Fab) (width 0.1))
  (fp_line (start -2.555 -18.85) (end -2.555 -19.25) (layer F.Fab) (width 0.1))
  (fp_line (start 1.27 -19.25) (end 2.555 -19.25) (layer F.Fab) (width 0.1))
  (fp_line (start 2.555 -19.25) (end 2.555 -18.85) (layer F.Fab) (width 0.1))
  (fp_line (start 2.555 -18.85) (end 1.27 -18.85) (layer F.Fab) (width 0.1))
  (fp_line (start -2.555 -17.98) (end -1.27 -17.98) (layer F.Fab) (width 0.1))
  (fp_line (start -1.27 -17.58) (end -2.555 -17.58) (layer F.Fab) (width 0.1))
  (fp_line (start -2.555 -17.58) (end -2.555 -17.98) (layer F.Fab) (width 0.1))
  (fp_line (start 1.27 -17.98) (end 2.555 -17.98) (layer F.Fab) (width 0.1))
  (fp_line (start 2.555 -17.98) (end 2.555 -17.58) (layer F.Fab) (width 0.1))
  (fp_line (start 2.555 -17.58) (end 1.27 -17.58) (layer F.Fab) (width 0.1))
  (fp_line (start -2.555 -16.71) (end -1.27 -16.71) (layer F.Fab) (width 0.1))
  (fp_line (start -1.27 -16.31) (end -2.555 -16.31) (layer F.Fab) (width 0.1))
  (fp_line (start -2.555 -16.31) (end -2.555 -16.71) (layer F.Fab) (width 0.1))
  (fp_line (start 1.27 -16.71) (end 2.555 -16.71) (layer F.Fab) (width 0.1))
  (fp_line (start 2.555 -16.71) (end 2.555 -16.31) (layer F.Fab) (width 0.1))
  (fp_line (start 2.555 -16.31) (end 1.27 -16.31) (layer F.Fab) (width 0.1))
  (fp_line (start -2.555 -15.44) (end -1.27 -15.44) (layer F.Fab) (width 0.1))
  (fp_line (start -1.27 -15.04) (end -2.555 -15.04) (layer F.Fab) (width 0.1))
  (fp_line (start -2.555 -15.04) (end -2.555 -15.44) (layer F.Fab) (width 0.1))
  (fp_line (start 1.27 -15.44) (end 2.555 -15.44) (layer F.Fab) (width 0.1))
  (fp_line (start 2.555 -15.44) (end 2.555 -15.04) (layer F.Fab) (width 0.1))
  (fp_line (start 2.555 -15.04) (end 1.27 -15.04) (layer F.Fab) (width 0.1))
  (fp_line (start -2.555 -14.17) (end -1.27 -14.17) (layer F.Fab) (width 0.1))
  (fp_line (start -1.27 -13.77) (end -2.555 -13.77) (layer F.Fab) (width 0.1))
  (fp_line (start -2.555 -13.77) (end -2.555 -14.17) (layer F.Fab) (width 0.1))
  (fp_line (start 1.27 -14.17) (end 2.555 -14.17) (layer F.Fab) (width 0.1))
  (fp_line (start 2.555 -14.17) (end 2.555 -13.77) (layer F.Fab) (width 0.1))
  (fp_line (start 2.555 -13.77) (end 1.27 -13.77) (layer F.Fab) (width 0.1))
  (fp_line (start -2.555 -12.9) (end -1.27 -12.9) (layer F.Fab) (width 0.1))
  (fp_line (start -1.27 -12.5) (end -2.555 -12.5) (layer F.Fab) (width 0.1))
  (fp_line (start -2.555 -12.5) (end -2.555 -12.9) (layer F.Fab) (width 0.1))
  (fp_line (start 1.27 -12.9) (end 2.555 -12.9) (layer F.Fab) (width 0.1))
  (fp_line (start 2.555 -12.9) (end 2.555 -12.5) (layer F.Fab) (width 0.1))
  (fp_line (start 2.555 -12.5) (end 1.27 -12.5) (layer F.Fab) (width 0.1))
  (fp_line (start -2.555 -11.63) (end -1.27 -11.63) (layer F.Fab) (width 0.1))
  (fp_line (start -1.27 -11.23) (end -2.555 -11.23) (layer F.Fab) (width 0.1))
  (fp_line (start -2.555 -11.23) (end -2.555 -11.63) (layer F.Fab) (width 0.1))
  (fp_line (start 1.27 -11.63) (end 2.555 -11.63) (layer F.Fab) (width 0.1))
  (fp_line (start 2.555 -11.63) (end 2.555 -11.23) (layer F.Fab) (width 0.1))
  (fp_line (start 2.555 -11.23) (end 1.27 -11.23) (layer F.Fab) (width 0.1))
  (fp_line (start -2.555 -10.36) (end -1.27 -10.36) (layer F.Fab) (width 0.1))
  (fp_line (start -1.27 -9.96) (end -2.555 -9.96) (layer F.Fab) (width 0.1))
  (fp_line (start -2.555 -9.96) (end -2.555 -10.36) (layer F.Fab) (width 0.1))
  (fp_line (start 1.27 -10.36) (end 2.555 -10.36) (layer F.Fab) (width 0.1))
  (fp_line (start 2.555 -10.36) (end 2.555 -9.96) (layer F.Fab) (width 0.1))
  (fp_line (start 2.555 -9.96) (end 1.27 -9.96) (layer F.Fab) (width 0.1))
  (fp_line (start -2.555 -9.09) (end -1.27 -9.09) (layer F.Fab) (width 0.1))
  (fp_line (start -1.27 -8.69) (end -2.555 -8.69) (layer F.Fab) (width 0.1))
  (fp_line (start -2.555 -8.69) (end -2.555 -9.09) (layer F.Fab) (width 0.1))
  (fp_line (start 1.27 -9.09) (end 2.555 -9.09) (layer F.Fab) (width 0.1))
  (fp_line (start 2.555 -9.09) (end 2.555 -8.69) (layer F.Fab) (width 0.1))
  (fp_line (start 2.555 -8.69) (end 1.27 -8.69) (layer F.Fab) (width 0.1))
  (fp_line (start -2.555 -7.82) (end -1.27 -7.82) (layer F.Fab) (width 0.1))
  (fp_line (start -1.27 -7.42) (end -2.555 -7.42) (layer F.Fab) (width 0.1))
  (fp_line (start -2.555 -7.42) (end -2.555 -7.82) (layer F.Fab) (width 0.1))
  (fp_line (start 1.27 -7.82) (end 2.555 -7.82) (layer F.Fab) (width 0.1))
  (fp_line (start 2.555 -7.82) (end 2.555 -7.42) (layer F.Fab) (width 0.1))
  (fp_line (start 2.555 -7.42) (end 1.27 -7.42) (layer F.Fab) (width 0.1))
  (fp_line (start -2.555 -6.55) (end -1.27 -6.55) (layer F.Fab) (width 0.1))
  (fp_line (start -1.27 -6.15) (end -2.555 -6.15) (layer F.Fab) (width 0.1))
  (fp_line (start -2.555 -6.15) (end -2.555 -6.55) (layer F.Fab) (width 0.1))
  (fp_line (start 1.27 -6.55) (end 2.555 -6.55) (layer F.Fab) (width 0.1))
  (fp_line (start 2.555 -6.55) (end 2.555 -6.15) (layer F.Fab) (width 0.1))
  (fp_line (start 2.555 -6.15) (end 1.27 -6.15) (layer F.Fab) (width 0.1))
  (fp_line (start -2.555 -5.28) (end -1.27 -5.28) (layer F.Fab) (width 0.1))
  (fp_line (start -1.27 -4.88) (end -2.555 -4.88) (layer F.Fab) (width 0.1))
  (fp_line (start -2.555 -4.88) (end -2.555 -5.28) (layer F.Fab) (width 0.1))
  (fp_line (start 1.27 -5.28) (end 2.555 -5.28) (layer F.Fab) (width 0.1))
  (fp_line (start 2.555 -5.28) (end 2.555 -4.88) (layer F.Fab) (width 0.1))
  (fp_line (start 2.555 -4.88) (end 1.27 -4.88) (layer F.Fab) (width 0.1))
  (fp_line (start -2.555 -4.01) (end -1.27 -4.01) (layer F.Fab) (width 0.1))
  (fp_line (start -1.27 -3.61) (end -2.555 -3.61) (layer F.Fab) (width 0.1))
  (fp_line (start -2.555 -3.61) (end -2.555 -4.01) (layer F.Fab) (width 0.1))
  (fp_line (start 1.27 -4.01) (end 2.555 -4.01) (layer F.Fab) (width 0.1))
  (fp_line (start 2.555 -4.01) (end 2.555 -3.61) (layer F.Fab) (width 0.1))
  (fp_line (start 2.555 -3.61) (end 1.27 -3.61) (layer F.Fab) (width 0.1))
  (fp_line (start -2.555 -2.74) (end -1.27 -2.74) (layer F.Fab) (width 0.1))
  (fp_line (start -1.27 -2.34) (end -2.555 -2.34) (layer F.Fab) (width 0.1))
  (fp_line (start -2.555 -2.34) (end -2.555 -2.74) (layer F.Fab) (width 0.1))
  (fp_line (start 1.27 -2.74) (end 2.555 -2.74) (layer F.Fab) (width 0.1))
  (fp_line (start 2.555 -2.74) (end 2.555 -2.34) (layer F.Fab) (width 0.1))
  (fp_line (start 2.555 -2.34) (end 1.27 -2.34) (layer F.Fab) (width 0.1))
  (fp_line (start -2.555 -1.47) (end -1.27 -1.47) (layer F.Fab) (width 0.1))
  (fp_line (start -1.27 -1.07) (end -2.555 -1.07) (layer F.Fab) (width 0.1))
  (fp_line (start -2.555 -1.07) (end -2.555 -1.47) (layer F.Fab) (width 0.1))
  (fp_line (start 1.27 -1.47) (end 2.555 -1.47) (layer F.Fab) (width 0.1))
  (fp_line (start 2.555 -1.47) (end 2.555 -1.07) (layer F.Fab) (width 0.1))
  (fp_line (start 2.555 -1.07) (end 1.27 -1.07) (layer F.Fab) (width 0.1))
  (fp_line (start -2.555 -0.2) (end -1.27 -0.2) (layer F.Fab) (width 0.1))
  (fp_line (start -1.27 0.2) (end -2.555 0.2) (layer F.Fab) (width 0.1))
  (fp_line (start -2.555 0.2) (end -2.555 -0.2) (layer F.Fab) (width 0.1))
  (fp_line (start 1.27 -0.2) (end 2.555 -0.2) (layer F.Fab) (width 0.1))
  (fp_line (start 2.555 -0.2) (end 2.555 0.2) (layer F.Fab) (width 0.1))
  (fp_line (start 2.555 0.2) (end 1.27 0.2) (layer F.Fab) (width 0.1))
  (fp_line (start -2.555 1.07) (end -1.27 1.07) (layer F.Fab) (width 0.1))
  (fp_line (start -1.27 1.47) (end -2.555 1.47) (layer F.Fab) (width 0.1))
  (fp_line (start -2.555 1.47) (end -2.555 1.07) (layer F.Fab) (width 0.1))
  (fp_line (start 1.27 1.07) (end 2.555 1.07) (layer F.Fab) (width 0.1))
  (fp_line (start 2.555 1.07) (end 2.555 1.47) (layer F.Fab) (width 0.1))
  (fp_line (start 2.555 1.47) (end 1.27 1.47) (layer F.Fab) (width 0.1))
  (fp_line (start -2.555 2.34) (end -1.27 2.34) (layer F.Fab) (width 0.1))
  (fp_line (start -1.27 2.74) (end -2.555 2.74) (layer F.Fab) (width 0.1))
  (fp_line (start -2.555 2.74) (end -2.555 2.34) (layer F.Fab) (width 0.1))
  (fp_line (start 1.27 2.34) (end 2.555 2.34) (layer F.Fab) (width 0.1))
  (fp_line (start 2.555 2.34) (end 2.555 2.74) (layer F.Fab) (width 0.1))
  (fp_line (start 2.555 2.74) (end 1.27 2.74) (layer F.Fab) (width 0.1))
  (fp_line (start -2.555 3.61) (end -1.27 3.61) (layer F.Fab) (width 0.1))
  (fp_line (start -1.27 4.01) (end -2.555 4.01) (layer F.Fab) (width 0.1))
  (fp_line (start -2.555 4.01) (end -2.555 3.61) (layer F.Fab) (width 0.1))
  (fp_line (start 1.27 3.61) (end 2.555 3.61) (layer F.Fab) (width 0.1))
  (fp_line (start 2.555 3.61) (end 2.555 4.01) (layer F.Fab) (width 0.1))
  (fp_line (start 2.555 4.01) (end 1.27 4.01) (layer F.Fab) (width 0.1))
  (fp_line (start -2.555 4.88) (end -1.27 4.88) (layer F.Fab) (width 0.1))
  (fp_line (start -1.27 5.28) (end -2.555 5.28) (layer F.Fab) (width 0.1))
  (fp_line (start -2.555 5.28) (end -2.555 4.88) (layer F.Fab) (width 0.1))
  (fp_line (start 1.27 4.88) (end 2.555 4.88) (layer F.Fab) (width 0.1))
  (fp_line (start 2.555 4.88) (end 2.555 5.28) (layer F.Fab) (width 0.1))
  (fp_line (start 2.555 5.28) (end 1.27 5.28) (layer F.Fab) (width 0.1))
  (fp_line (start -2.555 6.15) (end -1.27 6.15) (layer F.Fab) (width 0.1))
  (fp_line (start -1.27 6.55) (end -2.555 6.55) (layer F.Fab) (width 0.1))
  (fp_line (start -2.555 6.55) (end -2.555 6.15) (layer F.Fab) (width 0.1))
  (fp_line (start 1.27 6.15) (end 2.555 6.15) (layer F.Fab) (width 0.1))
  (fp_line (start 2.555 6.15) (end 2.555 6.55) (layer F.Fab) (width 0.1))
  (fp_line (start 2.555 6.55) (end 1.27 6.55) (layer F.Fab) (width 0.1))
  (fp_line (start -2.555 7.42) (end -1.27 7.42) (layer F.Fab) (width 0.1))
  (fp_line (start -1.27 7.82) (end -2.555 7.82) (layer F.Fab) (width 0.1))
  (fp_line (start -2.555 7.82) (end -2.555 7.42) (layer F.Fab) (width 0.1))
  (fp_line (start 1.27 7.42) (end 2.555 7.42) (layer F.Fab) (width 0.1))
  (fp_line (start 2.555 7.42) (end 2.555 7.82) (layer F.Fab) (width 0.1))
  (fp_line (start 2.555 7.82) (end 1.27 7.82) (layer F.Fab) (width 0.1))
  (fp_line (start -2.555 8.69) (end -1.27 8.69) (layer F.Fab) (width 0.1))
  (fp_line (start -1.27 9.09) (end -2.555 9.09) (layer F.Fab) (width 0.1))
  (fp_line (start -2.555 9.09) (end -2.555 8.69) (layer F.Fab) (width 0.1))
  (fp_line (start 1.27 8.69) (end 2.555 8.69) (layer F.Fab) (width 0.1))
  (fp_line (start 2.555 8.69) (end 2.555 9.09) (layer F.Fab) (width 0.1))
  (fp_line (start 2.555 9.09) (end 1.27 9.09) (layer F.Fab) (width 0.1))
  (fp_line (start -2.555 9.96) (end -1.27 9.96) (layer F.Fab) (width 0.1))
  (fp_line (start -1.27 10.36) (end -2.555 10.36) (layer F.Fab) (width 0.1))
  (fp_line (start -2.555 10.36) (end -2.555 9.96) (layer F.Fab) (width 0.1))
  (fp_line (start 1.27 9.96) (end 2.555 9.96) (layer F.Fab) (width 0.1))
  (fp_line (start 2.555 9.96) (end 2.555 10.36) (layer F.Fab) (width 0.1))
  (fp_line (start 2.555 10.36) (end 1.27 10.36) (layer F.Fab) (width 0.1))
  (fp_line (start -2.555 11.23) (end -1.27 11.23) (layer F.Fab) (width 0.1))
  (fp_line (start -1.27 11.63) (end -2.555 11.63) (layer F.Fab) (width 0.1))
  (fp_line (start -2.555 11.63) (end -2.555 11.23) (layer F.Fab) (width 0.1))
  (fp_line (start 1.27 11.23) (end 2.555 11.23) (layer F.Fab) (width 0.1))
  (fp_line (start 2.555 11.23) (end 2.555 11.63) (layer F.Fab) (width 0.1))
  (fp_line (start 2.555 11.63) (end 1.27 11.63) (layer F.Fab) (width 0.1))
  (fp_line (start -2.555 12.5) (end -1.27 12.5) (layer F.Fab) (width 0.1))
  (fp_line (start -1.27 12.9) (end -2.555 12.9) (layer F.Fab) (width 0.1))
  (fp_line (start -2.555 12.9) (end -2.555 12.5) (layer F.Fab) (width 0.1))
  (fp_line (start 1.27 12.5) (end 2.555 12.5) (layer F.Fab) (width 0.1))
  (fp_line (start 2.555 12.5) (end 2.555 12.9) (layer F.Fab) (width 0.1))
  (fp_line (start 2.555 12.9) (end 1.27 12.9) (layer F.Fab) (width 0.1))
  (fp_line (start -2.555 13.77) (end -1.27 13.77) (layer F.Fab) (width 0.1))
  (fp_line (start -1.27 14.17) (end -2.555 14.17) (layer F.Fab) (width 0.1))
  (fp_line (start -2.555 14.17) (end -2.555 13.77) (layer F.Fab) (width 0.1))
  (fp_line (start 1.27 13.77) (end 2.555 13.77) (layer F.Fab) (width 0.1))
  (fp_line (start 2.555 13.77) (end 2.555 14.17) (layer F.Fab) (width 0.1))
  (fp_line (start 2.555 14.17) (end 1.27 14.17) (layer F.Fab) (width 0.1))
  (fp_line (start -2.555 15.04) (end -1.27 15.04) (layer F.Fab) (width 0.1))
  (fp_line (start -1.27 15.44) (end -2.555 15.44) (layer F.Fab) (width 0.1))
  (fp_line (start -2.555 15.44) (end -2.555 15.04) (layer F.Fab) (width 0.1))
  (fp_line (start 1.27 15.04) (end 2.555 15.04) (layer F.Fab) (width 0.1))
  (fp_line (start 2.555 15.04) (end 2.555 15.44) (layer F.Fab) (width 0.1))
  (fp_line (start 2.555 15.44) (end 1.27 15.44) (layer F.Fab) (width 0.1))
  (fp_line (start -2.555 16.31) (end -1.27 16.31) (layer F.Fab) (width 0.1))
  (fp_line (start -1.27 16.71) (end -2.555 16.71) (layer F.Fab) (width 0.1))
  (fp_line (start -2.555 16.71) (end -2.555 16.31) (layer F.Fab) (width 0.1))
  (fp_line (start 1.27 16.31) (end 2.555 16.31) (layer F.Fab) (width 0.1))
  (fp_line (start 2.555 16.31) (end 2.555 16.71) (layer F.Fab) (width 0.1))
  (fp_line (start 2.555 16.71) (end 1.27 16.71) (layer F.Fab) (width 0.1))
  (fp_line (start -2.555 17.58) (end -1.27 17.58) (layer F.Fab) (width 0.1))
  (fp_line (start -1.27 17.98) (end -2.555 17.98) (layer F.Fab) (width 0.1))
  (fp_line (start -2.555 17.98) (end -2.555 17.58) (layer F.Fab) (width 0.1))
  (fp_line (start 1.27 17.58) (end 2.555 17.58) (layer F.Fab) (width 0.1))
  (fp_line (start 2.555 17.58) (end 2.555 17.98) (layer F.Fab) (width 0.1))
  (fp_line (start 2.555 17.98) (end 1.27 17.98) (layer F.Fab) (width 0.1))
  (fp_line (start -2.555 18.85) (end -1.27 18.85) (layer F.Fab) (width 0.1))
  (fp_line (start -1.27 19.25) (end -2.555 19.25) (layer F.Fab) (width 0.1))
  (fp_line (start -2.555 19.25) (end -2.555 18.85) (layer F.Fab) (width 0.1))
  (fp_line (start 1.27 18.85) (end 2.555 18.85) (layer F.Fab) (width 0.1))
  (fp_line (start 2.555 18.85) (end 2.555 19.25) (layer F.Fab) (width 0.1))
  (fp_line (start 2.555 19.25) (end 1.27 19.25) (layer F.Fab) (width 0.1))
  (fp_line (start -2.555 20.12) (end -1.27 20.12) (layer F.Fab) (width 0.1))
  (fp_line (start -1.27 20.52) (end -2.555 20.52) (layer F.Fab) (width 0.1))
  (fp_line (start -2.555 20.52) (end -2.555 20.12) (layer F.Fab) (width 0.1))
  (fp_line (start 1.27 20.12) (end 2.555 20.12) (layer F.Fab) (width 0.1))
  (fp_line (start 2.555 20.12) (end 2.555 20.52) (layer F.Fab) (width 0.1))
  (fp_line (start 2.555 20.52) (end 1.27 20.52) (layer F.Fab) (width 0.1))
  (fp_line (start -2.555 21.39) (end -1.27 21.39) (layer F.Fab) (width 0.1))
  (fp_line (start -1.27 21.79) (end -2.555 21.79) (layer F.Fab) (width 0.1))
  (fp_line (start -2.555 21.79) (end -2.555 21.39) (layer F.Fab) (width 0.1))
  (fp_line (start 1.27 21.39) (end 2.555 21.39) (layer F.Fab) (width 0.1))
  (fp_line (start 2.555 21.39) (end 2.555 21.79) (layer F.Fab) (width 0.1))
  (fp_line (start 2.555 21.79) (end 1.27 21.79) (layer F.Fab) (width 0.1))
  (fp_line (start -2.555 22.66) (end -1.27 22.66) (layer F.Fab) (width 0.1))
  (fp_line (start -1.27 23.06) (end -2.555 23.06) (layer F.Fab) (width 0.1))
  (fp_line (start -2.555 23.06) (end -2.555 22.66) (layer F.Fab) (width 0.1))
  (fp_line (start 1.27 22.66) (end 2.555 22.66) (layer F.Fab) (width 0.1))
  (fp_line (start 2.555 22.66) (end 2.555 23.06) (layer F.Fab) (width 0.1))
  (fp_line (start 2.555 23.06) (end 1.27 23.06) (layer F.Fab) (width 0.1))
  (fp_line (start -2.555 23.93) (end -1.27 23.93) (layer F.Fab) (width 0.1))
  (fp_line (start -1.27 24.33) (end -2.555 24.33) (layer F.Fab) (width 0.1))
  (fp_line (start -2.555 24.33) (end -2.555 23.93) (layer F.Fab) (width 0.1))
  (fp_line (start 1.27 23.93) (end 2.555 23.93) (layer F.Fab) (width 0.1))
  (fp_line (start 2.555 23.93) (end 2.555 24.33) (layer F.Fab) (width 0.1))
  (fp_line (start 2.555 24.33) (end 1.27 24.33) (layer F.Fab) (width 0.1))
  (fp_line (start -3.35 -25.3) (end 3.35 -25.3) (layer F.CrtYd) (width 0.05))
  (fp_line (start 3.35 -25.3) (end 3.35 25.25) (layer F.CrtYd) (width 0.05))
  (fp_line (start 3.35 25.25) (end -3.35 25.25) (layer F.CrtYd) (width 0.05))
  (fp_line (start -3.35 25.25) (end -3.35 -25.3) (layer F.CrtYd) (width 0.05))
  (pad 1 smd rect (at 1.8 -24.13) (size 2.1 0.75) (layers F.Cu F.Mask F.Paste))
  (pad 2 smd rect (at -1.8 -24.13) (size 2.1 0.75) (layers F.Cu F.Mask F.Paste))
  (pad 3 smd rect (at 1.8 -22.86) (size 2.1 0.75) (layers F.Cu F.Mask F.Paste))
  (pad 4 smd rect (at -1.8 -22.86) (size 2.1 0.75) (layers F.Cu F.Mask F.Paste))
  (pad 5 smd rect (at 1.8 -21.59) (size 2.1 0.75) (layers F.Cu F.Mask F.Paste))
  (pad 6 smd rect (at -1.8 -21.59) (size 2.1 0.75) (layers F.Cu F.Mask F.Paste))
  (pad 7 smd rect (at 1.8 -20.32) (size 2.1 0.75) (layers F.Cu F.Mask F.Paste))
  (pad 8 smd rect (at -1.8 -20.32) (size 2.1 0.75) (layers F.Cu F.Mask F.Paste))
  (pad 9 smd rect (at 1.8 -19.05) (size 2.1 0.75) (layers F.Cu F.Mask F.Paste))
  (pad 10 smd rect (at -1.8 -19.05) (size 2.1 0.75) (layers F.Cu F.Mask F.Paste))
  (pad 11 smd rect (at 1.8 -17.78) (size 2.1 0.75) (layers F.Cu F.Mask F.Paste))
  (pad 12 smd rect (at -1.8 -17.78) (size 2.1 0.75) (layers F.Cu F.Mask F.Paste))
  (pad 13 smd rect (at 1.8 -16.51) (size 2.1 0.75) (layers F.Cu F.Mask F.Paste))
  (pad 14 smd rect (at -1.8 -16.51) (size 2.1 0.75) (layers F.Cu F.Mask F.Paste))
  (pad 15 smd rect (at 1.8 -15.24) (size 2.1 0.75) (layers F.Cu F.Mask F.Paste))
  (pad 16 smd rect (at -1.8 -15.24) (size 2.1 0.75) (layers F.Cu F.Mask F.Paste))
  (pad 17 smd rect (at 1.8 -13.97) (size 2.1 0.75) (layers F.Cu F.Mask F.Paste))
  (pad 18 smd rect (at -1.8 -13.97) (size 2.1 0.75) (layers F.Cu F.Mask F.Paste))
  (pad 19 smd rect (at 1.8 -12.7) (size 2.1 0.75) (layers F.Cu F.Mask F.Paste))
  (pad 20 smd rect (at -1.8 -12.7) (size 2.1 0.75) (layers F.Cu F.Mask F.Paste))
  (pad 21 smd rect (at 1.8 -11.43) (size 2.1 0.75) (layers F.Cu F.Mask F.Paste))
  (pad 22 smd rect (at -1.8 -11.43) (size 2.1 0.75) (layers F.Cu F.Mask F.Paste))
  (pad 23 smd rect (at 1.8 -10.16) (size 2.1 0.75) (layers F.Cu F.Mask F.Paste))
  (pad 24 smd rect (at -1.8 -10.16) (size 2.1 0.75) (layers F.Cu F.Mask F.Paste))
  (pad 25 smd rect (at 1.8 -8.89) (size 2.1 0.75) (layers F.Cu F.Mask F.Paste))
  (pad 26 smd rect (at -1.8 -8.89) (size 2.1 0.75) (layers F.Cu F.Mask F.Paste))
  (pad 27 smd rect (at 1.8 -7.62) (size 2.1 0.75) (layers F.Cu F.Mask F.Paste))
  (pad 28 smd rect (at -1.8 -7.62) (size 2.1 0.75) (layers F.Cu F.Mask F.Paste))
  (pad 29 smd rect (at 1.8 -6.35) (size 2.1 0.75) (layers F.Cu F.Mask F.Paste))
  (pad 30 smd rect (at -1.8 -6.35) (size 2.1 0.75) (layers F.Cu F.Mask F.Paste))
  (pad 31 smd rect (at 1.8 -5.08) (size 2.1 0.75) (layers F.Cu F.Mask F.Paste))
  (pad 32 smd rect (at -1.8 -5.08) (size 2.1 0.75) (layers F.Cu F.Mask F.Paste))
  (pad 33 smd rect (at 1.8 -3.81) (size 2.1 0.75) (layers F.Cu F.Mask F.Paste))
  (pad 34 smd rect (at -1.8 -3.81) (size 2.1 0.75) (layers F.Cu F.Mask F.Paste))
  (pad 35 smd rect (at 1.8 -2.54) (size 2.1 0.75) (layers F.Cu F.Mask F.Paste))
  (pad 36 smd rect (at -1.8 -2.54) (size 2.1 0.75) (layers F.Cu F.Mask F.Paste))
  (pad 37 smd rect (at 1.8 -1.27) (size 2.1 0.75) (layers F.Cu F.Mask F.Paste))
  (pad 38 smd rect (at -1.8 -1.27) (size 2.1 0.75) (layers F.Cu F.Mask F.Paste))
  (pad 39 smd rect (at 1.8 0) (size 2.1 0.75) (layers F.Cu F.Mask F.Paste))
  (pad 40 smd rect (at -1.8 0) (size 2.1 0.75) (layers F.Cu F.Mask F.Paste))
  (pad 41 smd rect (at 1.8 1.27) (size 2.1 0.75) (layers F.Cu F.Mask F.Paste))
  (pad 42 smd rect (at -1.8 1.27) (size 2.1 0.75) (layers F.Cu F.Mask F.Paste))
  (pad 43 smd rect (at 1.8 2.54) (size 2.1 0.75) (layers F.Cu F.Mask F.Paste))
  (pad 44 smd rect (at -1.8 2.54) (size 2.1 0.75) (layers F.Cu F.Mask F.Paste))
  (pad 45 smd rect (at 1.8 3.81) (size 2.1 0.75) (layers F.Cu F.Mask F.Paste))
  (pad 46 smd rect (at -1.8 3.81) (size 2.1 0.75) (layers F.Cu F.Mask F.Paste))
  (pad 47 smd rect (at 1.8 5.08) (size 2.1 0.75) (layers F.Cu F.Mask F.Paste))
  (pad 48 smd rect (at -1.8 5.08) (size 2.1 0.75) (layers F.Cu F.Mask F.Paste))
  (pad 49 smd rect (at 1.8 6.35) (size 2.1 0.75) (layers F.Cu F.Mask F.Paste))
  (pad 50 smd rect (at -1.8 6.35) (size 2.1 0.75) (layers F.Cu F.Mask F.Paste))
  (pad 51 smd rect (at 1.8 7.62) (size 2.1 0.75) (layers F.Cu F.Mask F.Paste))
  (pad 52 smd rect (at -1.8 7.62) (size 2.1 0.75) (layers F.Cu F.Mask F.Paste))
  (pad 53 smd rect (at 1.8 8.89) (size 2.1 0.75) (layers F.Cu F.Mask F.Paste))
  (pad 54 smd rect (at -1.8 8.89) (size 2.1 0.75) (layers F.Cu F.Mask F.Paste))
  (pad 55 smd rect (at 1.8 10.16) (size 2.1 0.75) (layers F.Cu F.Mask F.Paste))
  (pad 56 smd rect (at -1.8 10.16) (size 2.1 0.75) (layers F.Cu F.Mask F.Paste))
  (pad 57 smd rect (at 1.8 11.43) (size 2.1 0.75) (layers F.Cu F.Mask F.Paste))
  (pad 58 smd rect (at -1.8 11.43) (size 2.1 0.75) (layers F.Cu F.Mask F.Paste))
  (pad 59 smd rect (at 1.8 12.7) (size 2.1 0.75) (layers F.Cu F.Mask F.Paste))
  (pad 60 smd rect (at -1.8 12.7) (size 2.1 0.75) (layers F.Cu F.Mask F.Paste))
  (pad 61 smd rect (at 1.8 13.97) (size 2.1 0.75) (layers F.Cu F.Mask F.Paste))
  (pad 62 smd rect (at -1.8 13.97) (size 2.1 0.75) (layers F.Cu F.Mask F.Paste))
  (pad 63 smd rect (at 1.8 15.24) (size 2.1 0.75) (layers F.Cu F.Mask F.Paste))
  (pad 64 smd rect (at -1.8 15.24) (size 2.1 0.75) (layers F.Cu F.Mask F.Paste))
  (pad 65 smd rect (at 1.8 16.51) (size 2.1 0.75) (layers F.Cu F.Mask F.Paste))
  (pad 66 smd rect (at -1.8 16.51) (size 2.1 0.75) (layers F.Cu F.Mask F.Paste))
  (pad 67 smd rect (at 1.8 17.78) (size 2.1 0.75) (layers F.Cu F.Mask F.Paste))
  (pad 68 smd rect (at -1.8 17.78) (size 2.1 0.75) (layers F.Cu F.Mask F.Paste))
  (pad 69 smd rect (at 1.8 19.05) (size 2.1 0.75) (layers F.Cu F.Mask F.Paste))
  (pad 70 smd rect (at -1.8 19.05) (size 2.1 0.75) (layers F.Cu F.Mask F.Paste))
  (pad 71 smd rect (at 1.8 20.32) (size 2.1 0.75) (layers F.Cu F.Mask F.Paste))
  (pad 72 smd rect (at -1.8 20.32) (size 2.1 0.75) (layers F.Cu F.Mask F.Paste))
  (pad 73 smd rect (at 1.8 21.59) (size 2.1 0.75) (layers F.Cu F.Mask F.Paste))
  (pad 74 smd rect (at -1.8 21.59) (size 2.1 0.75) (layers F.Cu F.Mask F.Paste))
  (pad 75 smd rect (at 1.8 22.86) (size 2.1 0.75) (layers F.Cu F.Mask F.Paste))
  (pad 76 smd rect (at -1.8 22.86) (size 2.1 0.75) (layers F.Cu F.Mask F.Paste))
  (pad 77 smd rect (at 1.8 24.13) (size 2.1 0.75) (layers F.Cu F.Mask F.Paste))
  (pad 78 smd rect (at -1.8 24.13) (size 2.1 0.75) (layers F.Cu F.Mask F.Paste))
  (fp_text user %R (at 0 0 90) (layer F.Fab)
    (effects (font (size 1 1) (thickness 0.15)))
  )
  (model ${KIPRJMOD}/kicad_libs_k/models_k.3d/Connector_PinSocket_1.27mm_k.3dshapes/PinSocket_2x39_P1.27mm_Vertical_SMD_k.wrl
    (at (xyz 0 0 0))
    (scale (xyz 1 1 1))
    (rotate (xyz 0 0 0))
  )
)