(module SW_DIP_SPSTx06_Slide_6.7x16.8mm_W8.61mm_P2.54mm_LowProfile (layer F.Cu) (tedit 5A4E1405)
  (descr "SMD 6x-dip-switch SPST , Slide, row spacing 8.61 mm (338 mils), body size 6.7x16.8mm (see e.g. https://www.ctscorp.com/wp-content/uploads/219.pdf), SMD, LowProfile")
  (tags "SMD DIP Switch SPST Slide 8.61mm 338mil SMD LowProfile")
  (attr smd)
  (fp_text reference REF** (at 0 -9.46) (layer F.SilkS)
    (effects (font (size 1 1) (thickness 0.15)))
  )
  (fp_text value SW_DIP_SPSTx06_Slide_6.7x16.8mm_W8.61mm_P2.54mm_LowProfile (at 0 9.46) (layer F.Fab)
    (effects (font (size 1 1) (thickness 0.15)))
  )
  (fp_line (start -2.35 -8.4) (end 3.35 -8.4) (layer F.Fab) (width 0.1))
  (fp_line (start 3.35 -8.4) (end 3.35 8.4) (layer F.Fab) (width 0.1))
  (fp_line (start 3.35 8.4) (end -3.35 8.4) (layer F.Fab) (width 0.1))
  (fp_line (start -3.35 8.4) (end -3.35 -7.4) (layer F.Fab) (width 0.1))
  (fp_line (start -3.35 -7.4) (end -2.35 -8.4) (layer F.Fab) (width 0.1))
  (fp_line (start -1.81 -6.985) (end -1.81 -5.715) (layer F.Fab) (width 0.1))
  (fp_line (start -1.81 -5.715) (end 1.81 -5.715) (layer F.Fab) (width 0.1))
  (fp_line (start 1.81 -5.715) (end 1.81 -6.985) (layer F.Fab) (width 0.1))
  (fp_line (start 1.81 -6.985) (end -1.81 -6.985) (layer F.Fab) (width 0.1))
  (fp_line (start -1.81 -6.885) (end -0.603333 -6.885) (layer F.Fab) (width 0.1))
  (fp_line (start -1.81 -6.785) (end -0.603333 -6.785) (layer F.Fab) (width 0.1))
  (fp_line (start -1.81 -6.685) (end -0.603333 -6.685) (layer F.Fab) (width 0.1))
  (fp_line (start -1.81 -6.585) (end -0.603333 -6.585) (layer F.Fab) (width 0.1))
  (fp_line (start -1.81 -6.485) (end -0.603333 -6.485) (layer F.Fab) (width 0.1))
  (fp_line (start -1.81 -6.385) (end -0.603333 -6.385) (layer F.Fab) (width 0.1))
  (fp_line (start -1.81 -6.285) (end -0.603333 -6.285) (layer F.Fab) (width 0.1))
  (fp_line (start -1.81 -6.185) (end -0.603333 -6.185) (layer F.Fab) (width 0.1))
  (fp_line (start -1.81 -6.085) (end -0.603333 -6.085) (layer F.Fab) (width 0.1))
  (fp_line (start -1.81 -5.985) (end -0.603333 -5.985) (layer F.Fab) (width 0.1))
  (fp_line (start -1.81 -5.885) (end -0.603333 -5.885) (layer F.Fab) (width 0.1))
  (fp_line (start -1.81 -5.785) (end -0.603333 -5.785) (layer F.Fab) (width 0.1))
  (fp_line (start -0.603333 -6.985) (end -0.603333 -5.715) (layer F.Fab) (width 0.1))
  (fp_line (start -1.81 -4.445) (end -1.81 -3.175) (layer F.Fab) (width 0.1))
  (fp_line (start -1.81 -3.175) (end 1.81 -3.175) (layer F.Fab) (width 0.1))
  (fp_line (start 1.81 -3.175) (end 1.81 -4.445) (layer F.Fab) (width 0.1))
  (fp_line (start 1.81 -4.445) (end -1.81 -4.445) (layer F.Fab) (width 0.1))
  (fp_line (start -1.81 -4.345) (end -0.603333 -4.345) (layer F.Fab) (width 0.1))
  (fp_line (start -1.81 -4.245) (end -0.603333 -4.245) (layer F.Fab) (width 0.1))
  (fp_line (start -1.81 -4.145) (end -0.603333 -4.145) (layer F.Fab) (width 0.1))
  (fp_line (start -1.81 -4.045) (end -0.603333 -4.045) (layer F.Fab) (width 0.1))
  (fp_line (start -1.81 -3.945) (end -0.603333 -3.945) (layer F.Fab) (width 0.1))
  (fp_line (start -1.81 -3.845) (end -0.603333 -3.845) (layer F.Fab) (width 0.1))
  (fp_line (start -1.81 -3.745) (end -0.603333 -3.745) (layer F.Fab) (width 0.1))
  (fp_line (start -1.81 -3.645) (end -0.603333 -3.645) (layer F.Fab) (width 0.1))
  (fp_line (start -1.81 -3.545) (end -0.603333 -3.545) (layer F.Fab) (width 0.1))
  (fp_line (start -1.81 -3.445) (end -0.603333 -3.445) (layer F.Fab) (width 0.1))
  (fp_line (start -1.81 -3.345) (end -0.603333 -3.345) (layer F.Fab) (width 0.1))
  (fp_line (start -1.81 -3.245) (end -0.603333 -3.245) (layer F.Fab) (width 0.1))
  (fp_line (start -0.603333 -4.445) (end -0.603333 -3.175) (layer F.Fab) (width 0.1))
  (fp_line (start -1.81 -1.905) (end -1.81 -0.635) (layer F.Fab) (width 0.1))
  (fp_line (start -1.81 -0.635) (end 1.81 -0.635) (layer F.Fab) (width 0.1))
  (fp_line (start 1.81 -0.635) (end 1.81 -1.905) (layer F.Fab) (width 0.1))
  (fp_line (start 1.81 -1.905) (end -1.81 -1.905) (layer F.Fab) (width 0.1))
  (fp_line (start -1.81 -1.805) (end -0.603333 -1.805) (layer F.Fab) (width 0.1))
  (fp_line (start -1.81 -1.705) (end -0.603333 -1.705) (layer F.Fab) (width 0.1))
  (fp_line (start -1.81 -1.605) (end -0.603333 -1.605) (layer F.Fab) (width 0.1))
  (fp_line (start -1.81 -1.505) (end -0.603333 -1.505) (layer F.Fab) (width 0.1))
  (fp_line (start -1.81 -1.405) (end -0.603333 -1.405) (layer F.Fab) (width 0.1))
  (fp_line (start -1.81 -1.305) (end -0.603333 -1.305) (layer F.Fab) (width 0.1))
  (fp_line (start -1.81 -1.205) (end -0.603333 -1.205) (layer F.Fab) (width 0.1))
  (fp_line (start -1.81 -1.105) (end -0.603333 -1.105) (layer F.Fab) (width 0.1))
  (fp_line (start -1.81 -1.005) (end -0.603333 -1.005) (layer F.Fab) (width 0.1))
  (fp_line (start -1.81 -0.905) (end -0.603333 -0.905) (layer F.Fab) (width 0.1))
  (fp_line (start -1.81 -0.805) (end -0.603333 -0.805) (layer F.Fab) (width 0.1))
  (fp_line (start -1.81 -0.705) (end -0.603333 -0.705) (layer F.Fab) (width 0.1))
  (fp_line (start -0.603333 -1.905) (end -0.603333 -0.635) (layer F.Fab) (width 0.1))
  (fp_line (start -1.81 0.635) (end -1.81 1.905) (layer F.Fab) (width 0.1))
  (fp_line (start -1.81 1.905) (end 1.81 1.905) (layer F.Fab) (width 0.1))
  (fp_line (start 1.81 1.905) (end 1.81 0.635) (layer F.Fab) (width 0.1))
  (fp_line (start 1.81 0.635) (end -1.81 0.635) (layer F.Fab) (width 0.1))
  (fp_line (start -1.81 0.735) (end -0.603333 0.735) (layer F.Fab) (width 0.1))
  (fp_line (start -1.81 0.835) (end -0.603333 0.835) (layer F.Fab) (width 0.1))
  (fp_line (start -1.81 0.935) (end -0.603333 0.935) (layer F.Fab) (width 0.1))
  (fp_line (start -1.81 1.035) (end -0.603333 1.035) (layer F.Fab) (width 0.1))
  (fp_line (start -1.81 1.135) (end -0.603333 1.135) (layer F.Fab) (width 0.1))
  (fp_line (start -1.81 1.235) (end -0.603333 1.235) (layer F.Fab) (width 0.1))
  (fp_line (start -1.81 1.335) (end -0.603333 1.335) (layer F.Fab) (width 0.1))
  (fp_line (start -1.81 1.435) (end -0.603333 1.435) (layer F.Fab) (width 0.1))
  (fp_line (start -1.81 1.535) (end -0.603333 1.535) (layer F.Fab) (width 0.1))
  (fp_line (start -1.81 1.635) (end -0.603333 1.635) (layer F.Fab) (width 0.1))
  (fp_line (start -1.81 1.735) (end -0.603333 1.735) (layer F.Fab) (width 0.1))
  (fp_line (start -1.81 1.835) (end -0.603333 1.835) (layer F.Fab) (width 0.1))
  (fp_line (start -0.603333 0.635) (end -0.603333 1.905) (layer F.Fab) (width 0.1))
  (fp_line (start -1.81 3.175) (end -1.81 4.445) (layer F.Fab) (width 0.1))
  (fp_line (start -1.81 4.445) (end 1.81 4.445) (layer F.Fab) (width 0.1))
  (fp_line (start 1.81 4.445) (end 1.81 3.175) (layer F.Fab) (width 0.1))
  (fp_line (start 1.81 3.175) (end -1.81 3.175) (layer F.Fab) (width 0.1))
  (fp_line (start -1.81 3.275) (end -0.603333 3.275) (layer F.Fab) (width 0.1))
  (fp_line (start -1.81 3.375) (end -0.603333 3.375) (layer F.Fab) (width 0.1))
  (fp_line (start -1.81 3.475) (end -0.603333 3.475) (layer F.Fab) (width 0.1))
  (fp_line (start -1.81 3.575) (end -0.603333 3.575) (layer F.Fab) (width 0.1))
  (fp_line (start -1.81 3.675) (end -0.603333 3.675) (layer F.Fab) (width 0.1))
  (fp_line (start -1.81 3.775) (end -0.603333 3.775) (layer F.Fab) (width 0.1))
  (fp_line (start -1.81 3.875) (end -0.603333 3.875) (layer F.Fab) (width 0.1))
  (fp_line (start -1.81 3.975) (end -0.603333 3.975) (layer F.Fab) (width 0.1))
  (fp_line (start -1.81 4.075) (end -0.603333 4.075) (layer F.Fab) (width 0.1))
  (fp_line (start -1.81 4.175) (end -0.603333 4.175) (layer F.Fab) (width 0.1))
  (fp_line (start -1.81 4.275) (end -0.603333 4.275) (layer F.Fab) (width 0.1))
  (fp_line (start -1.81 4.375) (end -0.603333 4.375) (layer F.Fab) (width 0.1))
  (fp_line (start -0.603333 3.175) (end -0.603333 4.445) (layer F.Fab) (width 0.1))
  (fp_line (start -1.81 5.715) (end -1.81 6.985) (layer F.Fab) (width 0.1))
  (fp_line (start -1.81 6.985) (end 1.81 6.985) (layer F.Fab) (width 0.1))
  (fp_line (start 1.81 6.985) (end 1.81 5.715) (layer F.Fab) (width 0.1))
  (fp_line (start 1.81 5.715) (end -1.81 5.715) (layer F.Fab) (width 0.1))
  (fp_line (start -1.81 5.815) (end -0.603333 5.815) (layer F.Fab) (width 0.1))
  (fp_line (start -1.81 5.915) (end -0.603333 5.915) (layer F.Fab) (width 0.1))
  (fp_line (start -1.81 6.015) (end -0.603333 6.015) (layer F.Fab) (width 0.1))
  (fp_line (start -1.81 6.115) (end -0.603333 6.115) (layer F.Fab) (width 0.1))
  (fp_line (start -1.81 6.215) (end -0.603333 6.215) (layer F.Fab) (width 0.1))
  (fp_line (start -1.81 6.315) (end -0.603333 6.315) (layer F.Fab) (width 0.1))
  (fp_line (start -1.81 6.415) (end -0.603333 6.415) (layer F.Fab) (width 0.1))
  (fp_line (start -1.81 6.515) (end -0.603333 6.515) (layer F.Fab) (width 0.1))
  (fp_line (start -1.81 6.615) (end -0.603333 6.615) (layer F.Fab) (width 0.1))
  (fp_line (start -1.81 6.715) (end -0.603333 6.715) (layer F.Fab) (width 0.1))
  (fp_line (start -1.81 6.815) (end -0.603333 6.815) (layer F.Fab) (width 0.1))
  (fp_line (start -1.81 6.915) (end -0.603333 6.915) (layer F.Fab) (width 0.1))
  (fp_line (start -0.603333 5.715) (end -0.603333 6.985) (layer F.Fab) (width 0.1))
  (fp_line (start -3.41 -8.46) (end 3.41 -8.46) (layer F.SilkS) (width 0.12))
  (fp_line (start -3.41 8.461) (end 3.41 8.461) (layer F.SilkS) (width 0.12))
  (fp_line (start -3.41 -8.46) (end -3.41 -7.15) (layer F.SilkS) (width 0.12))
  (fp_line (start -3.41 -5.55) (end -3.41 -4.61) (layer F.SilkS) (width 0.12))
  (fp_line (start -3.41 -3.01) (end -3.41 -2.07) (layer F.SilkS) (width 0.12))
  (fp_line (start -3.41 -0.47) (end -3.41 0.47) (layer F.SilkS) (width 0.12))
  (fp_line (start -3.41 2.07) (end -3.41 3.01) (layer F.SilkS) (width 0.12))
  (fp_line (start -3.41 4.61) (end -3.41 5.55) (layer F.SilkS) (width 0.12))
  (fp_line (start -3.41 7.15) (end -3.41 8.461) (layer F.SilkS) (width 0.12))
  (fp_line (start 3.41 7.15) (end 3.41 8.461) (layer F.SilkS) (width 0.12))
  (fp_line (start 3.41 4.61) (end 3.41 5.55) (layer F.SilkS) (width 0.12))
  (fp_line (start 3.41 2.07) (end 3.41 3.01) (layer F.SilkS) (width 0.12))
  (fp_line (start 3.41 -0.47) (end 3.41 0.47) (layer F.SilkS) (width 0.12))
  (fp_line (start 3.41 -3.01) (end 3.41 -2.07) (layer F.SilkS) (width 0.12))
  (fp_line (start 3.41 -8.46) (end 3.41 -7.15) (layer F.SilkS) (width 0.12))
  (fp_line (start 3.41 -5.55) (end 3.41 -4.61) (layer F.SilkS) (width 0.12))
  (fp_line (start -3.65 -8.7) (end -2.267 -8.7) (layer F.SilkS) (width 0.12))
  (fp_line (start -3.65 -8.7) (end -3.65 -7.317) (layer F.SilkS) (width 0.12))
  (fp_line (start -1.81 -6.985) (end -1.81 -5.715) (layer F.SilkS) (width 0.12))
  (fp_line (start -1.81 -5.715) (end 1.81 -5.715) (layer F.SilkS) (width 0.12))
  (fp_line (start 1.81 -5.715) (end 1.81 -6.985) (layer F.SilkS) (width 0.12))
  (fp_line (start 1.81 -6.985) (end -1.81 -6.985) (layer F.SilkS) (width 0.12))
  (fp_line (start -1.81 -6.865) (end -0.603333 -6.865) (layer F.SilkS) (width 0.12))
  (fp_line (start -1.81 -6.745) (end -0.603333 -6.745) (layer F.SilkS) (width 0.12))
  (fp_line (start -1.81 -6.625) (end -0.603333 -6.625) (layer F.SilkS) (width 0.12))
  (fp_line (start -1.81 -6.505) (end -0.603333 -6.505) (layer F.SilkS) (width 0.12))
  (fp_line (start -1.81 -6.385) (end -0.603333 -6.385) (layer F.SilkS) (width 0.12))
  (fp_line (start -1.81 -6.265) (end -0.603333 -6.265) (layer F.SilkS) (width 0.12))
  (fp_line (start -1.81 -6.145) (end -0.603333 -6.145) (layer F.SilkS) (width 0.12))
  (fp_line (start -1.81 -6.025) (end -0.603333 -6.025) (layer F.SilkS) (width 0.12))
  (fp_line (start -1.81 -5.905) (end -0.603333 -5.905) (layer F.SilkS) (width 0.12))
  (fp_line (start -1.81 -5.785) (end -0.603333 -5.785) (layer F.SilkS) (width 0.12))
  (fp_line (start -0.603333 -6.985) (end -0.603333 -5.715) (layer F.SilkS) (width 0.12))
  (fp_line (start -1.81 -4.445) (end -1.81 -3.175) (layer F.SilkS) (width 0.12))
  (fp_line (start -1.81 -3.175) (end 1.81 -3.175) (layer F.SilkS) (width 0.12))
  (fp_line (start 1.81 -3.175) (end 1.81 -4.445) (layer F.SilkS) (width 0.12))
  (fp_line (start 1.81 -4.445) (end -1.81 -4.445) (layer F.SilkS) (width 0.12))
  (fp_line (start -1.81 -4.325) (end -0.603333 -4.325) (layer F.SilkS) (width 0.12))
  (fp_line (start -1.81 -4.205) (end -0.603333 -4.205) (layer F.SilkS) (width 0.12))
  (fp_line (start -1.81 -4.085) (end -0.603333 -4.085) (layer F.SilkS) (width 0.12))
  (fp_line (start -1.81 -3.965) (end -0.603333 -3.965) (layer F.SilkS) (width 0.12))
  (fp_line (start -1.81 -3.845) (end -0.603333 -3.845) (layer F.SilkS) (width 0.12))
  (fp_line (start -1.81 -3.725) (end -0.603333 -3.725) (layer F.SilkS) (width 0.12))
  (fp_line (start -1.81 -3.605) (end -0.603333 -3.605) (layer F.SilkS) (width 0.12))
  (fp_line (start -1.81 -3.485) (end -0.603333 -3.485) (layer F.SilkS) (width 0.12))
  (fp_line (start -1.81 -3.365) (end -0.603333 -3.365) (layer F.SilkS) (width 0.12))
  (fp_line (start -1.81 -3.245) (end -0.603333 -3.245) (layer F.SilkS) (width 0.12))
  (fp_line (start -0.603333 -4.445) (end -0.603333 -3.175) (layer F.SilkS) (width 0.12))
  (fp_line (start -1.81 -1.905) (end -1.81 -0.635) (layer F.SilkS) (width 0.12))
  (fp_line (start -1.81 -0.635) (end 1.81 -0.635) (layer F.SilkS) (width 0.12))
  (fp_line (start 1.81 -0.635) (end 1.81 -1.905) (layer F.SilkS) (width 0.12))
  (fp_line (start 1.81 -1.905) (end -1.81 -1.905) (layer F.SilkS) (width 0.12))
  (fp_line (start -1.81 -1.785) (end -0.603333 -1.785) (layer F.SilkS) (width 0.12))
  (fp_line (start -1.81 -1.665) (end -0.603333 -1.665) (layer F.SilkS) (width 0.12))
  (fp_line (start -1.81 -1.545) (end -0.603333 -1.545) (layer F.SilkS) (width 0.12))
  (fp_line (start -1.81 -1.425) (end -0.603333 -1.425) (layer F.SilkS) (width 0.12))
  (fp_line (start -1.81 -1.305) (end -0.603333 -1.305) (layer F.SilkS) (width 0.12))
  (fp_line (start -1.81 -1.185) (end -0.603333 -1.185) (layer F.SilkS) (width 0.12))
  (fp_line (start -1.81 -1.065) (end -0.603333 -1.065) (layer F.SilkS) (width 0.12))
  (fp_line (start -1.81 -0.945) (end -0.603333 -0.945) (layer F.SilkS) (width 0.12))
  (fp_line (start -1.81 -0.825) (end -0.603333 -0.825) (layer F.SilkS) (width 0.12))
  (fp_line (start -1.81 -0.705) (end -0.603333 -0.705) (layer F.SilkS) (width 0.12))
  (fp_line (start -0.603333 -1.905) (end -0.603333 -0.635) (layer F.SilkS) (width 0.12))
  (fp_line (start -1.81 0.635) (end -1.81 1.905) (layer F.SilkS) (width 0.12))
  (fp_line (start -1.81 1.905) (end 1.81 1.905) (layer F.SilkS) (width 0.12))
  (fp_line (start 1.81 1.905) (end 1.81 0.635) (layer F.SilkS) (width 0.12))
  (fp_line (start 1.81 0.635) (end -1.81 0.635) (layer F.SilkS) (width 0.12))
  (fp_line (start -1.81 0.755) (end -0.603333 0.755) (layer F.SilkS) (width 0.12))
  (fp_line (start -1.81 0.875) (end -0.603333 0.875) (layer F.SilkS) (width 0.12))
  (fp_line (start -1.81 0.995) (end -0.603333 0.995) (layer F.SilkS) (width 0.12))
  (fp_line (start -1.81 1.115) (end -0.603333 1.115) (layer F.SilkS) (width 0.12))
  (fp_line (start -1.81 1.235) (end -0.603333 1.235) (layer F.SilkS) (width 0.12))
  (fp_line (start -1.81 1.355) (end -0.603333 1.355) (layer F.SilkS) (width 0.12))
  (fp_line (start -1.81 1.475) (end -0.603333 1.475) (layer F.SilkS) (width 0.12))
  (fp_line (start -1.81 1.595) (end -0.603333 1.595) (layer F.SilkS) (width 0.12))
  (fp_line (start -1.81 1.715) (end -0.603333 1.715) (layer F.SilkS) (width 0.12))
  (fp_line (start -1.81 1.835) (end -0.603333 1.835) (layer F.SilkS) (width 0.12))
  (fp_line (start -0.603333 0.635) (end -0.603333 1.905) (layer F.SilkS) (width 0.12))
  (fp_line (start -1.81 3.175) (end -1.81 4.445) (layer F.SilkS) (width 0.12))
  (fp_line (start -1.81 4.445) (end 1.81 4.445) (layer F.SilkS) (width 0.12))
  (fp_line (start 1.81 4.445) (end 1.81 3.175) (layer F.SilkS) (width 0.12))
  (fp_line (start 1.81 3.175) (end -1.81 3.175) (layer F.SilkS) (width 0.12))
  (fp_line (start -1.81 3.295) (end -0.603333 3.295) (layer F.SilkS) (width 0.12))
  (fp_line (start -1.81 3.415) (end -0.603333 3.415) (layer F.SilkS) (width 0.12))
  (fp_line (start -1.81 3.535) (end -0.603333 3.535) (layer F.SilkS) (width 0.12))
  (fp_line (start -1.81 3.655) (end -0.603333 3.655) (layer F.SilkS) (width 0.12))
  (fp_line (start -1.81 3.775) (end -0.603333 3.775) (layer F.SilkS) (width 0.12))
  (fp_line (start -1.81 3.895) (end -0.603333 3.895) (layer F.SilkS) (width 0.12))
  (fp_line (start -1.81 4.015) (end -0.603333 4.015) (layer F.SilkS) (width 0.12))
  (fp_line (start -1.81 4.135) (end -0.603333 4.135) (layer F.SilkS) (width 0.12))
  (fp_line (start -1.81 4.255) (end -0.603333 4.255) (layer F.SilkS) (width 0.12))
  (fp_line (start -1.81 4.375) (end -0.603333 4.375) (layer F.SilkS) (width 0.12))
  (fp_line (start -0.603333 3.175) (end -0.603333 4.445) (layer F.SilkS) (width 0.12))
  (fp_line (start -1.81 5.715) (end -1.81 6.985) (layer F.SilkS) (width 0.12))
  (fp_line (start -1.81 6.985) (end 1.81 6.985) (layer F.SilkS) (width 0.12))
  (fp_line (start 1.81 6.985) (end 1.81 5.715) (layer F.SilkS) (width 0.12))
  (fp_line (start 1.81 5.715) (end -1.81 5.715) (layer F.SilkS) (width 0.12))
  (fp_line (start -1.81 5.835) (end -0.603333 5.835) (layer F.SilkS) (width 0.12))
  (fp_line (start -1.81 5.955) (end -0.603333 5.955) (layer F.SilkS) (width 0.12))
  (fp_line (start -1.81 6.075) (end -0.603333 6.075) (layer F.SilkS) (width 0.12))
  (fp_line (start -1.81 6.195) (end -0.603333 6.195) (layer F.SilkS) (width 0.12))
  (fp_line (start -1.81 6.315) (end -0.603333 6.315) (layer F.SilkS) (width 0.12))
  (fp_line (start -1.81 6.435) (end -0.603333 6.435) (layer F.SilkS) (width 0.12))
  (fp_line (start -1.81 6.555) (end -0.603333 6.555) (layer F.SilkS) (width 0.12))
  (fp_line (start -1.81 6.675) (end -0.603333 6.675) (layer F.SilkS) (width 0.12))
  (fp_line (start -1.81 6.795) (end -0.603333 6.795) (layer F.SilkS) (width 0.12))
  (fp_line (start -1.81 6.915) (end -0.603333 6.915) (layer F.SilkS) (width 0.12))
  (fp_line (start -0.603333 5.715) (end -0.603333 6.985) (layer F.SilkS) (width 0.12))
  (fp_line (start -5.8 -8.75) (end -5.8 8.75) (layer F.CrtYd) (width 0.05))
  (fp_line (start -5.8 8.75) (end 5.8 8.75) (layer F.CrtYd) (width 0.05))
  (fp_line (start 5.8 8.75) (end 5.8 -8.75) (layer F.CrtYd) (width 0.05))
  (fp_line (start 5.8 -8.75) (end -5.8 -8.75) (layer F.CrtYd) (width 0.05))
  (pad 1 smd rect (at -4.305 -6.35) (size 2.44 1.12) (layers F.Cu F.Mask F.Paste))
  (pad 7 smd rect (at 4.305 6.35) (size 2.44 1.12) (layers F.Cu F.Mask F.Paste))
  (pad 2 smd rect (at -4.305 -3.81) (size 2.44 1.12) (layers F.Cu F.Mask F.Paste))
  (pad 8 smd rect (at 4.305 3.81) (size 2.44 1.12) (layers F.Cu F.Mask F.Paste))
  (pad 3 smd rect (at -4.305 -1.27) (size 2.44 1.12) (layers F.Cu F.Mask F.Paste))
  (pad 9 smd rect (at 4.305 1.27) (size 2.44 1.12) (layers F.Cu F.Mask F.Paste))
  (pad 4 smd rect (at -4.305 1.27) (size 2.44 1.12) (layers F.Cu F.Mask F.Paste))
  (pad 10 smd rect (at 4.305 -1.27) (size 2.44 1.12) (layers F.Cu F.Mask F.Paste))
  (pad 5 smd rect (at -4.305 3.81) (size 2.44 1.12) (layers F.Cu F.Mask F.Paste))
  (pad 11 smd rect (at 4.305 -3.81) (size 2.44 1.12) (layers F.Cu F.Mask F.Paste))
  (pad 6 smd rect (at -4.305 6.35) (size 2.44 1.12) (layers F.Cu F.Mask F.Paste))
  (pad 12 smd rect (at 4.305 -6.35) (size 2.44 1.12) (layers F.Cu F.Mask F.Paste))
  (fp_text user %R (at 2.58 0 90) (layer F.Fab)
    (effects (font (size 0.8 0.8) (thickness 0.12)))
  )
  (fp_text user on (at 0.4275 -7.6925) (layer F.Fab)
    (effects (font (size 0.8 0.8) (thickness 0.12)))
  )
  (model ${KIPRJMOD}/kicad_libs_k/models_k.3d/Button_Switch_SMD_k.3dshapes/SW_DIP_SPSTx06_Slide_6.7x16.8mm_W8.61mm_P2.54mm_LowProfile_k.wrl
    (at (xyz 0 0 0))
    (scale (xyz 1 1 1))
    (rotate (xyz 0 0 90))
  )
)