(module SW_DIP_SPSTx08_Slide_Omron_A6S-810x_W8.9mm_P2.54mm (layer F.Cu) (tedit 5AC88315)
  (descr "SMD 8x-dip-switch SPST Omron_A6S-810x, Slide, row spacing 8.9 mm (350 mils), body size  (see http://omronfs.omron.com/en_US/ecb/products/pdf/en-a6s.pdf)")
  (tags "SMD DIP Switch SPST Slide 8.9mm 350mil")
  (attr smd)
  (fp_text reference REF** (at 0 -11.69) (layer F.SilkS)
    (effects (font (size 1 1) (thickness 0.15)))
  )
  (fp_text value SW_DIP_SPSTx08_Slide_Omron_A6S-810x_W8.9mm_P2.54mm (at 0 11.69) (layer F.Fab)
    (effects (font (size 1 1) (thickness 0.15)))
  )
  (fp_line (start -2.1 -10.63) (end 3.1 -10.63) (layer F.Fab) (width 0.1))
  (fp_line (start 3.1 -10.63) (end 3.1 10.63) (layer F.Fab) (width 0.1))
  (fp_line (start 3.1 10.63) (end -3.1 10.63) (layer F.Fab) (width 0.1))
  (fp_line (start -3.1 10.63) (end -3.1 -9.63) (layer F.Fab) (width 0.1))
  (fp_line (start -3.1 -9.63) (end -2.1 -10.63) (layer F.Fab) (width 0.1))
  (fp_line (start -1.5 -9.44) (end -1.5 -8.34) (layer F.Fab) (width 0.1))
  (fp_line (start -1.5 -8.34) (end 1.5 -8.34) (layer F.Fab) (width 0.1))
  (fp_line (start 1.5 -8.34) (end 1.5 -9.44) (layer F.Fab) (width 0.1))
  (fp_line (start 1.5 -9.44) (end -1.5 -9.44) (layer F.Fab) (width 0.1))
  (fp_line (start -1.5 -9.34) (end -0.5 -9.34) (layer F.Fab) (width 0.1))
  (fp_line (start -1.5 -9.24) (end -0.5 -9.24) (layer F.Fab) (width 0.1))
  (fp_line (start -1.5 -9.14) (end -0.5 -9.14) (layer F.Fab) (width 0.1))
  (fp_line (start -1.5 -9.04) (end -0.5 -9.04) (layer F.Fab) (width 0.1))
  (fp_line (start -1.5 -8.94) (end -0.5 -8.94) (layer F.Fab) (width 0.1))
  (fp_line (start -1.5 -8.84) (end -0.5 -8.84) (layer F.Fab) (width 0.1))
  (fp_line (start -1.5 -8.74) (end -0.5 -8.74) (layer F.Fab) (width 0.1))
  (fp_line (start -1.5 -8.64) (end -0.5 -8.64) (layer F.Fab) (width 0.1))
  (fp_line (start -1.5 -8.54) (end -0.5 -8.54) (layer F.Fab) (width 0.1))
  (fp_line (start -1.5 -8.44) (end -0.5 -8.44) (layer F.Fab) (width 0.1))
  (fp_line (start -1.5 -8.34) (end -0.5 -8.34) (layer F.Fab) (width 0.1))
  (fp_line (start -0.5 -9.44) (end -0.5 -8.34) (layer F.Fab) (width 0.1))
  (fp_line (start -1.5 -6.9) (end -1.5 -5.8) (layer F.Fab) (width 0.1))
  (fp_line (start -1.5 -5.8) (end 1.5 -5.8) (layer F.Fab) (width 0.1))
  (fp_line (start 1.5 -5.8) (end 1.5 -6.9) (layer F.Fab) (width 0.1))
  (fp_line (start 1.5 -6.9) (end -1.5 -6.9) (layer F.Fab) (width 0.1))
  (fp_line (start -1.5 -6.8) (end -0.5 -6.8) (layer F.Fab) (width 0.1))
  (fp_line (start -1.5 -6.7) (end -0.5 -6.7) (layer F.Fab) (width 0.1))
  (fp_line (start -1.5 -6.6) (end -0.5 -6.6) (layer F.Fab) (width 0.1))
  (fp_line (start -1.5 -6.5) (end -0.5 -6.5) (layer F.Fab) (width 0.1))
  (fp_line (start -1.5 -6.4) (end -0.5 -6.4) (layer F.Fab) (width 0.1))
  (fp_line (start -1.5 -6.3) (end -0.5 -6.3) (layer F.Fab) (width 0.1))
  (fp_line (start -1.5 -6.2) (end -0.5 -6.2) (layer F.Fab) (width 0.1))
  (fp_line (start -1.5 -6.1) (end -0.5 -6.1) (layer F.Fab) (width 0.1))
  (fp_line (start -1.5 -6) (end -0.5 -6) (layer F.Fab) (width 0.1))
  (fp_line (start -1.5 -5.9) (end -0.5 -5.9) (layer F.Fab) (width 0.1))
  (fp_line (start -0.5 -6.9) (end -0.5 -5.8) (layer F.Fab) (width 0.1))
  (fp_line (start -1.5 -4.36) (end -1.5 -3.26) (layer F.Fab) (width 0.1))
  (fp_line (start -1.5 -3.26) (end 1.5 -3.26) (layer F.Fab) (width 0.1))
  (fp_line (start 1.5 -3.26) (end 1.5 -4.36) (layer F.Fab) (width 0.1))
  (fp_line (start 1.5 -4.36) (end -1.5 -4.36) (layer F.Fab) (width 0.1))
  (fp_line (start -1.5 -4.26) (end -0.5 -4.26) (layer F.Fab) (width 0.1))
  (fp_line (start -1.5 -4.16) (end -0.5 -4.16) (layer F.Fab) (width 0.1))
  (fp_line (start -1.5 -4.06) (end -0.5 -4.06) (layer F.Fab) (width 0.1))
  (fp_line (start -1.5 -3.96) (end -0.5 -3.96) (layer F.Fab) (width 0.1))
  (fp_line (start -1.5 -3.86) (end -0.5 -3.86) (layer F.Fab) (width 0.1))
  (fp_line (start -1.5 -3.76) (end -0.5 -3.76) (layer F.Fab) (width 0.1))
  (fp_line (start -1.5 -3.66) (end -0.5 -3.66) (layer F.Fab) (width 0.1))
  (fp_line (start -1.5 -3.56) (end -0.5 -3.56) (layer F.Fab) (width 0.1))
  (fp_line (start -1.5 -3.46) (end -0.5 -3.46) (layer F.Fab) (width 0.1))
  (fp_line (start -1.5 -3.36) (end -0.5 -3.36) (layer F.Fab) (width 0.1))
  (fp_line (start -1.5 -3.26) (end -0.5 -3.26) (layer F.Fab) (width 0.1))
  (fp_line (start -0.5 -4.36) (end -0.5 -3.26) (layer F.Fab) (width 0.1))
  (fp_line (start -1.5 -1.82) (end -1.5 -0.72) (layer F.Fab) (width 0.1))
  (fp_line (start -1.5 -0.72) (end 1.5 -0.72) (layer F.Fab) (width 0.1))
  (fp_line (start 1.5 -0.72) (end 1.5 -1.82) (layer F.Fab) (width 0.1))
  (fp_line (start 1.5 -1.82) (end -1.5 -1.82) (layer F.Fab) (width 0.1))
  (fp_line (start -1.5 -1.72) (end -0.5 -1.72) (layer F.Fab) (width 0.1))
  (fp_line (start -1.5 -1.62) (end -0.5 -1.62) (layer F.Fab) (width 0.1))
  (fp_line (start -1.5 -1.52) (end -0.5 -1.52) (layer F.Fab) (width 0.1))
  (fp_line (start -1.5 -1.42) (end -0.5 -1.42) (layer F.Fab) (width 0.1))
  (fp_line (start -1.5 -1.32) (end -0.5 -1.32) (layer F.Fab) (width 0.1))
  (fp_line (start -1.5 -1.22) (end -0.5 -1.22) (layer F.Fab) (width 0.1))
  (fp_line (start -1.5 -1.12) (end -0.5 -1.12) (layer F.Fab) (width 0.1))
  (fp_line (start -1.5 -1.02) (end -0.5 -1.02) (layer F.Fab) (width 0.1))
  (fp_line (start -1.5 -0.92) (end -0.5 -0.92) (layer F.Fab) (width 0.1))
  (fp_line (start -1.5 -0.82) (end -0.5 -0.82) (layer F.Fab) (width 0.1))
  (fp_line (start -1.5 -0.72) (end -0.5 -0.72) (layer F.Fab) (width 0.1))
  (fp_line (start -0.5 -1.82) (end -0.5 -0.72) (layer F.Fab) (width 0.1))
  (fp_line (start -1.5 0.72) (end -1.5 1.82) (layer F.Fab) (width 0.1))
  (fp_line (start -1.5 1.82) (end 1.5 1.82) (layer F.Fab) (width 0.1))
  (fp_line (start 1.5 1.82) (end 1.5 0.72) (layer F.Fab) (width 0.1))
  (fp_line (start 1.5 0.72) (end -1.5 0.72) (layer F.Fab) (width 0.1))
  (fp_line (start -1.5 0.82) (end -0.5 0.82) (layer F.Fab) (width 0.1))
  (fp_line (start -1.5 0.92) (end -0.5 0.92) (layer F.Fab) (width 0.1))
  (fp_line (start -1.5 1.02) (end -0.5 1.02) (layer F.Fab) (width 0.1))
  (fp_line (start -1.5 1.12) (end -0.5 1.12) (layer F.Fab) (width 0.1))
  (fp_line (start -1.5 1.22) (end -0.5 1.22) (layer F.Fab) (width 0.1))
  (fp_line (start -1.5 1.32) (end -0.5 1.32) (layer F.Fab) (width 0.1))
  (fp_line (start -1.5 1.42) (end -0.5 1.42) (layer F.Fab) (width 0.1))
  (fp_line (start -1.5 1.52) (end -0.5 1.52) (layer F.Fab) (width 0.1))
  (fp_line (start -1.5 1.62) (end -0.5 1.62) (layer F.Fab) (width 0.1))
  (fp_line (start -1.5 1.72) (end -0.5 1.72) (layer F.Fab) (width 0.1))
  (fp_line (start -1.5 1.82) (end -0.5 1.82) (layer F.Fab) (width 0.1))
  (fp_line (start -0.5 0.72) (end -0.5 1.82) (layer F.Fab) (width 0.1))
  (fp_line (start -1.5 3.26) (end -1.5 4.36) (layer F.Fab) (width 0.1))
  (fp_line (start -1.5 4.36) (end 1.5 4.36) (layer F.Fab) (width 0.1))
  (fp_line (start 1.5 4.36) (end 1.5 3.26) (layer F.Fab) (width 0.1))
  (fp_line (start 1.5 3.26) (end -1.5 3.26) (layer F.Fab) (width 0.1))
  (fp_line (start -1.5 3.36) (end -0.5 3.36) (layer F.Fab) (width 0.1))
  (fp_line (start -1.5 3.46) (end -0.5 3.46) (layer F.Fab) (width 0.1))
  (fp_line (start -1.5 3.56) (end -0.5 3.56) (layer F.Fab) (width 0.1))
  (fp_line (start -1.5 3.66) (end -0.5 3.66) (layer F.Fab) (width 0.1))
  (fp_line (start -1.5 3.76) (end -0.5 3.76) (layer F.Fab) (width 0.1))
  (fp_line (start -1.5 3.86) (end -0.5 3.86) (layer F.Fab) (width 0.1))
  (fp_line (start -1.5 3.96) (end -0.5 3.96) (layer F.Fab) (width 0.1))
  (fp_line (start -1.5 4.06) (end -0.5 4.06) (layer F.Fab) (width 0.1))
  (fp_line (start -1.5 4.16) (end -0.5 4.16) (layer F.Fab) (width 0.1))
  (fp_line (start -1.5 4.26) (end -0.5 4.26) (layer F.Fab) (width 0.1))
  (fp_line (start -1.5 4.36) (end -0.5 4.36) (layer F.Fab) (width 0.1))
  (fp_line (start -0.5 3.26) (end -0.5 4.36) (layer F.Fab) (width 0.1))
  (fp_line (start -1.5 5.8) (end -1.5 6.9) (layer F.Fab) (width 0.1))
  (fp_line (start -1.5 6.9) (end 1.5 6.9) (layer F.Fab) (width 0.1))
  (fp_line (start 1.5 6.9) (end 1.5 5.8) (layer F.Fab) (width 0.1))
  (fp_line (start 1.5 5.8) (end -1.5 5.8) (layer F.Fab) (width 0.1))
  (fp_line (start -1.5 5.9) (end -0.5 5.9) (layer F.Fab) (width 0.1))
  (fp_line (start -1.5 6) (end -0.5 6) (layer F.Fab) (width 0.1))
  (fp_line (start -1.5 6.1) (end -0.5 6.1) (layer F.Fab) (width 0.1))
  (fp_line (start -1.5 6.2) (end -0.5 6.2) (layer F.Fab) (width 0.1))
  (fp_line (start -1.5 6.3) (end -0.5 6.3) (layer F.Fab) (width 0.1))
  (fp_line (start -1.5 6.4) (end -0.5 6.4) (layer F.Fab) (width 0.1))
  (fp_line (start -1.5 6.5) (end -0.5 6.5) (layer F.Fab) (width 0.1))
  (fp_line (start -1.5 6.6) (end -0.5 6.6) (layer F.Fab) (width 0.1))
  (fp_line (start -1.5 6.7) (end -0.5 6.7) (layer F.Fab) (width 0.1))
  (fp_line (start -1.5 6.8) (end -0.5 6.8) (layer F.Fab) (width 0.1))
  (fp_line (start -1.5 6.9) (end -0.5 6.9) (layer F.Fab) (width 0.1))
  (fp_line (start -0.5 5.8) (end -0.5 6.9) (layer F.Fab) (width 0.1))
  (fp_line (start -1.5 8.34) (end -1.5 9.44) (layer F.Fab) (width 0.1))
  (fp_line (start -1.5 9.44) (end 1.5 9.44) (layer F.Fab) (width 0.1))
  (fp_line (start 1.5 9.44) (end 1.5 8.34) (layer F.Fab) (width 0.1))
  (fp_line (start 1.5 8.34) (end -1.5 8.34) (layer F.Fab) (width 0.1))
  (fp_line (start -1.5 8.44) (end -0.5 8.44) (layer F.Fab) (width 0.1))
  (fp_line (start -1.5 8.54) (end -0.5 8.54) (layer F.Fab) (width 0.1))
  (fp_line (start -1.5 8.64) (end -0.5 8.64) (layer F.Fab) (width 0.1))
  (fp_line (start -1.5 8.74) (end -0.5 8.74) (layer F.Fab) (width 0.1))
  (fp_line (start -1.5 8.84) (end -0.5 8.84) (layer F.Fab) (width 0.1))
  (fp_line (start -1.5 8.94) (end -0.5 8.94) (layer F.Fab) (width 0.1))
  (fp_line (start -1.5 9.04) (end -0.5 9.04) (layer F.Fab) (width 0.1))
  (fp_line (start -1.5 9.14) (end -0.5 9.14) (layer F.Fab) (width 0.1))
  (fp_line (start -1.5 9.24) (end -0.5 9.24) (layer F.Fab) (width 0.1))
  (fp_line (start -1.5 9.34) (end -0.5 9.34) (layer F.Fab) (width 0.1))
  (fp_line (start -0.5 8.34) (end -0.5 9.44) (layer F.Fab) (width 0.1))
  (fp_line (start -3.16 10.69) (end 3.16 10.69) (layer F.SilkS) (width 0.12))
  (fp_line (start -5.2 -9.741) (end -3.16 -9.741) (layer F.SilkS) (width 0.12))
  (fp_line (start -3.16 -10.69) (end -3.16 -9.741) (layer F.SilkS) (width 0.12))
  (fp_line (start -3.16 -10.69) (end 3.16 -10.69) (layer F.SilkS) (width 0.12))
  (fp_line (start 3.16 -10.69) (end 3.16 -8.951) (layer F.SilkS) (width 0.12))
  (fp_line (start -3.16 8.95) (end -3.16 10.69) (layer F.SilkS) (width 0.12))
  (fp_line (start 3.16 8.95) (end 3.16 10.69) (layer F.SilkS) (width 0.12))
  (fp_line (start -5.45 -10.95) (end -5.45 10.95) (layer F.CrtYd) (width 0.05))
  (fp_line (start -5.45 10.95) (end 5.45 10.95) (layer F.CrtYd) (width 0.05))
  (fp_line (start 5.45 10.95) (end 5.45 -10.95) (layer F.CrtYd) (width 0.05))
  (fp_line (start 5.45 -10.95) (end -5.45 -10.95) (layer F.CrtYd) (width 0.05))
  (pad 1 smd rect (at -4.45 -8.89) (size 1.5 1.1) (layers F.Cu F.Mask F.Paste))
  (pad 9 smd rect (at 4.45 8.89) (size 1.5 1.1) (layers F.Cu F.Mask F.Paste))
  (pad 2 smd rect (at -4.45 -6.35) (size 1.5 1.1) (layers F.Cu F.Mask F.Paste))
  (pad 10 smd rect (at 4.45 6.35) (size 1.5 1.1) (layers F.Cu F.Mask F.Paste))
  (pad 3 smd rect (at -4.45 -3.81) (size 1.5 1.1) (layers F.Cu F.Mask F.Paste))
  (pad 11 smd rect (at 4.45 3.81) (size 1.5 1.1) (layers F.Cu F.Mask F.Paste))
  (pad 4 smd rect (at -4.45 -1.27) (size 1.5 1.1) (layers F.Cu F.Mask F.Paste))
  (pad 12 smd rect (at 4.45 1.27) (size 1.5 1.1) (layers F.Cu F.Mask F.Paste))
  (pad 5 smd rect (at -4.45 1.27) (size 1.5 1.1) (layers F.Cu F.Mask F.Paste))
  (pad 13 smd rect (at 4.45 -1.27) (size 1.5 1.1) (layers F.Cu F.Mask F.Paste))
  (pad 6 smd rect (at -4.45 3.81) (size 1.5 1.1) (layers F.Cu F.Mask F.Paste))
  (pad 14 smd rect (at 4.45 -3.81) (size 1.5 1.1) (layers F.Cu F.Mask F.Paste))
  (pad 7 smd rect (at -4.45 6.35) (size 1.5 1.1) (layers F.Cu F.Mask F.Paste))
  (pad 15 smd rect (at 4.45 -6.35) (size 1.5 1.1) (layers F.Cu F.Mask F.Paste))
  (pad 8 smd rect (at -4.45 8.89) (size 1.5 1.1) (layers F.Cu F.Mask F.Paste))
  (pad 16 smd rect (at 4.45 -8.89) (size 1.5 1.1) (layers F.Cu F.Mask F.Paste))
  (fp_text user %R (at 2.3 -0 90) (layer F.Fab)
    (effects (font (size 0.8 0.8) (thickness 0.12)))
  )
  (fp_text user on (at 0.075 -10.035) (layer F.Fab)
    (effects (font (size 0.8 0.8) (thickness 0.12)))
  )
  (model ${KIPRJMOD}/kicad_libs_k/models_k.3d/Button_Switch_SMD_k.3dshapes/SW_DIP_SPSTx08_Slide_Omron_A6S-810x_W8.9mm_P2.54mm_k.wrl
    (at (xyz 0 0 0))
    (scale (xyz 1 1 1))
    (rotate (xyz 0 0 0))
  )
)