(module SW_DIP_SPSTx03_Slide_9.78x9.8mm_W8.61mm_P2.54mm (layer F.Cu) (tedit 5A4E1404)
  (descr "SMD 3x-dip-switch SPST , Slide, row spacing 8.61 mm (338 mils), body size 9.78x9.8mm (see e.g. https://www.ctscorp.com/wp-content/uploads/204.pdf), SMD")
  (tags "SMD DIP Switch SPST Slide 8.61mm 338mil SMD")
  (attr smd)
  (fp_text reference REF** (at 0 -5.96) (layer F.SilkS)
    (effects (font (size 1 1) (thickness 0.15)))
  )
  (fp_text value SW_DIP_SPSTx03_Slide_9.78x9.8mm_W8.61mm_P2.54mm (at 0 5.96) (layer F.Fab)
    (effects (font (size 1 1) (thickness 0.15)))
  )
  (fp_line (start -3.89 -4.9) (end 4.89 -4.9) (layer F.Fab) (width 0.1))
  (fp_line (start 4.89 -4.9) (end 4.89 4.9) (layer F.Fab) (width 0.1))
  (fp_line (start 4.89 4.9) (end -4.89 4.9) (layer F.Fab) (width 0.1))
  (fp_line (start -4.89 4.9) (end -4.89 -3.9) (layer F.Fab) (width 0.1))
  (fp_line (start -4.89 -3.9) (end -3.89 -4.9) (layer F.Fab) (width 0.1))
  (fp_line (start -2.03 -3.175) (end -2.03 -1.905) (layer F.Fab) (width 0.1))
  (fp_line (start -2.03 -1.905) (end 2.03 -1.905) (layer F.Fab) (width 0.1))
  (fp_line (start 2.03 -1.905) (end 2.03 -3.175) (layer F.Fab) (width 0.1))
  (fp_line (start 2.03 -3.175) (end -2.03 -3.175) (layer F.Fab) (width 0.1))
  (fp_line (start -2.03 -3.075) (end -0.676667 -3.075) (layer F.Fab) (width 0.1))
  (fp_line (start -2.03 -2.975) (end -0.676667 -2.975) (layer F.Fab) (width 0.1))
  (fp_line (start -2.03 -2.875) (end -0.676667 -2.875) (layer F.Fab) (width 0.1))
  (fp_line (start -2.03 -2.775) (end -0.676667 -2.775) (layer F.Fab) (width 0.1))
  (fp_line (start -2.03 -2.675) (end -0.676667 -2.675) (layer F.Fab) (width 0.1))
  (fp_line (start -2.03 -2.575) (end -0.676667 -2.575) (layer F.Fab) (width 0.1))
  (fp_line (start -2.03 -2.475) (end -0.676667 -2.475) (layer F.Fab) (width 0.1))
  (fp_line (start -2.03 -2.375) (end -0.676667 -2.375) (layer F.Fab) (width 0.1))
  (fp_line (start -2.03 -2.275) (end -0.676667 -2.275) (layer F.Fab) (width 0.1))
  (fp_line (start -2.03 -2.175) (end -0.676667 -2.175) (layer F.Fab) (width 0.1))
  (fp_line (start -2.03 -2.075) (end -0.676667 -2.075) (layer F.Fab) (width 0.1))
  (fp_line (start -2.03 -1.975) (end -0.676667 -1.975) (layer F.Fab) (width 0.1))
  (fp_line (start -0.676667 -3.175) (end -0.676667 -1.905) (layer F.Fab) (width 0.1))
  (fp_line (start -2.03 -0.635) (end -2.03 0.635) (layer F.Fab) (width 0.1))
  (fp_line (start -2.03 0.635) (end 2.03 0.635) (layer F.Fab) (width 0.1))
  (fp_line (start 2.03 0.635) (end 2.03 -0.635) (layer F.Fab) (width 0.1))
  (fp_line (start 2.03 -0.635) (end -2.03 -0.635) (layer F.Fab) (width 0.1))
  (fp_line (start -2.03 -0.535) (end -0.676667 -0.535) (layer F.Fab) (width 0.1))
  (fp_line (start -2.03 -0.435) (end -0.676667 -0.435) (layer F.Fab) (width 0.1))
  (fp_line (start -2.03 -0.335) (end -0.676667 -0.335) (layer F.Fab) (width 0.1))
  (fp_line (start -2.03 -0.235) (end -0.676667 -0.235) (layer F.Fab) (width 0.1))
  (fp_line (start -2.03 -0.135) (end -0.676667 -0.135) (layer F.Fab) (width 0.1))
  (fp_line (start -2.03 -0.035) (end -0.676667 -0.035) (layer F.Fab) (width 0.1))
  (fp_line (start -2.03 0.065) (end -0.676667 0.065) (layer F.Fab) (width 0.1))
  (fp_line (start -2.03 0.165) (end -0.676667 0.165) (layer F.Fab) (width 0.1))
  (fp_line (start -2.03 0.265) (end -0.676667 0.265) (layer F.Fab) (width 0.1))
  (fp_line (start -2.03 0.365) (end -0.676667 0.365) (layer F.Fab) (width 0.1))
  (fp_line (start -2.03 0.465) (end -0.676667 0.465) (layer F.Fab) (width 0.1))
  (fp_line (start -2.03 0.565) (end -0.676667 0.565) (layer F.Fab) (width 0.1))
  (fp_line (start -0.676667 -0.635) (end -0.676667 0.635) (layer F.Fab) (width 0.1))
  (fp_line (start -2.03 1.905) (end -2.03 3.175) (layer F.Fab) (width 0.1))
  (fp_line (start -2.03 3.175) (end 2.03 3.175) (layer F.Fab) (width 0.1))
  (fp_line (start 2.03 3.175) (end 2.03 1.905) (layer F.Fab) (width 0.1))
  (fp_line (start 2.03 1.905) (end -2.03 1.905) (layer F.Fab) (width 0.1))
  (fp_line (start -2.03 2.005) (end -0.676667 2.005) (layer F.Fab) (width 0.1))
  (fp_line (start -2.03 2.105) (end -0.676667 2.105) (layer F.Fab) (width 0.1))
  (fp_line (start -2.03 2.205) (end -0.676667 2.205) (layer F.Fab) (width 0.1))
  (fp_line (start -2.03 2.305) (end -0.676667 2.305) (layer F.Fab) (width 0.1))
  (fp_line (start -2.03 2.405) (end -0.676667 2.405) (layer F.Fab) (width 0.1))
  (fp_line (start -2.03 2.505) (end -0.676667 2.505) (layer F.Fab) (width 0.1))
  (fp_line (start -2.03 2.605) (end -0.676667 2.605) (layer F.Fab) (width 0.1))
  (fp_line (start -2.03 2.705) (end -0.676667 2.705) (layer F.Fab) (width 0.1))
  (fp_line (start -2.03 2.805) (end -0.676667 2.805) (layer F.Fab) (width 0.1))
  (fp_line (start -2.03 2.905) (end -0.676667 2.905) (layer F.Fab) (width 0.1))
  (fp_line (start -2.03 3.005) (end -0.676667 3.005) (layer F.Fab) (width 0.1))
  (fp_line (start -2.03 3.105) (end -0.676667 3.105) (layer F.Fab) (width 0.1))
  (fp_line (start -0.676667 1.905) (end -0.676667 3.175) (layer F.Fab) (width 0.1))
  (fp_line (start -4.95 -4.96) (end 4.95 -4.96) (layer F.SilkS) (width 0.12))
  (fp_line (start -4.95 4.96) (end 4.95 4.96) (layer F.SilkS) (width 0.12))
  (fp_line (start -4.95 -4.96) (end -4.95 -3.34) (layer F.SilkS) (width 0.12))
  (fp_line (start -4.95 -1.74) (end -4.95 -0.8) (layer F.SilkS) (width 0.12))
  (fp_line (start -4.95 0.8) (end -4.95 1.74) (layer F.SilkS) (width 0.12))
  (fp_line (start -4.95 3.34) (end -4.95 4.96) (layer F.SilkS) (width 0.12))
  (fp_line (start 4.95 3.34) (end 4.95 4.96) (layer F.SilkS) (width 0.12))
  (fp_line (start 4.95 0.8) (end 4.95 1.74) (layer F.SilkS) (width 0.12))
  (fp_line (start 4.95 -4.96) (end 4.95 -3.34) (layer F.SilkS) (width 0.12))
  (fp_line (start 4.95 -1.74) (end 4.95 -0.8) (layer F.SilkS) (width 0.12))
  (fp_line (start -5.19 -5.2) (end -3.806 -5.2) (layer F.SilkS) (width 0.12))
  (fp_line (start -5.19 -5.2) (end -5.19 -3.817) (layer F.SilkS) (width 0.12))
  (fp_line (start -2.03 -3.175) (end -2.03 -1.905) (layer F.SilkS) (width 0.12))
  (fp_line (start -2.03 -1.905) (end 2.03 -1.905) (layer F.SilkS) (width 0.12))
  (fp_line (start 2.03 -1.905) (end 2.03 -3.175) (layer F.SilkS) (width 0.12))
  (fp_line (start 2.03 -3.175) (end -2.03 -3.175) (layer F.SilkS) (width 0.12))
  (fp_line (start -2.03 -3.055) (end -0.676667 -3.055) (layer F.SilkS) (width 0.12))
  (fp_line (start -2.03 -2.935) (end -0.676667 -2.935) (layer F.SilkS) (width 0.12))
  (fp_line (start -2.03 -2.815) (end -0.676667 -2.815) (layer F.SilkS) (width 0.12))
  (fp_line (start -2.03 -2.695) (end -0.676667 -2.695) (layer F.SilkS) (width 0.12))
  (fp_line (start -2.03 -2.575) (end -0.676667 -2.575) (layer F.SilkS) (width 0.12))
  (fp_line (start -2.03 -2.455) (end -0.676667 -2.455) (layer F.SilkS) (width 0.12))
  (fp_line (start -2.03 -2.335) (end -0.676667 -2.335) (layer F.SilkS) (width 0.12))
  (fp_line (start -2.03 -2.215) (end -0.676667 -2.215) (layer F.SilkS) (width 0.12))
  (fp_line (start -2.03 -2.095) (end -0.676667 -2.095) (layer F.SilkS) (width 0.12))
  (fp_line (start -2.03 -1.975) (end -0.676667 -1.975) (layer F.SilkS) (width 0.12))
  (fp_line (start -0.676667 -3.175) (end -0.676667 -1.905) (layer F.SilkS) (width 0.12))
  (fp_line (start -2.03 -0.635) (end -2.03 0.635) (layer F.SilkS) (width 0.12))
  (fp_line (start -2.03 0.635) (end 2.03 0.635) (layer F.SilkS) (width 0.12))
  (fp_line (start 2.03 0.635) (end 2.03 -0.635) (layer F.SilkS) (width 0.12))
  (fp_line (start 2.03 -0.635) (end -2.03 -0.635) (layer F.SilkS) (width 0.12))
  (fp_line (start -2.03 -0.515) (end -0.676667 -0.515) (layer F.SilkS) (width 0.12))
  (fp_line (start -2.03 -0.395) (end -0.676667 -0.395) (layer F.SilkS) (width 0.12))
  (fp_line (start -2.03 -0.275) (end -0.676667 -0.275) (layer F.SilkS) (width 0.12))
  (fp_line (start -2.03 -0.155) (end -0.676667 -0.155) (layer F.SilkS) (width 0.12))
  (fp_line (start -2.03 -0.035) (end -0.676667 -0.035) (layer F.SilkS) (width 0.12))
  (fp_line (start -2.03 0.085) (end -0.676667 0.085) (layer F.SilkS) (width 0.12))
  (fp_line (start -2.03 0.205) (end -0.676667 0.205) (layer F.SilkS) (width 0.12))
  (fp_line (start -2.03 0.325) (end -0.676667 0.325) (layer F.SilkS) (width 0.12))
  (fp_line (start -2.03 0.445) (end -0.676667 0.445) (layer F.SilkS) (width 0.12))
  (fp_line (start -2.03 0.565) (end -0.676667 0.565) (layer F.SilkS) (width 0.12))
  (fp_line (start -0.676667 -0.635) (end -0.676667 0.635) (layer F.SilkS) (width 0.12))
  (fp_line (start -2.03 1.905) (end -2.03 3.175) (layer F.SilkS) (width 0.12))
  (fp_line (start -2.03 3.175) (end 2.03 3.175) (layer F.SilkS) (width 0.12))
  (fp_line (start 2.03 3.175) (end 2.03 1.905) (layer F.SilkS) (width 0.12))
  (fp_line (start 2.03 1.905) (end -2.03 1.905) (layer F.SilkS) (width 0.12))
  (fp_line (start -2.03 2.025) (end -0.676667 2.025) (layer F.SilkS) (width 0.12))
  (fp_line (start -2.03 2.145) (end -0.676667 2.145) (layer F.SilkS) (width 0.12))
  (fp_line (start -2.03 2.265) (end -0.676667 2.265) (layer F.SilkS) (width 0.12))
  (fp_line (start -2.03 2.385) (end -0.676667 2.385) (layer F.SilkS) (width 0.12))
  (fp_line (start -2.03 2.505) (end -0.676667 2.505) (layer F.SilkS) (width 0.12))
  (fp_line (start -2.03 2.625) (end -0.676667 2.625) (layer F.SilkS) (width 0.12))
  (fp_line (start -2.03 2.745) (end -0.676667 2.745) (layer F.SilkS) (width 0.12))
  (fp_line (start -2.03 2.865) (end -0.676667 2.865) (layer F.SilkS) (width 0.12))
  (fp_line (start -2.03 2.985) (end -0.676667 2.985) (layer F.SilkS) (width 0.12))
  (fp_line (start -2.03 3.105) (end -0.676667 3.105) (layer F.SilkS) (width 0.12))
  (fp_line (start -0.676667 1.905) (end -0.676667 3.175) (layer F.SilkS) (width 0.12))
  (fp_line (start -5.8 -5.25) (end -5.8 5.25) (layer F.CrtYd) (width 0.05))
  (fp_line (start -5.8 5.25) (end 5.8 5.25) (layer F.CrtYd) (width 0.05))
  (fp_line (start 5.8 5.25) (end 5.8 -5.25) (layer F.CrtYd) (width 0.05))
  (fp_line (start 5.8 -5.25) (end -5.8 -5.25) (layer F.CrtYd) (width 0.05))
  (pad 1 smd rect (at -4.305 -2.54) (size 2.44 1.12) (layers F.Cu F.Mask F.Paste))
  (pad 4 smd rect (at 4.305 2.54) (size 2.44 1.12) (layers F.Cu F.Mask F.Paste))
  (pad 2 smd rect (at -4.305 0) (size 2.44 1.12) (layers F.Cu F.Mask F.Paste))
  (pad 5 smd rect (at 4.305 0) (size 2.44 1.12) (layers F.Cu F.Mask F.Paste))
  (pad 3 smd rect (at -4.305 2.54) (size 2.44 1.12) (layers F.Cu F.Mask F.Paste))
  (pad 6 smd rect (at 4.305 -2.54) (size 2.44 1.12) (layers F.Cu F.Mask F.Paste))
  (fp_text user %R (at 3.46 -0 90) (layer F.Fab)
    (effects (font (size 0.8 0.8) (thickness 0.12)))
  )
  (fp_text user on (at 1.3075 -4.0375) (layer F.Fab)
    (effects (font (size 0.8 0.8) (thickness 0.12)))
  )
  (model ${KIPRJMOD}/kicad_libs_k/models_k.3d/Button_Switch_SMD_k.3dshapes/SW_DIP_SPSTx03_Slide_9.78x9.8mm_W8.61mm_P2.54mm_k.wrl
    (at (xyz 0 0 0))
    (scale (xyz 1 1 1))
    (rotate (xyz 0 0 90))
  )
)