(module SW_DIP_SPSTx01_Slide_Copal_CHS-01B_W7.62mm_P1.27mm (layer F.Cu) (tedit 5A4E1407)
  (descr "SMD 1x-dip-switch SPST Copal_CHS-01B, Slide, row spacing 7.62 mm (300 mils), body size  (see http://www.nidec-copal-electronics.com/e/catalog/switch/chs.pdf), SMD")
  (tags "SMD DIP Switch SPST Slide 7.62mm 300mil SMD")
  (attr smd)
  (fp_text reference REF** (at 0 -2.33) (layer F.SilkS)
    (effects (font (size 1 1) (thickness 0.15)))
  )
  (fp_text value SW_DIP_SPSTx01_Slide_Copal_CHS-01B_W7.62mm_P1.27mm (at 0 2.33) (layer F.Fab)
    (effects (font (size 1 1) (thickness 0.15)))
  )
  (fp_line (start -1.7 -1.27) (end 2.7 -1.27) (layer F.Fab) (width 0.1))
  (fp_line (start 2.7 -1.27) (end 2.7 1.27) (layer F.Fab) (width 0.1))
  (fp_line (start 2.7 1.27) (end -2.7 1.27) (layer F.Fab) (width 0.1))
  (fp_line (start -2.7 1.27) (end -2.7 -0.27) (layer F.Fab) (width 0.1))
  (fp_line (start -2.7 -0.27) (end -1.7 -1.27) (layer F.Fab) (width 0.1))
  (fp_line (start -1.5 -0.25) (end -1.5 0.25) (layer F.Fab) (width 0.1))
  (fp_line (start -1.5 0.25) (end 1.5 0.25) (layer F.Fab) (width 0.1))
  (fp_line (start 1.5 0.25) (end 1.5 -0.25) (layer F.Fab) (width 0.1))
  (fp_line (start 1.5 -0.25) (end -1.5 -0.25) (layer F.Fab) (width 0.1))
  (fp_line (start -1.5 -0.15) (end -0.5 -0.15) (layer F.Fab) (width 0.1))
  (fp_line (start -1.5 -0.05) (end -0.5 -0.05) (layer F.Fab) (width 0.1))
  (fp_line (start -1.5 0.05) (end -0.5 0.05) (layer F.Fab) (width 0.1))
  (fp_line (start -1.5 0.15) (end -0.5 0.15) (layer F.Fab) (width 0.1))
  (fp_line (start -0.5 -0.25) (end -0.5 0.25) (layer F.Fab) (width 0.1))
  (fp_line (start -2.76 1.33) (end 2.76 1.33) (layer F.SilkS) (width 0.12))
  (fp_line (start -4.61 -0.68) (end -2.76 -0.68) (layer F.SilkS) (width 0.12))
  (fp_line (start -2.76 -1.33) (end -2.76 -0.68) (layer F.SilkS) (width 0.12))
  (fp_line (start -2.76 -1.33) (end 2.76 -1.33) (layer F.SilkS) (width 0.12))
  (fp_line (start 2.76 -1.33) (end 2.76 -0.061) (layer F.SilkS) (width 0.12))
  (fp_line (start -2.76 0.061) (end -2.76 1.33) (layer F.SilkS) (width 0.12))
  (fp_line (start 2.76 0.061) (end 2.76 1.33) (layer F.SilkS) (width 0.12))
  (fp_line (start -4.9 -1.6) (end -4.9 1.6) (layer F.CrtYd) (width 0.05))
  (fp_line (start -4.9 1.6) (end 4.9 1.6) (layer F.CrtYd) (width 0.05))
  (fp_line (start 4.9 1.6) (end 4.9 -1.6) (layer F.CrtYd) (width 0.05))
  (fp_line (start 4.9 -1.6) (end -4.9 -1.6) (layer F.CrtYd) (width 0.05))
  (pad 1 smd rect (at -3.81 0) (size 1.6 0.76) (layers F.Cu F.Mask F.Paste))
  (pad 2 smd rect (at 3.81 0) (size 1.6 0.76) (layers F.Cu F.Mask F.Paste))
  (fp_text user %R (at 2.1 0 90) (layer F.Fab)
    (effects (font (size 0.6 0.6) (thickness 0.09)))
  )
  (fp_text user on (at 0.195 -0.76) (layer F.Fab)
    (effects (font (size 0.6 0.6) (thickness 0.09)))
  )
  (model ${KIPRJMOD}/kicad_libs_k/models_k.3d/Button_Switch_SMD_k.3dshapes/SW_DIP_SPSTx01_Slide_Copal_CHS-01B_W7.62mm_P1.27mm_k.wrl
    (at (xyz 0 0 0))
    (scale (xyz 1 1 1))
    (rotate (xyz 0 0 0))
  )
)