(module SW_DIP_SPSTx11_Slide_6.7x29.5mm_W8.61mm_P2.54mm_LowProfile (layer F.Cu) (tedit 5A4E1406)
  (descr "SMD 11x-dip-switch SPST , Slide, row spacing 8.61 mm (338 mils), body size 6.7x29.5mm (see e.g. https://www.ctscorp.com/wp-content/uploads/219.pdf), SMD, LowProfile")
  (tags "SMD DIP Switch SPST Slide 8.61mm 338mil SMD LowProfile")
  (attr smd)
  (fp_text reference REF** (at 0 -15.81) (layer F.SilkS)
    (effects (font (size 1 1) (thickness 0.15)))
  )
  (fp_text value SW_DIP_SPSTx11_Slide_6.7x29.5mm_W8.61mm_P2.54mm_LowProfile (at 0 15.81) (layer F.Fab)
    (effects (font (size 1 1) (thickness 0.15)))
  )
  (fp_line (start -2.35 -14.75) (end 3.35 -14.75) (layer F.Fab) (width 0.1))
  (fp_line (start 3.35 -14.75) (end 3.35 14.75) (layer F.Fab) (width 0.1))
  (fp_line (start 3.35 14.75) (end -3.35 14.75) (layer F.Fab) (width 0.1))
  (fp_line (start -3.35 14.75) (end -3.35 -13.75) (layer F.Fab) (width 0.1))
  (fp_line (start -3.35 -13.75) (end -2.35 -14.75) (layer F.Fab) (width 0.1))
  (fp_line (start -1.81 -13.335) (end -1.81 -12.065) (layer F.Fab) (width 0.1))
  (fp_line (start -1.81 -12.065) (end 1.81 -12.065) (layer F.Fab) (width 0.1))
  (fp_line (start 1.81 -12.065) (end 1.81 -13.335) (layer F.Fab) (width 0.1))
  (fp_line (start 1.81 -13.335) (end -1.81 -13.335) (layer F.Fab) (width 0.1))
  (fp_line (start -1.81 -13.235) (end -0.603333 -13.235) (layer F.Fab) (width 0.1))
  (fp_line (start -1.81 -13.135) (end -0.603333 -13.135) (layer F.Fab) (width 0.1))
  (fp_line (start -1.81 -13.035) (end -0.603333 -13.035) (layer F.Fab) (width 0.1))
  (fp_line (start -1.81 -12.935) (end -0.603333 -12.935) (layer F.Fab) (width 0.1))
  (fp_line (start -1.81 -12.835) (end -0.603333 -12.835) (layer F.Fab) (width 0.1))
  (fp_line (start -1.81 -12.735) (end -0.603333 -12.735) (layer F.Fab) (width 0.1))
  (fp_line (start -1.81 -12.635) (end -0.603333 -12.635) (layer F.Fab) (width 0.1))
  (fp_line (start -1.81 -12.535) (end -0.603333 -12.535) (layer F.Fab) (width 0.1))
  (fp_line (start -1.81 -12.435) (end -0.603333 -12.435) (layer F.Fab) (width 0.1))
  (fp_line (start -1.81 -12.335) (end -0.603333 -12.335) (layer F.Fab) (width 0.1))
  (fp_line (start -1.81 -12.235) (end -0.603333 -12.235) (layer F.Fab) (width 0.1))
  (fp_line (start -1.81 -12.135) (end -0.603333 -12.135) (layer F.Fab) (width 0.1))
  (fp_line (start -0.603333 -13.335) (end -0.603333 -12.065) (layer F.Fab) (width 0.1))
  (fp_line (start -1.81 -10.795) (end -1.81 -9.525) (layer F.Fab) (width 0.1))
  (fp_line (start -1.81 -9.525) (end 1.81 -9.525) (layer F.Fab) (width 0.1))
  (fp_line (start 1.81 -9.525) (end 1.81 -10.795) (layer F.Fab) (width 0.1))
  (fp_line (start 1.81 -10.795) (end -1.81 -10.795) (layer F.Fab) (width 0.1))
  (fp_line (start -1.81 -10.695) (end -0.603333 -10.695) (layer F.Fab) (width 0.1))
  (fp_line (start -1.81 -10.595) (end -0.603333 -10.595) (layer F.Fab) (width 0.1))
  (fp_line (start -1.81 -10.495) (end -0.603333 -10.495) (layer F.Fab) (width 0.1))
  (fp_line (start -1.81 -10.395) (end -0.603333 -10.395) (layer F.Fab) (width 0.1))
  (fp_line (start -1.81 -10.295) (end -0.603333 -10.295) (layer F.Fab) (width 0.1))
  (fp_line (start -1.81 -10.195) (end -0.603333 -10.195) (layer F.Fab) (width 0.1))
  (fp_line (start -1.81 -10.095) (end -0.603333 -10.095) (layer F.Fab) (width 0.1))
  (fp_line (start -1.81 -9.995) (end -0.603333 -9.995) (layer F.Fab) (width 0.1))
  (fp_line (start -1.81 -9.895) (end -0.603333 -9.895) (layer F.Fab) (width 0.1))
  (fp_line (start -1.81 -9.795) (end -0.603333 -9.795) (layer F.Fab) (width 0.1))
  (fp_line (start -1.81 -9.695) (end -0.603333 -9.695) (layer F.Fab) (width 0.1))
  (fp_line (start -1.81 -9.595) (end -0.603333 -9.595) (layer F.Fab) (width 0.1))
  (fp_line (start -0.603333 -10.795) (end -0.603333 -9.525) (layer F.Fab) (width 0.1))
  (fp_line (start -1.81 -8.255) (end -1.81 -6.985) (layer F.Fab) (width 0.1))
  (fp_line (start -1.81 -6.985) (end 1.81 -6.985) (layer F.Fab) (width 0.1))
  (fp_line (start 1.81 -6.985) (end 1.81 -8.255) (layer F.Fab) (width 0.1))
  (fp_line (start 1.81 -8.255) (end -1.81 -8.255) (layer F.Fab) (width 0.1))
  (fp_line (start -1.81 -8.155) (end -0.603333 -8.155) (layer F.Fab) (width 0.1))
  (fp_line (start -1.81 -8.055) (end -0.603333 -8.055) (layer F.Fab) (width 0.1))
  (fp_line (start -1.81 -7.955) (end -0.603333 -7.955) (layer F.Fab) (width 0.1))
  (fp_line (start -1.81 -7.855) (end -0.603333 -7.855) (layer F.Fab) (width 0.1))
  (fp_line (start -1.81 -7.755) (end -0.603333 -7.755) (layer F.Fab) (width 0.1))
  (fp_line (start -1.81 -7.655) (end -0.603333 -7.655) (layer F.Fab) (width 0.1))
  (fp_line (start -1.81 -7.555) (end -0.603333 -7.555) (layer F.Fab) (width 0.1))
  (fp_line (start -1.81 -7.455) (end -0.603333 -7.455) (layer F.Fab) (width 0.1))
  (fp_line (start -1.81 -7.355) (end -0.603333 -7.355) (layer F.Fab) (width 0.1))
  (fp_line (start -1.81 -7.255) (end -0.603333 -7.255) (layer F.Fab) (width 0.1))
  (fp_line (start -1.81 -7.155) (end -0.603333 -7.155) (layer F.Fab) (width 0.1))
  (fp_line (start -1.81 -7.055) (end -0.603333 -7.055) (layer F.Fab) (width 0.1))
  (fp_line (start -0.603333 -8.255) (end -0.603333 -6.985) (layer F.Fab) (width 0.1))
  (fp_line (start -1.81 -5.715) (end -1.81 -4.445) (layer F.Fab) (width 0.1))
  (fp_line (start -1.81 -4.445) (end 1.81 -4.445) (layer F.Fab) (width 0.1))
  (fp_line (start 1.81 -4.445) (end 1.81 -5.715) (layer F.Fab) (width 0.1))
  (fp_line (start 1.81 -5.715) (end -1.81 -5.715) (layer F.Fab) (width 0.1))
  (fp_line (start -1.81 -5.615) (end -0.603333 -5.615) (layer F.Fab) (width 0.1))
  (fp_line (start -1.81 -5.515) (end -0.603333 -5.515) (layer F.Fab) (width 0.1))
  (fp_line (start -1.81 -5.415) (end -0.603333 -5.415) (layer F.Fab) (width 0.1))
  (fp_line (start -1.81 -5.315) (end -0.603333 -5.315) (layer F.Fab) (width 0.1))
  (fp_line (start -1.81 -5.215) (end -0.603333 -5.215) (layer F.Fab) (width 0.1))
  (fp_line (start -1.81 -5.115) (end -0.603333 -5.115) (layer F.Fab) (width 0.1))
  (fp_line (start -1.81 -5.015) (end -0.603333 -5.015) (layer F.Fab) (width 0.1))
  (fp_line (start -1.81 -4.915) (end -0.603333 -4.915) (layer F.Fab) (width 0.1))
  (fp_line (start -1.81 -4.815) (end -0.603333 -4.815) (layer F.Fab) (width 0.1))
  (fp_line (start -1.81 -4.715) (end -0.603333 -4.715) (layer F.Fab) (width 0.1))
  (fp_line (start -1.81 -4.615) (end -0.603333 -4.615) (layer F.Fab) (width 0.1))
  (fp_line (start -1.81 -4.515) (end -0.603333 -4.515) (layer F.Fab) (width 0.1))
  (fp_line (start -0.603333 -5.715) (end -0.603333 -4.445) (layer F.Fab) (width 0.1))
  (fp_line (start -1.81 -3.175) (end -1.81 -1.905) (layer F.Fab) (width 0.1))
  (fp_line (start -1.81 -1.905) (end 1.81 -1.905) (layer F.Fab) (width 0.1))
  (fp_line (start 1.81 -1.905) (end 1.81 -3.175) (layer F.Fab) (width 0.1))
  (fp_line (start 1.81 -3.175) (end -1.81 -3.175) (layer F.Fab) (width 0.1))
  (fp_line (start -1.81 -3.075) (end -0.603333 -3.075) (layer F.Fab) (width 0.1))
  (fp_line (start -1.81 -2.975) (end -0.603333 -2.975) (layer F.Fab) (width 0.1))
  (fp_line (start -1.81 -2.875) (end -0.603333 -2.875) (layer F.Fab) (width 0.1))
  (fp_line (start -1.81 -2.775) (end -0.603333 -2.775) (layer F.Fab) (width 0.1))
  (fp_line (start -1.81 -2.675) (end -0.603333 -2.675) (layer F.Fab) (width 0.1))
  (fp_line (start -1.81 -2.575) (end -0.603333 -2.575) (layer F.Fab) (width 0.1))
  (fp_line (start -1.81 -2.475) (end -0.603333 -2.475) (layer F.Fab) (width 0.1))
  (fp_line (start -1.81 -2.375) (end -0.603333 -2.375) (layer F.Fab) (width 0.1))
  (fp_line (start -1.81 -2.275) (end -0.603333 -2.275) (layer F.Fab) (width 0.1))
  (fp_line (start -1.81 -2.175) (end -0.603333 -2.175) (layer F.Fab) (width 0.1))
  (fp_line (start -1.81 -2.075) (end -0.603333 -2.075) (layer F.Fab) (width 0.1))
  (fp_line (start -1.81 -1.975) (end -0.603333 -1.975) (layer F.Fab) (width 0.1))
  (fp_line (start -0.603333 -3.175) (end -0.603333 -1.905) (layer F.Fab) (width 0.1))
  (fp_line (start -1.81 -0.635) (end -1.81 0.635) (layer F.Fab) (width 0.1))
  (fp_line (start -1.81 0.635) (end 1.81 0.635) (layer F.Fab) (width 0.1))
  (fp_line (start 1.81 0.635) (end 1.81 -0.635) (layer F.Fab) (width 0.1))
  (fp_line (start 1.81 -0.635) (end -1.81 -0.635) (layer F.Fab) (width 0.1))
  (fp_line (start -1.81 -0.535) (end -0.603333 -0.535) (layer F.Fab) (width 0.1))
  (fp_line (start -1.81 -0.435) (end -0.603333 -0.435) (layer F.Fab) (width 0.1))
  (fp_line (start -1.81 -0.335) (end -0.603333 -0.335) (layer F.Fab) (width 0.1))
  (fp_line (start -1.81 -0.235) (end -0.603333 -0.235) (layer F.Fab) (width 0.1))
  (fp_line (start -1.81 -0.135) (end -0.603333 -0.135) (layer F.Fab) (width 0.1))
  (fp_line (start -1.81 -0.035) (end -0.603333 -0.035) (layer F.Fab) (width 0.1))
  (fp_line (start -1.81 0.065) (end -0.603333 0.065) (layer F.Fab) (width 0.1))
  (fp_line (start -1.81 0.165) (end -0.603333 0.165) (layer F.Fab) (width 0.1))
  (fp_line (start -1.81 0.265) (end -0.603333 0.265) (layer F.Fab) (width 0.1))
  (fp_line (start -1.81 0.365) (end -0.603333 0.365) (layer F.Fab) (width 0.1))
  (fp_line (start -1.81 0.465) (end -0.603333 0.465) (layer F.Fab) (width 0.1))
  (fp_line (start -1.81 0.565) (end -0.603333 0.565) (layer F.Fab) (width 0.1))
  (fp_line (start -0.603333 -0.635) (end -0.603333 0.635) (layer F.Fab) (width 0.1))
  (fp_line (start -1.81 1.905) (end -1.81 3.175) (layer F.Fab) (width 0.1))
  (fp_line (start -1.81 3.175) (end 1.81 3.175) (layer F.Fab) (width 0.1))
  (fp_line (start 1.81 3.175) (end 1.81 1.905) (layer F.Fab) (width 0.1))
  (fp_line (start 1.81 1.905) (end -1.81 1.905) (layer F.Fab) (width 0.1))
  (fp_line (start -1.81 2.005) (end -0.603333 2.005) (layer F.Fab) (width 0.1))
  (fp_line (start -1.81 2.105) (end -0.603333 2.105) (layer F.Fab) (width 0.1))
  (fp_line (start -1.81 2.205) (end -0.603333 2.205) (layer F.Fab) (width 0.1))
  (fp_line (start -1.81 2.305) (end -0.603333 2.305) (layer F.Fab) (width 0.1))
  (fp_line (start -1.81 2.405) (end -0.603333 2.405) (layer F.Fab) (width 0.1))
  (fp_line (start -1.81 2.505) (end -0.603333 2.505) (layer F.Fab) (width 0.1))
  (fp_line (start -1.81 2.605) (end -0.603333 2.605) (layer F.Fab) (width 0.1))
  (fp_line (start -1.81 2.705) (end -0.603333 2.705) (layer F.Fab) (width 0.1))
  (fp_line (start -1.81 2.805) (end -0.603333 2.805) (layer F.Fab) (width 0.1))
  (fp_line (start -1.81 2.905) (end -0.603333 2.905) (layer F.Fab) (width 0.1))
  (fp_line (start -1.81 3.005) (end -0.603333 3.005) (layer F.Fab) (width 0.1))
  (fp_line (start -1.81 3.105) (end -0.603333 3.105) (layer F.Fab) (width 0.1))
  (fp_line (start -0.603333 1.905) (end -0.603333 3.175) (layer F.Fab) (width 0.1))
  (fp_line (start -1.81 4.445) (end -1.81 5.715) (layer F.Fab) (width 0.1))
  (fp_line (start -1.81 5.715) (end 1.81 5.715) (layer F.Fab) (width 0.1))
  (fp_line (start 1.81 5.715) (end 1.81 4.445) (layer F.Fab) (width 0.1))
  (fp_line (start 1.81 4.445) (end -1.81 4.445) (layer F.Fab) (width 0.1))
  (fp_line (start -1.81 4.545) (end -0.603333 4.545) (layer F.Fab) (width 0.1))
  (fp_line (start -1.81 4.645) (end -0.603333 4.645) (layer F.Fab) (width 0.1))
  (fp_line (start -1.81 4.745) (end -0.603333 4.745) (layer F.Fab) (width 0.1))
  (fp_line (start -1.81 4.845) (end -0.603333 4.845) (layer F.Fab) (width 0.1))
  (fp_line (start -1.81 4.945) (end -0.603333 4.945) (layer F.Fab) (width 0.1))
  (fp_line (start -1.81 5.045) (end -0.603333 5.045) (layer F.Fab) (width 0.1))
  (fp_line (start -1.81 5.145) (end -0.603333 5.145) (layer F.Fab) (width 0.1))
  (fp_line (start -1.81 5.245) (end -0.603333 5.245) (layer F.Fab) (width 0.1))
  (fp_line (start -1.81 5.345) (end -0.603333 5.345) (layer F.Fab) (width 0.1))
  (fp_line (start -1.81 5.445) (end -0.603333 5.445) (layer F.Fab) (width 0.1))
  (fp_line (start -1.81 5.545) (end -0.603333 5.545) (layer F.Fab) (width 0.1))
  (fp_line (start -1.81 5.645) (end -0.603333 5.645) (layer F.Fab) (width 0.1))
  (fp_line (start -0.603333 4.445) (end -0.603333 5.715) (layer F.Fab) (width 0.1))
  (fp_line (start -1.81 6.985) (end -1.81 8.255) (layer F.Fab) (width 0.1))
  (fp_line (start -1.81 8.255) (end 1.81 8.255) (layer F.Fab) (width 0.1))
  (fp_line (start 1.81 8.255) (end 1.81 6.985) (layer F.Fab) (width 0.1))
  (fp_line (start 1.81 6.985) (end -1.81 6.985) (layer F.Fab) (width 0.1))
  (fp_line (start -1.81 7.085) (end -0.603333 7.085) (layer F.Fab) (width 0.1))
  (fp_line (start -1.81 7.185) (end -0.603333 7.185) (layer F.Fab) (width 0.1))
  (fp_line (start -1.81 7.285) (end -0.603333 7.285) (layer F.Fab) (width 0.1))
  (fp_line (start -1.81 7.385) (end -0.603333 7.385) (layer F.Fab) (width 0.1))
  (fp_line (start -1.81 7.485) (end -0.603333 7.485) (layer F.Fab) (width 0.1))
  (fp_line (start -1.81 7.585) (end -0.603333 7.585) (layer F.Fab) (width 0.1))
  (fp_line (start -1.81 7.685) (end -0.603333 7.685) (layer F.Fab) (width 0.1))
  (fp_line (start -1.81 7.785) (end -0.603333 7.785) (layer F.Fab) (width 0.1))
  (fp_line (start -1.81 7.885) (end -0.603333 7.885) (layer F.Fab) (width 0.1))
  (fp_line (start -1.81 7.985) (end -0.603333 7.985) (layer F.Fab) (width 0.1))
  (fp_line (start -1.81 8.085) (end -0.603333 8.085) (layer F.Fab) (width 0.1))
  (fp_line (start -1.81 8.185) (end -0.603333 8.185) (layer F.Fab) (width 0.1))
  (fp_line (start -0.603333 6.985) (end -0.603333 8.255) (layer F.Fab) (width 0.1))
  (fp_line (start -1.81 9.525) (end -1.81 10.795) (layer F.Fab) (width 0.1))
  (fp_line (start -1.81 10.795) (end 1.81 10.795) (layer F.Fab) (width 0.1))
  (fp_line (start 1.81 10.795) (end 1.81 9.525) (layer F.Fab) (width 0.1))
  (fp_line (start 1.81 9.525) (end -1.81 9.525) (layer F.Fab) (width 0.1))
  (fp_line (start -1.81 9.625) (end -0.603333 9.625) (layer F.Fab) (width 0.1))
  (fp_line (start -1.81 9.725) (end -0.603333 9.725) (layer F.Fab) (width 0.1))
  (fp_line (start -1.81 9.825) (end -0.603333 9.825) (layer F.Fab) (width 0.1))
  (fp_line (start -1.81 9.925) (end -0.603333 9.925) (layer F.Fab) (width 0.1))
  (fp_line (start -1.81 10.025) (end -0.603333 10.025) (layer F.Fab) (width 0.1))
  (fp_line (start -1.81 10.125) (end -0.603333 10.125) (layer F.Fab) (width 0.1))
  (fp_line (start -1.81 10.225) (end -0.603333 10.225) (layer F.Fab) (width 0.1))
  (fp_line (start -1.81 10.325) (end -0.603333 10.325) (layer F.Fab) (width 0.1))
  (fp_line (start -1.81 10.425) (end -0.603333 10.425) (layer F.Fab) (width 0.1))
  (fp_line (start -1.81 10.525) (end -0.603333 10.525) (layer F.Fab) (width 0.1))
  (fp_line (start -1.81 10.625) (end -0.603333 10.625) (layer F.Fab) (width 0.1))
  (fp_line (start -1.81 10.725) (end -0.603333 10.725) (layer F.Fab) (width 0.1))
  (fp_line (start -0.603333 9.525) (end -0.603333 10.795) (layer F.Fab) (width 0.1))
  (fp_line (start -1.81 12.065) (end -1.81 13.335) (layer F.Fab) (width 0.1))
  (fp_line (start -1.81 13.335) (end 1.81 13.335) (layer F.Fab) (width 0.1))
  (fp_line (start 1.81 13.335) (end 1.81 12.065) (layer F.Fab) (width 0.1))
  (fp_line (start 1.81 12.065) (end -1.81 12.065) (layer F.Fab) (width 0.1))
  (fp_line (start -1.81 12.165) (end -0.603333 12.165) (layer F.Fab) (width 0.1))
  (fp_line (start -1.81 12.265) (end -0.603333 12.265) (layer F.Fab) (width 0.1))
  (fp_line (start -1.81 12.365) (end -0.603333 12.365) (layer F.Fab) (width 0.1))
  (fp_line (start -1.81 12.465) (end -0.603333 12.465) (layer F.Fab) (width 0.1))
  (fp_line (start -1.81 12.565) (end -0.603333 12.565) (layer F.Fab) (width 0.1))
  (fp_line (start -1.81 12.665) (end -0.603333 12.665) (layer F.Fab) (width 0.1))
  (fp_line (start -1.81 12.765) (end -0.603333 12.765) (layer F.Fab) (width 0.1))
  (fp_line (start -1.81 12.865) (end -0.603333 12.865) (layer F.Fab) (width 0.1))
  (fp_line (start -1.81 12.965) (end -0.603333 12.965) (layer F.Fab) (width 0.1))
  (fp_line (start -1.81 13.065) (end -0.603333 13.065) (layer F.Fab) (width 0.1))
  (fp_line (start -1.81 13.165) (end -0.603333 13.165) (layer F.Fab) (width 0.1))
  (fp_line (start -1.81 13.265) (end -0.603333 13.265) (layer F.Fab) (width 0.1))
  (fp_line (start -0.603333 12.065) (end -0.603333 13.335) (layer F.Fab) (width 0.1))
  (fp_line (start -3.41 -14.81) (end 3.41 -14.81) (layer F.SilkS) (width 0.12))
  (fp_line (start -3.41 14.81) (end 3.41 14.81) (layer F.SilkS) (width 0.12))
  (fp_line (start -3.41 -14.81) (end -3.41 -13.5) (layer F.SilkS) (width 0.12))
  (fp_line (start -3.41 -11.9) (end -3.41 -10.96) (layer F.SilkS) (width 0.12))
  (fp_line (start -3.41 -9.36) (end -3.41 -8.42) (layer F.SilkS) (width 0.12))
  (fp_line (start -3.41 -6.82) (end -3.41 -5.88) (layer F.SilkS) (width 0.12))
  (fp_line (start -3.41 -4.28) (end -3.41 -3.34) (layer F.SilkS) (width 0.12))
  (fp_line (start -3.41 -1.74) (end -3.41 -0.8) (layer F.SilkS) (width 0.12))
  (fp_line (start -3.41 0.8) (end -3.41 1.74) (layer F.SilkS) (width 0.12))
  (fp_line (start -3.41 3.34) (end -3.41 4.28) (layer F.SilkS) (width 0.12))
  (fp_line (start -3.41 5.88) (end -3.41 6.82) (layer F.SilkS) (width 0.12))
  (fp_line (start -3.41 8.42) (end -3.41 9.36) (layer F.SilkS) (width 0.12))
  (fp_line (start -3.41 10.96) (end -3.41 11.9) (layer F.SilkS) (width 0.12))
  (fp_line (start -3.41 13.5) (end -3.41 14.81) (layer F.SilkS) (width 0.12))
  (fp_line (start 3.41 13.5) (end 3.41 14.81) (layer F.SilkS) (width 0.12))
  (fp_line (start 3.41 10.96) (end 3.41 11.9) (layer F.SilkS) (width 0.12))
  (fp_line (start 3.41 8.42) (end 3.41 9.36) (layer F.SilkS) (width 0.12))
  (fp_line (start 3.41 5.88) (end 3.41 6.82) (layer F.SilkS) (width 0.12))
  (fp_line (start 3.41 3.341) (end 3.41 4.28) (layer F.SilkS) (width 0.12))
  (fp_line (start 3.41 0.801) (end 3.41 1.741) (layer F.SilkS) (width 0.12))
  (fp_line (start 3.41 -1.739) (end 3.41 -0.799) (layer F.SilkS) (width 0.12))
  (fp_line (start 3.41 -4.279) (end 3.41 -3.339) (layer F.SilkS) (width 0.12))
  (fp_line (start 3.41 -6.819) (end 3.41 -5.879) (layer F.SilkS) (width 0.12))
  (fp_line (start 3.41 -9.359) (end 3.41 -8.419) (layer F.SilkS) (width 0.12))
  (fp_line (start 3.41 -14.81) (end 3.41 -13.5) (layer F.SilkS) (width 0.12))
  (fp_line (start 3.41 -11.899) (end 3.41 -10.959) (layer F.SilkS) (width 0.12))
  (fp_line (start -3.65 -15.05) (end -2.267 -15.05) (layer F.SilkS) (width 0.12))
  (fp_line (start -3.65 -15.05) (end -3.65 -13.667) (layer F.SilkS) (width 0.12))
  (fp_line (start -1.81 -13.335) (end -1.81 -12.065) (layer F.SilkS) (width 0.12))
  (fp_line (start -1.81 -12.065) (end 1.81 -12.065) (layer F.SilkS) (width 0.12))
  (fp_line (start 1.81 -12.065) (end 1.81 -13.335) (layer F.SilkS) (width 0.12))
  (fp_line (start 1.81 -13.335) (end -1.81 -13.335) (layer F.SilkS) (width 0.12))
  (fp_line (start -1.81 -13.215) (end -0.603333 -13.215) (layer F.SilkS) (width 0.12))
  (fp_line (start -1.81 -13.095) (end -0.603333 -13.095) (layer F.SilkS) (width 0.12))
  (fp_line (start -1.81 -12.975) (end -0.603333 -12.975) (layer F.SilkS) (width 0.12))
  (fp_line (start -1.81 -12.855) (end -0.603333 -12.855) (layer F.SilkS) (width 0.12))
  (fp_line (start -1.81 -12.735) (end -0.603333 -12.735) (layer F.SilkS) (width 0.12))
  (fp_line (start -1.81 -12.615) (end -0.603333 -12.615) (layer F.SilkS) (width 0.12))
  (fp_line (start -1.81 -12.495) (end -0.603333 -12.495) (layer F.SilkS) (width 0.12))
  (fp_line (start -1.81 -12.375) (end -0.603333 -12.375) (layer F.SilkS) (width 0.12))
  (fp_line (start -1.81 -12.255) (end -0.603333 -12.255) (layer F.SilkS) (width 0.12))
  (fp_line (start -1.81 -12.135) (end -0.603333 -12.135) (layer F.SilkS) (width 0.12))
  (fp_line (start -0.603333 -13.335) (end -0.603333 -12.065) (layer F.SilkS) (width 0.12))
  (fp_line (start -1.81 -10.795) (end -1.81 -9.525) (layer F.SilkS) (width 0.12))
  (fp_line (start -1.81 -9.525) (end 1.81 -9.525) (layer F.SilkS) (width 0.12))
  (fp_line (start 1.81 -9.525) (end 1.81 -10.795) (layer F.SilkS) (width 0.12))
  (fp_line (start 1.81 -10.795) (end -1.81 -10.795) (layer F.SilkS) (width 0.12))
  (fp_line (start -1.81 -10.675) (end -0.603333 -10.675) (layer F.SilkS) (width 0.12))
  (fp_line (start -1.81 -10.555) (end -0.603333 -10.555) (layer F.SilkS) (width 0.12))
  (fp_line (start -1.81 -10.435) (end -0.603333 -10.435) (layer F.SilkS) (width 0.12))
  (fp_line (start -1.81 -10.315) (end -0.603333 -10.315) (layer F.SilkS) (width 0.12))
  (fp_line (start -1.81 -10.195) (end -0.603333 -10.195) (layer F.SilkS) (width 0.12))
  (fp_line (start -1.81 -10.075) (end -0.603333 -10.075) (layer F.SilkS) (width 0.12))
  (fp_line (start -1.81 -9.955) (end -0.603333 -9.955) (layer F.SilkS) (width 0.12))
  (fp_line (start -1.81 -9.835) (end -0.603333 -9.835) (layer F.SilkS) (width 0.12))
  (fp_line (start -1.81 -9.715) (end -0.603333 -9.715) (layer F.SilkS) (width 0.12))
  (fp_line (start -1.81 -9.595) (end -0.603333 -9.595) (layer F.SilkS) (width 0.12))
  (fp_line (start -0.603333 -10.795) (end -0.603333 -9.525) (layer F.SilkS) (width 0.12))
  (fp_line (start -1.81 -8.255) (end -1.81 -6.985) (layer F.SilkS) (width 0.12))
  (fp_line (start -1.81 -6.985) (end 1.81 -6.985) (layer F.SilkS) (width 0.12))
  (fp_line (start 1.81 -6.985) (end 1.81 -8.255) (layer F.SilkS) (width 0.12))
  (fp_line (start 1.81 -8.255) (end -1.81 -8.255) (layer F.SilkS) (width 0.12))
  (fp_line (start -1.81 -8.135) (end -0.603333 -8.135) (layer F.SilkS) (width 0.12))
  (fp_line (start -1.81 -8.015) (end -0.603333 -8.015) (layer F.SilkS) (width 0.12))
  (fp_line (start -1.81 -7.895) (end -0.603333 -7.895) (layer F.SilkS) (width 0.12))
  (fp_line (start -1.81 -7.775) (end -0.603333 -7.775) (layer F.SilkS) (width 0.12))
  (fp_line (start -1.81 -7.655) (end -0.603333 -7.655) (layer F.SilkS) (width 0.12))
  (fp_line (start -1.81 -7.535) (end -0.603333 -7.535) (layer F.SilkS) (width 0.12))
  (fp_line (start -1.81 -7.415) (end -0.603333 -7.415) (layer F.SilkS) (width 0.12))
  (fp_line (start -1.81 -7.295) (end -0.603333 -7.295) (layer F.SilkS) (width 0.12))
  (fp_line (start -1.81 -7.175) (end -0.603333 -7.175) (layer F.SilkS) (width 0.12))
  (fp_line (start -1.81 -7.055) (end -0.603333 -7.055) (layer F.SilkS) (width 0.12))
  (fp_line (start -0.603333 -8.255) (end -0.603333 -6.985) (layer F.SilkS) (width 0.12))
  (fp_line (start -1.81 -5.715) (end -1.81 -4.445) (layer F.SilkS) (width 0.12))
  (fp_line (start -1.81 -4.445) (end 1.81 -4.445) (layer F.SilkS) (width 0.12))
  (fp_line (start 1.81 -4.445) (end 1.81 -5.715) (layer F.SilkS) (width 0.12))
  (fp_line (start 1.81 -5.715) (end -1.81 -5.715) (layer F.SilkS) (width 0.12))
  (fp_line (start -1.81 -5.595) (end -0.603333 -5.595) (layer F.SilkS) (width 0.12))
  (fp_line (start -1.81 -5.475) (end -0.603333 -5.475) (layer F.SilkS) (width 0.12))
  (fp_line (start -1.81 -5.355) (end -0.603333 -5.355) (layer F.SilkS) (width 0.12))
  (fp_line (start -1.81 -5.235) (end -0.603333 -5.235) (layer F.SilkS) (width 0.12))
  (fp_line (start -1.81 -5.115) (end -0.603333 -5.115) (layer F.SilkS) (width 0.12))
  (fp_line (start -1.81 -4.995) (end -0.603333 -4.995) (layer F.SilkS) (width 0.12))
  (fp_line (start -1.81 -4.875) (end -0.603333 -4.875) (layer F.SilkS) (width 0.12))
  (fp_line (start -1.81 -4.755) (end -0.603333 -4.755) (layer F.SilkS) (width 0.12))
  (fp_line (start -1.81 -4.635) (end -0.603333 -4.635) (layer F.SilkS) (width 0.12))
  (fp_line (start -1.81 -4.515) (end -0.603333 -4.515) (layer F.SilkS) (width 0.12))
  (fp_line (start -0.603333 -5.715) (end -0.603333 -4.445) (layer F.SilkS) (width 0.12))
  (fp_line (start -1.81 -3.175) (end -1.81 -1.905) (layer F.SilkS) (width 0.12))
  (fp_line (start -1.81 -1.905) (end 1.81 -1.905) (layer F.SilkS) (width 0.12))
  (fp_line (start 1.81 -1.905) (end 1.81 -3.175) (layer F.SilkS) (width 0.12))
  (fp_line (start 1.81 -3.175) (end -1.81 -3.175) (layer F.SilkS) (width 0.12))
  (fp_line (start -1.81 -3.055) (end -0.603333 -3.055) (layer F.SilkS) (width 0.12))
  (fp_line (start -1.81 -2.935) (end -0.603333 -2.935) (layer F.SilkS) (width 0.12))
  (fp_line (start -1.81 -2.815) (end -0.603333 -2.815) (layer F.SilkS) (width 0.12))
  (fp_line (start -1.81 -2.695) (end -0.603333 -2.695) (layer F.SilkS) (width 0.12))
  (fp_line (start -1.81 -2.575) (end -0.603333 -2.575) (layer F.SilkS) (width 0.12))
  (fp_line (start -1.81 -2.455) (end -0.603333 -2.455) (layer F.SilkS) (width 0.12))
  (fp_line (start -1.81 -2.335) (end -0.603333 -2.335) (layer F.SilkS) (width 0.12))
  (fp_line (start -1.81 -2.215) (end -0.603333 -2.215) (layer F.SilkS) (width 0.12))
  (fp_line (start -1.81 -2.095) (end -0.603333 -2.095) (layer F.SilkS) (width 0.12))
  (fp_line (start -1.81 -1.975) (end -0.603333 -1.975) (layer F.SilkS) (width 0.12))
  (fp_line (start -0.603333 -3.175) (end -0.603333 -1.905) (layer F.SilkS) (width 0.12))
  (fp_line (start -1.81 -0.635) (end -1.81 0.635) (layer F.SilkS) (width 0.12))
  (fp_line (start -1.81 0.635) (end 1.81 0.635) (layer F.SilkS) (width 0.12))
  (fp_line (start 1.81 0.635) (end 1.81 -0.635) (layer F.SilkS) (width 0.12))
  (fp_line (start 1.81 -0.635) (end -1.81 -0.635) (layer F.SilkS) (width 0.12))
  (fp_line (start -1.81 -0.515) (end -0.603333 -0.515) (layer F.SilkS) (width 0.12))
  (fp_line (start -1.81 -0.395) (end -0.603333 -0.395) (layer F.SilkS) (width 0.12))
  (fp_line (start -1.81 -0.275) (end -0.603333 -0.275) (layer F.SilkS) (width 0.12))
  (fp_line (start -1.81 -0.155) (end -0.603333 -0.155) (layer F.SilkS) (width 0.12))
  (fp_line (start -1.81 -0.035) (end -0.603333 -0.035) (layer F.SilkS) (width 0.12))
  (fp_line (start -1.81 0.085) (end -0.603333 0.085) (layer F.SilkS) (width 0.12))
  (fp_line (start -1.81 0.205) (end -0.603333 0.205) (layer F.SilkS) (width 0.12))
  (fp_line (start -1.81 0.325) (end -0.603333 0.325) (layer F.SilkS) (width 0.12))
  (fp_line (start -1.81 0.445) (end -0.603333 0.445) (layer F.SilkS) (width 0.12))
  (fp_line (start -1.81 0.565) (end -0.603333 0.565) (layer F.SilkS) (width 0.12))
  (fp_line (start -0.603333 -0.635) (end -0.603333 0.635) (layer F.SilkS) (width 0.12))
  (fp_line (start -1.81 1.905) (end -1.81 3.175) (layer F.SilkS) (width 0.12))
  (fp_line (start -1.81 3.175) (end 1.81 3.175) (layer F.SilkS) (width 0.12))
  (fp_line (start 1.81 3.175) (end 1.81 1.905) (layer F.SilkS) (width 0.12))
  (fp_line (start 1.81 1.905) (end -1.81 1.905) (layer F.SilkS) (width 0.12))
  (fp_line (start -1.81 2.025) (end -0.603333 2.025) (layer F.SilkS) (width 0.12))
  (fp_line (start -1.81 2.145) (end -0.603333 2.145) (layer F.SilkS) (width 0.12))
  (fp_line (start -1.81 2.265) (end -0.603333 2.265) (layer F.SilkS) (width 0.12))
  (fp_line (start -1.81 2.385) (end -0.603333 2.385) (layer F.SilkS) (width 0.12))
  (fp_line (start -1.81 2.505) (end -0.603333 2.505) (layer F.SilkS) (width 0.12))
  (fp_line (start -1.81 2.625) (end -0.603333 2.625) (layer F.SilkS) (width 0.12))
  (fp_line (start -1.81 2.745) (end -0.603333 2.745) (layer F.SilkS) (width 0.12))
  (fp_line (start -1.81 2.865) (end -0.603333 2.865) (layer F.SilkS) (width 0.12))
  (fp_line (start -1.81 2.985) (end -0.603333 2.985) (layer F.SilkS) (width 0.12))
  (fp_line (start -1.81 3.105) (end -0.603333 3.105) (layer F.SilkS) (width 0.12))
  (fp_line (start -0.603333 1.905) (end -0.603333 3.175) (layer F.SilkS) (width 0.12))
  (fp_line (start -1.81 4.445) (end -1.81 5.715) (layer F.SilkS) (width 0.12))
  (fp_line (start -1.81 5.715) (end 1.81 5.715) (layer F.SilkS) (width 0.12))
  (fp_line (start 1.81 5.715) (end 1.81 4.445) (layer F.SilkS) (width 0.12))
  (fp_line (start 1.81 4.445) (end -1.81 4.445) (layer F.SilkS) (width 0.12))
  (fp_line (start -1.81 4.565) (end -0.603333 4.565) (layer F.SilkS) (width 0.12))
  (fp_line (start -1.81 4.685) (end -0.603333 4.685) (layer F.SilkS) (width 0.12))
  (fp_line (start -1.81 4.805) (end -0.603333 4.805) (layer F.SilkS) (width 0.12))
  (fp_line (start -1.81 4.925) (end -0.603333 4.925) (layer F.SilkS) (width 0.12))
  (fp_line (start -1.81 5.045) (end -0.603333 5.045) (layer F.SilkS) (width 0.12))
  (fp_line (start -1.81 5.165) (end -0.603333 5.165) (layer F.SilkS) (width 0.12))
  (fp_line (start -1.81 5.285) (end -0.603333 5.285) (layer F.SilkS) (width 0.12))
  (fp_line (start -1.81 5.405) (end -0.603333 5.405) (layer F.SilkS) (width 0.12))
  (fp_line (start -1.81 5.525) (end -0.603333 5.525) (layer F.SilkS) (width 0.12))
  (fp_line (start -1.81 5.645) (end -0.603333 5.645) (layer F.SilkS) (width 0.12))
  (fp_line (start -0.603333 4.445) (end -0.603333 5.715) (layer F.SilkS) (width 0.12))
  (fp_line (start -1.81 6.985) (end -1.81 8.255) (layer F.SilkS) (width 0.12))
  (fp_line (start -1.81 8.255) (end 1.81 8.255) (layer F.SilkS) (width 0.12))
  (fp_line (start 1.81 8.255) (end 1.81 6.985) (layer F.SilkS) (width 0.12))
  (fp_line (start 1.81 6.985) (end -1.81 6.985) (layer F.SilkS) (width 0.12))
  (fp_line (start -1.81 7.105) (end -0.603333 7.105) (layer F.SilkS) (width 0.12))
  (fp_line (start -1.81 7.225) (end -0.603333 7.225) (layer F.SilkS) (width 0.12))
  (fp_line (start -1.81 7.345) (end -0.603333 7.345) (layer F.SilkS) (width 0.12))
  (fp_line (start -1.81 7.465) (end -0.603333 7.465) (layer F.SilkS) (width 0.12))
  (fp_line (start -1.81 7.585) (end -0.603333 7.585) (layer F.SilkS) (width 0.12))
  (fp_line (start -1.81 7.705) (end -0.603333 7.705) (layer F.SilkS) (width 0.12))
  (fp_line (start -1.81 7.825) (end -0.603333 7.825) (layer F.SilkS) (width 0.12))
  (fp_line (start -1.81 7.945) (end -0.603333 7.945) (layer F.SilkS) (width 0.12))
  (fp_line (start -1.81 8.065) (end -0.603333 8.065) (layer F.SilkS) (width 0.12))
  (fp_line (start -1.81 8.185) (end -0.603333 8.185) (layer F.SilkS) (width 0.12))
  (fp_line (start -0.603333 6.985) (end -0.603333 8.255) (layer F.SilkS) (width 0.12))
  (fp_line (start -1.81 9.525) (end -1.81 10.795) (layer F.SilkS) (width 0.12))
  (fp_line (start -1.81 10.795) (end 1.81 10.795) (layer F.SilkS) (width 0.12))
  (fp_line (start 1.81 10.795) (end 1.81 9.525) (layer F.SilkS) (width 0.12))
  (fp_line (start 1.81 9.525) (end -1.81 9.525) (layer F.SilkS) (width 0.12))
  (fp_line (start -1.81 9.645) (end -0.603333 9.645) (layer F.SilkS) (width 0.12))
  (fp_line (start -1.81 9.765) (end -0.603333 9.765) (layer F.SilkS) (width 0.12))
  (fp_line (start -1.81 9.885) (end -0.603333 9.885) (layer F.SilkS) (width 0.12))
  (fp_line (start -1.81 10.005) (end -0.603333 10.005) (layer F.SilkS) (width 0.12))
  (fp_line (start -1.81 10.125) (end -0.603333 10.125) (layer F.SilkS) (width 0.12))
  (fp_line (start -1.81 10.245) (end -0.603333 10.245) (layer F.SilkS) (width 0.12))
  (fp_line (start -1.81 10.365) (end -0.603333 10.365) (layer F.SilkS) (width 0.12))
  (fp_line (start -1.81 10.485) (end -0.603333 10.485) (layer F.SilkS) (width 0.12))
  (fp_line (start -1.81 10.605) (end -0.603333 10.605) (layer F.SilkS) (width 0.12))
  (fp_line (start -1.81 10.725) (end -0.603333 10.725) (layer F.SilkS) (width 0.12))
  (fp_line (start -0.603333 9.525) (end -0.603333 10.795) (layer F.SilkS) (width 0.12))
  (fp_line (start -1.81 12.065) (end -1.81 13.335) (layer F.SilkS) (width 0.12))
  (fp_line (start -1.81 13.335) (end 1.81 13.335) (layer F.SilkS) (width 0.12))
  (fp_line (start 1.81 13.335) (end 1.81 12.065) (layer F.SilkS) (width 0.12))
  (fp_line (start 1.81 12.065) (end -1.81 12.065) (layer F.SilkS) (width 0.12))
  (fp_line (start -1.81 12.185) (end -0.603333 12.185) (layer F.SilkS) (width 0.12))
  (fp_line (start -1.81 12.305) (end -0.603333 12.305) (layer F.SilkS) (width 0.12))
  (fp_line (start -1.81 12.425) (end -0.603333 12.425) (layer F.SilkS) (width 0.12))
  (fp_line (start -1.81 12.545) (end -0.603333 12.545) (layer F.SilkS) (width 0.12))
  (fp_line (start -1.81 12.665) (end -0.603333 12.665) (layer F.SilkS) (width 0.12))
  (fp_line (start -1.81 12.785) (end -0.603333 12.785) (layer F.SilkS) (width 0.12))
  (fp_line (start -1.81 12.905) (end -0.603333 12.905) (layer F.SilkS) (width 0.12))
  (fp_line (start -1.81 13.025) (end -0.603333 13.025) (layer F.SilkS) (width 0.12))
  (fp_line (start -1.81 13.145) (end -0.603333 13.145) (layer F.SilkS) (width 0.12))
  (fp_line (start -1.81 13.265) (end -0.603333 13.265) (layer F.SilkS) (width 0.12))
  (fp_line (start -0.603333 12.065) (end -0.603333 13.335) (layer F.SilkS) (width 0.12))
  (fp_line (start -5.8 -15.1) (end -5.8 15.1) (layer F.CrtYd) (width 0.05))
  (fp_line (start -5.8 15.1) (end 5.8 15.1) (layer F.CrtYd) (width 0.05))
  (fp_line (start 5.8 15.1) (end 5.8 -15.1) (layer F.CrtYd) (width 0.05))
  (fp_line (start 5.8 -15.1) (end -5.8 -15.1) (layer F.CrtYd) (width 0.05))
  (pad 1 smd rect (at -4.305 -12.7) (size 2.44 1.12) (layers F.Cu F.Mask F.Paste))
  (pad 12 smd rect (at 4.305 12.7) (size 2.44 1.12) (layers F.Cu F.Mask F.Paste))
  (pad 2 smd rect (at -4.305 -10.16) (size 2.44 1.12) (layers F.Cu F.Mask F.Paste))
  (pad 13 smd rect (at 4.305 10.16) (size 2.44 1.12) (layers F.Cu F.Mask F.Paste))
  (pad 3 smd rect (at -4.305 -7.62) (size 2.44 1.12) (layers F.Cu F.Mask F.Paste))
  (pad 14 smd rect (at 4.305 7.62) (size 2.44 1.12) (layers F.Cu F.Mask F.Paste))
  (pad 4 smd rect (at -4.305 -5.08) (size 2.44 1.12) (layers F.Cu F.Mask F.Paste))
  (pad 15 smd rect (at 4.305 5.08) (size 2.44 1.12) (layers F.Cu F.Mask F.Paste))
  (pad 5 smd rect (at -4.305 -2.54) (size 2.44 1.12) (layers F.Cu F.Mask F.Paste))
  (pad 16 smd rect (at 4.305 2.54) (size 2.44 1.12) (layers F.Cu F.Mask F.Paste))
  (pad 6 smd rect (at -4.305 0) (size 2.44 1.12) (layers F.Cu F.Mask F.Paste))
  (pad 17 smd rect (at 4.305 0) (size 2.44 1.12) (layers F.Cu F.Mask F.Paste))
  (pad 7 smd rect (at -4.305 2.54) (size 2.44 1.12) (layers F.Cu F.Mask F.Paste))
  (pad 18 smd rect (at 4.305 -2.54) (size 2.44 1.12) (layers F.Cu F.Mask F.Paste))
  (pad 8 smd rect (at -4.305 5.08) (size 2.44 1.12) (layers F.Cu F.Mask F.Paste))
  (pad 19 smd rect (at 4.305 -5.08) (size 2.44 1.12) (layers F.Cu F.Mask F.Paste))
  (pad 9 smd rect (at -4.305 7.62) (size 2.44 1.12) (layers F.Cu F.Mask F.Paste))
  (pad 20 smd rect (at 4.305 -7.62) (size 2.44 1.12) (layers F.Cu F.Mask F.Paste))
  (pad 10 smd rect (at -4.305 10.16) (size 2.44 1.12) (layers F.Cu F.Mask F.Paste))
  (pad 21 smd rect (at 4.305 -10.16) (size 2.44 1.12) (layers F.Cu F.Mask F.Paste))
  (pad 11 smd rect (at -4.305 12.7) (size 2.44 1.12) (layers F.Cu F.Mask F.Paste))
  (pad 22 smd rect (at 4.305 -12.7) (size 2.44 1.12) (layers F.Cu F.Mask F.Paste))
  (fp_text user %R (at 2.58 0 90) (layer F.Fab)
    (effects (font (size 0.8 0.8) (thickness 0.12)))
  )
  (fp_text user on (at 0.4275 -14.0425) (layer F.Fab)
    (effects (font (size 0.8 0.8) (thickness 0.12)))
  )
  (model ${KIPRJMOD}/kicad_libs_k/models_k.3d/Button_Switch_SMD_k.3dshapes/SW_DIP_SPSTx11_Slide_6.7x29.5mm_W8.61mm_P2.54mm_LowProfile_k.wrl
    (at (xyz 0 0 0))
    (scale (xyz 1 1 1))
    (rotate (xyz 0 0 90))
  )
)