(module SW_DIP_SPSTx02_Slide_KingTek_DSHP02TS_W7.62mm_P1.27mm (layer F.Cu) (tedit 5A508D3E)
  (descr "SMD 2x-dip-switch SPST KingTek_DSHP02TS, Slide, row spacing 7.62 mm (300 mils), body size  (see http://www.kingtek.net.cn/pic/201601201417455112.pdf)")
  (tags "SMD DIP Switch SPST Slide 7.62mm 300mil")
  (attr smd)
  (fp_text reference REF** (at 0 -3.13) (layer F.SilkS)
    (effects (font (size 1 1) (thickness 0.15)))
  )
  (fp_text value SW_DIP_SPSTx02_Slide_KingTek_DSHP02TS_W7.62mm_P1.27mm (at 0 3.13) (layer F.Fab)
    (effects (font (size 1 1) (thickness 0.15)))
  )
  (fp_line (start -1.7 -2.07) (end 2.7 -2.07) (layer F.Fab) (width 0.1))
  (fp_line (start 2.7 -2.07) (end 2.7 2.07) (layer F.Fab) (width 0.1))
  (fp_line (start 2.7 2.07) (end -2.7 2.07) (layer F.Fab) (width 0.1))
  (fp_line (start -2.7 2.07) (end -2.7 -1.07) (layer F.Fab) (width 0.1))
  (fp_line (start -2.7 -1.07) (end -1.7 -2.07) (layer F.Fab) (width 0.1))
  (fp_line (start -1 -1.035) (end -1 -0.235) (layer F.Fab) (width 0.1))
  (fp_line (start -1 -0.235) (end 1 -0.235) (layer F.Fab) (width 0.1))
  (fp_line (start 1 -0.235) (end 1 -1.035) (layer F.Fab) (width 0.1))
  (fp_line (start 1 -1.035) (end -1 -1.035) (layer F.Fab) (width 0.1))
  (fp_line (start -1 -0.935) (end -0.333333 -0.935) (layer F.Fab) (width 0.1))
  (fp_line (start -1 -0.835) (end -0.333333 -0.835) (layer F.Fab) (width 0.1))
  (fp_line (start -1 -0.735) (end -0.333333 -0.735) (layer F.Fab) (width 0.1))
  (fp_line (start -1 -0.635) (end -0.333333 -0.635) (layer F.Fab) (width 0.1))
  (fp_line (start -1 -0.535) (end -0.333333 -0.535) (layer F.Fab) (width 0.1))
  (fp_line (start -1 -0.435) (end -0.333333 -0.435) (layer F.Fab) (width 0.1))
  (fp_line (start -1 -0.335) (end -0.333333 -0.335) (layer F.Fab) (width 0.1))
  (fp_line (start -0.333333 -1.035) (end -0.333333 -0.235) (layer F.Fab) (width 0.1))
  (fp_line (start -1 0.235) (end -1 1.035) (layer F.Fab) (width 0.1))
  (fp_line (start -1 1.035) (end 1 1.035) (layer F.Fab) (width 0.1))
  (fp_line (start 1 1.035) (end 1 0.235) (layer F.Fab) (width 0.1))
  (fp_line (start 1 0.235) (end -1 0.235) (layer F.Fab) (width 0.1))
  (fp_line (start -1 0.335) (end -0.333333 0.335) (layer F.Fab) (width 0.1))
  (fp_line (start -1 0.435) (end -0.333333 0.435) (layer F.Fab) (width 0.1))
  (fp_line (start -1 0.535) (end -0.333333 0.535) (layer F.Fab) (width 0.1))
  (fp_line (start -1 0.635) (end -0.333333 0.635) (layer F.Fab) (width 0.1))
  (fp_line (start -1 0.735) (end -0.333333 0.735) (layer F.Fab) (width 0.1))
  (fp_line (start -1 0.835) (end -0.333333 0.835) (layer F.Fab) (width 0.1))
  (fp_line (start -1 0.935) (end -0.333333 0.935) (layer F.Fab) (width 0.1))
  (fp_line (start -0.333333 0.235) (end -0.333333 1.035) (layer F.Fab) (width 0.1))
  (fp_line (start -2.76 2.13) (end 2.76 2.13) (layer F.SilkS) (width 0.12))
  (fp_line (start -4.446 -1.315) (end -2.76 -1.315) (layer F.SilkS) (width 0.12))
  (fp_line (start -2.76 -2.131) (end -2.76 -1.315) (layer F.SilkS) (width 0.12))
  (fp_line (start -2.76 -2.131) (end 2.76 -2.131) (layer F.SilkS) (width 0.12))
  (fp_line (start 2.76 -2.131) (end 2.76 -0.696) (layer F.SilkS) (width 0.12))
  (fp_line (start -2.76 0.695) (end -2.76 2.13) (layer F.SilkS) (width 0.12))
  (fp_line (start 2.76 0.695) (end 2.76 2.13) (layer F.SilkS) (width 0.12))
  (fp_line (start -4.7 -2.4) (end -4.7 2.4) (layer F.CrtYd) (width 0.05))
  (fp_line (start -4.7 2.4) (end 4.7 2.4) (layer F.CrtYd) (width 0.05))
  (fp_line (start 4.7 2.4) (end 4.7 -2.4) (layer F.CrtYd) (width 0.05))
  (fp_line (start 4.7 -2.4) (end -4.7 -2.4) (layer F.CrtYd) (width 0.05))
  (pad 1 smd rect (at -3.81 -0.635) (size 1.27 0.76) (layers F.Cu F.Mask F.Paste))
  (pad 3 smd rect (at 3.81 0.635) (size 1.27 0.76) (layers F.Cu F.Mask F.Paste))
  (pad 2 smd rect (at -3.81 0.635) (size 1.27 0.76) (layers F.Cu F.Mask F.Paste))
  (pad 4 smd rect (at 3.81 -0.635) (size 1.27 0.76) (layers F.Cu F.Mask F.Paste))
  (fp_text user %R (at 1.85 -0 90) (layer F.Fab)
    (effects (font (size 0.8 0.8) (thickness 0.12)))
  )
  (fp_text user on (at -0.055 -1.5525) (layer F.Fab)
    (effects (font (size 0.8 0.8) (thickness 0.12)))
  )
  (model ${KIPRJMOD}/kicad_libs_k/models_k.3d/Button_Switch_SMD_k.3dshapes/SW_DIP_SPSTx02_Slide_KingTek_DSHP02TS_W7.62mm_P1.27mm_k.wrl
    (at (xyz 0 0 0))
    (scale (xyz 1 1 1))
    (rotate (xyz 0 0 0))
  )
)