(module SW_DIP_SPSTx02_Slide_Copal_CVS-02xB_W5.9mm_P1mm (layer F.Cu) (tedit 5A4E1407)
  (descr "SMD 2x-dip-switch SPST Copal_CVS-02xB, Slide, row spacing 5.9 mm (232 mils), body size  (see http://www.nidec-copal-electronics.com/e/catalog/switch/cvs.pdf)")
  (tags "SMD DIP Switch SPST Slide 5.9mm 232mil")
  (attr smd)
  (fp_text reference REF** (at 0 -2.91) (layer F.SilkS)
    (effects (font (size 1 1) (thickness 0.15)))
  )
  (fp_text value SW_DIP_SPSTx02_Slide_Copal_CVS-02xB_W5.9mm_P1mm (at 0 2.91) (layer F.Fab)
    (effects (font (size 1 1) (thickness 0.15)))
  )
  (fp_line (start -1.35 -1.5) (end 2.35 -1.5) (layer F.Fab) (width 0.1))
  (fp_line (start 2.35 -1.5) (end 2.35 1.5) (layer F.Fab) (width 0.1))
  (fp_line (start 2.35 1.5) (end -2.35 1.5) (layer F.Fab) (width 0.1))
  (fp_line (start -2.35 1.5) (end -2.35 -0.5) (layer F.Fab) (width 0.1))
  (fp_line (start -2.35 -0.5) (end -1.35 -1.5) (layer F.Fab) (width 0.1))
  (fp_line (start -1 -0.75) (end -1 -0.25) (layer F.Fab) (width 0.1))
  (fp_line (start -1 -0.25) (end 1 -0.25) (layer F.Fab) (width 0.1))
  (fp_line (start 1 -0.25) (end 1 -0.75) (layer F.Fab) (width 0.1))
  (fp_line (start 1 -0.75) (end -1 -0.75) (layer F.Fab) (width 0.1))
  (fp_line (start -1 -0.65) (end -0.333333 -0.65) (layer F.Fab) (width 0.1))
  (fp_line (start -1 -0.55) (end -0.333333 -0.55) (layer F.Fab) (width 0.1))
  (fp_line (start -1 -0.45) (end -0.333333 -0.45) (layer F.Fab) (width 0.1))
  (fp_line (start -1 -0.35) (end -0.333333 -0.35) (layer F.Fab) (width 0.1))
  (fp_line (start -0.333333 -0.75) (end -0.333333 -0.25) (layer F.Fab) (width 0.1))
  (fp_line (start -1 0.25) (end -1 0.75) (layer F.Fab) (width 0.1))
  (fp_line (start -1 0.75) (end 1 0.75) (layer F.Fab) (width 0.1))
  (fp_line (start 1 0.75) (end 1 0.25) (layer F.Fab) (width 0.1))
  (fp_line (start 1 0.25) (end -1 0.25) (layer F.Fab) (width 0.1))
  (fp_line (start -1 0.35) (end -0.333333 0.35) (layer F.Fab) (width 0.1))
  (fp_line (start -1 0.45) (end -0.333333 0.45) (layer F.Fab) (width 0.1))
  (fp_line (start -1 0.55) (end -0.333333 0.55) (layer F.Fab) (width 0.1))
  (fp_line (start -1 0.65) (end -0.333333 0.65) (layer F.Fab) (width 0.1))
  (fp_line (start -0.333333 0.25) (end -0.333333 0.75) (layer F.Fab) (width 0.1))
  (fp_line (start -1.56 1.91) (end 1.561 1.91) (layer F.SilkS) (width 0.12))
  (fp_line (start -3.55 -1.05) (end -2.739 -1.05) (layer F.SilkS) (width 0.12))
  (fp_line (start -1.56 -1.91) (end 1.561 -1.91) (layer F.SilkS) (width 0.12))
  (fp_line (start -3.8 -2.2) (end -3.8 2.2) (layer F.CrtYd) (width 0.05))
  (fp_line (start -3.8 2.2) (end 3.8 2.2) (layer F.CrtYd) (width 0.05))
  (fp_line (start 3.8 2.2) (end 3.8 -2.2) (layer F.CrtYd) (width 0.05))
  (fp_line (start 3.8 -2.2) (end -3.8 -2.2) (layer F.CrtYd) (width 0.05))
  (pad 1 smd rect (at -2.95 -0.5) (size 1.2 0.5) (layers F.Cu F.Mask F.Paste))
  (pad 3 smd rect (at 2.95 0.5) (size 1.2 0.5) (layers F.Cu F.Mask F.Paste))
  (pad 2 smd rect (at -2.95 0.5) (size 1.2 0.5) (layers F.Cu F.Mask F.Paste))
  (pad 4 smd rect (at 2.95 -0.5) (size 1.2 0.5) (layers F.Cu F.Mask F.Paste))
  (pad 5 smd rect (at -2.15 -1.5) (size 0.7 0.7) (layers F.Cu F.Mask F.Paste))
  (pad 5 smd rect (at 2.15 -1.5) (size 0.7 0.7) (layers F.Cu F.Mask F.Paste))
  (pad 5 smd rect (at -2.15 1.5) (size 0.7 0.7) (layers F.Cu F.Mask F.Paste))
  (pad 5 smd rect (at 2.15 1.5) (size 0.7 0.7) (layers F.Cu F.Mask F.Paste))
  (fp_text user %R (at 1.675 0 90) (layer F.Fab)
    (effects (font (size 0.8 0.8) (thickness 0.12)))
  )
  (fp_text user on (at 0.2 -1.125) (layer F.Fab)
    (effects (font (size 0.8 0.8) (thickness 0.12)))
  )
  (model ${KIPRJMOD}/kicad_libs_k/models_k.3d/Button_Switch_SMD_k.3dshapes/SW_DIP_SPSTx02_Slide_Copal_CVS-02xB_W5.9mm_P1mm_k.wrl
    (at (xyz 0 0 0))
    (scale (xyz 1 1 1))
    (rotate (xyz 0 0 0))
  )
)