(module SW_DIP_SPSTx03_Slide_Omron_A6S-310x_W8.9mm_P2.54mm (layer F.Cu) (tedit 5AC88315)
  (descr "SMD 3x-dip-switch SPST Omron_A6S-310x, Slide, row spacing 8.9 mm (350 mils), body size  (see http://omronfs.omron.com/en_US/ecb/products/pdf/en-a6s.pdf)")
  (tags "SMD DIP Switch SPST Slide 8.9mm 350mil")
  (attr smd)
  (fp_text reference REF** (at 0 -5.34) (layer F.SilkS)
    (effects (font (size 1 1) (thickness 0.15)))
  )
  (fp_text value SW_DIP_SPSTx03_Slide_Omron_A6S-310x_W8.9mm_P2.54mm (at 0 5.34) (layer F.Fab)
    (effects (font (size 1 1) (thickness 0.15)))
  )
  (fp_line (start -2.1 -4.28) (end 3.1 -4.28) (layer F.Fab) (width 0.1))
  (fp_line (start 3.1 -4.28) (end 3.1 4.28) (layer F.Fab) (width 0.1))
  (fp_line (start 3.1 4.28) (end -3.1 4.28) (layer F.Fab) (width 0.1))
  (fp_line (start -3.1 4.28) (end -3.1 -3.28) (layer F.Fab) (width 0.1))
  (fp_line (start -3.1 -3.28) (end -2.1 -4.28) (layer F.Fab) (width 0.1))
  (fp_line (start -1.5 -3.09) (end -1.5 -1.99) (layer F.Fab) (width 0.1))
  (fp_line (start -1.5 -1.99) (end 1.5 -1.99) (layer F.Fab) (width 0.1))
  (fp_line (start 1.5 -1.99) (end 1.5 -3.09) (layer F.Fab) (width 0.1))
  (fp_line (start 1.5 -3.09) (end -1.5 -3.09) (layer F.Fab) (width 0.1))
  (fp_line (start -1.5 -2.99) (end -0.5 -2.99) (layer F.Fab) (width 0.1))
  (fp_line (start -1.5 -2.89) (end -0.5 -2.89) (layer F.Fab) (width 0.1))
  (fp_line (start -1.5 -2.79) (end -0.5 -2.79) (layer F.Fab) (width 0.1))
  (fp_line (start -1.5 -2.69) (end -0.5 -2.69) (layer F.Fab) (width 0.1))
  (fp_line (start -1.5 -2.59) (end -0.5 -2.59) (layer F.Fab) (width 0.1))
  (fp_line (start -1.5 -2.49) (end -0.5 -2.49) (layer F.Fab) (width 0.1))
  (fp_line (start -1.5 -2.39) (end -0.5 -2.39) (layer F.Fab) (width 0.1))
  (fp_line (start -1.5 -2.29) (end -0.5 -2.29) (layer F.Fab) (width 0.1))
  (fp_line (start -1.5 -2.19) (end -0.5 -2.19) (layer F.Fab) (width 0.1))
  (fp_line (start -1.5 -2.09) (end -0.5 -2.09) (layer F.Fab) (width 0.1))
  (fp_line (start -1.5 -1.99) (end -0.5 -1.99) (layer F.Fab) (width 0.1))
  (fp_line (start -0.5 -3.09) (end -0.5 -1.99) (layer F.Fab) (width 0.1))
  (fp_line (start -1.5 -0.55) (end -1.5 0.55) (layer F.Fab) (width 0.1))
  (fp_line (start -1.5 0.55) (end 1.5 0.55) (layer F.Fab) (width 0.1))
  (fp_line (start 1.5 0.55) (end 1.5 -0.55) (layer F.Fab) (width 0.1))
  (fp_line (start 1.5 -0.55) (end -1.5 -0.55) (layer F.Fab) (width 0.1))
  (fp_line (start -1.5 -0.45) (end -0.5 -0.45) (layer F.Fab) (width 0.1))
  (fp_line (start -1.5 -0.35) (end -0.5 -0.35) (layer F.Fab) (width 0.1))
  (fp_line (start -1.5 -0.25) (end -0.5 -0.25) (layer F.Fab) (width 0.1))
  (fp_line (start -1.5 -0.15) (end -0.5 -0.15) (layer F.Fab) (width 0.1))
  (fp_line (start -1.5 -0.05) (end -0.5 -0.05) (layer F.Fab) (width 0.1))
  (fp_line (start -1.5 0.05) (end -0.5 0.05) (layer F.Fab) (width 0.1))
  (fp_line (start -1.5 0.15) (end -0.5 0.15) (layer F.Fab) (width 0.1))
  (fp_line (start -1.5 0.25) (end -0.5 0.25) (layer F.Fab) (width 0.1))
  (fp_line (start -1.5 0.35) (end -0.5 0.35) (layer F.Fab) (width 0.1))
  (fp_line (start -1.5 0.45) (end -0.5 0.45) (layer F.Fab) (width 0.1))
  (fp_line (start -0.5 -0.55) (end -0.5 0.55) (layer F.Fab) (width 0.1))
  (fp_line (start -1.5 1.99) (end -1.5 3.09) (layer F.Fab) (width 0.1))
  (fp_line (start -1.5 3.09) (end 1.5 3.09) (layer F.Fab) (width 0.1))
  (fp_line (start 1.5 3.09) (end 1.5 1.99) (layer F.Fab) (width 0.1))
  (fp_line (start 1.5 1.99) (end -1.5 1.99) (layer F.Fab) (width 0.1))
  (fp_line (start -1.5 2.09) (end -0.5 2.09) (layer F.Fab) (width 0.1))
  (fp_line (start -1.5 2.19) (end -0.5 2.19) (layer F.Fab) (width 0.1))
  (fp_line (start -1.5 2.29) (end -0.5 2.29) (layer F.Fab) (width 0.1))
  (fp_line (start -1.5 2.39) (end -0.5 2.39) (layer F.Fab) (width 0.1))
  (fp_line (start -1.5 2.49) (end -0.5 2.49) (layer F.Fab) (width 0.1))
  (fp_line (start -1.5 2.59) (end -0.5 2.59) (layer F.Fab) (width 0.1))
  (fp_line (start -1.5 2.69) (end -0.5 2.69) (layer F.Fab) (width 0.1))
  (fp_line (start -1.5 2.79) (end -0.5 2.79) (layer F.Fab) (width 0.1))
  (fp_line (start -1.5 2.89) (end -0.5 2.89) (layer F.Fab) (width 0.1))
  (fp_line (start -1.5 2.99) (end -0.5 2.99) (layer F.Fab) (width 0.1))
  (fp_line (start -1.5 3.09) (end -0.5 3.09) (layer F.Fab) (width 0.1))
  (fp_line (start -0.5 1.99) (end -0.5 3.09) (layer F.Fab) (width 0.1))
  (fp_line (start -3.16 4.34) (end 3.16 4.34) (layer F.SilkS) (width 0.12))
  (fp_line (start -5.2 -3.391) (end -3.16 -3.391) (layer F.SilkS) (width 0.12))
  (fp_line (start -3.16 -4.34) (end -3.16 -3.391) (layer F.SilkS) (width 0.12))
  (fp_line (start -3.16 -4.34) (end 3.16 -4.34) (layer F.SilkS) (width 0.12))
  (fp_line (start 3.16 -4.34) (end 3.16 -2.601) (layer F.SilkS) (width 0.12))
  (fp_line (start -3.16 2.6) (end -3.16 4.34) (layer F.SilkS) (width 0.12))
  (fp_line (start 3.16 2.6) (end 3.16 4.34) (layer F.SilkS) (width 0.12))
  (fp_line (start -5.45 -4.6) (end -5.45 4.6) (layer F.CrtYd) (width 0.05))
  (fp_line (start -5.45 4.6) (end 5.45 4.6) (layer F.CrtYd) (width 0.05))
  (fp_line (start 5.45 4.6) (end 5.45 -4.6) (layer F.CrtYd) (width 0.05))
  (fp_line (start 5.45 -4.6) (end -5.45 -4.6) (layer F.CrtYd) (width 0.05))
  (pad 1 smd rect (at -4.45 -2.54) (size 1.5 1.1) (layers F.Cu F.Mask F.Paste))
  (pad 4 smd rect (at 4.45 2.54) (size 1.5 1.1) (layers F.Cu F.Mask F.Paste))
  (pad 2 smd rect (at -4.45 0) (size 1.5 1.1) (layers F.Cu F.Mask F.Paste))
  (pad 5 smd rect (at 4.45 0) (size 1.5 1.1) (layers F.Cu F.Mask F.Paste))
  (pad 3 smd rect (at -4.45 2.54) (size 1.5 1.1) (layers F.Cu F.Mask F.Paste))
  (pad 6 smd rect (at 4.45 -2.54) (size 1.5 1.1) (layers F.Cu F.Mask F.Paste))
  (fp_text user %R (at 2.3 0 90) (layer F.Fab)
    (effects (font (size 0.8 0.8) (thickness 0.12)))
  )
  (fp_text user on (at 0.075 -3.685) (layer F.Fab)
    (effects (font (size 0.8 0.8) (thickness 0.12)))
  )
  (model ${KIPRJMOD}/kicad_libs_k/models_k.3d/Button_Switch_SMD_k.3dshapes/SW_DIP_SPSTx03_Slide_Omron_A6S-310x_W8.9mm_P2.54mm_k.wrl
    (at (xyz 0 0 0))
    (scale (xyz 1 1 1))
    (rotate (xyz 0 0 0))
  )
)