(module SW_DIP_SPSTx01_Slide_6.7x4.1mm_W8.61mm_P2.54mm_LowProfile (layer F.Cu) (tedit 5A4E1404)
  (descr "SMD 1x-dip-switch SPST , Slide, row spacing 8.61 mm (338 mils), body size 6.7x4.1mm (see e.g. https://www.ctscorp.com/wp-content/uploads/219.pdf), SMD, LowProfile")
  (tags "SMD DIP Switch SPST Slide 8.61mm 338mil SMD LowProfile")
  (attr smd)
  (fp_text reference REF** (at 0 -3.11) (layer F.SilkS)
    (effects (font (size 1 1) (thickness 0.15)))
  )
  (fp_text value SW_DIP_SPSTx01_Slide_6.7x4.1mm_W8.61mm_P2.54mm_LowProfile (at 0 3.11) (layer F.Fab)
    (effects (font (size 1 1) (thickness 0.15)))
  )
  (fp_line (start -2.35 -2.05) (end 3.35 -2.05) (layer F.Fab) (width 0.1))
  (fp_line (start 3.35 -2.05) (end 3.35 2.05) (layer F.Fab) (width 0.1))
  (fp_line (start 3.35 2.05) (end -3.35 2.05) (layer F.Fab) (width 0.1))
  (fp_line (start -3.35 2.05) (end -3.35 -1.05) (layer F.Fab) (width 0.1))
  (fp_line (start -3.35 -1.05) (end -2.35 -2.05) (layer F.Fab) (width 0.1))
  (fp_line (start -1.81 -0.635) (end -1.81 0.635) (layer F.Fab) (width 0.1))
  (fp_line (start -1.81 0.635) (end 1.81 0.635) (layer F.Fab) (width 0.1))
  (fp_line (start 1.81 0.635) (end 1.81 -0.635) (layer F.Fab) (width 0.1))
  (fp_line (start 1.81 -0.635) (end -1.81 -0.635) (layer F.Fab) (width 0.1))
  (fp_line (start -1.81 -0.535) (end -0.603333 -0.535) (layer F.Fab) (width 0.1))
  (fp_line (start -1.81 -0.435) (end -0.603333 -0.435) (layer F.Fab) (width 0.1))
  (fp_line (start -1.81 -0.335) (end -0.603333 -0.335) (layer F.Fab) (width 0.1))
  (fp_line (start -1.81 -0.235) (end -0.603333 -0.235) (layer F.Fab) (width 0.1))
  (fp_line (start -1.81 -0.135) (end -0.603333 -0.135) (layer F.Fab) (width 0.1))
  (fp_line (start -1.81 -0.035) (end -0.603333 -0.035) (layer F.Fab) (width 0.1))
  (fp_line (start -1.81 0.065) (end -0.603333 0.065) (layer F.Fab) (width 0.1))
  (fp_line (start -1.81 0.165) (end -0.603333 0.165) (layer F.Fab) (width 0.1))
  (fp_line (start -1.81 0.265) (end -0.603333 0.265) (layer F.Fab) (width 0.1))
  (fp_line (start -1.81 0.365) (end -0.603333 0.365) (layer F.Fab) (width 0.1))
  (fp_line (start -1.81 0.465) (end -0.603333 0.465) (layer F.Fab) (width 0.1))
  (fp_line (start -1.81 0.565) (end -0.603333 0.565) (layer F.Fab) (width 0.1))
  (fp_line (start -0.603333 -0.635) (end -0.603333 0.635) (layer F.Fab) (width 0.1))
  (fp_line (start -3.41 -2.11) (end 3.41 -2.11) (layer F.SilkS) (width 0.12))
  (fp_line (start -3.41 2.11) (end 3.41 2.11) (layer F.SilkS) (width 0.12))
  (fp_line (start -3.41 -2.11) (end -3.41 -0.8) (layer F.SilkS) (width 0.12))
  (fp_line (start -3.41 0.8) (end -3.41 2.11) (layer F.SilkS) (width 0.12))
  (fp_line (start 3.41 -2.11) (end 3.41 -0.8) (layer F.SilkS) (width 0.12))
  (fp_line (start 3.41 0.8) (end 3.41 2.11) (layer F.SilkS) (width 0.12))
  (fp_line (start -3.65 -2.35) (end -2.267 -2.35) (layer F.SilkS) (width 0.12))
  (fp_line (start -3.65 -2.35) (end -3.65 -0.967) (layer F.SilkS) (width 0.12))
  (fp_line (start -1.81 -0.635) (end -1.81 0.635) (layer F.SilkS) (width 0.12))
  (fp_line (start -1.81 0.635) (end 1.81 0.635) (layer F.SilkS) (width 0.12))
  (fp_line (start 1.81 0.635) (end 1.81 -0.635) (layer F.SilkS) (width 0.12))
  (fp_line (start 1.81 -0.635) (end -1.81 -0.635) (layer F.SilkS) (width 0.12))
  (fp_line (start -1.81 -0.515) (end -0.603333 -0.515) (layer F.SilkS) (width 0.12))
  (fp_line (start -1.81 -0.395) (end -0.603333 -0.395) (layer F.SilkS) (width 0.12))
  (fp_line (start -1.81 -0.275) (end -0.603333 -0.275) (layer F.SilkS) (width 0.12))
  (fp_line (start -1.81 -0.155) (end -0.603333 -0.155) (layer F.SilkS) (width 0.12))
  (fp_line (start -1.81 -0.035) (end -0.603333 -0.035) (layer F.SilkS) (width 0.12))
  (fp_line (start -1.81 0.085) (end -0.603333 0.085) (layer F.SilkS) (width 0.12))
  (fp_line (start -1.81 0.205) (end -0.603333 0.205) (layer F.SilkS) (width 0.12))
  (fp_line (start -1.81 0.325) (end -0.603333 0.325) (layer F.SilkS) (width 0.12))
  (fp_line (start -1.81 0.445) (end -0.603333 0.445) (layer F.SilkS) (width 0.12))
  (fp_line (start -1.81 0.565) (end -0.603333 0.565) (layer F.SilkS) (width 0.12))
  (fp_line (start -0.603333 -0.635) (end -0.603333 0.635) (layer F.SilkS) (width 0.12))
  (fp_line (start -5.8 -2.4) (end -5.8 2.4) (layer F.CrtYd) (width 0.05))
  (fp_line (start -5.8 2.4) (end 5.8 2.4) (layer F.CrtYd) (width 0.05))
  (fp_line (start 5.8 2.4) (end 5.8 -2.4) (layer F.CrtYd) (width 0.05))
  (fp_line (start 5.8 -2.4) (end -5.8 -2.4) (layer F.CrtYd) (width 0.05))
  (pad 1 smd rect (at -4.305 0) (size 2.44 1.12) (layers F.Cu F.Mask F.Paste))
  (pad 2 smd rect (at 4.305 0) (size 2.44 1.12) (layers F.Cu F.Mask F.Paste))
  (fp_text user %R (at 2.58 0 90) (layer F.Fab)
    (effects (font (size 0.6 0.6) (thickness 0.09)))
  )
  (fp_text user on (at 0.4275 -1.3425) (layer F.Fab)
    (effects (font (size 0.6 0.6) (thickness 0.09)))
  )
  (model ${KIPRJMOD}/kicad_libs_k/models_k.3d/Button_Switch_SMD_k.3dshapes/SW_DIP_SPSTx01_Slide_6.7x4.1mm_W8.61mm_P2.54mm_LowProfile_k.wrl
    (at (xyz 0 0 0))
    (scale (xyz 1 1 1))
    (rotate (xyz 0 0 90))
  )
)