(module SW_DIP_SPSTx05_Slide_6.7x14.26mm_W6.73mm_P2.54mm_LowProfile_JPin (layer F.Cu) (tedit 5A4E1405)
  (descr "SMD 5x-dip-switch SPST , Slide, row spacing 6.73 mm (264 mils), body size 6.7x14.26mm (see e.g. https://www.ctscorp.com/wp-content/uploads/219.pdf), SMD, LowProfile, JPin")
  (tags "SMD DIP Switch SPST Slide 6.73mm 264mil SMD LowProfile JPin")
  (attr smd)
  (fp_text reference REF** (at 0 -8.19) (layer F.SilkS)
    (effects (font (size 1 1) (thickness 0.15)))
  )
  (fp_text value SW_DIP_SPSTx05_Slide_6.7x14.26mm_W6.73mm_P2.54mm_LowProfile_JPin (at 0 8.19) (layer F.Fab)
    (effects (font (size 1 1) (thickness 0.15)))
  )
  (fp_line (start -2.35 -7.13) (end 3.35 -7.13) (layer F.Fab) (width 0.1))
  (fp_line (start 3.35 -7.13) (end 3.35 7.13) (layer F.Fab) (width 0.1))
  (fp_line (start 3.35 7.13) (end -3.35 7.13) (layer F.Fab) (width 0.1))
  (fp_line (start -3.35 7.13) (end -3.35 -6.13) (layer F.Fab) (width 0.1))
  (fp_line (start -3.35 -6.13) (end -2.35 -7.13) (layer F.Fab) (width 0.1))
  (fp_line (start -1.81 -5.715) (end -1.81 -4.445) (layer F.Fab) (width 0.1))
  (fp_line (start -1.81 -4.445) (end 1.81 -4.445) (layer F.Fab) (width 0.1))
  (fp_line (start 1.81 -4.445) (end 1.81 -5.715) (layer F.Fab) (width 0.1))
  (fp_line (start 1.81 -5.715) (end -1.81 -5.715) (layer F.Fab) (width 0.1))
  (fp_line (start -1.81 -5.615) (end -0.603333 -5.615) (layer F.Fab) (width 0.1))
  (fp_line (start -1.81 -5.515) (end -0.603333 -5.515) (layer F.Fab) (width 0.1))
  (fp_line (start -1.81 -5.415) (end -0.603333 -5.415) (layer F.Fab) (width 0.1))
  (fp_line (start -1.81 -5.315) (end -0.603333 -5.315) (layer F.Fab) (width 0.1))
  (fp_line (start -1.81 -5.215) (end -0.603333 -5.215) (layer F.Fab) (width 0.1))
  (fp_line (start -1.81 -5.115) (end -0.603333 -5.115) (layer F.Fab) (width 0.1))
  (fp_line (start -1.81 -5.015) (end -0.603333 -5.015) (layer F.Fab) (width 0.1))
  (fp_line (start -1.81 -4.915) (end -0.603333 -4.915) (layer F.Fab) (width 0.1))
  (fp_line (start -1.81 -4.815) (end -0.603333 -4.815) (layer F.Fab) (width 0.1))
  (fp_line (start -1.81 -4.715) (end -0.603333 -4.715) (layer F.Fab) (width 0.1))
  (fp_line (start -1.81 -4.615) (end -0.603333 -4.615) (layer F.Fab) (width 0.1))
  (fp_line (start -1.81 -4.515) (end -0.603333 -4.515) (layer F.Fab) (width 0.1))
  (fp_line (start -0.603333 -5.715) (end -0.603333 -4.445) (layer F.Fab) (width 0.1))
  (fp_line (start -1.81 -3.175) (end -1.81 -1.905) (layer F.Fab) (width 0.1))
  (fp_line (start -1.81 -1.905) (end 1.81 -1.905) (layer F.Fab) (width 0.1))
  (fp_line (start 1.81 -1.905) (end 1.81 -3.175) (layer F.Fab) (width 0.1))
  (fp_line (start 1.81 -3.175) (end -1.81 -3.175) (layer F.Fab) (width 0.1))
  (fp_line (start -1.81 -3.075) (end -0.603333 -3.075) (layer F.Fab) (width 0.1))
  (fp_line (start -1.81 -2.975) (end -0.603333 -2.975) (layer F.Fab) (width 0.1))
  (fp_line (start -1.81 -2.875) (end -0.603333 -2.875) (layer F.Fab) (width 0.1))
  (fp_line (start -1.81 -2.775) (end -0.603333 -2.775) (layer F.Fab) (width 0.1))
  (fp_line (start -1.81 -2.675) (end -0.603333 -2.675) (layer F.Fab) (width 0.1))
  (fp_line (start -1.81 -2.575) (end -0.603333 -2.575) (layer F.Fab) (width 0.1))
  (fp_line (start -1.81 -2.475) (end -0.603333 -2.475) (layer F.Fab) (width 0.1))
  (fp_line (start -1.81 -2.375) (end -0.603333 -2.375) (layer F.Fab) (width 0.1))
  (fp_line (start -1.81 -2.275) (end -0.603333 -2.275) (layer F.Fab) (width 0.1))
  (fp_line (start -1.81 -2.175) (end -0.603333 -2.175) (layer F.Fab) (width 0.1))
  (fp_line (start -1.81 -2.075) (end -0.603333 -2.075) (layer F.Fab) (width 0.1))
  (fp_line (start -1.81 -1.975) (end -0.603333 -1.975) (layer F.Fab) (width 0.1))
  (fp_line (start -0.603333 -3.175) (end -0.603333 -1.905) (layer F.Fab) (width 0.1))
  (fp_line (start -1.81 -0.635) (end -1.81 0.635) (layer F.Fab) (width 0.1))
  (fp_line (start -1.81 0.635) (end 1.81 0.635) (layer F.Fab) (width 0.1))
  (fp_line (start 1.81 0.635) (end 1.81 -0.635) (layer F.Fab) (width 0.1))
  (fp_line (start 1.81 -0.635) (end -1.81 -0.635) (layer F.Fab) (width 0.1))
  (fp_line (start -1.81 -0.535) (end -0.603333 -0.535) (layer F.Fab) (width 0.1))
  (fp_line (start -1.81 -0.435) (end -0.603333 -0.435) (layer F.Fab) (width 0.1))
  (fp_line (start -1.81 -0.335) (end -0.603333 -0.335) (layer F.Fab) (width 0.1))
  (fp_line (start -1.81 -0.235) (end -0.603333 -0.235) (layer F.Fab) (width 0.1))
  (fp_line (start -1.81 -0.135) (end -0.603333 -0.135) (layer F.Fab) (width 0.1))
  (fp_line (start -1.81 -0.035) (end -0.603333 -0.035) (layer F.Fab) (width 0.1))
  (fp_line (start -1.81 0.065) (end -0.603333 0.065) (layer F.Fab) (width 0.1))
  (fp_line (start -1.81 0.165) (end -0.603333 0.165) (layer F.Fab) (width 0.1))
  (fp_line (start -1.81 0.265) (end -0.603333 0.265) (layer F.Fab) (width 0.1))
  (fp_line (start -1.81 0.365) (end -0.603333 0.365) (layer F.Fab) (width 0.1))
  (fp_line (start -1.81 0.465) (end -0.603333 0.465) (layer F.Fab) (width 0.1))
  (fp_line (start -1.81 0.565) (end -0.603333 0.565) (layer F.Fab) (width 0.1))
  (fp_line (start -0.603333 -0.635) (end -0.603333 0.635) (layer F.Fab) (width 0.1))
  (fp_line (start -1.81 1.905) (end -1.81 3.175) (layer F.Fab) (width 0.1))
  (fp_line (start -1.81 3.175) (end 1.81 3.175) (layer F.Fab) (width 0.1))
  (fp_line (start 1.81 3.175) (end 1.81 1.905) (layer F.Fab) (width 0.1))
  (fp_line (start 1.81 1.905) (end -1.81 1.905) (layer F.Fab) (width 0.1))
  (fp_line (start -1.81 2.005) (end -0.603333 2.005) (layer F.Fab) (width 0.1))
  (fp_line (start -1.81 2.105) (end -0.603333 2.105) (layer F.Fab) (width 0.1))
  (fp_line (start -1.81 2.205) (end -0.603333 2.205) (layer F.Fab) (width 0.1))
  (fp_line (start -1.81 2.305) (end -0.603333 2.305) (layer F.Fab) (width 0.1))
  (fp_line (start -1.81 2.405) (end -0.603333 2.405) (layer F.Fab) (width 0.1))
  (fp_line (start -1.81 2.505) (end -0.603333 2.505) (layer F.Fab) (width 0.1))
  (fp_line (start -1.81 2.605) (end -0.603333 2.605) (layer F.Fab) (width 0.1))
  (fp_line (start -1.81 2.705) (end -0.603333 2.705) (layer F.Fab) (width 0.1))
  (fp_line (start -1.81 2.805) (end -0.603333 2.805) (layer F.Fab) (width 0.1))
  (fp_line (start -1.81 2.905) (end -0.603333 2.905) (layer F.Fab) (width 0.1))
  (fp_line (start -1.81 3.005) (end -0.603333 3.005) (layer F.Fab) (width 0.1))
  (fp_line (start -1.81 3.105) (end -0.603333 3.105) (layer F.Fab) (width 0.1))
  (fp_line (start -0.603333 1.905) (end -0.603333 3.175) (layer F.Fab) (width 0.1))
  (fp_line (start -1.81 4.445) (end -1.81 5.715) (layer F.Fab) (width 0.1))
  (fp_line (start -1.81 5.715) (end 1.81 5.715) (layer F.Fab) (width 0.1))
  (fp_line (start 1.81 5.715) (end 1.81 4.445) (layer F.Fab) (width 0.1))
  (fp_line (start 1.81 4.445) (end -1.81 4.445) (layer F.Fab) (width 0.1))
  (fp_line (start -1.81 4.545) (end -0.603333 4.545) (layer F.Fab) (width 0.1))
  (fp_line (start -1.81 4.645) (end -0.603333 4.645) (layer F.Fab) (width 0.1))
  (fp_line (start -1.81 4.745) (end -0.603333 4.745) (layer F.Fab) (width 0.1))
  (fp_line (start -1.81 4.845) (end -0.603333 4.845) (layer F.Fab) (width 0.1))
  (fp_line (start -1.81 4.945) (end -0.603333 4.945) (layer F.Fab) (width 0.1))
  (fp_line (start -1.81 5.045) (end -0.603333 5.045) (layer F.Fab) (width 0.1))
  (fp_line (start -1.81 5.145) (end -0.603333 5.145) (layer F.Fab) (width 0.1))
  (fp_line (start -1.81 5.245) (end -0.603333 5.245) (layer F.Fab) (width 0.1))
  (fp_line (start -1.81 5.345) (end -0.603333 5.345) (layer F.Fab) (width 0.1))
  (fp_line (start -1.81 5.445) (end -0.603333 5.445) (layer F.Fab) (width 0.1))
  (fp_line (start -1.81 5.545) (end -0.603333 5.545) (layer F.Fab) (width 0.1))
  (fp_line (start -1.81 5.645) (end -0.603333 5.645) (layer F.Fab) (width 0.1))
  (fp_line (start -0.603333 4.445) (end -0.603333 5.715) (layer F.Fab) (width 0.1))
  (fp_line (start -3.41 -7.19) (end 3.41 -7.19) (layer F.SilkS) (width 0.12))
  (fp_line (start -3.41 7.191) (end 3.41 7.191) (layer F.SilkS) (width 0.12))
  (fp_line (start -3.41 -7.19) (end -3.41 -5.88) (layer F.SilkS) (width 0.12))
  (fp_line (start -3.41 -4.28) (end -3.41 -3.34) (layer F.SilkS) (width 0.12))
  (fp_line (start -3.41 -1.74) (end -3.41 -0.8) (layer F.SilkS) (width 0.12))
  (fp_line (start -3.41 0.8) (end -3.41 1.74) (layer F.SilkS) (width 0.12))
  (fp_line (start -3.41 3.34) (end -3.41 4.28) (layer F.SilkS) (width 0.12))
  (fp_line (start -3.41 5.88) (end -3.41 7.191) (layer F.SilkS) (width 0.12))
  (fp_line (start 3.41 5.88) (end 3.41 7.191) (layer F.SilkS) (width 0.12))
  (fp_line (start 3.41 3.34) (end 3.41 4.28) (layer F.SilkS) (width 0.12))
  (fp_line (start 3.41 0.8) (end 3.41 1.74) (layer F.SilkS) (width 0.12))
  (fp_line (start 3.41 -1.74) (end 3.41 -0.8) (layer F.SilkS) (width 0.12))
  (fp_line (start 3.41 -7.19) (end 3.41 -5.88) (layer F.SilkS) (width 0.12))
  (fp_line (start 3.41 -4.28) (end 3.41 -3.34) (layer F.SilkS) (width 0.12))
  (fp_line (start -3.65 -7.43) (end -2.267 -7.43) (layer F.SilkS) (width 0.12))
  (fp_line (start -3.65 -7.43) (end -3.65 -6.047) (layer F.SilkS) (width 0.12))
  (fp_line (start -1.81 -5.715) (end -1.81 -4.445) (layer F.SilkS) (width 0.12))
  (fp_line (start -1.81 -4.445) (end 1.81 -4.445) (layer F.SilkS) (width 0.12))
  (fp_line (start 1.81 -4.445) (end 1.81 -5.715) (layer F.SilkS) (width 0.12))
  (fp_line (start 1.81 -5.715) (end -1.81 -5.715) (layer F.SilkS) (width 0.12))
  (fp_line (start -1.81 -5.595) (end -0.603333 -5.595) (layer F.SilkS) (width 0.12))
  (fp_line (start -1.81 -5.475) (end -0.603333 -5.475) (layer F.SilkS) (width 0.12))
  (fp_line (start -1.81 -5.355) (end -0.603333 -5.355) (layer F.SilkS) (width 0.12))
  (fp_line (start -1.81 -5.235) (end -0.603333 -5.235) (layer F.SilkS) (width 0.12))
  (fp_line (start -1.81 -5.115) (end -0.603333 -5.115) (layer F.SilkS) (width 0.12))
  (fp_line (start -1.81 -4.995) (end -0.603333 -4.995) (layer F.SilkS) (width 0.12))
  (fp_line (start -1.81 -4.875) (end -0.603333 -4.875) (layer F.SilkS) (width 0.12))
  (fp_line (start -1.81 -4.755) (end -0.603333 -4.755) (layer F.SilkS) (width 0.12))
  (fp_line (start -1.81 -4.635) (end -0.603333 -4.635) (layer F.SilkS) (width 0.12))
  (fp_line (start -1.81 -4.515) (end -0.603333 -4.515) (layer F.SilkS) (width 0.12))
  (fp_line (start -0.603333 -5.715) (end -0.603333 -4.445) (layer F.SilkS) (width 0.12))
  (fp_line (start -1.81 -3.175) (end -1.81 -1.905) (layer F.SilkS) (width 0.12))
  (fp_line (start -1.81 -1.905) (end 1.81 -1.905) (layer F.SilkS) (width 0.12))
  (fp_line (start 1.81 -1.905) (end 1.81 -3.175) (layer F.SilkS) (width 0.12))
  (fp_line (start 1.81 -3.175) (end -1.81 -3.175) (layer F.SilkS) (width 0.12))
  (fp_line (start -1.81 -3.055) (end -0.603333 -3.055) (layer F.SilkS) (width 0.12))
  (fp_line (start -1.81 -2.935) (end -0.603333 -2.935) (layer F.SilkS) (width 0.12))
  (fp_line (start -1.81 -2.815) (end -0.603333 -2.815) (layer F.SilkS) (width 0.12))
  (fp_line (start -1.81 -2.695) (end -0.603333 -2.695) (layer F.SilkS) (width 0.12))
  (fp_line (start -1.81 -2.575) (end -0.603333 -2.575) (layer F.SilkS) (width 0.12))
  (fp_line (start -1.81 -2.455) (end -0.603333 -2.455) (layer F.SilkS) (width 0.12))
  (fp_line (start -1.81 -2.335) (end -0.603333 -2.335) (layer F.SilkS) (width 0.12))
  (fp_line (start -1.81 -2.215) (end -0.603333 -2.215) (layer F.SilkS) (width 0.12))
  (fp_line (start -1.81 -2.095) (end -0.603333 -2.095) (layer F.SilkS) (width 0.12))
  (fp_line (start -1.81 -1.975) (end -0.603333 -1.975) (layer F.SilkS) (width 0.12))
  (fp_line (start -0.603333 -3.175) (end -0.603333 -1.905) (layer F.SilkS) (width 0.12))
  (fp_line (start -1.81 -0.635) (end -1.81 0.635) (layer F.SilkS) (width 0.12))
  (fp_line (start -1.81 0.635) (end 1.81 0.635) (layer F.SilkS) (width 0.12))
  (fp_line (start 1.81 0.635) (end 1.81 -0.635) (layer F.SilkS) (width 0.12))
  (fp_line (start 1.81 -0.635) (end -1.81 -0.635) (layer F.SilkS) (width 0.12))
  (fp_line (start -1.81 -0.515) (end -0.603333 -0.515) (layer F.SilkS) (width 0.12))
  (fp_line (start -1.81 -0.395) (end -0.603333 -0.395) (layer F.SilkS) (width 0.12))
  (fp_line (start -1.81 -0.275) (end -0.603333 -0.275) (layer F.SilkS) (width 0.12))
  (fp_line (start -1.81 -0.155) (end -0.603333 -0.155) (layer F.SilkS) (width 0.12))
  (fp_line (start -1.81 -0.035) (end -0.603333 -0.035) (layer F.SilkS) (width 0.12))
  (fp_line (start -1.81 0.085) (end -0.603333 0.085) (layer F.SilkS) (width 0.12))
  (fp_line (start -1.81 0.205) (end -0.603333 0.205) (layer F.SilkS) (width 0.12))
  (fp_line (start -1.81 0.325) (end -0.603333 0.325) (layer F.SilkS) (width 0.12))
  (fp_line (start -1.81 0.445) (end -0.603333 0.445) (layer F.SilkS) (width 0.12))
  (fp_line (start -1.81 0.565) (end -0.603333 0.565) (layer F.SilkS) (width 0.12))
  (fp_line (start -0.603333 -0.635) (end -0.603333 0.635) (layer F.SilkS) (width 0.12))
  (fp_line (start -1.81 1.905) (end -1.81 3.175) (layer F.SilkS) (width 0.12))
  (fp_line (start -1.81 3.175) (end 1.81 3.175) (layer F.SilkS) (width 0.12))
  (fp_line (start 1.81 3.175) (end 1.81 1.905) (layer F.SilkS) (width 0.12))
  (fp_line (start 1.81 1.905) (end -1.81 1.905) (layer F.SilkS) (width 0.12))
  (fp_line (start -1.81 2.025) (end -0.603333 2.025) (layer F.SilkS) (width 0.12))
  (fp_line (start -1.81 2.145) (end -0.603333 2.145) (layer F.SilkS) (width 0.12))
  (fp_line (start -1.81 2.265) (end -0.603333 2.265) (layer F.SilkS) (width 0.12))
  (fp_line (start -1.81 2.385) (end -0.603333 2.385) (layer F.SilkS) (width 0.12))
  (fp_line (start -1.81 2.505) (end -0.603333 2.505) (layer F.SilkS) (width 0.12))
  (fp_line (start -1.81 2.625) (end -0.603333 2.625) (layer F.SilkS) (width 0.12))
  (fp_line (start -1.81 2.745) (end -0.603333 2.745) (layer F.SilkS) (width 0.12))
  (fp_line (start -1.81 2.865) (end -0.603333 2.865) (layer F.SilkS) (width 0.12))
  (fp_line (start -1.81 2.985) (end -0.603333 2.985) (layer F.SilkS) (width 0.12))
  (fp_line (start -1.81 3.105) (end -0.603333 3.105) (layer F.SilkS) (width 0.12))
  (fp_line (start -0.603333 1.905) (end -0.603333 3.175) (layer F.SilkS) (width 0.12))
  (fp_line (start -1.81 4.445) (end -1.81 5.715) (layer F.SilkS) (width 0.12))
  (fp_line (start -1.81 5.715) (end 1.81 5.715) (layer F.SilkS) (width 0.12))
  (fp_line (start 1.81 5.715) (end 1.81 4.445) (layer F.SilkS) (width 0.12))
  (fp_line (start 1.81 4.445) (end -1.81 4.445) (layer F.SilkS) (width 0.12))
  (fp_line (start -1.81 4.565) (end -0.603333 4.565) (layer F.SilkS) (width 0.12))
  (fp_line (start -1.81 4.685) (end -0.603333 4.685) (layer F.SilkS) (width 0.12))
  (fp_line (start -1.81 4.805) (end -0.603333 4.805) (layer F.SilkS) (width 0.12))
  (fp_line (start -1.81 4.925) (end -0.603333 4.925) (layer F.SilkS) (width 0.12))
  (fp_line (start -1.81 5.045) (end -0.603333 5.045) (layer F.SilkS) (width 0.12))
  (fp_line (start -1.81 5.165) (end -0.603333 5.165) (layer F.SilkS) (width 0.12))
  (fp_line (start -1.81 5.285) (end -0.603333 5.285) (layer F.SilkS) (width 0.12))
  (fp_line (start -1.81 5.405) (end -0.603333 5.405) (layer F.SilkS) (width 0.12))
  (fp_line (start -1.81 5.525) (end -0.603333 5.525) (layer F.SilkS) (width 0.12))
  (fp_line (start -1.81 5.645) (end -0.603333 5.645) (layer F.SilkS) (width 0.12))
  (fp_line (start -0.603333 4.445) (end -0.603333 5.715) (layer F.SilkS) (width 0.12))
  (fp_line (start -4.7 -7.45) (end -4.7 7.45) (layer F.CrtYd) (width 0.05))
  (fp_line (start -4.7 7.45) (end 4.7 7.45) (layer F.CrtYd) (width 0.05))
  (fp_line (start 4.7 7.45) (end 4.7 -7.45) (layer F.CrtYd) (width 0.05))
  (fp_line (start 4.7 -7.45) (end -4.7 -7.45) (layer F.CrtYd) (width 0.05))
  (pad 1 smd rect (at -3.365 -5.08) (size 2.16 1.12) (layers F.Cu F.Mask F.Paste))
  (pad 6 smd rect (at 3.365 5.08) (size 2.16 1.12) (layers F.Cu F.Mask F.Paste))
  (pad 2 smd rect (at -3.365 -2.54) (size 2.16 1.12) (layers F.Cu F.Mask F.Paste))
  (pad 7 smd rect (at 3.365 2.54) (size 2.16 1.12) (layers F.Cu F.Mask F.Paste))
  (pad 3 smd rect (at -3.365 0) (size 2.16 1.12) (layers F.Cu F.Mask F.Paste))
  (pad 8 smd rect (at 3.365 0) (size 2.16 1.12) (layers F.Cu F.Mask F.Paste))
  (pad 4 smd rect (at -3.365 2.54) (size 2.16 1.12) (layers F.Cu F.Mask F.Paste))
  (pad 9 smd rect (at 3.365 -2.54) (size 2.16 1.12) (layers F.Cu F.Mask F.Paste))
  (pad 5 smd rect (at -3.365 5.08) (size 2.16 1.12) (layers F.Cu F.Mask F.Paste))
  (pad 10 smd rect (at 3.365 -5.08) (size 2.16 1.12) (layers F.Cu F.Mask F.Paste))
  (fp_text user %R (at 2.58 0 90) (layer F.Fab)
    (effects (font (size 0.8 0.8) (thickness 0.12)))
  )
  (fp_text user on (at 0.8975 -6.4225) (layer F.Fab)
    (effects (font (size 0.8 0.8) (thickness 0.12)))
  )
  (model ${KIPRJMOD}/kicad_libs_k/models_k.3d/Button_Switch_SMD_k.3dshapes/SW_DIP_SPSTx05_Slide_6.7x14.26mm_W6.73mm_P2.54mm_LowProfile_JPin_k.wrl
    (at (xyz 0 0 0))
    (scale (xyz 1 1 1))
    (rotate (xyz 0 0 90))
  )
)