(module SW_DIP_SPSTx04_Slide_KingTek_DSHP04TS_W7.62mm_P1.27mm (layer F.Cu) (tedit 5A508D3E)
  (descr "SMD 4x-dip-switch SPST KingTek_DSHP04TS, Slide, row spacing 7.62 mm (300 mils), body size  (see http://www.kingtek.net.cn/pic/201601201417455112.pdf)")
  (tags "SMD DIP Switch SPST Slide 7.62mm 300mil")
  (attr smd)
  (fp_text reference REF** (at 0 -4.4) (layer F.SilkS)
    (effects (font (size 1 1) (thickness 0.15)))
  )
  (fp_text value SW_DIP_SPSTx04_Slide_KingTek_DSHP04TS_W7.62mm_P1.27mm (at 0 4.4) (layer F.Fab)
    (effects (font (size 1 1) (thickness 0.15)))
  )
  (fp_line (start -1.7 -3.34) (end 2.7 -3.34) (layer F.Fab) (width 0.1))
  (fp_line (start 2.7 -3.34) (end 2.7 3.34) (layer F.Fab) (width 0.1))
  (fp_line (start 2.7 3.34) (end -2.7 3.34) (layer F.Fab) (width 0.1))
  (fp_line (start -2.7 3.34) (end -2.7 -2.34) (layer F.Fab) (width 0.1))
  (fp_line (start -2.7 -2.34) (end -1.7 -3.34) (layer F.Fab) (width 0.1))
  (fp_line (start -1 -2.305) (end -1 -1.505) (layer F.Fab) (width 0.1))
  (fp_line (start -1 -1.505) (end 1 -1.505) (layer F.Fab) (width 0.1))
  (fp_line (start 1 -1.505) (end 1 -2.305) (layer F.Fab) (width 0.1))
  (fp_line (start 1 -2.305) (end -1 -2.305) (layer F.Fab) (width 0.1))
  (fp_line (start -1 -2.205) (end -0.333333 -2.205) (layer F.Fab) (width 0.1))
  (fp_line (start -1 -2.105) (end -0.333333 -2.105) (layer F.Fab) (width 0.1))
  (fp_line (start -1 -2.005) (end -0.333333 -2.005) (layer F.Fab) (width 0.1))
  (fp_line (start -1 -1.905) (end -0.333333 -1.905) (layer F.Fab) (width 0.1))
  (fp_line (start -1 -1.805) (end -0.333333 -1.805) (layer F.Fab) (width 0.1))
  (fp_line (start -1 -1.705) (end -0.333333 -1.705) (layer F.Fab) (width 0.1))
  (fp_line (start -1 -1.605) (end -0.333333 -1.605) (layer F.Fab) (width 0.1))
  (fp_line (start -0.333333 -2.305) (end -0.333333 -1.505) (layer F.Fab) (width 0.1))
  (fp_line (start -1 -1.035) (end -1 -0.235) (layer F.Fab) (width 0.1))
  (fp_line (start -1 -0.235) (end 1 -0.235) (layer F.Fab) (width 0.1))
  (fp_line (start 1 -0.235) (end 1 -1.035) (layer F.Fab) (width 0.1))
  (fp_line (start 1 -1.035) (end -1 -1.035) (layer F.Fab) (width 0.1))
  (fp_line (start -1 -0.935) (end -0.333333 -0.935) (layer F.Fab) (width 0.1))
  (fp_line (start -1 -0.835) (end -0.333333 -0.835) (layer F.Fab) (width 0.1))
  (fp_line (start -1 -0.735) (end -0.333333 -0.735) (layer F.Fab) (width 0.1))
  (fp_line (start -1 -0.635) (end -0.333333 -0.635) (layer F.Fab) (width 0.1))
  (fp_line (start -1 -0.535) (end -0.333333 -0.535) (layer F.Fab) (width 0.1))
  (fp_line (start -1 -0.435) (end -0.333333 -0.435) (layer F.Fab) (width 0.1))
  (fp_line (start -1 -0.335) (end -0.333333 -0.335) (layer F.Fab) (width 0.1))
  (fp_line (start -0.333333 -1.035) (end -0.333333 -0.235) (layer F.Fab) (width 0.1))
  (fp_line (start -1 0.235) (end -1 1.035) (layer F.Fab) (width 0.1))
  (fp_line (start -1 1.035) (end 1 1.035) (layer F.Fab) (width 0.1))
  (fp_line (start 1 1.035) (end 1 0.235) (layer F.Fab) (width 0.1))
  (fp_line (start 1 0.235) (end -1 0.235) (layer F.Fab) (width 0.1))
  (fp_line (start -1 0.335) (end -0.333333 0.335) (layer F.Fab) (width 0.1))
  (fp_line (start -1 0.435) (end -0.333333 0.435) (layer F.Fab) (width 0.1))
  (fp_line (start -1 0.535) (end -0.333333 0.535) (layer F.Fab) (width 0.1))
  (fp_line (start -1 0.635) (end -0.333333 0.635) (layer F.Fab) (width 0.1))
  (fp_line (start -1 0.735) (end -0.333333 0.735) (layer F.Fab) (width 0.1))
  (fp_line (start -1 0.835) (end -0.333333 0.835) (layer F.Fab) (width 0.1))
  (fp_line (start -1 0.935) (end -0.333333 0.935) (layer F.Fab) (width 0.1))
  (fp_line (start -0.333333 0.235) (end -0.333333 1.035) (layer F.Fab) (width 0.1))
  (fp_line (start -1 1.505) (end -1 2.305) (layer F.Fab) (width 0.1))
  (fp_line (start -1 2.305) (end 1 2.305) (layer F.Fab) (width 0.1))
  (fp_line (start 1 2.305) (end 1 1.505) (layer F.Fab) (width 0.1))
  (fp_line (start 1 1.505) (end -1 1.505) (layer F.Fab) (width 0.1))
  (fp_line (start -1 1.605) (end -0.333333 1.605) (layer F.Fab) (width 0.1))
  (fp_line (start -1 1.705) (end -0.333333 1.705) (layer F.Fab) (width 0.1))
  (fp_line (start -1 1.805) (end -0.333333 1.805) (layer F.Fab) (width 0.1))
  (fp_line (start -1 1.905) (end -0.333333 1.905) (layer F.Fab) (width 0.1))
  (fp_line (start -1 2.005) (end -0.333333 2.005) (layer F.Fab) (width 0.1))
  (fp_line (start -1 2.105) (end -0.333333 2.105) (layer F.Fab) (width 0.1))
  (fp_line (start -1 2.205) (end -0.333333 2.205) (layer F.Fab) (width 0.1))
  (fp_line (start -0.333333 1.505) (end -0.333333 2.305) (layer F.Fab) (width 0.1))
  (fp_line (start -2.76 3.401) (end 2.76 3.401) (layer F.SilkS) (width 0.12))
  (fp_line (start -4.446 -2.585) (end -2.76 -2.585) (layer F.SilkS) (width 0.12))
  (fp_line (start -2.76 -3.401) (end -2.76 -2.585) (layer F.SilkS) (width 0.12))
  (fp_line (start -2.76 -3.401) (end 2.76 -3.401) (layer F.SilkS) (width 0.12))
  (fp_line (start 2.76 -3.401) (end 2.76 -1.966) (layer F.SilkS) (width 0.12))
  (fp_line (start -2.76 1.966) (end -2.76 3.401) (layer F.SilkS) (width 0.12))
  (fp_line (start 2.76 1.966) (end 2.76 3.401) (layer F.SilkS) (width 0.12))
  (fp_line (start -4.7 -3.7) (end -4.7 3.7) (layer F.CrtYd) (width 0.05))
  (fp_line (start -4.7 3.7) (end 4.7 3.7) (layer F.CrtYd) (width 0.05))
  (fp_line (start 4.7 3.7) (end 4.7 -3.7) (layer F.CrtYd) (width 0.05))
  (fp_line (start 4.7 -3.7) (end -4.7 -3.7) (layer F.CrtYd) (width 0.05))
  (pad 1 smd rect (at -3.81 -1.905) (size 1.27 0.76) (layers F.Cu F.Mask F.Paste))
  (pad 5 smd rect (at 3.81 1.905) (size 1.27 0.76) (layers F.Cu F.Mask F.Paste))
  (pad 2 smd rect (at -3.81 -0.635) (size 1.27 0.76) (layers F.Cu F.Mask F.Paste))
  (pad 6 smd rect (at 3.81 0.635) (size 1.27 0.76) (layers F.Cu F.Mask F.Paste))
  (pad 3 smd rect (at -3.81 0.635) (size 1.27 0.76) (layers F.Cu F.Mask F.Paste))
  (pad 7 smd rect (at 3.81 -0.635) (size 1.27 0.76) (layers F.Cu F.Mask F.Paste))
  (pad 4 smd rect (at -3.81 1.905) (size 1.27 0.76) (layers F.Cu F.Mask F.Paste))
  (pad 8 smd rect (at 3.81 -1.905) (size 1.27 0.76) (layers F.Cu F.Mask F.Paste))
  (fp_text user %R (at 1.85 0 90) (layer F.Fab)
    (effects (font (size 0.8 0.8) (thickness 0.12)))
  )
  (fp_text user on (at -0.055 -2.8225) (layer F.Fab)
    (effects (font (size 0.8 0.8) (thickness 0.12)))
  )
  (model ${KIPRJMOD}/kicad_libs_k/models_k.3d/Button_Switch_SMD_k.3dshapes/SW_DIP_SPSTx04_Slide_KingTek_DSHP04TS_W7.62mm_P1.27mm_k.wrl
    (at (xyz 0 0 0))
    (scale (xyz 1 1 1))
    (rotate (xyz 0 0 0))
  )
)