(module SW_DIP_SPSTx10_Slide_Omron_A6H-10101_W6.15mm_P1.27mm (layer F.Cu) (tedit 5A4E1407)
  (descr "SMD 10x-dip-switch SPST Omron_A6H-10101, Slide, row spacing 6.15 mm (242 mils), body size  (see https://www.omron.com/ecb/products/pdf/en-a6h.pdf)")
  (tags "SMD DIP Switch SPST Slide 6.15mm 242mil")
  (attr smd)
  (fp_text reference REF** (at 0 -8.045) (layer F.SilkS)
    (effects (font (size 1 1) (thickness 0.15)))
  )
  (fp_text value SW_DIP_SPSTx10_Slide_Omron_A6H-10101_W6.15mm_P1.27mm (at 0 8.045) (layer F.Fab)
    (effects (font (size 1 1) (thickness 0.15)))
  )
  (fp_line (start -1.25 -6.985) (end 2.25 -6.985) (layer F.Fab) (width 0.1))
  (fp_line (start 2.25 -6.985) (end 2.25 6.985) (layer F.Fab) (width 0.1))
  (fp_line (start 2.25 6.985) (end -2.25 6.985) (layer F.Fab) (width 0.1))
  (fp_line (start -2.25 6.985) (end -2.25 -5.985) (layer F.Fab) (width 0.1))
  (fp_line (start -2.25 -5.985) (end -1.25 -6.985) (layer F.Fab) (width 0.1))
  (fp_line (start -1.6 -5.965) (end -1.6 -5.465) (layer F.Fab) (width 0.1))
  (fp_line (start -1.6 -5.465) (end 1.6 -5.465) (layer F.Fab) (width 0.1))
  (fp_line (start 1.6 -5.465) (end 1.6 -5.965) (layer F.Fab) (width 0.1))
  (fp_line (start 1.6 -5.965) (end -1.6 -5.965) (layer F.Fab) (width 0.1))
  (fp_line (start -1.6 -5.865) (end -0.533333 -5.865) (layer F.Fab) (width 0.1))
  (fp_line (start -1.6 -5.765) (end -0.533333 -5.765) (layer F.Fab) (width 0.1))
  (fp_line (start -1.6 -5.665) (end -0.533333 -5.665) (layer F.Fab) (width 0.1))
  (fp_line (start -1.6 -5.565) (end -0.533333 -5.565) (layer F.Fab) (width 0.1))
  (fp_line (start -0.533333 -5.965) (end -0.533333 -5.465) (layer F.Fab) (width 0.1))
  (fp_line (start -1.6 -4.695) (end -1.6 -4.195) (layer F.Fab) (width 0.1))
  (fp_line (start -1.6 -4.195) (end 1.6 -4.195) (layer F.Fab) (width 0.1))
  (fp_line (start 1.6 -4.195) (end 1.6 -4.695) (layer F.Fab) (width 0.1))
  (fp_line (start 1.6 -4.695) (end -1.6 -4.695) (layer F.Fab) (width 0.1))
  (fp_line (start -1.6 -4.595) (end -0.533333 -4.595) (layer F.Fab) (width 0.1))
  (fp_line (start -1.6 -4.495) (end -0.533333 -4.495) (layer F.Fab) (width 0.1))
  (fp_line (start -1.6 -4.395) (end -0.533333 -4.395) (layer F.Fab) (width 0.1))
  (fp_line (start -1.6 -4.295) (end -0.533333 -4.295) (layer F.Fab) (width 0.1))
  (fp_line (start -0.533333 -4.695) (end -0.533333 -4.195) (layer F.Fab) (width 0.1))
  (fp_line (start -1.6 -3.425) (end -1.6 -2.925) (layer F.Fab) (width 0.1))
  (fp_line (start -1.6 -2.925) (end 1.6 -2.925) (layer F.Fab) (width 0.1))
  (fp_line (start 1.6 -2.925) (end 1.6 -3.425) (layer F.Fab) (width 0.1))
  (fp_line (start 1.6 -3.425) (end -1.6 -3.425) (layer F.Fab) (width 0.1))
  (fp_line (start -1.6 -3.325) (end -0.533333 -3.325) (layer F.Fab) (width 0.1))
  (fp_line (start -1.6 -3.225) (end -0.533333 -3.225) (layer F.Fab) (width 0.1))
  (fp_line (start -1.6 -3.125) (end -0.533333 -3.125) (layer F.Fab) (width 0.1))
  (fp_line (start -1.6 -3.025) (end -0.533333 -3.025) (layer F.Fab) (width 0.1))
  (fp_line (start -0.533333 -3.425) (end -0.533333 -2.925) (layer F.Fab) (width 0.1))
  (fp_line (start -1.6 -2.155) (end -1.6 -1.655) (layer F.Fab) (width 0.1))
  (fp_line (start -1.6 -1.655) (end 1.6 -1.655) (layer F.Fab) (width 0.1))
  (fp_line (start 1.6 -1.655) (end 1.6 -2.155) (layer F.Fab) (width 0.1))
  (fp_line (start 1.6 -2.155) (end -1.6 -2.155) (layer F.Fab) (width 0.1))
  (fp_line (start -1.6 -2.055) (end -0.533333 -2.055) (layer F.Fab) (width 0.1))
  (fp_line (start -1.6 -1.955) (end -0.533333 -1.955) (layer F.Fab) (width 0.1))
  (fp_line (start -1.6 -1.855) (end -0.533333 -1.855) (layer F.Fab) (width 0.1))
  (fp_line (start -1.6 -1.755) (end -0.533333 -1.755) (layer F.Fab) (width 0.1))
  (fp_line (start -0.533333 -2.155) (end -0.533333 -1.655) (layer F.Fab) (width 0.1))
  (fp_line (start -1.6 -0.885) (end -1.6 -0.385) (layer F.Fab) (width 0.1))
  (fp_line (start -1.6 -0.385) (end 1.6 -0.385) (layer F.Fab) (width 0.1))
  (fp_line (start 1.6 -0.385) (end 1.6 -0.885) (layer F.Fab) (width 0.1))
  (fp_line (start 1.6 -0.885) (end -1.6 -0.885) (layer F.Fab) (width 0.1))
  (fp_line (start -1.6 -0.785) (end -0.533333 -0.785) (layer F.Fab) (width 0.1))
  (fp_line (start -1.6 -0.685) (end -0.533333 -0.685) (layer F.Fab) (width 0.1))
  (fp_line (start -1.6 -0.585) (end -0.533333 -0.585) (layer F.Fab) (width 0.1))
  (fp_line (start -1.6 -0.485) (end -0.533333 -0.485) (layer F.Fab) (width 0.1))
  (fp_line (start -1.6 -0.385) (end -0.533333 -0.385) (layer F.Fab) (width 0.1))
  (fp_line (start -0.533333 -0.885) (end -0.533333 -0.385) (layer F.Fab) (width 0.1))
  (fp_line (start -1.6 0.385) (end -1.6 0.885) (layer F.Fab) (width 0.1))
  (fp_line (start -1.6 0.885) (end 1.6 0.885) (layer F.Fab) (width 0.1))
  (fp_line (start 1.6 0.885) (end 1.6 0.385) (layer F.Fab) (width 0.1))
  (fp_line (start 1.6 0.385) (end -1.6 0.385) (layer F.Fab) (width 0.1))
  (fp_line (start -1.6 0.485) (end -0.533333 0.485) (layer F.Fab) (width 0.1))
  (fp_line (start -1.6 0.585) (end -0.533333 0.585) (layer F.Fab) (width 0.1))
  (fp_line (start -1.6 0.685) (end -0.533333 0.685) (layer F.Fab) (width 0.1))
  (fp_line (start -1.6 0.785) (end -0.533333 0.785) (layer F.Fab) (width 0.1))
  (fp_line (start -1.6 0.885) (end -0.533333 0.885) (layer F.Fab) (width 0.1))
  (fp_line (start -0.533333 0.385) (end -0.533333 0.885) (layer F.Fab) (width 0.1))
  (fp_line (start -1.6 1.655) (end -1.6 2.155) (layer F.Fab) (width 0.1))
  (fp_line (start -1.6 2.155) (end 1.6 2.155) (layer F.Fab) (width 0.1))
  (fp_line (start 1.6 2.155) (end 1.6 1.655) (layer F.Fab) (width 0.1))
  (fp_line (start 1.6 1.655) (end -1.6 1.655) (layer F.Fab) (width 0.1))
  (fp_line (start -1.6 1.755) (end -0.533333 1.755) (layer F.Fab) (width 0.1))
  (fp_line (start -1.6 1.855) (end -0.533333 1.855) (layer F.Fab) (width 0.1))
  (fp_line (start -1.6 1.955) (end -0.533333 1.955) (layer F.Fab) (width 0.1))
  (fp_line (start -1.6 2.055) (end -0.533333 2.055) (layer F.Fab) (width 0.1))
  (fp_line (start -1.6 2.155) (end -0.533333 2.155) (layer F.Fab) (width 0.1))
  (fp_line (start -0.533333 1.655) (end -0.533333 2.155) (layer F.Fab) (width 0.1))
  (fp_line (start -1.6 2.925) (end -1.6 3.425) (layer F.Fab) (width 0.1))
  (fp_line (start -1.6 3.425) (end 1.6 3.425) (layer F.Fab) (width 0.1))
  (fp_line (start 1.6 3.425) (end 1.6 2.925) (layer F.Fab) (width 0.1))
  (fp_line (start 1.6 2.925) (end -1.6 2.925) (layer F.Fab) (width 0.1))
  (fp_line (start -1.6 3.025) (end -0.533333 3.025) (layer F.Fab) (width 0.1))
  (fp_line (start -1.6 3.125) (end -0.533333 3.125) (layer F.Fab) (width 0.1))
  (fp_line (start -1.6 3.225) (end -0.533333 3.225) (layer F.Fab) (width 0.1))
  (fp_line (start -1.6 3.325) (end -0.533333 3.325) (layer F.Fab) (width 0.1))
  (fp_line (start -1.6 3.425) (end -0.533333 3.425) (layer F.Fab) (width 0.1))
  (fp_line (start -0.533333 2.925) (end -0.533333 3.425) (layer F.Fab) (width 0.1))
  (fp_line (start -1.6 4.195) (end -1.6 4.695) (layer F.Fab) (width 0.1))
  (fp_line (start -1.6 4.695) (end 1.6 4.695) (layer F.Fab) (width 0.1))
  (fp_line (start 1.6 4.695) (end 1.6 4.195) (layer F.Fab) (width 0.1))
  (fp_line (start 1.6 4.195) (end -1.6 4.195) (layer F.Fab) (width 0.1))
  (fp_line (start -1.6 4.295) (end -0.533333 4.295) (layer F.Fab) (width 0.1))
  (fp_line (start -1.6 4.395) (end -0.533333 4.395) (layer F.Fab) (width 0.1))
  (fp_line (start -1.6 4.495) (end -0.533333 4.495) (layer F.Fab) (width 0.1))
  (fp_line (start -1.6 4.595) (end -0.533333 4.595) (layer F.Fab) (width 0.1))
  (fp_line (start -1.6 4.695) (end -0.533333 4.695) (layer F.Fab) (width 0.1))
  (fp_line (start -0.533333 4.195) (end -0.533333 4.695) (layer F.Fab) (width 0.1))
  (fp_line (start -1.6 5.465) (end -1.6 5.965) (layer F.Fab) (width 0.1))
  (fp_line (start -1.6 5.965) (end 1.6 5.965) (layer F.Fab) (width 0.1))
  (fp_line (start 1.6 5.965) (end 1.6 5.465) (layer F.Fab) (width 0.1))
  (fp_line (start 1.6 5.465) (end -1.6 5.465) (layer F.Fab) (width 0.1))
  (fp_line (start -1.6 5.565) (end -0.533333 5.565) (layer F.Fab) (width 0.1))
  (fp_line (start -1.6 5.665) (end -0.533333 5.665) (layer F.Fab) (width 0.1))
  (fp_line (start -1.6 5.765) (end -0.533333 5.765) (layer F.Fab) (width 0.1))
  (fp_line (start -1.6 5.865) (end -0.533333 5.865) (layer F.Fab) (width 0.1))
  (fp_line (start -1.6 5.965) (end -0.533333 5.965) (layer F.Fab) (width 0.1))
  (fp_line (start -0.533333 5.465) (end -0.533333 5.965) (layer F.Fab) (width 0.1))
  (fp_line (start -2.309 7.045) (end 2.31 7.045) (layer F.SilkS) (width 0.12))
  (fp_line (start -3.7 -6.395) (end -2.309 -6.395) (layer F.SilkS) (width 0.12))
  (fp_line (start -2.309 -7.045) (end -2.309 -6.395) (layer F.SilkS) (width 0.12))
  (fp_line (start -2.309 -7.045) (end 2.31 -7.045) (layer F.SilkS) (width 0.12))
  (fp_line (start 2.31 -7.045) (end 2.31 -6.335) (layer F.SilkS) (width 0.12))
  (fp_line (start -2.309 6.335) (end -2.309 7.045) (layer F.SilkS) (width 0.12))
  (fp_line (start 2.31 6.335) (end 2.31 7.045) (layer F.SilkS) (width 0.12))
  (fp_line (start -3.95 -7.3) (end -3.95 7.3) (layer F.CrtYd) (width 0.05))
  (fp_line (start -3.95 7.3) (end 3.95 7.3) (layer F.CrtYd) (width 0.05))
  (fp_line (start 3.95 7.3) (end 3.95 -7.3) (layer F.CrtYd) (width 0.05))
  (fp_line (start 3.95 -7.3) (end -3.95 -7.3) (layer F.CrtYd) (width 0.05))
  (pad 1 smd rect (at -3.075 -5.715) (size 1.25 0.76) (layers F.Cu F.Mask F.Paste))
  (pad 11 smd rect (at 3.075 5.715) (size 1.25 0.76) (layers F.Cu F.Mask F.Paste))
  (pad 2 smd rect (at -3.075 -4.445) (size 1.25 0.76) (layers F.Cu F.Mask F.Paste))
  (pad 12 smd rect (at 3.075 4.445) (size 1.25 0.76) (layers F.Cu F.Mask F.Paste))
  (pad 3 smd rect (at -3.075 -3.175) (size 1.25 0.76) (layers F.Cu F.Mask F.Paste))
  (pad 13 smd rect (at 3.075 3.175) (size 1.25 0.76) (layers F.Cu F.Mask F.Paste))
  (pad 4 smd rect (at -3.075 -1.905) (size 1.25 0.76) (layers F.Cu F.Mask F.Paste))
  (pad 14 smd rect (at 3.075 1.905) (size 1.25 0.76) (layers F.Cu F.Mask F.Paste))
  (pad 5 smd rect (at -3.075 -0.635) (size 1.25 0.76) (layers F.Cu F.Mask F.Paste))
  (pad 15 smd rect (at 3.075 0.635) (size 1.25 0.76) (layers F.Cu F.Mask F.Paste))
  (pad 6 smd rect (at -3.075 0.635) (size 1.25 0.76) (layers F.Cu F.Mask F.Paste))
  (pad 16 smd rect (at 3.075 -0.635) (size 1.25 0.76) (layers F.Cu F.Mask F.Paste))
  (pad 7 smd rect (at -3.075 1.905) (size 1.25 0.76) (layers F.Cu F.Mask F.Paste))
  (pad 17 smd rect (at 3.075 -1.905) (size 1.25 0.76) (layers F.Cu F.Mask F.Paste))
  (pad 8 smd rect (at -3.075 3.175) (size 1.25 0.76) (layers F.Cu F.Mask F.Paste))
  (pad 18 smd rect (at 3.075 -3.175) (size 1.25 0.76) (layers F.Cu F.Mask F.Paste))
  (pad 9 smd rect (at -3.075 4.445) (size 1.25 0.76) (layers F.Cu F.Mask F.Paste))
  (pad 19 smd rect (at 3.075 -4.445) (size 1.25 0.76) (layers F.Cu F.Mask F.Paste))
  (pad 10 smd rect (at -3.075 5.715) (size 1.25 0.76) (layers F.Cu F.Mask F.Paste))
  (pad 20 smd rect (at 3.075 -5.715) (size 1.25 0.76) (layers F.Cu F.Mask F.Paste))
  (fp_text user %R (at 1.925 0 90) (layer F.Fab)
    (effects (font (size 0.455 0.455) (thickness 0.06825)))
  )
  (fp_text user on (at 0.3875 -6.475) (layer F.Fab)
    (effects (font (size 0.455 0.455) (thickness 0.06825)))
  )
  (model ${KIPRJMOD}/kicad_libs_k/models_k.3d/Button_Switch_SMD_k.3dshapes/SW_DIP_SPSTx10_Slide_Omron_A6H-10101_W6.15mm_P1.27mm_k.wrl
    (at (xyz 0 0 0))
    (scale (xyz 1 1 1))
    (rotate (xyz 0 0 0))
  )
)