(module SW_DIP_SPSTx01_Slide_Copal_CHS-01A_W5.08mm_P1.27mm_JPin (layer F.Cu) (tedit 5A4E1407)
  (descr "SMD 1x-dip-switch SPST Copal_CHS-01A, Slide, row spacing 5.08 mm (200 mils), body size  (see http://www.nidec-copal-electronics.com/e/catalog/switch/chs.pdf), SMD, JPin")
  (tags "SMD DIP Switch SPST Slide 5.08mm 200mil SMD JPin")
  (attr smd)
  (fp_text reference REF** (at 0 -2.33) (layer F.SilkS)
    (effects (font (size 1 1) (thickness 0.15)))
  )
  (fp_text value SW_DIP_SPSTx01_Slide_Copal_CHS-01A_W5.08mm_P1.27mm_JPin (at 0 2.33) (layer F.Fab)
    (effects (font (size 1 1) (thickness 0.15)))
  )
  (fp_line (start -1.7 -1.27) (end 2.7 -1.27) (layer F.Fab) (width 0.1))
  (fp_line (start 2.7 -1.27) (end 2.7 1.27) (layer F.Fab) (width 0.1))
  (fp_line (start 2.7 1.27) (end -2.7 1.27) (layer F.Fab) (width 0.1))
  (fp_line (start -2.7 1.27) (end -2.7 -0.27) (layer F.Fab) (width 0.1))
  (fp_line (start -2.7 -0.27) (end -1.7 -1.27) (layer F.Fab) (width 0.1))
  (fp_line (start -1.5 -0.25) (end -1.5 0.25) (layer F.Fab) (width 0.1))
  (fp_line (start -1.5 0.25) (end 1.5 0.25) (layer F.Fab) (width 0.1))
  (fp_line (start 1.5 0.25) (end 1.5 -0.25) (layer F.Fab) (width 0.1))
  (fp_line (start 1.5 -0.25) (end -1.5 -0.25) (layer F.Fab) (width 0.1))
  (fp_line (start -1.5 -0.15) (end -0.5 -0.15) (layer F.Fab) (width 0.1))
  (fp_line (start -1.5 -0.05) (end -0.5 -0.05) (layer F.Fab) (width 0.1))
  (fp_line (start -1.5 0.05) (end -0.5 0.05) (layer F.Fab) (width 0.1))
  (fp_line (start -1.5 0.15) (end -0.5 0.15) (layer F.Fab) (width 0.1))
  (fp_line (start -0.5 -0.25) (end -0.5 0.25) (layer F.Fab) (width 0.1))
  (fp_line (start -2.761 1.33) (end 2.76 1.33) (layer F.SilkS) (width 0.12))
  (fp_line (start -3.34 -0.68) (end -2.761 -0.68) (layer F.SilkS) (width 0.12))
  (fp_line (start -2.761 -1.33) (end -2.761 -0.68) (layer F.SilkS) (width 0.12))
  (fp_line (start -2.761 -1.33) (end 2.76 -1.33) (layer F.SilkS) (width 0.12))
  (fp_line (start 2.76 -1.33) (end 2.76 -0.62) (layer F.SilkS) (width 0.12))
  (fp_line (start -2.761 0.62) (end -2.761 1.33) (layer F.SilkS) (width 0.12))
  (fp_line (start 2.76 0.62) (end 2.76 1.33) (layer F.SilkS) (width 0.12))
  (fp_line (start -3.6 -1.6) (end -3.6 1.6) (layer F.CrtYd) (width 0.05))
  (fp_line (start -3.6 1.6) (end 3.6 1.6) (layer F.CrtYd) (width 0.05))
  (fp_line (start 3.6 1.6) (end 3.6 -1.6) (layer F.CrtYd) (width 0.05))
  (fp_line (start 3.6 -1.6) (end -3.6 -1.6) (layer F.CrtYd) (width 0.05))
  (pad 1 smd rect (at -2.54 0) (size 1.6 0.76) (layers F.Cu F.Mask F.Paste))
  (pad 2 smd rect (at 2.54 0) (size 1.6 0.76) (layers F.Cu F.Mask F.Paste))
  (fp_text user %R (at 2.1 0 90) (layer F.Fab)
    (effects (font (size 0.6 0.6) (thickness 0.09)))
  )
  (fp_text user on (at 0.83 -0.76) (layer F.Fab)
    (effects (font (size 0.6 0.6) (thickness 0.09)))
  )
  (model ${KIPRJMOD}/kicad_libs_k/models_k.3d/Button_Switch_SMD_k.3dshapes/SW_DIP_SPSTx01_Slide_Copal_CHS-01A_W5.08mm_P1.27mm_JPin_k.wrl
    (at (xyz 0 0 0))
    (scale (xyz 1 1 1))
    (rotate (xyz 0 0 0))
  )
)