(module SW_SPST_REED_CT05-XXXX-J1 (layer F.Cu) (tedit 5A02FC95)
  (descr "Coto Technologies SPST Reed Switch CT05-XXXX-J1")
  (tags "Coto Reed SPST Switch")
  (attr smd)
  (fp_text reference REF** (at 0 2.54) (layer F.SilkS)
    (effects (font (size 1 1) (thickness 0.15)))
  )
  (fp_text value SW_SPST_REED_CT05-XXXX-J1 (at 0 -2.54) (layer F.Fab)
    (effects (font (size 1 1) (thickness 0.15)))
  )
  (fp_text user %R (at 0 2.55) (layer F.Fab)
    (effects (font (size 1 1) (thickness 0.15)))
  )
  (fp_line (start -3.2 -1.15) (end 3.25 -1.15) (layer F.Fab) (width 0.1))
  (fp_line (start 3.25 -1.15) (end 3.25 1.15) (layer F.Fab) (width 0.1))
  (fp_line (start 3.25 1.15) (end -3.2 1.15) (layer F.Fab) (width 0.1))
  (fp_line (start -3.2 1.15) (end -3.2 -1.15) (layer F.Fab) (width 0.1))
  (fp_line (start 4.75 1.5) (end 4.75 -1.5) (layer F.CrtYd) (width 0.05))
  (fp_line (start 4.75 -1.5) (end -4.75 -1.5) (layer F.CrtYd) (width 0.05))
  (fp_line (start -4.75 -1.5) (end -4.75 1.5) (layer F.CrtYd) (width 0.05))
  (fp_line (start -4.75 1.5) (end 4.75 1.5) (layer F.CrtYd) (width 0.05))
  (fp_line (start -4.5 0.75) (end -4.5 1.25) (layer F.SilkS) (width 0.12))
  (fp_line (start -4.5 1.25) (end 4.5 1.25) (layer F.SilkS) (width 0.12))
  (fp_line (start 4.5 1.25) (end 4.5 0.75) (layer F.SilkS) (width 0.12))
  (fp_line (start 4.5 -0.75) (end 4.5 -1.25) (layer F.SilkS) (width 0.12))
  (fp_line (start 4.5 -1.25) (end -4.5 -1.25) (layer F.SilkS) (width 0.12))
  (fp_line (start -4.5 -1.25) (end -4.5 -0.75) (layer F.SilkS) (width 0.12))
  (pad 2 smd rect (at 3.08 0) (size 2.5 2) (layers F.Cu F.Paste F.Mask))
  (pad 1 smd rect (at -3.08 0) (size 2.5 2) (layers F.Cu F.Paste F.Mask))
  (model ${KIPRJMOD}/kicad_libs_k/models_k.3d/Button_Switch_SMD_k.3dshapes/SW_SPST_REED_CT05-XXXX-J1_k.wrl
    (at (xyz 0 0 0))
    (scale (xyz 1 1 1))
    (rotate (xyz 0 0 0))
  )
)
