(module SW_SPST_REED_CT10-XXXX-G4 (layer F.Cu) (tedit 5A02FC95)
  (descr "Coto Technologies SPST Reed Switch CT10-XXXX-G4")
  (tags "Coto Reed SPST Switch")
  (attr smd)
  (fp_text reference REF** (at 0 2.5) (layer F.SilkS)
    (effects (font (size 1 1) (thickness 0.15)))
  )
  (fp_text value SW_SPST_REED_CT10-XXXX-G4 (at 0 -2.3) (layer F.Fab)
    (effects (font (size 1 1) (thickness 0.15)))
  )
  (fp_text user %R (at 0 2.5) (layer F.Fab)
    (effects (font (size 1 1) (thickness 0.15)))
  )
  (fp_line (start -5.8 -1.2) (end 5.8 -1.2) (layer F.Fab) (width 0.1))
  (fp_line (start 5.8 -1.2) (end 5.8 1.2) (layer F.Fab) (width 0.1))
  (fp_line (start 5.8 1.2) (end -5.8 1.2) (layer F.Fab) (width 0.1))
  (fp_line (start -5.8 1.2) (end -5.8 -1.2) (layer F.Fab) (width 0.1))
  (fp_line (start -10.5 1.5) (end -10.5 -1.5) (layer F.CrtYd) (width 0.05))
  (fp_line (start 10.5 -1.5) (end 10.5 1.5) (layer F.CrtYd) (width 0.05))
  (fp_line (start -6.5 0.8) (end -6.5 1.3) (layer F.SilkS) (width 0.12))
  (fp_line (start -6.5 1.3) (end 6.5 1.3) (layer F.SilkS) (width 0.12))
  (fp_line (start 6.5 1.3) (end 6.5 0.8) (layer F.SilkS) (width 0.12))
  (fp_line (start 6.5 -1.3) (end -6.5 -1.3) (layer F.SilkS) (width 0.12))
  (fp_line (start -6.5 -1.3) (end -6.5 -0.8) (layer F.SilkS) (width 0.12))
  (fp_line (start 6.5 -0.8) (end 6.5 -1.3) (layer F.SilkS) (width 0.12))
  (fp_line (start 10.5 -1.5) (end -10.5 -1.5) (layer F.CrtYd) (width 0.05))
  (fp_line (start -10.5 1.5) (end 10.5 1.5) (layer F.CrtYd) (width 0.05))
  (pad 1 smd rect (at -9.22 0) (size 2 2) (layers F.Cu F.Paste F.Mask))
  (pad 2 smd rect (at 9.22 0) (size 2 2) (layers F.Cu F.Paste F.Mask))
  (model ${KIPRJMOD}/kicad_libs_k/models_k.3d/Button_Switch_SMD_k.3dshapes/SW_SPST_REED_CT10-XXXX-G4_k.wrl
    (at (xyz 0 0 0))
    (scale (xyz 1 1 1))
    (rotate (xyz 0 0 0))
  )
)
