(module SW_SPST_B3SL-1002P (layer F.Cu) (tedit 5A02FC95)
  (descr "Middle Stroke Tactile Switch, B3SL")
  (tags "Middle Stroke Tactile Switch")
  (attr smd)
  (fp_text reference REF** (at 0 -4.5) (layer F.SilkS)
    (effects (font (size 1 1) (thickness 0.15)))
  )
  (fp_text value SW_SPST_B3SL-1002P (at 0 4.75) (layer F.Fab)
    (effects (font (size 1 1) (thickness 0.15)))
  )
  (fp_text user %R (at 0 -4.5) (layer F.Fab)
    (effects (font (size 1 1) (thickness 0.15)))
  )
  (fp_circle (center 0 0) (end 1.25 0) (layer F.Fab) (width 0.1))
  (fp_line (start -4.5 3.65) (end 4.5 3.65) (layer F.CrtYd) (width 0.05))
  (fp_line (start 4.5 3.65) (end 4.5 -3.65) (layer F.CrtYd) (width 0.05))
  (fp_line (start 4.5 -3.65) (end -4.5 -3.65) (layer F.CrtYd) (width 0.05))
  (fp_line (start -4.5 -3.65) (end -4.5 3.65) (layer F.CrtYd) (width 0.05))
  (fp_line (start 3.25 2.75) (end 3.25 3.4) (layer F.SilkS) (width 0.12))
  (fp_line (start 3.25 3.4) (end -3.25 3.4) (layer F.SilkS) (width 0.12))
  (fp_line (start -3.25 3.4) (end -3.25 2.75) (layer F.SilkS) (width 0.12))
  (fp_line (start 3.25 -2.75) (end 3.25 -3.4) (layer F.SilkS) (width 0.12))
  (fp_line (start 3.25 -3.4) (end -3.25 -3.4) (layer F.SilkS) (width 0.12))
  (fp_line (start -3.25 -3.4) (end -3.25 -2.75) (layer F.SilkS) (width 0.12))
  (fp_line (start 3.25 -1.25) (end 3.25 1.25) (layer F.SilkS) (width 0.12))
  (fp_line (start -3.25 -1.25) (end -3.25 1.25) (layer F.SilkS) (width 0.12))
  (fp_line (start -3.1 -3.25) (end 3.1 -3.25) (layer F.Fab) (width 0.1))
  (fp_line (start 3.1 -3.25) (end 3.1 3.25) (layer F.Fab) (width 0.1))
  (fp_line (start 3.1 3.25) (end -3.1 3.25) (layer F.Fab) (width 0.1))
  (fp_line (start -3.1 3.25) (end -3.1 -3.25) (layer F.Fab) (width 0.1))
  (pad 1 smd rect (at -2.875 -2) (size 2.75 1) (layers F.Cu F.Paste F.Mask))
  (pad 1 smd rect (at 2.875 -2) (size 2.75 1) (layers F.Cu F.Paste F.Mask))
  (pad 2 smd rect (at 2.875 2) (size 2.75 1) (layers F.Cu F.Paste F.Mask))
  (pad 2 smd rect (at -2.875 2) (size 2.75 1) (layers F.Cu F.Paste F.Mask))
  (model ${KIPRJMOD}/kicad_libs_k/models_k.3d/Button_Switch_SMD_k.3dshapes/SW_SPST_B3SL-1002P_k.wrl
    (at (xyz 0 0 0))
    (scale (xyz 1 1 1))
    (rotate (xyz 0 0 0))
  )
)
