(module SW_SPST_B3U-3000P-B (layer F.Cu) (tedit 5A02FC95)
  (descr "Ultra-small-sized Tactile Switch with High Contact Reliability, Side-actuated Model, without Ground Terminal, with Boss")
  (tags "Tactile Switch")
  (attr smd)
  (fp_text reference REF** (at 0 -3.1) (layer F.SilkS)
    (effects (font (size 1 1) (thickness 0.15)))
  )
  (fp_text value SW_SPST_B3U-3000P-B (at 0 2.5) (layer F.Fab)
    (effects (font (size 1 1) (thickness 0.15)))
  )
  (fp_text user %R (at 0 -3.1) (layer F.Fab)
    (effects (font (size 1 1) (thickness 0.15)))
  )
  (fp_line (start -1.25 -1.65) (end -1.25 -2.35) (layer F.CrtYd) (width 0.05))
  (fp_line (start -1.25 -2.35) (end 1.25 -2.35) (layer F.CrtYd) (width 0.05))
  (fp_line (start 1.25 -2.35) (end 1.25 -1.65) (layer F.CrtYd) (width 0.05))
  (fp_line (start 1.25 -1.65) (end 2.4 -1.65) (layer F.CrtYd) (width 0.05))
  (fp_line (start -0.5 -2.1) (end -1 -1.72) (layer F.SilkS) (width 0.12))
  (fp_line (start -1 -1.72) (end -1 -1.4) (layer F.SilkS) (width 0.12))
  (fp_line (start -0.5 -2.1) (end 0.5 -2.1) (layer F.SilkS) (width 0.12))
  (fp_line (start 0.5 -2.1) (end 1 -1.72) (layer F.SilkS) (width 0.12))
  (fp_line (start 1 -1.72) (end 1 -1.4) (layer F.SilkS) (width 0.12))
  (fp_line (start -0.85 -1.25) (end -0.85 -1.65) (layer F.Fab) (width 0.1))
  (fp_line (start -0.85 -1.65) (end -0.45 -1.95) (layer F.Fab) (width 0.1))
  (fp_line (start -0.45 -1.95) (end 0.45 -1.95) (layer F.Fab) (width 0.1))
  (fp_line (start 0.45 -1.95) (end 0.85 -1.65) (layer F.Fab) (width 0.1))
  (fp_line (start 0.85 -1.65) (end 0.85 -1.25) (layer F.Fab) (width 0.1))
  (fp_line (start -1.65 1.4) (end 1.65 1.4) (layer F.SilkS) (width 0.12))
  (fp_line (start -2.4 1.65) (end 2.4 1.65) (layer F.CrtYd) (width 0.05))
  (fp_line (start 2.4 1.65) (end 2.4 -1.65) (layer F.CrtYd) (width 0.05))
  (fp_line (start -1.25 -1.65) (end -2.4 -1.65) (layer F.CrtYd) (width 0.05))
  (fp_line (start -2.4 -1.65) (end -2.4 1.65) (layer F.CrtYd) (width 0.05))
  (fp_line (start -1.65 1.1) (end -1.65 1.4) (layer F.SilkS) (width 0.12))
  (fp_line (start 1.65 1.4) (end 1.65 1.1) (layer F.SilkS) (width 0.12))
  (fp_line (start -1.65 -1.1) (end -1.65 -1.4) (layer F.SilkS) (width 0.12))
  (fp_line (start -1.65 -1.4) (end 1.65 -1.4) (layer F.SilkS) (width 0.12))
  (fp_line (start 1.65 -1.4) (end 1.65 -1.1) (layer F.SilkS) (width 0.12))
  (fp_line (start -1.5 -1.25) (end 1.5 -1.25) (layer F.Fab) (width 0.1))
  (fp_line (start 1.5 -1.25) (end 1.5 1.25) (layer F.Fab) (width 0.1))
  (fp_line (start 1.5 1.25) (end -1.5 1.25) (layer F.Fab) (width 0.1))
  (fp_line (start -1.5 1.25) (end -1.5 -1.25) (layer F.Fab) (width 0.1))
  (pad 1 smd rect (at -1.7 0) (size 0.9 1.7) (layers F.Cu F.Paste F.Mask))
  (pad 2 smd rect (at 1.7 0) (size 0.9 1.7) (layers F.Cu F.Paste F.Mask))
  (pad "" np_thru_hole circle (at 0 0) (size 0.8 0.8) (drill 0.8) (layers *.Cu *.Mask))
  (model ${KIPRJMOD}/kicad_libs_k/models_k.3d/Button_Switch_SMD_k.3dshapes/SW_SPST_B3U-3000P-B_k.wrl
    (at (xyz 0 0 0))
    (scale (xyz 1 1 1))
    (rotate (xyz 0 0 0))
  )
)
