(module SW_SPST_B3U-1100P (layer F.Cu) (tedit 5A02FC95)
  (descr "Ultra-small-sized Tactile Switch with High Contact Reliability, Top-actuated Model, with Ground Terminal, without Boss")
  (tags "Tactile Switch")
  (attr smd)
  (fp_text reference REF** (at 0 -3.3) (layer F.SilkS)
    (effects (font (size 1 1) (thickness 0.15)))
  )
  (fp_text value SW_SPST_B3U-1100P (at 0 2.67) (layer F.Fab)
    (effects (font (size 1 1) (thickness 0.15)))
  )
  (fp_text user %R (at 0 -3.3) (layer F.Fab)
    (effects (font (size 1 1) (thickness 0.15)))
  )
  (fp_line (start -0.65 0.82) (end -0.65 1.63) (layer F.CrtYd) (width 0.05))
  (fp_line (start -0.65 1.63) (end 0.65 1.63) (layer F.CrtYd) (width 0.05))
  (fp_line (start 0.65 1.63) (end 0.65 0.82) (layer F.CrtYd) (width 0.05))
  (fp_line (start 0.65 0.82) (end 2.4 0.82) (layer F.CrtYd) (width 0.05))
  (fp_line (start -1.65 0.57) (end -0.65 0.57) (layer F.SilkS) (width 0.12))
  (fp_line (start -2.4 0.82) (end -0.65 0.82) (layer F.CrtYd) (width 0.05))
  (fp_line (start 2.4 0.82) (end 2.4 -2.47) (layer F.CrtYd) (width 0.05))
  (fp_line (start 2.4 -2.47) (end -2.4 -2.47) (layer F.CrtYd) (width 0.05))
  (fp_line (start -2.4 -2.47) (end -2.4 0.82) (layer F.CrtYd) (width 0.05))
  (fp_line (start -1.65 0.28) (end -1.65 0.57) (layer F.SilkS) (width 0.12))
  (fp_line (start 1.65 0.57) (end 0.65 0.57) (layer F.SilkS) (width 0.12))
  (fp_line (start 1.65 0.57) (end 1.65 0.28) (layer F.SilkS) (width 0.12))
  (fp_line (start -1.65 -1.93) (end -1.65 -2.22) (layer F.SilkS) (width 0.12))
  (fp_line (start -1.65 -2.22) (end 1.65 -2.22) (layer F.SilkS) (width 0.12))
  (fp_line (start 1.65 -2.22) (end 1.65 -1.93) (layer F.SilkS) (width 0.12))
  (fp_line (start -1.5 -2.08) (end 1.5 -2.08) (layer F.Fab) (width 0.1))
  (fp_line (start 1.5 -2.08) (end 1.5 0.43) (layer F.Fab) (width 0.1))
  (fp_line (start 1.5 0.43) (end -1.5 0.43) (layer F.Fab) (width 0.1))
  (fp_line (start -1.5 0.43) (end -1.5 -2.08) (layer F.Fab) (width 0.1))
  (fp_circle (center 0 -0.82) (end 0.75 -0.82) (layer F.Fab) (width 0.1))
  (pad 1 smd rect (at -1.7 -0.82) (size 0.9 1.7) (layers F.Cu F.Paste F.Mask))
  (pad 2 smd rect (at 1.7 -0.82) (size 0.9 1.7) (layers F.Cu F.Paste F.Mask))
  (pad 3 smd rect (at 0 0.82) (size 0.8 1.1) (layers F.Cu F.Paste F.Mask))
  (model ${KIPRJMOD}/kicad_libs_k/models_k.3d/Button_Switch_SMD_k.3dshapes/SW_SPST_B3U-1100P_k.wrl
    (at (xyz 0 0 0))
    (scale (xyz 1 1 1))
    (rotate (xyz 0 0 0))
  )
)
