(module SW_SPST_EVQPE1 (layer F.Cu) (tedit 5A02FC95)
  (descr "Light Touch Switch, https://industrial.panasonic.com/cdbs/www-data/pdf/ATK0000/ATK0000CE7.pdf")
  (attr smd)
  (fp_text reference REF** (at 0 -2.65) (layer F.SilkS)
    (effects (font (size 1 1) (thickness 0.15)))
  )
  (fp_text value SW_SPST_EVQPE1 (at 0 3) (layer F.Fab)
    (effects (font (size 1 1) (thickness 0.15)))
  )
  (fp_text user %R (at 0 -2.65) (layer F.Fab)
    (effects (font (size 1 1) (thickness 0.15)))
  )
  (fp_line (start 3 -1.75) (end 3 1.75) (layer F.Fab) (width 0.1))
  (fp_line (start 3 1.75) (end -3 1.75) (layer F.Fab) (width 0.1))
  (fp_line (start -3 1.75) (end -3 -1.75) (layer F.Fab) (width 0.1))
  (fp_line (start -3 -1.75) (end 3 -1.75) (layer F.Fab) (width 0.1))
  (fp_line (start -1.4 -0.7) (end 1.4 -0.7) (layer F.Fab) (width 0.1))
  (fp_line (start 1.4 -0.7) (end 1.4 0.7) (layer F.Fab) (width 0.1))
  (fp_line (start 1.4 0.7) (end -1.4 0.7) (layer F.Fab) (width 0.1))
  (fp_line (start -1.4 0.7) (end -1.4 -0.7) (layer F.Fab) (width 0.1))
  (fp_line (start -3.95 -2) (end 3.95 -2) (layer F.CrtYd) (width 0.05))
  (fp_line (start 3.95 -2) (end 3.95 2) (layer F.CrtYd) (width 0.05))
  (fp_line (start 3.95 2) (end -3.95 2) (layer F.CrtYd) (width 0.05))
  (fp_line (start -3.95 2) (end -3.95 -2) (layer F.CrtYd) (width 0.05))
  (fp_line (start 3.1 -1.85) (end 3.1 -1.2) (layer F.SilkS) (width 0.12))
  (fp_line (start 3.1 1.85) (end 3.1 1.2) (layer F.SilkS) (width 0.12))
  (fp_line (start -3.1 1.2) (end -3.1 1.85) (layer F.SilkS) (width 0.12))
  (fp_line (start -3.1 -1.85) (end -3.1 -1.2) (layer F.SilkS) (width 0.12))
  (fp_line (start 3.1 -1.85) (end -3.1 -1.85) (layer F.SilkS) (width 0.12))
  (fp_line (start -3.1 1.85) (end 3.1 1.85) (layer F.SilkS) (width 0.12))
  (pad 2 smd rect (at 2.7 0) (size 2 1.6) (layers F.Cu F.Paste F.Mask))
  (pad 1 smd rect (at -2.7 0) (size 2 1.6) (layers F.Cu F.Paste F.Mask))
  (model ${KIPRJMOD}/kicad_libs_k/models_k.3d/Button_Switch_SMD_k.3dshapes/SW_SPST_EVQPE1_k.wrl
    (at (xyz 0 0 0))
    (scale (xyz 1 1 1))
    (rotate (xyz 0 0 0))
  )
)
