(module SW_SPST_SKQG_WithStem (layer F.Cu) (tedit 5ABAB6AF)
  (descr "ALPS 5.2mm Square Low-profile Type (Surface Mount) SKQG Series, With stem, http://www.alps.com/prod/info/E/HTML/Tact/SurfaceMount/SKQG/SKQGAFE010.html")
  (tags "SPST Button Switch")
  (attr smd)
  (fp_text reference REF** (at 0 -3.6) (layer F.SilkS)
    (effects (font (size 1 1) (thickness 0.15)))
  )
  (fp_text value SW_SPST_SKQG_WithStem (at 0 3.6) (layer F.Fab)
    (effects (font (size 1 1) (thickness 0.15)))
  )
  (fp_line (start 1.4 -2.6) (end 2.6 -1.4) (layer F.Fab) (width 0.1))
  (fp_line (start 2.6 -1.4) (end 2.6 1.4) (layer F.Fab) (width 0.1))
  (fp_line (start 2.6 1.4) (end 1.4 2.6) (layer F.Fab) (width 0.1))
  (fp_line (start 1.4 2.6) (end -1.4 2.6) (layer F.Fab) (width 0.1))
  (fp_line (start -1.4 2.6) (end -2.6 1.4) (layer F.Fab) (width 0.1))
  (fp_line (start -2.6 1.4) (end -2.6 -1.4) (layer F.Fab) (width 0.1))
  (fp_line (start -2.6 -1.4) (end -1.4 -2.6) (layer F.Fab) (width 0.1))
  (fp_line (start -1.4 -2.6) (end 1.4 -2.6) (layer F.Fab) (width 0.1))
  (fp_line (start -4.25 -2.85) (end -4.25 2.85) (layer F.CrtYd) (width 0.05))
  (fp_line (start 4.25 -2.85) (end -4.25 -2.85) (layer F.CrtYd) (width 0.05))
  (fp_line (start 4.25 2.85) (end 4.25 -2.85) (layer F.CrtYd) (width 0.05))
  (fp_line (start -4.25 2.85) (end 4.25 2.85) (layer F.CrtYd) (width 0.05))
  (fp_line (start -0.95 -1.865) (end 0.95 -1.865) (layer F.Fab) (width 0.1))
  (fp_line (start -1.865 0.95) (end -1.865 -0.95) (layer F.Fab) (width 0.1))
  (fp_line (start 0.95 1.865) (end -0.95 1.865) (layer F.Fab) (width 0.1))
  (fp_line (start 1.865 -0.95) (end 1.865 0.95) (layer F.Fab) (width 0.1))
  (fp_line (start -2.72 1.04) (end -2.72 -1.04) (layer F.SilkS) (width 0.12))
  (fp_line (start 1.45 -2.72) (end 1.94 -2.23) (layer F.SilkS) (width 0.12))
  (fp_circle (center 0 0) (end 1 0) (layer F.Fab) (width 0.1))
  (fp_line (start 2.72 1.04) (end 2.72 -1.04) (layer F.SilkS) (width 0.12))
  (fp_line (start -1.45 -2.72) (end -1.94 -2.23) (layer F.SilkS) (width 0.12))
  (fp_line (start -1.45 -2.72) (end 1.45 -2.72) (layer F.SilkS) (width 0.12))
  (fp_text user %R (at 0 0) (layer F.Fab)
    (effects (font (size 0.4 0.4) (thickness 0.06)))
  )
  (fp_line (start -1.45 2.72) (end -1.94 2.23) (layer F.SilkS) (width 0.12))
  (fp_line (start -1.45 2.72) (end 1.45 2.72) (layer F.SilkS) (width 0.12))
  (fp_line (start 1.45 2.72) (end 1.94 2.23) (layer F.SilkS) (width 0.12))
  (fp_line (start 0.95 1.865) (end 1.865 0.95) (layer F.Fab) (width 0.1))
  (fp_line (start -0.95 1.865) (end -1.865 0.95) (layer F.Fab) (width 0.1))
  (fp_line (start -0.95 -1.865) (end -1.865 -0.95) (layer F.Fab) (width 0.1))
  (fp_line (start 0.95 -1.865) (end 1.865 -0.95) (layer F.Fab) (width 0.1))
  (fp_line (start 4 -1.3) (end 4 1.3) (layer Dwgs.User) (width 0.05))
  (fp_line (start 4 1.3) (end 1 1.3) (layer Dwgs.User) (width 0.05))
  (fp_line (start 1 1.3) (end 1 -1.3) (layer Dwgs.User) (width 0.05))
  (fp_line (start 1 -1.3) (end 4 -1.3) (layer Dwgs.User) (width 0.05))
  (fp_line (start 1 -0.3) (end 2 -1.3) (layer Dwgs.User) (width 0.05))
  (fp_line (start 1 0.7) (end 3 -1.3) (layer Dwgs.User) (width 0.05))
  (fp_line (start 4 -1.3) (end 1.4 1.3) (layer Dwgs.User) (width 0.05))
  (fp_line (start 2.4 1.3) (end 4 -0.3) (layer Dwgs.User) (width 0.05))
  (fp_line (start 4 0.7) (end 3.4 1.3) (layer Dwgs.User) (width 0.05))
  (fp_line (start -1 0.7) (end -1.6 1.3) (layer Dwgs.User) (width 0.05))
  (fp_line (start -4 1.3) (end -4 -1.3) (layer Dwgs.User) (width 0.05))
  (fp_line (start -4 0.7) (end -2 -1.3) (layer Dwgs.User) (width 0.05))
  (fp_line (start -1 1.3) (end -4 1.3) (layer Dwgs.User) (width 0.05))
  (fp_line (start -4 -1.3) (end -1 -1.3) (layer Dwgs.User) (width 0.05))
  (fp_line (start -1 -1.3) (end -3.6 1.3) (layer Dwgs.User) (width 0.05))
  (fp_line (start -2.6 1.3) (end -1 -0.3) (layer Dwgs.User) (width 0.05))
  (fp_line (start -4 -0.3) (end -3 -1.3) (layer Dwgs.User) (width 0.05))
  (fp_line (start -1 -1.3) (end -1 1.3) (layer Dwgs.User) (width 0.05))
  (fp_text user "No F.Cu tracks" (at 2.5 0.2) (layer Cmts.User)
    (effects (font (size 0.2 0.2) (thickness 0.03)))
  )
  (fp_text user "KEEP-OUT ZONE" (at 2.5 -0.2) (layer Cmts.User)
    (effects (font (size 0.2 0.2) (thickness 0.03)))
  )
  (fp_text user "KEEP-OUT ZONE" (at -2.5 -0.2) (layer Cmts.User)
    (effects (font (size 0.2 0.2) (thickness 0.03)))
  )
  (fp_text user "No F.Cu tracks" (at -2.5 0.2) (layer Cmts.User)
    (effects (font (size 0.2 0.2) (thickness 0.03)))
  )
  (pad 1 smd rect (at -3.1 -1.85) (size 1.8 1.1) (layers F.Cu F.Paste F.Mask))
  (pad 1 smd rect (at 3.1 -1.85) (size 1.8 1.1) (layers F.Cu F.Paste F.Mask))
  (pad 2 smd rect (at -3.1 1.85) (size 1.8 1.1) (layers F.Cu F.Paste F.Mask))
  (pad 2 smd rect (at 3.1 1.85) (size 1.8 1.1) (layers F.Cu F.Paste F.Mask))
  (model ${KIPRJMOD}/kicad_libs_k/models_k.3d/Button_Switch_SMD_k.3dshapes/SW_SPST_SKQG_WithStem_k.wrl
    (at (xyz 0 0 0))
    (scale (xyz 1 1 1))
    (rotate (xyz 0 0 0))
  )
)
