(module SW_SPST_TL3305A (layer F.Cu) (tedit 5ABC3A97)
  (descr https://www.e-switch.com/system/asset/product_line/data_sheet/213/TL3305.pdf)
  (tags "TL3305 Series Tact Switch")
  (attr smd)
  (fp_text reference REF** (at 0 -3.2) (layer F.SilkS)
    (effects (font (size 1 1) (thickness 0.15)))
  )
  (fp_text value SW_SPST_TL3305A (at 0 3.2) (layer F.Fab)
    (effects (font (size 1 1) (thickness 0.15)))
  )
  (fp_line (start -3 1.15) (end -3 1.85) (layer F.Fab) (width 0.1))
  (fp_line (start -3 -1.85) (end -3 -1.15) (layer F.Fab) (width 0.1))
  (fp_line (start 3 1.15) (end 3 1.85) (layer F.Fab) (width 0.1))
  (fp_line (start 3 -1.85) (end 3 -1.15) (layer F.Fab) (width 0.1))
  (fp_line (start -3.75 1.85) (end -2.25 1.85) (layer F.Fab) (width 0.1))
  (fp_line (start -3.75 1.15) (end -3.75 1.85) (layer F.Fab) (width 0.1))
  (fp_line (start -2.25 1.15) (end -3.75 1.15) (layer F.Fab) (width 0.1))
  (fp_line (start -3.75 -1.15) (end -2.25 -1.15) (layer F.Fab) (width 0.1))
  (fp_line (start -3.75 -1.85) (end -3.75 -1.15) (layer F.Fab) (width 0.1))
  (fp_line (start -2.25 -1.85) (end -3.75 -1.85) (layer F.Fab) (width 0.1))
  (fp_line (start 3.75 1.85) (end 2.25 1.85) (layer F.Fab) (width 0.1))
  (fp_line (start 3.75 1.15) (end 3.75 1.85) (layer F.Fab) (width 0.1))
  (fp_line (start 2.25 1.15) (end 3.75 1.15) (layer F.Fab) (width 0.1))
  (fp_line (start 3.75 -1.85) (end 2.25 -1.85) (layer F.Fab) (width 0.1))
  (fp_line (start 3.75 -1.15) (end 3.75 -1.85) (layer F.Fab) (width 0.1))
  (fp_line (start 2.25 -1.15) (end 3.75 -1.15) (layer F.Fab) (width 0.1))
  (fp_circle (center 0 0) (end 1.25 0) (layer F.Fab) (width 0.1))
  (fp_line (start -2.25 2.25) (end -2.25 -2.25) (layer F.Fab) (width 0.1))
  (fp_line (start 2.25 2.25) (end -2.25 2.25) (layer F.Fab) (width 0.1))
  (fp_line (start 2.25 -2.25) (end 2.25 2.25) (layer F.Fab) (width 0.1))
  (fp_line (start -2.25 -2.25) (end 2.25 -2.25) (layer F.Fab) (width 0.1))
  (fp_text user %R (at 0 0) (layer F.Fab)
    (effects (font (size 0.5 0.5) (thickness 0.075)))
  )
  (fp_line (start -2.37 -2.37) (end 2.37 -2.37) (layer F.SilkS) (width 0.12))
  (fp_line (start -2.37 -2.37) (end -2.37 -1.97) (layer F.SilkS) (width 0.12))
  (fp_line (start 2.37 -2.37) (end 2.37 -1.97) (layer F.SilkS) (width 0.12))
  (fp_line (start -2.37 2.37) (end -2.37 1.97) (layer F.SilkS) (width 0.12))
  (fp_line (start -2.37 2.37) (end 2.37 2.37) (layer F.SilkS) (width 0.12))
  (fp_line (start 2.37 2.37) (end 2.37 1.97) (layer F.SilkS) (width 0.12))
  (fp_line (start 2.37 1.03) (end 2.37 -1.03) (layer F.SilkS) (width 0.12))
  (fp_line (start -2.37 1.03) (end -2.37 -1.03) (layer F.SilkS) (width 0.12))
  (fp_line (start 4.65 -2.5) (end 4.65 2.5) (layer F.CrtYd) (width 0.05))
  (fp_line (start 4.65 2.5) (end -4.65 2.5) (layer F.CrtYd) (width 0.05))
  (fp_line (start -4.65 2.5) (end -4.65 -2.5) (layer F.CrtYd) (width 0.05))
  (fp_line (start -4.65 -2.5) (end 4.65 -2.5) (layer F.CrtYd) (width 0.05))
  (pad 1 smd rect (at 3.6 -1.5) (size 1.6 1.4) (layers F.Cu F.Paste F.Mask))
  (pad 1 smd rect (at -3.6 -1.5) (size 1.6 1.4) (layers F.Cu F.Paste F.Mask))
  (pad 2 smd rect (at 3.6 1.5) (size 1.6 1.4) (layers F.Cu F.Paste F.Mask))
  (pad 2 smd rect (at -3.6 1.5) (size 1.6 1.4) (layers F.Cu F.Paste F.Mask))
  (model ${KIPRJMOD}/kicad_libs_k/models_k.3d/Button_Switch_SMD_k.3dshapes/SW_SPST_TL3305A_k.wrl
    (at (xyz 0 0 0))
    (scale (xyz 1 1 1))
    (rotate (xyz 0 0 0))
  )
)
