(module PinHeader_1x16_P1.00mm_Vertical (layer F.Cu) (tedit 59FED738)
  (descr "Through hole straight pin header, 1x16, 1.00mm pitch, single row")
  (tags "Through hole pin header THT 1x16 1.00mm single row")
  (fp_text reference REF** (at 0 -1.56) (layer F.SilkS)
    (effects (font (size 1 1) (thickness 0.15)))
  )
  (fp_text value PinHeader_1x16_P1.00mm_Vertical (at 0 16.56) (layer F.Fab)
    (effects (font (size 1 1) (thickness 0.15)))
  )
  (fp_line (start -0.3175 -0.5) (end 0.635 -0.5) (layer F.Fab) (width 0.1))
  (fp_line (start 0.635 -0.5) (end 0.635 15.5) (layer F.Fab) (width 0.1))
  (fp_line (start 0.635 15.5) (end -0.635 15.5) (layer F.Fab) (width 0.1))
  (fp_line (start -0.635 15.5) (end -0.635 -0.1825) (layer F.Fab) (width 0.1))
  (fp_line (start -0.635 -0.1825) (end -0.3175 -0.5) (layer F.Fab) (width 0.1))
  (fp_line (start -0.695 15.56) (end -0.394493 15.56) (layer F.SilkS) (width 0.12))
  (fp_line (start 0.394493 15.56) (end 0.695 15.56) (layer F.SilkS) (width 0.12))
  (fp_line (start -0.695 0.685) (end -0.695 15.56) (layer F.SilkS) (width 0.12))
  (fp_line (start 0.695 0.685) (end 0.695 15.56) (layer F.SilkS) (width 0.12))
  (fp_line (start -0.695 0.685) (end -0.608276 0.685) (layer F.SilkS) (width 0.12))
  (fp_line (start 0.608276 0.685) (end 0.695 0.685) (layer F.SilkS) (width 0.12))
  (fp_line (start -0.695 0) (end -0.695 -0.685) (layer F.SilkS) (width 0.12))
  (fp_line (start -0.695 -0.685) (end 0 -0.685) (layer F.SilkS) (width 0.12))
  (fp_line (start -1.15 -1) (end -1.15 16) (layer F.CrtYd) (width 0.05))
  (fp_line (start -1.15 16) (end 1.15 16) (layer F.CrtYd) (width 0.05))
  (fp_line (start 1.15 16) (end 1.15 -1) (layer F.CrtYd) (width 0.05))
  (fp_line (start 1.15 -1) (end -1.15 -1) (layer F.CrtYd) (width 0.05))
  (pad 1 thru_hole rect (at 0 0) (size 0.85 0.85) (drill 0.5) (layers *.Cu *.Mask))
  (pad 2 thru_hole oval (at 0 1) (size 0.85 0.85) (drill 0.5) (layers *.Cu *.Mask))
  (pad 3 thru_hole oval (at 0 2) (size 0.85 0.85) (drill 0.5) (layers *.Cu *.Mask))
  (pad 4 thru_hole oval (at 0 3) (size 0.85 0.85) (drill 0.5) (layers *.Cu *.Mask))
  (pad 5 thru_hole oval (at 0 4) (size 0.85 0.85) (drill 0.5) (layers *.Cu *.Mask))
  (pad 6 thru_hole oval (at 0 5) (size 0.85 0.85) (drill 0.5) (layers *.Cu *.Mask))
  (pad 7 thru_hole oval (at 0 6) (size 0.85 0.85) (drill 0.5) (layers *.Cu *.Mask))
  (pad 8 thru_hole oval (at 0 7) (size 0.85 0.85) (drill 0.5) (layers *.Cu *.Mask))
  (pad 9 thru_hole oval (at 0 8) (size 0.85 0.85) (drill 0.5) (layers *.Cu *.Mask))
  (pad 10 thru_hole oval (at 0 9) (size 0.85 0.85) (drill 0.5) (layers *.Cu *.Mask))
  (pad 11 thru_hole oval (at 0 10) (size 0.85 0.85) (drill 0.5) (layers *.Cu *.Mask))
  (pad 12 thru_hole oval (at 0 11) (size 0.85 0.85) (drill 0.5) (layers *.Cu *.Mask))
  (pad 13 thru_hole oval (at 0 12) (size 0.85 0.85) (drill 0.5) (layers *.Cu *.Mask))
  (pad 14 thru_hole oval (at 0 13) (size 0.85 0.85) (drill 0.5) (layers *.Cu *.Mask))
  (pad 15 thru_hole oval (at 0 14) (size 0.85 0.85) (drill 0.5) (layers *.Cu *.Mask))
  (pad 16 thru_hole oval (at 0 15) (size 0.85 0.85) (drill 0.5) (layers *.Cu *.Mask))
  (fp_text user %R (at 0 7.5 90) (layer F.Fab)
    (effects (font (size 0.76 0.76) (thickness 0.11399999999999999)))
  )
  (model ${KIPRJMOD}/kicad_libs_k/models_k.3d/Connector_PinHeader_1.00mm_k.3dshapes/PinHeader_1x16_P1.00mm_Vertical_k.wrl
    (at (xyz 0 0 0))
    (scale (xyz 1 1 1))
    (rotate (xyz 0 0 0))
  )
)