(module PinHeader_1x03_P1.00mm_Horizontal (layer F.Cu) (tedit 59FED737)
  (descr "Through hole angled pin header, 1x03, 1.00mm pitch, 2.0mm pin length, single row")
  (tags "Through hole angled pin header THT 1x03 1.00mm single row")
  (fp_text reference REF** (at 1.375 -1.5) (layer F.SilkS)
    (effects (font (size 1 1) (thickness 0.15)))
  )
  (fp_text value PinHeader_1x03_P1.00mm_Horizontal (at 1.375 3.5) (layer F.Fab)
    (effects (font (size 1 1) (thickness 0.15)))
  )
  (fp_line (start 0.5 -0.5) (end 1.25 -0.5) (layer F.Fab) (width 0.1))
  (fp_line (start 1.25 -0.5) (end 1.25 2.5) (layer F.Fab) (width 0.1))
  (fp_line (start 1.25 2.5) (end 0.25 2.5) (layer F.Fab) (width 0.1))
  (fp_line (start 0.25 2.5) (end 0.25 -0.25) (layer F.Fab) (width 0.1))
  (fp_line (start 0.25 -0.25) (end 0.5 -0.5) (layer F.Fab) (width 0.1))
  (fp_line (start -0.15 -0.15) (end 0.25 -0.15) (layer F.Fab) (width 0.1))
  (fp_line (start -0.15 -0.15) (end -0.15 0.15) (layer F.Fab) (width 0.1))
  (fp_line (start -0.15 0.15) (end 0.25 0.15) (layer F.Fab) (width 0.1))
  (fp_line (start 1.25 -0.15) (end 3.25 -0.15) (layer F.Fab) (width 0.1))
  (fp_line (start 3.25 -0.15) (end 3.25 0.15) (layer F.Fab) (width 0.1))
  (fp_line (start 1.25 0.15) (end 3.25 0.15) (layer F.Fab) (width 0.1))
  (fp_line (start -0.15 0.85) (end 0.25 0.85) (layer F.Fab) (width 0.1))
  (fp_line (start -0.15 0.85) (end -0.15 1.15) (layer F.Fab) (width 0.1))
  (fp_line (start -0.15 1.15) (end 0.25 1.15) (layer F.Fab) (width 0.1))
  (fp_line (start 1.25 0.85) (end 3.25 0.85) (layer F.Fab) (width 0.1))
  (fp_line (start 3.25 0.85) (end 3.25 1.15) (layer F.Fab) (width 0.1))
  (fp_line (start 1.25 1.15) (end 3.25 1.15) (layer F.Fab) (width 0.1))
  (fp_line (start -0.15 1.85) (end 0.25 1.85) (layer F.Fab) (width 0.1))
  (fp_line (start -0.15 1.85) (end -0.15 2.15) (layer F.Fab) (width 0.1))
  (fp_line (start -0.15 2.15) (end 0.25 2.15) (layer F.Fab) (width 0.1))
  (fp_line (start 1.25 1.85) (end 3.25 1.85) (layer F.Fab) (width 0.1))
  (fp_line (start 3.25 1.85) (end 3.25 2.15) (layer F.Fab) (width 0.1))
  (fp_line (start 1.25 2.15) (end 3.25 2.15) (layer F.Fab) (width 0.1))
  (fp_line (start 0.685 -0.56) (end 1.31 -0.56) (layer F.SilkS) (width 0.12))
  (fp_line (start 1.31 -0.56) (end 1.31 2.56) (layer F.SilkS) (width 0.12))
  (fp_line (start 1.31 2.56) (end 0.394493 2.56) (layer F.SilkS) (width 0.12))
  (fp_line (start 1.31 -0.21) (end 3.31 -0.21) (layer F.SilkS) (width 0.12))
  (fp_line (start 3.31 -0.21) (end 3.31 0.21) (layer F.SilkS) (width 0.12))
  (fp_line (start 3.31 0.21) (end 1.31 0.21) (layer F.SilkS) (width 0.12))
  (fp_line (start 1.31 -0.15) (end 3.31 -0.15) (layer F.SilkS) (width 0.12))
  (fp_line (start 1.31 -0.03) (end 3.31 -0.03) (layer F.SilkS) (width 0.12))
  (fp_line (start 1.31 0.09) (end 3.31 0.09) (layer F.SilkS) (width 0.12))
  (fp_line (start 0.685 0.5) (end 1.31 0.5) (layer F.SilkS) (width 0.12))
  (fp_line (start 1.31 0.79) (end 3.31 0.79) (layer F.SilkS) (width 0.12))
  (fp_line (start 3.31 0.79) (end 3.31 1.21) (layer F.SilkS) (width 0.12))
  (fp_line (start 3.31 1.21) (end 1.31 1.21) (layer F.SilkS) (width 0.12))
  (fp_line (start 0.468215 1.5) (end 1.31 1.5) (layer F.SilkS) (width 0.12))
  (fp_line (start 1.31 1.79) (end 3.31 1.79) (layer F.SilkS) (width 0.12))
  (fp_line (start 3.31 1.79) (end 3.31 2.21) (layer F.SilkS) (width 0.12))
  (fp_line (start 3.31 2.21) (end 1.31 2.21) (layer F.SilkS) (width 0.12))
  (fp_line (start -0.685 0) (end -0.685 -0.685) (layer F.SilkS) (width 0.12))
  (fp_line (start -0.685 -0.685) (end 0 -0.685) (layer F.SilkS) (width 0.12))
  (fp_line (start -1 -1) (end -1 3) (layer F.CrtYd) (width 0.05))
  (fp_line (start -1 3) (end 3.75 3) (layer F.CrtYd) (width 0.05))
  (fp_line (start 3.75 3) (end 3.75 -1) (layer F.CrtYd) (width 0.05))
  (fp_line (start 3.75 -1) (end -1 -1) (layer F.CrtYd) (width 0.05))
  (pad 1 thru_hole rect (at 0 0) (size 0.85 0.85) (drill 0.5) (layers *.Cu *.Mask))
  (pad 2 thru_hole oval (at 0 1) (size 0.85 0.85) (drill 0.5) (layers *.Cu *.Mask))
  (pad 3 thru_hole oval (at 0 2) (size 0.85 0.85) (drill 0.5) (layers *.Cu *.Mask))
  (fp_text user %R (at 0.75 1 90) (layer F.Fab)
    (effects (font (size 0.6 0.6) (thickness 0.09)))
  )
  (model ${KIPRJMOD}/kicad_libs_k/models_k.3d/Connector_PinHeader_1.00mm_k.3dshapes/PinHeader_1x03_P1.00mm_Horizontal_k.wrl
    (at (xyz 0 0 0))
    (scale (xyz 1 1 1))
    (rotate (xyz 0 0 0))
  )
)