(module PinHeader_1x05_P1.00mm_Vertical_SMD_Pin1Right (layer F.Cu) (tedit 59FED738)
  (descr "surface-mounted straight pin header, 1x05, 1.00mm pitch, single row, style 2 (pin 1 right)")
  (tags "Surface mounted pin header SMD 1x05 1.00mm single row style2 pin1 right")
  (attr smd)
  (fp_text reference REF** (at 0 -3.56) (layer F.SilkS)
    (effects (font (size 1 1) (thickness 0.15)))
  )
  (fp_text value PinHeader_1x05_P1.00mm_Vertical_SMD_Pin1Right (at 0 3.56) (layer F.Fab)
    (effects (font (size 1 1) (thickness 0.15)))
  )
  (fp_line (start 0.635 2.5) (end -0.635 2.5) (layer F.Fab) (width 0.1))
  (fp_line (start -0.635 -2.5) (end 0.285 -2.5) (layer F.Fab) (width 0.1))
  (fp_line (start 0.635 2.5) (end 0.635 -2.15) (layer F.Fab) (width 0.1))
  (fp_line (start 0.635 -2.15) (end 0.285 -2.5) (layer F.Fab) (width 0.1))
  (fp_line (start -0.635 -2.5) (end -0.635 2.5) (layer F.Fab) (width 0.1))
  (fp_line (start -0.635 -1.15) (end -1.25 -1.15) (layer F.Fab) (width 0.1))
  (fp_line (start -1.25 -1.15) (end -1.25 -0.85) (layer F.Fab) (width 0.1))
  (fp_line (start -1.25 -0.85) (end -0.635 -0.85) (layer F.Fab) (width 0.1))
  (fp_line (start -0.635 0.85) (end -1.25 0.85) (layer F.Fab) (width 0.1))
  (fp_line (start -1.25 0.85) (end -1.25 1.15) (layer F.Fab) (width 0.1))
  (fp_line (start -1.25 1.15) (end -0.635 1.15) (layer F.Fab) (width 0.1))
  (fp_line (start 0.635 -2.15) (end 1.25 -2.15) (layer F.Fab) (width 0.1))
  (fp_line (start 1.25 -2.15) (end 1.25 -1.85) (layer F.Fab) (width 0.1))
  (fp_line (start 1.25 -1.85) (end 0.635 -1.85) (layer F.Fab) (width 0.1))
  (fp_line (start 0.635 -0.15) (end 1.25 -0.15) (layer F.Fab) (width 0.1))
  (fp_line (start 1.25 -0.15) (end 1.25 0.15) (layer F.Fab) (width 0.1))
  (fp_line (start 1.25 0.15) (end 0.635 0.15) (layer F.Fab) (width 0.1))
  (fp_line (start 0.635 1.85) (end 1.25 1.85) (layer F.Fab) (width 0.1))
  (fp_line (start 1.25 1.85) (end 1.25 2.15) (layer F.Fab) (width 0.1))
  (fp_line (start 1.25 2.15) (end 0.635 2.15) (layer F.Fab) (width 0.1))
  (fp_line (start -0.695 -2.56) (end 0.695 -2.56) (layer F.SilkS) (width 0.12))
  (fp_line (start -0.695 2.56) (end 0.695 2.56) (layer F.SilkS) (width 0.12))
  (fp_line (start 0.695 -1.44) (end 0.695 -0.56) (layer F.SilkS) (width 0.12))
  (fp_line (start 0.695 0.56) (end 0.695 1.44) (layer F.SilkS) (width 0.12))
  (fp_line (start 0.695 -2.56) (end 1.69 -2.56) (layer F.SilkS) (width 0.12))
  (fp_line (start 0.695 -2.56) (end 0.695 -2.56) (layer F.SilkS) (width 0.12))
  (fp_line (start -0.695 2.56) (end -0.695 2.56) (layer F.SilkS) (width 0.12))
  (fp_line (start -0.695 -2.56) (end -0.695 -1.56) (layer F.SilkS) (width 0.12))
  (fp_line (start -0.695 -2.44) (end -0.695 -1.56) (layer F.SilkS) (width 0.12))
  (fp_line (start -0.695 -0.44) (end -0.695 0.44) (layer F.SilkS) (width 0.12))
  (fp_line (start -0.695 1.56) (end -0.695 2.56) (layer F.SilkS) (width 0.12))
  (fp_line (start -2.25 -3) (end -2.25 3) (layer F.CrtYd) (width 0.05))
  (fp_line (start -2.25 3) (end 2.25 3) (layer F.CrtYd) (width 0.05))
  (fp_line (start 2.25 3) (end 2.25 -3) (layer F.CrtYd) (width 0.05))
  (fp_line (start 2.25 -3) (end -2.25 -3) (layer F.CrtYd) (width 0.05))
  (pad 2 smd rect (at -0.875 -1) (size 1.75 0.6) (layers F.Cu F.Mask F.Paste))
  (pad 4 smd rect (at -0.875 1) (size 1.75 0.6) (layers F.Cu F.Mask F.Paste))
  (pad 1 smd rect (at 0.875 -2) (size 1.75 0.6) (layers F.Cu F.Mask F.Paste))
  (pad 3 smd rect (at 0.875 0) (size 1.75 0.6) (layers F.Cu F.Mask F.Paste))
  (pad 5 smd rect (at 0.875 2) (size 1.75 0.6) (layers F.Cu F.Mask F.Paste))
  (fp_text user %R (at 0 0 90) (layer F.Fab)
    (effects (font (size 1 1) (thickness 0.15)))
  )
  (model ${KIPRJMOD}/kicad_libs_k/models_k.3d/Connector_PinHeader_1.00mm_k.3dshapes/PinHeader_1x05_P1.00mm_Vertical_SMD_Pin1Right_k.wrl
    (at (xyz 0 0 0))
    (scale (xyz 1 1 1))
    (rotate (xyz 0 0 0))
  )
)