(module PinHeader_2x22_P1.00mm_Vertical_SMD (layer F.Cu) (tedit 59FED738)
  (descr "surface-mounted straight pin header, 2x22, 1.00mm pitch, double rows")
  (tags "Surface mounted pin header SMD 2x22 1.00mm double row")
  (attr smd)
  (fp_text reference REF** (at 0 -12.06) (layer F.SilkS)
    (effects (font (size 1 1) (thickness 0.15)))
  )
  (fp_text value PinHeader_2x22_P1.00mm_Vertical_SMD (at 0 12.06) (layer F.Fab)
    (effects (font (size 1 1) (thickness 0.15)))
  )
  (fp_line (start 1.15 11) (end -1.15 11) (layer F.Fab) (width 0.1))
  (fp_line (start -0.8 -11) (end 1.15 -11) (layer F.Fab) (width 0.1))
  (fp_line (start -1.15 11) (end -1.15 -10.65) (layer F.Fab) (width 0.1))
  (fp_line (start -1.15 -10.65) (end -0.8 -11) (layer F.Fab) (width 0.1))
  (fp_line (start 1.15 -11) (end 1.15 11) (layer F.Fab) (width 0.1))
  (fp_line (start -1.15 -10.65) (end -2.4 -10.65) (layer F.Fab) (width 0.1))
  (fp_line (start -2.4 -10.65) (end -2.4 -10.35) (layer F.Fab) (width 0.1))
  (fp_line (start -2.4 -10.35) (end -1.15 -10.35) (layer F.Fab) (width 0.1))
  (fp_line (start 1.15 -10.65) (end 2.4 -10.65) (layer F.Fab) (width 0.1))
  (fp_line (start 2.4 -10.65) (end 2.4 -10.35) (layer F.Fab) (width 0.1))
  (fp_line (start 2.4 -10.35) (end 1.15 -10.35) (layer F.Fab) (width 0.1))
  (fp_line (start -1.15 -9.65) (end -2.4 -9.65) (layer F.Fab) (width 0.1))
  (fp_line (start -2.4 -9.65) (end -2.4 -9.35) (layer F.Fab) (width 0.1))
  (fp_line (start -2.4 -9.35) (end -1.15 -9.35) (layer F.Fab) (width 0.1))
  (fp_line (start 1.15 -9.65) (end 2.4 -9.65) (layer F.Fab) (width 0.1))
  (fp_line (start 2.4 -9.65) (end 2.4 -9.35) (layer F.Fab) (width 0.1))
  (fp_line (start 2.4 -9.35) (end 1.15 -9.35) (layer F.Fab) (width 0.1))
  (fp_line (start -1.15 -8.65) (end -2.4 -8.65) (layer F.Fab) (width 0.1))
  (fp_line (start -2.4 -8.65) (end -2.4 -8.35) (layer F.Fab) (width 0.1))
  (fp_line (start -2.4 -8.35) (end -1.15 -8.35) (layer F.Fab) (width 0.1))
  (fp_line (start 1.15 -8.65) (end 2.4 -8.65) (layer F.Fab) (width 0.1))
  (fp_line (start 2.4 -8.65) (end 2.4 -8.35) (layer F.Fab) (width 0.1))
  (fp_line (start 2.4 -8.35) (end 1.15 -8.35) (layer F.Fab) (width 0.1))
  (fp_line (start -1.15 -7.65) (end -2.4 -7.65) (layer F.Fab) (width 0.1))
  (fp_line (start -2.4 -7.65) (end -2.4 -7.35) (layer F.Fab) (width 0.1))
  (fp_line (start -2.4 -7.35) (end -1.15 -7.35) (layer F.Fab) (width 0.1))
  (fp_line (start 1.15 -7.65) (end 2.4 -7.65) (layer F.Fab) (width 0.1))
  (fp_line (start 2.4 -7.65) (end 2.4 -7.35) (layer F.Fab) (width 0.1))
  (fp_line (start 2.4 -7.35) (end 1.15 -7.35) (layer F.Fab) (width 0.1))
  (fp_line (start -1.15 -6.65) (end -2.4 -6.65) (layer F.Fab) (width 0.1))
  (fp_line (start -2.4 -6.65) (end -2.4 -6.35) (layer F.Fab) (width 0.1))
  (fp_line (start -2.4 -6.35) (end -1.15 -6.35) (layer F.Fab) (width 0.1))
  (fp_line (start 1.15 -6.65) (end 2.4 -6.65) (layer F.Fab) (width 0.1))
  (fp_line (start 2.4 -6.65) (end 2.4 -6.35) (layer F.Fab) (width 0.1))
  (fp_line (start 2.4 -6.35) (end 1.15 -6.35) (layer F.Fab) (width 0.1))
  (fp_line (start -1.15 -5.65) (end -2.4 -5.65) (layer F.Fab) (width 0.1))
  (fp_line (start -2.4 -5.65) (end -2.4 -5.35) (layer F.Fab) (width 0.1))
  (fp_line (start -2.4 -5.35) (end -1.15 -5.35) (layer F.Fab) (width 0.1))
  (fp_line (start 1.15 -5.65) (end 2.4 -5.65) (layer F.Fab) (width 0.1))
  (fp_line (start 2.4 -5.65) (end 2.4 -5.35) (layer F.Fab) (width 0.1))
  (fp_line (start 2.4 -5.35) (end 1.15 -5.35) (layer F.Fab) (width 0.1))
  (fp_line (start -1.15 -4.65) (end -2.4 -4.65) (layer F.Fab) (width 0.1))
  (fp_line (start -2.4 -4.65) (end -2.4 -4.35) (layer F.Fab) (width 0.1))
  (fp_line (start -2.4 -4.35) (end -1.15 -4.35) (layer F.Fab) (width 0.1))
  (fp_line (start 1.15 -4.65) (end 2.4 -4.65) (layer F.Fab) (width 0.1))
  (fp_line (start 2.4 -4.65) (end 2.4 -4.35) (layer F.Fab) (width 0.1))
  (fp_line (start 2.4 -4.35) (end 1.15 -4.35) (layer F.Fab) (width 0.1))
  (fp_line (start -1.15 -3.65) (end -2.4 -3.65) (layer F.Fab) (width 0.1))
  (fp_line (start -2.4 -3.65) (end -2.4 -3.35) (layer F.Fab) (width 0.1))
  (fp_line (start -2.4 -3.35) (end -1.15 -3.35) (layer F.Fab) (width 0.1))
  (fp_line (start 1.15 -3.65) (end 2.4 -3.65) (layer F.Fab) (width 0.1))
  (fp_line (start 2.4 -3.65) (end 2.4 -3.35) (layer F.Fab) (width 0.1))
  (fp_line (start 2.4 -3.35) (end 1.15 -3.35) (layer F.Fab) (width 0.1))
  (fp_line (start -1.15 -2.65) (end -2.4 -2.65) (layer F.Fab) (width 0.1))
  (fp_line (start -2.4 -2.65) (end -2.4 -2.35) (layer F.Fab) (width 0.1))
  (fp_line (start -2.4 -2.35) (end -1.15 -2.35) (layer F.Fab) (width 0.1))
  (fp_line (start 1.15 -2.65) (end 2.4 -2.65) (layer F.Fab) (width 0.1))
  (fp_line (start 2.4 -2.65) (end 2.4 -2.35) (layer F.Fab) (width 0.1))
  (fp_line (start 2.4 -2.35) (end 1.15 -2.35) (layer F.Fab) (width 0.1))
  (fp_line (start -1.15 -1.65) (end -2.4 -1.65) (layer F.Fab) (width 0.1))
  (fp_line (start -2.4 -1.65) (end -2.4 -1.35) (layer F.Fab) (width 0.1))
  (fp_line (start -2.4 -1.35) (end -1.15 -1.35) (layer F.Fab) (width 0.1))
  (fp_line (start 1.15 -1.65) (end 2.4 -1.65) (layer F.Fab) (width 0.1))
  (fp_line (start 2.4 -1.65) (end 2.4 -1.35) (layer F.Fab) (width 0.1))
  (fp_line (start 2.4 -1.35) (end 1.15 -1.35) (layer F.Fab) (width 0.1))
  (fp_line (start -1.15 -0.65) (end -2.4 -0.65) (layer F.Fab) (width 0.1))
  (fp_line (start -2.4 -0.65) (end -2.4 -0.35) (layer F.Fab) (width 0.1))
  (fp_line (start -2.4 -0.35) (end -1.15 -0.35) (layer F.Fab) (width 0.1))
  (fp_line (start 1.15 -0.65) (end 2.4 -0.65) (layer F.Fab) (width 0.1))
  (fp_line (start 2.4 -0.65) (end 2.4 -0.35) (layer F.Fab) (width 0.1))
  (fp_line (start 2.4 -0.35) (end 1.15 -0.35) (layer F.Fab) (width 0.1))
  (fp_line (start -1.15 0.35) (end -2.4 0.35) (layer F.Fab) (width 0.1))
  (fp_line (start -2.4 0.35) (end -2.4 0.65) (layer F.Fab) (width 0.1))
  (fp_line (start -2.4 0.65) (end -1.15 0.65) (layer F.Fab) (width 0.1))
  (fp_line (start 1.15 0.35) (end 2.4 0.35) (layer F.Fab) (width 0.1))
  (fp_line (start 2.4 0.35) (end 2.4 0.65) (layer F.Fab) (width 0.1))
  (fp_line (start 2.4 0.65) (end 1.15 0.65) (layer F.Fab) (width 0.1))
  (fp_line (start -1.15 1.35) (end -2.4 1.35) (layer F.Fab) (width 0.1))
  (fp_line (start -2.4 1.35) (end -2.4 1.65) (layer F.Fab) (width 0.1))
  (fp_line (start -2.4 1.65) (end -1.15 1.65) (layer F.Fab) (width 0.1))
  (fp_line (start 1.15 1.35) (end 2.4 1.35) (layer F.Fab) (width 0.1))
  (fp_line (start 2.4 1.35) (end 2.4 1.65) (layer F.Fab) (width 0.1))
  (fp_line (start 2.4 1.65) (end 1.15 1.65) (layer F.Fab) (width 0.1))
  (fp_line (start -1.15 2.35) (end -2.4 2.35) (layer F.Fab) (width 0.1))
  (fp_line (start -2.4 2.35) (end -2.4 2.65) (layer F.Fab) (width 0.1))
  (fp_line (start -2.4 2.65) (end -1.15 2.65) (layer F.Fab) (width 0.1))
  (fp_line (start 1.15 2.35) (end 2.4 2.35) (layer F.Fab) (width 0.1))
  (fp_line (start 2.4 2.35) (end 2.4 2.65) (layer F.Fab) (width 0.1))
  (fp_line (start 2.4 2.65) (end 1.15 2.65) (layer F.Fab) (width 0.1))
  (fp_line (start -1.15 3.35) (end -2.4 3.35) (layer F.Fab) (width 0.1))
  (fp_line (start -2.4 3.35) (end -2.4 3.65) (layer F.Fab) (width 0.1))
  (fp_line (start -2.4 3.65) (end -1.15 3.65) (layer F.Fab) (width 0.1))
  (fp_line (start 1.15 3.35) (end 2.4 3.35) (layer F.Fab) (width 0.1))
  (fp_line (start 2.4 3.35) (end 2.4 3.65) (layer F.Fab) (width 0.1))
  (fp_line (start 2.4 3.65) (end 1.15 3.65) (layer F.Fab) (width 0.1))
  (fp_line (start -1.15 4.35) (end -2.4 4.35) (layer F.Fab) (width 0.1))
  (fp_line (start -2.4 4.35) (end -2.4 4.65) (layer F.Fab) (width 0.1))
  (fp_line (start -2.4 4.65) (end -1.15 4.65) (layer F.Fab) (width 0.1))
  (fp_line (start 1.15 4.35) (end 2.4 4.35) (layer F.Fab) (width 0.1))
  (fp_line (start 2.4 4.35) (end 2.4 4.65) (layer F.Fab) (width 0.1))
  (fp_line (start 2.4 4.65) (end 1.15 4.65) (layer F.Fab) (width 0.1))
  (fp_line (start -1.15 5.35) (end -2.4 5.35) (layer F.Fab) (width 0.1))
  (fp_line (start -2.4 5.35) (end -2.4 5.65) (layer F.Fab) (width 0.1))
  (fp_line (start -2.4 5.65) (end -1.15 5.65) (layer F.Fab) (width 0.1))
  (fp_line (start 1.15 5.35) (end 2.4 5.35) (layer F.Fab) (width 0.1))
  (fp_line (start 2.4 5.35) (end 2.4 5.65) (layer F.Fab) (width 0.1))
  (fp_line (start 2.4 5.65) (end 1.15 5.65) (layer F.Fab) (width 0.1))
  (fp_line (start -1.15 6.35) (end -2.4 6.35) (layer F.Fab) (width 0.1))
  (fp_line (start -2.4 6.35) (end -2.4 6.65) (layer F.Fab) (width 0.1))
  (fp_line (start -2.4 6.65) (end -1.15 6.65) (layer F.Fab) (width 0.1))
  (fp_line (start 1.15 6.35) (end 2.4 6.35) (layer F.Fab) (width 0.1))
  (fp_line (start 2.4 6.35) (end 2.4 6.65) (layer F.Fab) (width 0.1))
  (fp_line (start 2.4 6.65) (end 1.15 6.65) (layer F.Fab) (width 0.1))
  (fp_line (start -1.15 7.35) (end -2.4 7.35) (layer F.Fab) (width 0.1))
  (fp_line (start -2.4 7.35) (end -2.4 7.65) (layer F.Fab) (width 0.1))
  (fp_line (start -2.4 7.65) (end -1.15 7.65) (layer F.Fab) (width 0.1))
  (fp_line (start 1.15 7.35) (end 2.4 7.35) (layer F.Fab) (width 0.1))
  (fp_line (start 2.4 7.35) (end 2.4 7.65) (layer F.Fab) (width 0.1))
  (fp_line (start 2.4 7.65) (end 1.15 7.65) (layer F.Fab) (width 0.1))
  (fp_line (start -1.15 8.35) (end -2.4 8.35) (layer F.Fab) (width 0.1))
  (fp_line (start -2.4 8.35) (end -2.4 8.65) (layer F.Fab) (width 0.1))
  (fp_line (start -2.4 8.65) (end -1.15 8.65) (layer F.Fab) (width 0.1))
  (fp_line (start 1.15 8.35) (end 2.4 8.35) (layer F.Fab) (width 0.1))
  (fp_line (start 2.4 8.35) (end 2.4 8.65) (layer F.Fab) (width 0.1))
  (fp_line (start 2.4 8.65) (end 1.15 8.65) (layer F.Fab) (width 0.1))
  (fp_line (start -1.15 9.35) (end -2.4 9.35) (layer F.Fab) (width 0.1))
  (fp_line (start -2.4 9.35) (end -2.4 9.65) (layer F.Fab) (width 0.1))
  (fp_line (start -2.4 9.65) (end -1.15 9.65) (layer F.Fab) (width 0.1))
  (fp_line (start 1.15 9.35) (end 2.4 9.35) (layer F.Fab) (width 0.1))
  (fp_line (start 2.4 9.35) (end 2.4 9.65) (layer F.Fab) (width 0.1))
  (fp_line (start 2.4 9.65) (end 1.15 9.65) (layer F.Fab) (width 0.1))
  (fp_line (start -1.15 10.35) (end -2.4 10.35) (layer F.Fab) (width 0.1))
  (fp_line (start -2.4 10.35) (end -2.4 10.65) (layer F.Fab) (width 0.1))
  (fp_line (start -2.4 10.65) (end -1.15 10.65) (layer F.Fab) (width 0.1))
  (fp_line (start 1.15 10.35) (end 2.4 10.35) (layer F.Fab) (width 0.1))
  (fp_line (start 2.4 10.35) (end 2.4 10.65) (layer F.Fab) (width 0.1))
  (fp_line (start 2.4 10.65) (end 1.15 10.65) (layer F.Fab) (width 0.1))
  (fp_line (start -1.21 -11.06) (end 1.21 -11.06) (layer F.SilkS) (width 0.12))
  (fp_line (start -1.21 11.06) (end 1.21 11.06) (layer F.SilkS) (width 0.12))
  (fp_line (start -2.59 -11.01) (end -1.21 -11.01) (layer F.SilkS) (width 0.12))
  (fp_line (start -1.21 -11.06) (end -1.21 -11.01) (layer F.SilkS) (width 0.12))
  (fp_line (start 1.21 -11.06) (end 1.21 -11.01) (layer F.SilkS) (width 0.12))
  (fp_line (start -1.21 11.01) (end -1.21 11.06) (layer F.SilkS) (width 0.12))
  (fp_line (start 1.21 11.01) (end 1.21 11.06) (layer F.SilkS) (width 0.12))
  (fp_line (start -3.65 -11.5) (end -3.65 11.5) (layer F.CrtYd) (width 0.05))
  (fp_line (start -3.65 11.5) (end 3.65 11.5) (layer F.CrtYd) (width 0.05))
  (fp_line (start 3.65 11.5) (end 3.65 -11.5) (layer F.CrtYd) (width 0.05))
  (fp_line (start 3.65 -11.5) (end -3.65 -11.5) (layer F.CrtYd) (width 0.05))
  (pad 1 smd rect (at -1.65 -10.5) (size 2 0.5) (layers F.Cu F.Mask F.Paste))
  (pad 2 smd rect (at 1.65 -10.5) (size 2 0.5) (layers F.Cu F.Mask F.Paste))
  (pad 3 smd rect (at -1.65 -9.5) (size 2 0.5) (layers F.Cu F.Mask F.Paste))
  (pad 4 smd rect (at 1.65 -9.5) (size 2 0.5) (layers F.Cu F.Mask F.Paste))
  (pad 5 smd rect (at -1.65 -8.5) (size 2 0.5) (layers F.Cu F.Mask F.Paste))
  (pad 6 smd rect (at 1.65 -8.5) (size 2 0.5) (layers F.Cu F.Mask F.Paste))
  (pad 7 smd rect (at -1.65 -7.5) (size 2 0.5) (layers F.Cu F.Mask F.Paste))
  (pad 8 smd rect (at 1.65 -7.5) (size 2 0.5) (layers F.Cu F.Mask F.Paste))
  (pad 9 smd rect (at -1.65 -6.5) (size 2 0.5) (layers F.Cu F.Mask F.Paste))
  (pad 10 smd rect (at 1.65 -6.5) (size 2 0.5) (layers F.Cu F.Mask F.Paste))
  (pad 11 smd rect (at -1.65 -5.5) (size 2 0.5) (layers F.Cu F.Mask F.Paste))
  (pad 12 smd rect (at 1.65 -5.5) (size 2 0.5) (layers F.Cu F.Mask F.Paste))
  (pad 13 smd rect (at -1.65 -4.5) (size 2 0.5) (layers F.Cu F.Mask F.Paste))
  (pad 14 smd rect (at 1.65 -4.5) (size 2 0.5) (layers F.Cu F.Mask F.Paste))
  (pad 15 smd rect (at -1.65 -3.5) (size 2 0.5) (layers F.Cu F.Mask F.Paste))
  (pad 16 smd rect (at 1.65 -3.5) (size 2 0.5) (layers F.Cu F.Mask F.Paste))
  (pad 17 smd rect (at -1.65 -2.5) (size 2 0.5) (layers F.Cu F.Mask F.Paste))
  (pad 18 smd rect (at 1.65 -2.5) (size 2 0.5) (layers F.Cu F.Mask F.Paste))
  (pad 19 smd rect (at -1.65 -1.5) (size 2 0.5) (layers F.Cu F.Mask F.Paste))
  (pad 20 smd rect (at 1.65 -1.5) (size 2 0.5) (layers F.Cu F.Mask F.Paste))
  (pad 21 smd rect (at -1.65 -0.5) (size 2 0.5) (layers F.Cu F.Mask F.Paste))
  (pad 22 smd rect (at 1.65 -0.5) (size 2 0.5) (layers F.Cu F.Mask F.Paste))
  (pad 23 smd rect (at -1.65 0.5) (size 2 0.5) (layers F.Cu F.Mask F.Paste))
  (pad 24 smd rect (at 1.65 0.5) (size 2 0.5) (layers F.Cu F.Mask F.Paste))
  (pad 25 smd rect (at -1.65 1.5) (size 2 0.5) (layers F.Cu F.Mask F.Paste))
  (pad 26 smd rect (at 1.65 1.5) (size 2 0.5) (layers F.Cu F.Mask F.Paste))
  (pad 27 smd rect (at -1.65 2.5) (size 2 0.5) (layers F.Cu F.Mask F.Paste))
  (pad 28 smd rect (at 1.65 2.5) (size 2 0.5) (layers F.Cu F.Mask F.Paste))
  (pad 29 smd rect (at -1.65 3.5) (size 2 0.5) (layers F.Cu F.Mask F.Paste))
  (pad 30 smd rect (at 1.65 3.5) (size 2 0.5) (layers F.Cu F.Mask F.Paste))
  (pad 31 smd rect (at -1.65 4.5) (size 2 0.5) (layers F.Cu F.Mask F.Paste))
  (pad 32 smd rect (at 1.65 4.5) (size 2 0.5) (layers F.Cu F.Mask F.Paste))
  (pad 33 smd rect (at -1.65 5.5) (size 2 0.5) (layers F.Cu F.Mask F.Paste))
  (pad 34 smd rect (at 1.65 5.5) (size 2 0.5) (layers F.Cu F.Mask F.Paste))
  (pad 35 smd rect (at -1.65 6.5) (size 2 0.5) (layers F.Cu F.Mask F.Paste))
  (pad 36 smd rect (at 1.65 6.5) (size 2 0.5) (layers F.Cu F.Mask F.Paste))
  (pad 37 smd rect (at -1.65 7.5) (size 2 0.5) (layers F.Cu F.Mask F.Paste))
  (pad 38 smd rect (at 1.65 7.5) (size 2 0.5) (layers F.Cu F.Mask F.Paste))
  (pad 39 smd rect (at -1.65 8.5) (size 2 0.5) (layers F.Cu F.Mask F.Paste))
  (pad 40 smd rect (at 1.65 8.5) (size 2 0.5) (layers F.Cu F.Mask F.Paste))
  (pad 41 smd rect (at -1.65 9.5) (size 2 0.5) (layers F.Cu F.Mask F.Paste))
  (pad 42 smd rect (at 1.65 9.5) (size 2 0.5) (layers F.Cu F.Mask F.Paste))
  (pad 43 smd rect (at -1.65 10.5) (size 2 0.5) (layers F.Cu F.Mask F.Paste))
  (pad 44 smd rect (at 1.65 10.5) (size 2 0.5) (layers F.Cu F.Mask F.Paste))
  (fp_text user %R (at 0 0 90) (layer F.Fab)
    (effects (font (size 1 1) (thickness 0.15)))
  )
  (model ${KIPRJMOD}/kicad_libs_k/models_k.3d/Connector_PinHeader_1.00mm_k.3dshapes/PinHeader_2x22_P1.00mm_Vertical_SMD_k.wrl
    (at (xyz 0 0 0))
    (scale (xyz 1 1 1))
    (rotate (xyz 0 0 0))
  )
)