(module PinHeader_2x01_P1.00mm_Vertical (layer F.Cu) (tedit 59FED738)
  (descr "Through hole straight pin header, 2x01, 1.00mm pitch, double rows")
  (tags "Through hole pin header THT 2x01 1.00mm double row")
  (fp_text reference REF** (at 0.5 -1.56) (layer F.SilkS)
    (effects (font (size 1 1) (thickness 0.15)))
  )
  (fp_text value PinHeader_2x01_P1.00mm_Vertical (at 0.5 1.56) (layer F.Fab)
    (effects (font (size 1 1) (thickness 0.15)))
  )
  (fp_line (start -0.075 -0.5) (end 1.65 -0.5) (layer F.Fab) (width 0.1))
  (fp_line (start 1.65 -0.5) (end 1.65 0.5) (layer F.Fab) (width 0.1))
  (fp_line (start 1.65 0.5) (end -0.65 0.5) (layer F.Fab) (width 0.1))
  (fp_line (start -0.65 0.5) (end -0.65 0.075) (layer F.Fab) (width 0.1))
  (fp_line (start -0.65 0.075) (end -0.075 -0.5) (layer F.Fab) (width 0.1))
  (fp_line (start -0.71 0.685) (end 1.71 0.685) (layer F.SilkS) (width 0.12))
  (fp_line (start -0.71 0.685) (end -0.71 0.56) (layer F.SilkS) (width 0.12))
  (fp_line (start 1.71 -0.56) (end 1.71 0.56) (layer F.SilkS) (width 0.12))
  (fp_line (start -0.71 0.685) (end -0.608276 0.685) (layer F.SilkS) (width 0.12))
  (fp_line (start 1.394493 -0.56) (end 1.71 -0.56) (layer F.SilkS) (width 0.12))
  (fp_line (start -0.71 0) (end -0.71 -0.685) (layer F.SilkS) (width 0.12))
  (fp_line (start -0.71 -0.685) (end 0 -0.685) (layer F.SilkS) (width 0.12))
  (fp_line (start -1.15 -1) (end -1.15 1) (layer F.CrtYd) (width 0.05))
  (fp_line (start -1.15 1) (end 2.15 1) (layer F.CrtYd) (width 0.05))
  (fp_line (start 2.15 1) (end 2.15 -1) (layer F.CrtYd) (width 0.05))
  (fp_line (start 2.15 -1) (end -1.15 -1) (layer F.CrtYd) (width 0.05))
  (pad 1 thru_hole rect (at 0 0) (size 0.85 0.85) (drill 0.5) (layers *.Cu *.Mask))
  (pad 2 thru_hole oval (at 1 0) (size 0.85 0.85) (drill 0.5) (layers *.Cu *.Mask))
  (fp_text user %R (at 0.5 0 90) (layer F.Fab)
    (effects (font (size 1 1) (thickness 0.15)))
  )
  (model ${KIPRJMOD}/kicad_libs_k/models_k.3d/Connector_PinHeader_1.00mm_k.3dshapes/PinHeader_2x01_P1.00mm_Vertical_k.wrl
    (at (xyz 0 0 0))
    (scale (xyz 1 1 1))
    (rotate (xyz 0 0 0))
  )
)