(module PinHeader_1x15_P1.00mm_Vertical_SMD_Pin1Right (layer F.Cu) (tedit 59FED738)
  (descr "surface-mounted straight pin header, 1x15, 1.00mm pitch, single row, style 2 (pin 1 right)")
  (tags "Surface mounted pin header SMD 1x15 1.00mm single row style2 pin1 right")
  (attr smd)
  (fp_text reference REF** (at 0 -8.56) (layer F.SilkS)
    (effects (font (size 1 1) (thickness 0.15)))
  )
  (fp_text value PinHeader_1x15_P1.00mm_Vertical_SMD_Pin1Right (at 0 8.56) (layer F.Fab)
    (effects (font (size 1 1) (thickness 0.15)))
  )
  (fp_line (start 0.635 7.5) (end -0.635 7.5) (layer F.Fab) (width 0.1))
  (fp_line (start -0.635 -7.5) (end 0.285 -7.5) (layer F.Fab) (width 0.1))
  (fp_line (start 0.635 7.5) (end 0.635 -7.15) (layer F.Fab) (width 0.1))
  (fp_line (start 0.635 -7.15) (end 0.285 -7.5) (layer F.Fab) (width 0.1))
  (fp_line (start -0.635 -7.5) (end -0.635 7.5) (layer F.Fab) (width 0.1))
  (fp_line (start -0.635 -6.15) (end -1.25 -6.15) (layer F.Fab) (width 0.1))
  (fp_line (start -1.25 -6.15) (end -1.25 -5.85) (layer F.Fab) (width 0.1))
  (fp_line (start -1.25 -5.85) (end -0.635 -5.85) (layer F.Fab) (width 0.1))
  (fp_line (start -0.635 -4.15) (end -1.25 -4.15) (layer F.Fab) (width 0.1))
  (fp_line (start -1.25 -4.15) (end -1.25 -3.85) (layer F.Fab) (width 0.1))
  (fp_line (start -1.25 -3.85) (end -0.635 -3.85) (layer F.Fab) (width 0.1))
  (fp_line (start -0.635 -2.15) (end -1.25 -2.15) (layer F.Fab) (width 0.1))
  (fp_line (start -1.25 -2.15) (end -1.25 -1.85) (layer F.Fab) (width 0.1))
  (fp_line (start -1.25 -1.85) (end -0.635 -1.85) (layer F.Fab) (width 0.1))
  (fp_line (start -0.635 -0.15) (end -1.25 -0.15) (layer F.Fab) (width 0.1))
  (fp_line (start -1.25 -0.15) (end -1.25 0.15) (layer F.Fab) (width 0.1))
  (fp_line (start -1.25 0.15) (end -0.635 0.15) (layer F.Fab) (width 0.1))
  (fp_line (start -0.635 1.85) (end -1.25 1.85) (layer F.Fab) (width 0.1))
  (fp_line (start -1.25 1.85) (end -1.25 2.15) (layer F.Fab) (width 0.1))
  (fp_line (start -1.25 2.15) (end -0.635 2.15) (layer F.Fab) (width 0.1))
  (fp_line (start -0.635 3.85) (end -1.25 3.85) (layer F.Fab) (width 0.1))
  (fp_line (start -1.25 3.85) (end -1.25 4.15) (layer F.Fab) (width 0.1))
  (fp_line (start -1.25 4.15) (end -0.635 4.15) (layer F.Fab) (width 0.1))
  (fp_line (start -0.635 5.85) (end -1.25 5.85) (layer F.Fab) (width 0.1))
  (fp_line (start -1.25 5.85) (end -1.25 6.15) (layer F.Fab) (width 0.1))
  (fp_line (start -1.25 6.15) (end -0.635 6.15) (layer F.Fab) (width 0.1))
  (fp_line (start 0.635 -7.15) (end 1.25 -7.15) (layer F.Fab) (width 0.1))
  (fp_line (start 1.25 -7.15) (end 1.25 -6.85) (layer F.Fab) (width 0.1))
  (fp_line (start 1.25 -6.85) (end 0.635 -6.85) (layer F.Fab) (width 0.1))
  (fp_line (start 0.635 -5.15) (end 1.25 -5.15) (layer F.Fab) (width 0.1))
  (fp_line (start 1.25 -5.15) (end 1.25 -4.85) (layer F.Fab) (width 0.1))
  (fp_line (start 1.25 -4.85) (end 0.635 -4.85) (layer F.Fab) (width 0.1))
  (fp_line (start 0.635 -3.15) (end 1.25 -3.15) (layer F.Fab) (width 0.1))
  (fp_line (start 1.25 -3.15) (end 1.25 -2.85) (layer F.Fab) (width 0.1))
  (fp_line (start 1.25 -2.85) (end 0.635 -2.85) (layer F.Fab) (width 0.1))
  (fp_line (start 0.635 -1.15) (end 1.25 -1.15) (layer F.Fab) (width 0.1))
  (fp_line (start 1.25 -1.15) (end 1.25 -0.85) (layer F.Fab) (width 0.1))
  (fp_line (start 1.25 -0.85) (end 0.635 -0.85) (layer F.Fab) (width 0.1))
  (fp_line (start 0.635 0.85) (end 1.25 0.85) (layer F.Fab) (width 0.1))
  (fp_line (start 1.25 0.85) (end 1.25 1.15) (layer F.Fab) (width 0.1))
  (fp_line (start 1.25 1.15) (end 0.635 1.15) (layer F.Fab) (width 0.1))
  (fp_line (start 0.635 2.85) (end 1.25 2.85) (layer F.Fab) (width 0.1))
  (fp_line (start 1.25 2.85) (end 1.25 3.15) (layer F.Fab) (width 0.1))
  (fp_line (start 1.25 3.15) (end 0.635 3.15) (layer F.Fab) (width 0.1))
  (fp_line (start 0.635 4.85) (end 1.25 4.85) (layer F.Fab) (width 0.1))
  (fp_line (start 1.25 4.85) (end 1.25 5.15) (layer F.Fab) (width 0.1))
  (fp_line (start 1.25 5.15) (end 0.635 5.15) (layer F.Fab) (width 0.1))
  (fp_line (start 0.635 6.85) (end 1.25 6.85) (layer F.Fab) (width 0.1))
  (fp_line (start 1.25 6.85) (end 1.25 7.15) (layer F.Fab) (width 0.1))
  (fp_line (start 1.25 7.15) (end 0.635 7.15) (layer F.Fab) (width 0.1))
  (fp_line (start -0.695 -7.56) (end 0.695 -7.56) (layer F.SilkS) (width 0.12))
  (fp_line (start -0.695 7.56) (end 0.695 7.56) (layer F.SilkS) (width 0.12))
  (fp_line (start 0.695 -6.44) (end 0.695 -5.56) (layer F.SilkS) (width 0.12))
  (fp_line (start 0.695 -4.44) (end 0.695 -3.56) (layer F.SilkS) (width 0.12))
  (fp_line (start 0.695 -2.44) (end 0.695 -1.56) (layer F.SilkS) (width 0.12))
  (fp_line (start 0.695 -0.44) (end 0.695 0.44) (layer F.SilkS) (width 0.12))
  (fp_line (start 0.695 1.56) (end 0.695 2.44) (layer F.SilkS) (width 0.12))
  (fp_line (start 0.695 3.56) (end 0.695 4.44) (layer F.SilkS) (width 0.12))
  (fp_line (start 0.695 5.56) (end 0.695 6.44) (layer F.SilkS) (width 0.12))
  (fp_line (start 0.695 -7.56) (end 1.69 -7.56) (layer F.SilkS) (width 0.12))
  (fp_line (start 0.695 -7.56) (end 0.695 -7.56) (layer F.SilkS) (width 0.12))
  (fp_line (start -0.695 7.56) (end -0.695 7.56) (layer F.SilkS) (width 0.12))
  (fp_line (start -0.695 -7.56) (end -0.695 -6.56) (layer F.SilkS) (width 0.12))
  (fp_line (start -0.695 -7.44) (end -0.695 -6.56) (layer F.SilkS) (width 0.12))
  (fp_line (start -0.695 -5.44) (end -0.695 -4.56) (layer F.SilkS) (width 0.12))
  (fp_line (start -0.695 -3.44) (end -0.695 -2.56) (layer F.SilkS) (width 0.12))
  (fp_line (start -0.695 -1.44) (end -0.695 -0.56) (layer F.SilkS) (width 0.12))
  (fp_line (start -0.695 0.56) (end -0.695 1.44) (layer F.SilkS) (width 0.12))
  (fp_line (start -0.695 2.56) (end -0.695 3.44) (layer F.SilkS) (width 0.12))
  (fp_line (start -0.695 4.56) (end -0.695 5.44) (layer F.SilkS) (width 0.12))
  (fp_line (start -0.695 6.56) (end -0.695 7.56) (layer F.SilkS) (width 0.12))
  (fp_line (start -2.25 -8) (end -2.25 8) (layer F.CrtYd) (width 0.05))
  (fp_line (start -2.25 8) (end 2.25 8) (layer F.CrtYd) (width 0.05))
  (fp_line (start 2.25 8) (end 2.25 -8) (layer F.CrtYd) (width 0.05))
  (fp_line (start 2.25 -8) (end -2.25 -8) (layer F.CrtYd) (width 0.05))
  (pad 2 smd rect (at -0.875 -6) (size 1.75 0.6) (layers F.Cu F.Mask F.Paste))
  (pad 4 smd rect (at -0.875 -4) (size 1.75 0.6) (layers F.Cu F.Mask F.Paste))
  (pad 6 smd rect (at -0.875 -2) (size 1.75 0.6) (layers F.Cu F.Mask F.Paste))
  (pad 8 smd rect (at -0.875 0) (size 1.75 0.6) (layers F.Cu F.Mask F.Paste))
  (pad 10 smd rect (at -0.875 2) (size 1.75 0.6) (layers F.Cu F.Mask F.Paste))
  (pad 12 smd rect (at -0.875 4) (size 1.75 0.6) (layers F.Cu F.Mask F.Paste))
  (pad 14 smd rect (at -0.875 6) (size 1.75 0.6) (layers F.Cu F.Mask F.Paste))
  (pad 1 smd rect (at 0.875 -7) (size 1.75 0.6) (layers F.Cu F.Mask F.Paste))
  (pad 3 smd rect (at 0.875 -5) (size 1.75 0.6) (layers F.Cu F.Mask F.Paste))
  (pad 5 smd rect (at 0.875 -3) (size 1.75 0.6) (layers F.Cu F.Mask F.Paste))
  (pad 7 smd rect (at 0.875 -1) (size 1.75 0.6) (layers F.Cu F.Mask F.Paste))
  (pad 9 smd rect (at 0.875 1) (size 1.75 0.6) (layers F.Cu F.Mask F.Paste))
  (pad 11 smd rect (at 0.875 3) (size 1.75 0.6) (layers F.Cu F.Mask F.Paste))
  (pad 13 smd rect (at 0.875 5) (size 1.75 0.6) (layers F.Cu F.Mask F.Paste))
  (pad 15 smd rect (at 0.875 7) (size 1.75 0.6) (layers F.Cu F.Mask F.Paste))
  (fp_text user %R (at 0 0 90) (layer F.Fab)
    (effects (font (size 1 1) (thickness 0.15)))
  )
  (model ${KIPRJMOD}/kicad_libs_k/models_k.3d/Connector_PinHeader_1.00mm_k.3dshapes/PinHeader_1x15_P1.00mm_Vertical_SMD_Pin1Right_k.wrl
    (at (xyz 0 0 0))
    (scale (xyz 1 1 1))
    (rotate (xyz 0 0 0))
  )
)