(module PinHeader_2x03_P1.00mm_Horizontal (layer F.Cu) (tedit 59FED738)
  (descr "Through hole angled pin header, 2x03, 1.00mm pitch, 2.0mm pin length, double rows")
  (tags "Through hole angled pin header THT 2x03 1.00mm double row")
  (fp_text reference REF** (at 2.3 -1.5) (layer F.SilkS)
    (effects (font (size 1 1) (thickness 0.15)))
  )
  (fp_text value PinHeader_2x03_P1.00mm_Horizontal (at 2.3 3.5) (layer F.Fab)
    (effects (font (size 1 1) (thickness 0.15)))
  )
  (fp_line (start 2.2 -0.5) (end 3.1 -0.5) (layer F.Fab) (width 0.1))
  (fp_line (start 3.1 -0.5) (end 3.1 2.5) (layer F.Fab) (width 0.1))
  (fp_line (start 3.1 2.5) (end 1.9 2.5) (layer F.Fab) (width 0.1))
  (fp_line (start 1.9 2.5) (end 1.9 -0.2) (layer F.Fab) (width 0.1))
  (fp_line (start 1.9 -0.2) (end 2.2 -0.5) (layer F.Fab) (width 0.1))
  (fp_line (start -0.15 -0.15) (end 1.9 -0.15) (layer F.Fab) (width 0.1))
  (fp_line (start -0.15 -0.15) (end -0.15 0.15) (layer F.Fab) (width 0.1))
  (fp_line (start -0.15 0.15) (end 1.9 0.15) (layer F.Fab) (width 0.1))
  (fp_line (start 3.1 -0.15) (end 5.1 -0.15) (layer F.Fab) (width 0.1))
  (fp_line (start 5.1 -0.15) (end 5.1 0.15) (layer F.Fab) (width 0.1))
  (fp_line (start 3.1 0.15) (end 5.1 0.15) (layer F.Fab) (width 0.1))
  (fp_line (start -0.15 0.85) (end 1.9 0.85) (layer F.Fab) (width 0.1))
  (fp_line (start -0.15 0.85) (end -0.15 1.15) (layer F.Fab) (width 0.1))
  (fp_line (start -0.15 1.15) (end 1.9 1.15) (layer F.Fab) (width 0.1))
  (fp_line (start 3.1 0.85) (end 5.1 0.85) (layer F.Fab) (width 0.1))
  (fp_line (start 5.1 0.85) (end 5.1 1.15) (layer F.Fab) (width 0.1))
  (fp_line (start 3.1 1.15) (end 5.1 1.15) (layer F.Fab) (width 0.1))
  (fp_line (start -0.15 1.85) (end 1.9 1.85) (layer F.Fab) (width 0.1))
  (fp_line (start -0.15 1.85) (end -0.15 2.15) (layer F.Fab) (width 0.1))
  (fp_line (start -0.15 2.15) (end 1.9 2.15) (layer F.Fab) (width 0.1))
  (fp_line (start 3.1 1.85) (end 5.1 1.85) (layer F.Fab) (width 0.1))
  (fp_line (start 5.1 1.85) (end 5.1 2.15) (layer F.Fab) (width 0.1))
  (fp_line (start 3.1 2.15) (end 5.1 2.15) (layer F.Fab) (width 0.1))
  (fp_line (start 1.84 -0.56) (end 1.84 2.56) (layer F.SilkS) (width 0.12))
  (fp_line (start 1.84 2.56) (end 3.16 2.56) (layer F.SilkS) (width 0.12))
  (fp_line (start 3.16 2.56) (end 3.16 -0.56) (layer F.SilkS) (width 0.12))
  (fp_line (start 3.16 -0.56) (end 1.84 -0.56) (layer F.SilkS) (width 0.12))
  (fp_line (start 3.16 -0.21) (end 5.16 -0.21) (layer F.SilkS) (width 0.12))
  (fp_line (start 5.16 -0.21) (end 5.16 0.21) (layer F.SilkS) (width 0.12))
  (fp_line (start 5.16 0.21) (end 3.16 0.21) (layer F.SilkS) (width 0.12))
  (fp_line (start 3.16 -0.15) (end 5.16 -0.15) (layer F.SilkS) (width 0.12))
  (fp_line (start 3.16 -0.03) (end 5.16 -0.03) (layer F.SilkS) (width 0.12))
  (fp_line (start 3.16 0.09) (end 5.16 0.09) (layer F.SilkS) (width 0.12))
  (fp_line (start 1.652016 -0.21) (end 1.84 -0.21) (layer F.SilkS) (width 0.12))
  (fp_line (start 1.652016 0.21) (end 1.84 0.21) (layer F.SilkS) (width 0.12))
  (fp_line (start 1.84 0.5) (end 3.16 0.5) (layer F.SilkS) (width 0.12))
  (fp_line (start 3.16 0.79) (end 5.16 0.79) (layer F.SilkS) (width 0.12))
  (fp_line (start 5.16 0.79) (end 5.16 1.21) (layer F.SilkS) (width 0.12))
  (fp_line (start 5.16 1.21) (end 3.16 1.21) (layer F.SilkS) (width 0.12))
  (fp_line (start 1.652016 0.79) (end 1.84 0.79) (layer F.SilkS) (width 0.12))
  (fp_line (start 1.652016 1.21) (end 1.84 1.21) (layer F.SilkS) (width 0.12))
  (fp_line (start 1.84 1.5) (end 3.16 1.5) (layer F.SilkS) (width 0.12))
  (fp_line (start 3.16 1.79) (end 5.16 1.79) (layer F.SilkS) (width 0.12))
  (fp_line (start 5.16 1.79) (end 5.16 2.21) (layer F.SilkS) (width 0.12))
  (fp_line (start 5.16 2.21) (end 3.16 2.21) (layer F.SilkS) (width 0.12))
  (fp_line (start 1.652016 1.79) (end 1.84 1.79) (layer F.SilkS) (width 0.12))
  (fp_line (start 1.652016 2.21) (end 1.84 2.21) (layer F.SilkS) (width 0.12))
  (fp_line (start -0.685 0) (end -0.685 -0.685) (layer F.SilkS) (width 0.12))
  (fp_line (start -0.685 -0.685) (end 0 -0.685) (layer F.SilkS) (width 0.12))
  (fp_line (start -1 -1) (end -1 3) (layer F.CrtYd) (width 0.05))
  (fp_line (start -1 3) (end 5.6 3) (layer F.CrtYd) (width 0.05))
  (fp_line (start 5.6 3) (end 5.6 -1) (layer F.CrtYd) (width 0.05))
  (fp_line (start 5.6 -1) (end -1 -1) (layer F.CrtYd) (width 0.05))
  (pad 1 thru_hole rect (at 0 0) (size 0.85 0.85) (drill 0.5) (layers *.Cu *.Mask))
  (pad 2 thru_hole oval (at 1 0) (size 0.85 0.85) (drill 0.5) (layers *.Cu *.Mask))
  (pad 3 thru_hole oval (at 0 1) (size 0.85 0.85) (drill 0.5) (layers *.Cu *.Mask))
  (pad 4 thru_hole oval (at 1 1) (size 0.85 0.85) (drill 0.5) (layers *.Cu *.Mask))
  (pad 5 thru_hole oval (at 0 2) (size 0.85 0.85) (drill 0.5) (layers *.Cu *.Mask))
  (pad 6 thru_hole oval (at 1 2) (size 0.85 0.85) (drill 0.5) (layers *.Cu *.Mask))
  (fp_text user %R (at 2.5 1 90) (layer F.Fab)
    (effects (font (size 0.72 0.72) (thickness 0.108)))
  )
  (model ${KIPRJMOD}/kicad_libs_k/models_k.3d/Connector_PinHeader_1.00mm_k.3dshapes/PinHeader_2x03_P1.00mm_Horizontal_k.wrl
    (at (xyz 0 0 0))
    (scale (xyz 1 1 1))
    (rotate (xyz 0 0 0))
  )
)