(module PinHeader_1x31_P1.00mm_Horizontal (layer F.Cu) (tedit 59FED738)
  (descr "Through hole angled pin header, 1x31, 1.00mm pitch, 2.0mm pin length, single row")
  (tags "Through hole angled pin header THT 1x31 1.00mm single row")
  (fp_text reference REF** (at 1.375 -1.5) (layer F.SilkS)
    (effects (font (size 1 1) (thickness 0.15)))
  )
  (fp_text value PinHeader_1x31_P1.00mm_Horizontal (at 1.375 31.5) (layer F.Fab)
    (effects (font (size 1 1) (thickness 0.15)))
  )
  (fp_line (start 0.5 -0.5) (end 1.25 -0.5) (layer F.Fab) (width 0.1))
  (fp_line (start 1.25 -0.5) (end 1.25 30.5) (layer F.Fab) (width 0.1))
  (fp_line (start 1.25 30.5) (end 0.25 30.5) (layer F.Fab) (width 0.1))
  (fp_line (start 0.25 30.5) (end 0.25 -0.25) (layer F.Fab) (width 0.1))
  (fp_line (start 0.25 -0.25) (end 0.5 -0.5) (layer F.Fab) (width 0.1))
  (fp_line (start -0.15 -0.15) (end 0.25 -0.15) (layer F.Fab) (width 0.1))
  (fp_line (start -0.15 -0.15) (end -0.15 0.15) (layer F.Fab) (width 0.1))
  (fp_line (start -0.15 0.15) (end 0.25 0.15) (layer F.Fab) (width 0.1))
  (fp_line (start 1.25 -0.15) (end 3.25 -0.15) (layer F.Fab) (width 0.1))
  (fp_line (start 3.25 -0.15) (end 3.25 0.15) (layer F.Fab) (width 0.1))
  (fp_line (start 1.25 0.15) (end 3.25 0.15) (layer F.Fab) (width 0.1))
  (fp_line (start -0.15 0.85) (end 0.25 0.85) (layer F.Fab) (width 0.1))
  (fp_line (start -0.15 0.85) (end -0.15 1.15) (layer F.Fab) (width 0.1))
  (fp_line (start -0.15 1.15) (end 0.25 1.15) (layer F.Fab) (width 0.1))
  (fp_line (start 1.25 0.85) (end 3.25 0.85) (layer F.Fab) (width 0.1))
  (fp_line (start 3.25 0.85) (end 3.25 1.15) (layer F.Fab) (width 0.1))
  (fp_line (start 1.25 1.15) (end 3.25 1.15) (layer F.Fab) (width 0.1))
  (fp_line (start -0.15 1.85) (end 0.25 1.85) (layer F.Fab) (width 0.1))
  (fp_line (start -0.15 1.85) (end -0.15 2.15) (layer F.Fab) (width 0.1))
  (fp_line (start -0.15 2.15) (end 0.25 2.15) (layer F.Fab) (width 0.1))
  (fp_line (start 1.25 1.85) (end 3.25 1.85) (layer F.Fab) (width 0.1))
  (fp_line (start 3.25 1.85) (end 3.25 2.15) (layer F.Fab) (width 0.1))
  (fp_line (start 1.25 2.15) (end 3.25 2.15) (layer F.Fab) (width 0.1))
  (fp_line (start -0.15 2.85) (end 0.25 2.85) (layer F.Fab) (width 0.1))
  (fp_line (start -0.15 2.85) (end -0.15 3.15) (layer F.Fab) (width 0.1))
  (fp_line (start -0.15 3.15) (end 0.25 3.15) (layer F.Fab) (width 0.1))
  (fp_line (start 1.25 2.85) (end 3.25 2.85) (layer F.Fab) (width 0.1))
  (fp_line (start 3.25 2.85) (end 3.25 3.15) (layer F.Fab) (width 0.1))
  (fp_line (start 1.25 3.15) (end 3.25 3.15) (layer F.Fab) (width 0.1))
  (fp_line (start -0.15 3.85) (end 0.25 3.85) (layer F.Fab) (width 0.1))
  (fp_line (start -0.15 3.85) (end -0.15 4.15) (layer F.Fab) (width 0.1))
  (fp_line (start -0.15 4.15) (end 0.25 4.15) (layer F.Fab) (width 0.1))
  (fp_line (start 1.25 3.85) (end 3.25 3.85) (layer F.Fab) (width 0.1))
  (fp_line (start 3.25 3.85) (end 3.25 4.15) (layer F.Fab) (width 0.1))
  (fp_line (start 1.25 4.15) (end 3.25 4.15) (layer F.Fab) (width 0.1))
  (fp_line (start -0.15 4.85) (end 0.25 4.85) (layer F.Fab) (width 0.1))
  (fp_line (start -0.15 4.85) (end -0.15 5.15) (layer F.Fab) (width 0.1))
  (fp_line (start -0.15 5.15) (end 0.25 5.15) (layer F.Fab) (width 0.1))
  (fp_line (start 1.25 4.85) (end 3.25 4.85) (layer F.Fab) (width 0.1))
  (fp_line (start 3.25 4.85) (end 3.25 5.15) (layer F.Fab) (width 0.1))
  (fp_line (start 1.25 5.15) (end 3.25 5.15) (layer F.Fab) (width 0.1))
  (fp_line (start -0.15 5.85) (end 0.25 5.85) (layer F.Fab) (width 0.1))
  (fp_line (start -0.15 5.85) (end -0.15 6.15) (layer F.Fab) (width 0.1))
  (fp_line (start -0.15 6.15) (end 0.25 6.15) (layer F.Fab) (width 0.1))
  (fp_line (start 1.25 5.85) (end 3.25 5.85) (layer F.Fab) (width 0.1))
  (fp_line (start 3.25 5.85) (end 3.25 6.15) (layer F.Fab) (width 0.1))
  (fp_line (start 1.25 6.15) (end 3.25 6.15) (layer F.Fab) (width 0.1))
  (fp_line (start -0.15 6.85) (end 0.25 6.85) (layer F.Fab) (width 0.1))
  (fp_line (start -0.15 6.85) (end -0.15 7.15) (layer F.Fab) (width 0.1))
  (fp_line (start -0.15 7.15) (end 0.25 7.15) (layer F.Fab) (width 0.1))
  (fp_line (start 1.25 6.85) (end 3.25 6.85) (layer F.Fab) (width 0.1))
  (fp_line (start 3.25 6.85) (end 3.25 7.15) (layer F.Fab) (width 0.1))
  (fp_line (start 1.25 7.15) (end 3.25 7.15) (layer F.Fab) (width 0.1))
  (fp_line (start -0.15 7.85) (end 0.25 7.85) (layer F.Fab) (width 0.1))
  (fp_line (start -0.15 7.85) (end -0.15 8.15) (layer F.Fab) (width 0.1))
  (fp_line (start -0.15 8.15) (end 0.25 8.15) (layer F.Fab) (width 0.1))
  (fp_line (start 1.25 7.85) (end 3.25 7.85) (layer F.Fab) (width 0.1))
  (fp_line (start 3.25 7.85) (end 3.25 8.15) (layer F.Fab) (width 0.1))
  (fp_line (start 1.25 8.15) (end 3.25 8.15) (layer F.Fab) (width 0.1))
  (fp_line (start -0.15 8.85) (end 0.25 8.85) (layer F.Fab) (width 0.1))
  (fp_line (start -0.15 8.85) (end -0.15 9.15) (layer F.Fab) (width 0.1))
  (fp_line (start -0.15 9.15) (end 0.25 9.15) (layer F.Fab) (width 0.1))
  (fp_line (start 1.25 8.85) (end 3.25 8.85) (layer F.Fab) (width 0.1))
  (fp_line (start 3.25 8.85) (end 3.25 9.15) (layer F.Fab) (width 0.1))
  (fp_line (start 1.25 9.15) (end 3.25 9.15) (layer F.Fab) (width 0.1))
  (fp_line (start -0.15 9.85) (end 0.25 9.85) (layer F.Fab) (width 0.1))
  (fp_line (start -0.15 9.85) (end -0.15 10.15) (layer F.Fab) (width 0.1))
  (fp_line (start -0.15 10.15) (end 0.25 10.15) (layer F.Fab) (width 0.1))
  (fp_line (start 1.25 9.85) (end 3.25 9.85) (layer F.Fab) (width 0.1))
  (fp_line (start 3.25 9.85) (end 3.25 10.15) (layer F.Fab) (width 0.1))
  (fp_line (start 1.25 10.15) (end 3.25 10.15) (layer F.Fab) (width 0.1))
  (fp_line (start -0.15 10.85) (end 0.25 10.85) (layer F.Fab) (width 0.1))
  (fp_line (start -0.15 10.85) (end -0.15 11.15) (layer F.Fab) (width 0.1))
  (fp_line (start -0.15 11.15) (end 0.25 11.15) (layer F.Fab) (width 0.1))
  (fp_line (start 1.25 10.85) (end 3.25 10.85) (layer F.Fab) (width 0.1))
  (fp_line (start 3.25 10.85) (end 3.25 11.15) (layer F.Fab) (width 0.1))
  (fp_line (start 1.25 11.15) (end 3.25 11.15) (layer F.Fab) (width 0.1))
  (fp_line (start -0.15 11.85) (end 0.25 11.85) (layer F.Fab) (width 0.1))
  (fp_line (start -0.15 11.85) (end -0.15 12.15) (layer F.Fab) (width 0.1))
  (fp_line (start -0.15 12.15) (end 0.25 12.15) (layer F.Fab) (width 0.1))
  (fp_line (start 1.25 11.85) (end 3.25 11.85) (layer F.Fab) (width 0.1))
  (fp_line (start 3.25 11.85) (end 3.25 12.15) (layer F.Fab) (width 0.1))
  (fp_line (start 1.25 12.15) (end 3.25 12.15) (layer F.Fab) (width 0.1))
  (fp_line (start -0.15 12.85) (end 0.25 12.85) (layer F.Fab) (width 0.1))
  (fp_line (start -0.15 12.85) (end -0.15 13.15) (layer F.Fab) (width 0.1))
  (fp_line (start -0.15 13.15) (end 0.25 13.15) (layer F.Fab) (width 0.1))
  (fp_line (start 1.25 12.85) (end 3.25 12.85) (layer F.Fab) (width 0.1))
  (fp_line (start 3.25 12.85) (end 3.25 13.15) (layer F.Fab) (width 0.1))
  (fp_line (start 1.25 13.15) (end 3.25 13.15) (layer F.Fab) (width 0.1))
  (fp_line (start -0.15 13.85) (end 0.25 13.85) (layer F.Fab) (width 0.1))
  (fp_line (start -0.15 13.85) (end -0.15 14.15) (layer F.Fab) (width 0.1))
  (fp_line (start -0.15 14.15) (end 0.25 14.15) (layer F.Fab) (width 0.1))
  (fp_line (start 1.25 13.85) (end 3.25 13.85) (layer F.Fab) (width 0.1))
  (fp_line (start 3.25 13.85) (end 3.25 14.15) (layer F.Fab) (width 0.1))
  (fp_line (start 1.25 14.15) (end 3.25 14.15) (layer F.Fab) (width 0.1))
  (fp_line (start -0.15 14.85) (end 0.25 14.85) (layer F.Fab) (width 0.1))
  (fp_line (start -0.15 14.85) (end -0.15 15.15) (layer F.Fab) (width 0.1))
  (fp_line (start -0.15 15.15) (end 0.25 15.15) (layer F.Fab) (width 0.1))
  (fp_line (start 1.25 14.85) (end 3.25 14.85) (layer F.Fab) (width 0.1))
  (fp_line (start 3.25 14.85) (end 3.25 15.15) (layer F.Fab) (width 0.1))
  (fp_line (start 1.25 15.15) (end 3.25 15.15) (layer F.Fab) (width 0.1))
  (fp_line (start -0.15 15.85) (end 0.25 15.85) (layer F.Fab) (width 0.1))
  (fp_line (start -0.15 15.85) (end -0.15 16.15) (layer F.Fab) (width 0.1))
  (fp_line (start -0.15 16.15) (end 0.25 16.15) (layer F.Fab) (width 0.1))
  (fp_line (start 1.25 15.85) (end 3.25 15.85) (layer F.Fab) (width 0.1))
  (fp_line (start 3.25 15.85) (end 3.25 16.15) (layer F.Fab) (width 0.1))
  (fp_line (start 1.25 16.15) (end 3.25 16.15) (layer F.Fab) (width 0.1))
  (fp_line (start -0.15 16.85) (end 0.25 16.85) (layer F.Fab) (width 0.1))
  (fp_line (start -0.15 16.85) (end -0.15 17.15) (layer F.Fab) (width 0.1))
  (fp_line (start -0.15 17.15) (end 0.25 17.15) (layer F.Fab) (width 0.1))
  (fp_line (start 1.25 16.85) (end 3.25 16.85) (layer F.Fab) (width 0.1))
  (fp_line (start 3.25 16.85) (end 3.25 17.15) (layer F.Fab) (width 0.1))
  (fp_line (start 1.25 17.15) (end 3.25 17.15) (layer F.Fab) (width 0.1))
  (fp_line (start -0.15 17.85) (end 0.25 17.85) (layer F.Fab) (width 0.1))
  (fp_line (start -0.15 17.85) (end -0.15 18.15) (layer F.Fab) (width 0.1))
  (fp_line (start -0.15 18.15) (end 0.25 18.15) (layer F.Fab) (width 0.1))
  (fp_line (start 1.25 17.85) (end 3.25 17.85) (layer F.Fab) (width 0.1))
  (fp_line (start 3.25 17.85) (end 3.25 18.15) (layer F.Fab) (width 0.1))
  (fp_line (start 1.25 18.15) (end 3.25 18.15) (layer F.Fab) (width 0.1))
  (fp_line (start -0.15 18.85) (end 0.25 18.85) (layer F.Fab) (width 0.1))
  (fp_line (start -0.15 18.85) (end -0.15 19.15) (layer F.Fab) (width 0.1))
  (fp_line (start -0.15 19.15) (end 0.25 19.15) (layer F.Fab) (width 0.1))
  (fp_line (start 1.25 18.85) (end 3.25 18.85) (layer F.Fab) (width 0.1))
  (fp_line (start 3.25 18.85) (end 3.25 19.15) (layer F.Fab) (width 0.1))
  (fp_line (start 1.25 19.15) (end 3.25 19.15) (layer F.Fab) (width 0.1))
  (fp_line (start -0.15 19.85) (end 0.25 19.85) (layer F.Fab) (width 0.1))
  (fp_line (start -0.15 19.85) (end -0.15 20.15) (layer F.Fab) (width 0.1))
  (fp_line (start -0.15 20.15) (end 0.25 20.15) (layer F.Fab) (width 0.1))
  (fp_line (start 1.25 19.85) (end 3.25 19.85) (layer F.Fab) (width 0.1))
  (fp_line (start 3.25 19.85) (end 3.25 20.15) (layer F.Fab) (width 0.1))
  (fp_line (start 1.25 20.15) (end 3.25 20.15) (layer F.Fab) (width 0.1))
  (fp_line (start -0.15 20.85) (end 0.25 20.85) (layer F.Fab) (width 0.1))
  (fp_line (start -0.15 20.85) (end -0.15 21.15) (layer F.Fab) (width 0.1))
  (fp_line (start -0.15 21.15) (end 0.25 21.15) (layer F.Fab) (width 0.1))
  (fp_line (start 1.25 20.85) (end 3.25 20.85) (layer F.Fab) (width 0.1))
  (fp_line (start 3.25 20.85) (end 3.25 21.15) (layer F.Fab) (width 0.1))
  (fp_line (start 1.25 21.15) (end 3.25 21.15) (layer F.Fab) (width 0.1))
  (fp_line (start -0.15 21.85) (end 0.25 21.85) (layer F.Fab) (width 0.1))
  (fp_line (start -0.15 21.85) (end -0.15 22.15) (layer F.Fab) (width 0.1))
  (fp_line (start -0.15 22.15) (end 0.25 22.15) (layer F.Fab) (width 0.1))
  (fp_line (start 1.25 21.85) (end 3.25 21.85) (layer F.Fab) (width 0.1))
  (fp_line (start 3.25 21.85) (end 3.25 22.15) (layer F.Fab) (width 0.1))
  (fp_line (start 1.25 22.15) (end 3.25 22.15) (layer F.Fab) (width 0.1))
  (fp_line (start -0.15 22.85) (end 0.25 22.85) (layer F.Fab) (width 0.1))
  (fp_line (start -0.15 22.85) (end -0.15 23.15) (layer F.Fab) (width 0.1))
  (fp_line (start -0.15 23.15) (end 0.25 23.15) (layer F.Fab) (width 0.1))
  (fp_line (start 1.25 22.85) (end 3.25 22.85) (layer F.Fab) (width 0.1))
  (fp_line (start 3.25 22.85) (end 3.25 23.15) (layer F.Fab) (width 0.1))
  (fp_line (start 1.25 23.15) (end 3.25 23.15) (layer F.Fab) (width 0.1))
  (fp_line (start -0.15 23.85) (end 0.25 23.85) (layer F.Fab) (width 0.1))
  (fp_line (start -0.15 23.85) (end -0.15 24.15) (layer F.Fab) (width 0.1))
  (fp_line (start -0.15 24.15) (end 0.25 24.15) (layer F.Fab) (width 0.1))
  (fp_line (start 1.25 23.85) (end 3.25 23.85) (layer F.Fab) (width 0.1))
  (fp_line (start 3.25 23.85) (end 3.25 24.15) (layer F.Fab) (width 0.1))
  (fp_line (start 1.25 24.15) (end 3.25 24.15) (layer F.Fab) (width 0.1))
  (fp_line (start -0.15 24.85) (end 0.25 24.85) (layer F.Fab) (width 0.1))
  (fp_line (start -0.15 24.85) (end -0.15 25.15) (layer F.Fab) (width 0.1))
  (fp_line (start -0.15 25.15) (end 0.25 25.15) (layer F.Fab) (width 0.1))
  (fp_line (start 1.25 24.85) (end 3.25 24.85) (layer F.Fab) (width 0.1))
  (fp_line (start 3.25 24.85) (end 3.25 25.15) (layer F.Fab) (width 0.1))
  (fp_line (start 1.25 25.15) (end 3.25 25.15) (layer F.Fab) (width 0.1))
  (fp_line (start -0.15 25.85) (end 0.25 25.85) (layer F.Fab) (width 0.1))
  (fp_line (start -0.15 25.85) (end -0.15 26.15) (layer F.Fab) (width 0.1))
  (fp_line (start -0.15 26.15) (end 0.25 26.15) (layer F.Fab) (width 0.1))
  (fp_line (start 1.25 25.85) (end 3.25 25.85) (layer F.Fab) (width 0.1))
  (fp_line (start 3.25 25.85) (end 3.25 26.15) (layer F.Fab) (width 0.1))
  (fp_line (start 1.25 26.15) (end 3.25 26.15) (layer F.Fab) (width 0.1))
  (fp_line (start -0.15 26.85) (end 0.25 26.85) (layer F.Fab) (width 0.1))
  (fp_line (start -0.15 26.85) (end -0.15 27.15) (layer F.Fab) (width 0.1))
  (fp_line (start -0.15 27.15) (end 0.25 27.15) (layer F.Fab) (width 0.1))
  (fp_line (start 1.25 26.85) (end 3.25 26.85) (layer F.Fab) (width 0.1))
  (fp_line (start 3.25 26.85) (end 3.25 27.15) (layer F.Fab) (width 0.1))
  (fp_line (start 1.25 27.15) (end 3.25 27.15) (layer F.Fab) (width 0.1))
  (fp_line (start -0.15 27.85) (end 0.25 27.85) (layer F.Fab) (width 0.1))
  (fp_line (start -0.15 27.85) (end -0.15 28.15) (layer F.Fab) (width 0.1))
  (fp_line (start -0.15 28.15) (end 0.25 28.15) (layer F.Fab) (width 0.1))
  (fp_line (start 1.25 27.85) (end 3.25 27.85) (layer F.Fab) (width 0.1))
  (fp_line (start 3.25 27.85) (end 3.25 28.15) (layer F.Fab) (width 0.1))
  (fp_line (start 1.25 28.15) (end 3.25 28.15) (layer F.Fab) (width 0.1))
  (fp_line (start -0.15 28.85) (end 0.25 28.85) (layer F.Fab) (width 0.1))
  (fp_line (start -0.15 28.85) (end -0.15 29.15) (layer F.Fab) (width 0.1))
  (fp_line (start -0.15 29.15) (end 0.25 29.15) (layer F.Fab) (width 0.1))
  (fp_line (start 1.25 28.85) (end 3.25 28.85) (layer F.Fab) (width 0.1))
  (fp_line (start 3.25 28.85) (end 3.25 29.15) (layer F.Fab) (width 0.1))
  (fp_line (start 1.25 29.15) (end 3.25 29.15) (layer F.Fab) (width 0.1))
  (fp_line (start -0.15 29.85) (end 0.25 29.85) (layer F.Fab) (width 0.1))
  (fp_line (start -0.15 29.85) (end -0.15 30.15) (layer F.Fab) (width 0.1))
  (fp_line (start -0.15 30.15) (end 0.25 30.15) (layer F.Fab) (width 0.1))
  (fp_line (start 1.25 29.85) (end 3.25 29.85) (layer F.Fab) (width 0.1))
  (fp_line (start 3.25 29.85) (end 3.25 30.15) (layer F.Fab) (width 0.1))
  (fp_line (start 1.25 30.15) (end 3.25 30.15) (layer F.Fab) (width 0.1))
  (fp_line (start 0.685 -0.56) (end 1.31 -0.56) (layer F.SilkS) (width 0.12))
  (fp_line (start 1.31 -0.56) (end 1.31 30.56) (layer F.SilkS) (width 0.12))
  (fp_line (start 1.31 30.56) (end 0.394493 30.56) (layer F.SilkS) (width 0.12))
  (fp_line (start 1.31 -0.21) (end 3.31 -0.21) (layer F.SilkS) (width 0.12))
  (fp_line (start 3.31 -0.21) (end 3.31 0.21) (layer F.SilkS) (width 0.12))
  (fp_line (start 3.31 0.21) (end 1.31 0.21) (layer F.SilkS) (width 0.12))
  (fp_line (start 1.31 -0.15) (end 3.31 -0.15) (layer F.SilkS) (width 0.12))
  (fp_line (start 1.31 -0.03) (end 3.31 -0.03) (layer F.SilkS) (width 0.12))
  (fp_line (start 1.31 0.09) (end 3.31 0.09) (layer F.SilkS) (width 0.12))
  (fp_line (start 0.685 0.5) (end 1.31 0.5) (layer F.SilkS) (width 0.12))
  (fp_line (start 1.31 0.79) (end 3.31 0.79) (layer F.SilkS) (width 0.12))
  (fp_line (start 3.31 0.79) (end 3.31 1.21) (layer F.SilkS) (width 0.12))
  (fp_line (start 3.31 1.21) (end 1.31 1.21) (layer F.SilkS) (width 0.12))
  (fp_line (start 0.468215 1.5) (end 1.31 1.5) (layer F.SilkS) (width 0.12))
  (fp_line (start 1.31 1.79) (end 3.31 1.79) (layer F.SilkS) (width 0.12))
  (fp_line (start 3.31 1.79) (end 3.31 2.21) (layer F.SilkS) (width 0.12))
  (fp_line (start 3.31 2.21) (end 1.31 2.21) (layer F.SilkS) (width 0.12))
  (fp_line (start 0.468215 2.5) (end 1.31 2.5) (layer F.SilkS) (width 0.12))
  (fp_line (start 1.31 2.79) (end 3.31 2.79) (layer F.SilkS) (width 0.12))
  (fp_line (start 3.31 2.79) (end 3.31 3.21) (layer F.SilkS) (width 0.12))
  (fp_line (start 3.31 3.21) (end 1.31 3.21) (layer F.SilkS) (width 0.12))
  (fp_line (start 0.468215 3.5) (end 1.31 3.5) (layer F.SilkS) (width 0.12))
  (fp_line (start 1.31 3.79) (end 3.31 3.79) (layer F.SilkS) (width 0.12))
  (fp_line (start 3.31 3.79) (end 3.31 4.21) (layer F.SilkS) (width 0.12))
  (fp_line (start 3.31 4.21) (end 1.31 4.21) (layer F.SilkS) (width 0.12))
  (fp_line (start 0.468215 4.5) (end 1.31 4.5) (layer F.SilkS) (width 0.12))
  (fp_line (start 1.31 4.79) (end 3.31 4.79) (layer F.SilkS) (width 0.12))
  (fp_line (start 3.31 4.79) (end 3.31 5.21) (layer F.SilkS) (width 0.12))
  (fp_line (start 3.31 5.21) (end 1.31 5.21) (layer F.SilkS) (width 0.12))
  (fp_line (start 0.468215 5.5) (end 1.31 5.5) (layer F.SilkS) (width 0.12))
  (fp_line (start 1.31 5.79) (end 3.31 5.79) (layer F.SilkS) (width 0.12))
  (fp_line (start 3.31 5.79) (end 3.31 6.21) (layer F.SilkS) (width 0.12))
  (fp_line (start 3.31 6.21) (end 1.31 6.21) (layer F.SilkS) (width 0.12))
  (fp_line (start 0.468215 6.5) (end 1.31 6.5) (layer F.SilkS) (width 0.12))
  (fp_line (start 1.31 6.79) (end 3.31 6.79) (layer F.SilkS) (width 0.12))
  (fp_line (start 3.31 6.79) (end 3.31 7.21) (layer F.SilkS) (width 0.12))
  (fp_line (start 3.31 7.21) (end 1.31 7.21) (layer F.SilkS) (width 0.12))
  (fp_line (start 0.468215 7.5) (end 1.31 7.5) (layer F.SilkS) (width 0.12))
  (fp_line (start 1.31 7.79) (end 3.31 7.79) (layer F.SilkS) (width 0.12))
  (fp_line (start 3.31 7.79) (end 3.31 8.21) (layer F.SilkS) (width 0.12))
  (fp_line (start 3.31 8.21) (end 1.31 8.21) (layer F.SilkS) (width 0.12))
  (fp_line (start 0.468215 8.5) (end 1.31 8.5) (layer F.SilkS) (width 0.12))
  (fp_line (start 1.31 8.79) (end 3.31 8.79) (layer F.SilkS) (width 0.12))
  (fp_line (start 3.31 8.79) (end 3.31 9.21) (layer F.SilkS) (width 0.12))
  (fp_line (start 3.31 9.21) (end 1.31 9.21) (layer F.SilkS) (width 0.12))
  (fp_line (start 0.468215 9.5) (end 1.31 9.5) (layer F.SilkS) (width 0.12))
  (fp_line (start 1.31 9.79) (end 3.31 9.79) (layer F.SilkS) (width 0.12))
  (fp_line (start 3.31 9.79) (end 3.31 10.21) (layer F.SilkS) (width 0.12))
  (fp_line (start 3.31 10.21) (end 1.31 10.21) (layer F.SilkS) (width 0.12))
  (fp_line (start 0.468215 10.5) (end 1.31 10.5) (layer F.SilkS) (width 0.12))
  (fp_line (start 1.31 10.79) (end 3.31 10.79) (layer F.SilkS) (width 0.12))
  (fp_line (start 3.31 10.79) (end 3.31 11.21) (layer F.SilkS) (width 0.12))
  (fp_line (start 3.31 11.21) (end 1.31 11.21) (layer F.SilkS) (width 0.12))
  (fp_line (start 0.468215 11.5) (end 1.31 11.5) (layer F.SilkS) (width 0.12))
  (fp_line (start 1.31 11.79) (end 3.31 11.79) (layer F.SilkS) (width 0.12))
  (fp_line (start 3.31 11.79) (end 3.31 12.21) (layer F.SilkS) (width 0.12))
  (fp_line (start 3.31 12.21) (end 1.31 12.21) (layer F.SilkS) (width 0.12))
  (fp_line (start 0.468215 12.5) (end 1.31 12.5) (layer F.SilkS) (width 0.12))
  (fp_line (start 1.31 12.79) (end 3.31 12.79) (layer F.SilkS) (width 0.12))
  (fp_line (start 3.31 12.79) (end 3.31 13.21) (layer F.SilkS) (width 0.12))
  (fp_line (start 3.31 13.21) (end 1.31 13.21) (layer F.SilkS) (width 0.12))
  (fp_line (start 0.468215 13.5) (end 1.31 13.5) (layer F.SilkS) (width 0.12))
  (fp_line (start 1.31 13.79) (end 3.31 13.79) (layer F.SilkS) (width 0.12))
  (fp_line (start 3.31 13.79) (end 3.31 14.21) (layer F.SilkS) (width 0.12))
  (fp_line (start 3.31 14.21) (end 1.31 14.21) (layer F.SilkS) (width 0.12))
  (fp_line (start 0.468215 14.5) (end 1.31 14.5) (layer F.SilkS) (width 0.12))
  (fp_line (start 1.31 14.79) (end 3.31 14.79) (layer F.SilkS) (width 0.12))
  (fp_line (start 3.31 14.79) (end 3.31 15.21) (layer F.SilkS) (width 0.12))
  (fp_line (start 3.31 15.21) (end 1.31 15.21) (layer F.SilkS) (width 0.12))
  (fp_line (start 0.468215 15.5) (end 1.31 15.5) (layer F.SilkS) (width 0.12))
  (fp_line (start 1.31 15.79) (end 3.31 15.79) (layer F.SilkS) (width 0.12))
  (fp_line (start 3.31 15.79) (end 3.31 16.21) (layer F.SilkS) (width 0.12))
  (fp_line (start 3.31 16.21) (end 1.31 16.21) (layer F.SilkS) (width 0.12))
  (fp_line (start 0.468215 16.5) (end 1.31 16.5) (layer F.SilkS) (width 0.12))
  (fp_line (start 1.31 16.79) (end 3.31 16.79) (layer F.SilkS) (width 0.12))
  (fp_line (start 3.31 16.79) (end 3.31 17.21) (layer F.SilkS) (width 0.12))
  (fp_line (start 3.31 17.21) (end 1.31 17.21) (layer F.SilkS) (width 0.12))
  (fp_line (start 0.468215 17.5) (end 1.31 17.5) (layer F.SilkS) (width 0.12))
  (fp_line (start 1.31 17.79) (end 3.31 17.79) (layer F.SilkS) (width 0.12))
  (fp_line (start 3.31 17.79) (end 3.31 18.21) (layer F.SilkS) (width 0.12))
  (fp_line (start 3.31 18.21) (end 1.31 18.21) (layer F.SilkS) (width 0.12))
  (fp_line (start 0.468215 18.5) (end 1.31 18.5) (layer F.SilkS) (width 0.12))
  (fp_line (start 1.31 18.79) (end 3.31 18.79) (layer F.SilkS) (width 0.12))
  (fp_line (start 3.31 18.79) (end 3.31 19.21) (layer F.SilkS) (width 0.12))
  (fp_line (start 3.31 19.21) (end 1.31 19.21) (layer F.SilkS) (width 0.12))
  (fp_line (start 0.468215 19.5) (end 1.31 19.5) (layer F.SilkS) (width 0.12))
  (fp_line (start 1.31 19.79) (end 3.31 19.79) (layer F.SilkS) (width 0.12))
  (fp_line (start 3.31 19.79) (end 3.31 20.21) (layer F.SilkS) (width 0.12))
  (fp_line (start 3.31 20.21) (end 1.31 20.21) (layer F.SilkS) (width 0.12))
  (fp_line (start 0.468215 20.5) (end 1.31 20.5) (layer F.SilkS) (width 0.12))
  (fp_line (start 1.31 20.79) (end 3.31 20.79) (layer F.SilkS) (width 0.12))
  (fp_line (start 3.31 20.79) (end 3.31 21.21) (layer F.SilkS) (width 0.12))
  (fp_line (start 3.31 21.21) (end 1.31 21.21) (layer F.SilkS) (width 0.12))
  (fp_line (start 0.468215 21.5) (end 1.31 21.5) (layer F.SilkS) (width 0.12))
  (fp_line (start 1.31 21.79) (end 3.31 21.79) (layer F.SilkS) (width 0.12))
  (fp_line (start 3.31 21.79) (end 3.31 22.21) (layer F.SilkS) (width 0.12))
  (fp_line (start 3.31 22.21) (end 1.31 22.21) (layer F.SilkS) (width 0.12))
  (fp_line (start 0.468215 22.5) (end 1.31 22.5) (layer F.SilkS) (width 0.12))
  (fp_line (start 1.31 22.79) (end 3.31 22.79) (layer F.SilkS) (width 0.12))
  (fp_line (start 3.31 22.79) (end 3.31 23.21) (layer F.SilkS) (width 0.12))
  (fp_line (start 3.31 23.21) (end 1.31 23.21) (layer F.SilkS) (width 0.12))
  (fp_line (start 0.468215 23.5) (end 1.31 23.5) (layer F.SilkS) (width 0.12))
  (fp_line (start 1.31 23.79) (end 3.31 23.79) (layer F.SilkS) (width 0.12))
  (fp_line (start 3.31 23.79) (end 3.31 24.21) (layer F.SilkS) (width 0.12))
  (fp_line (start 3.31 24.21) (end 1.31 24.21) (layer F.SilkS) (width 0.12))
  (fp_line (start 0.468215 24.5) (end 1.31 24.5) (layer F.SilkS) (width 0.12))
  (fp_line (start 1.31 24.79) (end 3.31 24.79) (layer F.SilkS) (width 0.12))
  (fp_line (start 3.31 24.79) (end 3.31 25.21) (layer F.SilkS) (width 0.12))
  (fp_line (start 3.31 25.21) (end 1.31 25.21) (layer F.SilkS) (width 0.12))
  (fp_line (start 0.468215 25.5) (end 1.31 25.5) (layer F.SilkS) (width 0.12))
  (fp_line (start 1.31 25.79) (end 3.31 25.79) (layer F.SilkS) (width 0.12))
  (fp_line (start 3.31 25.79) (end 3.31 26.21) (layer F.SilkS) (width 0.12))
  (fp_line (start 3.31 26.21) (end 1.31 26.21) (layer F.SilkS) (width 0.12))
  (fp_line (start 0.468215 26.5) (end 1.31 26.5) (layer F.SilkS) (width 0.12))
  (fp_line (start 1.31 26.79) (end 3.31 26.79) (layer F.SilkS) (width 0.12))
  (fp_line (start 3.31 26.79) (end 3.31 27.21) (layer F.SilkS) (width 0.12))
  (fp_line (start 3.31 27.21) (end 1.31 27.21) (layer F.SilkS) (width 0.12))
  (fp_line (start 0.468215 27.5) (end 1.31 27.5) (layer F.SilkS) (width 0.12))
  (fp_line (start 1.31 27.79) (end 3.31 27.79) (layer F.SilkS) (width 0.12))
  (fp_line (start 3.31 27.79) (end 3.31 28.21) (layer F.SilkS) (width 0.12))
  (fp_line (start 3.31 28.21) (end 1.31 28.21) (layer F.SilkS) (width 0.12))
  (fp_line (start 0.468215 28.5) (end 1.31 28.5) (layer F.SilkS) (width 0.12))
  (fp_line (start 1.31 28.79) (end 3.31 28.79) (layer F.SilkS) (width 0.12))
  (fp_line (start 3.31 28.79) (end 3.31 29.21) (layer F.SilkS) (width 0.12))
  (fp_line (start 3.31 29.21) (end 1.31 29.21) (layer F.SilkS) (width 0.12))
  (fp_line (start 0.468215 29.5) (end 1.31 29.5) (layer F.SilkS) (width 0.12))
  (fp_line (start 1.31 29.79) (end 3.31 29.79) (layer F.SilkS) (width 0.12))
  (fp_line (start 3.31 29.79) (end 3.31 30.21) (layer F.SilkS) (width 0.12))
  (fp_line (start 3.31 30.21) (end 1.31 30.21) (layer F.SilkS) (width 0.12))
  (fp_line (start -0.685 0) (end -0.685 -0.685) (layer F.SilkS) (width 0.12))
  (fp_line (start -0.685 -0.685) (end 0 -0.685) (layer F.SilkS) (width 0.12))
  (fp_line (start -1 -1) (end -1 31) (layer F.CrtYd) (width 0.05))
  (fp_line (start -1 31) (end 3.75 31) (layer F.CrtYd) (width 0.05))
  (fp_line (start 3.75 31) (end 3.75 -1) (layer F.CrtYd) (width 0.05))
  (fp_line (start 3.75 -1) (end -1 -1) (layer F.CrtYd) (width 0.05))
  (pad 1 thru_hole rect (at 0 0) (size 0.85 0.85) (drill 0.5) (layers *.Cu *.Mask))
  (pad 2 thru_hole oval (at 0 1) (size 0.85 0.85) (drill 0.5) (layers *.Cu *.Mask))
  (pad 3 thru_hole oval (at 0 2) (size 0.85 0.85) (drill 0.5) (layers *.Cu *.Mask))
  (pad 4 thru_hole oval (at 0 3) (size 0.85 0.85) (drill 0.5) (layers *.Cu *.Mask))
  (pad 5 thru_hole oval (at 0 4) (size 0.85 0.85) (drill 0.5) (layers *.Cu *.Mask))
  (pad 6 thru_hole oval (at 0 5) (size 0.85 0.85) (drill 0.5) (layers *.Cu *.Mask))
  (pad 7 thru_hole oval (at 0 6) (size 0.85 0.85) (drill 0.5) (layers *.Cu *.Mask))
  (pad 8 thru_hole oval (at 0 7) (size 0.85 0.85) (drill 0.5) (layers *.Cu *.Mask))
  (pad 9 thru_hole oval (at 0 8) (size 0.85 0.85) (drill 0.5) (layers *.Cu *.Mask))
  (pad 10 thru_hole oval (at 0 9) (size 0.85 0.85) (drill 0.5) (layers *.Cu *.Mask))
  (pad 11 thru_hole oval (at 0 10) (size 0.85 0.85) (drill 0.5) (layers *.Cu *.Mask))
  (pad 12 thru_hole oval (at 0 11) (size 0.85 0.85) (drill 0.5) (layers *.Cu *.Mask))
  (pad 13 thru_hole oval (at 0 12) (size 0.85 0.85) (drill 0.5) (layers *.Cu *.Mask))
  (pad 14 thru_hole oval (at 0 13) (size 0.85 0.85) (drill 0.5) (layers *.Cu *.Mask))
  (pad 15 thru_hole oval (at 0 14) (size 0.85 0.85) (drill 0.5) (layers *.Cu *.Mask))
  (pad 16 thru_hole oval (at 0 15) (size 0.85 0.85) (drill 0.5) (layers *.Cu *.Mask))
  (pad 17 thru_hole oval (at 0 16) (size 0.85 0.85) (drill 0.5) (layers *.Cu *.Mask))
  (pad 18 thru_hole oval (at 0 17) (size 0.85 0.85) (drill 0.5) (layers *.Cu *.Mask))
  (pad 19 thru_hole oval (at 0 18) (size 0.85 0.85) (drill 0.5) (layers *.Cu *.Mask))
  (pad 20 thru_hole oval (at 0 19) (size 0.85 0.85) (drill 0.5) (layers *.Cu *.Mask))
  (pad 21 thru_hole oval (at 0 20) (size 0.85 0.85) (drill 0.5) (layers *.Cu *.Mask))
  (pad 22 thru_hole oval (at 0 21) (size 0.85 0.85) (drill 0.5) (layers *.Cu *.Mask))
  (pad 23 thru_hole oval (at 0 22) (size 0.85 0.85) (drill 0.5) (layers *.Cu *.Mask))
  (pad 24 thru_hole oval (at 0 23) (size 0.85 0.85) (drill 0.5) (layers *.Cu *.Mask))
  (pad 25 thru_hole oval (at 0 24) (size 0.85 0.85) (drill 0.5) (layers *.Cu *.Mask))
  (pad 26 thru_hole oval (at 0 25) (size 0.85 0.85) (drill 0.5) (layers *.Cu *.Mask))
  (pad 27 thru_hole oval (at 0 26) (size 0.85 0.85) (drill 0.5) (layers *.Cu *.Mask))
  (pad 28 thru_hole oval (at 0 27) (size 0.85 0.85) (drill 0.5) (layers *.Cu *.Mask))
  (pad 29 thru_hole oval (at 0 28) (size 0.85 0.85) (drill 0.5) (layers *.Cu *.Mask))
  (pad 30 thru_hole oval (at 0 29) (size 0.85 0.85) (drill 0.5) (layers *.Cu *.Mask))
  (pad 31 thru_hole oval (at 0 30) (size 0.85 0.85) (drill 0.5) (layers *.Cu *.Mask))
  (fp_text user %R (at 0.75 15 90) (layer F.Fab)
    (effects (font (size 0.6 0.6) (thickness 0.09)))
  )
  (model ${KIPRJMOD}/kicad_libs_k/models_k.3d/Connector_PinHeader_1.00mm_k.3dshapes/PinHeader_1x31_P1.00mm_Horizontal_k.wrl
    (at (xyz 0 0 0))
    (scale (xyz 1 1 1))
    (rotate (xyz 0 0 0))
  )
)