(module TO-220-5_P3.4x3.7mm_StaggerEven_Lead3.8mm_Vertical (layer F.Cu) (tedit 5AF05A31)
  (descr "TO-220-5, Vertical, RM 1.7mm, Pentawatt, Multiwatt-5, staggered type-2, see http://www.analog.com/media/en/package-pcb-resources/package/pkg_pdf/ltc-legacy-to-220/to-220_5_05-08-1421.pdf?domain=www.linear.com, https://www.diodes.com/assets/Package-Files/TO220-5.pdf")
  (tags "TO-220-5 Vertical RM 1.7mm Pentawatt Multiwatt-5 staggered type-2")
  (fp_text reference REF** (at 3.4 -5.62) (layer F.SilkS)
    (effects (font (size 1 1) (thickness 0.15)))
  )
  (fp_text value TO-220-5_P3.4x3.7mm_StaggerEven_Lead3.8mm_Vertical (at 3.4 5.85) (layer F.Fab)
    (effects (font (size 1 1) (thickness 0.15)))
  )
  (fp_line (start -1.6 -4.5) (end -1.6 -0.1) (layer F.Fab) (width 0.1))
  (fp_line (start -1.6 -0.1) (end 8.4 -0.1) (layer F.Fab) (width 0.1))
  (fp_line (start 8.4 -0.1) (end 8.4 -4.5) (layer F.Fab) (width 0.1))
  (fp_line (start 8.4 -4.5) (end -1.6 -4.5) (layer F.Fab) (width 0.1))
  (fp_line (start -1.6 -3.23) (end 8.4 -3.23) (layer F.Fab) (width 0.1))
  (fp_line (start 1.55 -4.5) (end 1.55 -3.23) (layer F.Fab) (width 0.1))
  (fp_line (start 5.25 -4.5) (end 5.25 -3.23) (layer F.Fab) (width 0.1))
  (fp_line (start 0 -0.1) (end 0 0) (layer F.Fab) (width 0.1))
  (fp_line (start 1.7 -0.1) (end 1.7 3.7) (layer F.Fab) (width 0.1))
  (fp_line (start 3.4 -0.1) (end 3.4 0) (layer F.Fab) (width 0.1))
  (fp_line (start 5.1 -0.1) (end 5.1 3.7) (layer F.Fab) (width 0.1))
  (fp_line (start 6.8 -0.1) (end 6.8 0) (layer F.Fab) (width 0.1))
  (fp_line (start -1.721 -4.62) (end 8.52 -4.62) (layer F.SilkS) (width 0.12))
  (fp_line (start -1.721 0.021) (end -1.05 0.021) (layer F.SilkS) (width 0.12))
  (fp_line (start 1.05 0.021) (end 2.335 0.021) (layer F.SilkS) (width 0.12))
  (fp_line (start 4.465 0.021) (end 5.735 0.021) (layer F.SilkS) (width 0.12))
  (fp_line (start 7.865 0.021) (end 8.52 0.021) (layer F.SilkS) (width 0.12))
  (fp_line (start -1.721 -4.62) (end -1.721 0.021) (layer F.SilkS) (width 0.12))
  (fp_line (start 8.52 -4.62) (end 8.52 0.021) (layer F.SilkS) (width 0.12))
  (fp_line (start -1.721 -3.111) (end 8.52 -3.111) (layer F.SilkS) (width 0.12))
  (fp_line (start 1.55 -4.62) (end 1.55 -3.111) (layer F.SilkS) (width 0.12))
  (fp_line (start 5.25 -4.62) (end 5.25 -3.111) (layer F.SilkS) (width 0.12))
  (fp_line (start 1.7 0.021) (end 1.7 2.635) (layer F.SilkS) (width 0.12))
  (fp_line (start 5.1 0.021) (end 5.1 2.635) (layer F.SilkS) (width 0.12))
  (fp_line (start -1.85 -4.75) (end -1.85 4.85) (layer F.CrtYd) (width 0.05))
  (fp_line (start -1.85 4.85) (end 8.65 4.85) (layer F.CrtYd) (width 0.05))
  (fp_line (start 8.65 4.85) (end 8.65 -4.75) (layer F.CrtYd) (width 0.05))
  (fp_line (start 8.65 -4.75) (end -1.85 -4.75) (layer F.CrtYd) (width 0.05))
  (pad 1 thru_hole rect (at 0 0) (size 1.8 1.8) (drill 1.1) (layers *.Cu *.Mask))
  (pad 2 thru_hole oval (at 1.7 3.7) (size 1.8 1.8) (drill 1.1) (layers *.Cu *.Mask))
  (pad 3 thru_hole oval (at 3.4 0) (size 1.8 1.8) (drill 1.1) (layers *.Cu *.Mask))
  (pad 4 thru_hole oval (at 5.1 3.7) (size 1.8 1.8) (drill 1.1) (layers *.Cu *.Mask))
  (pad 5 thru_hole oval (at 6.8 0) (size 1.8 1.8) (drill 1.1) (layers *.Cu *.Mask))
  (fp_text user %R (at 3.4 -5.62) (layer F.Fab)
    (effects (font (size 1 1) (thickness 0.15)))
  )
  (model ${KIPRJMOD}/kicad_libs_k/models_k.3d/Package_TO_SOT_THT_k.3dshapes/TO-220-5_P3.4x3.7mm_StaggerEven_Lead3.8mm_Vertical_k.wrl
    (at (xyz 0 0 0))
    (scale (xyz 1 1 1))
    (rotate (xyz 0 0 0))
  )
)