(module TO-218-3_Horizontal_TabUp (layer F.Cu) (tedit 5ACBC81F)
  (descr "TO-218-3, Horizontal, RM 5.475mm, SOT-93, see https://www.vishay.com/docs/95214/fto218.pdf")
  (tags "TO-218-3 Horizontal RM 5.475mm SOT-93")
  (fp_text reference REF** (at 5.475 23.45) (layer F.SilkS)
    (effects (font (size 1 1) (thickness 0.15)))
  )
  (fp_text value TO-218-3_Horizontal_TabUp (at 5.475 -2.75) (layer F.Fab)
    (effects (font (size 1 1) (thickness 0.15)))
  )
  (fp_circle (center 5.475 18.55) (end 7.59 18.55) (layer F.Fab) (width 0.1))
  (fp_line (start -1.995 14.54) (end -1.995 22.33) (layer F.Fab) (width 0.1))
  (fp_line (start -1.995 22.33) (end 12.945 22.33) (layer F.Fab) (width 0.1))
  (fp_line (start 12.945 22.33) (end 12.945 14.54) (layer F.Fab) (width 0.1))
  (fp_line (start 12.945 14.54) (end -1.995 14.54) (layer F.Fab) (width 0.1))
  (fp_line (start -1.995 2.35) (end -1.995 14.54) (layer F.Fab) (width 0.1))
  (fp_line (start -1.995 14.54) (end 12.945 14.54) (layer F.Fab) (width 0.1))
  (fp_line (start 12.945 14.54) (end 12.945 2.35) (layer F.Fab) (width 0.1))
  (fp_line (start 12.945 2.35) (end -1.995 2.35) (layer F.Fab) (width 0.1))
  (fp_line (start 0 2.35) (end 0 0) (layer F.Fab) (width 0.1))
  (fp_line (start 5.475 2.35) (end 5.475 0) (layer F.Fab) (width 0.1))
  (fp_line (start 10.95 2.35) (end 10.95 0) (layer F.Fab) (width 0.1))
  (fp_line (start -2.115 2.23) (end 13.065 2.23) (layer F.SilkS) (width 0.12))
  (fp_line (start -2.115 14.66) (end 13.065 14.66) (layer F.SilkS) (width 0.12))
  (fp_line (start -2.115 2.23) (end -2.115 14.66) (layer F.SilkS) (width 0.12))
  (fp_line (start 13.065 2.23) (end 13.065 14.66) (layer F.SilkS) (width 0.12))
  (fp_line (start -2.115 22.45) (end -0.916 22.45) (layer F.SilkS) (width 0.12))
  (fp_line (start 0.285 22.45) (end 1.485 22.45) (layer F.SilkS) (width 0.12))
  (fp_line (start 2.685 22.45) (end 3.885 22.45) (layer F.SilkS) (width 0.12))
  (fp_line (start 5.085 22.45) (end 6.285 22.45) (layer F.SilkS) (width 0.12))
  (fp_line (start 7.485 22.45) (end 8.685 22.45) (layer F.SilkS) (width 0.12))
  (fp_line (start 9.885 22.45) (end 11.085 22.45) (layer F.SilkS) (width 0.12))
  (fp_line (start 12.285 22.45) (end 13.065 22.45) (layer F.SilkS) (width 0.12))
  (fp_line (start -2.115 14.9) (end -2.115 16.101) (layer F.SilkS) (width 0.12))
  (fp_line (start -2.115 17.3) (end -2.115 18.5) (layer F.SilkS) (width 0.12))
  (fp_line (start -2.115 19.7) (end -2.115 20.9) (layer F.SilkS) (width 0.12))
  (fp_line (start -2.115 22.1) (end -2.115 22.45) (layer F.SilkS) (width 0.12))
  (fp_line (start 13.065 14.9) (end 13.065 16.101) (layer F.SilkS) (width 0.12))
  (fp_line (start 13.065 17.3) (end 13.065 18.5) (layer F.SilkS) (width 0.12))
  (fp_line (start 13.065 19.7) (end 13.065 20.9) (layer F.SilkS) (width 0.12))
  (fp_line (start 13.065 22.1) (end 13.065 22.45) (layer F.SilkS) (width 0.12))
  (fp_line (start 0 1.9) (end 0 2.23) (layer F.SilkS) (width 0.12))
  (fp_line (start 5.475 1.9) (end 5.475 2.23) (layer F.SilkS) (width 0.12))
  (fp_line (start 10.95 1.9) (end 10.95 2.23) (layer F.SilkS) (width 0.12))
  (fp_line (start -2.25 -2) (end -2.25 22.58) (layer F.CrtYd) (width 0.05))
  (fp_line (start -2.25 22.58) (end 13.2 22.58) (layer F.CrtYd) (width 0.05))
  (fp_line (start 13.2 22.58) (end 13.2 -2) (layer F.CrtYd) (width 0.05))
  (fp_line (start 13.2 -2) (end -2.25 -2) (layer F.CrtYd) (width 0.05))
  (pad "" np_thru_hole oval (at 5.475 18.55) (size 4.04 4.04) (drill 4.04) (layers *.Cu *.Mask))
  (pad 1 thru_hole rect (at 0 0) (size 2.5 3.5) (drill 1.5) (layers *.Cu *.Mask))
  (pad 2 thru_hole oval (at 5.475 0) (size 2.5 3.5) (drill 1.5) (layers *.Cu *.Mask))
  (pad 3 thru_hole oval (at 10.95 0) (size 2.5 3.5) (drill 1.5) (layers *.Cu *.Mask))
  (fp_text user %R (at 5.475 23.45) (layer F.Fab)
    (effects (font (size 1 1) (thickness 0.15)))
  )
  (model ${KIPRJMOD}/kicad_libs_k/models_k.3d/Package_TO_SOT_THT_k.3dshapes/TO-218-3_Horizontal_TabUp_k.wrl
    (at (xyz 0 0 0))
    (scale (xyz 1 1 1))
    (rotate (xyz 0 0 0))
  )
)