(module TO-220-4_Vertical_StaggeredType1_Py3.7mm (layer F.Cu) (tedit 5ACC4AF2)
  (descr "TO-220-4, Vertical, RM 2.54mm, staggered type-1")
  (tags "TO-220-4 Vertical RM 2.54mm staggered type-1")
  (fp_text reference REF** (at 3.81 -9.32) (layer F.SilkS)
    (effects (font (size 1 1) (thickness 0.15)))
  )
  (fp_text value TO-220-4_Vertical_StaggeredType1_Py3.7mm (at 3.81 2.15) (layer F.Fab)
    (effects (font (size 1 1) (thickness 0.15)))
  )
  (fp_line (start -1.19 -8.2) (end -1.19 -3.8) (layer F.Fab) (width 0.1))
  (fp_line (start -1.19 -3.8) (end 8.81 -3.8) (layer F.Fab) (width 0.1))
  (fp_line (start 8.81 -3.8) (end 8.81 -8.2) (layer F.Fab) (width 0.1))
  (fp_line (start 8.81 -8.2) (end -1.19 -8.2) (layer F.Fab) (width 0.1))
  (fp_line (start -1.19 -6.93) (end 8.81 -6.93) (layer F.Fab) (width 0.1))
  (fp_line (start 1.96 -8.2) (end 1.96 -6.93) (layer F.Fab) (width 0.1))
  (fp_line (start 5.66 -8.2) (end 5.66 -6.93) (layer F.Fab) (width 0.1))
  (fp_line (start 0 -3.8) (end 0 0) (layer F.Fab) (width 0.1))
  (fp_line (start 2.54 -3.8) (end 2.54 -3.7) (layer F.Fab) (width 0.1))
  (fp_line (start 5.08 -3.8) (end 5.08 0) (layer F.Fab) (width 0.1))
  (fp_line (start 7.62 -3.8) (end 7.62 -3.7) (layer F.Fab) (width 0.1))
  (fp_line (start -1.31 -8.32) (end 8.93 -8.32) (layer F.SilkS) (width 0.12))
  (fp_line (start -1.31 -3.679) (end 1.475 -3.679) (layer F.SilkS) (width 0.12))
  (fp_line (start 3.605 -3.679) (end 6.556 -3.679) (layer F.SilkS) (width 0.12))
  (fp_line (start 8.685 -3.679) (end 8.93 -3.679) (layer F.SilkS) (width 0.12))
  (fp_line (start -1.31 -8.32) (end -1.31 -3.679) (layer F.SilkS) (width 0.12))
  (fp_line (start 8.93 -8.32) (end 8.93 -3.679) (layer F.SilkS) (width 0.12))
  (fp_line (start -1.31 -6.811) (end 8.93 -6.811) (layer F.SilkS) (width 0.12))
  (fp_line (start 1.96 -8.32) (end 1.96 -6.811) (layer F.SilkS) (width 0.12))
  (fp_line (start 5.66 -8.32) (end 5.66 -6.811) (layer F.SilkS) (width 0.12))
  (fp_line (start 0 -3.679) (end 0 -1.049) (layer F.SilkS) (width 0.12))
  (fp_line (start 5.08 -3.679) (end 5.08 -1.065) (layer F.SilkS) (width 0.12))
  (fp_line (start -1.44 -8.45) (end -1.44 1.15) (layer F.CrtYd) (width 0.05))
  (fp_line (start -1.44 1.15) (end 9.06 1.15) (layer F.CrtYd) (width 0.05))
  (fp_line (start 9.06 1.15) (end 9.06 -8.45) (layer F.CrtYd) (width 0.05))
  (fp_line (start 9.06 -8.45) (end -1.44 -8.45) (layer F.CrtYd) (width 0.05))
  (pad 1 thru_hole rect (at 0 0) (size 1.8 1.8) (drill 1.1) (layers *.Cu *.Mask))
  (pad 2 thru_hole oval (at 2.54 -3.7) (size 1.8 1.8) (drill 1.1) (layers *.Cu *.Mask))
  (pad 3 thru_hole oval (at 5.08 0) (size 1.8 1.8) (drill 1.1) (layers *.Cu *.Mask))
  (pad 4 thru_hole oval (at 7.62 -3.7) (size 1.8 1.8) (drill 1.1) (layers *.Cu *.Mask))
  (fp_text user %R (at 3.81 -9.32) (layer F.Fab)
    (effects (font (size 1 1) (thickness 0.15)))
  )
  (model ${KIPRJMOD}/kicad_libs_k/models_k.3d/Package_TO_SOT_THT_k.3dshapes/TO-220-4_Vertical_StaggeredType1_Py3.7mm_k.wrl
    (at (xyz 0 0 0))
    (scale (xyz 1 1 1))
    (rotate (xyz 0 0 0))
  )
)