(module TO-220-15_Horizontal_TabDown_StaggeredType2_Py2.54mm (layer F.Cu) (tedit 5ACC4916)
  (descr "TO-220-15, Horizontal, RM 1.27mm, staggered type-2, see http://www.st.com/resource/en/datasheet/l298.pdf")
  (tags "TO-220-15 Horizontal RM 1.27mm staggered type-2")
  (fp_text reference REF** (at 8.89 -21.92) (layer F.SilkS)
    (effects (font (size 1 1) (thickness 0.15)))
  )
  (fp_text value TO-220-15_Horizontal_TabDown_StaggeredType2_Py2.54mm (at 8.89 4.44) (layer F.Fab)
    (effects (font (size 1 1) (thickness 0.15)))
  )
  (fp_circle (center 8.89 -18) (end 10.74 -18) (layer F.Fab) (width 0.1))
  (fp_line (start -1.21 -14) (end -1.21 -18.55) (layer F.Fab) (width 0.1))
  (fp_line (start -1.21 -18.55) (end 1.041 -20.8) (layer F.Fab) (width 0.1))
  (fp_line (start 1.041 -20.8) (end 16.74 -20.8) (layer F.Fab) (width 0.1))
  (fp_line (start 16.74 -20.8) (end 18.99 -18.55) (layer F.Fab) (width 0.1))
  (fp_line (start 18.99 -18.55) (end 18.99 -14) (layer F.Fab) (width 0.1))
  (fp_line (start 18.99 -14) (end -1.21 -14) (layer F.Fab) (width 0.1))
  (fp_line (start -1.21 -3.3) (end -1.21 -14) (layer F.Fab) (width 0.1))
  (fp_line (start -1.21 -14) (end 18.99 -14) (layer F.Fab) (width 0.1))
  (fp_line (start 18.99 -14) (end 18.99 -3.3) (layer F.Fab) (width 0.1))
  (fp_line (start 18.99 -3.3) (end -1.21 -3.3) (layer F.Fab) (width 0.1))
  (fp_line (start 0 -3.3) (end 0 0) (layer F.Fab) (width 0.1))
  (fp_line (start 1.27 -3.3) (end 1.27 2.54) (layer F.Fab) (width 0.1))
  (fp_line (start 2.54 -3.3) (end 2.54 0) (layer F.Fab) (width 0.1))
  (fp_line (start 3.81 -3.3) (end 3.81 2.54) (layer F.Fab) (width 0.1))
  (fp_line (start 5.08 -3.3) (end 5.08 0) (layer F.Fab) (width 0.1))
  (fp_line (start 6.35 -3.3) (end 6.35 2.54) (layer F.Fab) (width 0.1))
  (fp_line (start 7.62 -3.3) (end 7.62 0) (layer F.Fab) (width 0.1))
  (fp_line (start 8.89 -3.3) (end 8.89 2.54) (layer F.Fab) (width 0.1))
  (fp_line (start 10.16 -3.3) (end 10.16 0) (layer F.Fab) (width 0.1))
  (fp_line (start 11.43 -3.3) (end 11.43 2.54) (layer F.Fab) (width 0.1))
  (fp_line (start 12.7 -3.3) (end 12.7 0) (layer F.Fab) (width 0.1))
  (fp_line (start 13.97 -3.3) (end 13.97 2.54) (layer F.Fab) (width 0.1))
  (fp_line (start 15.24 -3.3) (end 15.24 0) (layer F.Fab) (width 0.1))
  (fp_line (start 16.51 -3.3) (end 16.51 2.54) (layer F.Fab) (width 0.1))
  (fp_line (start 17.78 -3.3) (end 17.78 0) (layer F.Fab) (width 0.1))
  (fp_line (start -1.33 -3.18) (end 19.11 -3.18) (layer F.SilkS) (width 0.12))
  (fp_line (start -1.33 -20.92) (end 19.11 -20.92) (layer F.SilkS) (width 0.12))
  (fp_line (start -1.33 -20.92) (end -1.33 -3.18) (layer F.SilkS) (width 0.12))
  (fp_line (start 19.11 -20.92) (end 19.11 -3.18) (layer F.SilkS) (width 0.12))
  (fp_line (start 0 -3.18) (end 0 -1.05) (layer F.SilkS) (width 0.12))
  (fp_line (start 1.27 -3.18) (end 1.27 1.475) (layer F.SilkS) (width 0.12))
  (fp_line (start 2.54 -3.18) (end 2.54 -1.066) (layer F.SilkS) (width 0.12))
  (fp_line (start 3.81 -3.18) (end 3.81 1.475) (layer F.SilkS) (width 0.12))
  (fp_line (start 5.08 -3.18) (end 5.08 -1.066) (layer F.SilkS) (width 0.12))
  (fp_line (start 6.35 -3.18) (end 6.35 1.475) (layer F.SilkS) (width 0.12))
  (fp_line (start 7.62 -3.18) (end 7.62 -1.066) (layer F.SilkS) (width 0.12))
  (fp_line (start 8.89 -3.18) (end 8.89 1.475) (layer F.SilkS) (width 0.12))
  (fp_line (start 10.16 -3.18) (end 10.16 -1.066) (layer F.SilkS) (width 0.12))
  (fp_line (start 11.43 -3.18) (end 11.43 1.475) (layer F.SilkS) (width 0.12))
  (fp_line (start 12.7 -3.18) (end 12.7 -1.066) (layer F.SilkS) (width 0.12))
  (fp_line (start 13.97 -3.18) (end 13.97 1.475) (layer F.SilkS) (width 0.12))
  (fp_line (start 15.24 -3.18) (end 15.24 -1.066) (layer F.SilkS) (width 0.12))
  (fp_line (start 16.51 -3.18) (end 16.51 1.475) (layer F.SilkS) (width 0.12))
  (fp_line (start 17.78 -3.18) (end 17.78 -1.066) (layer F.SilkS) (width 0.12))
  (fp_line (start -1.46 -21.05) (end -1.46 3.69) (layer F.CrtYd) (width 0.05))
  (fp_line (start -1.46 3.69) (end 19.25 3.69) (layer F.CrtYd) (width 0.05))
  (fp_line (start 19.25 3.69) (end 19.25 -21.05) (layer F.CrtYd) (width 0.05))
  (fp_line (start 19.25 -21.05) (end -1.46 -21.05) (layer F.CrtYd) (width 0.05))
  (pad "" np_thru_hole oval (at 8.89 -18) (size 3.5 3.5) (drill 3.5) (layers *.Cu *.Mask))
  (pad 1 thru_hole rect (at 0 0) (size 1.8 1.8) (drill 1) (layers *.Cu *.Mask))
  (pad 2 thru_hole oval (at 1.27 2.54) (size 1.8 1.8) (drill 1) (layers *.Cu *.Mask))
  (pad 3 thru_hole oval (at 2.54 0) (size 1.8 1.8) (drill 1) (layers *.Cu *.Mask))
  (pad 4 thru_hole oval (at 3.81 2.54) (size 1.8 1.8) (drill 1) (layers *.Cu *.Mask))
  (pad 5 thru_hole oval (at 5.08 0) (size 1.8 1.8) (drill 1) (layers *.Cu *.Mask))
  (pad 6 thru_hole oval (at 6.35 2.54) (size 1.8 1.8) (drill 1) (layers *.Cu *.Mask))
  (pad 7 thru_hole oval (at 7.62 0) (size 1.8 1.8) (drill 1) (layers *.Cu *.Mask))
  (pad 8 thru_hole oval (at 8.89 2.54) (size 1.8 1.8) (drill 1) (layers *.Cu *.Mask))
  (pad 9 thru_hole oval (at 10.16 0) (size 1.8 1.8) (drill 1) (layers *.Cu *.Mask))
  (pad 10 thru_hole oval (at 11.43 2.54) (size 1.8 1.8) (drill 1) (layers *.Cu *.Mask))
  (pad 11 thru_hole oval (at 12.7 0) (size 1.8 1.8) (drill 1) (layers *.Cu *.Mask))
  (pad 12 thru_hole oval (at 13.97 2.54) (size 1.8 1.8) (drill 1) (layers *.Cu *.Mask))
  (pad 13 thru_hole oval (at 15.24 0) (size 1.8 1.8) (drill 1) (layers *.Cu *.Mask))
  (pad 14 thru_hole oval (at 16.51 2.54) (size 1.8 1.8) (drill 1) (layers *.Cu *.Mask))
  (pad 15 thru_hole oval (at 17.78 0) (size 1.8 1.8) (drill 1) (layers *.Cu *.Mask))
  (fp_text user %R (at 8.89 -21.92) (layer F.Fab)
    (effects (font (size 1 1) (thickness 0.15)))
  )
  (model ${KIPRJMOD}/kicad_libs_k/models_k.3d/Package_TO_SOT_THT_k.3dshapes/TO-220-15_Horizontal_TabDown_StaggeredType2_Py2.54mm_k.wrl
    (at (xyz 0 0 0))
    (scale (xyz 1 1 1))
    (rotate (xyz 0 0 0))
  )
)