(module TO-247-5_Horizontal_TabDown (layer F.Cu) (tedit 5AC8BA0D)
  (descr "TO-247-5, Horizontal, RM 2.54mm, see http://ww1.microchip.com/downloads/en/DeviceDoc/20005685A.pdf")
  (tags "TO-247-5 Horizontal RM 2.54mm")
  (fp_text reference REF** (at 5.08 -27.15) (layer F.SilkS)
    (effects (font (size 1 1) (thickness 0.15)))
  )
  (fp_text value TO-247-5_Horizontal_TabDown (at 5.08 3.25) (layer F.Fab)
    (effects (font (size 1 1) (thickness 0.15)))
  )
  (fp_circle (center 5.08 -19.86) (end 6.885 -19.86) (layer F.Fab) (width 0.1))
  (fp_line (start -2.87 -5.08) (end -2.87 -26.03) (layer F.Fab) (width 0.1))
  (fp_line (start -2.87 -26.03) (end 13.03 -26.03) (layer F.Fab) (width 0.1))
  (fp_line (start 13.03 -26.03) (end 13.03 -5.08) (layer F.Fab) (width 0.1))
  (fp_line (start 13.03 -5.08) (end -2.87 -5.08) (layer F.Fab) (width 0.1))
  (fp_line (start 0 -5.08) (end 0 0) (layer F.Fab) (width 0.1))
  (fp_line (start 2.54 -5.08) (end 2.54 0) (layer F.Fab) (width 0.1))
  (fp_line (start 5.08 -5.08) (end 5.08 0) (layer F.Fab) (width 0.1))
  (fp_line (start 7.62 -5.08) (end 7.62 0) (layer F.Fab) (width 0.1))
  (fp_line (start 10.16 -5.08) (end 10.16 0) (layer F.Fab) (width 0.1))
  (fp_line (start -2.99 -4.96) (end 13.15 -4.96) (layer F.SilkS) (width 0.12))
  (fp_line (start -2.99 -26.15) (end 13.15 -26.15) (layer F.SilkS) (width 0.12))
  (fp_line (start -2.99 -26.15) (end -2.99 -4.96) (layer F.SilkS) (width 0.12))
  (fp_line (start 13.15 -26.15) (end 13.15 -4.96) (layer F.SilkS) (width 0.12))
  (fp_line (start 0 -4.96) (end 0 -2.4) (layer F.SilkS) (width 0.12))
  (fp_line (start 2.54 -4.96) (end 2.54 -2.4) (layer F.SilkS) (width 0.12))
  (fp_line (start 5.08 -4.96) (end 5.08 -2.4) (layer F.SilkS) (width 0.12))
  (fp_line (start 7.62 -4.96) (end 7.62 -2.4) (layer F.SilkS) (width 0.12))
  (fp_line (start 10.16 -4.96) (end 10.16 -2.4) (layer F.SilkS) (width 0.12))
  (fp_line (start -3.12 -26.28) (end -3.12 2.5) (layer F.CrtYd) (width 0.05))
  (fp_line (start -3.12 2.5) (end 13.28 2.5) (layer F.CrtYd) (width 0.05))
  (fp_line (start 13.28 2.5) (end 13.28 -26.28) (layer F.CrtYd) (width 0.05))
  (fp_line (start 13.28 -26.28) (end -3.12 -26.28) (layer F.CrtYd) (width 0.05))
  (pad "" np_thru_hole oval (at 5.08 -19.86) (size 3.6 3.6) (drill 3.6) (layers *.Cu *.Mask))
  (pad 1 thru_hole rect (at 0 0) (size 1.905 4.5) (drill 1.5) (layers *.Cu *.Mask))
  (pad 2 thru_hole oval (at 2.54 0) (size 1.905 4.5) (drill 1.5) (layers *.Cu *.Mask))
  (pad 3 thru_hole oval (at 5.08 0) (size 1.905 4.5) (drill 1.5) (layers *.Cu *.Mask))
  (pad 4 thru_hole oval (at 7.62 0) (size 1.905 4.5) (drill 1.5) (layers *.Cu *.Mask))
  (pad 5 thru_hole oval (at 10.16 0) (size 1.905 4.5) (drill 1.5) (layers *.Cu *.Mask))
  (fp_text user %R (at 5.08 -27.15) (layer F.Fab)
    (effects (font (size 1 1) (thickness 0.15)))
  )
  (model ${KIPRJMOD}/kicad_libs_k/models_k.3d/Package_TO_SOT_THT_k.3dshapes/TO-247-5_Horizontal_TabDown_k.wrl
    (at (xyz 0 0 0))
    (scale (xyz 1 1 1))
    (rotate (xyz 0 0 0))
  )
)