(module TO-220F-9_Vertical_StaggeredType2_Py3.7mm (layer F.Cu) (tedit 5ACC4AF3)
  (descr "TO-220F-9, Vertical, RM 0.9mm, staggered type-2")
  (tags "TO-220F-9 Vertical RM 0.9mm staggered type-2")
  (fp_text reference REF** (at 3.6 -5.62) (layer F.SilkS)
    (effects (font (size 1 1) (thickness 0.15)))
  )
  (fp_text value TO-220F-9_Vertical_StaggeredType2_Py3.7mm (at 3.6 5.7) (layer F.Fab)
    (effects (font (size 1 1) (thickness 0.15)))
  )
  (fp_line (start -1.53 -4.5) (end -1.53 0.2) (layer F.Fab) (width 0.1))
  (fp_line (start -1.53 0.2) (end 8.73 0.2) (layer F.Fab) (width 0.1))
  (fp_line (start 8.73 0.2) (end 8.73 -4.5) (layer F.Fab) (width 0.1))
  (fp_line (start 8.73 -4.5) (end -1.53 -4.5) (layer F.Fab) (width 0.1))
  (fp_line (start -1.53 -1.98) (end 8.73 -1.98) (layer F.Fab) (width 0.1))
  (fp_line (start 1.75 -4.5) (end 1.75 -1.98) (layer F.Fab) (width 0.1))
  (fp_line (start 5.45 -4.5) (end 5.45 -1.98) (layer F.Fab) (width 0.1))
  (fp_line (start 0.9 0.2) (end 0.9 3.7) (layer F.Fab) (width 0.1))
  (fp_line (start 2.7 0.2) (end 2.7 3.7) (layer F.Fab) (width 0.1))
  (fp_line (start 4.5 0.2) (end 4.5 3.7) (layer F.Fab) (width 0.1))
  (fp_line (start 6.3 0.2) (end 6.3 3.7) (layer F.Fab) (width 0.1))
  (fp_line (start -1.65 -4.62) (end 8.85 -4.62) (layer F.SilkS) (width 0.12))
  (fp_line (start -1.65 0.321) (end -0.9 0.321) (layer F.SilkS) (width 0.12))
  (fp_line (start 0.9 0.321) (end 0.914 0.321) (layer F.SilkS) (width 0.12))
  (fp_line (start 2.687 0.321) (end 2.714 0.321) (layer F.SilkS) (width 0.12))
  (fp_line (start 4.487 0.321) (end 4.514 0.321) (layer F.SilkS) (width 0.12))
  (fp_line (start 6.287 0.321) (end 6.314 0.321) (layer F.SilkS) (width 0.12))
  (fp_line (start 8.087 0.321) (end 8.85 0.321) (layer F.SilkS) (width 0.12))
  (fp_line (start -1.65 -4.62) (end -1.65 0.321) (layer F.SilkS) (width 0.12))
  (fp_line (start 8.85 -4.62) (end 8.85 0.321) (layer F.SilkS) (width 0.12))
  (fp_line (start -1.65 -1.861) (end 8.85 -1.861) (layer F.SilkS) (width 0.12))
  (fp_line (start 1.75 -4.62) (end 1.75 -1.861) (layer F.SilkS) (width 0.12))
  (fp_line (start 5.45 -4.62) (end 5.45 -1.861) (layer F.SilkS) (width 0.12))
  (fp_line (start 0.9 0.9) (end 0.9 2.785) (layer F.SilkS) (width 0.12))
  (fp_line (start 2.7 0.321) (end 2.7 2.785) (layer F.SilkS) (width 0.12))
  (fp_line (start 4.5 0.321) (end 4.5 2.785) (layer F.SilkS) (width 0.12))
  (fp_line (start 6.301 0.321) (end 6.301 2.785) (layer F.SilkS) (width 0.12))
  (fp_line (start -1.78 -4.75) (end -1.78 4.7) (layer F.CrtYd) (width 0.05))
  (fp_line (start -1.78 4.7) (end 8.98 4.7) (layer F.CrtYd) (width 0.05))
  (fp_line (start 8.98 4.7) (end 8.98 -4.75) (layer F.CrtYd) (width 0.05))
  (fp_line (start 8.98 -4.75) (end -1.78 -4.75) (layer F.CrtYd) (width 0.05))
  (pad 1 thru_hole rect (at 0 0) (size 1.5 1.5) (drill 0.7) (layers *.Cu *.Mask))
  (pad 2 thru_hole oval (at 0.9 3.7) (size 1.5 1.5) (drill 0.7) (layers *.Cu *.Mask))
  (pad 3 thru_hole oval (at 1.8 0) (size 1.5 1.5) (drill 0.7) (layers *.Cu *.Mask))
  (pad 4 thru_hole oval (at 2.7 3.7) (size 1.5 1.5) (drill 0.7) (layers *.Cu *.Mask))
  (pad 5 thru_hole oval (at 3.6 0) (size 1.5 1.5) (drill 0.7) (layers *.Cu *.Mask))
  (pad 6 thru_hole oval (at 4.5 3.7) (size 1.5 1.5) (drill 0.7) (layers *.Cu *.Mask))
  (pad 7 thru_hole oval (at 5.4 0) (size 1.5 1.5) (drill 0.7) (layers *.Cu *.Mask))
  (pad 8 thru_hole oval (at 6.3 3.7) (size 1.5 1.5) (drill 0.7) (layers *.Cu *.Mask))
  (pad 9 thru_hole oval (at 7.2 0) (size 1.5 1.5) (drill 0.7) (layers *.Cu *.Mask))
  (fp_text user %R (at 3.6 -5.62) (layer F.Fab)
    (effects (font (size 1 1) (thickness 0.15)))
  )
  (model ${KIPRJMOD}/kicad_libs_k/models_k.3d/Package_TO_SOT_THT_k.3dshapes/TO-220F-9_Vertical_StaggeredType2_Py3.7mm_k.wrl
    (at (xyz 0 0 0))
    (scale (xyz 1 1 1))
    (rotate (xyz 0 0 0))
  )
)