(module TO-220F-4_P5.08x3.7mm_StaggerOdd_Lead3.5mm_Vertical (layer F.Cu) (tedit 5AF05A31)
  (descr "TO-220F-4, Vertical, RM 2.54mm, staggered type-1, see https://www.njr.com/semicon/PDF/package/TO-220F-4_E.pdf")
  (tags "TO-220F-4 Vertical RM 2.54mm staggered type-1")
  (fp_text reference REF** (at 3.81 -9.32) (layer F.SilkS)
    (effects (font (size 1 1) (thickness 0.15)))
  )
  (fp_text value TO-220F-4_P5.08x3.7mm_StaggerOdd_Lead3.5mm_Vertical (at 3.81 2.15) (layer F.Fab)
    (effects (font (size 1 1) (thickness 0.15)))
  )
  (fp_line (start -1.32 -8.2) (end -1.32 -3.5) (layer F.Fab) (width 0.1))
  (fp_line (start -1.32 -3.5) (end 8.94 -3.5) (layer F.Fab) (width 0.1))
  (fp_line (start 8.94 -3.5) (end 8.94 -8.2) (layer F.Fab) (width 0.1))
  (fp_line (start 8.94 -8.2) (end -1.32 -8.2) (layer F.Fab) (width 0.1))
  (fp_line (start -1.32 -5.68) (end 8.94 -5.68) (layer F.Fab) (width 0.1))
  (fp_line (start 1.96 -8.2) (end 1.96 -5.68) (layer F.Fab) (width 0.1))
  (fp_line (start 5.66 -8.2) (end 5.66 -5.68) (layer F.Fab) (width 0.1))
  (fp_line (start 0 -3.5) (end 0 0) (layer F.Fab) (width 0.1))
  (fp_line (start 5.08 -3.5) (end 5.08 0) (layer F.Fab) (width 0.1))
  (fp_line (start -1.44 -8.32) (end 9.06 -8.32) (layer F.SilkS) (width 0.12))
  (fp_line (start -1.44 -3.379) (end 1.509 -3.379) (layer F.SilkS) (width 0.12))
  (fp_line (start 3.572 -3.379) (end 6.589 -3.379) (layer F.SilkS) (width 0.12))
  (fp_line (start 8.652 -3.379) (end 9.06 -3.379) (layer F.SilkS) (width 0.12))
  (fp_line (start -1.44 -8.32) (end -1.44 -3.379) (layer F.SilkS) (width 0.12))
  (fp_line (start 9.06 -8.32) (end 9.06 -3.379) (layer F.SilkS) (width 0.12))
  (fp_line (start -1.44 -5.561) (end 9.06 -5.561) (layer F.SilkS) (width 0.12))
  (fp_line (start 1.96 -8.32) (end 1.96 -5.561) (layer F.SilkS) (width 0.12))
  (fp_line (start 5.66 -8.32) (end 5.66 -5.561) (layer F.SilkS) (width 0.12))
  (fp_line (start 0 -3.379) (end 0 -1.049) (layer F.SilkS) (width 0.12))
  (fp_line (start 5.08 -3.379) (end 5.08 -1.065) (layer F.SilkS) (width 0.12))
  (fp_line (start -1.57 -8.45) (end -1.57 1.15) (layer F.CrtYd) (width 0.05))
  (fp_line (start -1.57 1.15) (end 9.19 1.15) (layer F.CrtYd) (width 0.05))
  (fp_line (start 9.19 1.15) (end 9.19 -8.45) (layer F.CrtYd) (width 0.05))
  (fp_line (start 9.19 -8.45) (end -1.57 -8.45) (layer F.CrtYd) (width 0.05))
  (pad 1 thru_hole rect (at 0 0) (size 1.8 1.8) (drill 1.2) (layers *.Cu *.Mask))
  (pad 2 thru_hole oval (at 2.54 -3.7) (size 1.8 1.8) (drill 1.2) (layers *.Cu *.Mask))
  (pad 3 thru_hole oval (at 5.08 0) (size 1.8 1.8) (drill 1.2) (layers *.Cu *.Mask))
  (pad 4 thru_hole oval (at 7.62 -3.7) (size 1.8 1.8) (drill 1.2) (layers *.Cu *.Mask))
  (fp_text user %R (at 3.81 -9.32) (layer F.Fab)
    (effects (font (size 1 1) (thickness 0.15)))
  )
  (model ${KIPRJMOD}/kicad_libs_k/models_k.3d/Package_TO_SOT_THT_k.3dshapes/TO-220F-4_P5.08x3.7mm_StaggerOdd_Lead3.5mm_Vertical_k.wrl
    (at (xyz 0 0 0))
    (scale (xyz 1 1 1))
    (rotate (xyz 0 0 0))
  )
)