(module TO-220-5_P3.4x3.8mm_StaggerEven_Lead7.13mm_TabDown (layer F.Cu) (tedit 5AF05A31)
  (descr "TO-220-5, Horizontal, RM 1.7mm, Pentawatt, Multiwatt-5, staggered type-2, see http://www.analog.com/media/en/package-pcb-resources/package/pkg_pdf/ltc-legacy-to-220/to-220_5_05-08-1421.pdf?domain=www.linear.com, https://www.diodes.com/assets/Package-Files/TO220-5.pdf")
  (tags "TO-220-5 Horizontal RM 1.7mm Pentawatt Multiwatt-5 staggered type-2")
  (fp_text reference REF** (at 3.4 -20.1) (layer F.SilkS)
    (effects (font (size 1 1) (thickness 0.15)))
  )
  (fp_text value TO-220-5_P3.4x3.8mm_StaggerEven_Lead7.13mm_TabDown (at 3.4 5.7) (layer F.Fab)
    (effects (font (size 1 1) (thickness 0.15)))
  )
  (fp_circle (center 3.4 -16.18) (end 5.25 -16.18) (layer F.Fab) (width 0.1))
  (fp_line (start -1.6 -12.58) (end -1.6 -18.98) (layer F.Fab) (width 0.1))
  (fp_line (start -1.6 -18.98) (end 8.4 -18.98) (layer F.Fab) (width 0.1))
  (fp_line (start 8.4 -18.98) (end 8.4 -12.58) (layer F.Fab) (width 0.1))
  (fp_line (start 8.4 -12.58) (end -1.6 -12.58) (layer F.Fab) (width 0.1))
  (fp_line (start -1.6 -3.33) (end -1.6 -12.58) (layer F.Fab) (width 0.1))
  (fp_line (start -1.6 -12.58) (end 8.4 -12.58) (layer F.Fab) (width 0.1))
  (fp_line (start 8.4 -12.58) (end 8.4 -3.33) (layer F.Fab) (width 0.1))
  (fp_line (start 8.4 -3.33) (end -1.6 -3.33) (layer F.Fab) (width 0.1))
  (fp_line (start 0 -3.33) (end 0 0) (layer F.Fab) (width 0.1))
  (fp_line (start 1.7 -3.33) (end 1.7 3.8) (layer F.Fab) (width 0.1))
  (fp_line (start 3.4 -3.33) (end 3.4 0) (layer F.Fab) (width 0.1))
  (fp_line (start 5.1 -3.33) (end 5.1 3.8) (layer F.Fab) (width 0.1))
  (fp_line (start 6.8 -3.33) (end 6.8 0) (layer F.Fab) (width 0.1))
  (fp_line (start -1.721 -3.21) (end 8.52 -3.21) (layer F.SilkS) (width 0.12))
  (fp_line (start -1.721 -19.1) (end 8.52 -19.1) (layer F.SilkS) (width 0.12))
  (fp_line (start -1.721 -19.1) (end -1.721 -3.21) (layer F.SilkS) (width 0.12))
  (fp_line (start 8.52 -19.1) (end 8.52 -3.21) (layer F.SilkS) (width 0.12))
  (fp_line (start 0 -3.21) (end 0 -1.05) (layer F.SilkS) (width 0.12))
  (fp_line (start 1.7 -3.21) (end 1.7 2.735) (layer F.SilkS) (width 0.12))
  (fp_line (start 3.4 -3.21) (end 3.4 -1.066) (layer F.SilkS) (width 0.12))
  (fp_line (start 5.1 -3.21) (end 5.1 2.735) (layer F.SilkS) (width 0.12))
  (fp_line (start 6.8 -3.21) (end 6.8 -1.066) (layer F.SilkS) (width 0.12))
  (fp_line (start -1.85 -19.23) (end -1.85 4.95) (layer F.CrtYd) (width 0.05))
  (fp_line (start -1.85 4.95) (end 8.65 4.95) (layer F.CrtYd) (width 0.05))
  (fp_line (start 8.65 4.95) (end 8.65 -19.23) (layer F.CrtYd) (width 0.05))
  (fp_line (start 8.65 -19.23) (end -1.85 -19.23) (layer F.CrtYd) (width 0.05))
  (pad "" np_thru_hole oval (at 3.4 -16.18) (size 3.5 3.5) (drill 3.5) (layers *.Cu *.Mask))
  (pad 1 thru_hole rect (at 0 0) (size 1.8 1.8) (drill 1.1) (layers *.Cu *.Mask))
  (pad 2 thru_hole oval (at 1.7 3.8) (size 1.8 1.8) (drill 1.1) (layers *.Cu *.Mask))
  (pad 3 thru_hole oval (at 3.4 0) (size 1.8 1.8) (drill 1.1) (layers *.Cu *.Mask))
  (pad 4 thru_hole oval (at 5.1 3.8) (size 1.8 1.8) (drill 1.1) (layers *.Cu *.Mask))
  (pad 5 thru_hole oval (at 6.8 0) (size 1.8 1.8) (drill 1.1) (layers *.Cu *.Mask))
  (fp_text user %R (at 3.4 -20.1) (layer F.Fab)
    (effects (font (size 1 1) (thickness 0.15)))
  )
  (model ${KIPRJMOD}/kicad_libs_k/models_k.3d/Package_TO_SOT_THT_k.3dshapes/TO-220-5_P3.4x3.8mm_StaggerEven_Lead7.13mm_TabDown_k.wrl
    (at (xyz 0 0 0))
    (scale (xyz 1 1 1))
    (rotate (xyz 0 0 0))
  )
)