(module TO-264-2_Horizontal_TabDown (layer F.Cu) (tedit 5AC8BA0D)
  (descr "TO-264-2, Horizontal, RM 10.9mm, see https://www.fairchildsemi.com/package-drawings/TO/TO264A03.pdf")
  (tags "TO-264-2 Horizontal RM 10.9mm")
  (fp_text reference REF** (at 5.45 -32.2) (layer F.SilkS)
    (effects (font (size 1 1) (thickness 0.15)))
  )
  (fp_text value TO-264-2_Horizontal_TabDown (at 5.45 3.25) (layer F.Fab)
    (effects (font (size 1 1) (thickness 0.15)))
  )
  (fp_circle (center 5.45 -25.08) (end 7.1 -25.08) (layer F.Fab) (width 0.1))
  (fp_line (start -4.55 -5.08) (end -4.55 -31.08) (layer F.Fab) (width 0.1))
  (fp_line (start -4.55 -31.08) (end 15.45 -31.08) (layer F.Fab) (width 0.1))
  (fp_line (start 15.45 -31.08) (end 15.45 -5.08) (layer F.Fab) (width 0.1))
  (fp_line (start 15.45 -5.08) (end -4.55 -5.08) (layer F.Fab) (width 0.1))
  (fp_line (start 0 -5.08) (end 0 0) (layer F.Fab) (width 0.1))
  (fp_line (start 10.9 -5.08) (end 10.9 0) (layer F.Fab) (width 0.1))
  (fp_line (start -4.67 -4.96) (end 15.57 -4.96) (layer F.SilkS) (width 0.12))
  (fp_line (start -4.67 -31.2) (end 15.57 -31.2) (layer F.SilkS) (width 0.12))
  (fp_line (start -4.67 -31.2) (end -4.67 -4.96) (layer F.SilkS) (width 0.12))
  (fp_line (start 15.57 -31.2) (end 15.57 -4.96) (layer F.SilkS) (width 0.12))
  (fp_line (start 0 -4.96) (end 0 -2.4) (layer F.SilkS) (width 0.12))
  (fp_line (start 10.9 -4.96) (end 10.9 -2.4) (layer F.SilkS) (width 0.12))
  (fp_line (start -4.8 -31.33) (end -4.8 2.5) (layer F.CrtYd) (width 0.05))
  (fp_line (start -4.8 2.5) (end 15.7 2.5) (layer F.CrtYd) (width 0.05))
  (fp_line (start 15.7 2.5) (end 15.7 -31.33) (layer F.CrtYd) (width 0.05))
  (fp_line (start 15.7 -31.33) (end -4.8 -31.33) (layer F.CrtYd) (width 0.05))
  (pad "" np_thru_hole oval (at 5.45 -25.08) (size 3.3 3.3) (drill 3.3) (layers *.Cu *.Mask))
  (pad 1 thru_hole rect (at 0 0) (size 2.5 4.5) (drill 1.5) (layers *.Cu *.Mask))
  (pad 2 thru_hole oval (at 10.9 0) (size 2.5 4.5) (drill 1.5) (layers *.Cu *.Mask))
  (fp_text user %R (at 5.45 -32.2) (layer F.Fab)
    (effects (font (size 1 1) (thickness 0.15)))
  )
  (model ${KIPRJMOD}/kicad_libs_k/models_k.3d/Package_TO_SOT_THT_k.3dshapes/TO-264-2_Horizontal_TabDown_k.wrl
    (at (xyz 0 0 0))
    (scale (xyz 1 1 1))
    (rotate (xyz 0 0 0))
  )
)