(module TO-220F-5_P3.4x3.7mm_StaggerOdd_Lead3.5mm_Vertical (layer F.Cu) (tedit 5AF05A31)
  (descr "TO-220F-5, Vertical, RM 1.7mm, PentawattF-, MultiwattF-5, staggered type-1")
  (tags "TO-220F-5 Vertical RM 1.7mm PentawattF- MultiwattF-5 staggered type-1")
  (fp_text reference REF** (at 3.4 -9.32) (layer F.SilkS)
    (effects (font (size 1 1) (thickness 0.15)))
  )
  (fp_text value TO-220F-5_P3.4x3.7mm_StaggerOdd_Lead3.5mm_Vertical (at 3.4 2.15) (layer F.Fab)
    (effects (font (size 1 1) (thickness 0.15)))
  )
  (fp_line (start -1.73 -8.2) (end -1.73 -3.5) (layer F.Fab) (width 0.1))
  (fp_line (start -1.73 -3.5) (end 8.53 -3.5) (layer F.Fab) (width 0.1))
  (fp_line (start 8.53 -3.5) (end 8.53 -8.2) (layer F.Fab) (width 0.1))
  (fp_line (start 8.53 -8.2) (end -1.73 -8.2) (layer F.Fab) (width 0.1))
  (fp_line (start -1.73 -5.68) (end 8.53 -5.68) (layer F.Fab) (width 0.1))
  (fp_line (start 1.55 -8.2) (end 1.55 -5.68) (layer F.Fab) (width 0.1))
  (fp_line (start 5.25 -8.2) (end 5.25 -5.68) (layer F.Fab) (width 0.1))
  (fp_line (start 0 -3.5) (end 0 0) (layer F.Fab) (width 0.1))
  (fp_line (start 3.4 -3.5) (end 3.4 0) (layer F.Fab) (width 0.1))
  (fp_line (start 6.8 -3.5) (end 6.8 0) (layer F.Fab) (width 0.1))
  (fp_line (start -1.85 -8.32) (end 8.65 -8.32) (layer F.SilkS) (width 0.12))
  (fp_line (start -1.85 -3.379) (end 0.669 -3.379) (layer F.SilkS) (width 0.12))
  (fp_line (start 2.732 -3.379) (end 4.069 -3.379) (layer F.SilkS) (width 0.12))
  (fp_line (start 6.132 -3.379) (end 8.65 -3.379) (layer F.SilkS) (width 0.12))
  (fp_line (start -1.85 -8.32) (end -1.85 -3.379) (layer F.SilkS) (width 0.12))
  (fp_line (start 8.65 -8.32) (end 8.65 -3.379) (layer F.SilkS) (width 0.12))
  (fp_line (start -1.85 -5.561) (end 8.65 -5.561) (layer F.SilkS) (width 0.12))
  (fp_line (start 1.55 -8.32) (end 1.55 -5.561) (layer F.SilkS) (width 0.12))
  (fp_line (start 5.25 -8.32) (end 5.25 -5.561) (layer F.SilkS) (width 0.12))
  (fp_line (start 0 -3.379) (end 0 -1.049) (layer F.SilkS) (width 0.12))
  (fp_line (start 3.4 -3.379) (end 3.4 -1.065) (layer F.SilkS) (width 0.12))
  (fp_line (start 6.8 -3.379) (end 6.8 -1.065) (layer F.SilkS) (width 0.12))
  (fp_line (start -1.98 -8.45) (end -1.98 1.15) (layer F.CrtYd) (width 0.05))
  (fp_line (start -1.98 1.15) (end 8.78 1.15) (layer F.CrtYd) (width 0.05))
  (fp_line (start 8.78 1.15) (end 8.78 -8.45) (layer F.CrtYd) (width 0.05))
  (fp_line (start 8.78 -8.45) (end -1.98 -8.45) (layer F.CrtYd) (width 0.05))
  (pad 1 thru_hole rect (at 0 0) (size 1.8 1.8) (drill 1.2) (layers *.Cu *.Mask))
  (pad 2 thru_hole oval (at 1.7 -3.7) (size 1.8 1.8) (drill 1.2) (layers *.Cu *.Mask))
  (pad 3 thru_hole oval (at 3.4 0) (size 1.8 1.8) (drill 1.2) (layers *.Cu *.Mask))
  (pad 4 thru_hole oval (at 5.1 -3.7) (size 1.8 1.8) (drill 1.2) (layers *.Cu *.Mask))
  (pad 5 thru_hole oval (at 6.8 0) (size 1.8 1.8) (drill 1.2) (layers *.Cu *.Mask))
  (fp_text user %R (at 3.4 -9.32) (layer F.Fab)
    (effects (font (size 1 1) (thickness 0.15)))
  )
  (model ${KIPRJMOD}/kicad_libs_k/models_k.3d/Package_TO_SOT_THT_k.3dshapes/TO-220F-5_P3.4x3.7mm_StaggerOdd_Lead3.5mm_Vertical_k.wrl
    (at (xyz 0 0 0))
    (scale (xyz 1 1 1))
    (rotate (xyz 0 0 0))
  )
)