(module TO-264-5_Vertical (layer F.Cu) (tedit 5ACA2D0A)
  (descr "TO-264-5, Vertical, RM 3.81mm, see https://www.onsemi.com/pub/Collateral/NJL3281D-D.PDF")
  (tags "TO-264-5 Vertical RM 3.81mm")
  (fp_text reference REF** (at 7.62 -3.02) (layer F.SilkS)
    (effects (font (size 1 1) (thickness 0.15)))
  )
  (fp_text value TO-264-5_Vertical (at 7.62 4.35) (layer F.Fab)
    (effects (font (size 1 1) (thickness 0.15)))
  )
  (fp_line (start -2.38 -1.9) (end -2.38 3.1) (layer F.Fab) (width 0.1))
  (fp_line (start -2.38 3.1) (end 17.62 3.1) (layer F.Fab) (width 0.1))
  (fp_line (start 17.62 3.1) (end 17.62 -1.9) (layer F.Fab) (width 0.1))
  (fp_line (start 17.62 -1.9) (end -2.38 -1.9) (layer F.Fab) (width 0.1))
  (fp_line (start -2.38 0.1) (end 17.62 0.1) (layer F.Fab) (width 0.1))
  (fp_line (start 5.97 -1.9) (end 5.97 0.1) (layer F.Fab) (width 0.1))
  (fp_line (start 9.27 -1.9) (end 9.27 0.1) (layer F.Fab) (width 0.1))
  (fp_line (start -2.5 -2.021) (end -1.4 -2.021) (layer F.SilkS) (width 0.12))
  (fp_line (start 1.4 -2.021) (end 2.41 -2.021) (layer F.SilkS) (width 0.12))
  (fp_line (start 5.21 -2.021) (end 6.221 -2.021) (layer F.SilkS) (width 0.12))
  (fp_line (start 9.02 -2.021) (end 10.03 -2.021) (layer F.SilkS) (width 0.12))
  (fp_line (start 12.83 -2.021) (end 13.84 -2.021) (layer F.SilkS) (width 0.12))
  (fp_line (start 16.64 -2.021) (end 17.74 -2.021) (layer F.SilkS) (width 0.12))
  (fp_line (start -2.5 3.22) (end 17.74 3.22) (layer F.SilkS) (width 0.12))
  (fp_line (start -2.5 -2.021) (end -2.5 3.22) (layer F.SilkS) (width 0.12))
  (fp_line (start 17.74 -2.021) (end 17.74 3.22) (layer F.SilkS) (width 0.12))
  (fp_line (start -2.5 0.22) (end -1.4 0.22) (layer F.SilkS) (width 0.12))
  (fp_line (start 1.4 0.22) (end 2.41 0.22) (layer F.SilkS) (width 0.12))
  (fp_line (start 5.21 0.22) (end 6.221 0.22) (layer F.SilkS) (width 0.12))
  (fp_line (start 9.02 0.22) (end 10.03 0.22) (layer F.SilkS) (width 0.12))
  (fp_line (start 12.83 0.22) (end 13.84 0.22) (layer F.SilkS) (width 0.12))
  (fp_line (start 16.64 0.22) (end 17.74 0.22) (layer F.SilkS) (width 0.12))
  (fp_line (start 5.971 -2.021) (end 5.971 0.22) (layer F.SilkS) (width 0.12))
  (fp_line (start 9.27 -2.021) (end 9.27 0.22) (layer F.SilkS) (width 0.12))
  (fp_line (start -2.63 -2.5) (end -2.63 3.35) (layer F.CrtYd) (width 0.05))
  (fp_line (start -2.63 3.35) (end 17.87 3.35) (layer F.CrtYd) (width 0.05))
  (fp_line (start 17.87 3.35) (end 17.87 -2.5) (layer F.CrtYd) (width 0.05))
  (fp_line (start 17.87 -2.5) (end -2.63 -2.5) (layer F.CrtYd) (width 0.05))
  (pad 1 thru_hole rect (at 0 0) (size 2.5 4.5) (drill 1.5) (layers *.Cu *.Mask))
  (pad 2 thru_hole oval (at 3.81 0) (size 2.5 4.5) (drill 1.5) (layers *.Cu *.Mask))
  (pad 3 thru_hole oval (at 7.62 0) (size 2.5 4.5) (drill 1.5) (layers *.Cu *.Mask))
  (pad 4 thru_hole oval (at 11.43 0) (size 2.5 4.5) (drill 1.5) (layers *.Cu *.Mask))
  (pad 5 thru_hole oval (at 15.24 0) (size 2.5 4.5) (drill 1.5) (layers *.Cu *.Mask))
  (fp_text user %R (at 7.62 -3.02) (layer F.Fab)
    (effects (font (size 1 1) (thickness 0.15)))
  )
  (model ${KIPRJMOD}/kicad_libs_k/models_k.3d/Package_TO_SOT_THT_k.3dshapes/TO-264-5_Vertical_k.wrl
    (at (xyz 0 0 0))
    (scale (xyz 1 1 1))
    (rotate (xyz 0 0 0))
  )
)