(module TO-220F-4_Vertical_StaggeredType2_Py3.7mm (layer F.Cu) (tedit 5AC8BA0E)
  (descr "TO-220F-4, Vertical, RM 2.54mm, staggered type-2, see https://www.njr.com/semicon/PDF/package/TO-220F-4_E.pdf")
  (tags "TO-220F-4 Vertical RM 2.54mm staggered type-2")
  (fp_text reference REF** (at 3.81 -5.62) (layer F.SilkS)
    (effects (font (size 1 1) (thickness 0.15)))
  )
  (fp_text value TO-220F-4_Vertical_StaggeredType2_Py3.7mm (at 3.81 5.85) (layer F.Fab)
    (effects (font (size 1 1) (thickness 0.15)))
  )
  (fp_line (start -1.32 -4.5) (end -1.32 0.2) (layer F.Fab) (width 0.1))
  (fp_line (start -1.32 0.2) (end 8.94 0.2) (layer F.Fab) (width 0.1))
  (fp_line (start 8.94 0.2) (end 8.94 -4.5) (layer F.Fab) (width 0.1))
  (fp_line (start 8.94 -4.5) (end -1.32 -4.5) (layer F.Fab) (width 0.1))
  (fp_line (start -1.32 -1.98) (end 8.94 -1.98) (layer F.Fab) (width 0.1))
  (fp_line (start 1.96 -4.5) (end 1.96 -1.98) (layer F.Fab) (width 0.1))
  (fp_line (start 5.66 -4.5) (end 5.66 -1.98) (layer F.Fab) (width 0.1))
  (fp_line (start 2.54 0.2) (end 2.54 3.7) (layer F.Fab) (width 0.1))
  (fp_line (start 7.62 0.2) (end 7.62 3.7) (layer F.Fab) (width 0.1))
  (fp_line (start -1.44 -4.62) (end 9.06 -4.62) (layer F.SilkS) (width 0.12))
  (fp_line (start -1.44 0.321) (end -1.05 0.321) (layer F.SilkS) (width 0.12))
  (fp_line (start 1.05 0.321) (end 4.049 0.321) (layer F.SilkS) (width 0.12))
  (fp_line (start 6.112 0.321) (end 9.06 0.321) (layer F.SilkS) (width 0.12))
  (fp_line (start -1.44 -4.62) (end -1.44 0.321) (layer F.SilkS) (width 0.12))
  (fp_line (start 9.06 -4.62) (end 9.06 0.321) (layer F.SilkS) (width 0.12))
  (fp_line (start -1.44 -1.861) (end 9.06 -1.861) (layer F.SilkS) (width 0.12))
  (fp_line (start 1.96 -4.62) (end 1.96 -1.861) (layer F.SilkS) (width 0.12))
  (fp_line (start 5.66 -4.62) (end 5.66 -1.861) (layer F.SilkS) (width 0.12))
  (fp_line (start 2.54 0.321) (end 2.54 2.635) (layer F.SilkS) (width 0.12))
  (fp_line (start 7.62 0.321) (end 7.62 2.635) (layer F.SilkS) (width 0.12))
  (fp_line (start -1.57 -4.75) (end -1.57 4.85) (layer F.CrtYd) (width 0.05))
  (fp_line (start -1.57 4.85) (end 9.19 4.85) (layer F.CrtYd) (width 0.05))
  (fp_line (start 9.19 4.85) (end 9.19 -4.75) (layer F.CrtYd) (width 0.05))
  (fp_line (start 9.19 -4.75) (end -1.57 -4.75) (layer F.CrtYd) (width 0.05))
  (pad 1 thru_hole rect (at 0 0) (size 1.8 1.8) (drill 1.2) (layers *.Cu *.Mask))
  (pad 2 thru_hole oval (at 2.54 3.7) (size 1.8 1.8) (drill 1.2) (layers *.Cu *.Mask))
  (pad 3 thru_hole oval (at 5.08 0) (size 1.8 1.8) (drill 1.2) (layers *.Cu *.Mask))
  (pad 4 thru_hole oval (at 7.62 3.7) (size 1.8 1.8) (drill 1.2) (layers *.Cu *.Mask))
  (fp_text user %R (at 3.81 -5.62) (layer F.Fab)
    (effects (font (size 1 1) (thickness 0.15)))
  )
  (model ${KIPRJMOD}/kicad_libs_k/models_k.3d/Package_TO_SOT_THT_k.3dshapes/TO-220F-4_Vertical_StaggeredType2_Py3.7mm_k.wrl
    (at (xyz 0 0 0))
    (scale (xyz 1 1 1))
    (rotate (xyz 0 0 0))
  )
)