(module TO-247-3_Horizontal_TabUp (layer F.Cu) (tedit 5AC86DC3)
  (descr "TO-247-3, Horizontal, RM 5.45mm, see https://toshiba.semicon-storage.com/us/product/mosfet/to-247-4l.html")
  (tags "TO-247-3 Horizontal RM 5.45mm")
  (fp_text reference REF** (at 5.45 27.15) (layer F.SilkS)
    (effects (font (size 1 1) (thickness 0.15)))
  )
  (fp_text value TO-247-3_Horizontal_TabUp (at 5.45 -3.25) (layer F.Fab)
    (effects (font (size 1 1) (thickness 0.15)))
  )
  (fp_circle (center 5.45 19.86) (end 7.255 19.86) (layer F.Fab) (width 0.1))
  (fp_line (start -2.5 5.08) (end -2.5 26.03) (layer F.Fab) (width 0.1))
  (fp_line (start -2.5 26.03) (end 13.4 26.03) (layer F.Fab) (width 0.1))
  (fp_line (start 13.4 26.03) (end 13.4 5.08) (layer F.Fab) (width 0.1))
  (fp_line (start 13.4 5.08) (end -2.5 5.08) (layer F.Fab) (width 0.1))
  (fp_line (start 0 5.08) (end 0 0) (layer F.Fab) (width 0.1))
  (fp_line (start 5.45 5.08) (end 5.45 0) (layer F.Fab) (width 0.1))
  (fp_line (start 10.9 5.08) (end 10.9 0) (layer F.Fab) (width 0.1))
  (fp_line (start -2.62 4.96) (end 13.52 4.96) (layer F.SilkS) (width 0.12))
  (fp_line (start -2.62 26.15) (end 13.52 26.15) (layer F.SilkS) (width 0.12))
  (fp_line (start -2.62 4.96) (end -2.62 26.15) (layer F.SilkS) (width 0.12))
  (fp_line (start 13.52 4.96) (end 13.52 26.15) (layer F.SilkS) (width 0.12))
  (fp_line (start 0 2.4) (end 0 4.96) (layer F.SilkS) (width 0.12))
  (fp_line (start 5.45 2.4) (end 5.45 4.96) (layer F.SilkS) (width 0.12))
  (fp_line (start 10.9 2.4) (end 10.9 4.96) (layer F.SilkS) (width 0.12))
  (fp_line (start -2.75 -2.5) (end -2.75 26.28) (layer F.CrtYd) (width 0.05))
  (fp_line (start -2.75 26.28) (end 13.65 26.28) (layer F.CrtYd) (width 0.05))
  (fp_line (start 13.65 26.28) (end 13.65 -2.5) (layer F.CrtYd) (width 0.05))
  (fp_line (start 13.65 -2.5) (end -2.75 -2.5) (layer F.CrtYd) (width 0.05))
  (pad "" np_thru_hole oval (at 5.45 19.86) (size 3.6 3.6) (drill 3.6) (layers *.Cu *.Mask))
  (pad 1 thru_hole rect (at 0 0) (size 2.5 4.5) (drill 1.5) (layers *.Cu *.Mask))
  (pad 2 thru_hole oval (at 5.45 0) (size 2.5 4.5) (drill 1.5) (layers *.Cu *.Mask))
  (pad 3 thru_hole oval (at 10.9 0) (size 2.5 4.5) (drill 1.5) (layers *.Cu *.Mask))
  (fp_text user %R (at 5.45 27.15) (layer F.Fab)
    (effects (font (size 1 1) (thickness 0.15)))
  )
  (model ${KIPRJMOD}/kicad_libs_k/models_k.3d/Package_TO_SOT_THT_k.3dshapes/TO-247-3_Horizontal_TabUp_k.wrl
    (at (xyz 0 0 0))
    (scale (xyz 1 1 1))
    (rotate (xyz 0 0 0))
  )
)