(module TO-220F-5_P3.4x2.06mm_StaggerOdd_Lead1.86mm_Vertical (layer F.Cu) (tedit 5AF05A31)
  (descr "TO-220F-5, Vertical, RM 1.7mm, PentawattF-, MultiwattF-5, staggered type-1")
  (tags "TO-220F-5 Vertical RM 1.7mm PentawattF- MultiwattF-5 staggered type-1")
  (fp_text reference REF** (at 3.4 -7.68) (layer F.SilkS)
    (effects (font (size 1 1) (thickness 0.15)))
  )
  (fp_text value TO-220F-5_P3.4x2.06mm_StaggerOdd_Lead1.86mm_Vertical (at 3.4 2.15) (layer F.Fab)
    (effects (font (size 1 1) (thickness 0.15)))
  )
  (fp_line (start -1.73 -6.56) (end -1.73 -1.86) (layer F.Fab) (width 0.1))
  (fp_line (start -1.73 -1.86) (end 8.53 -1.86) (layer F.Fab) (width 0.1))
  (fp_line (start 8.53 -1.86) (end 8.53 -6.56) (layer F.Fab) (width 0.1))
  (fp_line (start 8.53 -6.56) (end -1.73 -6.56) (layer F.Fab) (width 0.1))
  (fp_line (start -1.73 -4.04) (end 8.53 -4.04) (layer F.Fab) (width 0.1))
  (fp_line (start 1.55 -6.56) (end 1.55 -4.04) (layer F.Fab) (width 0.1))
  (fp_line (start 5.25 -6.56) (end 5.25 -4.04) (layer F.Fab) (width 0.1))
  (fp_line (start 0 -1.86) (end 0 0) (layer F.Fab) (width 0.1))
  (fp_line (start 3.4 -1.86) (end 3.4 0) (layer F.Fab) (width 0.1))
  (fp_line (start 6.8 -1.86) (end 6.8 0) (layer F.Fab) (width 0.1))
  (fp_line (start -1.85 -6.68) (end 8.65 -6.68) (layer F.SilkS) (width 0.12))
  (fp_line (start -1.85 -1.739) (end 0.669 -1.739) (layer F.SilkS) (width 0.12))
  (fp_line (start 2.732 -1.739) (end 4.069 -1.739) (layer F.SilkS) (width 0.12))
  (fp_line (start 6.132 -1.739) (end 8.65 -1.739) (layer F.SilkS) (width 0.12))
  (fp_line (start -1.85 -6.68) (end -1.85 -1.739) (layer F.SilkS) (width 0.12))
  (fp_line (start 8.65 -6.68) (end 8.65 -1.739) (layer F.SilkS) (width 0.12))
  (fp_line (start -1.85 -3.921) (end 8.65 -3.921) (layer F.SilkS) (width 0.12))
  (fp_line (start 1.55 -6.68) (end 1.55 -3.921) (layer F.SilkS) (width 0.12))
  (fp_line (start 5.25 -6.68) (end 5.25 -3.921) (layer F.SilkS) (width 0.12))
  (fp_line (start 0 -1.739) (end 0 -1.05) (layer F.SilkS) (width 0.12))
  (fp_line (start 3.4 -1.739) (end 3.4 -1.065) (layer F.SilkS) (width 0.12))
  (fp_line (start 6.8 -1.739) (end 6.8 -1.065) (layer F.SilkS) (width 0.12))
  (fp_line (start -1.98 -6.81) (end -1.98 1.16) (layer F.CrtYd) (width 0.05))
  (fp_line (start -1.98 1.16) (end 8.78 1.16) (layer F.CrtYd) (width 0.05))
  (fp_line (start 8.78 1.16) (end 8.78 -6.81) (layer F.CrtYd) (width 0.05))
  (fp_line (start 8.78 -6.81) (end -1.98 -6.81) (layer F.CrtYd) (width 0.05))
  (pad 1 thru_hole rect (at 0 0) (size 1.8 1.8) (drill 1.2) (layers *.Cu *.Mask))
  (pad 2 thru_hole oval (at 1.7 -2.06) (size 1.8 1.8) (drill 1.2) (layers *.Cu *.Mask))
  (pad 3 thru_hole oval (at 3.4 0) (size 1.8 1.8) (drill 1.2) (layers *.Cu *.Mask))
  (pad 4 thru_hole oval (at 5.1 -2.06) (size 1.8 1.8) (drill 1.2) (layers *.Cu *.Mask))
  (pad 5 thru_hole oval (at 6.8 0) (size 1.8 1.8) (drill 1.2) (layers *.Cu *.Mask))
  (fp_text user %R (at 3.4 -7.68) (layer F.Fab)
    (effects (font (size 1 1) (thickness 0.15)))
  )
  (model ${KIPRJMOD}/kicad_libs_k/models_k.3d/Package_TO_SOT_THT_k.3dshapes/TO-220F-5_P3.4x2.06mm_StaggerOdd_Lead1.86mm_Vertical_k.wrl
    (at (xyz 0 0 0))
    (scale (xyz 1 1 1))
    (rotate (xyz 0 0 0))
  )
)