(module TO-218-2_Vertical (layer F.Cu) (tedit 5ACBC81F)
  (descr "TO-218-2, Vertical, RM 10.95mm, SOT-93, see https://www.vishay.com/docs/95214/fto218.pdf")
  (tags "TO-218-2 Vertical RM 10.95mm SOT-93")
  (fp_text reference REF** (at 5.475 -4.29) (layer F.SilkS)
    (effects (font (size 1 1) (thickness 0.15)))
  )
  (fp_text value TO-218-2_Vertical (at 5.475 3) (layer F.Fab)
    (effects (font (size 1 1) (thickness 0.15)))
  )
  (fp_line (start -1.995 -3.17) (end -1.995 1.63) (layer F.Fab) (width 0.1))
  (fp_line (start -1.995 1.63) (end 12.945 1.63) (layer F.Fab) (width 0.1))
  (fp_line (start 12.945 1.63) (end 12.945 -3.17) (layer F.Fab) (width 0.1))
  (fp_line (start 12.945 -3.17) (end -1.995 -3.17) (layer F.Fab) (width 0.1))
  (fp_line (start -1.995 -1.9) (end 12.945 -1.9) (layer F.Fab) (width 0.1))
  (fp_line (start 3.36 -3.17) (end 3.36 -1.9) (layer F.Fab) (width 0.1))
  (fp_line (start 7.59 -3.17) (end 7.59 -1.9) (layer F.Fab) (width 0.1))
  (fp_line (start -2.115 -3.29) (end 13.065 -3.29) (layer F.SilkS) (width 0.12))
  (fp_line (start -2.115 1.75) (end -1.4 1.75) (layer F.SilkS) (width 0.12))
  (fp_line (start 1.4 1.75) (end 9.55 1.75) (layer F.SilkS) (width 0.12))
  (fp_line (start 12.35 1.75) (end 13.065 1.75) (layer F.SilkS) (width 0.12))
  (fp_line (start -2.115 -3.29) (end -2.115 1.75) (layer F.SilkS) (width 0.12))
  (fp_line (start 13.065 -3.29) (end 13.065 1.75) (layer F.SilkS) (width 0.12))
  (fp_line (start -2.115 -1.78) (end -1.4 -1.78) (layer F.SilkS) (width 0.12))
  (fp_line (start 1.4 -1.78) (end 9.55 -1.78) (layer F.SilkS) (width 0.12))
  (fp_line (start 12.35 -1.78) (end 13.065 -1.78) (layer F.SilkS) (width 0.12))
  (fp_line (start 3.36 -3.29) (end 3.36 -1.78) (layer F.SilkS) (width 0.12))
  (fp_line (start 7.59 -3.29) (end 7.59 -1.78) (layer F.SilkS) (width 0.12))
  (fp_line (start -2.25 -3.42) (end -2.25 2) (layer F.CrtYd) (width 0.05))
  (fp_line (start -2.25 2) (end 13.2 2) (layer F.CrtYd) (width 0.05))
  (fp_line (start 13.2 2) (end 13.2 -3.42) (layer F.CrtYd) (width 0.05))
  (fp_line (start 13.2 -3.42) (end -2.25 -3.42) (layer F.CrtYd) (width 0.05))
  (pad 1 thru_hole rect (at 0 0) (size 2.5 3.5) (drill 1.5) (layers *.Cu *.Mask))
  (pad 2 thru_hole oval (at 10.95 0) (size 2.5 3.5) (drill 1.5) (layers *.Cu *.Mask))
  (fp_text user %R (at 5.475 -4.29) (layer F.Fab)
    (effects (font (size 1 1) (thickness 0.15)))
  )
  (model ${KIPRJMOD}/kicad_libs_k/models_k.3d/Package_TO_SOT_THT_k.3dshapes/TO-218-2_Vertical_k.wrl
    (at (xyz 0 0 0))
    (scale (xyz 1 1 1))
    (rotate (xyz 0 0 0))
  )
)