(module TO-220-11_P3.4x2.54mm_StaggerEven_Lead5.84mm_TabDown (layer F.Cu) (tedit 5AF05A31)
  (descr "TO-220-11, Horizontal, RM 1.7mm, staggered type-2, see http://www.st.com/resource/en/datasheet/tda7391lv.pdf")
  (tags "TO-220-11 Horizontal RM 1.7mm staggered type-2")
  (fp_text reference REF** (at 8.5 -21.92) (layer F.SilkS)
    (effects (font (size 1 1) (thickness 0.15)))
  )
  (fp_text value TO-220-11_P3.4x2.54mm_StaggerEven_Lead5.84mm_TabDown (at 8.5 4.44) (layer F.Fab)
    (effects (font (size 1 1) (thickness 0.15)))
  )
  (fp_circle (center 8.5 -18) (end 10.35 -18) (layer F.Fab) (width 0.1))
  (fp_line (start -1.6 -14) (end -1.6 -18.55) (layer F.Fab) (width 0.1))
  (fp_line (start -1.6 -18.55) (end 0.651 -20.8) (layer F.Fab) (width 0.1))
  (fp_line (start 0.651 -20.8) (end 16.351 -20.8) (layer F.Fab) (width 0.1))
  (fp_line (start 16.351 -20.8) (end 18.6 -18.55) (layer F.Fab) (width 0.1))
  (fp_line (start 18.6 -18.55) (end 18.6 -14) (layer F.Fab) (width 0.1))
  (fp_line (start 18.6 -14) (end -1.6 -14) (layer F.Fab) (width 0.1))
  (fp_line (start -1.6 -3.3) (end -1.6 -14) (layer F.Fab) (width 0.1))
  (fp_line (start -1.6 -14) (end 18.6 -14) (layer F.Fab) (width 0.1))
  (fp_line (start 18.6 -14) (end 18.6 -3.3) (layer F.Fab) (width 0.1))
  (fp_line (start 18.6 -3.3) (end -1.6 -3.3) (layer F.Fab) (width 0.1))
  (fp_line (start 0 -3.3) (end 0 0) (layer F.Fab) (width 0.1))
  (fp_line (start 1.7 -3.3) (end 1.7 2.54) (layer F.Fab) (width 0.1))
  (fp_line (start 3.4 -3.3) (end 3.4 0) (layer F.Fab) (width 0.1))
  (fp_line (start 5.1 -3.3) (end 5.1 2.54) (layer F.Fab) (width 0.1))
  (fp_line (start 6.8 -3.3) (end 6.8 0) (layer F.Fab) (width 0.1))
  (fp_line (start 8.5 -3.3) (end 8.5 2.54) (layer F.Fab) (width 0.1))
  (fp_line (start 10.2 -3.3) (end 10.2 0) (layer F.Fab) (width 0.1))
  (fp_line (start 11.9 -3.3) (end 11.9 2.54) (layer F.Fab) (width 0.1))
  (fp_line (start 13.6 -3.3) (end 13.6 0) (layer F.Fab) (width 0.1))
  (fp_line (start 15.3 -3.3) (end 15.3 2.54) (layer F.Fab) (width 0.1))
  (fp_line (start 17 -3.3) (end 17 0) (layer F.Fab) (width 0.1))
  (fp_line (start -1.72 -3.18) (end 18.72 -3.18) (layer F.SilkS) (width 0.12))
  (fp_line (start -1.72 -20.92) (end 18.72 -20.92) (layer F.SilkS) (width 0.12))
  (fp_line (start -1.72 -20.92) (end -1.72 -3.18) (layer F.SilkS) (width 0.12))
  (fp_line (start 18.72 -20.92) (end 18.72 -3.18) (layer F.SilkS) (width 0.12))
  (fp_line (start 0 -3.18) (end 0 -1.05) (layer F.SilkS) (width 0.12))
  (fp_line (start 1.7 -3.18) (end 1.7 1.475) (layer F.SilkS) (width 0.12))
  (fp_line (start 3.4 -3.18) (end 3.4 -1.066) (layer F.SilkS) (width 0.12))
  (fp_line (start 5.1 -3.18) (end 5.1 1.475) (layer F.SilkS) (width 0.12))
  (fp_line (start 6.8 -3.18) (end 6.8 -1.066) (layer F.SilkS) (width 0.12))
  (fp_line (start 8.5 -3.18) (end 8.5 1.475) (layer F.SilkS) (width 0.12))
  (fp_line (start 10.2 -3.18) (end 10.2 -1.066) (layer F.SilkS) (width 0.12))
  (fp_line (start 11.9 -3.18) (end 11.9 1.475) (layer F.SilkS) (width 0.12))
  (fp_line (start 13.6 -3.18) (end 13.6 -1.066) (layer F.SilkS) (width 0.12))
  (fp_line (start 15.3 -3.18) (end 15.3 1.475) (layer F.SilkS) (width 0.12))
  (fp_line (start 17 -3.18) (end 17 -1.066) (layer F.SilkS) (width 0.12))
  (fp_line (start -1.85 -21.05) (end -1.85 3.69) (layer F.CrtYd) (width 0.05))
  (fp_line (start -1.85 3.69) (end 18.85 3.69) (layer F.CrtYd) (width 0.05))
  (fp_line (start 18.85 3.69) (end 18.85 -21.05) (layer F.CrtYd) (width 0.05))
  (fp_line (start 18.85 -21.05) (end -1.85 -21.05) (layer F.CrtYd) (width 0.05))
  (pad "" np_thru_hole oval (at 8.5 -18) (size 3.5 3.5) (drill 3.5) (layers *.Cu *.Mask))
  (pad 1 thru_hole rect (at 0 0) (size 1.8 1.8) (drill 1) (layers *.Cu *.Mask))
  (pad 2 thru_hole oval (at 1.7 2.54) (size 1.8 1.8) (drill 1) (layers *.Cu *.Mask))
  (pad 3 thru_hole oval (at 3.4 0) (size 1.8 1.8) (drill 1) (layers *.Cu *.Mask))
  (pad 4 thru_hole oval (at 5.1 2.54) (size 1.8 1.8) (drill 1) (layers *.Cu *.Mask))
  (pad 5 thru_hole oval (at 6.8 0) (size 1.8 1.8) (drill 1) (layers *.Cu *.Mask))
  (pad 6 thru_hole oval (at 8.5 2.54) (size 1.8 1.8) (drill 1) (layers *.Cu *.Mask))
  (pad 7 thru_hole oval (at 10.2 0) (size 1.8 1.8) (drill 1) (layers *.Cu *.Mask))
  (pad 8 thru_hole oval (at 11.9 2.54) (size 1.8 1.8) (drill 1) (layers *.Cu *.Mask))
  (pad 9 thru_hole oval (at 13.6 0) (size 1.8 1.8) (drill 1) (layers *.Cu *.Mask))
  (pad 10 thru_hole oval (at 15.3 2.54) (size 1.8 1.8) (drill 1) (layers *.Cu *.Mask))
  (pad 11 thru_hole oval (at 17 0) (size 1.8 1.8) (drill 1) (layers *.Cu *.Mask))
  (fp_text user %R (at 8.5 -21.92) (layer F.Fab)
    (effects (font (size 1 1) (thickness 0.15)))
  )
  (model ${KIPRJMOD}/kicad_libs_k/models_k.3d/Package_TO_SOT_THT_k.3dshapes/TO-220-11_P3.4x2.54mm_StaggerEven_Lead5.84mm_TabDown_k.wrl
    (at (xyz 0 0 0))
    (scale (xyz 1 1 1))
    (rotate (xyz 0 0 0))
  )
)