(module TO-220-11_Vertical_StaggeredType1_Py5.08mm (layer F.Cu) (tedit 5AC8BA0E)
  (descr "TO-220-11, Vertical, RM 1.7mm, staggered type-1, see http://www.st.com/resource/en/datasheet/tda7391lv.pdf")
  (tags "TO-220-11 Vertical RM 1.7mm staggered type-1")
  (fp_text reference REF** (at 8.5 -10.7) (layer F.SilkS)
    (effects (font (size 1 1) (thickness 0.15)))
  )
  (fp_text value TO-220-11_Vertical_StaggeredType1_Py5.08mm (at 8.5 2.15) (layer F.Fab)
    (effects (font (size 1 1) (thickness 0.15)))
  )
  (fp_line (start -1.6 -9.58) (end -1.6 -4.58) (layer F.Fab) (width 0.1))
  (fp_line (start -1.6 -4.58) (end 18.6 -4.58) (layer F.Fab) (width 0.1))
  (fp_line (start 18.6 -4.58) (end 18.6 -9.58) (layer F.Fab) (width 0.1))
  (fp_line (start 18.6 -9.58) (end -1.6 -9.58) (layer F.Fab) (width 0.1))
  (fp_line (start -1.6 -7.98) (end 18.6 -7.98) (layer F.Fab) (width 0.1))
  (fp_line (start 6.65 -9.58) (end 6.65 -7.98) (layer F.Fab) (width 0.1))
  (fp_line (start 10.35 -9.58) (end 10.35 -7.98) (layer F.Fab) (width 0.1))
  (fp_line (start 0 -4.58) (end 0 0) (layer F.Fab) (width 0.1))
  (fp_line (start 3.4 -4.58) (end 3.4 0) (layer F.Fab) (width 0.1))
  (fp_line (start 6.8 -4.58) (end 6.8 0) (layer F.Fab) (width 0.1))
  (fp_line (start 10.2 -4.58) (end 10.2 0) (layer F.Fab) (width 0.1))
  (fp_line (start 13.6 -4.58) (end 13.6 0) (layer F.Fab) (width 0.1))
  (fp_line (start 17 -4.58) (end 17 0) (layer F.Fab) (width 0.1))
  (fp_line (start -1.72 -9.7) (end 18.72 -9.7) (layer F.SilkS) (width 0.12))
  (fp_line (start -1.72 -4.459) (end 0.776 -4.459) (layer F.SilkS) (width 0.12))
  (fp_line (start 2.625 -4.459) (end 4.176 -4.459) (layer F.SilkS) (width 0.12))
  (fp_line (start 6.025 -4.459) (end 7.576 -4.459) (layer F.SilkS) (width 0.12))
  (fp_line (start 9.425 -4.459) (end 10.976 -4.459) (layer F.SilkS) (width 0.12))
  (fp_line (start 12.825 -4.459) (end 14.376 -4.459) (layer F.SilkS) (width 0.12))
  (fp_line (start 16.225 -4.459) (end 18.72 -4.459) (layer F.SilkS) (width 0.12))
  (fp_line (start -1.72 -9.7) (end -1.72 -4.459) (layer F.SilkS) (width 0.12))
  (fp_line (start 18.72 -9.7) (end 18.72 -4.459) (layer F.SilkS) (width 0.12))
  (fp_line (start -1.72 -7.86) (end 18.72 -7.86) (layer F.SilkS) (width 0.12))
  (fp_line (start 6.65 -9.7) (end 6.65 -7.86) (layer F.SilkS) (width 0.12))
  (fp_line (start 10.35 -9.7) (end 10.35 -7.86) (layer F.SilkS) (width 0.12))
  (fp_line (start 0 -4.459) (end 0 -1.05) (layer F.SilkS) (width 0.12))
  (fp_line (start 3.4 -4.459) (end 3.4 -1.065) (layer F.SilkS) (width 0.12))
  (fp_line (start 6.8 -4.459) (end 6.8 -1.065) (layer F.SilkS) (width 0.12))
  (fp_line (start 10.2 -4.459) (end 10.2 -1.065) (layer F.SilkS) (width 0.12))
  (fp_line (start 13.6 -4.459) (end 13.6 -1.065) (layer F.SilkS) (width 0.12))
  (fp_line (start 17 -4.459) (end 17 -1.065) (layer F.SilkS) (width 0.12))
  (fp_line (start -1.85 -9.83) (end -1.85 1.16) (layer F.CrtYd) (width 0.05))
  (fp_line (start -1.85 1.16) (end 18.85 1.16) (layer F.CrtYd) (width 0.05))
  (fp_line (start 18.85 1.16) (end 18.85 -9.83) (layer F.CrtYd) (width 0.05))
  (fp_line (start 18.85 -9.83) (end -1.85 -9.83) (layer F.CrtYd) (width 0.05))
  (pad 1 thru_hole rect (at 0 0) (size 1.8 1.8) (drill 1) (layers *.Cu *.Mask))
  (pad 2 thru_hole oval (at 1.7 -5.08) (size 1.8 1.8) (drill 1) (layers *.Cu *.Mask))
  (pad 3 thru_hole oval (at 3.4 0) (size 1.8 1.8) (drill 1) (layers *.Cu *.Mask))
  (pad 4 thru_hole oval (at 5.1 -5.08) (size 1.8 1.8) (drill 1) (layers *.Cu *.Mask))
  (pad 5 thru_hole oval (at 6.8 0) (size 1.8 1.8) (drill 1) (layers *.Cu *.Mask))
  (pad 6 thru_hole oval (at 8.5 -5.08) (size 1.8 1.8) (drill 1) (layers *.Cu *.Mask))
  (pad 7 thru_hole oval (at 10.2 0) (size 1.8 1.8) (drill 1) (layers *.Cu *.Mask))
  (pad 8 thru_hole oval (at 11.9 -5.08) (size 1.8 1.8) (drill 1) (layers *.Cu *.Mask))
  (pad 9 thru_hole oval (at 13.6 0) (size 1.8 1.8) (drill 1) (layers *.Cu *.Mask))
  (pad 10 thru_hole oval (at 15.3 -5.08) (size 1.8 1.8) (drill 1) (layers *.Cu *.Mask))
  (pad 11 thru_hole oval (at 17 0) (size 1.8 1.8) (drill 1) (layers *.Cu *.Mask))
  (fp_text user %R (at 8.5 -10.7) (layer F.Fab)
    (effects (font (size 1 1) (thickness 0.15)))
  )
  (model ${KIPRJMOD}/kicad_libs_k/models_k.3d/Package_TO_SOT_THT_k.3dshapes/TO-220-11_Vertical_StaggeredType1_Py5.08mm_k.wrl
    (at (xyz 0 0 0))
    (scale (xyz 1 1 1))
    (rotate (xyz 0 0 0))
  )
)