(module TO-220-7_Vertical_StaggeredType2_Py3.7mm (layer F.Cu) (tedit 5ACC4AF2)
  (descr "TO-220-7, Vertical, RM 1.27mm, Multiwatt-7, staggered type-2")
  (tags "TO-220-7 Vertical RM 1.27mm Multiwatt-7 staggered type-2")
  (fp_text reference REF** (at 3.81 -5.62) (layer F.SilkS)
    (effects (font (size 1 1) (thickness 0.15)))
  )
  (fp_text value TO-220-7_Vertical_StaggeredType2_Py3.7mm (at 3.81 5.85) (layer F.Fab)
    (effects (font (size 1 1) (thickness 0.15)))
  )
  (fp_line (start -1.19 -4.5) (end -1.19 -0.1) (layer F.Fab) (width 0.1))
  (fp_line (start -1.19 -0.1) (end 8.81 -0.1) (layer F.Fab) (width 0.1))
  (fp_line (start 8.81 -0.1) (end 8.81 -4.5) (layer F.Fab) (width 0.1))
  (fp_line (start 8.81 -4.5) (end -1.19 -4.5) (layer F.Fab) (width 0.1))
  (fp_line (start -1.19 -3.23) (end 8.81 -3.23) (layer F.Fab) (width 0.1))
  (fp_line (start 1.96 -4.5) (end 1.96 -3.23) (layer F.Fab) (width 0.1))
  (fp_line (start 5.66 -4.5) (end 5.66 -3.23) (layer F.Fab) (width 0.1))
  (fp_line (start 0 -0.1) (end 0 0) (layer F.Fab) (width 0.1))
  (fp_line (start 1.27 -0.1) (end 1.27 3.7) (layer F.Fab) (width 0.1))
  (fp_line (start 2.54 -0.1) (end 2.54 0) (layer F.Fab) (width 0.1))
  (fp_line (start 3.81 -0.1) (end 3.81 3.7) (layer F.Fab) (width 0.1))
  (fp_line (start 5.08 -0.1) (end 5.08 0) (layer F.Fab) (width 0.1))
  (fp_line (start 6.35 -0.1) (end 6.35 3.7) (layer F.Fab) (width 0.1))
  (fp_line (start 7.62 -0.1) (end 7.62 0) (layer F.Fab) (width 0.1))
  (fp_line (start -1.31 -4.62) (end 8.93 -4.62) (layer F.SilkS) (width 0.12))
  (fp_line (start -1.31 0.021) (end -1.05 0.021) (layer F.SilkS) (width 0.12))
  (fp_line (start 1.05 0.021) (end 1.475 0.021) (layer F.SilkS) (width 0.12))
  (fp_line (start 3.605 0.021) (end 4.016 0.021) (layer F.SilkS) (width 0.12))
  (fp_line (start 6.145 0.021) (end 6.555 0.021) (layer F.SilkS) (width 0.12))
  (fp_line (start 8.685 0.021) (end 8.93 0.021) (layer F.SilkS) (width 0.12))
  (fp_line (start -1.31 -4.62) (end -1.31 0.021) (layer F.SilkS) (width 0.12))
  (fp_line (start 8.93 -4.62) (end 8.93 0.021) (layer F.SilkS) (width 0.12))
  (fp_line (start -1.31 -3.111) (end 8.93 -3.111) (layer F.SilkS) (width 0.12))
  (fp_line (start 1.96 -4.62) (end 1.96 -3.111) (layer F.SilkS) (width 0.12))
  (fp_line (start 5.66 -4.62) (end 5.66 -3.111) (layer F.SilkS) (width 0.12))
  (fp_line (start 1.27 0.021) (end 1.27 2.635) (layer F.SilkS) (width 0.12))
  (fp_line (start 3.81 0.021) (end 3.81 2.635) (layer F.SilkS) (width 0.12))
  (fp_line (start 6.35 0.021) (end 6.35 2.635) (layer F.SilkS) (width 0.12))
  (fp_line (start -1.44 -4.75) (end -1.44 4.85) (layer F.CrtYd) (width 0.05))
  (fp_line (start -1.44 4.85) (end 9.06 4.85) (layer F.CrtYd) (width 0.05))
  (fp_line (start 9.06 4.85) (end 9.06 -4.75) (layer F.CrtYd) (width 0.05))
  (fp_line (start 9.06 -4.75) (end -1.44 -4.75) (layer F.CrtYd) (width 0.05))
  (pad 1 thru_hole rect (at 0 0) (size 1.8 1.8) (drill 1.1) (layers *.Cu *.Mask))
  (pad 2 thru_hole oval (at 1.27 3.7) (size 1.8 1.8) (drill 1.1) (layers *.Cu *.Mask))
  (pad 3 thru_hole oval (at 2.54 0) (size 1.8 1.8) (drill 1.1) (layers *.Cu *.Mask))
  (pad 4 thru_hole oval (at 3.81 3.7) (size 1.8 1.8) (drill 1.1) (layers *.Cu *.Mask))
  (pad 5 thru_hole oval (at 5.08 0) (size 1.8 1.8) (drill 1.1) (layers *.Cu *.Mask))
  (pad 6 thru_hole oval (at 6.35 3.7) (size 1.8 1.8) (drill 1.1) (layers *.Cu *.Mask))
  (pad 7 thru_hole oval (at 7.62 0) (size 1.8 1.8) (drill 1.1) (layers *.Cu *.Mask))
  (fp_text user %R (at 3.81 -5.62) (layer F.Fab)
    (effects (font (size 1 1) (thickness 0.15)))
  )
  (model ${KIPRJMOD}/kicad_libs_k/models_k.3d/Package_TO_SOT_THT_k.3dshapes/TO-220-7_Vertical_StaggeredType2_Py3.7mm_k.wrl
    (at (xyz 0 0 0))
    (scale (xyz 1 1 1))
    (rotate (xyz 0 0 0))
  )
)