(module TO-220F-4_Horizontal_TabUp (layer F.Cu) (tedit 5AC8BA0D)
  (descr "TO-220F-4, Horizontal, RM 2.54mm, see https://www.njr.com/semicon/PDF/package/TO-220F-4_E.pdf")
  (tags "TO-220F-4 Horizontal RM 2.54mm")
  (fp_text reference REF** (at 3.81 20.22) (layer F.SilkS)
    (effects (font (size 1 1) (thickness 0.15)))
  )
  (fp_text value TO-220F-4_Horizontal_TabUp (at 3.81 -2) (layer F.Fab)
    (effects (font (size 1 1) (thickness 0.15)))
  )
  (fp_circle (center 3.81 15.8) (end 5.66 15.8) (layer F.Fab) (width 0.1))
  (fp_line (start -1.32 12.42) (end -1.32 19.1) (layer F.Fab) (width 0.1))
  (fp_line (start -1.32 19.1) (end 8.94 19.1) (layer F.Fab) (width 0.1))
  (fp_line (start 8.94 19.1) (end 8.94 12.42) (layer F.Fab) (width 0.1))
  (fp_line (start 8.94 12.42) (end -1.32 12.42) (layer F.Fab) (width 0.1))
  (fp_line (start -1.32 3.23) (end -1.32 12.42) (layer F.Fab) (width 0.1))
  (fp_line (start -1.32 12.42) (end 8.94 12.42) (layer F.Fab) (width 0.1))
  (fp_line (start 8.94 12.42) (end 8.94 3.23) (layer F.Fab) (width 0.1))
  (fp_line (start 8.94 3.23) (end -1.32 3.23) (layer F.Fab) (width 0.1))
  (fp_line (start 0 3.23) (end 0 0) (layer F.Fab) (width 0.1))
  (fp_line (start 2.54 3.23) (end 2.54 0) (layer F.Fab) (width 0.1))
  (fp_line (start 5.08 3.23) (end 5.08 0) (layer F.Fab) (width 0.1))
  (fp_line (start 7.62 3.23) (end 7.62 0) (layer F.Fab) (width 0.1))
  (fp_line (start -1.44 3.11) (end 9.06 3.11) (layer F.SilkS) (width 0.12))
  (fp_line (start -1.44 12.54) (end 9.06 12.54) (layer F.SilkS) (width 0.12))
  (fp_line (start -1.44 3.11) (end -1.44 12.54) (layer F.SilkS) (width 0.12))
  (fp_line (start 9.06 3.11) (end 9.06 12.54) (layer F.SilkS) (width 0.12))
  (fp_line (start -1.44 19.22) (end -0.24 19.22) (layer F.SilkS) (width 0.12))
  (fp_line (start 0.96 19.22) (end 2.16 19.22) (layer F.SilkS) (width 0.12))
  (fp_line (start 3.361 19.22) (end 4.56 19.22) (layer F.SilkS) (width 0.12))
  (fp_line (start 5.761 19.22) (end 6.961 19.22) (layer F.SilkS) (width 0.12))
  (fp_line (start 8.16 19.22) (end 9.06 19.22) (layer F.SilkS) (width 0.12))
  (fp_line (start -1.44 12.78) (end -1.44 13.98) (layer F.SilkS) (width 0.12))
  (fp_line (start -1.44 15.18) (end -1.44 16.38) (layer F.SilkS) (width 0.12))
  (fp_line (start -1.44 17.58) (end -1.44 18.78) (layer F.SilkS) (width 0.12))
  (fp_line (start 9.06 12.78) (end 9.06 13.98) (layer F.SilkS) (width 0.12))
  (fp_line (start 9.06 15.18) (end 9.06 16.38) (layer F.SilkS) (width 0.12))
  (fp_line (start 9.06 17.58) (end 9.06 18.78) (layer F.SilkS) (width 0.12))
  (fp_line (start 0 1.15) (end 0 3.11) (layer F.SilkS) (width 0.12))
  (fp_line (start 2.54 1.15) (end 2.54 3.11) (layer F.SilkS) (width 0.12))
  (fp_line (start 5.08 1.15) (end 5.08 3.11) (layer F.SilkS) (width 0.12))
  (fp_line (start 7.62 1.15) (end 7.62 3.11) (layer F.SilkS) (width 0.12))
  (fp_line (start -1.57 -1.25) (end -1.57 19.35) (layer F.CrtYd) (width 0.05))
  (fp_line (start -1.57 19.35) (end 9.19 19.35) (layer F.CrtYd) (width 0.05))
  (fp_line (start 9.19 19.35) (end 9.19 -1.25) (layer F.CrtYd) (width 0.05))
  (fp_line (start 9.19 -1.25) (end -1.57 -1.25) (layer F.CrtYd) (width 0.05))
  (pad "" np_thru_hole oval (at 3.81 15.8) (size 3.5 3.5) (drill 3.5) (layers *.Cu *.Mask))
  (pad 1 thru_hole rect (at 0 0) (size 1.905 2) (drill 1.2) (layers *.Cu *.Mask))
  (pad 2 thru_hole oval (at 2.54 0) (size 1.905 2) (drill 1.2) (layers *.Cu *.Mask))
  (pad 3 thru_hole oval (at 5.08 0) (size 1.905 2) (drill 1.2) (layers *.Cu *.Mask))
  (pad 4 thru_hole oval (at 7.62 0) (size 1.905 2) (drill 1.2) (layers *.Cu *.Mask))
  (fp_text user %R (at 3.81 20.22) (layer F.Fab)
    (effects (font (size 1 1) (thickness 0.15)))
  )
  (model ${KIPRJMOD}/kicad_libs_k/models_k.3d/Package_TO_SOT_THT_k.3dshapes/TO-220F-4_Horizontal_TabUp_k.wrl
    (at (xyz 0 0 0))
    (scale (xyz 1 1 1))
    (rotate (xyz 0 0 0))
  )
)