(module TO-220-7_P2.54x3.8mm_StaggerOdd_Lead5.85mm_TabDown (layer F.Cu) (tedit 5AF05A31)
  (descr "TO-220-7, Horizontal, RM 1.27mm, Multiwatt-7, staggered type-1")
  (tags "TO-220-7 Horizontal RM 1.27mm Multiwatt-7 staggered type-1")
  (fp_text reference REF** (at 3.81 -22.62) (layer F.SilkS)
    (effects (font (size 1 1) (thickness 0.15)))
  )
  (fp_text value TO-220-7_P2.54x3.8mm_StaggerOdd_Lead5.85mm_TabDown (at 3.81 1.9) (layer F.Fab)
    (effects (font (size 1 1) (thickness 0.15)))
  )
  (fp_circle (center 3.81 -18.7) (end 5.66 -18.7) (layer F.Fab) (width 0.1))
  (fp_line (start -1.19 -15.1) (end -1.19 -21.5) (layer F.Fab) (width 0.1))
  (fp_line (start -1.19 -21.5) (end 8.81 -21.5) (layer F.Fab) (width 0.1))
  (fp_line (start 8.81 -21.5) (end 8.81 -15.1) (layer F.Fab) (width 0.1))
  (fp_line (start 8.81 -15.1) (end -1.19 -15.1) (layer F.Fab) (width 0.1))
  (fp_line (start -1.19 -5.85) (end -1.19 -15.1) (layer F.Fab) (width 0.1))
  (fp_line (start -1.19 -15.1) (end 8.81 -15.1) (layer F.Fab) (width 0.1))
  (fp_line (start 8.81 -15.1) (end 8.81 -5.85) (layer F.Fab) (width 0.1))
  (fp_line (start 8.81 -5.85) (end -1.19 -5.85) (layer F.Fab) (width 0.1))
  (fp_line (start 0 -5.85) (end 0 0) (layer F.Fab) (width 0.1))
  (fp_line (start 1.27 -5.85) (end 1.27 -3.8) (layer F.Fab) (width 0.1))
  (fp_line (start 2.54 -5.85) (end 2.54 0) (layer F.Fab) (width 0.1))
  (fp_line (start 3.81 -5.85) (end 3.81 -3.8) (layer F.Fab) (width 0.1))
  (fp_line (start 5.08 -5.85) (end 5.08 0) (layer F.Fab) (width 0.1))
  (fp_line (start 6.35 -5.85) (end 6.35 -3.8) (layer F.Fab) (width 0.1))
  (fp_line (start 7.62 -5.85) (end 7.62 0) (layer F.Fab) (width 0.1))
  (fp_line (start -1.31 -5.73) (end 8.93 -5.73) (layer F.SilkS) (width 0.12))
  (fp_line (start -1.31 -21.62) (end 8.93 -21.62) (layer F.SilkS) (width 0.12))
  (fp_line (start -1.31 -21.62) (end -1.31 -5.73) (layer F.SilkS) (width 0.12))
  (fp_line (start 8.93 -21.62) (end 8.93 -5.73) (layer F.SilkS) (width 0.12))
  (fp_line (start 0 -5.73) (end 0 -1.05) (layer F.SilkS) (width 0.12))
  (fp_line (start 1.27 -5.73) (end 1.27 -4.866) (layer F.SilkS) (width 0.12))
  (fp_line (start 2.54 -5.73) (end 2.54 -1.065) (layer F.SilkS) (width 0.12))
  (fp_line (start 3.81 -5.73) (end 3.81 -4.866) (layer F.SilkS) (width 0.12))
  (fp_line (start 5.08 -5.73) (end 5.08 -1.065) (layer F.SilkS) (width 0.12))
  (fp_line (start 6.35 -5.73) (end 6.35 -4.866) (layer F.SilkS) (width 0.12))
  (fp_line (start 7.62 -5.73) (end 7.62 -1.065) (layer F.SilkS) (width 0.12))
  (fp_line (start -1.44 -21.75) (end -1.44 1.15) (layer F.CrtYd) (width 0.05))
  (fp_line (start -1.44 1.15) (end 9.06 1.15) (layer F.CrtYd) (width 0.05))
  (fp_line (start 9.06 1.15) (end 9.06 -21.75) (layer F.CrtYd) (width 0.05))
  (fp_line (start 9.06 -21.75) (end -1.44 -21.75) (layer F.CrtYd) (width 0.05))
  (pad "" np_thru_hole oval (at 3.81 -18.7) (size 3.5 3.5) (drill 3.5) (layers *.Cu *.Mask))
  (pad 1 thru_hole rect (at 0 0) (size 1.8 1.8) (drill 1.1) (layers *.Cu *.Mask))
  (pad 2 thru_hole oval (at 1.27 -3.8) (size 1.8 1.8) (drill 1.1) (layers *.Cu *.Mask))
  (pad 3 thru_hole oval (at 2.54 0) (size 1.8 1.8) (drill 1.1) (layers *.Cu *.Mask))
  (pad 4 thru_hole oval (at 3.81 -3.8) (size 1.8 1.8) (drill 1.1) (layers *.Cu *.Mask))
  (pad 5 thru_hole oval (at 5.08 0) (size 1.8 1.8) (drill 1.1) (layers *.Cu *.Mask))
  (pad 6 thru_hole oval (at 6.35 -3.8) (size 1.8 1.8) (drill 1.1) (layers *.Cu *.Mask))
  (pad 7 thru_hole oval (at 7.62 0) (size 1.8 1.8) (drill 1.1) (layers *.Cu *.Mask))
  (fp_text user %R (at 3.81 -22.62) (layer F.Fab)
    (effects (font (size 1 1) (thickness 0.15)))
  )
  (model ${KIPRJMOD}/kicad_libs_k/models_k.3d/Package_TO_SOT_THT_k.3dshapes/TO-220-7_P2.54x3.8mm_StaggerOdd_Lead5.85mm_TabDown_k.wrl
    (at (xyz 0 0 0))
    (scale (xyz 1 1 1))
    (rotate (xyz 0 0 0))
  )
)