(module TO-220F-9_P1.8x3.7mm_StaggerOdd_Lead3.5mm_Vertical (layer F.Cu) (tedit 5AF05A31)
  (descr "TO-220F-9, Vertical, RM 0.9mm, staggered type-1")
  (tags "TO-220F-9 Vertical RM 0.9mm staggered type-1")
  (fp_text reference REF** (at 3.6 -9.32) (layer F.SilkS)
    (effects (font (size 1 1) (thickness 0.15)))
  )
  (fp_text value TO-220F-9_P1.8x3.7mm_StaggerOdd_Lead3.5mm_Vertical (at 3.6 2) (layer F.Fab)
    (effects (font (size 1 1) (thickness 0.15)))
  )
  (fp_line (start -1.53 -8.2) (end -1.53 -3.5) (layer F.Fab) (width 0.1))
  (fp_line (start -1.53 -3.5) (end 8.73 -3.5) (layer F.Fab) (width 0.1))
  (fp_line (start 8.73 -3.5) (end 8.73 -8.2) (layer F.Fab) (width 0.1))
  (fp_line (start 8.73 -8.2) (end -1.53 -8.2) (layer F.Fab) (width 0.1))
  (fp_line (start -1.53 -5.68) (end 8.73 -5.68) (layer F.Fab) (width 0.1))
  (fp_line (start 1.75 -8.2) (end 1.75 -5.68) (layer F.Fab) (width 0.1))
  (fp_line (start 5.45 -8.2) (end 5.45 -5.68) (layer F.Fab) (width 0.1))
  (fp_line (start 0 -3.5) (end 0 0) (layer F.Fab) (width 0.1))
  (fp_line (start 1.8 -3.5) (end 1.8 0) (layer F.Fab) (width 0.1))
  (fp_line (start 3.6 -3.5) (end 3.6 0) (layer F.Fab) (width 0.1))
  (fp_line (start 5.4 -3.5) (end 5.4 0) (layer F.Fab) (width 0.1))
  (fp_line (start 7.2 -3.5) (end 7.2 0) (layer F.Fab) (width 0.1))
  (fp_line (start -1.65 -8.32) (end 8.85 -8.32) (layer F.SilkS) (width 0.12))
  (fp_line (start -1.65 -3.379) (end 0.014 -3.379) (layer F.SilkS) (width 0.12))
  (fp_line (start 1.787 -3.379) (end 1.814 -3.379) (layer F.SilkS) (width 0.12))
  (fp_line (start 3.587 -3.379) (end 3.614 -3.379) (layer F.SilkS) (width 0.12))
  (fp_line (start 5.387 -3.379) (end 5.414 -3.379) (layer F.SilkS) (width 0.12))
  (fp_line (start 7.187 -3.379) (end 8.85 -3.379) (layer F.SilkS) (width 0.12))
  (fp_line (start -1.65 -8.32) (end -1.65 -3.379) (layer F.SilkS) (width 0.12))
  (fp_line (start 8.85 -8.32) (end 8.85 -3.379) (layer F.SilkS) (width 0.12))
  (fp_line (start -1.65 -5.561) (end 8.85 -5.561) (layer F.SilkS) (width 0.12))
  (fp_line (start 1.75 -8.32) (end 1.75 -5.561) (layer F.SilkS) (width 0.12))
  (fp_line (start 5.45 -8.32) (end 5.45 -5.561) (layer F.SilkS) (width 0.12))
  (fp_line (start 0 -3.379) (end 0 -0.9) (layer F.SilkS) (width 0.12))
  (fp_line (start 1.8 -3.379) (end 1.8 -0.915) (layer F.SilkS) (width 0.12))
  (fp_line (start 3.6 -3.379) (end 3.6 -0.915) (layer F.SilkS) (width 0.12))
  (fp_line (start 5.4 -3.379) (end 5.4 -0.915) (layer F.SilkS) (width 0.12))
  (fp_line (start 7.201 -3.379) (end 7.201 -0.915) (layer F.SilkS) (width 0.12))
  (fp_line (start -1.78 -8.45) (end -1.78 1) (layer F.CrtYd) (width 0.05))
  (fp_line (start -1.78 1) (end 8.98 1) (layer F.CrtYd) (width 0.05))
  (fp_line (start 8.98 1) (end 8.98 -8.45) (layer F.CrtYd) (width 0.05))
  (fp_line (start 8.98 -8.45) (end -1.78 -8.45) (layer F.CrtYd) (width 0.05))
  (pad 1 thru_hole rect (at 0 0) (size 1.5 1.5) (drill 0.7) (layers *.Cu *.Mask))
  (pad 2 thru_hole oval (at 0.9 -3.7) (size 1.5 1.5) (drill 0.7) (layers *.Cu *.Mask))
  (pad 3 thru_hole oval (at 1.8 0) (size 1.5 1.5) (drill 0.7) (layers *.Cu *.Mask))
  (pad 4 thru_hole oval (at 2.7 -3.7) (size 1.5 1.5) (drill 0.7) (layers *.Cu *.Mask))
  (pad 5 thru_hole oval (at 3.6 0) (size 1.5 1.5) (drill 0.7) (layers *.Cu *.Mask))
  (pad 6 thru_hole oval (at 4.5 -3.7) (size 1.5 1.5) (drill 0.7) (layers *.Cu *.Mask))
  (pad 7 thru_hole oval (at 5.4 0) (size 1.5 1.5) (drill 0.7) (layers *.Cu *.Mask))
  (pad 8 thru_hole oval (at 6.3 -3.7) (size 1.5 1.5) (drill 0.7) (layers *.Cu *.Mask))
  (pad 9 thru_hole oval (at 7.2 0) (size 1.5 1.5) (drill 0.7) (layers *.Cu *.Mask))
  (fp_text user %R (at 3.6 -9.32) (layer F.Fab)
    (effects (font (size 1 1) (thickness 0.15)))
  )
  (model ${KIPRJMOD}/kicad_libs_k/models_k.3d/Package_TO_SOT_THT_k.3dshapes/TO-220F-9_P1.8x3.7mm_StaggerOdd_Lead3.5mm_Vertical_k.wrl
    (at (xyz 0 0 0))
    (scale (xyz 1 1 1))
    (rotate (xyz 0 0 0))
  )
)