(module TO-39-6_Window (layer F.Cu) (tedit 5A02FF81)
  (descr "TO-39-6_Window, Window")
  (tags "TO-39-6_Window Window")
  (fp_text reference REF** (at 2.54 -5.82) (layer F.SilkS)
    (effects (font (size 1 1) (thickness 0.15)))
  )
  (fp_text value TO-39-6_Window (at 2.54 5.82) (layer F.Fab)
    (effects (font (size 1 1) (thickness 0.15)))
  )
  (fp_text user %R (at 2.54 -5.82) (layer F.Fab)
    (effects (font (size 1 1) (thickness 0.15)))
  )
  (fp_line (start -0.465408 -3.61352) (end -1.27151 -4.419621) (layer F.Fab) (width 0.1))
  (fp_line (start -1.27151 -4.419621) (end -1.879621 -3.81151) (layer F.Fab) (width 0.1))
  (fp_line (start -1.879621 -3.81151) (end -1.07352 -3.005408) (layer F.Fab) (width 0.1))
  (fp_line (start 3.864 -2.637) (end 5.177 -1.324) (layer F.Fab) (width 0.1))
  (fp_line (start 3.025 -2.911) (end 5.451 -0.485) (layer F.Fab) (width 0.1))
  (fp_line (start 2.42 -2.948) (end 5.488 0.12) (layer F.Fab) (width 0.1))
  (fp_line (start 1.918 -2.884) (end 5.424 0.622) (layer F.Fab) (width 0.1))
  (fp_line (start 1.482 -2.755) (end 5.295 1.058) (layer F.Fab) (width 0.1))
  (fp_line (start 1.097 -2.574) (end 5.114 1.443) (layer F.Fab) (width 0.1))
  (fp_line (start 0.756 -2.35) (end 4.89 1.784) (layer F.Fab) (width 0.1))
  (fp_line (start 0.454 -2.086) (end 4.626 2.086) (layer F.Fab) (width 0.1))
  (fp_line (start 0.19 -1.784) (end 4.324 2.35) (layer F.Fab) (width 0.1))
  (fp_line (start -0.034 -1.443) (end 3.983 2.574) (layer F.Fab) (width 0.1))
  (fp_line (start -0.215 -1.058) (end 3.598 2.755) (layer F.Fab) (width 0.1))
  (fp_line (start -0.344 -0.622) (end 3.162 2.884) (layer F.Fab) (width 0.1))
  (fp_line (start -0.408 -0.12) (end 2.66 2.948) (layer F.Fab) (width 0.1))
  (fp_line (start -0.371 0.485) (end 2.055 2.911) (layer F.Fab) (width 0.1))
  (fp_line (start -0.097 1.324) (end 1.216 2.637) (layer F.Fab) (width 0.1))
  (fp_line (start -0.457084 -3.774902) (end -1.348039 -4.665856) (layer F.SilkS) (width 0.12))
  (fp_line (start -1.348039 -4.665856) (end -2.125856 -3.888039) (layer F.SilkS) (width 0.12))
  (fp_line (start -2.125856 -3.888039) (end -1.234902 -2.997084) (layer F.SilkS) (width 0.12))
  (fp_line (start -2.41 -4.95) (end -2.41 4.95) (layer F.CrtYd) (width 0.05))
  (fp_line (start -2.41 4.95) (end 7.49 4.95) (layer F.CrtYd) (width 0.05))
  (fp_line (start 7.49 4.95) (end 7.49 -4.95) (layer F.CrtYd) (width 0.05))
  (fp_line (start 7.49 -4.95) (end -2.41 -4.95) (layer F.CrtYd) (width 0.05))
  (fp_circle (center 2.54 0) (end 6.79 0) (layer F.Fab) (width 0.1))
  (fp_circle (center 2.54 0) (end 5.49 0) (layer F.Fab) (width 0.1))
  (fp_arc (start 2.54 0) (end -0.465408 -3.61352) (angle 349.5) (layer F.Fab) (width 0.1))
  (fp_arc (start 2.54 0) (end -0.457084 -3.774902) (angle 346.9) (layer F.SilkS) (width 0.12))
  (pad 1 thru_hole oval (at 0 0) (size 1.6 1.2) (drill 0.7) (layers *.Cu *.Mask))
  (pad 2 thru_hole oval (at 0.743949 1.796051) (size 1.2 1.2) (drill 0.7) (layers *.Cu *.Mask))
  (pad 3 thru_hole oval (at 2.54 2.54) (size 1.2 1.2) (drill 0.7) (layers *.Cu *.Mask))
  (pad 4 thru_hole oval (at 5.08 0) (size 1.2 1.2) (drill 0.7) (layers *.Cu *.Mask))
  (pad 5 thru_hole oval (at 4.336051 -1.796051) (size 1.2 1.2) (drill 0.7) (layers *.Cu *.Mask))
  (pad 6 thru_hole oval (at 2.54 -2.54) (size 1.2 1.2) (drill 0.7) (layers *.Cu *.Mask))
  (model ${KIPRJMOD}/kicad_libs_k/models_k.3d/Package_TO_SOT_THT_k.3dshapes/TO-39-6_Window_k.wrl
    (at (xyz 0 0 0))
    (scale (xyz 1 1 1))
    (rotate (xyz 0 0 0))
  )
)
