(module TO-46-3_Pin2Center_Window (layer F.Cu) (tedit 5A02FF81)
  (descr "TO-46-3, Pin2 at center of package, Thorlabs photodiodes, https://www.thorlabs.de/drawings/374b6862eb3b5a04-9360B5F6-5056-2306-D912111C06C3F830/FDGA05-SpecSheet.pdf")
  (tags "TO-46-3 Thorlabs")
  (fp_text reference REF** (at 1.27 -4.02) (layer F.SilkS)
    (effects (font (size 1 1) (thickness 0.15)))
  )
  (fp_text value TO-46-3_Pin2Center_Window (at 1.27 4.02) (layer F.Fab)
    (effects (font (size 1 1) (thickness 0.15)))
  )
  (fp_text user %R (at 1.27 -4.02) (layer F.Fab)
    (effects (font (size 1 1) (thickness 0.15)))
  )
  (fp_line (start -2.58 -0.6) (end -2.58 0.75) (layer F.SilkS) (width 0.12))
  (fp_line (start -2.58 0.75) (end -1.68 0.75) (layer F.SilkS) (width 0.12))
  (fp_line (start -1.68 -0.6) (end -2.58 -0.6) (layer F.SilkS) (width 0.12))
  (fp_line (start -1.58 -0.5) (end -2.48 -0.5) (layer F.Fab) (width 0.1))
  (fp_line (start -2.48 -0.5) (end -2.48 0.65) (layer F.Fab) (width 0.1))
  (fp_line (start -2.48 0.65) (end -1.58 0.65) (layer F.Fab) (width 0.1))
  (fp_line (start -2.73 -3.15) (end 4.42 -3.15) (layer F.CrtYd) (width 0.05))
  (fp_line (start -2.73 -3.15) (end -2.73 3.14) (layer F.CrtYd) (width 0.05))
  (fp_line (start 4.42 3.14) (end 4.42 -3.15) (layer F.CrtYd) (width 0.05))
  (fp_line (start 4.42 3.14) (end -2.73 3.14) (layer F.CrtYd) (width 0.05))
  (fp_line (start 1.553 -1.98) (end 3.25 -0.283) (layer F.Fab) (width 0.1))
  (fp_line (start 0.987 -1.98) (end 3.25 0.283) (layer F.Fab) (width 0.1))
  (fp_line (start 0.539 -1.862) (end 3.132 0.731) (layer F.Fab) (width 0.1))
  (fp_line (start 0.167 -1.669) (end 2.939 1.103) (layer F.Fab) (width 0.1))
  (fp_line (start -0.145 -1.415) (end 2.685 1.415) (layer F.Fab) (width 0.1))
  (fp_line (start -0.399 -1.103) (end 2.373 1.669) (layer F.Fab) (width 0.1))
  (fp_line (start -0.592 -0.731) (end 2.001 1.862) (layer F.Fab) (width 0.1))
  (fp_line (start -0.71 -0.283) (end 1.553 1.98) (layer F.Fab) (width 0.1))
  (fp_line (start -0.71 0.283) (end 0.987 1.98) (layer F.Fab) (width 0.1))
  (fp_circle (center 1.27 0) (end 3.67 0) (layer F.Fab) (width 0.1))
  (fp_circle (center 1.27 0) (end 3.27 0) (layer F.Fab) (width 0.1))
  (fp_arc (start 1.27 0) (end -1.68 -0.6) (angle 334) (layer F.SilkS) (width 0.12))
  (fp_arc (start 1.27 0) (end -1.58 -0.5) (angle 336.9) (layer F.Fab) (width 0.1))
  (pad 1 thru_hole oval (at 0 0 90) (size 1.5 1) (drill 0.7) (layers *.Cu *.Mask))
  (pad 2 thru_hole oval (at 1.27 0) (size 1 1) (drill 0.6) (layers *.Cu *.Mask))
  (pad 3 thru_hole oval (at 2.29 -1.02 90) (size 1 1) (drill 0.7) (layers *.Cu *.Mask))
  (model ${KIPRJMOD}/kicad_libs_k/models_k.3d/Package_TO_SOT_THT_k.3dshapes/TO-46-3_Pin2Center_Window_k.wrl
    (at (xyz 0 0 0))
    (scale (xyz 1 1 1))
    (rotate (xyz 0 0 0))
  )
)
