(module TO-8-2_Window (layer F.Cu) (tedit 5A02FF81)
  (descr "TO-8-2_Window, Window")
  (tags "TO-8-2_Window Window")
  (fp_text reference REF** (at 3.55 -8.32) (layer F.SilkS)
    (effects (font (size 1 1) (thickness 0.15)))
  )
  (fp_text value TO-8-2_Window (at 3.55 8.32) (layer F.Fab)
    (effects (font (size 1 1) (thickness 0.15)))
  )
  (fp_text user %R (at 3.55 -8.32) (layer F.Fab)
    (effects (font (size 1 1) (thickness 0.15)))
  )
  (fp_line (start 6.048 -4.857) (end 8.407 -2.498) (layer F.Fab) (width 0.1))
  (fp_line (start 5.103 -5.236) (end 8.786 -1.553) (layer F.Fab) (width 0.1))
  (fp_line (start 4.375 -5.399) (end 8.949 -0.825) (layer F.Fab) (width 0.1))
  (fp_line (start 3.75 -5.458) (end 9.008 -0.2) (layer F.Fab) (width 0.1))
  (fp_line (start 3.191 -5.45) (end 9 0.359) (layer F.Fab) (width 0.1))
  (fp_line (start 2.683 -5.392) (end 8.942 0.867) (layer F.Fab) (width 0.1))
  (fp_line (start 2.214 -5.296) (end 8.846 1.336) (layer F.Fab) (width 0.1))
  (fp_line (start 1.778 -5.166) (end 8.716 1.772) (layer F.Fab) (width 0.1))
  (fp_line (start 1.37 -5.008) (end 8.558 2.18) (layer F.Fab) (width 0.1))
  (fp_line (start 0.989 -4.824) (end 8.374 2.561) (layer F.Fab) (width 0.1))
  (fp_line (start 0.631 -4.616) (end 8.166 2.919) (layer F.Fab) (width 0.1))
  (fp_line (start 0.295 -4.386) (end 7.936 3.255) (layer F.Fab) (width 0.1))
  (fp_line (start -0.019 -4.134) (end 7.684 3.569) (layer F.Fab) (width 0.1))
  (fp_line (start -0.312 -3.862) (end 7.412 3.862) (layer F.Fab) (width 0.1))
  (fp_line (start -0.584 -3.569) (end 7.119 4.134) (layer F.Fab) (width 0.1))
  (fp_line (start -0.836 -3.255) (end 6.805 4.386) (layer F.Fab) (width 0.1))
  (fp_line (start -1.066 -2.919) (end 6.469 4.616) (layer F.Fab) (width 0.1))
  (fp_line (start -1.274 -2.561) (end 6.111 4.824) (layer F.Fab) (width 0.1))
  (fp_line (start -1.458 -2.18) (end 5.73 5.008) (layer F.Fab) (width 0.1))
  (fp_line (start -1.616 -1.772) (end 5.322 5.166) (layer F.Fab) (width 0.1))
  (fp_line (start -1.746 -1.336) (end 4.886 5.296) (layer F.Fab) (width 0.1))
  (fp_line (start -1.842 -0.867) (end 4.417 5.392) (layer F.Fab) (width 0.1))
  (fp_line (start -1.9 -0.359) (end 3.909 5.45) (layer F.Fab) (width 0.1))
  (fp_line (start -1.908 0.2) (end 3.35 5.458) (layer F.Fab) (width 0.1))
  (fp_line (start -1.849 0.825) (end 2.725 5.399) (layer F.Fab) (width 0.1))
  (fp_line (start -1.686 1.553) (end 1.997 5.236) (layer F.Fab) (width 0.1))
  (fp_line (start -1.307 2.498) (end 1.052 4.857) (layer F.Fab) (width 0.1))
  (fp_circle (center 3.55 0) (end 10.15 0) (layer F.Fab) (width 0.1))
  (fp_circle (center 3.55 0) (end 10.75 0) (layer F.Fab) (width 0.1))
  (fp_circle (center 3.55 0) (end 9.011 0) (layer F.Fab) (width 0.1))
  (fp_circle (center 3.55 0) (end 10.87 0) (layer F.SilkS) (width 0.12))
  (fp_circle (center 3.55 -0.01) (end 11 -0.01) (layer F.CrtYd) (width 0.05))
  (pad 1 thru_hole oval (at 0 0) (size 2.1 1.6) (drill 1.1) (layers *.Cu *.Mask))
  (pad 2 thru_hole oval (at 7.1 0) (size 1.6 1.6) (drill 1.1) (layers *.Cu *.Mask))
  (model ${KIPRJMOD}/kicad_libs_k/models_k.3d/Package_TO_SOT_THT_k.3dshapes/TO-8-2_Window_k.wrl
    (at (xyz 0 0 0))
    (scale (xyz 1 1 1))
    (rotate (xyz 0 0 0))
  )
)
