(module TO-92L_Wide (layer F.Cu) (tedit 5A152D5B)
  (descr "TO-92L leads in-line (large body variant of TO-92), also known as TO-226, wide, drill 0.75mm (see https://www.diodes.com/assets/Package-Files/TO92L.pdf and http://www.ti.com/lit/an/snoa059/snoa059.pdf)")
  (tags "TO-92L Molded Wide transistor")
  (fp_text reference REF** (at 2.55 -4.15) (layer F.SilkS)
    (effects (font (size 1 1) (thickness 0.15)))
  )
  (fp_text value TO-92L_Wide (at 2.54 2.79) (layer F.Fab)
    (effects (font (size 1 1) (thickness 0.15)))
  )
  (fp_line (start -1 -3.55) (end -1 1.85) (layer B.CrtYd) (width 0.05))
  (fp_line (start 6.1 -3.55) (end -1 -3.55) (layer B.CrtYd) (width 0.05))
  (fp_line (start 6.1 1.85) (end 6.1 -3.55) (layer B.CrtYd) (width 0.05))
  (fp_line (start -1 1.85) (end 6.1 1.85) (layer B.CrtYd) (width 0.05))
  (fp_text user %R (at 2.55 0.05) (layer F.Fab)
    (effects (font (size 1 1) (thickness 0.15)))
  )
  (fp_line (start 0.6 1.7) (end 4.45 1.7) (layer F.SilkS) (width 0.12))
  (fp_line (start 0.65 1.6) (end 4.4 1.6) (layer F.Fab) (width 0.1))
  (fp_arc (start 2.54 0) (end 0.6 1.7) (angle 15.44288892) (layer F.SilkS) (width 0.12))
  (fp_arc (start 2.54 0) (end 1.45 -2.35) (angle -40.11670855) (layer F.SilkS) (width 0.12))
  (fp_arc (start 2.54 0) (end 3.6 -2.35) (angle 40.72153779) (layer F.SilkS) (width 0.12))
  (fp_arc (start 2.54 0) (end 2.54 -2.48) (angle 129.9527847) (layer F.Fab) (width 0.1))
  (fp_arc (start 2.54 0) (end 2.54 -2.48) (angle -130.2499344) (layer F.Fab) (width 0.1))
  (fp_arc (start 2.54 0) (end 4.45 1.7) (angle -15.88591585) (layer F.SilkS) (width 0.12))
  (pad 2 thru_hole circle (at 2.54 -2.54 90) (size 1.5 1.5) (drill 0.8) (layers *.Cu *.Mask))
  (pad 3 thru_hole circle (at 5.08 0 90) (size 1.5 1.5) (drill 0.8) (layers *.Cu *.Mask))
  (pad 1 thru_hole rect (at 0 0 90) (size 1.5 1.5) (drill 0.8) (layers *.Cu *.Mask))
  (model ${KIPRJMOD}/kicad_libs_k/models_k.3d/Package_TO_SOT_THT_k.3dshapes/TO-92L_Wide_k.wrl
    (at (xyz 0 0 0))
    (scale (xyz 1 1 1))
    (rotate (xyz 0 0 0))
  )
)
