(module TO-92L (layer F.Cu) (tedit 5A27966C)
  (descr "TO-92L leads in-line (large body variant of TO-92), also known as TO-226, wide, drill 0.75mm (see https://www.diodes.com/assets/Package-Files/TO92L.pdf and http://www.ti.com/lit/an/snoa059/snoa059.pdf)")
  (tags "TO-92L Molded Narrow transistor")
  (fp_text reference REF** (at 1.29 -3.56) (layer F.SilkS)
    (effects (font (size 1 1) (thickness 0.15)))
  )
  (fp_text value TO-92L (at 1.29 2.79) (layer F.Fab)
    (effects (font (size 1 1) (thickness 0.15)))
  )
  (fp_text user %R (at 1.29 -3.56) (layer F.Fab)
    (effects (font (size 1 1) (thickness 0.15)))
  )
  (fp_line (start -0.65 1.7) (end 3.2 1.7) (layer F.SilkS) (width 0.12))
  (fp_line (start -0.6 1.6) (end 3.15 1.6) (layer F.Fab) (width 0.1))
  (fp_line (start -1.45 -2.75) (end 4.05 -2.75) (layer F.CrtYd) (width 0.05))
  (fp_line (start -1.45 -2.75) (end -1.45 1.85) (layer F.CrtYd) (width 0.05))
  (fp_line (start 4.05 1.85) (end 4.05 -2.75) (layer F.CrtYd) (width 0.05))
  (fp_line (start 4.05 1.85) (end -1.45 1.85) (layer F.CrtYd) (width 0.05))
  (fp_arc (start 1.29 0) (end -0.65 1.7) (angle 262.164354) (layer F.SilkS) (width 0.12))
  (fp_arc (start 1.29 0) (end 1.29 -2.48) (angle 129.9527847) (layer F.Fab) (width 0.1))
  (fp_arc (start 1.29 0) (end 1.29 -2.48) (angle -130.2499344) (layer F.Fab) (width 0.1))
  (pad 2 thru_hole circle (at 1.28 -1.27 90) (size 1.3 1.3) (drill 0.75) (layers *.Cu *.Mask))
  (pad 3 thru_hole circle (at 2.54 0 90) (size 1.3 1.3) (drill 0.75) (layers *.Cu *.Mask))
  (pad 1 thru_hole rect (at 0 0 90) (size 1.3 1.3) (drill 0.75) (layers *.Cu *.Mask))
  (model ${KIPRJMOD}/kicad_libs_k/models_k.3d/Package_TO_SOT_THT_k.3dshapes/TO-92L_k.wrl
    (at (xyz 0 0 0))
    (scale (xyz 1 1 1))
    (rotate (xyz 0 0 0))
  )
)
