ISO-10303-21;
HEADER;
/* Generated by software containing ST-Developer
 * from STEP Tools, Inc. (www.steptools.com) 
 */
/* OPTION: using custom renumber hook */

FILE_DESCRIPTION(
/* description */ ('STEP AP214'),
/* implementation_level */ '2;1');

FILE_NAME(
/* name */ '60084f9f83987519330218f3',
/* time_stamp */ '2021-01-20T15:43:28+00:00',
/* author */ (''),
/* organization */ (''),
/* preprocessor_version */ 'ST-DEVELOPER v18.1',
/* originating_system */ '  ',
/* authorisation */ '  ');

FILE_SCHEMA (('AUTOMOTIVE_DESIGN {1 0 10303 214 3 1 1}'));
ENDSEC;

DATA;
#10=PROPERTY_DEFINITION_REPRESENTATION(#14,#12);
#11=PROPERTY_DEFINITION_REPRESENTATION(#15,#13);
#12=REPRESENTATION('',(#16),#783);
#13=REPRESENTATION('',(#17),#783);
#14=PROPERTY_DEFINITION('pmi validation property','',#788);
#15=PROPERTY_DEFINITION('pmi validation property','',#788);
#16=VALUE_REPRESENTATION_ITEM('number of annotations',COUNT_MEASURE(0.));
#17=VALUE_REPRESENTATION_ITEM('number of views',COUNT_MEASURE(0.));
#18=SHAPE_REPRESENTATION_RELATIONSHIP('','',#517,#19);
#19=ADVANCED_BREP_SHAPE_REPRESENTATION('',(#515),#783);
#20=CYLINDRICAL_SURFACE('',#536,0.00057);
#21=CYLINDRICAL_SURFACE('',#537,0.00057);
#22=CYLINDRICAL_SURFACE('',#543,0.00057);
#23=CYLINDRICAL_SURFACE('',#544,0.00057);
#24=CYLINDRICAL_SURFACE('',#549,0.00057);
#25=CYLINDRICAL_SURFACE('',#550,0.00057);
#26=CYLINDRICAL_SURFACE('',#556,0.00057);
#27=CYLINDRICAL_SURFACE('',#557,0.00057);
#28=OVER_RIDING_STYLED_ITEM('',(#412),#389,#410);
#29=OVER_RIDING_STYLED_ITEM('',(#413),#390,#410);
#30=OVER_RIDING_STYLED_ITEM('',(#414),#391,#410);
#31=OVER_RIDING_STYLED_ITEM('',(#415),#392,#410);
#32=OVER_RIDING_STYLED_ITEM('',(#416),#394,#410);
#33=OVER_RIDING_STYLED_ITEM('',(#417),#395,#410);
#34=OVER_RIDING_STYLED_ITEM('',(#418),#396,#410);
#35=OVER_RIDING_STYLED_ITEM('',(#419),#397,#410);
#36=OVER_RIDING_STYLED_ITEM('',(#420),#398,#410);
#37=OVER_RIDING_STYLED_ITEM('',(#421),#399,#410);
#38=OVER_RIDING_STYLED_ITEM('',(#422),#400,#410);
#39=OVER_RIDING_STYLED_ITEM('',(#423),#401,#410);
#40=OVER_RIDING_STYLED_ITEM('',(#424),#403,#410);
#41=OVER_RIDING_STYLED_ITEM('',(#425),#404,#410);
#42=OVER_RIDING_STYLED_ITEM('',(#426),#405,#410);
#43=OVER_RIDING_STYLED_ITEM('',(#427),#406,#410);
#44=CIRCLE('',#522,0.00057);
#45=CIRCLE('',#523,0.00057);
#46=CIRCLE('',#524,0.00057);
#47=CIRCLE('',#525,0.00057);
#48=CIRCLE('',#528,0.00057);
#49=CIRCLE('',#529,0.00057);
#50=CIRCLE('',#530,0.00057);
#51=CIRCLE('',#531,0.00057);
#52=CIRCLE('',#535,0.00057);
#53=CIRCLE('',#538,0.00057);
#54=CIRCLE('',#542,0.00057);
#55=CIRCLE('',#545,0.00057);
#56=CIRCLE('',#548,0.00057);
#57=CIRCLE('',#551,0.00057);
#58=CIRCLE('',#555,0.00057);
#59=CIRCLE('',#558,0.00057);
#60=ORIENTED_EDGE('',*,*,#146,.F.);
#61=ORIENTED_EDGE('',*,*,#147,.T.);
#62=ORIENTED_EDGE('',*,*,#148,.T.);
#63=ORIENTED_EDGE('',*,*,#149,.T.);
#64=ORIENTED_EDGE('',*,*,#150,.F.);
#65=ORIENTED_EDGE('',*,*,#151,.T.);
#66=ORIENTED_EDGE('',*,*,#152,.T.);
#67=ORIENTED_EDGE('',*,*,#153,.F.);
#68=ORIENTED_EDGE('',*,*,#154,.T.);
#69=ORIENTED_EDGE('',*,*,#155,.F.);
#70=ORIENTED_EDGE('',*,*,#156,.F.);
#71=ORIENTED_EDGE('',*,*,#157,.T.);
#72=ORIENTED_EDGE('',*,*,#158,.F.);
#73=ORIENTED_EDGE('',*,*,#159,.F.);
#74=ORIENTED_EDGE('',*,*,#150,.T.);
#75=ORIENTED_EDGE('',*,*,#160,.T.);
#76=ORIENTED_EDGE('',*,*,#161,.T.);
#77=ORIENTED_EDGE('',*,*,#162,.T.);
#78=ORIENTED_EDGE('',*,*,#163,.T.);
#79=ORIENTED_EDGE('',*,*,#164,.T.);
#80=ORIENTED_EDGE('',*,*,#165,.F.);
#81=ORIENTED_EDGE('',*,*,#166,.F.);
#82=ORIENTED_EDGE('',*,*,#167,.T.);
#83=ORIENTED_EDGE('',*,*,#156,.T.);
#84=ORIENTED_EDGE('',*,*,#168,.F.);
#85=ORIENTED_EDGE('',*,*,#169,.T.);
#86=ORIENTED_EDGE('',*,*,#170,.F.);
#87=ORIENTED_EDGE('',*,*,#171,.F.);
#88=ORIENTED_EDGE('',*,*,#166,.T.);
#89=ORIENTED_EDGE('',*,*,#172,.F.);
#90=ORIENTED_EDGE('',*,*,#173,.F.);
#91=ORIENTED_EDGE('',*,*,#174,.F.);
#92=ORIENTED_EDGE('',*,*,#175,.F.);
#93=ORIENTED_EDGE('',*,*,#158,.T.);
#94=ORIENTED_EDGE('',*,*,#176,.F.);
#95=ORIENTED_EDGE('',*,*,#170,.T.);
#96=ORIENTED_EDGE('',*,*,#177,.T.);
#97=ORIENTED_EDGE('',*,*,#161,.F.);
#98=ORIENTED_EDGE('',*,*,#178,.T.);
#99=ORIENTED_EDGE('',*,*,#147,.F.);
#100=ORIENTED_EDGE('',*,*,#155,.T.);
#101=ORIENTED_EDGE('',*,*,#177,.F.);
#102=ORIENTED_EDGE('',*,*,#169,.F.);
#103=ORIENTED_EDGE('',*,*,#165,.T.);
#104=ORIENTED_EDGE('',*,*,#179,.T.);
#105=ORIENTED_EDGE('',*,*,#179,.F.);
#106=ORIENTED_EDGE('',*,*,#168,.T.);
#107=ORIENTED_EDGE('',*,*,#154,.F.);
#108=ORIENTED_EDGE('',*,*,#180,.T.);
#109=ORIENTED_EDGE('',*,*,#180,.F.);
#110=ORIENTED_EDGE('',*,*,#181,.F.);
#111=ORIENTED_EDGE('',*,*,#149,.F.);
#112=ORIENTED_EDGE('',*,*,#182,.F.);
#113=ORIENTED_EDGE('',*,*,#152,.F.);
#114=ORIENTED_EDGE('',*,*,#183,.T.);
#115=ORIENTED_EDGE('',*,*,#183,.F.);
#116=ORIENTED_EDGE('',*,*,#172,.T.);
#117=ORIENTED_EDGE('',*,*,#162,.F.);
#118=ORIENTED_EDGE('',*,*,#184,.T.);
#119=ORIENTED_EDGE('',*,*,#184,.F.);
#120=ORIENTED_EDGE('',*,*,#185,.T.);
#121=ORIENTED_EDGE('',*,*,#185,.F.);
#122=ORIENTED_EDGE('',*,*,#173,.T.);
#123=ORIENTED_EDGE('',*,*,#163,.F.);
#124=ORIENTED_EDGE('',*,*,#186,.T.);
#125=ORIENTED_EDGE('',*,*,#186,.F.);
#126=ORIENTED_EDGE('',*,*,#176,.T.);
#127=ORIENTED_EDGE('',*,*,#157,.F.);
#128=ORIENTED_EDGE('',*,*,#167,.F.);
#129=ORIENTED_EDGE('',*,*,#171,.T.);
#130=ORIENTED_EDGE('',*,*,#187,.T.);
#131=ORIENTED_EDGE('',*,*,#187,.F.);
#132=ORIENTED_EDGE('',*,*,#174,.T.);
#133=ORIENTED_EDGE('',*,*,#164,.F.);
#134=ORIENTED_EDGE('',*,*,#188,.T.);
#135=ORIENTED_EDGE('',*,*,#188,.F.);
#136=ORIENTED_EDGE('',*,*,#182,.T.);
#137=ORIENTED_EDGE('',*,*,#148,.F.);
#138=ORIENTED_EDGE('',*,*,#178,.F.);
#139=ORIENTED_EDGE('',*,*,#160,.F.);
#140=ORIENTED_EDGE('',*,*,#153,.T.);
#141=ORIENTED_EDGE('',*,*,#151,.F.);
#142=ORIENTED_EDGE('',*,*,#159,.T.);
#143=ORIENTED_EDGE('',*,*,#175,.T.);
#144=ORIENTED_EDGE('',*,*,#146,.T.);
#145=ORIENTED_EDGE('',*,*,#181,.T.);
#146=EDGE_CURVE('',#189,#190,#223,.T.);
#147=EDGE_CURVE('',#189,#191,#224,.T.);
#148=EDGE_CURVE('',#191,#192,#225,.T.);
#149=EDGE_CURVE('',#192,#190,#226,.T.);
#150=EDGE_CURVE('',#193,#194,#227,.T.);
#151=EDGE_CURVE('',#193,#195,#228,.T.);
#152=EDGE_CURVE('',#195,#196,#229,.T.);
#153=EDGE_CURVE('',#194,#196,#230,.T.);
#154=EDGE_CURVE('',#197,#197,#44,.F.);
#155=EDGE_CURVE('',#198,#199,#231,.T.);
#156=EDGE_CURVE('',#200,#198,#232,.T.);
#157=EDGE_CURVE('',#200,#201,#233,.T.);
#158=EDGE_CURVE('',#202,#201,#234,.T.);
#159=EDGE_CURVE('',#193,#202,#235,.T.);
#160=EDGE_CURVE('',#194,#203,#236,.T.);
#161=EDGE_CURVE('',#203,#199,#237,.T.);
#162=EDGE_CURVE('',#204,#204,#45,.F.);
#163=EDGE_CURVE('',#205,#205,#46,.F.);
#164=EDGE_CURVE('',#206,#206,#47,.F.);
#165=EDGE_CURVE('',#207,#198,#238,.T.);
#166=EDGE_CURVE('',#208,#207,#239,.T.);
#167=EDGE_CURVE('',#208,#200,#240,.T.);
#168=EDGE_CURVE('',#209,#209,#48,.F.);
#169=EDGE_CURVE('',#207,#210,#241,.T.);
#170=EDGE_CURVE('',#211,#210,#242,.T.);
#171=EDGE_CURVE('',#208,#211,#243,.T.);
#172=EDGE_CURVE('',#212,#212,#49,.F.);
#173=EDGE_CURVE('',#213,#213,#50,.F.);
#174=EDGE_CURVE('',#214,#214,#51,.F.);
#175=EDGE_CURVE('',#202,#189,#244,.T.);
#176=EDGE_CURVE('',#211,#201,#245,.T.);
#177=EDGE_CURVE('',#210,#199,#246,.T.);
#178=EDGE_CURVE('',#203,#191,#247,.T.);
#179=EDGE_CURVE('',#215,#215,#52,.T.);
#180=EDGE_CURVE('',#216,#216,#53,.T.);
#181=EDGE_CURVE('',#190,#195,#248,.T.);
#182=EDGE_CURVE('',#196,#192,#249,.T.);
#183=EDGE_CURVE('',#217,#217,#54,.T.);
#184=EDGE_CURVE('',#218,#218,#55,.T.);
#185=EDGE_CURVE('',#219,#219,#56,.T.);
#186=EDGE_CURVE('',#220,#220,#57,.T.);
#187=EDGE_CURVE('',#221,#221,#58,.T.);
#188=EDGE_CURVE('',#222,#222,#59,.T.);
#189=VERTEX_POINT('',#680);
#190=VERTEX_POINT('',#681);
#191=VERTEX_POINT('',#683);
#192=VERTEX_POINT('',#685);
#193=VERTEX_POINT('',#689);
#194=VERTEX_POINT('',#690);
#195=VERTEX_POINT('',#692);
#196=VERTEX_POINT('',#694);
#197=VERTEX_POINT('',#698);
#198=VERTEX_POINT('',#700);
#199=VERTEX_POINT('',#701);
#200=VERTEX_POINT('',#703);
#201=VERTEX_POINT('',#705);
#202=VERTEX_POINT('',#707);
#203=VERTEX_POINT('',#710);
#204=VERTEX_POINT('',#713);
#205=VERTEX_POINT('',#715);
#206=VERTEX_POINT('',#717);
#207=VERTEX_POINT('',#720);
#208=VERTEX_POINT('',#722);
#209=VERTEX_POINT('',#726);
#210=VERTEX_POINT('',#728);
#211=VERTEX_POINT('',#730);
#212=VERTEX_POINT('',#733);
#213=VERTEX_POINT('',#735);
#214=VERTEX_POINT('',#737);
#215=VERTEX_POINT('',#746);
#216=VERTEX_POINT('',#750);
#217=VERTEX_POINT('',#757);
#218=VERTEX_POINT('',#761);
#219=VERTEX_POINT('',#765);
#220=VERTEX_POINT('',#769);
#221=VERTEX_POINT('',#774);
#222=VERTEX_POINT('',#778);
#223=LINE('',#679,#250);
#224=LINE('',#682,#251);
#225=LINE('',#684,#252);
#226=LINE('',#686,#253);
#227=LINE('',#688,#254);
#228=LINE('',#691,#255);
#229=LINE('',#693,#256);
#230=LINE('',#695,#257);
#231=LINE('',#699,#258);
#232=LINE('',#702,#259);
#233=LINE('',#704,#260);
#234=LINE('',#706,#261);
#235=LINE('',#708,#262);
#236=LINE('',#709,#263);
#237=LINE('',#711,#264);
#238=LINE('',#719,#265);
#239=LINE('',#721,#266);
#240=LINE('',#723,#267);
#241=LINE('',#727,#268);
#242=LINE('',#729,#269);
#243=LINE('',#731,#270);
#244=LINE('',#739,#271);
#245=LINE('',#740,#272);
#246=LINE('',#741,#273);
#247=LINE('',#742,#274);
#248=LINE('',#753,#275);
#249=LINE('',#754,#276);
#250=VECTOR('',#566,1.);
#251=VECTOR('',#567,1.);
#252=VECTOR('',#568,1.);
#253=VECTOR('',#569,1.);
#254=VECTOR('',#572,1.);
#255=VECTOR('',#573,1.);
#256=VECTOR('',#574,1.);
#257=VECTOR('',#575,1.);
#258=VECTOR('',#580,1.);
#259=VECTOR('',#581,1.);
#260=VECTOR('',#582,1.);
#261=VECTOR('',#583,1.);
#262=VECTOR('',#584,1.);
#263=VECTOR('',#585,1.);
#264=VECTOR('',#586,1.);
#265=VECTOR('',#595,1.);
#266=VECTOR('',#596,1.);
#267=VECTOR('',#597,1.);
#268=VECTOR('',#602,1.);
#269=VECTOR('',#603,1.);
#270=VECTOR('',#604,1.);
#271=VECTOR('',#613,1.);
#272=VECTOR('',#614,1.);
#273=VECTOR('',#615,1.);
#274=VECTOR('',#616,1.);
#275=VECTOR('',#633,1.);
#276=VECTOR('',#634,1.);
#277=EDGE_LOOP('',(#60,#61,#62,#63));
#278=EDGE_LOOP('',(#64,#65,#66,#67));
#279=EDGE_LOOP('',(#68));
#280=EDGE_LOOP('',(#69,#70,#71,#72,#73,#74,#75,#76));
#281=EDGE_LOOP('',(#77));
#282=EDGE_LOOP('',(#78));
#283=EDGE_LOOP('',(#79));
#284=EDGE_LOOP('',(#80,#81,#82,#83));
#285=EDGE_LOOP('',(#84));
#286=EDGE_LOOP('',(#85,#86,#87,#88));
#287=EDGE_LOOP('',(#89));
#288=EDGE_LOOP('',(#90));
#289=EDGE_LOOP('',(#91));
#290=EDGE_LOOP('',(#92,#93,#94,#95,#96,#97,#98,#99));
#291=EDGE_LOOP('',(#100,#101,#102,#103));
#292=EDGE_LOOP('',(#104));
#293=EDGE_LOOP('',(#105));
#294=EDGE_LOOP('',(#106));
#295=EDGE_LOOP('',(#107));
#296=EDGE_LOOP('',(#108));
#297=EDGE_LOOP('',(#109));
#298=EDGE_LOOP('',(#110,#111,#112,#113));
#299=EDGE_LOOP('',(#114));
#300=EDGE_LOOP('',(#115));
#301=EDGE_LOOP('',(#116));
#302=EDGE_LOOP('',(#117));
#303=EDGE_LOOP('',(#118));
#304=EDGE_LOOP('',(#119));
#305=EDGE_LOOP('',(#120));
#306=EDGE_LOOP('',(#121));
#307=EDGE_LOOP('',(#122));
#308=EDGE_LOOP('',(#123));
#309=EDGE_LOOP('',(#124));
#310=EDGE_LOOP('',(#125));
#311=EDGE_LOOP('',(#126,#127,#128,#129));
#312=EDGE_LOOP('',(#130));
#313=EDGE_LOOP('',(#131));
#314=EDGE_LOOP('',(#132));
#315=EDGE_LOOP('',(#133));
#316=EDGE_LOOP('',(#134));
#317=EDGE_LOOP('',(#135));
#318=EDGE_LOOP('',(#136,#137,#138,#139,#140));
#319=EDGE_LOOP('',(#141,#142,#143,#144,#145));
#320=FACE_BOUND('',#277,.T.);
#321=FACE_BOUND('',#278,.T.);
#322=FACE_BOUND('',#279,.T.);
#323=FACE_BOUND('',#280,.T.);
#324=FACE_BOUND('',#281,.T.);
#325=FACE_BOUND('',#282,.T.);
#326=FACE_BOUND('',#283,.T.);
#327=FACE_BOUND('',#284,.T.);
#328=FACE_BOUND('',#285,.T.);
#329=FACE_BOUND('',#286,.T.);
#330=FACE_BOUND('',#287,.T.);
#331=FACE_BOUND('',#288,.T.);
#332=FACE_BOUND('',#289,.T.);
#333=FACE_BOUND('',#290,.T.);
#334=FACE_BOUND('',#291,.T.);
#335=FACE_BOUND('',#292,.T.);
#336=FACE_BOUND('',#293,.T.);
#337=FACE_BOUND('',#294,.T.);
#338=FACE_BOUND('',#295,.T.);
#339=FACE_BOUND('',#296,.T.);
#340=FACE_BOUND('',#297,.T.);
#341=FACE_BOUND('',#298,.T.);
#342=FACE_BOUND('',#299,.T.);
#343=FACE_BOUND('',#300,.T.);
#344=FACE_BOUND('',#301,.T.);
#345=FACE_BOUND('',#302,.T.);
#346=FACE_BOUND('',#303,.T.);
#347=FACE_BOUND('',#304,.T.);
#348=FACE_BOUND('',#305,.T.);
#349=FACE_BOUND('',#306,.T.);
#350=FACE_BOUND('',#307,.T.);
#351=FACE_BOUND('',#308,.T.);
#352=FACE_BOUND('',#309,.T.);
#353=FACE_BOUND('',#310,.T.);
#354=FACE_BOUND('',#311,.T.);
#355=FACE_BOUND('',#312,.T.);
#356=FACE_BOUND('',#313,.T.);
#357=FACE_BOUND('',#314,.T.);
#358=FACE_BOUND('',#315,.T.);
#359=FACE_BOUND('',#316,.T.);
#360=FACE_BOUND('',#317,.T.);
#361=FACE_BOUND('',#318,.T.);
#362=FACE_BOUND('',#319,.T.);
#363=PLANE('',#519);
#364=PLANE('',#520);
#365=PLANE('',#521);
#366=PLANE('',#526);
#367=PLANE('',#527);
#368=PLANE('',#532);
#369=PLANE('',#533);
#370=PLANE('',#534);
#371=PLANE('',#539);
#372=PLANE('',#540);
#373=PLANE('',#541);
#374=PLANE('',#546);
#375=PLANE('',#547);
#376=PLANE('',#552);
#377=PLANE('',#553);
#378=PLANE('',#554);
#379=PLANE('',#559);
#380=PLANE('',#560);
#381=PLANE('',#561);
#382=ADVANCED_FACE('',(#320),#363,.F.);
#383=ADVANCED_FACE('',(#321),#364,.T.);
#384=ADVANCED_FACE('',(#322,#323,#324,#325,#326),#365,.T.);
#385=ADVANCED_FACE('',(#327),#366,.T.);
#386=ADVANCED_FACE('',(#328,#329,#330,#331,#332),#367,.F.);
#387=ADVANCED_FACE('',(#333),#368,.F.);
#388=ADVANCED_FACE('',(#334),#369,.F.);
#389=ADVANCED_FACE('',(#335),#370,.T.);
#390=ADVANCED_FACE('',(#336,#337),#20,.T.);
#391=ADVANCED_FACE('',(#338,#339),#21,.T.);
#392=ADVANCED_FACE('',(#340),#371,.F.);
#393=ADVANCED_FACE('',(#341),#372,.T.);
#394=ADVANCED_FACE('',(#342),#373,.T.);
#395=ADVANCED_FACE('',(#343,#344),#22,.T.);
#396=ADVANCED_FACE('',(#345,#346),#23,.T.);
#397=ADVANCED_FACE('',(#347),#374,.F.);
#398=ADVANCED_FACE('',(#348),#375,.T.);
#399=ADVANCED_FACE('',(#349,#350),#24,.T.);
#400=ADVANCED_FACE('',(#351,#352),#25,.T.);
#401=ADVANCED_FACE('',(#353),#376,.F.);
#402=ADVANCED_FACE('',(#354),#377,.T.);
#403=ADVANCED_FACE('',(#355),#378,.T.);
#404=ADVANCED_FACE('',(#356,#357),#26,.T.);
#405=ADVANCED_FACE('',(#358,#359),#27,.T.);
#406=ADVANCED_FACE('',(#360),#379,.F.);
#407=ADVANCED_FACE('',(#361),#380,.F.);
#408=ADVANCED_FACE('',(#362),#381,.T.);
#409=CLOSED_SHELL('',(#382,#383,#384,#385,#386,#387,#388,#389,#390,#391,
#392,#393,#394,#395,#396,#397,#398,#399,#400,#401,#402,#403,#404,#405,#406,
#407,#408));
#410=STYLED_ITEM('',(#411),#515);
#411=PRESENTATION_STYLE_ASSIGNMENT((#428));
#412=PRESENTATION_STYLE_ASSIGNMENT((#429));
#413=PRESENTATION_STYLE_ASSIGNMENT((#430));
#414=PRESENTATION_STYLE_ASSIGNMENT((#431));
#415=PRESENTATION_STYLE_ASSIGNMENT((#432));
#416=PRESENTATION_STYLE_ASSIGNMENT((#433));
#417=PRESENTATION_STYLE_ASSIGNMENT((#434));
#418=PRESENTATION_STYLE_ASSIGNMENT((#435));
#419=PRESENTATION_STYLE_ASSIGNMENT((#436));
#420=PRESENTATION_STYLE_ASSIGNMENT((#437));
#421=PRESENTATION_STYLE_ASSIGNMENT((#438));
#422=PRESENTATION_STYLE_ASSIGNMENT((#439));
#423=PRESENTATION_STYLE_ASSIGNMENT((#440));
#424=PRESENTATION_STYLE_ASSIGNMENT((#441));
#425=PRESENTATION_STYLE_ASSIGNMENT((#442));
#426=PRESENTATION_STYLE_ASSIGNMENT((#443));
#427=PRESENTATION_STYLE_ASSIGNMENT((#444));
#428=SURFACE_STYLE_USAGE(.BOTH.,#445);
#429=SURFACE_STYLE_USAGE(.BOTH.,#446);
#430=SURFACE_STYLE_USAGE(.BOTH.,#447);
#431=SURFACE_STYLE_USAGE(.BOTH.,#448);
#432=SURFACE_STYLE_USAGE(.BOTH.,#449);
#433=SURFACE_STYLE_USAGE(.BOTH.,#450);
#434=SURFACE_STYLE_USAGE(.BOTH.,#451);
#435=SURFACE_STYLE_USAGE(.BOTH.,#452);
#436=SURFACE_STYLE_USAGE(.BOTH.,#453);
#437=SURFACE_STYLE_USAGE(.BOTH.,#454);
#438=SURFACE_STYLE_USAGE(.BOTH.,#455);
#439=SURFACE_STYLE_USAGE(.BOTH.,#456);
#440=SURFACE_STYLE_USAGE(.BOTH.,#457);
#441=SURFACE_STYLE_USAGE(.BOTH.,#458);
#442=SURFACE_STYLE_USAGE(.BOTH.,#459);
#443=SURFACE_STYLE_USAGE(.BOTH.,#460);
#444=SURFACE_STYLE_USAGE(.BOTH.,#461);
#445=SURFACE_SIDE_STYLE('',(#462));
#446=SURFACE_SIDE_STYLE('',(#463));
#447=SURFACE_SIDE_STYLE('',(#464));
#448=SURFACE_SIDE_STYLE('',(#465));
#449=SURFACE_SIDE_STYLE('',(#466));
#450=SURFACE_SIDE_STYLE('',(#467));
#451=SURFACE_SIDE_STYLE('',(#468));
#452=SURFACE_SIDE_STYLE('',(#469));
#453=SURFACE_SIDE_STYLE('',(#470));
#454=SURFACE_SIDE_STYLE('',(#471));
#455=SURFACE_SIDE_STYLE('',(#472));
#456=SURFACE_SIDE_STYLE('',(#473));
#457=SURFACE_SIDE_STYLE('',(#474));
#458=SURFACE_SIDE_STYLE('',(#475));
#459=SURFACE_SIDE_STYLE('',(#476));
#460=SURFACE_SIDE_STYLE('',(#477));
#461=SURFACE_SIDE_STYLE('',(#478));
#462=SURFACE_STYLE_FILL_AREA(#479);
#463=SURFACE_STYLE_FILL_AREA(#480);
#464=SURFACE_STYLE_FILL_AREA(#481);
#465=SURFACE_STYLE_FILL_AREA(#482);
#466=SURFACE_STYLE_FILL_AREA(#483);
#467=SURFACE_STYLE_FILL_AREA(#484);
#468=SURFACE_STYLE_FILL_AREA(#485);
#469=SURFACE_STYLE_FILL_AREA(#486);
#470=SURFACE_STYLE_FILL_AREA(#487);
#471=SURFACE_STYLE_FILL_AREA(#488);
#472=SURFACE_STYLE_FILL_AREA(#489);
#473=SURFACE_STYLE_FILL_AREA(#490);
#474=SURFACE_STYLE_FILL_AREA(#491);
#475=SURFACE_STYLE_FILL_AREA(#492);
#476=SURFACE_STYLE_FILL_AREA(#493);
#477=SURFACE_STYLE_FILL_AREA(#494);
#478=SURFACE_STYLE_FILL_AREA(#495);
#479=FILL_AREA_STYLE('',(#496));
#480=FILL_AREA_STYLE('',(#497));
#481=FILL_AREA_STYLE('',(#498));
#482=FILL_AREA_STYLE('',(#499));
#483=FILL_AREA_STYLE('',(#500));
#484=FILL_AREA_STYLE('',(#501));
#485=FILL_AREA_STYLE('',(#502));
#486=FILL_AREA_STYLE('',(#503));
#487=FILL_AREA_STYLE('',(#504));
#488=FILL_AREA_STYLE('',(#505));
#489=FILL_AREA_STYLE('',(#506));
#490=FILL_AREA_STYLE('',(#507));
#491=FILL_AREA_STYLE('',(#508));
#492=FILL_AREA_STYLE('',(#509));
#493=FILL_AREA_STYLE('',(#510));
#494=FILL_AREA_STYLE('',(#511));
#495=FILL_AREA_STYLE('',(#512));
#496=FILL_AREA_STYLE_COLOUR('',#513);
#497=FILL_AREA_STYLE_COLOUR('',#514);
#498=FILL_AREA_STYLE_COLOUR('',#514);
#499=FILL_AREA_STYLE_COLOUR('',#514);
#500=FILL_AREA_STYLE_COLOUR('',#514);
#501=FILL_AREA_STYLE_COLOUR('',#514);
#502=FILL_AREA_STYLE_COLOUR('',#514);
#503=FILL_AREA_STYLE_COLOUR('',#514);
#504=FILL_AREA_STYLE_COLOUR('',#514);
#505=FILL_AREA_STYLE_COLOUR('',#514);
#506=FILL_AREA_STYLE_COLOUR('',#514);
#507=FILL_AREA_STYLE_COLOUR('',#514);
#508=FILL_AREA_STYLE_COLOUR('',#514);
#509=FILL_AREA_STYLE_COLOUR('',#514);
#510=FILL_AREA_STYLE_COLOUR('',#514);
#511=FILL_AREA_STYLE_COLOUR('',#514);
#512=FILL_AREA_STYLE_COLOUR('',#514);
#513=COLOUR_RGB('',0.917647058823529,0.917647058823529,0.917647058823529);
#514=COLOUR_RGB('',0.529411764705882,0.568627450980392,0.6);
#515=MANIFOLD_SOLID_BREP('Part 1',#409);
#516=SHAPE_DEFINITION_REPRESENTATION(#788,#517);
#517=SHAPE_REPRESENTATION('Part 1',(#518),#783);
#518=AXIS2_PLACEMENT_3D('',#677,#562,#563);
#519=AXIS2_PLACEMENT_3D('',#678,#564,#565);
#520=AXIS2_PLACEMENT_3D('',#687,#570,#571);
#521=AXIS2_PLACEMENT_3D('',#696,#576,#577);
#522=AXIS2_PLACEMENT_3D('',#697,#578,#579);
#523=AXIS2_PLACEMENT_3D('',#712,#587,#588);
#524=AXIS2_PLACEMENT_3D('',#714,#589,#590);
#525=AXIS2_PLACEMENT_3D('',#716,#591,#592);
#526=AXIS2_PLACEMENT_3D('',#718,#593,#594);
#527=AXIS2_PLACEMENT_3D('',#724,#598,#599);
#528=AXIS2_PLACEMENT_3D('',#725,#600,#601);
#529=AXIS2_PLACEMENT_3D('',#732,#605,#606);
#530=AXIS2_PLACEMENT_3D('',#734,#607,#608);
#531=AXIS2_PLACEMENT_3D('',#736,#609,#610);
#532=AXIS2_PLACEMENT_3D('',#738,#611,#612);
#533=AXIS2_PLACEMENT_3D('',#743,#617,#618);
#534=AXIS2_PLACEMENT_3D('',#744,#619,#620);
#535=AXIS2_PLACEMENT_3D('',#745,#621,#622);
#536=AXIS2_PLACEMENT_3D('',#747,#623,#624);
#537=AXIS2_PLACEMENT_3D('',#748,#625,#626);
#538=AXIS2_PLACEMENT_3D('',#749,#627,#628);
#539=AXIS2_PLACEMENT_3D('',#751,#629,#630);
#540=AXIS2_PLACEMENT_3D('',#752,#631,#632);
#541=AXIS2_PLACEMENT_3D('',#755,#635,#636);
#542=AXIS2_PLACEMENT_3D('',#756,#637,#638);
#543=AXIS2_PLACEMENT_3D('',#758,#639,#640);
#544=AXIS2_PLACEMENT_3D('',#759,#641,#642);
#545=AXIS2_PLACEMENT_3D('',#760,#643,#644);
#546=AXIS2_PLACEMENT_3D('',#762,#645,#646);
#547=AXIS2_PLACEMENT_3D('',#763,#647,#648);
#548=AXIS2_PLACEMENT_3D('',#764,#649,#650);
#549=AXIS2_PLACEMENT_3D('',#766,#651,#652);
#550=AXIS2_PLACEMENT_3D('',#767,#653,#654);
#551=AXIS2_PLACEMENT_3D('',#768,#655,#656);
#552=AXIS2_PLACEMENT_3D('',#770,#657,#658);
#553=AXIS2_PLACEMENT_3D('',#771,#659,#660);
#554=AXIS2_PLACEMENT_3D('',#772,#661,#662);
#555=AXIS2_PLACEMENT_3D('',#773,#663,#664);
#556=AXIS2_PLACEMENT_3D('',#775,#665,#666);
#557=AXIS2_PLACEMENT_3D('',#776,#667,#668);
#558=AXIS2_PLACEMENT_3D('',#777,#669,#670);
#559=AXIS2_PLACEMENT_3D('',#779,#671,#672);
#560=AXIS2_PLACEMENT_3D('',#780,#673,#674);
#561=AXIS2_PLACEMENT_3D('',#781,#675,#676);
#562=DIRECTION('',(0.,0.,1.));
#563=DIRECTION('',(1.,0.,0.));
#564=DIRECTION('',(0.,0.,-1.));
#565=DIRECTION('',(-1.,0.,0.));
#566=DIRECTION('',(0.,-1.,0.));
#567=DIRECTION('',(-1.,0.,0.));
#568=DIRECTION('',(0.,-1.,0.));
#569=DIRECTION('',(1.,0.,0.));
#570=DIRECTION('',(0.,-1.,0.));
#571=DIRECTION('',(0.,0.,-1.));
#572=DIRECTION('',(-1.,0.,0.));
#573=DIRECTION('',(0.,0.,1.));
#574=DIRECTION('',(-1.,0.,0.));
#575=DIRECTION('',(0.,0.,1.));
#576=DIRECTION('',(0.,0.,1.));
#577=DIRECTION('',(1.,0.,0.));
#578=DIRECTION('',(0.,0.,1.));
#579=DIRECTION('',(1.,0.,0.));
#580=DIRECTION('',(0.,1.,0.));
#581=DIRECTION('',(-1.,0.,0.));
#582=DIRECTION('',(0.,1.,0.));
#583=DIRECTION('',(1.,0.,0.));
#584=DIRECTION('',(0.,1.,0.));
#585=DIRECTION('',(0.,1.,0.));
#586=DIRECTION('',(-1.,0.,0.));
#587=DIRECTION('',(0.,0.,1.));
#588=DIRECTION('',(1.,0.,0.));
#589=DIRECTION('',(0.,0.,1.));
#590=DIRECTION('',(1.,0.,0.));
#591=DIRECTION('',(0.,0.,1.));
#592=DIRECTION('',(1.,0.,0.));
#593=DIRECTION('',(0.,-1.,0.));
#594=DIRECTION('',(0.,0.,-1.));
#595=DIRECTION('',(0.,0.,1.));
#596=DIRECTION('',(-1.,0.,0.));
#597=DIRECTION('',(0.,0.,1.));
#598=DIRECTION('',(0.,0.,1.));
#599=DIRECTION('',(1.,0.,0.));
#600=DIRECTION('',(0.,0.,1.));
#601=DIRECTION('',(1.,0.,0.));
#602=DIRECTION('',(0.,1.,0.));
#603=DIRECTION('',(-1.,0.,0.));
#604=DIRECTION('',(0.,1.,0.));
#605=DIRECTION('',(0.,0.,1.));
#606=DIRECTION('',(1.,0.,0.));
#607=DIRECTION('',(0.,0.,1.));
#608=DIRECTION('',(1.,0.,0.));
#609=DIRECTION('',(0.,0.,1.));
#610=DIRECTION('',(1.,0.,0.));
#611=DIRECTION('',(0.,-1.,0.));
#612=DIRECTION('',(0.,0.,-1.));
#613=DIRECTION('',(0.,0.,1.));
#614=DIRECTION('',(0.,0.,1.));
#615=DIRECTION('',(0.,0.,1.));
#616=DIRECTION('',(0.,0.,1.));
#617=DIRECTION('',(1.,0.,0.));
#618=DIRECTION('',(0.,1.,0.));
#619=DIRECTION('',(0.,0.,-1.));
#620=DIRECTION('',(1.,0.,0.));
#621=DIRECTION('',(0.,0.,-1.));
#622=DIRECTION('',(-1.,0.,0.));
#623=DIRECTION('',(0.,0.,1.));
#624=DIRECTION('',(1.,0.,0.));
#625=DIRECTION('',(0.,0.,1.));
#626=DIRECTION('',(1.,0.,0.));
#627=DIRECTION('',(0.,0.,-1.));
#628=DIRECTION('',(-1.,0.,0.));
#629=DIRECTION('',(0.,0.,-1.));
#630=DIRECTION('',(1.,0.,0.));
#631=DIRECTION('',(0.,-0.707106781186548,0.707106781186548));
#632=DIRECTION('',(1.,0.,0.));
#633=DIRECTION('',(0.,-0.707106781186548,-0.707106781186548));
#634=DIRECTION('',(0.,0.707106781186548,0.707106781186548));
#635=DIRECTION('',(0.,0.,-1.));
#636=DIRECTION('',(1.,0.,0.));
#637=DIRECTION('',(0.,0.,-1.));
#638=DIRECTION('',(-1.,0.,0.));
#639=DIRECTION('',(0.,0.,1.));
#640=DIRECTION('',(1.,0.,0.));
#641=DIRECTION('',(0.,0.,1.));
#642=DIRECTION('',(1.,0.,0.));
#643=DIRECTION('',(0.,0.,-1.));
#644=DIRECTION('',(-1.,0.,0.));
#645=DIRECTION('',(0.,0.,-1.));
#646=DIRECTION('',(1.,0.,0.));
#647=DIRECTION('',(0.,0.,-1.));
#648=DIRECTION('',(1.,0.,0.));
#649=DIRECTION('',(0.,0.,-1.));
#650=DIRECTION('',(-1.,0.,0.));
#651=DIRECTION('',(0.,0.,1.));
#652=DIRECTION('',(1.,0.,0.));
#653=DIRECTION('',(0.,0.,1.));
#654=DIRECTION('',(1.,0.,0.));
#655=DIRECTION('',(0.,0.,-1.));
#656=DIRECTION('',(-1.,0.,0.));
#657=DIRECTION('',(0.,0.,-1.));
#658=DIRECTION('',(1.,0.,0.));
#659=DIRECTION('',(1.,0.,0.));
#660=DIRECTION('',(0.,1.,0.));
#661=DIRECTION('',(0.,0.,-1.));
#662=DIRECTION('',(1.,0.,0.));
#663=DIRECTION('',(0.,0.,-1.));
#664=DIRECTION('',(-1.,0.,0.));
#665=DIRECTION('',(0.,0.,1.));
#666=DIRECTION('',(1.,0.,0.));
#667=DIRECTION('',(0.,0.,1.));
#668=DIRECTION('',(1.,0.,0.));
#669=DIRECTION('',(0.,0.,-1.));
#670=DIRECTION('',(-1.,0.,0.));
#671=DIRECTION('',(0.,0.,-1.));
#672=DIRECTION('',(1.,0.,0.));
#673=DIRECTION('',(1.,0.,0.));
#674=DIRECTION('',(0.,1.,0.));
#675=DIRECTION('',(1.,0.,0.));
#676=DIRECTION('',(0.,1.,0.));
#677=CARTESIAN_POINT('',(0.,0.,0.));
#678=CARTESIAN_POINT('',(0.005,0.0078719023168087,0.0094));
#679=CARTESIAN_POINT('',(0.019,0.0078719023168087,0.0094));
#680=CARTESIAN_POINT('',(0.019,0.0085,0.0094));
#681=CARTESIAN_POINT('',(0.019,0.0077438046336174,0.0094));
#682=CARTESIAN_POINT('',(0.005,0.0085,0.0094));
#683=CARTESIAN_POINT('',(0.001,0.0085,0.0094));
#684=CARTESIAN_POINT('',(0.001,0.0078719023168087,0.0094));
#685=CARTESIAN_POINT('',(0.001,0.0077438046336174,0.0094));
#686=CARTESIAN_POINT('',(0.005,0.0077438046336174,0.0094));
#687=CARTESIAN_POINT('',(0.005,0.0072438046336174,0.0063));
#688=CARTESIAN_POINT('',(0.005,0.0072438046336174,0.0032));
#689=CARTESIAN_POINT('',(0.019,0.0072438046336174,0.0032));
#690=CARTESIAN_POINT('',(0.001,0.0072438046336174,0.0032));
#691=CARTESIAN_POINT('',(0.019,0.0072438046336174,0.0063));
#692=CARTESIAN_POINT('',(0.019,0.0072438046336174,0.0089));
#693=CARTESIAN_POINT('',(0.,0.0072438046336174,0.0089));
#694=CARTESIAN_POINT('',(0.001,0.0072438046336174,0.0089));
#695=CARTESIAN_POINT('',(0.001,0.0072438046336174,0.0063));
#696=CARTESIAN_POINT('',(0.005,0.0036219023168087,0.0032));
#697=CARTESIAN_POINT('',(0.0025,0.00425,0.0032));
#698=CARTESIAN_POINT('',(0.00307,0.00425,0.0032));
#699=CARTESIAN_POINT('',(0.,0.0036219023168087,0.0032));
#700=CARTESIAN_POINT('',(0.,0.,0.0032));
#701=CARTESIAN_POINT('',(0.,0.0085,0.0032));
#702=CARTESIAN_POINT('',(0.005,0.,0.0032));
#703=CARTESIAN_POINT('',(0.02,0.,0.0032));
#704=CARTESIAN_POINT('',(0.02,0.0036219023168087,0.0032));
#705=CARTESIAN_POINT('',(0.02,0.0085,0.0032));
#706=CARTESIAN_POINT('',(0.019,0.0085,0.0032));
#707=CARTESIAN_POINT('',(0.019,0.0085,0.0032));
#708=CARTESIAN_POINT('',(0.019,0.0078719023168087,0.0032));
#709=CARTESIAN_POINT('',(0.001,0.0078719023168087,0.0032));
#710=CARTESIAN_POINT('',(0.001,0.0085,0.0032));
#711=CARTESIAN_POINT('',(0.001,0.0085,0.0032));
#712=CARTESIAN_POINT('',(0.0075,0.00425,0.0032));
#713=CARTESIAN_POINT('',(0.00807,0.00425,0.0032));
#714=CARTESIAN_POINT('',(0.0125,0.00425,0.0032));
#715=CARTESIAN_POINT('',(0.01307,0.00425,0.0032));
#716=CARTESIAN_POINT('',(0.0175,0.00425,0.0032));
#717=CARTESIAN_POINT('',(0.01807,0.00425,0.0032));
#718=CARTESIAN_POINT('',(0.005,0.,0.0016));
#719=CARTESIAN_POINT('',(0.,0.,0.0016));
#720=CARTESIAN_POINT('',(0.,0.,0.));
#721=CARTESIAN_POINT('',(0.005,0.,0.));
#722=CARTESIAN_POINT('',(0.02,0.,0.));
#723=CARTESIAN_POINT('',(0.02,0.,0.0016));
#724=CARTESIAN_POINT('',(0.005,0.0036219023168087,0.));
#725=CARTESIAN_POINT('',(0.0025,0.00425,0.));
#726=CARTESIAN_POINT('',(0.00307,0.00425,0.));
#727=CARTESIAN_POINT('',(0.,0.0036219023168087,0.));
#728=CARTESIAN_POINT('',(0.,0.0085,0.));
#729=CARTESIAN_POINT('',(0.005,0.0085,0.));
#730=CARTESIAN_POINT('',(0.02,0.0085,0.));
#731=CARTESIAN_POINT('',(0.02,0.0036219023168087,0.));
#732=CARTESIAN_POINT('',(0.0075,0.00425,0.));
#733=CARTESIAN_POINT('',(0.00807,0.00425,0.));
#734=CARTESIAN_POINT('',(0.0125,0.00425,0.));
#735=CARTESIAN_POINT('',(0.01307,0.00425,0.));
#736=CARTESIAN_POINT('',(0.0175,0.00425,0.));
#737=CARTESIAN_POINT('',(0.01807,0.00425,0.));
#738=CARTESIAN_POINT('',(0.005,0.0085,0.0063));
#739=CARTESIAN_POINT('',(0.019,0.0085,0.0063));
#740=CARTESIAN_POINT('',(0.02,0.0085,0.0063));
#741=CARTESIAN_POINT('',(0.,0.0085,0.0063));
#742=CARTESIAN_POINT('',(0.001,0.0085,0.0063));
#743=CARTESIAN_POINT('',(0.,0.00425,0.0047));
#744=CARTESIAN_POINT('',(0.0025,0.00425,-0.0037));
#745=CARTESIAN_POINT('',(0.0025,0.00425,-0.0037));
#746=CARTESIAN_POINT('',(0.00193,0.00425,-0.0037));
#747=CARTESIAN_POINT('',(0.0025,0.00425,-0.0037));
#748=CARTESIAN_POINT('',(0.0025,0.00425,-0.0037));
#749=CARTESIAN_POINT('',(0.0025,0.00425,0.0109));
#750=CARTESIAN_POINT('',(0.00193,0.00425,0.0109));
#751=CARTESIAN_POINT('',(0.0025,0.00425,0.0109));
#752=CARTESIAN_POINT('',(0.005,0.0072438046336174,0.0089));
#753=CARTESIAN_POINT('',(0.019,0.0036469023168087,0.0053030976831913));
#754=CARTESIAN_POINT('',(0.001,0.0072438046336174,0.0089));
#755=CARTESIAN_POINT('',(0.0075,0.00425,-0.0037));
#756=CARTESIAN_POINT('',(0.0075,0.00425,-0.0037));
#757=CARTESIAN_POINT('',(0.00693,0.00425,-0.0037));
#758=CARTESIAN_POINT('',(0.0075,0.00425,-0.0037));
#759=CARTESIAN_POINT('',(0.0075,0.00425,-0.0037));
#760=CARTESIAN_POINT('',(0.0075,0.00425,0.0109));
#761=CARTESIAN_POINT('',(0.00693,0.00425,0.0109));
#762=CARTESIAN_POINT('',(0.0075,0.00425,0.0109));
#763=CARTESIAN_POINT('',(0.0125,0.00425,-0.0037));
#764=CARTESIAN_POINT('',(0.0125,0.00425,-0.0037));
#765=CARTESIAN_POINT('',(0.01193,0.00425,-0.0037));
#766=CARTESIAN_POINT('',(0.0125,0.00425,-0.0037));
#767=CARTESIAN_POINT('',(0.0125,0.00425,-0.0037));
#768=CARTESIAN_POINT('',(0.0125,0.00425,0.0109));
#769=CARTESIAN_POINT('',(0.01193,0.00425,0.0109));
#770=CARTESIAN_POINT('',(0.0125,0.00425,0.0109));
#771=CARTESIAN_POINT('',(0.02,0.00425,0.0047));
#772=CARTESIAN_POINT('',(0.0175,0.00425,-0.0037));
#773=CARTESIAN_POINT('',(0.0175,0.00425,-0.0037));
#774=CARTESIAN_POINT('',(0.01693,0.00425,-0.0037));
#775=CARTESIAN_POINT('',(0.0175,0.00425,-0.0037));
#776=CARTESIAN_POINT('',(0.0175,0.00425,-0.0037));
#777=CARTESIAN_POINT('',(0.0175,0.00425,0.0109));
#778=CARTESIAN_POINT('',(0.01693,0.00425,0.0109));
#779=CARTESIAN_POINT('',(0.0175,0.00425,0.0109));
#780=CARTESIAN_POINT('',(0.001,0.00425,0.0047));
#781=CARTESIAN_POINT('',(0.019,0.00425,0.0047));
#782=MECHANICAL_DESIGN_GEOMETRIC_PRESENTATION_REPRESENTATION('',(#410,#28,
#29,#30,#31,#32,#33,#34,#35,#36,#37,#38,#39,#40,#41,#42,#43),#783);
#783=(
GEOMETRIC_REPRESENTATION_CONTEXT(3)
GLOBAL_UNCERTAINTY_ASSIGNED_CONTEXT((#784))
GLOBAL_UNIT_ASSIGNED_CONTEXT((#787,#786,#785))
REPRESENTATION_CONTEXT('Part 1','TOP_LEVEL_ASSEMBLY_PART')
);
#784=UNCERTAINTY_MEASURE_WITH_UNIT(LENGTH_MEASURE(5.E-6),#787,
'DISTANCE_ACCURACY_VALUE','Maximum Tolerance applied to model');
#785=(
NAMED_UNIT(*)
SI_UNIT($,.STERADIAN.)
SOLID_ANGLE_UNIT()
);
#786=(
NAMED_UNIT(*)
PLANE_ANGLE_UNIT()
SI_UNIT($,.RADIAN.)
);
#787=(
LENGTH_UNIT()
NAMED_UNIT(*)
SI_UNIT($,.METRE.)
);
#788=PRODUCT_DEFINITION_SHAPE('','',#789);
#789=PRODUCT_DEFINITION('','',#791,#790);
#790=PRODUCT_DEFINITION_CONTEXT('',#797,'design');
#791=PRODUCT_DEFINITION_FORMATION_WITH_SPECIFIED_SOURCE('','',#793,
 .NOT_KNOWN.);
#792=PRODUCT_RELATED_PRODUCT_CATEGORY('','',(#793));
#793=PRODUCT('Part 1','Part 1','Part 1',(#795));
#794=PRODUCT_CATEGORY('','');
#795=PRODUCT_CONTEXT('',#797,'mechanical');
#796=APPLICATION_PROTOCOL_DEFINITION('international standard',
'automotive_design',2010,#797);
#797=APPLICATION_CONTEXT(
'core data for automotive mechanical design processes');
ENDSEC;
END-ISO-10303-21;
