(module RJ45_Tranformer_ver2 (layer F.Cu) (tedit 5A1DC098)
  (descr "RJ45 connector with Tranformerrmer and LEDs")
  (tags RJ45)
  (fp_text reference REF** (at 3.59 -8.9) (layer F.SilkS)
    (effects (font (size 1 1) (thickness 0.15)))
  )
  (fp_text value RJ45_Tranformer_ver2 (at 3.75 19.05) (layer F.Fab)
    (effects (font (size 1 1) (thickness 0.15)))
  )
  (fp_text user %R (at 3.6 5.025) (layer F.Fab)
    (effects (font (size 1 1) (thickness 0.15)))
  )
  (fp_line (start -4.35 17.5) (end -4.35 -6) (layer F.Fab) (width 0.12))
  (fp_line (start 11.55 17.5) (end -4.35 17.5) (layer F.Fab) (width 0.12))
  (fp_line (start 11.55 -7.45) (end 11.55 17.5) (layer F.Fab) (width 0.12))
  (fp_line (start -2.8 -7.45) (end 11.55 -7.45) (layer F.Fab) (width 0.12))
  (fp_line (start -4.35 -6) (end -2.8 -7.45) (layer F.Fab) (width 0.12))
  (fp_line (start 11.59 17.53) (end 11.59 5.59) (layer F.SilkS) (width 0.12))
  (fp_line (start 11.59 2.41) (end 11.59 -7.49) (layer F.SilkS) (width 0.12))
  (fp_line (start -4.41 17.53) (end -4.41 5.59) (layer F.SilkS) (width 0.12))
  (fp_line (start -4.41 2.41) (end -4.41 -7.49) (layer F.SilkS) (width 0.12))
  (fp_line (start 11.59 -7.49) (end 10.57 -7.49) (layer F.SilkS) (width 0.12))
  (fp_line (start 1.81 -7.49) (end 5.11 -7.49) (layer F.SilkS) (width 0.12))
  (fp_line (start -4.41 -7.49) (end -3.14 -7.49) (layer F.SilkS) (width 0.12))
  (fp_line (start -4.41 17.57) (end 11.59 17.57) (layer F.SilkS) (width 0.12))
  (fp_line (start -5.68 -8.63) (end 12.85 -8.63) (layer F.CrtYd) (width 0.05))
  (fp_line (start -5.68 -8.63) (end -5.68 17.82) (layer F.CrtYd) (width 0.05))
  (fp_line (start 12.85 17.82) (end 12.85 -8.63) (layer F.CrtYd) (width 0.05))
  (fp_line (start 12.85 17.82) (end -5.68 17.82) (layer F.CrtYd) (width 0.05))
  (pad "" np_thru_hole circle (at 9.01 7.07) (size 3.85 3.85) (drill 3.05) (layers *.Cu *.Mask))
  (pad "" np_thru_hole circle (at -1.84 7.06) (size 3.85 3.85) (drill 3.05) (layers *.Cu *.Mask))
  (pad 1 thru_hole rect (at 0 0) (size 1.5 1.5) (drill 0.9) (layers *.Cu *.Mask))
  (pad 2 thru_hole circle (at -1.27 -2.54) (size 1.5 1.5) (drill 0.9) (layers *.Cu *.Mask))
  (pad 3 thru_hole circle (at 2.54 0) (size 1.5 1.5) (drill 0.9) (layers *.Cu *.Mask))
  (pad 4 thru_hole circle (at 1.27 -2.54) (size 1.5 1.5) (drill 0.9) (layers *.Cu *.Mask))
  (pad 5 thru_hole circle (at 5.08 0) (size 1.5 1.5) (drill 0.9) (layers *.Cu *.Mask))
  (pad 6 thru_hole circle (at 3.81 -2.54) (size 1.5 1.5) (drill 0.9) (layers *.Cu *.Mask))
  (pad 7 thru_hole circle (at 7.62 0) (size 1.5 1.5) (drill 0.9) (layers *.Cu *.Mask))
  (pad 9 thru_hole circle (at 11.58 4.08) (size 2.03 2.03) (drill 1) (layers *.Cu *.Mask))
  (pad 9 thru_hole circle (at -4.41 4.08) (size 2.03 2.03) (drill 1) (layers *.Cu *.Mask))
  (pad "" np_thru_hole circle (at 0.54 -7.62) (size 1.51 1.51) (drill 0.9) (layers *.Cu *.Mask))
  (pad "" np_thru_hole circle (at 6.63 -7.62) (size 1.51 1.51) (drill 0.9) (layers *.Cu *.Mask))
  (pad "" np_thru_hole circle (at -2 -7.62) (size 1.51 1.51) (drill 0.9) (layers *.Cu *.Mask))
  (pad "" np_thru_hole circle (at 9.17 -7.62) (size 1.51 1.51) (drill 0.9) (layers *.Cu *.Mask))
  (model ${KIPRJMOD}/kicad_libs_k/models_k.3d/Connector_RJ_k.3dshapes/RJ45_Tranformer_ver2_k.wrl
    (at (xyz 0 0 0))
    (scale (xyz 1 1 1))
    (rotate (xyz 0 0 0))
  )
)
