(module RJ45_8 (layer F.Cu) (tedit 5A1DC098)
  (descr "RJ45 connector, 8-pin")
  (tags RJ45)
  (fp_text reference REF** (at 4.7 -4.95) (layer F.SilkS)
    (effects (font (size 1 1) (thickness 0.15)))
  )
  (fp_text value RJ45_8 (at 4.6 15.45) (layer F.Fab)
    (effects (font (size 1 1) (thickness 0.15)))
  )
  (fp_text user %R (at 4.65 5.85) (layer F.Fab)
    (effects (font (size 1 1) (thickness 0.15)))
  )
  (fp_line (start -4 0.55) (end -3.45 0) (layer F.SilkS) (width 0.12))
  (fp_line (start -4 -0.5) (end -4 0.55) (layer F.SilkS) (width 0.12))
  (fp_line (start -3.45 0) (end -4 -0.5) (layer F.SilkS) (width 0.12))
  (fp_line (start -3.1 14.15) (end -3.1 -2) (layer F.Fab) (width 0.12))
  (fp_line (start 12.05 14.15) (end -3.1 14.15) (layer F.Fab) (width 0.12))
  (fp_line (start 12 -3.7) (end 12.05 14.15) (layer F.Fab) (width 0.12))
  (fp_line (start -1.3 -3.75) (end 12 -3.7) (layer F.Fab) (width 0.12))
  (fp_line (start -3.1 -2) (end -1.3 -3.75) (layer F.Fab) (width 0.12))
  (fp_line (start -3.17 14.22) (end 12.07 14.22) (layer F.SilkS) (width 0.12))
  (fp_line (start 12.07 -3.81) (end 12.06 5.18) (layer F.SilkS) (width 0.12))
  (fp_line (start 12.07 -3.81) (end -3.17 -3.81) (layer F.SilkS) (width 0.12))
  (fp_line (start -3.17 -3.81) (end -3.17 5.19) (layer F.SilkS) (width 0.12))
  (fp_line (start 12.06 7.52) (end 12.07 14.22) (layer F.SilkS) (width 0.12))
  (fp_line (start -3.17 7.51) (end -3.17 14.22) (layer F.SilkS) (width 0.12))
  (fp_line (start -3.56 -4.06) (end 12.46 -4.06) (layer F.CrtYd) (width 0.05))
  (fp_line (start -3.56 -4.06) (end -3.56 14.47) (layer F.CrtYd) (width 0.05))
  (fp_line (start 12.46 14.47) (end 12.46 -4.06) (layer F.CrtYd) (width 0.05))
  (fp_line (start 12.46 14.47) (end -3.56 14.47) (layer F.CrtYd) (width 0.05))
  (pad "" np_thru_hole circle (at 10.38 6.35) (size 3.65 3.65) (drill 3.25) (layers *.Cu *.Mask))
  (pad "" np_thru_hole circle (at -1.49 6.35) (size 3.65 3.65) (drill 3.25) (layers *.Cu *.Mask))
  (pad 1 thru_hole rect (at 0 0) (size 1.5 1.5) (drill 0.9) (layers *.Cu *.Mask))
  (pad 2 thru_hole circle (at 1.27 -2.54) (size 1.5 1.5) (drill 0.9) (layers *.Cu *.Mask))
  (pad 3 thru_hole circle (at 2.54 0) (size 1.5 1.5) (drill 0.9) (layers *.Cu *.Mask))
  (pad 4 thru_hole circle (at 3.81 -2.54) (size 1.5 1.5) (drill 0.9) (layers *.Cu *.Mask))
  (pad 5 thru_hole circle (at 5.08 0) (size 1.5 1.5) (drill 0.9) (layers *.Cu *.Mask))
  (pad 6 thru_hole circle (at 6.35 -2.54) (size 1.5 1.5) (drill 0.9) (layers *.Cu *.Mask))
  (pad 7 thru_hole circle (at 7.62 0) (size 1.5 1.5) (drill 0.9) (layers *.Cu *.Mask))
  (pad 8 thru_hole circle (at 8.89 -2.54) (size 1.5 1.5) (drill 0.9) (layers *.Cu *.Mask))
  (model ${KIPRJMOD}/kicad_libs_k/models_k.3d/Connector_RJ_k.3dshapes/RJ45_8_k.wrl
    (at (xyz 116.1287965109 -161.2899951545 0))
    (scale (xyz 0.4 0.4 0.4))
    (rotate (xyz 0 0 0))
  )
)
