(module Choke_Schaffner_RN102-04-14.0x14.0mm (layer F.Cu) (tedit 5A1421CD)
  (descr "Current-compensated Chokes, Scaffner, RN102-04, 14.0mmx14.0mm https://www.schaffner.com/products/download/product/datasheet/rn-series-common-mode-chokes-new/")
  (tags "chokes schaffner tht")
  (fp_text reference REF** (at 0 -3.5) (layer F.SilkS)
    (effects (font (size 1 1) (thickness 0.15)))
  )
  (fp_text value Choke_Schaffner_RN102-04-14.0x14.0mm (at 5 13.5) (layer F.Fab)
    (effects (font (size 1 1) (thickness 0.15)))
  )
  (fp_arc (start 10 0) (end 10 -2) (angle 90.0) (layer F.Fab) (width 0.1))
  (fp_arc (start 10 10) (end 12 10) (angle 90.0) (layer F.Fab) (width 0.1))
  (fp_arc (start 0 10) (end 0 12) (angle 90.0) (layer F.Fab) (width 0.1))
  (fp_arc (start 0 0) (end -2 0) (angle 90.0) (layer F.Fab) (width 0.1))
  (fp_arc (start 10 0) (end 10 -2.12) (angle 90.0) (layer F.SilkS) (width 0.12))
  (fp_arc (start 10 10) (end 12.12 10) (angle 90.0) (layer F.SilkS) (width 0.12))
  (fp_arc (start 0 10) (end 0 12.12) (angle 90.0) (layer F.SilkS) (width 0.12))
  (fp_arc (start 0 0) (end -2.12 0) (angle 90.0) (layer F.SilkS) (width 0.12))
  (fp_arc (start 10 0) (end 10 -2.25) (angle 90.0) (layer F.CrtYd) (width 0.05))
  (fp_arc (start 10 10) (end 12.25 10) (angle 90.0) (layer F.CrtYd) (width 0.05))
  (fp_arc (start 0 10) (end 0 12.25) (angle 90.0) (layer F.CrtYd) (width 0.05))
  (fp_arc (start 0 0) (end -2.25 0) (angle 90.0) (layer F.CrtYd) (width 0.05))
  (fp_line (start 0 -2) (end 10 -2) (layer F.Fab) (width 0.1))
  (fp_line (start 12 0) (end 12 10) (layer F.Fab) (width 0.1))
  (fp_line (start 10 12) (end 0 12) (layer F.Fab) (width 0.1))
  (fp_line (start -2 10) (end -2 2) (layer F.Fab) (width 0.1))
  (fp_line (start -2 2) (end -1 1) (layer F.Fab) (width 0.1))
  (fp_line (start -1 1) (end -2 0) (layer F.Fab) (width 0.1))
  (fp_line (start 0 -2.12) (end 10 -2.12) (layer F.SilkS) (width 0.12))
  (fp_line (start 12.12 0) (end 12.12 10) (layer F.SilkS) (width 0.12))
  (fp_line (start 10 12.12) (end 0 12.12) (layer F.SilkS) (width 0.12))
  (fp_line (start -2.12 10) (end -2.12 0) (layer F.SilkS) (width 0.12))
  (fp_line (start 0 -2.25) (end 10 -2.25) (layer F.CrtYd) (width 0.05))
  (fp_line (start 12.25 0) (end 12.25 10) (layer F.CrtYd) (width 0.05))
  (fp_line (start 10 12.25) (end 0 12.25) (layer F.CrtYd) (width 0.05))
  (fp_line (start -2.25 10) (end -2.25 0) (layer F.CrtYd) (width 0.05))
  (fp_line (start -2.5 -2.5) (end 0.5 -2.5) (layer F.SilkS) (width 0.12))
  (fp_line (start -2.5 -2.5) (end -2.5 0.5) (layer F.SilkS) (width 0.12))
  (pad 1 thru_hole rect (at 0 0) (size 2 2) (drill 0.7) (layers *.Cu *.Mask))
  (pad 2 thru_hole circle (at 10 0) (size 2 2) (drill 0.7) (layers *.Cu *.Mask))
  (pad 3 thru_hole circle (at 0 10) (size 2 2) (drill 0.7) (layers *.Cu *.Mask))
  (pad 4 thru_hole circle (at 10 10) (size 2 2) (drill 0.7) (layers *.Cu *.Mask))
  (fp_text user %R (at 5 5) (layer F.Fab)
    (effects (font (size 1 1) (thickness 0.15)))
  )
  (model ${KIPRJMOD}/kicad_libs_k/models_k.3d/Inductor_THT_k.3dshapes/Choke_Schaffner_RN102-04-14.0x14.0mm_k.wrl
    (at (xyz 0 0 0))
    (scale (xyz 1 1 1))
    (rotate (xyz 0 0 0))
  )
)