(module Choke_Schaffner_RN212-04-12.5x18.0mm (layer F.Cu) (tedit 5A1421CD)
  (descr "Current-compensated Chokes, Scaffner, RN212-04, 12.5mmx18.0mm https://www.schaffner.com/products/download/product/datasheet/rn-series-common-mode-chokes-new/")
  (tags "chokes schaffner tht")
  (fp_text reference REF** (at 0 -3.5) (layer F.SilkS)
    (effects (font (size 1 1) (thickness 0.15)))
  )
  (fp_text value Choke_Schaffner_RN212-04-12.5x18.0mm (at 5 18) (layer F.Fab)
    (effects (font (size 1 1) (thickness 0.15)))
  )
  (fp_line (start -1.25 -1.5) (end 11.25 -1.5) (layer F.Fab) (width 0.1))
  (fp_line (start 11.25 -1.5) (end 11.25 16.5) (layer F.Fab) (width 0.1))
  (fp_line (start 11.25 16.5) (end -1.25 16.5) (layer F.Fab) (width 0.1))
  (fp_line (start -1.25 16.5) (end -1.25 1) (layer F.Fab) (width 0.1))
  (fp_line (start -1.25 1) (end -0.25 0) (layer F.Fab) (width 0.1))
  (fp_line (start -0.25 0) (end -1.25 -1) (layer F.Fab) (width 0.1))
  (fp_line (start -1.25 -1) (end -1.25 -1.5) (layer F.Fab) (width 0.1))
  (fp_line (start -1.37 -1.62) (end 11.37 -1.62) (layer F.SilkS) (width 0.12))
  (fp_line (start 11.37 -1.62) (end 11.37 16.62) (layer F.SilkS) (width 0.12))
  (fp_line (start 11.37 16.62) (end -1.37 16.62) (layer F.SilkS) (width 0.12))
  (fp_line (start -1.37 16.62) (end -1.37 -1.62) (layer F.SilkS) (width 0.12))
  (fp_line (start -1.5 -1.75) (end -1.5 16.75) (layer F.CrtYd) (width 0.05))
  (fp_line (start -1.5 16.75) (end 11.5 16.75) (layer F.CrtYd) (width 0.05))
  (fp_line (start 11.5 16.75) (end 11.5 -1.75) (layer F.CrtYd) (width 0.05))
  (fp_line (start 11.5 -1.75) (end -1.5 -1.75) (layer F.CrtYd) (width 0.05))
  (fp_line (start -1.75 -2) (end -0.75 -2) (layer F.SilkS) (width 0.12))
  (fp_line (start -1.75 -2) (end -1.75 1) (layer F.SilkS) (width 0.12))
  (pad 1 thru_hole rect (at 0 0) (size 2 2) (drill 0.9) (layers *.Cu *.Mask))
  (pad 2 thru_hole circle (at 10 0) (size 2 2) (drill 0.9) (layers *.Cu *.Mask))
  (pad 3 thru_hole circle (at 0 15) (size 2 2) (drill 0.9) (layers *.Cu *.Mask))
  (pad 4 thru_hole circle (at 10 15) (size 2 2) (drill 0.9) (layers *.Cu *.Mask))
  (fp_text user %R (at 5 7.5) (layer F.Fab)
    (effects (font (size 1 1) (thickness 0.15)))
  )
  (model ${KIPRJMOD}/kicad_libs_k/models_k.3d/Inductor_THT_k.3dshapes/Choke_Schaffner_RN212-04-12.5x18.0mm_k.wrl
    (at (xyz 0 0 0))
    (scale (xyz 1 1 1))
    (rotate (xyz 0 0 0))
  )
)