(module L_Axial_L5.3mm_D2.2mm_P10.16mm_Horizontal_Vishay_IM-1 (layer F.Cu) (tedit 5AE59B05)
  (descr "Inductor, Axial series, Axial, Horizontal, pin pitch=10.16mm, , length*diameter=5.3*2.2mm^2, Vishay, IM-1, http://www.vishay.com/docs/34030/im.pdf")
  (tags "Inductor Axial series Axial Horizontal pin pitch 10.16mm  length 5.3mm diameter 2.2mm Vishay IM-1")
  (fp_text reference REF** (at 5.08 -2.22) (layer F.SilkS)
    (effects (font (size 1 1) (thickness 0.15)))
  )
  (fp_text value L_Axial_L5.3mm_D2.2mm_P10.16mm_Horizontal_Vishay_IM-1 (at 5.08 2.22) (layer F.Fab)
    (effects (font (size 1 1) (thickness 0.15)))
  )
  (fp_line (start 2.43 -1.1) (end 2.43 1.1) (layer F.Fab) (width 0.1))
  (fp_line (start 2.43 1.1) (end 7.73 1.1) (layer F.Fab) (width 0.1))
  (fp_line (start 7.73 1.1) (end 7.73 -1.1) (layer F.Fab) (width 0.1))
  (fp_line (start 7.73 -1.1) (end 2.43 -1.1) (layer F.Fab) (width 0.1))
  (fp_line (start 0 0) (end 2.43 0) (layer F.Fab) (width 0.1))
  (fp_line (start 10.16 0) (end 7.73 0) (layer F.Fab) (width 0.1))
  (fp_line (start 2.31 -1.22) (end 2.31 1.22) (layer F.SilkS) (width 0.12))
  (fp_line (start 2.31 1.22) (end 7.85 1.22) (layer F.SilkS) (width 0.12))
  (fp_line (start 7.85 1.22) (end 7.85 -1.22) (layer F.SilkS) (width 0.12))
  (fp_line (start 7.85 -1.22) (end 2.31 -1.22) (layer F.SilkS) (width 0.12))
  (fp_line (start 1.04 0) (end 2.31 0) (layer F.SilkS) (width 0.12))
  (fp_line (start 9.12 0) (end 7.85 0) (layer F.SilkS) (width 0.12))
  (fp_line (start -1.05 -1.35) (end -1.05 1.35) (layer F.CrtYd) (width 0.05))
  (fp_line (start -1.05 1.35) (end 11.21 1.35) (layer F.CrtYd) (width 0.05))
  (fp_line (start 11.21 1.35) (end 11.21 -1.35) (layer F.CrtYd) (width 0.05))
  (fp_line (start 11.21 -1.35) (end -1.05 -1.35) (layer F.CrtYd) (width 0.05))
  (pad 1 thru_hole circle (at 0 0) (size 1.6 1.6) (drill 0.8) (layers *.Cu *.Mask))
  (pad 2 thru_hole oval (at 10.16 0) (size 1.6 1.6) (drill 0.8) (layers *.Cu *.Mask))
  (fp_text user %R (at 5.08 0) (layer F.Fab)
    (effects (font (size 1 1) (thickness 0.15)))
  )
  (model ${KIPRJMOD}/kicad_libs_k/models_k.3d/Inductor_THT_k.3dshapes/L_Axial_L5.3mm_D2.2mm_P10.16mm_Horizontal_Vishay_IM-1_k.wrl
    (at (xyz 0 0 0))
    (scale (xyz 1 1 1))
    (rotate (xyz 0 0 0))
  )
)