(module L_Axial_L7.0mm_D3.3mm_P12.70mm_Horizontal_Fastron_MICC (layer F.Cu) (tedit 5AE59B05)
  (descr "Inductor, Axial series, Axial, Horizontal, pin pitch=12.7mm, , length*diameter=7*3.3mm^2, Fastron, MICC, http://www.fastrongroup.com/image-show/70/MICC.pdf?type=Complete-DataSheet&productType=series")
  (tags "Inductor Axial series Axial Horizontal pin pitch 12.7mm  length 7mm diameter 3.3mm Fastron MICC")
  (fp_text reference REF** (at 6.35 -2.77) (layer F.SilkS)
    (effects (font (size 1 1) (thickness 0.15)))
  )
  (fp_text value L_Axial_L7.0mm_D3.3mm_P12.70mm_Horizontal_Fastron_MICC (at 6.35 2.77) (layer F.Fab)
    (effects (font (size 1 1) (thickness 0.15)))
  )
  (fp_line (start 2.85 -1.65) (end 2.85 1.65) (layer F.Fab) (width 0.1))
  (fp_line (start 2.85 1.65) (end 9.85 1.65) (layer F.Fab) (width 0.1))
  (fp_line (start 9.85 1.65) (end 9.85 -1.65) (layer F.Fab) (width 0.1))
  (fp_line (start 9.85 -1.65) (end 2.85 -1.65) (layer F.Fab) (width 0.1))
  (fp_line (start 0 0) (end 2.85 0) (layer F.Fab) (width 0.1))
  (fp_line (start 12.7 0) (end 9.85 0) (layer F.Fab) (width 0.1))
  (fp_line (start 2.73 -1.77) (end 2.73 1.77) (layer F.SilkS) (width 0.12))
  (fp_line (start 2.73 1.77) (end 9.97 1.77) (layer F.SilkS) (width 0.12))
  (fp_line (start 9.97 1.77) (end 9.97 -1.77) (layer F.SilkS) (width 0.12))
  (fp_line (start 9.97 -1.77) (end 2.73 -1.77) (layer F.SilkS) (width 0.12))
  (fp_line (start 1.04 0) (end 2.73 0) (layer F.SilkS) (width 0.12))
  (fp_line (start 11.66 0) (end 9.97 0) (layer F.SilkS) (width 0.12))
  (fp_line (start -1.05 -1.9) (end -1.05 1.9) (layer F.CrtYd) (width 0.05))
  (fp_line (start -1.05 1.9) (end 13.75 1.9) (layer F.CrtYd) (width 0.05))
  (fp_line (start 13.75 1.9) (end 13.75 -1.9) (layer F.CrtYd) (width 0.05))
  (fp_line (start 13.75 -1.9) (end -1.05 -1.9) (layer F.CrtYd) (width 0.05))
  (pad 1 thru_hole circle (at 0 0) (size 1.6 1.6) (drill 0.8) (layers *.Cu *.Mask))
  (pad 2 thru_hole oval (at 12.7 0) (size 1.6 1.6) (drill 0.8) (layers *.Cu *.Mask))
  (fp_text user %R (at 6.35 0) (layer F.Fab)
    (effects (font (size 1 1) (thickness 0.15)))
  )
  (model ${KIPRJMOD}/kicad_libs_k/models_k.3d/Inductor_THT_k.3dshapes/L_Axial_L7.0mm_D3.3mm_P12.70mm_Horizontal_Fastron_MICC_k.wrl
    (at (xyz 0 0 0))
    (scale (xyz 1 1 1))
    (rotate (xyz 0 0 0))
  )
)