(module L_Axial_L26.0mm_D11.0mm_P7.62mm_Vertical_Fastron_77A (layer F.Cu) (tedit 5AE59B05)
  (descr "Inductor, Axial series, Axial, Vertical, pin pitch=7.62mm, , length*diameter=26*11mm^2, Fastron, 77A, http://cdn-reichelt.de/documents/datenblatt/B400/DS_77A.pdf")
  (tags "Inductor Axial series Axial Vertical pin pitch 7.62mm  length 26mm diameter 11mm Fastron 77A")
  (fp_text reference REF** (at 3.81 -6.62) (layer F.SilkS)
    (effects (font (size 1 1) (thickness 0.15)))
  )
  (fp_text value L_Axial_L26.0mm_D11.0mm_P7.62mm_Vertical_Fastron_77A (at 3.81 6.62) (layer F.Fab)
    (effects (font (size 1 1) (thickness 0.15)))
  )
  (fp_circle (center 0 0) (end 5.5 0) (layer F.Fab) (width 0.1))
  (fp_circle (center 0 0) (end 5.62 0) (layer F.SilkS) (width 0.12))
  (fp_line (start 0 0) (end 7.62 0) (layer F.Fab) (width 0.1))
  (fp_line (start 5.62 0) (end 6.12 0) (layer F.SilkS) (width 0.12))
  (fp_line (start -5.75 -5.75) (end -5.75 5.75) (layer F.CrtYd) (width 0.05))
  (fp_line (start -5.75 5.75) (end 9.07 5.75) (layer F.CrtYd) (width 0.05))
  (fp_line (start 9.07 5.75) (end 9.07 -5.75) (layer F.CrtYd) (width 0.05))
  (fp_line (start 9.07 -5.75) (end -5.75 -5.75) (layer F.CrtYd) (width 0.05))
  (pad 1 thru_hole circle (at 0 0) (size 2.4 2.4) (drill 1.2) (layers *.Cu *.Mask))
  (pad 2 thru_hole oval (at 7.62 0) (size 2.4 2.4) (drill 1.2) (layers *.Cu *.Mask))
  (fp_text user %R (at 0 -1.7) (layer F.Fab)
    (effects (font (size 1 1) (thickness 0.15)))
  )
  (model ${KIPRJMOD}/kicad_libs_k/models_k.3d/Inductor_THT_k.3dshapes/L_Axial_L26.0mm_D11.0mm_P7.62mm_Vertical_Fastron_77A_k.wrl
    (at (xyz 0 0 0))
    (scale (xyz 1 1 1))
    (rotate (xyz 0 0 0))
  )
)