(module L_Axial_L29.9mm_D14.0mm_P38.00mm_Horizontal_Vishay_IHA-105 (layer F.Cu) (tedit 5AE59B05)
  (descr "Inductor, Axial series, Axial, Horizontal, pin pitch=38mm, , length*diameter=29.85*13.97mm^2, Vishay, IHA-105, http://www.vishay.com/docs/34014/iha.pdf")
  (tags "Inductor Axial series Axial Horizontal pin pitch 38mm  length 29.85mm diameter 13.97mm Vishay IHA-105")
  (fp_text reference REF** (at 19 -8.105) (layer F.SilkS)
    (effects (font (size 1 1) (thickness 0.15)))
  )
  (fp_text value L_Axial_L29.9mm_D14.0mm_P38.00mm_Horizontal_Vishay_IHA-105 (at 19 8.105) (layer F.Fab)
    (effects (font (size 1 1) (thickness 0.15)))
  )
  (fp_line (start 4.075 -6.985) (end 4.075 6.985) (layer F.Fab) (width 0.1))
  (fp_line (start 4.075 6.985) (end 33.925 6.985) (layer F.Fab) (width 0.1))
  (fp_line (start 33.925 6.985) (end 33.925 -6.985) (layer F.Fab) (width 0.1))
  (fp_line (start 33.925 -6.985) (end 4.075 -6.985) (layer F.Fab) (width 0.1))
  (fp_line (start 0 0) (end 4.075 0) (layer F.Fab) (width 0.1))
  (fp_line (start 38 0) (end 33.925 0) (layer F.Fab) (width 0.1))
  (fp_line (start 3.955 -7.105) (end 3.955 7.105) (layer F.SilkS) (width 0.12))
  (fp_line (start 3.955 7.105) (end 34.045 7.105) (layer F.SilkS) (width 0.12))
  (fp_line (start 34.045 7.105) (end 34.045 -7.105) (layer F.SilkS) (width 0.12))
  (fp_line (start 34.045 -7.105) (end 3.955 -7.105) (layer F.SilkS) (width 0.12))
  (fp_line (start 1.44 0) (end 3.955 0) (layer F.SilkS) (width 0.12))
  (fp_line (start 36.56 0) (end 34.045 0) (layer F.SilkS) (width 0.12))
  (fp_line (start -1.45 -7.24) (end -1.45 7.24) (layer F.CrtYd) (width 0.05))
  (fp_line (start -1.45 7.24) (end 39.45 7.24) (layer F.CrtYd) (width 0.05))
  (fp_line (start 39.45 7.24) (end 39.45 -7.24) (layer F.CrtYd) (width 0.05))
  (fp_line (start 39.45 -7.24) (end -1.45 -7.24) (layer F.CrtYd) (width 0.05))
  (pad 1 thru_hole circle (at 0 0) (size 2.4 2.4) (drill 1.2) (layers *.Cu *.Mask))
  (pad 2 thru_hole oval (at 38 0) (size 2.4 2.4) (drill 1.2) (layers *.Cu *.Mask))
  (fp_text user %R (at 19 0) (layer F.Fab)
    (effects (font (size 1 1) (thickness 0.15)))
  )
  (model ${KIPRJMOD}/kicad_libs_k/models_k.3d/Inductor_THT_k.3dshapes/L_Axial_L29.9mm_D14.0mm_P38.00mm_Horizontal_Vishay_IHA-105_k.wrl
    (at (xyz 0 0 0))
    (scale (xyz 1 1 1))
    (rotate (xyz 0 0 0))
  )
)