(module L_Axial_L16.0mm_D6.3mm_P7.62mm_Vertical_Fastron_VHBCC (layer F.Cu) (tedit 5AE59B05)
  (descr "Inductor, Axial series, Axial, Vertical, pin pitch=7.62mm, , length*diameter=16*6.3mm^2, Fastron, VHBCC, http://www.fastrongroup.com/image-show/25/VHBCC.pdf?type=Complete-DataSheet&productType=series")
  (tags "Inductor Axial series Axial Vertical pin pitch 7.62mm  length 16mm diameter 6.3mm Fastron VHBCC")
  (fp_text reference REF** (at 3.81 -4.27) (layer F.SilkS)
    (effects (font (size 1 1) (thickness 0.15)))
  )
  (fp_text value L_Axial_L16.0mm_D6.3mm_P7.62mm_Vertical_Fastron_VHBCC (at 3.81 4.27) (layer F.Fab)
    (effects (font (size 1 1) (thickness 0.15)))
  )
  (fp_circle (center 0 0) (end 3.15 0) (layer F.Fab) (width 0.1))
  (fp_circle (center 0 0) (end 3.27 0) (layer F.SilkS) (width 0.12))
  (fp_line (start 0 0) (end 7.62 0) (layer F.Fab) (width 0.1))
  (fp_line (start 3.27 0) (end 6.22 0) (layer F.SilkS) (width 0.12))
  (fp_line (start -3.4 -3.4) (end -3.4 3.4) (layer F.CrtYd) (width 0.05))
  (fp_line (start -3.4 3.4) (end 8.97 3.4) (layer F.CrtYd) (width 0.05))
  (fp_line (start 8.97 3.4) (end 8.97 -3.4) (layer F.CrtYd) (width 0.05))
  (fp_line (start 8.97 -3.4) (end -3.4 -3.4) (layer F.CrtYd) (width 0.05))
  (pad 1 thru_hole circle (at 0 0) (size 2.2 2.2) (drill 1.1) (layers *.Cu *.Mask))
  (pad 2 thru_hole oval (at 7.62 0) (size 2.2 2.2) (drill 1.1) (layers *.Cu *.Mask))
  (fp_text user %R (at 0 -1.6) (layer F.Fab)
    (effects (font (size 1 1) (thickness 0.15)))
  )
  (model ${KIPRJMOD}/kicad_libs_k/models_k.3d/Inductor_THT_k.3dshapes/L_Axial_L16.0mm_D6.3mm_P7.62mm_Vertical_Fastron_VHBCC_k.wrl
    (at (xyz 0 0 0))
    (scale (xyz 1 1 1))
    (rotate (xyz 0 0 0))
  )
)