(module L_Axial_L30.0mm_D8.0mm_P35.56mm_Horizontal_Fastron_77A (layer F.Cu) (tedit 5AE59B05)
  (descr "Inductor, Axial series, Axial, Horizontal, pin pitch=35.56mm, , length*diameter=30*8mm^2, Fastron, 77A, http://cdn-reichelt.de/documents/datenblatt/B400/DS_77A.pdf")
  (tags "Inductor Axial series Axial Horizontal pin pitch 35.56mm  length 30mm diameter 8mm Fastron 77A")
  (fp_text reference REF** (at 17.78 -5.12) (layer F.SilkS)
    (effects (font (size 1 1) (thickness 0.15)))
  )
  (fp_text value L_Axial_L30.0mm_D8.0mm_P35.56mm_Horizontal_Fastron_77A (at 17.78 5.12) (layer F.Fab)
    (effects (font (size 1 1) (thickness 0.15)))
  )
  (fp_line (start 2.78 -4) (end 2.78 4) (layer F.Fab) (width 0.1))
  (fp_line (start 2.78 4) (end 32.78 4) (layer F.Fab) (width 0.1))
  (fp_line (start 32.78 4) (end 32.78 -4) (layer F.Fab) (width 0.1))
  (fp_line (start 32.78 -4) (end 2.78 -4) (layer F.Fab) (width 0.1))
  (fp_line (start 0 0) (end 2.78 0) (layer F.Fab) (width 0.1))
  (fp_line (start 35.56 0) (end 32.78 0) (layer F.Fab) (width 0.1))
  (fp_line (start 2.66 -4.12) (end 2.66 4.12) (layer F.SilkS) (width 0.12))
  (fp_line (start 2.66 4.12) (end 32.9 4.12) (layer F.SilkS) (width 0.12))
  (fp_line (start 32.9 4.12) (end 32.9 -4.12) (layer F.SilkS) (width 0.12))
  (fp_line (start 32.9 -4.12) (end 2.66 -4.12) (layer F.SilkS) (width 0.12))
  (fp_line (start 1.64 0) (end 2.66 0) (layer F.SilkS) (width 0.12))
  (fp_line (start 33.92 0) (end 32.9 0) (layer F.SilkS) (width 0.12))
  (fp_line (start -1.65 -4.25) (end -1.65 4.25) (layer F.CrtYd) (width 0.05))
  (fp_line (start -1.65 4.25) (end 37.21 4.25) (layer F.CrtYd) (width 0.05))
  (fp_line (start 37.21 4.25) (end 37.21 -4.25) (layer F.CrtYd) (width 0.05))
  (fp_line (start 37.21 -4.25) (end -1.65 -4.25) (layer F.CrtYd) (width 0.05))
  (pad 1 thru_hole circle (at 0 0) (size 2.8 2.8) (drill 1.4) (layers *.Cu *.Mask))
  (pad 2 thru_hole oval (at 35.56 0) (size 2.8 2.8) (drill 1.4) (layers *.Cu *.Mask))
  (fp_text user %R (at 17.78 0) (layer F.Fab)
    (effects (font (size 1 1) (thickness 0.15)))
  )
  (model ${KIPRJMOD}/kicad_libs_k/models_k.3d/Inductor_THT_k.3dshapes/L_Axial_L30.0mm_D8.0mm_P35.56mm_Horizontal_Fastron_77A_k.wrl
    (at (xyz 0 0 0))
    (scale (xyz 1 1 1))
    (rotate (xyz 0 0 0))
  )
)