(module L_Axial_L14.0mm_D4.5mm_P15.24mm_Horizontal_Fastron_LACC (layer F.Cu) (tedit 5AE59B05)
  (descr "Inductor, Axial series, Axial, Horizontal, pin pitch=15.24mm, , length*diameter=14*4.5mm^2, Fastron, LACC, http://www.fastrongroup.com/image-show/20/LACC.pdf?type=Complete-DataSheet&productType=series")
  (tags "Inductor Axial series Axial Horizontal pin pitch 15.24mm  length 14mm diameter 4.5mm Fastron LACC")
  (fp_text reference REF** (at 7.62 -3.37) (layer F.SilkS)
    (effects (font (size 1 1) (thickness 0.15)))
  )
  (fp_text value L_Axial_L14.0mm_D4.5mm_P15.24mm_Horizontal_Fastron_LACC (at 7.62 3.37) (layer F.Fab)
    (effects (font (size 1 1) (thickness 0.15)))
  )
  (fp_line (start 0.62 -2.25) (end 0.62 2.25) (layer F.Fab) (width 0.1))
  (fp_line (start 0.62 2.25) (end 14.62 2.25) (layer F.Fab) (width 0.1))
  (fp_line (start 14.62 2.25) (end 14.62 -2.25) (layer F.Fab) (width 0.1))
  (fp_line (start 14.62 -2.25) (end 0.62 -2.25) (layer F.Fab) (width 0.1))
  (fp_line (start 0 0) (end 0.62 0) (layer F.Fab) (width 0.1))
  (fp_line (start 15.24 0) (end 14.62 0) (layer F.Fab) (width 0.1))
  (fp_line (start 0.5 -1.24) (end 0.5 -2.37) (layer F.SilkS) (width 0.12))
  (fp_line (start 0.5 -2.37) (end 14.74 -2.37) (layer F.SilkS) (width 0.12))
  (fp_line (start 14.74 -2.37) (end 14.74 -1.24) (layer F.SilkS) (width 0.12))
  (fp_line (start 0.5 1.24) (end 0.5 2.37) (layer F.SilkS) (width 0.12))
  (fp_line (start 0.5 2.37) (end 14.74 2.37) (layer F.SilkS) (width 0.12))
  (fp_line (start 14.74 2.37) (end 14.74 1.24) (layer F.SilkS) (width 0.12))
  (fp_line (start -1.25 -2.5) (end -1.25 2.5) (layer F.CrtYd) (width 0.05))
  (fp_line (start -1.25 2.5) (end 16.5 2.5) (layer F.CrtYd) (width 0.05))
  (fp_line (start 16.5 2.5) (end 16.5 -2.5) (layer F.CrtYd) (width 0.05))
  (fp_line (start 16.5 -2.5) (end -1.25 -2.5) (layer F.CrtYd) (width 0.05))
  (pad 1 thru_hole circle (at 0 0) (size 2 2) (drill 1) (layers *.Cu *.Mask))
  (pad 2 thru_hole oval (at 15.24 0) (size 2 2) (drill 1) (layers *.Cu *.Mask))
  (fp_text user %R (at 7.62 0) (layer F.Fab)
    (effects (font (size 1 1) (thickness 0.15)))
  )
  (model ${KIPRJMOD}/kicad_libs_k/models_k.3d/Inductor_THT_k.3dshapes/L_Axial_L14.0mm_D4.5mm_P15.24mm_Horizontal_Fastron_LACC_k.wrl
    (at (xyz 0 0 0))
    (scale (xyz 1 1 1))
    (rotate (xyz 0 0 0))
  )
)