(module L_Axial_L29.9mm_D14.0mm_P25.40mm_Horizontal_Vishay_IHA-105 (layer F.Cu) (tedit 5A142292)
  (descr "L, Axial series, Axial, Horizontal, pin pitch=25.4mm, , length*diameter=29.85*13.97mm^2, Vishay, IHA-105, http://www.vishay.com/docs/34014/iha.pdf")
  (tags "L Axial series Axial Horizontal pin pitch 25.4mm  length 29.85mm diameter 13.97mm Vishay IHA-105")
  (fp_text reference REF** (at 12.7 -8.045) (layer F.SilkS)
    (effects (font (size 1 1) (thickness 0.15)))
  )
  (fp_text value L_Axial_L29.9mm_D14.0mm_P25.40mm_Horizontal_Vishay_IHA-105 (at 12.7 8.045) (layer F.Fab)
    (effects (font (size 1 1) (thickness 0.15)))
  )
  (fp_text user %R (at 12.7 0) (layer F.Fab)
    (effects (font (size 1 1) (thickness 0.15)))
  )
  (fp_line (start -2.225 -6.985) (end -2.225 6.985) (layer F.Fab) (width 0.1))
  (fp_line (start -2.225 6.985) (end 27.625 6.985) (layer F.Fab) (width 0.1))
  (fp_line (start 27.625 6.985) (end 27.625 -6.985) (layer F.Fab) (width 0.1))
  (fp_line (start 27.625 -6.985) (end -2.225 -6.985) (layer F.Fab) (width 0.1))
  (fp_line (start 0 0) (end -2.225 0) (layer F.Fab) (width 0.1))
  (fp_line (start 25.4 0) (end 27.625 0) (layer F.Fab) (width 0.1))
  (fp_line (start -2.285 -1.38) (end -2.285 -7.045) (layer F.SilkS) (width 0.12))
  (fp_line (start -2.285 -7.045) (end 27.685 -7.045) (layer F.SilkS) (width 0.12))
  (fp_line (start 27.685 -7.045) (end 27.685 -1.38) (layer F.SilkS) (width 0.12))
  (fp_line (start -2.285 1.38) (end -2.285 7.045) (layer F.SilkS) (width 0.12))
  (fp_line (start -2.285 7.045) (end 27.685 7.045) (layer F.SilkS) (width 0.12))
  (fp_line (start 27.685 7.045) (end 27.685 1.38) (layer F.SilkS) (width 0.12))
  (fp_line (start -2.55 -7.3) (end -2.55 7.3) (layer F.CrtYd) (width 0.05))
  (fp_line (start -2.55 7.3) (end 25.8 7.3) (layer F.CrtYd) (width 0.05))
  (fp_line (start 25.8 7.3) (end 25.8 -7.3) (layer F.CrtYd) (width 0.05))
  (fp_line (start 25.8 -7.3) (end -2.55 -7.3) (layer F.CrtYd) (width 0.05))
  (pad 1 thru_hole circle (at 0 0) (size 2.4 2.4) (drill 1.2) (layers *.Cu *.Mask))
  (pad 2 thru_hole oval (at 25.4 0) (size 2.4 2.4) (drill 1.2) (layers *.Cu *.Mask))
  (model ${KIPRJMOD}/kicad_libs_k/models_k.3d/Inductor_THT_k.3dshapes/L_Axial_L29.9mm_D14.0mm_P25.40mm_Horizontal_Vishay_IHA-105_k.wrl
    (at (xyz 0 0 0))
    (scale (xyz 1 1 1))
    (rotate (xyz 0 0 0))
  )
)
