(module L_Axial_L9.5mm_D4.0mm_P2.54mm_Vertical_Fastron_SMCC (layer F.Cu) (tedit 5AE59B05)
  (descr "Inductor, Axial series, Axial, Vertical, pin pitch=2.54mm, , length*diameter=9.5*4mm^2, Fastron, SMCC, http://cdn-reichelt.de/documents/datenblatt/B400/DS_SMCC_NEU.pdf, http://cdn-reichelt.de/documents/datenblatt/B400/LEADEDINDUCTORS.pdf")
  (tags "Inductor Axial series Axial Vertical pin pitch 2.54mm  length 9.5mm diameter 4mm Fastron SMCC")
  (fp_text reference REF** (at 1.27 -3.12) (layer F.SilkS)
    (effects (font (size 1 1) (thickness 0.15)))
  )
  (fp_text value L_Axial_L9.5mm_D4.0mm_P2.54mm_Vertical_Fastron_SMCC (at 1.27 3.12) (layer F.Fab)
    (effects (font (size 1 1) (thickness 0.15)))
  )
  (fp_arc (start 0 0) (end 1.8 -1) (angle -296.216535) (layer F.SilkS) (width 0.12))
  (fp_circle (center 0 0) (end 2 0) (layer F.Fab) (width 0.1))
  (fp_line (start 0 0) (end 2.54 0) (layer F.Fab) (width 0.1))
  (fp_line (start -2.25 -2.25) (end -2.25 2.25) (layer F.CrtYd) (width 0.05))
  (fp_line (start -2.25 2.25) (end 3.79 2.25) (layer F.CrtYd) (width 0.05))
  (fp_line (start 3.79 2.25) (end 3.79 -2.25) (layer F.CrtYd) (width 0.05))
  (fp_line (start 3.79 -2.25) (end -2.25 -2.25) (layer F.CrtYd) (width 0.05))
  (pad 1 thru_hole circle (at 0 0) (size 2 2) (drill 1) (layers *.Cu *.Mask))
  (pad 2 thru_hole oval (at 2.54 0) (size 2 2) (drill 1) (layers *.Cu *.Mask))
  (fp_text user %R (at 1.27 -3.12) (layer F.Fab)
    (effects (font (size 1 1) (thickness 0.15)))
  )
  (model ${KIPRJMOD}/kicad_libs_k/models_k.3d/Inductor_THT_k.3dshapes/L_Axial_L9.5mm_D4.0mm_P2.54mm_Vertical_Fastron_SMCC_k.wrl
    (at (xyz 0 0 0))
    (scale (xyz 1 1 1))
    (rotate (xyz 0 0 0))
  )
)