(module L_Axial_L17.5mm_D12.0mm_P20.32mm_Horizontal_Vishay_IM-10-46 (layer F.Cu) (tedit 5AE59B05)
  (descr "Inductor, Axial series, Axial, Horizontal, pin pitch=20.32mm, , length*diameter=17.5*12mm^2, Vishay, IM-10-46, http://www.vishay.com/docs/34030/im10.pdf")
  (tags "Inductor Axial series Axial Horizontal pin pitch 20.32mm  length 17.5mm diameter 12mm Vishay IM-10-46")
  (fp_text reference REF** (at 10.16 -7.12) (layer F.SilkS)
    (effects (font (size 1 1) (thickness 0.15)))
  )
  (fp_text value L_Axial_L17.5mm_D12.0mm_P20.32mm_Horizontal_Vishay_IM-10-46 (at 10.16 7.12) (layer F.Fab)
    (effects (font (size 1 1) (thickness 0.15)))
  )
  (fp_line (start 1.41 -6) (end 1.41 6) (layer F.Fab) (width 0.1))
  (fp_line (start 1.41 6) (end 18.91 6) (layer F.Fab) (width 0.1))
  (fp_line (start 18.91 6) (end 18.91 -6) (layer F.Fab) (width 0.1))
  (fp_line (start 18.91 -6) (end 1.41 -6) (layer F.Fab) (width 0.1))
  (fp_line (start 0 0) (end 1.41 0) (layer F.Fab) (width 0.1))
  (fp_line (start 20.32 0) (end 18.91 0) (layer F.Fab) (width 0.1))
  (fp_line (start 1.29 -6.12) (end 1.29 6.12) (layer F.SilkS) (width 0.12))
  (fp_line (start 1.29 6.12) (end 19.03 6.12) (layer F.SilkS) (width 0.12))
  (fp_line (start 19.03 6.12) (end 19.03 -6.12) (layer F.SilkS) (width 0.12))
  (fp_line (start 19.03 -6.12) (end 1.29 -6.12) (layer F.SilkS) (width 0.12))
  (fp_line (start 1.24 0) (end 1.29 0) (layer F.SilkS) (width 0.12))
  (fp_line (start 19.08 0) (end 19.03 0) (layer F.SilkS) (width 0.12))
  (fp_line (start -1.25 -6.25) (end -1.25 6.25) (layer F.CrtYd) (width 0.05))
  (fp_line (start -1.25 6.25) (end 21.57 6.25) (layer F.CrtYd) (width 0.05))
  (fp_line (start 21.57 6.25) (end 21.57 -6.25) (layer F.CrtYd) (width 0.05))
  (fp_line (start 21.57 -6.25) (end -1.25 -6.25) (layer F.CrtYd) (width 0.05))
  (pad 1 thru_hole circle (at 0 0) (size 2 2) (drill 1) (layers *.Cu *.Mask))
  (pad 2 thru_hole oval (at 20.32 0) (size 2 2) (drill 1) (layers *.Cu *.Mask))
  (fp_text user %R (at 10.16 0) (layer F.Fab)
    (effects (font (size 1 1) (thickness 0.15)))
  )
  (model ${KIPRJMOD}/kicad_libs_k/models_k.3d/Inductor_THT_k.3dshapes/L_Axial_L17.5mm_D12.0mm_P20.32mm_Horizontal_Vishay_IM-10-46_k.wrl
    (at (xyz 0 0 0))
    (scale (xyz 1 1 1))
    (rotate (xyz 0 0 0))
  )
)