(module L_Axial_L16.0mm_D9.5mm_P5.08mm_Vertical_Vishay_IM-10-37 (layer F.Cu) (tedit 5AE59B05)
  (descr "Inductor, Axial series, Axial, Vertical, pin pitch=5.08mm, , length*diameter=16*9.5mm^2, Vishay, IM-10-37, http://www.vishay.com/docs/34030/im10.pdf")
  (tags "Inductor Axial series Axial Vertical pin pitch 5.08mm  length 16mm diameter 9.5mm Vishay IM-10-37")
  (fp_text reference REF** (at 2.54 -5.87) (layer F.SilkS)
    (effects (font (size 1 1) (thickness 0.15)))
  )
  (fp_text value L_Axial_L16.0mm_D9.5mm_P5.08mm_Vertical_Vishay_IM-10-37 (at 2.54 5.87) (layer F.Fab)
    (effects (font (size 1 1) (thickness 0.15)))
  )
  (fp_arc (start 0 0) (end 4.739462 -1) (angle -333.40749) (layer F.SilkS) (width 0.12))
  (fp_circle (center 0 0) (end 4.75 0) (layer F.Fab) (width 0.1))
  (fp_line (start 0 0) (end 5.08 0) (layer F.Fab) (width 0.1))
  (fp_line (start -5 -5) (end -5 5) (layer F.CrtYd) (width 0.05))
  (fp_line (start -5 5) (end 6.33 5) (layer F.CrtYd) (width 0.05))
  (fp_line (start 6.33 5) (end 6.33 -5) (layer F.CrtYd) (width 0.05))
  (fp_line (start 6.33 -5) (end -5 -5) (layer F.CrtYd) (width 0.05))
  (pad 1 thru_hole circle (at 0 0) (size 2 2) (drill 1) (layers *.Cu *.Mask))
  (pad 2 thru_hole oval (at 5.08 0) (size 2 2) (drill 1) (layers *.Cu *.Mask))
  (fp_text user %R (at 0 -1.5) (layer F.Fab)
    (effects (font (size 1 1) (thickness 0.15)))
  )
  (model ${KIPRJMOD}/kicad_libs_k/models_k.3d/Inductor_THT_k.3dshapes/L_Axial_L16.0mm_D9.5mm_P5.08mm_Vertical_Vishay_IM-10-37_k.wrl
    (at (xyz 0 0 0))
    (scale (xyz 1 1 1))
    (rotate (xyz 0 0 0))
  )
)