(module L_Axial_L9.5mm_D4.0mm_P12.70mm_Horizontal_Fastron_SMCC (layer F.Cu) (tedit 5AE59B05)
  (descr "Inductor, Axial series, Axial, Horizontal, pin pitch=12.7mm, , length*diameter=9.5*4mm^2, Fastron, SMCC, http://cdn-reichelt.de/documents/datenblatt/B400/DS_SMCC_NEU.pdf, http://cdn-reichelt.de/documents/datenblatt/B400/LEADEDINDUCTORS.pdf")
  (tags "Inductor Axial series Axial Horizontal pin pitch 12.7mm  length 9.5mm diameter 4mm Fastron SMCC")
  (fp_text reference REF** (at 6.35 -3.12) (layer F.SilkS)
    (effects (font (size 1 1) (thickness 0.15)))
  )
  (fp_text value L_Axial_L9.5mm_D4.0mm_P12.70mm_Horizontal_Fastron_SMCC (at 6.35 3.12) (layer F.Fab)
    (effects (font (size 1 1) (thickness 0.15)))
  )
  (fp_line (start 1.6 -2) (end 1.6 2) (layer F.Fab) (width 0.1))
  (fp_line (start 1.6 2) (end 11.1 2) (layer F.Fab) (width 0.1))
  (fp_line (start 11.1 2) (end 11.1 -2) (layer F.Fab) (width 0.1))
  (fp_line (start 11.1 -2) (end 1.6 -2) (layer F.Fab) (width 0.1))
  (fp_line (start 0 0) (end 1.6 0) (layer F.Fab) (width 0.1))
  (fp_line (start 12.7 0) (end 11.1 0) (layer F.Fab) (width 0.1))
  (fp_line (start 1.48 -2.12) (end 1.48 2.12) (layer F.SilkS) (width 0.12))
  (fp_line (start 1.48 2.12) (end 11.22 2.12) (layer F.SilkS) (width 0.12))
  (fp_line (start 11.22 2.12) (end 11.22 -2.12) (layer F.SilkS) (width 0.12))
  (fp_line (start 11.22 -2.12) (end 1.48 -2.12) (layer F.SilkS) (width 0.12))
  (fp_line (start 1.24 0) (end 1.48 0) (layer F.SilkS) (width 0.12))
  (fp_line (start 11.46 0) (end 11.22 0) (layer F.SilkS) (width 0.12))
  (fp_line (start -1.25 -2.25) (end -1.25 2.25) (layer F.CrtYd) (width 0.05))
  (fp_line (start -1.25 2.25) (end 13.95 2.25) (layer F.CrtYd) (width 0.05))
  (fp_line (start 13.95 2.25) (end 13.95 -2.25) (layer F.CrtYd) (width 0.05))
  (fp_line (start 13.95 -2.25) (end -1.25 -2.25) (layer F.CrtYd) (width 0.05))
  (pad 1 thru_hole circle (at 0 0) (size 2 2) (drill 1) (layers *.Cu *.Mask))
  (pad 2 thru_hole oval (at 12.7 0) (size 2 2) (drill 1) (layers *.Cu *.Mask))
  (fp_text user %R (at 6.35 0) (layer F.Fab)
    (effects (font (size 1 1) (thickness 0.15)))
  )
  (model ${KIPRJMOD}/kicad_libs_k/models_k.3d/Inductor_THT_k.3dshapes/L_Axial_L9.5mm_D4.0mm_P12.70mm_Horizontal_Fastron_SMCC_k.wrl
    (at (xyz 0 0 0))
    (scale (xyz 1 1 1))
    (rotate (xyz 0 0 0))
  )
)