(module L_CommonMode_Toroid_Vertical_L43.2mm_W22.9mm_Px17.78mm_Py30.48mm_Bourns_8100 (layer F.Cu) (tedit 5AE59B06)
  (descr "L_CommonMode_Toroid, Vertical series, Radial, pin pitch=17.78*30.48mm^2, , length*width=43.18*22.86mm^2, Bourns, 8100, http://datasheet.octopart.com/8120-RC-Bourns-datasheet-10228452.pdf")
  (tags "L_CommonMode_Toroid Vertical series Radial pin pitch 17.78*30.48mm^2  length 43.18mm width 22.86mm Bourns 8100")
  (fp_text reference REF** (at 15.24 -3.79) (layer F.SilkS)
    (effects (font (size 1 1) (thickness 0.15)))
  )
  (fp_text value L_CommonMode_Toroid_Vertical_L43.2mm_W22.9mm_Px17.78mm_Py30.48mm_Bourns_8100 (at 15.24 21.57) (layer F.Fab)
    (effects (font (size 1 1) (thickness 0.15)))
  )
  (fp_line (start -6.35 -2.54) (end -6.35 20.32) (layer F.Fab) (width 0.1))
  (fp_line (start -6.35 20.32) (end 36.83 20.32) (layer F.Fab) (width 0.1))
  (fp_line (start 36.83 20.32) (end 36.83 -2.54) (layer F.Fab) (width 0.1))
  (fp_line (start 36.83 -2.54) (end -6.35 -2.54) (layer F.Fab) (width 0.1))
  (fp_line (start -6.35 0) (end -6.35 17.78) (layer F.Fab) (width 0.1))
  (fp_line (start -6.35 17.78) (end 36.83 17.78) (layer F.Fab) (width 0.1))
  (fp_line (start 36.83 17.78) (end 36.83 0) (layer F.Fab) (width 0.1))
  (fp_line (start 36.83 0) (end -6.35 0) (layer F.Fab) (width 0.1))
  (fp_line (start -6.35 0) (end -4.191 17.78) (layer F.Fab) (width 0.1))
  (fp_line (start -2.032 0) (end 0.127 17.78) (layer F.Fab) (width 0.1))
  (fp_line (start 2.286 0) (end 4.445 17.78) (layer F.Fab) (width 0.1))
  (fp_line (start 6.604 0) (end 8.763 17.78) (layer F.Fab) (width 0.1))
  (fp_line (start 10.922 0) (end 13.081 17.78) (layer F.Fab) (width 0.1))
  (fp_line (start 15.24 0) (end 17.399 17.78) (layer F.Fab) (width 0.1))
  (fp_line (start 19.558 0) (end 21.717 17.78) (layer F.Fab) (width 0.1))
  (fp_line (start 23.876 0) (end 26.035 17.78) (layer F.Fab) (width 0.1))
  (fp_line (start 28.194 0) (end 30.353 17.78) (layer F.Fab) (width 0.1))
  (fp_line (start 32.512 0) (end 34.671 17.78) (layer F.Fab) (width 0.1))
  (fp_line (start -6.47 -2.66) (end 36.95 -2.66) (layer F.SilkS) (width 0.12))
  (fp_line (start -6.47 20.44) (end 36.95 20.44) (layer F.SilkS) (width 0.12))
  (fp_line (start -6.47 -2.66) (end -6.47 20.44) (layer F.SilkS) (width 0.12))
  (fp_line (start 36.95 -2.66) (end 36.95 20.44) (layer F.SilkS) (width 0.12))
  (fp_line (start -6.61 -2.8) (end -6.61 20.57) (layer F.CrtYd) (width 0.05))
  (fp_line (start -6.61 20.57) (end 37.08 20.57) (layer F.CrtYd) (width 0.05))
  (fp_line (start 37.08 20.57) (end 37.08 -2.8) (layer F.CrtYd) (width 0.05))
  (fp_line (start 37.08 -2.8) (end -6.61 -2.8) (layer F.CrtYd) (width 0.05))
  (pad 1 thru_hole rect (at 0 0) (size 4.4 4.4) (drill 2.2) (layers *.Cu *.Mask))
  (pad 4 thru_hole circle (at 30.48 0) (size 4.4 4.4) (drill 2.2) (layers *.Cu *.Mask))
  (pad 3 thru_hole circle (at 30.48 17.78) (size 4.4 4.4) (drill 2.2) (layers *.Cu *.Mask))
  (pad 2 thru_hole circle (at 0 17.78) (size 4.4 4.4) (drill 2.2) (layers *.Cu *.Mask))
  (fp_text user %R (at 8.89 0) (layer F.Fab)
    (effects (font (size 1 1) (thickness 0.15)))
  )
  (model ${KIPRJMOD}/kicad_libs_k/models_k.3d/Inductor_THT_k.3dshapes/L_CommonMode_Toroid_Vertical_L43.2mm_W22.9mm_Px17.78mm_Py30.48mm_Bourns_8100_k.wrl
    (at (xyz 0 0 0))
    (scale (xyz 1 1 1))
    (rotate (xyz 0 0 0))
  )
)