(module L_Radial_L10.2mm_W10.2mm_Px7.62mm_Py7.62mm_Pulse_LP-30 (layer F.Cu) (tedit 5AE59B06)
  (descr "Inductor, Radial series, Radial, pin pitch=7.62*7.62mm^2, , length*width=10.16*10.16mm^2, Pulse, LP-30, http://datasheet.octopart.com/PE-54044NL-Pulse-datasheet-5313493.pdf")
  (tags "Inductor Radial series Radial pin pitch 7.62*7.62mm^2  length 10.16mm width 10.16mm Pulse LP-30")
  (fp_text reference REF** (at 3.81 -10.14) (layer F.SilkS)
    (effects (font (size 1 1) (thickness 0.15)))
  )
  (fp_text value L_Radial_L10.2mm_W10.2mm_Px7.62mm_Py7.62mm_Pulse_LP-30 (at 3.81 2.52) (layer F.Fab)
    (effects (font (size 1 1) (thickness 0.15)))
  )
  (fp_line (start -1.27 -8.89) (end -1.27 1.27) (layer F.Fab) (width 0.1))
  (fp_line (start -1.27 1.27) (end 8.89 1.27) (layer F.Fab) (width 0.1))
  (fp_line (start 8.89 1.27) (end 8.89 -8.89) (layer F.Fab) (width 0.1))
  (fp_line (start 8.89 -8.89) (end -1.27 -8.89) (layer F.Fab) (width 0.1))
  (fp_line (start -1.39 -9.01) (end 9.01 -9.01) (layer F.SilkS) (width 0.12))
  (fp_line (start -1.39 1.39) (end 9.01 1.39) (layer F.SilkS) (width 0.12))
  (fp_line (start -1.39 -9.01) (end -1.39 1.39) (layer F.SilkS) (width 0.12))
  (fp_line (start 9.01 -9.01) (end 9.01 1.39) (layer F.SilkS) (width 0.12))
  (fp_line (start -1.52 -9.14) (end -1.52 1.52) (layer F.CrtYd) (width 0.05))
  (fp_line (start -1.52 1.52) (end 9.14 1.52) (layer F.CrtYd) (width 0.05))
  (fp_line (start 9.14 1.52) (end 9.14 -9.14) (layer F.CrtYd) (width 0.05))
  (fp_line (start 9.14 -9.14) (end -1.52 -9.14) (layer F.CrtYd) (width 0.05))
  (pad 1 thru_hole circle (at 0 0) (size 2 2) (drill 1) (layers *.Cu *.Mask))
  (pad 2 thru_hole circle (at 7.62 -7.62) (size 2 2) (drill 1) (layers *.Cu *.Mask))
  (fp_text user %R (at 3.81 0) (layer F.Fab)
    (effects (font (size 1 1) (thickness 0.15)))
  )
  (model ${KIPRJMOD}/kicad_libs_k/models_k.3d/Inductor_THT_k.3dshapes/L_Radial_L10.2mm_W10.2mm_Px7.62mm_Py7.62mm_Pulse_LP-30_k.wrl
    (at (xyz 0 0 0))
    (scale (xyz 1 1 1))
    (rotate (xyz 0 0 0))
  )
)