(module L_Radial_D27.9mm_P20.07mm_Vishay_IHB-3 (layer F.Cu) (tedit 5AE59B06)
  (descr "Inductor, Radial series, Radial, pin pitch=20.07mm, , diameter=27.9mm, Vishay, IHB-3, http://www.vishay.com/docs/34015/ihb.pdf")
  (tags "Inductor Radial series Radial pin pitch 20.07mm  diameter 27.9mm Vishay IHB-3")
  (fp_text reference REF** (at 10.035 -15.2) (layer F.SilkS)
    (effects (font (size 1 1) (thickness 0.15)))
  )
  (fp_text value L_Radial_D27.9mm_P20.07mm_Vishay_IHB-3 (at 10.035 15.2) (layer F.Fab)
    (effects (font (size 1 1) (thickness 0.15)))
  )
  (fp_circle (center 10.035 0) (end 23.985 0) (layer F.Fab) (width 0.1))
  (fp_circle (center 10.035 0) (end 11.495 0) (layer F.Fab) (width 0.1))
  (fp_circle (center 10.035 0) (end 24.105 0) (layer F.SilkS) (width 0.12))
  (fp_circle (center 10.035 0) (end 11.375 0) (layer F.SilkS) (width 0.12))
  (fp_line (start -4.17 -14.2) (end -4.17 14.2) (layer F.CrtYd) (width 0.05))
  (fp_line (start -4.17 14.2) (end 24.24 14.2) (layer F.CrtYd) (width 0.05))
  (fp_line (start 24.24 14.2) (end 24.24 -14.2) (layer F.CrtYd) (width 0.05))
  (fp_line (start 24.24 -14.2) (end -4.17 -14.2) (layer F.CrtYd) (width 0.05))
  (pad 1 thru_hole circle (at 0 0) (size 4.2 4.2) (drill 2.1) (layers *.Cu *.Mask))
  (pad 2 thru_hole circle (at 20.07 0) (size 4.2 4.2) (drill 2.1) (layers *.Cu *.Mask))
  (fp_text user %R (at 10.035 0) (layer F.Fab)
    (effects (font (size 1 1) (thickness 0.15)))
  )
  (model ${KIPRJMOD}/kicad_libs_k/models_k.3d/Inductor_THT_k.3dshapes/L_Radial_D27.9mm_P20.07mm_Vishay_IHB-3_k.wrl
    (at (xyz 0 0 0))
    (scale (xyz 1 1 1))
    (rotate (xyz 0 0 0))
  )
)