(module L_Radial_L12.6mm_W12.6mm_Px9.52mm_Py9.52mm_Pulse_LP-37 (layer F.Cu) (tedit 5AE59B06)
  (descr "Inductor, Radial series, Radial, pin pitch=9.52*9.52mm^2, , length*width=12.57*12.57mm^2, Pulse, LP-37, http://datasheet.octopart.com/PE-54044NL-Pulse-datasheet-5313493.pdf")
  (tags "Inductor Radial series Radial pin pitch 9.52*9.52mm^2  length 12.57mm width 12.57mm Pulse LP-37")
  (fp_text reference REF** (at 4.76 -12.295) (layer F.SilkS)
    (effects (font (size 1 1) (thickness 0.15)))
  )
  (fp_text value L_Radial_L12.6mm_W12.6mm_Px9.52mm_Py9.52mm_Pulse_LP-37 (at 4.76 2.775) (layer F.Fab)
    (effects (font (size 1 1) (thickness 0.15)))
  )
  (fp_line (start -1.525 -11.045) (end -1.525 1.525) (layer F.Fab) (width 0.1))
  (fp_line (start -1.525 1.525) (end 11.045 1.525) (layer F.Fab) (width 0.1))
  (fp_line (start 11.045 1.525) (end 11.045 -11.045) (layer F.Fab) (width 0.1))
  (fp_line (start 11.045 -11.045) (end -1.525 -11.045) (layer F.Fab) (width 0.1))
  (fp_line (start -1.645 -11.165) (end 11.165 -11.165) (layer F.SilkS) (width 0.12))
  (fp_line (start -1.645 1.645) (end 11.165 1.645) (layer F.SilkS) (width 0.12))
  (fp_line (start -1.645 -11.165) (end -1.645 1.645) (layer F.SilkS) (width 0.12))
  (fp_line (start 11.165 -11.165) (end 11.165 1.645) (layer F.SilkS) (width 0.12))
  (fp_line (start -1.78 -11.3) (end -1.78 1.78) (layer F.CrtYd) (width 0.05))
  (fp_line (start -1.78 1.78) (end 11.3 1.78) (layer F.CrtYd) (width 0.05))
  (fp_line (start 11.3 1.78) (end 11.3 -11.3) (layer F.CrtYd) (width 0.05))
  (fp_line (start 11.3 -11.3) (end -1.78 -11.3) (layer F.CrtYd) (width 0.05))
  (pad 1 thru_hole circle (at 0 0) (size 2 2) (drill 1) (layers *.Cu *.Mask))
  (pad 2 thru_hole circle (at 9.52 -9.52) (size 2 2) (drill 1) (layers *.Cu *.Mask))
  (fp_text user %R (at 4.76 0) (layer F.Fab)
    (effects (font (size 1 1) (thickness 0.15)))
  )
  (model ${KIPRJMOD}/kicad_libs_k/models_k.3d/Inductor_THT_k.3dshapes/L_Radial_L12.6mm_W12.6mm_Px9.52mm_Py9.52mm_Pulse_LP-37_k.wrl
    (at (xyz 0 0 0))
    (scale (xyz 1 1 1))
    (rotate (xyz 0 0 0))
  )
)