(module L_Radial_D29.8mm_P28.50mm_muRATA_1400series (layer F.Cu) (tedit 5AE59B06)
  (descr "Inductor, Radial series, Radial, pin pitch=28.50mm, , diameter=29.8mm, muRATA, 1400series, http://www.murata-ps.com/data/magnetics/kmp_1400.pdf")
  (tags "Inductor Radial series Radial pin pitch 28.50mm  diameter 29.8mm muRATA 1400series")
  (fp_text reference REF** (at 14.25 -16.15) (layer F.SilkS)
    (effects (font (size 1 1) (thickness 0.15)))
  )
  (fp_text value L_Radial_D29.8mm_P28.50mm_muRATA_1400series (at 14.25 16.15) (layer F.Fab)
    (effects (font (size 1 1) (thickness 0.15)))
  )
  (fp_arc (start 14.25 0) (end -0.717057 -1.26) (angle 170.375816) (layer F.SilkS) (width 0.12))
  (fp_arc (start 14.25 0) (end -0.717057 1.26) (angle -170.375816) (layer F.SilkS) (width 0.12))
  (fp_circle (center 14.25 0) (end 29.15 0) (layer F.Fab) (width 0.1))
  (fp_circle (center 14.25 0) (end 16.8 0) (layer F.Fab) (width 0.1))
  (fp_circle (center 14.25 0) (end 16.68 0) (layer F.SilkS) (width 0.12))
  (fp_line (start -1.25 -15.15) (end -1.25 15.15) (layer F.CrtYd) (width 0.05))
  (fp_line (start -1.25 15.15) (end 29.75 15.15) (layer F.CrtYd) (width 0.05))
  (fp_line (start 29.75 15.15) (end 29.75 -15.15) (layer F.CrtYd) (width 0.05))
  (fp_line (start 29.75 -15.15) (end -1.25 -15.15) (layer F.CrtYd) (width 0.05))
  (pad 1 thru_hole circle (at 0 0) (size 2 2) (drill 1) (layers *.Cu *.Mask))
  (pad 2 thru_hole circle (at 28.5 0) (size 2 2) (drill 1) (layers *.Cu *.Mask))
  (fp_text user %R (at 14.25 0) (layer F.Fab)
    (effects (font (size 1 1) (thickness 0.15)))
  )
  (model ${KIPRJMOD}/kicad_libs_k/models_k.3d/Inductor_THT_k.3dshapes/L_Radial_D29.8mm_P28.50mm_muRATA_1400series_k.wrl
    (at (xyz 0 0 0))
    (scale (xyz 1 1 1))
    (rotate (xyz 0 0 0))
  )
)