(module L_Radial_D7.2mm_P3.00mm_MuRATA_1700 (layer F.Cu) (tedit 5AE59B06)
  (descr "Inductor, Radial series, Radial, pin pitch=3.00mm, , diameter=7.2mm, MuRATA, 1700, http://www.murata-ps.com/data/magnetics/kmp_1700.pdf")
  (tags "Inductor Radial series Radial pin pitch 3.00mm  diameter 7.2mm MuRATA 1700")
  (fp_text reference REF** (at 1.5 -4.85) (layer F.SilkS)
    (effects (font (size 1 1) (thickness 0.15)))
  )
  (fp_text value L_Radial_D7.2mm_P3.00mm_MuRATA_1700 (at 1.5 4.85) (layer F.Fab)
    (effects (font (size 1 1) (thickness 0.15)))
  )
  (fp_circle (center 1.5 0) (end 5.1 0) (layer F.Fab) (width 0.1))
  (fp_circle (center 1.5 0) (end 5.22 0) (layer F.SilkS) (width 0.12))
  (fp_circle (center 1.5 0) (end 5.35 0) (layer F.CrtYd) (width 0.05))
  (pad 1 thru_hole circle (at 0 0) (size 2.4 2.4) (drill 1.2) (layers *.Cu *.Mask))
  (pad 2 thru_hole circle (at 3 0) (size 2.4 2.4) (drill 1.2) (layers *.Cu *.Mask))
  (fp_text user %R (at 1.5 0) (layer F.Fab)
    (effects (font (size 1 1) (thickness 0.15)))
  )
  (model ${KIPRJMOD}/kicad_libs_k/models_k.3d/Inductor_THT_k.3dshapes/L_Radial_D7.2mm_P3.00mm_MuRATA_1700_k.wrl
    (at (xyz 0 0 0))
    (scale (xyz 1 1 1))
    (rotate (xyz 0 0 0))
  )
)