(module L_Radial_D29.8mm_P28.80mm_muRATA_1400series (layer F.Cu) (tedit 5AE59B06)
  (descr "Inductor, Radial series, Radial, pin pitch=28.80mm, , diameter=29.8mm, muRATA, 1400series, http://www.murata-ps.com/data/magnetics/kmp_1400.pdf")
  (tags "Inductor Radial series Radial pin pitch 28.80mm  diameter 29.8mm muRATA 1400series")
  (fp_text reference REF** (at 14.4 -16.15) (layer F.SilkS)
    (effects (font (size 1 1) (thickness 0.15)))
  )
  (fp_text value L_Radial_D29.8mm_P28.80mm_muRATA_1400series (at 14.4 16.15) (layer F.Fab)
    (effects (font (size 1 1) (thickness 0.15)))
  )
  (fp_arc (start 14.4 0) (end -0.516528 -1.76) (angle 166.541575) (layer F.SilkS) (width 0.12))
  (fp_arc (start 14.4 0) (end -0.516528 1.76) (angle -166.541575) (layer F.SilkS) (width 0.12))
  (fp_circle (center 14.4 0) (end 29.3 0) (layer F.Fab) (width 0.1))
  (fp_circle (center 14.4 0) (end 16.95 0) (layer F.Fab) (width 0.1))
  (fp_circle (center 14.4 0) (end 16.83 0) (layer F.SilkS) (width 0.12))
  (fp_line (start -1.75 -15.15) (end -1.75 15.15) (layer F.CrtYd) (width 0.05))
  (fp_line (start -1.75 15.15) (end 30.55 15.15) (layer F.CrtYd) (width 0.05))
  (fp_line (start 30.55 15.15) (end 30.55 -15.15) (layer F.CrtYd) (width 0.05))
  (fp_line (start 30.55 -15.15) (end -1.75 -15.15) (layer F.CrtYd) (width 0.05))
  (pad 1 thru_hole circle (at 0 0) (size 3 3) (drill 1.5) (layers *.Cu *.Mask))
  (pad 2 thru_hole circle (at 28.8 0) (size 3 3) (drill 1.5) (layers *.Cu *.Mask))
  (fp_text user %R (at 14.4 0) (layer F.Fab)
    (effects (font (size 1 1) (thickness 0.15)))
  )
  (model ${KIPRJMOD}/kicad_libs_k/models_k.3d/Inductor_THT_k.3dshapes/L_Radial_D29.8mm_P28.80mm_muRATA_1400series_k.wrl
    (at (xyz 0 0 0))
    (scale (xyz 1 1 1))
    (rotate (xyz 0 0 0))
  )
)