(module L_Radial_D28.0mm_P29.20mm (layer F.Cu) (tedit 5AE59B06)
  (descr "Inductor, Radial series, Radial, pin pitch=29.20mm, , diameter=28mm")
  (tags "Inductor Radial series Radial pin pitch 29.20mm  diameter 28mm")
  (fp_text reference REF** (at 14.6 -15.25) (layer F.SilkS)
    (effects (font (size 1 1) (thickness 0.15)))
  )
  (fp_text value L_Radial_D28.0mm_P29.20mm (at 14.6 15.25) (layer F.Fab)
    (effects (font (size 1 1) (thickness 0.15)))
  )
  (fp_arc (start 14.6 0) (end 0.590118 -1.76) (angle 165.679386) (layer F.SilkS) (width 0.12))
  (fp_arc (start 14.6 0) (end 0.590118 1.76) (angle -165.679386) (layer F.SilkS) (width 0.12))
  (fp_circle (center 14.6 0) (end 28.6 0) (layer F.Fab) (width 0.1))
  (fp_circle (center 14.6 0) (end 31.09 0) (layer F.CrtYd) (width 0.05))
  (pad 1 thru_hole circle (at 0 0) (size 3 3) (drill 1.5) (layers *.Cu *.Mask))
  (pad 2 thru_hole circle (at 29.2 0) (size 3 3) (drill 1.5) (layers *.Cu *.Mask))
  (fp_text user %R (at 14.6 0) (layer F.Fab)
    (effects (font (size 1 1) (thickness 0.15)))
  )
  (model ${KIPRJMOD}/kicad_libs_k/models_k.3d/Inductor_THT_k.3dshapes/L_Radial_D28.0mm_P29.20mm_k.wrl
    (at (xyz 0 0 0))
    (scale (xyz 1 1 1))
    (rotate (xyz 0 0 0))
  )
)