(module L_Radial_D16.8mm_P12.07mm_Vishay_IHB-1 (layer F.Cu) (tedit 5AE59B06)
  (descr "Inductor, Radial series, Radial, pin pitch=12.07mm, , diameter=16.8mm, Vishay, IHB-1, http://www.vishay.com/docs/34015/ihb.pdf")
  (tags "Inductor Radial series Radial pin pitch 12.07mm  diameter 16.8mm Vishay IHB-1")
  (fp_text reference REF** (at 6.035 -9.65) (layer F.SilkS)
    (effects (font (size 1 1) (thickness 0.15)))
  )
  (fp_text value L_Radial_D16.8mm_P12.07mm_Vishay_IHB-1 (at 6.035 9.65) (layer F.Fab)
    (effects (font (size 1 1) (thickness 0.15)))
  )
  (fp_circle (center 6.035 0) (end 14.435 0) (layer F.Fab) (width 0.1))
  (fp_circle (center 6.035 0) (end 7.495 0) (layer F.Fab) (width 0.1))
  (fp_circle (center 6.035 0) (end 14.555 0) (layer F.SilkS) (width 0.12))
  (fp_circle (center 6.035 0) (end 7.375 0) (layer F.SilkS) (width 0.12))
  (fp_line (start -2.62 -8.65) (end -2.62 8.65) (layer F.CrtYd) (width 0.05))
  (fp_line (start -2.62 8.65) (end 14.69 8.65) (layer F.CrtYd) (width 0.05))
  (fp_line (start 14.69 8.65) (end 14.69 -8.65) (layer F.CrtYd) (width 0.05))
  (fp_line (start 14.69 -8.65) (end -2.62 -8.65) (layer F.CrtYd) (width 0.05))
  (pad 1 thru_hole circle (at 0 0) (size 2 2) (drill 1) (layers *.Cu *.Mask))
  (pad 2 thru_hole circle (at 12.07 0) (size 2 2) (drill 1) (layers *.Cu *.Mask))
  (fp_text user %R (at 6.035 0) (layer F.Fab)
    (effects (font (size 1 1) (thickness 0.15)))
  )
  (model ${KIPRJMOD}/kicad_libs_k/models_k.3d/Inductor_THT_k.3dshapes/L_Radial_D16.8mm_P12.07mm_Vishay_IHB-1_k.wrl
    (at (xyz 0 0 0))
    (scale (xyz 1 1 1))
    (rotate (xyz 0 0 0))
  )
)