(module L_Toroid_Horizontal_D25.4mm_P22.90mm_Vishay_TJ5_BigPads (layer F.Cu) (tedit 5AE59B06)
  (descr "L_Toroid, Horizontal series, Radial, pin pitch=22.90mm, , diameter=25.4mm, Vishay, TJ5, BigPads, http://www.vishay.com/docs/34079/tj.pdf")
  (tags "L_Toroid Horizontal series Radial pin pitch 22.90mm  diameter 25.4mm Vishay TJ5 BigPads")
  (fp_text reference REF** (at 11.45 -13.95) (layer F.SilkS)
    (effects (font (size 1 1) (thickness 0.15)))
  )
  (fp_text value L_Toroid_Horizontal_D25.4mm_P22.90mm_Vishay_TJ5_BigPads (at 11.45 13.95) (layer F.Fab)
    (effects (font (size 1 1) (thickness 0.15)))
  )
  (fp_arc (start 11.45 0) (end -1.248614 -1.76) (angle 164.218401) (layer F.SilkS) (width 0.12))
  (fp_arc (start 11.45 0) (end -1.248614 1.76) (angle -164.218401) (layer F.SilkS) (width 0.12))
  (fp_circle (center 11.45 0) (end 24.15 0) (layer F.Fab) (width 0.1))
  (fp_circle (center 11.45 0) (end 15.683333 0) (layer F.Fab) (width 0.1))
  (fp_circle (center 11.45 0) (end 15.563333 0) (layer F.SilkS) (width 0.12))
  (fp_line (start 24.0136 0) (end 15.502647 1.08587) (layer F.Fab) (width 0.1))
  (fp_line (start 22.330494 6.281632) (end 14.416806 2.966668) (layer F.Fab) (width 0.1))
  (fp_line (start 17.732136 10.880203) (end 12.536058 4.052596) (layer F.Fab) (width 0.1))
  (fp_line (start 11.450582 12.5636) (end 10.364318 4.052697) (layer F.Fab) (width 0.1))
  (fp_line (start 5.168872 10.880785) (end 8.483469 2.966943) (layer F.Fab) (width 0.1))
  (fp_line (start 0.570088 6.28264) (end 7.397454 1.086245) (layer F.Fab) (width 0.1))
  (fp_line (start -1.1136 0.001164) (end 7.397253 -1.085494) (layer F.Fab) (width 0.1))
  (fp_line (start 0.568924 -6.280624) (end 8.482919 -2.966394) (layer F.Fab) (width 0.1))
  (fp_line (start 5.166856 -10.879621) (end 10.363567 -4.052496) (layer F.Fab) (width 0.1))
  (fp_line (start 11.448254 -12.5636) (end 12.535307 -4.052798) (layer F.Fab) (width 0.1))
  (fp_line (start 17.73012 -10.881367) (end 14.416256 -2.967218) (layer F.Fab) (width 0.1))
  (fp_line (start 22.32933 -6.283648) (end 15.502445 -1.086621) (layer F.Fab) (width 0.1))
  (fp_line (start 24.0136 -0.002328) (end 15.502848 1.085119) (layer F.Fab) (width 0.1))
  (fp_line (start -1.75 -12.95) (end -1.75 12.95) (layer F.CrtYd) (width 0.05))
  (fp_line (start -1.75 12.95) (end 24.65 12.95) (layer F.CrtYd) (width 0.05))
  (fp_line (start 24.65 12.95) (end 24.65 -12.95) (layer F.CrtYd) (width 0.05))
  (fp_line (start 24.65 -12.95) (end -1.75 -12.95) (layer F.CrtYd) (width 0.05))
  (pad 1 thru_hole circle (at 0 0) (size 3 3) (drill 1.5) (layers *.Cu *.Mask))
  (pad 2 thru_hole circle (at 22.9 0) (size 3 3) (drill 1.5) (layers *.Cu *.Mask))
  (fp_text user %R (at 11.45 0) (layer F.Fab)
    (effects (font (size 1 1) (thickness 0.15)))
  )
  (model ${KIPRJMOD}/kicad_libs_k/models_k.3d/Inductor_THT_k.3dshapes/L_Toroid_Horizontal_D25.4mm_P22.90mm_Vishay_TJ5_BigPads_k.wrl
    (at (xyz 0 0 0))
    (scale (xyz 1 1 1))
    (rotate (xyz 0 0 0))
  )
)