(module L_Toroid_Vertical_L25.4mm_W14.7mm_P12.20mm_Vishay_TJ5 (layer F.Cu) (tedit 5AE59B06)
  (descr "L_Toroid, Vertical series, Radial, pin pitch=12.20mm, , length*width=25.4*14.7mm^2, Vishay, TJ5, http://www.vishay.com/docs/34079/tj.pdf")
  (tags "L_Toroid Vertical series Radial pin pitch 12.20mm  length 25.4mm width 14.7mm Vishay TJ5")
  (fp_text reference REF** (at 0 -2.5) (layer F.SilkS)
    (effects (font (size 1 1) (thickness 0.15)))
  )
  (fp_text value L_Toroid_Vertical_L25.4mm_W14.7mm_P12.20mm_Vishay_TJ5 (at 0 14.7) (layer F.Fab)
    (effects (font (size 1 1) (thickness 0.15)))
  )
  (fp_line (start -12.7 -1.25) (end -12.7 13.45) (layer F.Fab) (width 0.1))
  (fp_line (start -12.7 13.45) (end 12.7 13.45) (layer F.Fab) (width 0.1))
  (fp_line (start 12.7 13.45) (end 12.7 -1.25) (layer F.Fab) (width 0.1))
  (fp_line (start 12.7 -1.25) (end -12.7 -1.25) (layer F.Fab) (width 0.1))
  (fp_line (start -12.7 -1.25) (end -11.43 13.45) (layer F.Fab) (width 0.1))
  (fp_line (start -10.16 -1.25) (end -8.89 13.45) (layer F.Fab) (width 0.1))
  (fp_line (start -7.62 -1.25) (end -6.35 13.45) (layer F.Fab) (width 0.1))
  (fp_line (start -5.08 -1.25) (end -3.81 13.45) (layer F.Fab) (width 0.1))
  (fp_line (start -2.54 -1.25) (end -1.27 13.45) (layer F.Fab) (width 0.1))
  (fp_line (start 0 -1.25) (end 1.27 13.45) (layer F.Fab) (width 0.1))
  (fp_line (start 2.54 -1.25) (end 3.81 13.45) (layer F.Fab) (width 0.1))
  (fp_line (start 5.08 -1.25) (end 6.35 13.45) (layer F.Fab) (width 0.1))
  (fp_line (start 7.62 -1.25) (end 8.89 13.45) (layer F.Fab) (width 0.1))
  (fp_line (start 10.16 -1.25) (end 11.43 13.45) (layer F.Fab) (width 0.1))
  (fp_line (start -12.82 -1.37) (end -0.517 -1.37) (layer F.SilkS) (width 0.12))
  (fp_line (start 0.517 -1.37) (end 12.82 -1.37) (layer F.SilkS) (width 0.12))
  (fp_line (start -12.82 13.57) (end -0.517 13.57) (layer F.SilkS) (width 0.12))
  (fp_line (start 0.517 13.57) (end 12.82 13.57) (layer F.SilkS) (width 0.12))
  (fp_line (start -12.82 -1.37) (end -12.82 13.57) (layer F.SilkS) (width 0.12))
  (fp_line (start 12.82 -1.37) (end 12.82 13.57) (layer F.SilkS) (width 0.12))
  (fp_line (start -12.95 -1.5) (end -12.95 13.7) (layer F.CrtYd) (width 0.05))
  (fp_line (start -12.95 13.7) (end 12.95 13.7) (layer F.CrtYd) (width 0.05))
  (fp_line (start 12.95 13.7) (end 12.95 -1.5) (layer F.CrtYd) (width 0.05))
  (fp_line (start 12.95 -1.5) (end -12.95 -1.5) (layer F.CrtYd) (width 0.05))
  (pad 1 thru_hole circle (at 0 0) (size 2.4 2.4) (drill 1.2) (layers *.Cu *.Mask))
  (pad 2 thru_hole circle (at 0 12.2) (size 2.4 2.4) (drill 1.2) (layers *.Cu *.Mask))
  (fp_text user %R (at 6.1 0) (layer F.Fab)
    (effects (font (size 1 1) (thickness 0.15)))
  )
  (model ${KIPRJMOD}/kicad_libs_k/models_k.3d/Inductor_THT_k.3dshapes/L_Toroid_Vertical_L25.4mm_W14.7mm_P12.20mm_Vishay_TJ5_k.wrl
    (at (xyz 0 0 0))
    (scale (xyz 1 1 1))
    (rotate (xyz 0 0 0))
  )
)