(module L_Toroid_Vertical_L24.6mm_W15.5mm_P11.44mm_Pulse_KM-4 (layer F.Cu) (tedit 5AE59B06)
  (descr "L_Toroid, Vertical series, Radial, pin pitch=11.44mm, , length*width=24.64*15.5mm^2, Pulse, KM-4, http://datasheet.octopart.com/PE-92112KNL-Pulse-datasheet-17853305.pdf")
  (tags "L_Toroid Vertical series Radial pin pitch 11.44mm  length 24.64mm width 15.5mm Pulse KM-4")
  (fp_text reference REF** (at 0 -3.28) (layer F.SilkS)
    (effects (font (size 1 1) (thickness 0.15)))
  )
  (fp_text value L_Toroid_Vertical_L24.6mm_W15.5mm_P11.44mm_Pulse_KM-4 (at 0 14.72) (layer F.Fab)
    (effects (font (size 1 1) (thickness 0.15)))
  )
  (fp_line (start -12.32 -2.03) (end -12.32 13.47) (layer F.Fab) (width 0.1))
  (fp_line (start -12.32 13.47) (end 12.32 13.47) (layer F.Fab) (width 0.1))
  (fp_line (start 12.32 13.47) (end 12.32 -2.03) (layer F.Fab) (width 0.1))
  (fp_line (start 12.32 -2.03) (end -12.32 -2.03) (layer F.Fab) (width 0.1))
  (fp_line (start -9.856 0) (end -9.856 11.44) (layer F.Fab) (width 0.1))
  (fp_line (start -9.856 11.44) (end 9.856 11.44) (layer F.Fab) (width 0.1))
  (fp_line (start 9.856 11.44) (end 9.856 0) (layer F.Fab) (width 0.1))
  (fp_line (start 9.856 0) (end -9.856 0) (layer F.Fab) (width 0.1))
  (fp_line (start -9.856 0) (end -8.8704 11.44) (layer F.Fab) (width 0.1))
  (fp_line (start -7.8848 0) (end -6.8992 11.44) (layer F.Fab) (width 0.1))
  (fp_line (start -5.9136 0) (end -4.928 11.44) (layer F.Fab) (width 0.1))
  (fp_line (start -3.9424 0) (end -2.9568 11.44) (layer F.Fab) (width 0.1))
  (fp_line (start -1.9712 0) (end -0.9856 11.44) (layer F.Fab) (width 0.1))
  (fp_line (start 0 0) (end 0.9856 11.44) (layer F.Fab) (width 0.1))
  (fp_line (start 1.9712 0) (end 2.9568 11.44) (layer F.Fab) (width 0.1))
  (fp_line (start 3.9424 0) (end 4.928 11.44) (layer F.Fab) (width 0.1))
  (fp_line (start 5.9136 0) (end 6.8992 11.44) (layer F.Fab) (width 0.1))
  (fp_line (start 7.8848 0) (end 8.8704 11.44) (layer F.Fab) (width 0.1))
  (fp_line (start -12.44 -2.15) (end -0.016 -2.15) (layer F.SilkS) (width 0.12))
  (fp_line (start 0.016 -2.15) (end 12.44 -2.15) (layer F.SilkS) (width 0.12))
  (fp_line (start -12.44 13.59) (end -0.016 13.59) (layer F.SilkS) (width 0.12))
  (fp_line (start 0.016 13.59) (end 12.44 13.59) (layer F.SilkS) (width 0.12))
  (fp_line (start -12.44 -2.15) (end -12.44 13.59) (layer F.SilkS) (width 0.12))
  (fp_line (start 12.44 -2.15) (end 12.44 13.59) (layer F.SilkS) (width 0.12))
  (fp_line (start -12.57 -2.29) (end -12.57 13.72) (layer F.CrtYd) (width 0.05))
  (fp_line (start -12.57 13.72) (end 12.57 13.72) (layer F.CrtYd) (width 0.05))
  (fp_line (start 12.57 13.72) (end 12.57 -2.29) (layer F.CrtYd) (width 0.05))
  (fp_line (start 12.57 -2.29) (end -12.57 -2.29) (layer F.CrtYd) (width 0.05))
  (pad 1 thru_hole circle (at 0 0) (size 3.6 3.6) (drill 1.8) (layers *.Cu *.Mask))
  (pad 2 thru_hole circle (at 0 11.44) (size 3.6 3.6) (drill 1.8) (layers *.Cu *.Mask))
  (fp_text user %R (at 5.72 0) (layer F.Fab)
    (effects (font (size 1 1) (thickness 0.15)))
  )
  (model ${KIPRJMOD}/kicad_libs_k/models_k.3d/Inductor_THT_k.3dshapes/L_Toroid_Vertical_L24.6mm_W15.5mm_P11.44mm_Pulse_KM-4_k.wrl
    (at (xyz 0 0 0))
    (scale (xyz 1 1 1))
    (rotate (xyz 0 0 0))
  )
)