(module L_Toroid_Horizontal_D7.8mm_P13.00mm_Diameter9-5mm_Amidon-T30 (layer F.Cu) (tedit 5AE59B06)
  (descr "L_Toroid, Horizontal series, Radial, pin pitch=13.00mm, , diameter=7.7978mm, Diameter9-5mm, Amidon-T30")
  (tags "L_Toroid Horizontal series Radial pin pitch 13.00mm  diameter 7.7978mm Diameter9-5mm Amidon-T30")
  (fp_text reference REF** (at 6.5 -5.1489) (layer F.SilkS)
    (effects (font (size 1 1) (thickness 0.15)))
  )
  (fp_text value L_Toroid_Horizontal_D7.8mm_P13.00mm_Diameter9-5mm_Amidon-T30 (at 6.5 5.1489) (layer F.Fab)
    (effects (font (size 1 1) (thickness 0.15)))
  )
  (fp_arc (start 6.5 0) (end 2.755677 -1.46) (angle 137.396033) (layer F.SilkS) (width 0.12))
  (fp_arc (start 6.5 0) (end 2.755677 1.46) (angle -137.396033) (layer F.SilkS) (width 0.12))
  (fp_circle (center 6.5 0) (end 10.3989 0) (layer F.Fab) (width 0.1))
  (fp_circle (center 6.5 0) (end 8.4177 0) (layer F.Fab) (width 0.1))
  (fp_circle (center 6.5 0) (end 8.2977 0) (layer F.SilkS) (width 0.12))
  (fp_line (start 10.438522 0) (end 8.271177 0.474571) (layer F.Fab) (width 0.1))
  (fp_line (start 9.910891 1.969208) (end 7.796619 1.296559) (layer F.Fab) (width 0.1))
  (fp_line (start 8.469366 3.410799) (end 6.974653 1.771155) (layer F.Fab) (width 0.1))
  (fp_line (start 6.500182 3.938522) (end 6.025511 1.771199) (layer F.Fab) (width 0.1))
  (fp_line (start 4.53095 3.410982) (end 5.203501 1.296679) (layer F.Fab) (width 0.1))
  (fp_line (start 3.089292 1.969524) (end 4.728867 0.474735) (layer F.Fab) (width 0.1))
  (fp_line (start 2.561478 0.000365) (end 4.728779 -0.474407) (layer F.Fab) (width 0.1))
  (fp_line (start 3.088927 -1.968892) (end 5.203261 -1.296439) (layer F.Fab) (width 0.1))
  (fp_line (start 4.530318 -3.410617) (end 6.025183 -1.771111) (layer F.Fab) (width 0.1))
  (fp_line (start 6.499453 -3.938522) (end 6.974325 -1.771243) (layer F.Fab) (width 0.1))
  (fp_line (start 8.468734 -3.411164) (end 7.796379 -1.296799) (layer F.Fab) (width 0.1))
  (fp_line (start 9.910526 -1.96984) (end 8.271089 -0.474899) (layer F.Fab) (width 0.1))
  (fp_line (start 10.438522 -0.00073) (end 8.271265 0.474243) (layer F.Fab) (width 0.1))
  (fp_line (start -1.46 -4.15) (end -1.46 4.15) (layer F.CrtYd) (width 0.05))
  (fp_line (start -1.46 4.15) (end 14.45 4.15) (layer F.CrtYd) (width 0.05))
  (fp_line (start 14.45 4.15) (end 14.45 -4.15) (layer F.CrtYd) (width 0.05))
  (fp_line (start 14.45 -4.15) (end -1.46 -4.15) (layer F.CrtYd) (width 0.05))
  (pad 1 thru_hole circle (at 0 0) (size 2.4 2.4) (drill 1.2) (layers *.Cu *.Mask))
  (pad 2 thru_hole circle (at 13 0) (size 2.4 2.4) (drill 1.2) (layers *.Cu *.Mask))
  (fp_text user %R (at 6.5 0) (layer F.Fab)
    (effects (font (size 1 1) (thickness 0.15)))
  )
  (model ${KIPRJMOD}/kicad_libs_k/models_k.3d/Inductor_THT_k.3dshapes/L_Toroid_Horizontal_D7.8mm_P13.00mm_Diameter9-5mm_Amidon-T30_k.wrl
    (at (xyz 0 0 0))
    (scale (xyz 1 1 1))
    (rotate (xyz 0 0 0))
  )
)