(module L_Toroid_Horizontal_D3.2mm_P6.40mm_Diameter3-5mm_Amidon-T12 (layer F.Cu) (tedit 5AE59B06)
  (descr "L_Toroid, Horizontal series, Radial, pin pitch=6.40mm, , diameter=3.175mm, Diameter3-5mm, Amidon-T12")
  (tags "L_Toroid Horizontal series Radial pin pitch 6.40mm  diameter 3.175mm Diameter3-5mm Amidon-T12")
  (fp_text reference REF** (at 3.2 -2.8375) (layer F.SilkS)
    (effects (font (size 1 1) (thickness 0.15)))
  )
  (fp_text value L_Toroid_Horizontal_D3.2mm_P6.40mm_Diameter3-5mm_Amidon-T12 (at 3.2 2.8375) (layer F.Fab)
    (effects (font (size 1 1) (thickness 0.15)))
  )
  (fp_arc (start 3.2 0) (end 2.04763 -1.26) (angle 84.890778) (layer F.SilkS) (width 0.12))
  (fp_arc (start 3.2 0) (end 2.04763 1.26) (angle -84.890778) (layer F.SilkS) (width 0.12))
  (fp_circle (center 3.2 0) (end 4.7875 0) (layer F.Fab) (width 0.1))
  (fp_circle (center 3.2 0) (end 3.9874 0) (layer F.Fab) (width 0.1))
  (fp_circle (center 3.2 0) (end 3.8674 0) (layer F.SilkS) (width 0.12))
  (fp_line (start 4.87335 0) (end 3.857553 0.176185) (layer F.Fab) (width 0.1))
  (fp_line (start 4.649177 0.836653) (end 3.681373 0.48135) (layer F.Fab) (width 0.1))
  (fp_line (start 4.03672 1.449138) (end 3.376216 0.657545) (layer F.Fab) (width 0.1))
  (fp_line (start 3.200078 1.67335) (end 3.023845 0.657562) (layer F.Fab) (width 0.1))
  (fp_line (start 2.363415 1.449215) (end 2.718672 0.481395) (layer F.Fab) (width 0.1))
  (fp_line (start 1.750901 0.836787) (end 2.542463 0.176246) (layer F.Fab) (width 0.1))
  (fp_line (start 1.52665 0.000155) (end 2.54243 -0.176125) (layer F.Fab) (width 0.1))
  (fp_line (start 1.750746 -0.836518) (end 2.718583 -0.481306) (layer F.Fab) (width 0.1))
  (fp_line (start 2.363146 -1.44906) (end 3.023723 -0.657529) (layer F.Fab) (width 0.1))
  (fp_line (start 3.199767 -1.67335) (end 3.376094 -0.657578) (layer F.Fab) (width 0.1))
  (fp_line (start 4.036451 -1.449293) (end 3.681283 -0.48144) (layer F.Fab) (width 0.1))
  (fp_line (start 4.649021 -0.836921) (end 3.857521 -0.176307) (layer F.Fab) (width 0.1))
  (fp_line (start 4.87335 -0.00031) (end 3.857586 0.176064) (layer F.Fab) (width 0.1))
  (fp_line (start -1.25 -1.84) (end -1.25 1.84) (layer F.CrtYd) (width 0.05))
  (fp_line (start -1.25 1.84) (end 7.65 1.84) (layer F.CrtYd) (width 0.05))
  (fp_line (start 7.65 1.84) (end 7.65 -1.84) (layer F.CrtYd) (width 0.05))
  (fp_line (start 7.65 -1.84) (end -1.25 -1.84) (layer F.CrtYd) (width 0.05))
  (pad 1 thru_hole circle (at 0 0) (size 2 2) (drill 1) (layers *.Cu *.Mask))
  (pad 2 thru_hole circle (at 6.4 0) (size 2 2) (drill 1) (layers *.Cu *.Mask))
  (fp_text user %R (at 3.2 0) (layer F.Fab)
    (effects (font (size 0.635 0.635) (thickness 0.09525)))
  )
  (model ${KIPRJMOD}/kicad_libs_k/models_k.3d/Inductor_THT_k.3dshapes/L_Toroid_Horizontal_D3.2mm_P6.40mm_Diameter3-5mm_Amidon-T12_k.wrl
    (at (xyz 0 0 0))
    (scale (xyz 1 1 1))
    (rotate (xyz 0 0 0))
  )
)