(module L_Toroid_Vertical_L16.0mm_W8.0mm_P7.62mm (layer F.Cu) (tedit 5AE59B06)
  (descr "L_Toroid, Vertical series, Radial, pin pitch=7.62mm, , length*width=16*8mm^2")
  (tags "L_Toroid Vertical series Radial pin pitch 7.62mm  length 16mm width 8mm")
  (fp_text reference REF** (at 0 -2.75) (layer F.SilkS)
    (effects (font (size 1 1) (thickness 0.15)))
  )
  (fp_text value L_Toroid_Vertical_L16.0mm_W8.0mm_P7.62mm (at 0 10.37) (layer F.Fab)
    (effects (font (size 1 1) (thickness 0.15)))
  )
  (fp_line (start -8 -0.19) (end -8 7.81) (layer F.Fab) (width 0.1))
  (fp_line (start -8 7.81) (end 8 7.81) (layer F.Fab) (width 0.1))
  (fp_line (start 8 7.81) (end 8 -0.19) (layer F.Fab) (width 0.1))
  (fp_line (start 8 -0.19) (end -8 -0.19) (layer F.Fab) (width 0.1))
  (fp_line (start -6.4 0) (end -6.4 7.62) (layer F.Fab) (width 0.1))
  (fp_line (start -6.4 7.62) (end 6.4 7.62) (layer F.Fab) (width 0.1))
  (fp_line (start 6.4 7.62) (end 6.4 0) (layer F.Fab) (width 0.1))
  (fp_line (start 6.4 0) (end -6.4 0) (layer F.Fab) (width 0.1))
  (fp_line (start -6.4 0) (end -5.76 7.62) (layer F.Fab) (width 0.1))
  (fp_line (start -5.12 0) (end -4.48 7.62) (layer F.Fab) (width 0.1))
  (fp_line (start -3.84 0) (end -3.2 7.62) (layer F.Fab) (width 0.1))
  (fp_line (start -2.56 0) (end -1.92 7.62) (layer F.Fab) (width 0.1))
  (fp_line (start -1.28 0) (end -0.64 7.62) (layer F.Fab) (width 0.1))
  (fp_line (start 0 0) (end 0.64 7.62) (layer F.Fab) (width 0.1))
  (fp_line (start 1.28 0) (end 1.92 7.62) (layer F.Fab) (width 0.1))
  (fp_line (start 2.56 0) (end 3.2 7.62) (layer F.Fab) (width 0.1))
  (fp_line (start 3.84 0) (end 4.48 7.62) (layer F.Fab) (width 0.1))
  (fp_line (start 5.12 0) (end 5.76 7.62) (layer F.Fab) (width 0.1))
  (fp_line (start -8.12 -0.31) (end -1.742 -0.31) (layer F.SilkS) (width 0.12))
  (fp_line (start 1.742 -0.31) (end 8.12 -0.31) (layer F.SilkS) (width 0.12))
  (fp_line (start -8.12 7.93) (end -1.742 7.93) (layer F.SilkS) (width 0.12))
  (fp_line (start 1.742 7.93) (end 8.12 7.93) (layer F.SilkS) (width 0.12))
  (fp_line (start -8.12 -0.31) (end -8.12 7.93) (layer F.SilkS) (width 0.12))
  (fp_line (start 8.12 -0.31) (end 8.12 7.93) (layer F.SilkS) (width 0.12))
  (fp_line (start -8.25 -1.76) (end -8.25 9.38) (layer F.CrtYd) (width 0.05))
  (fp_line (start -8.25 9.38) (end 8.25 9.38) (layer F.CrtYd) (width 0.05))
  (fp_line (start 8.25 9.38) (end 8.25 -1.76) (layer F.CrtYd) (width 0.05))
  (fp_line (start 8.25 -1.76) (end -8.25 -1.76) (layer F.CrtYd) (width 0.05))
  (pad 1 thru_hole circle (at 0 0) (size 3 3) (drill 1.5) (layers *.Cu *.Mask))
  (pad 2 thru_hole circle (at 0 7.62) (size 3 3) (drill 1.5) (layers *.Cu *.Mask))
  (fp_text user %R (at 3.81 0) (layer F.Fab)
    (effects (font (size 1 1) (thickness 0.15)))
  )
  (model ${KIPRJMOD}/kicad_libs_k/models_k.3d/Inductor_THT_k.3dshapes/L_Toroid_Vertical_L16.0mm_W8.0mm_P7.62mm_k.wrl
    (at (xyz 0 0 0))
    (scale (xyz 1 1 1))
    (rotate (xyz 0 0 0))
  )
)