(module L_Toroid_Vertical_L21.6mm_W9.1mm_P8.40mm_Bourns_5700 (layer F.Cu) (tedit 5AE59B06)
  (descr "L_Toroid, Vertical series, Radial, pin pitch=8.40mm, , length*width=21.6*9.1mm^2, Bourns, 5700, http://www.bourns.com/docs/Product-Datasheets/5700_series.pdf")
  (tags "L_Toroid Vertical series Radial pin pitch 8.40mm  length 21.6mm width 9.1mm Bourns 5700")
  (fp_text reference REF** (at 0 -2.35) (layer F.SilkS)
    (effects (font (size 1 1) (thickness 0.15)))
  )
  (fp_text value L_Toroid_Vertical_L21.6mm_W9.1mm_P8.40mm_Bourns_5700 (at 0 10.75) (layer F.Fab)
    (effects (font (size 1 1) (thickness 0.15)))
  )
  (fp_line (start -10.8 -0.35) (end -10.8 8.75) (layer F.Fab) (width 0.1))
  (fp_line (start -10.8 8.75) (end 10.8 8.75) (layer F.Fab) (width 0.1))
  (fp_line (start 10.8 8.75) (end 10.8 -0.35) (layer F.Fab) (width 0.1))
  (fp_line (start 10.8 -0.35) (end -10.8 -0.35) (layer F.Fab) (width 0.1))
  (fp_line (start -10.8 -0.35) (end -9.72 8.75) (layer F.Fab) (width 0.1))
  (fp_line (start -8.64 -0.35) (end -7.56 8.75) (layer F.Fab) (width 0.1))
  (fp_line (start -6.48 -0.35) (end -5.4 8.75) (layer F.Fab) (width 0.1))
  (fp_line (start -4.32 -0.35) (end -3.24 8.75) (layer F.Fab) (width 0.1))
  (fp_line (start -2.16 -0.35) (end -1.08 8.75) (layer F.Fab) (width 0.1))
  (fp_line (start 0 -0.35) (end 1.08 8.75) (layer F.Fab) (width 0.1))
  (fp_line (start 2.16 -0.35) (end 3.24 8.75) (layer F.Fab) (width 0.1))
  (fp_line (start 4.32 -0.35) (end 5.4 8.75) (layer F.Fab) (width 0.1))
  (fp_line (start 6.48 -0.35) (end 7.56 8.75) (layer F.Fab) (width 0.1))
  (fp_line (start 8.64 -0.35) (end 9.72 8.75) (layer F.Fab) (width 0.1))
  (fp_line (start -10.92 -0.47) (end -1.288 -0.47) (layer F.SilkS) (width 0.12))
  (fp_line (start 1.288 -0.47) (end 10.92 -0.47) (layer F.SilkS) (width 0.12))
  (fp_line (start -10.92 8.87) (end -1.288 8.87) (layer F.SilkS) (width 0.12))
  (fp_line (start 1.288 8.87) (end 10.92 8.87) (layer F.SilkS) (width 0.12))
  (fp_line (start -10.92 -0.47) (end -10.92 8.87) (layer F.SilkS) (width 0.12))
  (fp_line (start 10.92 -0.47) (end 10.92 8.87) (layer F.SilkS) (width 0.12))
  (fp_line (start -11.05 -1.36) (end -11.05 9.75) (layer F.CrtYd) (width 0.05))
  (fp_line (start -11.05 9.75) (end 11.05 9.75) (layer F.CrtYd) (width 0.05))
  (fp_line (start 11.05 9.75) (end 11.05 -1.36) (layer F.CrtYd) (width 0.05))
  (fp_line (start 11.05 -1.36) (end -11.05 -1.36) (layer F.CrtYd) (width 0.05))
  (pad 1 thru_hole circle (at 0 0) (size 2.2 2.2) (drill 1.1) (layers *.Cu *.Mask))
  (pad 2 thru_hole circle (at 0 8.4) (size 2.2 2.2) (drill 1.1) (layers *.Cu *.Mask))
  (fp_text user %R (at 4.2 0) (layer F.Fab)
    (effects (font (size 1 1) (thickness 0.15)))
  )
  (model ${KIPRJMOD}/kicad_libs_k/models_k.3d/Inductor_THT_k.3dshapes/L_Toroid_Vertical_L21.6mm_W9.1mm_P8.40mm_Bourns_5700_k.wrl
    (at (xyz 0 0 0))
    (scale (xyz 1 1 1))
    (rotate (xyz 0 0 0))
  )
)