(module Potentiometer_Piher_PT-15-H01_Horizontal (layer F.Cu) (tedit 5A3D4994)
  (descr "Potentiometer, horizontal, Piher PT-15-H01, http://www.piher-nacesa.com/pdf/14-PT15v03.pdf")
  (tags "Potentiometer horizontal Piher PT-15-H01")
  (fp_text reference REF** (at 0 -3.75) (layer F.SilkS)
    (effects (font (size 1 1) (thickness 0.15)))
  )
  (fp_text value Potentiometer_Piher_PT-15-H01_Horizontal (at 0 13.75) (layer F.Fab)
    (effects (font (size 1 1) (thickness 0.15)))
  )
  (fp_line (start 5 -2.5) (end 5 12.5) (layer F.Fab) (width 0.1))
  (fp_line (start 5 12.5) (end 0 12.5) (layer F.Fab) (width 0.1))
  (fp_line (start 0 12.5) (end 0 -2.5) (layer F.Fab) (width 0.1))
  (fp_line (start 0 -2.5) (end 5 -2.5) (layer F.Fab) (width 0.1))
  (fp_line (start 0 2) (end 0 8) (layer F.Fab) (width 0.1))
  (fp_line (start 0 8) (end 5 8) (layer F.Fab) (width 0.1))
  (fp_line (start 5 8) (end 5 2) (layer F.Fab) (width 0.1))
  (fp_line (start 5 2) (end 0 2) (layer F.Fab) (width 0.1))
  (fp_line (start -0.121 -2.62) (end 5.12 -2.62) (layer F.SilkS) (width 0.12))
  (fp_line (start -0.121 12.62) (end 5.12 12.62) (layer F.SilkS) (width 0.12))
  (fp_line (start 5.12 -2.62) (end 5.12 12.62) (layer F.SilkS) (width 0.12))
  (fp_line (start -0.121 11.425) (end -0.121 12.62) (layer F.SilkS) (width 0.12))
  (fp_line (start -0.121 -2.62) (end -0.121 -1.426) (layer F.SilkS) (width 0.12))
  (fp_line (start -0.121 1.426) (end -0.121 8.575) (layer F.SilkS) (width 0.12))
  (fp_line (start -0.121 1.88) (end 5.12 1.88) (layer F.SilkS) (width 0.12))
  (fp_line (start -0.121 8.121) (end 5.12 8.121) (layer F.SilkS) (width 0.12))
  (fp_line (start -0.121 1.88) (end -0.121 8.121) (layer F.SilkS) (width 0.12))
  (fp_line (start 5.12 1.88) (end 5.12 8.121) (layer F.SilkS) (width 0.12))
  (fp_line (start -1.45 -2.75) (end -1.45 12.75) (layer F.CrtYd) (width 0.05))
  (fp_line (start -1.45 12.75) (end 5.25 12.75) (layer F.CrtYd) (width 0.05))
  (fp_line (start 5.25 12.75) (end 5.25 -2.75) (layer F.CrtYd) (width 0.05))
  (fp_line (start 5.25 -2.75) (end -1.45 -2.75) (layer F.CrtYd) (width 0.05))
  (pad 3 thru_hole circle (at 0 10) (size 2.34 2.34) (drill 1.3) (layers *.Cu *.Mask))
  (pad 2 thru_hole circle (at 2.5 5) (size 2.34 2.34) (drill 1.3) (layers *.Cu *.Mask))
  (pad 1 thru_hole circle (at 0 0) (size 2.34 2.34) (drill 1.3) (layers *.Cu *.Mask))
  (fp_text user %R (at 2.5 5) (layer F.Fab)
    (effects (font (size 1 1) (thickness 0.15)))
  )
  (model ${KIPRJMOD}/kicad_libs_k/models_k.3d/Potentiometer_THT_k.3dshapes/Potentiometer_Piher_PT-15-H01_Horizontal_k.wrl
    (at (xyz 0 0 0))
    (scale (xyz 1 1 1))
    (rotate (xyz 0 0 0))
  )
)