(module Potentiometer_Alps_RK163_Single_Horizontal (layer F.Cu) (tedit 5A3D4993)
  (descr "Potentiometer, horizontal, Alps RK163 Single, http://www.alps.com/prod/info/E/HTML/Potentiometer/RotaryPotentiometers/RK16/RK16_list.html")
  (tags "Potentiometer horizontal Alps RK163 Single")
  (fp_text reference REF** (at 0 -15.2) (layer F.SilkS)
    (effects (font (size 1 1) (thickness 0.15)))
  )
  (fp_text value Potentiometer_Alps_RK163_Single_Horizontal (at 0 5.2) (layer F.Fab)
    (effects (font (size 1 1) (thickness 0.15)))
  )
  (fp_line (start -6.7 -13.95) (end -6.7 3.95) (layer F.Fab) (width 0.1))
  (fp_line (start -6.7 3.95) (end 3.8 3.95) (layer F.Fab) (width 0.1))
  (fp_line (start 3.8 3.95) (end 3.8 -13.95) (layer F.Fab) (width 0.1))
  (fp_line (start 3.8 -13.95) (end -6.7 -13.95) (layer F.Fab) (width 0.1))
  (fp_line (start 3.8 -8.5) (end 3.8 -1.5) (layer F.Fab) (width 0.1))
  (fp_line (start 3.8 -1.5) (end 8.8 -1.5) (layer F.Fab) (width 0.1))
  (fp_line (start 8.8 -1.5) (end 8.8 -8.5) (layer F.Fab) (width 0.1))
  (fp_line (start 8.8 -8.5) (end 3.8 -8.5) (layer F.Fab) (width 0.1))
  (fp_line (start 8.8 -8) (end 8.8 -2) (layer F.Fab) (width 0.1))
  (fp_line (start 8.8 -2) (end 18.8 -2) (layer F.Fab) (width 0.1))
  (fp_line (start 18.8 -2) (end 18.8 -8) (layer F.Fab) (width 0.1))
  (fp_line (start 18.8 -8) (end 8.8 -8) (layer F.Fab) (width 0.1))
  (fp_line (start -6.82 -14.07) (end 3.92 -14.07) (layer F.SilkS) (width 0.12))
  (fp_line (start -6.82 4.07) (end 3.92 4.07) (layer F.SilkS) (width 0.12))
  (fp_line (start -6.82 -14.07) (end -6.82 4.07) (layer F.SilkS) (width 0.12))
  (fp_line (start 3.92 -14.07) (end 3.92 4.07) (layer F.SilkS) (width 0.12))
  (fp_line (start 3.92 -8.62) (end 8.92 -8.62) (layer F.SilkS) (width 0.12))
  (fp_line (start 3.92 -1.38) (end 8.92 -1.38) (layer F.SilkS) (width 0.12))
  (fp_line (start 3.92 -8.62) (end 3.92 -1.38) (layer F.SilkS) (width 0.12))
  (fp_line (start 8.92 -8.62) (end 8.92 -1.38) (layer F.SilkS) (width 0.12))
  (fp_line (start 8.92 -8.12) (end 18.92 -8.12) (layer F.SilkS) (width 0.12))
  (fp_line (start 8.92 -1.879) (end 18.92 -1.879) (layer F.SilkS) (width 0.12))
  (fp_line (start 8.92 -8.12) (end 8.92 -1.879) (layer F.SilkS) (width 0.12))
  (fp_line (start 18.92 -8.12) (end 18.92 -1.879) (layer F.SilkS) (width 0.12))
  (fp_line (start -6.95 -14.2) (end -6.95 4.2) (layer F.CrtYd) (width 0.05))
  (fp_line (start -6.95 4.2) (end 19.05 4.2) (layer F.CrtYd) (width 0.05))
  (fp_line (start 19.05 4.2) (end 19.05 -14.2) (layer F.CrtYd) (width 0.05))
  (fp_line (start 19.05 -14.2) (end -6.95 -14.2) (layer F.CrtYd) (width 0.05))
  (pad 3 thru_hole circle (at 0 -10) (size 2.34 2.34) (drill 1.3) (layers *.Cu *.Mask))
  (pad 2 thru_hole circle (at 0 -5) (size 2.34 2.34) (drill 1.3) (layers *.Cu *.Mask))
  (pad 1 thru_hole circle (at 0 0) (size 2.34 2.34) (drill 1.3) (layers *.Cu *.Mask))
  (fp_text user %R (at -1.45 -5) (layer F.Fab)
    (effects (font (size 1 1) (thickness 0.15)))
  )
  (model ${KIPRJMOD}/kicad_libs_k/models_k.3d/Potentiometer_THT_k.3dshapes/Potentiometer_Alps_RK163_Single_Horizontal_k.wrl
    (at (xyz 0 0 0))
    (scale (xyz 1 1 1))
    (rotate (xyz 0 0 0))
  )
)