(module Potentiometer_ACP_CA9-V10_Vertical_Hole (layer F.Cu) (tedit 5A3D4994)
  (descr "Potentiometer, vertical, shaft hole, ACP CA9-V10, http://www.acptechnologies.com/wp-content/uploads/2017/05/02-ACP-CA9-CE9.pdf")
  (tags "Potentiometer vertical hole ACP CA9-V10")
  (fp_text reference REF** (at 5 -8.65) (layer F.SilkS)
    (effects (font (size 1 1) (thickness 0.15)))
  )
  (fp_text value Potentiometer_ACP_CA9-V10_Vertical_Hole (at 5 3.65) (layer F.Fab)
    (effects (font (size 1 1) (thickness 0.15)))
  )
  (fp_line (start 0 -7.4) (end 0 2.4) (layer F.Fab) (width 0.1))
  (fp_line (start 0 2.4) (end 10 2.4) (layer F.Fab) (width 0.1))
  (fp_line (start 10 2.4) (end 10 -7.4) (layer F.Fab) (width 0.1))
  (fp_line (start 10 -7.4) (end 0 -7.4) (layer F.Fab) (width 0.1))
  (fp_line (start -0.12 -7.521) (end 10.12 -7.521) (layer F.SilkS) (width 0.12))
  (fp_line (start -0.12 2.52) (end 10.12 2.52) (layer F.SilkS) (width 0.12))
  (fp_line (start -0.12 -7.521) (end -0.12 -6.426) (layer F.SilkS) (width 0.12))
  (fp_line (start -0.12 -3.574) (end -0.12 -1.425) (layer F.SilkS) (width 0.12))
  (fp_line (start -0.12 1.425) (end -0.12 2.52) (layer F.SilkS) (width 0.12))
  (fp_line (start 10.12 -7.521) (end 10.12 -3.925) (layer F.SilkS) (width 0.12))
  (fp_line (start 10.12 -1.075) (end 10.12 2.52) (layer F.SilkS) (width 0.12))
  (fp_line (start -1.45 -7.65) (end -1.45 2.7) (layer F.CrtYd) (width 0.05))
  (fp_line (start -1.45 2.7) (end 11.45 2.7) (layer F.CrtYd) (width 0.05))
  (fp_line (start 11.45 2.7) (end 11.45 -7.65) (layer F.CrtYd) (width 0.05))
  (fp_line (start 11.45 -7.65) (end -1.45 -7.65) (layer F.CrtYd) (width 0.05))
  (pad 3 thru_hole circle (at 0 -5) (size 2.34 2.34) (drill 1.3) (layers *.Cu *.Mask))
  (pad 2 thru_hole circle (at 10 -2.5) (size 2.34 2.34) (drill 1.3) (layers *.Cu *.Mask))
  (pad 1 thru_hole circle (at 0 0) (size 2.34 2.34) (drill 1.3) (layers *.Cu *.Mask))
  (pad "" np_thru_hole circle (at 5 -2.5) (size 4 4) (drill 4) (layers *.Cu *.Mask))
  (fp_text user %R (at 1 -2.5 90) (layer F.Fab)
    (effects (font (size 1 1) (thickness 0.15)))
  )
  (model ${KIPRJMOD}/kicad_libs_k/models_k.3d/Potentiometer_THT_k.3dshapes/Potentiometer_ACP_CA9-V10_Vertical_Hole_k.wrl
    (at (xyz 0 0 0))
    (scale (xyz 1 1 1))
    (rotate (xyz 0 0 0))
  )
)