(module Potentiometer_Vishay_148-149_Dual_Horizontal (layer F.Cu) (tedit 5A3D4993)
  (descr "Potentiometer, horizontal, Vishay 148-149 Dual, http://www.vishay.com/docs/57040/148149.pdf")
  (tags "Potentiometer horizontal Vishay 148-149 Dual")
  (fp_text reference REF** (at 0 -10.04) (layer F.SilkS)
    (effects (font (size 1 1) (thickness 0.15)))
  )
  (fp_text value Potentiometer_Vishay_148-149_Dual_Horizontal (at 0 4.96) (layer F.Fab)
    (effects (font (size 1 1) (thickness 0.15)))
  )
  (fp_line (start -11.37 -8.79) (end -11.37 3.71) (layer F.Fab) (width 0.1))
  (fp_line (start -11.37 3.71) (end 5.08 3.71) (layer F.Fab) (width 0.1))
  (fp_line (start 5.08 3.71) (end 5.08 -8.79) (layer F.Fab) (width 0.1))
  (fp_line (start 5.08 -8.79) (end -11.37 -8.79) (layer F.Fab) (width 0.1))
  (fp_line (start 5.08 -5.715) (end 5.08 0.635) (layer F.Fab) (width 0.1))
  (fp_line (start 5.08 0.635) (end 12.08 0.635) (layer F.Fab) (width 0.1))
  (fp_line (start 12.08 0.635) (end 12.08 -5.715) (layer F.Fab) (width 0.1))
  (fp_line (start 12.08 -5.715) (end 5.08 -5.715) (layer F.Fab) (width 0.1))
  (fp_line (start 12.08 -4.125) (end 12.08 -0.955) (layer F.Fab) (width 0.1))
  (fp_line (start 12.08 -0.955) (end 18.53 -0.955) (layer F.Fab) (width 0.1))
  (fp_line (start 18.53 -0.955) (end 18.53 -4.125) (layer F.Fab) (width 0.1))
  (fp_line (start 18.53 -4.125) (end 12.08 -4.125) (layer F.Fab) (width 0.1))
  (fp_line (start -11.49 -8.91) (end 5.2 -8.91) (layer F.SilkS) (width 0.12))
  (fp_line (start -11.49 3.83) (end 5.2 3.83) (layer F.SilkS) (width 0.12))
  (fp_line (start -11.49 -8.91) (end -11.49 3.83) (layer F.SilkS) (width 0.12))
  (fp_line (start 5.2 -8.91) (end 5.2 3.83) (layer F.SilkS) (width 0.12))
  (fp_line (start 5.2 -5.835) (end 12.2 -5.835) (layer F.SilkS) (width 0.12))
  (fp_line (start 5.2 0.755) (end 12.2 0.755) (layer F.SilkS) (width 0.12))
  (fp_line (start 5.2 -5.835) (end 5.2 0.755) (layer F.SilkS) (width 0.12))
  (fp_line (start 12.2 -5.835) (end 12.2 0.755) (layer F.SilkS) (width 0.12))
  (fp_line (start 12.2 -4.244) (end 18.65 -4.244) (layer F.SilkS) (width 0.12))
  (fp_line (start 12.2 -0.835) (end 18.65 -0.835) (layer F.SilkS) (width 0.12))
  (fp_line (start 12.2 -4.244) (end 12.2 -0.835) (layer F.SilkS) (width 0.12))
  (fp_line (start 18.65 -4.244) (end 18.65 -0.835) (layer F.SilkS) (width 0.12))
  (fp_line (start -11.65 -9.05) (end -11.65 4) (layer F.CrtYd) (width 0.05))
  (fp_line (start -11.65 4) (end 18.8 4) (layer F.CrtYd) (width 0.05))
  (fp_line (start 18.8 4) (end 18.8 -9.05) (layer F.CrtYd) (width 0.05))
  (fp_line (start 18.8 -9.05) (end -11.65 -9.05) (layer F.CrtYd) (width 0.05))
  (pad 3 thru_hole circle (at 0 -5.08) (size 1.8 1.8) (drill 1) (layers *.Cu *.Mask))
  (pad 2 thru_hole circle (at 0 -2.54) (size 1.8 1.8) (drill 1) (layers *.Cu *.Mask))
  (pad 1 thru_hole circle (at 0 0) (size 1.8 1.8) (drill 1) (layers *.Cu *.Mask))
  (pad 6 thru_hole circle (at -7.62 -5.08) (size 1.8 1.8) (drill 1) (layers *.Cu *.Mask))
  (pad 5 thru_hole circle (at -7.62 -2.54) (size 1.8 1.8) (drill 1) (layers *.Cu *.Mask))
  (pad 4 thru_hole circle (at -7.62 0) (size 1.8 1.8) (drill 1) (layers *.Cu *.Mask))
  (fp_text user %R (at -3.145 -2.54) (layer F.Fab)
    (effects (font (size 1 1) (thickness 0.15)))
  )
  (model ${KIPRJMOD}/kicad_libs_k/models_k.3d/Potentiometer_THT_k.3dshapes/Potentiometer_Vishay_148-149_Dual_Horizontal_k.wrl
    (at (xyz 0 0 0))
    (scale (xyz 1 1 1))
    (rotate (xyz 0 0 0))
  )
)