(module Potentiometer_Piher_PT-15-H06_Horizontal (layer F.Cu) (tedit 5A3D4994)
  (descr "Potentiometer, horizontal, Piher PT-15-H06, http://www.piher-nacesa.com/pdf/14-PT15v03.pdf")
  (tags "Potentiometer horizontal Piher PT-15-H06")
  (fp_text reference REF** (at 0 -4.35) (layer F.SilkS)
    (effects (font (size 1 1) (thickness 0.15)))
  )
  (fp_text value Potentiometer_Piher_PT-15-H06_Horizontal (at 0 13.15) (layer F.Fab)
    (effects (font (size 1 1) (thickness 0.15)))
  )
  (fp_line (start 5 -3.1) (end 5 11.9) (layer F.Fab) (width 0.1))
  (fp_line (start 5 11.9) (end 0 11.9) (layer F.Fab) (width 0.1))
  (fp_line (start 0 11.9) (end 0 -3.1) (layer F.Fab) (width 0.1))
  (fp_line (start 0 -3.1) (end 5 -3.1) (layer F.Fab) (width 0.1))
  (fp_line (start 0 1.4) (end 0 7.4) (layer F.Fab) (width 0.1))
  (fp_line (start 0 7.4) (end 5 7.4) (layer F.Fab) (width 0.1))
  (fp_line (start 5 7.4) (end 5 1.4) (layer F.Fab) (width 0.1))
  (fp_line (start 5 1.4) (end 0 1.4) (layer F.Fab) (width 0.1))
  (fp_line (start -0.121 -3.22) (end 5.12 -3.22) (layer F.SilkS) (width 0.12))
  (fp_line (start -0.121 12.02) (end 5.12 12.02) (layer F.SilkS) (width 0.12))
  (fp_line (start 5.12 -3.22) (end 5.12 3.328) (layer F.SilkS) (width 0.12))
  (fp_line (start 5.12 5.473) (end 5.12 12.02) (layer F.SilkS) (width 0.12))
  (fp_line (start -0.121 10.226) (end -0.121 12.02) (layer F.SilkS) (width 0.12))
  (fp_line (start -0.121 -3.22) (end -0.121 -1.426) (layer F.SilkS) (width 0.12))
  (fp_line (start -0.121 1.426) (end -0.121 7.376) (layer F.SilkS) (width 0.12))
  (fp_line (start 0.948 1.281) (end 5.12 1.281) (layer F.SilkS) (width 0.12))
  (fp_line (start 0.948 7.52) (end 5.12 7.52) (layer F.SilkS) (width 0.12))
  (fp_line (start -0.121 1.426) (end -0.121 7.376) (layer F.SilkS) (width 0.12))
  (fp_line (start 5.12 1.281) (end 5.12 3.328) (layer F.SilkS) (width 0.12))
  (fp_line (start 5.12 5.473) (end 5.12 7.52) (layer F.SilkS) (width 0.12))
  (fp_line (start -1.45 -3.35) (end -1.45 12.15) (layer F.CrtYd) (width 0.05))
  (fp_line (start -1.45 12.15) (end 5.45 12.15) (layer F.CrtYd) (width 0.05))
  (fp_line (start 5.45 12.15) (end 5.45 -3.35) (layer F.CrtYd) (width 0.05))
  (fp_line (start 5.45 -3.35) (end -1.45 -3.35) (layer F.CrtYd) (width 0.05))
  (pad 3 thru_hole circle (at 0 8.8) (size 2.34 2.34) (drill 1.3) (layers *.Cu *.Mask))
  (pad 2 thru_hole circle (at 4 4.4) (size 2.34 2.34) (drill 1.3) (layers *.Cu *.Mask))
  (pad 1 thru_hole circle (at 0 0) (size 2.34 2.34) (drill 1.3) (layers *.Cu *.Mask))
  (fp_text user %R (at 2.5 4.4) (layer F.Fab)
    (effects (font (size 1 1) (thickness 0.15)))
  )
  (model ${KIPRJMOD}/kicad_libs_k/models_k.3d/Potentiometer_THT_k.3dshapes/Potentiometer_Piher_PT-15-H06_Horizontal_k.wrl
    (at (xyz 0 0 0))
    (scale (xyz 1 1 1))
    (rotate (xyz 0 0 0))
  )
)