(module Potentiometer_Bourns_3386C_Horizontal (layer F.Cu) (tedit 5AA07388)
  (descr "Potentiometer, horizontal, Bourns 3386C, https://www.bourns.com/pdfs/3386.pdf")
  (tags "Potentiometer horizontal Bourns 3386C")
  (fp_text reference REF** (at 0 -3.475) (layer F.SilkS)
    (effects (font (size 1 1) (thickness 0.15)))
  )
  (fp_text value Potentiometer_Bourns_3386C_Horizontal (at 0 8.555) (layer F.Fab)
    (effects (font (size 1 1) (thickness 0.15)))
  )
  (fp_line (start 2.415 -2.225) (end 2.415 7.305) (layer F.Fab) (width 0.1))
  (fp_line (start 2.415 7.305) (end -2.415 7.305) (layer F.Fab) (width 0.1))
  (fp_line (start -2.415 7.305) (end -2.415 -2.225) (layer F.Fab) (width 0.1))
  (fp_line (start -2.415 -2.225) (end 2.415 -2.225) (layer F.Fab) (width 0.1))
  (fp_line (start -2.535 -2.345) (end 2.535 -2.345) (layer F.SilkS) (width 0.12))
  (fp_line (start -2.535 7.425) (end 2.535 7.425) (layer F.SilkS) (width 0.12))
  (fp_line (start 2.535 -2.345) (end 2.535 7.425) (layer F.SilkS) (width 0.12))
  (fp_line (start -2.535 -2.345) (end -2.535 7.425) (layer F.SilkS) (width 0.12))
  (fp_line (start -2.67 -2.48) (end -2.67 7.56) (layer F.CrtYd) (width 0.05))
  (fp_line (start -2.67 7.56) (end 2.67 7.56) (layer F.CrtYd) (width 0.05))
  (fp_line (start 2.67 7.56) (end 2.67 -2.48) (layer F.CrtYd) (width 0.05))
  (fp_line (start 2.67 -2.48) (end -2.67 -2.48) (layer F.CrtYd) (width 0.05))
  (pad 3 thru_hole circle (at 0 5.08) (size 1.44 1.44) (drill 0.8) (layers *.Cu *.Mask))
  (pad 2 thru_hole circle (at 0 2.54) (size 1.44 1.44) (drill 0.8) (layers *.Cu *.Mask))
  (pad 1 thru_hole circle (at 0 0) (size 1.44 1.44) (drill 0.8) (layers *.Cu *.Mask))
  (fp_text user %R (at 0 2.54) (layer F.Fab)
    (effects (font (size 1 1) (thickness 0.15)))
  )
  (model ${KIPRJMOD}/kicad_libs_k/models_k.3d/Potentiometer_THT_k.3dshapes/Potentiometer_Bourns_3386C_Horizontal_k.wrl
    (at (xyz 0 0 0))
    (scale (xyz 1 1 1))
    (rotate (xyz 0 0 0))
  )
)