(module Potentiometer_Alps_RK09K_Single_Vertical (layer F.Cu) (tedit 5A3D4993)
  (descr "Potentiometer, vertical, Alps RK09K Single, http://www.alps.com/prod/info/E/HTML/Potentiometer/RotaryPotentiometers/RK09K/RK09K_list.html")
  (tags "Potentiometer vertical Alps RK09K Single")
  (fp_text reference REF** (at 6.05 -10.15) (layer F.SilkS)
    (effects (font (size 1 1) (thickness 0.15)))
  )
  (fp_text value Potentiometer_Alps_RK09K_Single_Vertical (at 6.05 5.15) (layer F.Fab)
    (effects (font (size 1 1) (thickness 0.15)))
  )
  (fp_circle (center 7.5 -2.5) (end 10.5 -2.5) (layer F.Fab) (width 0.1))
  (fp_line (start 1 -7.4) (end 1 2.4) (layer F.Fab) (width 0.1))
  (fp_line (start 1 2.4) (end 13 2.4) (layer F.Fab) (width 0.1))
  (fp_line (start 13 2.4) (end 13 -7.4) (layer F.Fab) (width 0.1))
  (fp_line (start 13 -7.4) (end 1 -7.4) (layer F.Fab) (width 0.1))
  (fp_line (start 0.88 -7.521) (end 4.817 -7.521) (layer F.SilkS) (width 0.12))
  (fp_line (start 9.184 -7.521) (end 13.12 -7.521) (layer F.SilkS) (width 0.12))
  (fp_line (start 0.88 2.52) (end 4.817 2.52) (layer F.SilkS) (width 0.12))
  (fp_line (start 9.184 2.52) (end 13.12 2.52) (layer F.SilkS) (width 0.12))
  (fp_line (start 0.88 -7.521) (end 0.88 -5.871) (layer F.SilkS) (width 0.12))
  (fp_line (start 0.88 -4.129) (end 0.88 -3.37) (layer F.SilkS) (width 0.12))
  (fp_line (start 0.88 -1.629) (end 0.88 -0.87) (layer F.SilkS) (width 0.12))
  (fp_line (start 0.88 0.87) (end 0.88 2.52) (layer F.SilkS) (width 0.12))
  (fp_line (start 13.12 -7.521) (end 13.12 2.52) (layer F.SilkS) (width 0.12))
  (fp_line (start -1.15 -9.15) (end -1.15 4.15) (layer F.CrtYd) (width 0.05))
  (fp_line (start -1.15 4.15) (end 13.25 4.15) (layer F.CrtYd) (width 0.05))
  (fp_line (start 13.25 4.15) (end 13.25 -9.15) (layer F.CrtYd) (width 0.05))
  (fp_line (start 13.25 -9.15) (end -1.15 -9.15) (layer F.CrtYd) (width 0.05))
  (pad 3 thru_hole circle (at 0 -5) (size 1.8 1.8) (drill 1) (layers *.Cu *.Mask))
  (pad 2 thru_hole circle (at 0 -2.5) (size 1.8 1.8) (drill 1) (layers *.Cu *.Mask))
  (pad 1 thru_hole circle (at 0 0) (size 1.8 1.8) (drill 1) (layers *.Cu *.Mask))
  (pad "" np_thru_hole circle (at 7 -6.9) (size 4 4) (drill 2) (layers *.Cu *.Mask))
  (pad "" np_thru_hole circle (at 7 1.9) (size 4 4) (drill 2) (layers *.Cu *.Mask))
  (fp_text user %R (at 2 -2.5 90) (layer F.Fab)
    (effects (font (size 1 1) (thickness 0.15)))
  )
  (model ${KIPRJMOD}/kicad_libs_k/models_k.3d/Potentiometer_THT_k.3dshapes/Potentiometer_Alps_RK09K_Single_Vertical_k.wrl
    (at (xyz 0 0 0))
    (scale (xyz 1 1 1))
    (rotate (xyz 0 0 0))
  )
)