(module Potentiometer_Alps_RK09L_Double_Vertical (layer F.Cu) (tedit 5A3D4993)
  (descr "Potentiometer, vertical, Alps RK09L Double, http://www.alps.com/prod/info/E/HTML/Potentiometer/RotaryPotentiometers/RK09L/RK09L_list.html")
  (tags "Potentiometer vertical Alps RK09L Double")
  (fp_text reference REF** (at 4.475 -10.5) (layer F.SilkS)
    (effects (font (size 1 1) (thickness 0.15)))
  )
  (fp_text value Potentiometer_Alps_RK09L_Double_Vertical (at 4.475 5.5) (layer F.Fab)
    (effects (font (size 1 1) (thickness 0.15)))
  )
  (fp_circle (center 7.5 -2.5) (end 10.5 -2.5) (layer F.Fab) (width 0.1))
  (fp_line (start 1 -8.55) (end 1 3.55) (layer F.Fab) (width 0.1))
  (fp_line (start 1 3.55) (end 12.35 3.55) (layer F.Fab) (width 0.1))
  (fp_line (start 12.35 3.55) (end 12.35 -8.55) (layer F.Fab) (width 0.1))
  (fp_line (start 12.35 -8.55) (end 1 -8.55) (layer F.Fab) (width 0.1))
  (fp_line (start 0.88 -8.67) (end 5.546 -8.67) (layer F.SilkS) (width 0.12))
  (fp_line (start 9.455 -8.67) (end 12.47 -8.67) (layer F.SilkS) (width 0.12))
  (fp_line (start 0.88 3.67) (end 5.546 3.67) (layer F.SilkS) (width 0.12))
  (fp_line (start 9.455 3.67) (end 12.47 3.67) (layer F.SilkS) (width 0.12))
  (fp_line (start 0.88 -8.67) (end 0.88 -5.871) (layer F.SilkS) (width 0.12))
  (fp_line (start 0.88 -4.129) (end 0.88 -3.37) (layer F.SilkS) (width 0.12))
  (fp_line (start 0.88 -1.629) (end 0.88 -0.87) (layer F.SilkS) (width 0.12))
  (fp_line (start 0.88 0.87) (end 0.88 3.67) (layer F.SilkS) (width 0.12))
  (fp_line (start 12.47 -8.67) (end 12.47 3.67) (layer F.SilkS) (width 0.12))
  (fp_line (start -3.65 -9.5) (end -3.65 4.5) (layer F.CrtYd) (width 0.05))
  (fp_line (start -3.65 4.5) (end 12.6 4.5) (layer F.CrtYd) (width 0.05))
  (fp_line (start 12.6 4.5) (end 12.6 -9.5) (layer F.CrtYd) (width 0.05))
  (fp_line (start 12.6 -9.5) (end -3.65 -9.5) (layer F.CrtYd) (width 0.05))
  (pad 3 thru_hole circle (at 0 -5) (size 1.8 1.8) (drill 1) (layers *.Cu *.Mask))
  (pad 2 thru_hole circle (at 0 -2.5) (size 1.8 1.8) (drill 1) (layers *.Cu *.Mask))
  (pad 1 thru_hole circle (at 0 0) (size 1.8 1.8) (drill 1) (layers *.Cu *.Mask))
  (pad 6 thru_hole circle (at -2.5 -5) (size 1.8 1.8) (drill 1) (layers *.Cu *.Mask))
  (pad 5 thru_hole circle (at -2.5 -2.5) (size 1.8 1.8) (drill 1) (layers *.Cu *.Mask))
  (pad 4 thru_hole circle (at -2.5 0) (size 1.8 1.8) (drill 1) (layers *.Cu *.Mask))
  (pad "" np_thru_hole circle (at 7.5 -7.25) (size 4 4) (drill 2) (layers *.Cu *.Mask))
  (pad "" np_thru_hole circle (at 7.5 2.25) (size 4 4) (drill 2) (layers *.Cu *.Mask))
  (fp_text user %R (at 2 -2.5 90) (layer F.Fab)
    (effects (font (size 1 1) (thickness 0.15)))
  )
  (model ${KIPRJMOD}/kicad_libs_k/models_k.3d/Potentiometer_THT_k.3dshapes/Potentiometer_Alps_RK09L_Double_Vertical_k.wrl
    (at (xyz 0 0 0))
    (scale (xyz 1 1 1))
    (rotate (xyz 0 0 0))
  )
)