(module Potentiometer_Piher_PC-16_Triple_Horizontal (layer F.Cu) (tedit 5A3D4993)
  (descr "Potentiometer, horizontal, Piher PC-16 Triple, http://www.piher-nacesa.com/pdf/20-PC16v03.pdf")
  (tags "Potentiometer horizontal Piher PC-16 Triple")
  (fp_text reference REF** (at 0 -14.25) (layer F.SilkS)
    (effects (font (size 1 1) (thickness 0.15)))
  )
  (fp_text value Potentiometer_Piher_PC-16_Triple_Horizontal (at 0 4.25) (layer F.Fab)
    (effects (font (size 1 1) (thickness 0.15)))
  )
  (fp_line (start -17.5 -13) (end -17.5 3) (layer F.Fab) (width 0.1))
  (fp_line (start -17.5 3) (end 6.5 3) (layer F.Fab) (width 0.1))
  (fp_line (start 6.5 3) (end 6.5 -13) (layer F.Fab) (width 0.1))
  (fp_line (start 6.5 -13) (end -17.5 -13) (layer F.Fab) (width 0.1))
  (fp_line (start 6.5 -10) (end 6.5 0) (layer F.Fab) (width 0.1))
  (fp_line (start 6.5 0) (end 15.5 0) (layer F.Fab) (width 0.1))
  (fp_line (start 15.5 0) (end 15.5 -10) (layer F.Fab) (width 0.1))
  (fp_line (start 15.5 -10) (end 6.5 -10) (layer F.Fab) (width 0.1))
  (fp_line (start 15.5 -8) (end 15.5 -2) (layer F.Fab) (width 0.1))
  (fp_line (start 15.5 -2) (end 31.5 -2) (layer F.Fab) (width 0.1))
  (fp_line (start 31.5 -2) (end 31.5 -8) (layer F.Fab) (width 0.1))
  (fp_line (start 31.5 -8) (end 15.5 -8) (layer F.Fab) (width 0.1))
  (fp_line (start -17.62 -13.12) (end 6.62 -13.12) (layer F.SilkS) (width 0.12))
  (fp_line (start -17.62 3.12) (end 6.62 3.12) (layer F.SilkS) (width 0.12))
  (fp_line (start -17.62 -13.12) (end -17.62 3.12) (layer F.SilkS) (width 0.12))
  (fp_line (start 6.62 -13.12) (end 6.62 3.12) (layer F.SilkS) (width 0.12))
  (fp_line (start 6.62 -10.12) (end 15.62 -10.12) (layer F.SilkS) (width 0.12))
  (fp_line (start 6.62 0.12) (end 15.62 0.12) (layer F.SilkS) (width 0.12))
  (fp_line (start 6.62 -10.12) (end 6.62 0.12) (layer F.SilkS) (width 0.12))
  (fp_line (start 15.62 -10.12) (end 15.62 0.12) (layer F.SilkS) (width 0.12))
  (fp_line (start 15.62 -8.12) (end 31.62 -8.12) (layer F.SilkS) (width 0.12))
  (fp_line (start 15.62 -1.879) (end 31.62 -1.879) (layer F.SilkS) (width 0.12))
  (fp_line (start 15.62 -8.12) (end 15.62 -1.879) (layer F.SilkS) (width 0.12))
  (fp_line (start 31.62 -8.12) (end 31.62 -1.879) (layer F.SilkS) (width 0.12))
  (fp_line (start -17.75 -13.25) (end -17.75 3.25) (layer F.CrtYd) (width 0.05))
  (fp_line (start -17.75 3.25) (end 31.75 3.25) (layer F.CrtYd) (width 0.05))
  (fp_line (start 31.75 3.25) (end 31.75 -13.25) (layer F.CrtYd) (width 0.05))
  (fp_line (start 31.75 -13.25) (end -17.75 -13.25) (layer F.CrtYd) (width 0.05))
  (pad 3 thru_hole circle (at 0 -10) (size 2.34 2.34) (drill 1.3) (layers *.Cu *.Mask))
  (pad 2 thru_hole circle (at 0 -5) (size 2.34 2.34) (drill 1.3) (layers *.Cu *.Mask))
  (pad 1 thru_hole circle (at 0 0) (size 2.34 2.34) (drill 1.3) (layers *.Cu *.Mask))
  (pad 6 thru_hole circle (at -7.5 -10) (size 2.34 2.34) (drill 1.3) (layers *.Cu *.Mask))
  (pad 5 thru_hole circle (at -7.5 -5) (size 2.34 2.34) (drill 1.3) (layers *.Cu *.Mask))
  (pad 4 thru_hole circle (at -7.5 0) (size 2.34 2.34) (drill 1.3) (layers *.Cu *.Mask))
  (pad 9 thru_hole circle (at -15 -10) (size 2.34 2.34) (drill 1.3) (layers *.Cu *.Mask))
  (pad 8 thru_hole circle (at -15 -5) (size 2.34 2.34) (drill 1.3) (layers *.Cu *.Mask))
  (pad 7 thru_hole circle (at -15 0) (size 2.34 2.34) (drill 1.3) (layers *.Cu *.Mask))
  (fp_text user %R (at -5.5 -5) (layer F.Fab)
    (effects (font (size 1 1) (thickness 0.15)))
  )
  (model ${KIPRJMOD}/kicad_libs_k/models_k.3d/Potentiometer_THT_k.3dshapes/Potentiometer_Piher_PC-16_Triple_Horizontal_k.wrl
    (at (xyz 0 0 0))
    (scale (xyz 1 1 1))
    (rotate (xyz 0 0 0))
  )
)