(module Potentiometer_Bourns_3339S_Horizontal (layer F.Cu) (tedit 5A3D4993)
  (descr "Potentiometer, horizontal, Bourns 3339S, http://www.bourns.com/docs/Product-Datasheets/3339.pdf")
  (tags "Potentiometer horizontal Bourns 3339S")
  (fp_text reference REF** (at 0 -2.775) (layer F.SilkS)
    (effects (font (size 1 1) (thickness 0.15)))
  )
  (fp_text value Potentiometer_Bourns_3339S_Horizontal (at 0 7.855) (layer F.Fab)
    (effects (font (size 1 1) (thickness 0.15)))
  )
  (fp_line (start -3.43 -1.525) (end -3.43 6.605) (layer F.Fab) (width 0.1))
  (fp_line (start -3.43 6.605) (end 2.54 6.605) (layer F.Fab) (width 0.1))
  (fp_line (start 2.54 6.605) (end 2.54 -1.525) (layer F.Fab) (width 0.1))
  (fp_line (start 2.54 -1.525) (end -3.43 -1.525) (layer F.Fab) (width 0.1))
  (fp_line (start 2.54 -1.27) (end 2.54 6.35) (layer F.Fab) (width 0.1))
  (fp_line (start 2.54 6.35) (end 4.57 6.35) (layer F.Fab) (width 0.1))
  (fp_line (start 4.57 6.35) (end 4.57 -1.27) (layer F.Fab) (width 0.1))
  (fp_line (start 4.57 -1.27) (end 2.54 -1.27) (layer F.Fab) (width 0.1))
  (fp_line (start -3.55 -1.646) (end 2.66 -1.646) (layer F.SilkS) (width 0.12))
  (fp_line (start -3.55 6.725) (end 2.66 6.725) (layer F.SilkS) (width 0.12))
  (fp_line (start -3.55 -1.646) (end -3.55 6.725) (layer F.SilkS) (width 0.12))
  (fp_line (start 2.66 -1.646) (end 2.66 6.725) (layer F.SilkS) (width 0.12))
  (fp_line (start 2.66 -1.39) (end 4.69 -1.39) (layer F.SilkS) (width 0.12))
  (fp_line (start 2.66 6.471) (end 4.69 6.471) (layer F.SilkS) (width 0.12))
  (fp_line (start 2.66 -1.39) (end 2.66 6.471) (layer F.SilkS) (width 0.12))
  (fp_line (start 4.69 -1.39) (end 4.69 6.471) (layer F.SilkS) (width 0.12))
  (fp_line (start -3.7 -1.8) (end -3.7 6.9) (layer F.CrtYd) (width 0.05))
  (fp_line (start -3.7 6.9) (end 4.85 6.9) (layer F.CrtYd) (width 0.05))
  (fp_line (start 4.85 6.9) (end 4.85 -1.8) (layer F.CrtYd) (width 0.05))
  (fp_line (start 4.85 -1.8) (end -3.7 -1.8) (layer F.CrtYd) (width 0.05))
  (pad 3 thru_hole circle (at 0 5.08) (size 1.44 1.44) (drill 0.8) (layers *.Cu *.Mask))
  (pad 2 thru_hole circle (at -2.54 2.54) (size 1.44 1.44) (drill 0.8) (layers *.Cu *.Mask))
  (pad 1 thru_hole circle (at 0 0) (size 1.44 1.44) (drill 0.8) (layers *.Cu *.Mask))
  (fp_text user %R (at -0.445 2.54) (layer F.Fab)
    (effects (font (size 1 1) (thickness 0.15)))
  )
  (model ${KIPRJMOD}/kicad_libs_k/models_k.3d/Potentiometer_THT_k.3dshapes/Potentiometer_Bourns_3339S_Horizontal_k.wrl
    (at (xyz 0 0 0))
    (scale (xyz 1 1 1))
    (rotate (xyz 0 0 0))
  )
)