(module Potentiometer_Bourns_3266W_Vertical (layer F.Cu) (tedit 5A3D4994)
  (descr "Potentiometer, vertical, Bourns 3266W, https://www.bourns.com/docs/Product-Datasheets/3266.pdf")
  (tags "Potentiometer vertical Bourns 3266W")
  (fp_text reference REF** (at -2.54 -2.27) (layer F.SilkS)
    (effects (font (size 1 1) (thickness 0.15)))
  )
  (fp_text value Potentiometer_Bourns_3266W_Vertical (at -2.54 4.73) (layer F.Fab)
    (effects (font (size 1 1) (thickness 0.15)))
  )
  (fp_circle (center -0.455 2.21) (end 0.435 2.21) (layer F.Fab) (width 0.1))
  (fp_line (start -5.895 -1.02) (end -5.895 3.48) (layer F.Fab) (width 0.1))
  (fp_line (start -5.895 3.48) (end 0.815 3.48) (layer F.Fab) (width 0.1))
  (fp_line (start 0.815 3.48) (end 0.815 -1.02) (layer F.Fab) (width 0.1))
  (fp_line (start 0.815 -1.02) (end -5.895 -1.02) (layer F.Fab) (width 0.1))
  (fp_line (start -0.455 3.092) (end -0.454 1.329) (layer F.Fab) (width 0.1))
  (fp_line (start -0.455 3.092) (end -0.454 1.329) (layer F.Fab) (width 0.1))
  (fp_line (start -6.015 -1.14) (end 0.935 -1.14) (layer F.SilkS) (width 0.12))
  (fp_line (start -6.015 3.6) (end 0.935 3.6) (layer F.SilkS) (width 0.12))
  (fp_line (start -6.015 -1.14) (end -6.015 -0.495) (layer F.SilkS) (width 0.12))
  (fp_line (start -6.015 0.495) (end -6.015 3.6) (layer F.SilkS) (width 0.12))
  (fp_line (start 0.935 -1.14) (end 0.935 -0.495) (layer F.SilkS) (width 0.12))
  (fp_line (start 0.935 0.495) (end 0.935 3.6) (layer F.SilkS) (width 0.12))
  (fp_line (start -6.15 -1.3) (end -6.15 3.75) (layer F.CrtYd) (width 0.05))
  (fp_line (start -6.15 3.75) (end 1.1 3.75) (layer F.CrtYd) (width 0.05))
  (fp_line (start 1.1 3.75) (end 1.1 -1.3) (layer F.CrtYd) (width 0.05))
  (fp_line (start 1.1 -1.3) (end -6.15 -1.3) (layer F.CrtYd) (width 0.05))
  (pad 1 thru_hole circle (at 0 0) (size 1.44 1.44) (drill 0.8) (layers *.Cu *.Mask))
  (pad 2 thru_hole circle (at -2.54 2.54) (size 1.44 1.44) (drill 0.8) (layers *.Cu *.Mask))
  (pad 3 thru_hole circle (at -5.08 0) (size 1.44 1.44) (drill 0.8) (layers *.Cu *.Mask))
  (fp_text user %R (at -3.175 1.23) (layer F.Fab)
    (effects (font (size 0.91 0.91) (thickness 0.15)))
  )
  (model ${KIPRJMOD}/kicad_libs_k/models_k.3d/Potentiometer_THT_k.3dshapes/Potentiometer_Bourns_3266W_Vertical_k.wrl
    (at (xyz 0 0 0))
    (scale (xyz 1 1 1))
    (rotate (xyz 0 0 0))
  )
)