(module PinHeader_2x17_P2.54mm_Vertical_SMD (layer F.Cu) (tedit 59FED5CC)
  (descr "surface-mounted straight pin header, 2x17, 2.54mm pitch, double rows")
  (tags "Surface mounted pin header SMD 2x17 2.54mm double row")
  (attr smd)
  (fp_text reference REF** (at 0 -22.65) (layer F.SilkS)
    (effects (font (size 1 1) (thickness 0.15)))
  )
  (fp_text value PinHeader_2x17_P2.54mm_Vertical_SMD (at 0 22.65) (layer F.Fab)
    (effects (font (size 1 1) (thickness 0.15)))
  )
  (fp_line (start 2.54 21.59) (end -2.54 21.59) (layer F.Fab) (width 0.1))
  (fp_line (start -1.59 -21.59) (end 2.54 -21.59) (layer F.Fab) (width 0.1))
  (fp_line (start -2.54 21.59) (end -2.54 -20.64) (layer F.Fab) (width 0.1))
  (fp_line (start -2.54 -20.64) (end -1.59 -21.59) (layer F.Fab) (width 0.1))
  (fp_line (start 2.54 -21.59) (end 2.54 21.59) (layer F.Fab) (width 0.1))
  (fp_line (start -2.54 -20.64) (end -3.6 -20.64) (layer F.Fab) (width 0.1))
  (fp_line (start -3.6 -20.64) (end -3.6 -20) (layer F.Fab) (width 0.1))
  (fp_line (start -3.6 -20) (end -2.54 -20) (layer F.Fab) (width 0.1))
  (fp_line (start 2.54 -20.64) (end 3.6 -20.64) (layer F.Fab) (width 0.1))
  (fp_line (start 3.6 -20.64) (end 3.6 -20) (layer F.Fab) (width 0.1))
  (fp_line (start 3.6 -20) (end 2.54 -20) (layer F.Fab) (width 0.1))
  (fp_line (start -2.54 -18.1) (end -3.6 -18.1) (layer F.Fab) (width 0.1))
  (fp_line (start -3.6 -18.1) (end -3.6 -17.46) (layer F.Fab) (width 0.1))
  (fp_line (start -3.6 -17.46) (end -2.54 -17.46) (layer F.Fab) (width 0.1))
  (fp_line (start 2.54 -18.1) (end 3.6 -18.1) (layer F.Fab) (width 0.1))
  (fp_line (start 3.6 -18.1) (end 3.6 -17.46) (layer F.Fab) (width 0.1))
  (fp_line (start 3.6 -17.46) (end 2.54 -17.46) (layer F.Fab) (width 0.1))
  (fp_line (start -2.54 -15.56) (end -3.6 -15.56) (layer F.Fab) (width 0.1))
  (fp_line (start -3.6 -15.56) (end -3.6 -14.92) (layer F.Fab) (width 0.1))
  (fp_line (start -3.6 -14.92) (end -2.54 -14.92) (layer F.Fab) (width 0.1))
  (fp_line (start 2.54 -15.56) (end 3.6 -15.56) (layer F.Fab) (width 0.1))
  (fp_line (start 3.6 -15.56) (end 3.6 -14.92) (layer F.Fab) (width 0.1))
  (fp_line (start 3.6 -14.92) (end 2.54 -14.92) (layer F.Fab) (width 0.1))
  (fp_line (start -2.54 -13.02) (end -3.6 -13.02) (layer F.Fab) (width 0.1))
  (fp_line (start -3.6 -13.02) (end -3.6 -12.38) (layer F.Fab) (width 0.1))
  (fp_line (start -3.6 -12.38) (end -2.54 -12.38) (layer F.Fab) (width 0.1))
  (fp_line (start 2.54 -13.02) (end 3.6 -13.02) (layer F.Fab) (width 0.1))
  (fp_line (start 3.6 -13.02) (end 3.6 -12.38) (layer F.Fab) (width 0.1))
  (fp_line (start 3.6 -12.38) (end 2.54 -12.38) (layer F.Fab) (width 0.1))
  (fp_line (start -2.54 -10.48) (end -3.6 -10.48) (layer F.Fab) (width 0.1))
  (fp_line (start -3.6 -10.48) (end -3.6 -9.84) (layer F.Fab) (width 0.1))
  (fp_line (start -3.6 -9.84) (end -2.54 -9.84) (layer F.Fab) (width 0.1))
  (fp_line (start 2.54 -10.48) (end 3.6 -10.48) (layer F.Fab) (width 0.1))
  (fp_line (start 3.6 -10.48) (end 3.6 -9.84) (layer F.Fab) (width 0.1))
  (fp_line (start 3.6 -9.84) (end 2.54 -9.84) (layer F.Fab) (width 0.1))
  (fp_line (start -2.54 -7.94) (end -3.6 -7.94) (layer F.Fab) (width 0.1))
  (fp_line (start -3.6 -7.94) (end -3.6 -7.3) (layer F.Fab) (width 0.1))
  (fp_line (start -3.6 -7.3) (end -2.54 -7.3) (layer F.Fab) (width 0.1))
  (fp_line (start 2.54 -7.94) (end 3.6 -7.94) (layer F.Fab) (width 0.1))
  (fp_line (start 3.6 -7.94) (end 3.6 -7.3) (layer F.Fab) (width 0.1))
  (fp_line (start 3.6 -7.3) (end 2.54 -7.3) (layer F.Fab) (width 0.1))
  (fp_line (start -2.54 -5.4) (end -3.6 -5.4) (layer F.Fab) (width 0.1))
  (fp_line (start -3.6 -5.4) (end -3.6 -4.76) (layer F.Fab) (width 0.1))
  (fp_line (start -3.6 -4.76) (end -2.54 -4.76) (layer F.Fab) (width 0.1))
  (fp_line (start 2.54 -5.4) (end 3.6 -5.4) (layer F.Fab) (width 0.1))
  (fp_line (start 3.6 -5.4) (end 3.6 -4.76) (layer F.Fab) (width 0.1))
  (fp_line (start 3.6 -4.76) (end 2.54 -4.76) (layer F.Fab) (width 0.1))
  (fp_line (start -2.54 -2.86) (end -3.6 -2.86) (layer F.Fab) (width 0.1))
  (fp_line (start -3.6 -2.86) (end -3.6 -2.22) (layer F.Fab) (width 0.1))
  (fp_line (start -3.6 -2.22) (end -2.54 -2.22) (layer F.Fab) (width 0.1))
  (fp_line (start 2.54 -2.86) (end 3.6 -2.86) (layer F.Fab) (width 0.1))
  (fp_line (start 3.6 -2.86) (end 3.6 -2.22) (layer F.Fab) (width 0.1))
  (fp_line (start 3.6 -2.22) (end 2.54 -2.22) (layer F.Fab) (width 0.1))
  (fp_line (start -2.54 -0.32) (end -3.6 -0.32) (layer F.Fab) (width 0.1))
  (fp_line (start -3.6 -0.32) (end -3.6 0.32) (layer F.Fab) (width 0.1))
  (fp_line (start -3.6 0.32) (end -2.54 0.32) (layer F.Fab) (width 0.1))
  (fp_line (start 2.54 -0.32) (end 3.6 -0.32) (layer F.Fab) (width 0.1))
  (fp_line (start 3.6 -0.32) (end 3.6 0.32) (layer F.Fab) (width 0.1))
  (fp_line (start 3.6 0.32) (end 2.54 0.32) (layer F.Fab) (width 0.1))
  (fp_line (start -2.54 2.22) (end -3.6 2.22) (layer F.Fab) (width 0.1))
  (fp_line (start -3.6 2.22) (end -3.6 2.86) (layer F.Fab) (width 0.1))
  (fp_line (start -3.6 2.86) (end -2.54 2.86) (layer F.Fab) (width 0.1))
  (fp_line (start 2.54 2.22) (end 3.6 2.22) (layer F.Fab) (width 0.1))
  (fp_line (start 3.6 2.22) (end 3.6 2.86) (layer F.Fab) (width 0.1))
  (fp_line (start 3.6 2.86) (end 2.54 2.86) (layer F.Fab) (width 0.1))
  (fp_line (start -2.54 4.76) (end -3.6 4.76) (layer F.Fab) (width 0.1))
  (fp_line (start -3.6 4.76) (end -3.6 5.4) (layer F.Fab) (width 0.1))
  (fp_line (start -3.6 5.4) (end -2.54 5.4) (layer F.Fab) (width 0.1))
  (fp_line (start 2.54 4.76) (end 3.6 4.76) (layer F.Fab) (width 0.1))
  (fp_line (start 3.6 4.76) (end 3.6 5.4) (layer F.Fab) (width 0.1))
  (fp_line (start 3.6 5.4) (end 2.54 5.4) (layer F.Fab) (width 0.1))
  (fp_line (start -2.54 7.3) (end -3.6 7.3) (layer F.Fab) (width 0.1))
  (fp_line (start -3.6 7.3) (end -3.6 7.94) (layer F.Fab) (width 0.1))
  (fp_line (start -3.6 7.94) (end -2.54 7.94) (layer F.Fab) (width 0.1))
  (fp_line (start 2.54 7.3) (end 3.6 7.3) (layer F.Fab) (width 0.1))
  (fp_line (start 3.6 7.3) (end 3.6 7.94) (layer F.Fab) (width 0.1))
  (fp_line (start 3.6 7.94) (end 2.54 7.94) (layer F.Fab) (width 0.1))
  (fp_line (start -2.54 9.84) (end -3.6 9.84) (layer F.Fab) (width 0.1))
  (fp_line (start -3.6 9.84) (end -3.6 10.48) (layer F.Fab) (width 0.1))
  (fp_line (start -3.6 10.48) (end -2.54 10.48) (layer F.Fab) (width 0.1))
  (fp_line (start 2.54 9.84) (end 3.6 9.84) (layer F.Fab) (width 0.1))
  (fp_line (start 3.6 9.84) (end 3.6 10.48) (layer F.Fab) (width 0.1))
  (fp_line (start 3.6 10.48) (end 2.54 10.48) (layer F.Fab) (width 0.1))
  (fp_line (start -2.54 12.38) (end -3.6 12.38) (layer F.Fab) (width 0.1))
  (fp_line (start -3.6 12.38) (end -3.6 13.02) (layer F.Fab) (width 0.1))
  (fp_line (start -3.6 13.02) (end -2.54 13.02) (layer F.Fab) (width 0.1))
  (fp_line (start 2.54 12.38) (end 3.6 12.38) (layer F.Fab) (width 0.1))
  (fp_line (start 3.6 12.38) (end 3.6 13.02) (layer F.Fab) (width 0.1))
  (fp_line (start 3.6 13.02) (end 2.54 13.02) (layer F.Fab) (width 0.1))
  (fp_line (start -2.54 14.92) (end -3.6 14.92) (layer F.Fab) (width 0.1))
  (fp_line (start -3.6 14.92) (end -3.6 15.56) (layer F.Fab) (width 0.1))
  (fp_line (start -3.6 15.56) (end -2.54 15.56) (layer F.Fab) (width 0.1))
  (fp_line (start 2.54 14.92) (end 3.6 14.92) (layer F.Fab) (width 0.1))
  (fp_line (start 3.6 14.92) (end 3.6 15.56) (layer F.Fab) (width 0.1))
  (fp_line (start 3.6 15.56) (end 2.54 15.56) (layer F.Fab) (width 0.1))
  (fp_line (start -2.54 17.46) (end -3.6 17.46) (layer F.Fab) (width 0.1))
  (fp_line (start -3.6 17.46) (end -3.6 18.1) (layer F.Fab) (width 0.1))
  (fp_line (start -3.6 18.1) (end -2.54 18.1) (layer F.Fab) (width 0.1))
  (fp_line (start 2.54 17.46) (end 3.6 17.46) (layer F.Fab) (width 0.1))
  (fp_line (start 3.6 17.46) (end 3.6 18.1) (layer F.Fab) (width 0.1))
  (fp_line (start 3.6 18.1) (end 2.54 18.1) (layer F.Fab) (width 0.1))
  (fp_line (start -2.54 20) (end -3.6 20) (layer F.Fab) (width 0.1))
  (fp_line (start -3.6 20) (end -3.6 20.64) (layer F.Fab) (width 0.1))
  (fp_line (start -3.6 20.64) (end -2.54 20.64) (layer F.Fab) (width 0.1))
  (fp_line (start 2.54 20) (end 3.6 20) (layer F.Fab) (width 0.1))
  (fp_line (start 3.6 20) (end 3.6 20.64) (layer F.Fab) (width 0.1))
  (fp_line (start 3.6 20.64) (end 2.54 20.64) (layer F.Fab) (width 0.1))
  (fp_line (start -2.6 -21.65) (end 2.6 -21.65) (layer F.SilkS) (width 0.12))
  (fp_line (start -2.6 21.65) (end 2.6 21.65) (layer F.SilkS) (width 0.12))
  (fp_line (start -4.04 -21.08) (end -2.6 -21.08) (layer F.SilkS) (width 0.12))
  (fp_line (start -2.6 -21.65) (end -2.6 -21.08) (layer F.SilkS) (width 0.12))
  (fp_line (start 2.6 -21.65) (end 2.6 -21.08) (layer F.SilkS) (width 0.12))
  (fp_line (start -2.6 21.08) (end -2.6 21.65) (layer F.SilkS) (width 0.12))
  (fp_line (start 2.6 21.08) (end 2.6 21.65) (layer F.SilkS) (width 0.12))
  (fp_line (start -2.6 -19.56) (end -2.6 -18.54) (layer F.SilkS) (width 0.12))
  (fp_line (start 2.6 -19.56) (end 2.6 -18.54) (layer F.SilkS) (width 0.12))
  (fp_line (start -2.6 -17.02) (end -2.6 -16) (layer F.SilkS) (width 0.12))
  (fp_line (start 2.6 -17.02) (end 2.6 -16) (layer F.SilkS) (width 0.12))
  (fp_line (start -2.6 -14.48) (end -2.6 -13.46) (layer F.SilkS) (width 0.12))
  (fp_line (start 2.6 -14.48) (end 2.6 -13.46) (layer F.SilkS) (width 0.12))
  (fp_line (start -2.6 -11.94) (end -2.6 -10.92) (layer F.SilkS) (width 0.12))
  (fp_line (start 2.6 -11.94) (end 2.6 -10.92) (layer F.SilkS) (width 0.12))
  (fp_line (start -2.6 -9.4) (end -2.6 -8.38) (layer F.SilkS) (width 0.12))
  (fp_line (start 2.6 -9.4) (end 2.6 -8.38) (layer F.SilkS) (width 0.12))
  (fp_line (start -2.6 -6.86) (end -2.6 -5.84) (layer F.SilkS) (width 0.12))
  (fp_line (start 2.6 -6.86) (end 2.6 -5.84) (layer F.SilkS) (width 0.12))
  (fp_line (start -2.6 -4.32) (end -2.6 -3.3) (layer F.SilkS) (width 0.12))
  (fp_line (start 2.6 -4.32) (end 2.6 -3.3) (layer F.SilkS) (width 0.12))
  (fp_line (start -2.6 -1.78) (end -2.6 -0.76) (layer F.SilkS) (width 0.12))
  (fp_line (start 2.6 -1.78) (end 2.6 -0.76) (layer F.SilkS) (width 0.12))
  (fp_line (start -2.6 0.76) (end -2.6 1.78) (layer F.SilkS) (width 0.12))
  (fp_line (start 2.6 0.76) (end 2.6 1.78) (layer F.SilkS) (width 0.12))
  (fp_line (start -2.6 3.3) (end -2.6 4.32) (layer F.SilkS) (width 0.12))
  (fp_line (start 2.6 3.3) (end 2.6 4.32) (layer F.SilkS) (width 0.12))
  (fp_line (start -2.6 5.84) (end -2.6 6.86) (layer F.SilkS) (width 0.12))
  (fp_line (start 2.6 5.84) (end 2.6 6.86) (layer F.SilkS) (width 0.12))
  (fp_line (start -2.6 8.38) (end -2.6 9.4) (layer F.SilkS) (width 0.12))
  (fp_line (start 2.6 8.38) (end 2.6 9.4) (layer F.SilkS) (width 0.12))
  (fp_line (start -2.6 10.92) (end -2.6 11.94) (layer F.SilkS) (width 0.12))
  (fp_line (start 2.6 10.92) (end 2.6 11.94) (layer F.SilkS) (width 0.12))
  (fp_line (start -2.6 13.46) (end -2.6 14.48) (layer F.SilkS) (width 0.12))
  (fp_line (start 2.6 13.46) (end 2.6 14.48) (layer F.SilkS) (width 0.12))
  (fp_line (start -2.6 16) (end -2.6 17.02) (layer F.SilkS) (width 0.12))
  (fp_line (start 2.6 16) (end 2.6 17.02) (layer F.SilkS) (width 0.12))
  (fp_line (start -2.6 18.54) (end -2.6 19.56) (layer F.SilkS) (width 0.12))
  (fp_line (start 2.6 18.54) (end 2.6 19.56) (layer F.SilkS) (width 0.12))
  (fp_line (start -5.9 -22.1) (end -5.9 22.1) (layer F.CrtYd) (width 0.05))
  (fp_line (start -5.9 22.1) (end 5.9 22.1) (layer F.CrtYd) (width 0.05))
  (fp_line (start 5.9 22.1) (end 5.9 -22.1) (layer F.CrtYd) (width 0.05))
  (fp_line (start 5.9 -22.1) (end -5.9 -22.1) (layer F.CrtYd) (width 0.05))
  (pad 1 smd rect (at -2.525 -20.32) (size 3.15 1) (layers F.Cu F.Mask F.Paste))
  (pad 2 smd rect (at 2.525 -20.32) (size 3.15 1) (layers F.Cu F.Mask F.Paste))
  (pad 3 smd rect (at -2.525 -17.78) (size 3.15 1) (layers F.Cu F.Mask F.Paste))
  (pad 4 smd rect (at 2.525 -17.78) (size 3.15 1) (layers F.Cu F.Mask F.Paste))
  (pad 5 smd rect (at -2.525 -15.24) (size 3.15 1) (layers F.Cu F.Mask F.Paste))
  (pad 6 smd rect (at 2.525 -15.24) (size 3.15 1) (layers F.Cu F.Mask F.Paste))
  (pad 7 smd rect (at -2.525 -12.7) (size 3.15 1) (layers F.Cu F.Mask F.Paste))
  (pad 8 smd rect (at 2.525 -12.7) (size 3.15 1) (layers F.Cu F.Mask F.Paste))
  (pad 9 smd rect (at -2.525 -10.16) (size 3.15 1) (layers F.Cu F.Mask F.Paste))
  (pad 10 smd rect (at 2.525 -10.16) (size 3.15 1) (layers F.Cu F.Mask F.Paste))
  (pad 11 smd rect (at -2.525 -7.62) (size 3.15 1) (layers F.Cu F.Mask F.Paste))
  (pad 12 smd rect (at 2.525 -7.62) (size 3.15 1) (layers F.Cu F.Mask F.Paste))
  (pad 13 smd rect (at -2.525 -5.08) (size 3.15 1) (layers F.Cu F.Mask F.Paste))
  (pad 14 smd rect (at 2.525 -5.08) (size 3.15 1) (layers F.Cu F.Mask F.Paste))
  (pad 15 smd rect (at -2.525 -2.54) (size 3.15 1) (layers F.Cu F.Mask F.Paste))
  (pad 16 smd rect (at 2.525 -2.54) (size 3.15 1) (layers F.Cu F.Mask F.Paste))
  (pad 17 smd rect (at -2.525 0) (size 3.15 1) (layers F.Cu F.Mask F.Paste))
  (pad 18 smd rect (at 2.525 0) (size 3.15 1) (layers F.Cu F.Mask F.Paste))
  (pad 19 smd rect (at -2.525 2.54) (size 3.15 1) (layers F.Cu F.Mask F.Paste))
  (pad 20 smd rect (at 2.525 2.54) (size 3.15 1) (layers F.Cu F.Mask F.Paste))
  (pad 21 smd rect (at -2.525 5.08) (size 3.15 1) (layers F.Cu F.Mask F.Paste))
  (pad 22 smd rect (at 2.525 5.08) (size 3.15 1) (layers F.Cu F.Mask F.Paste))
  (pad 23 smd rect (at -2.525 7.62) (size 3.15 1) (layers F.Cu F.Mask F.Paste))
  (pad 24 smd rect (at 2.525 7.62) (size 3.15 1) (layers F.Cu F.Mask F.Paste))
  (pad 25 smd rect (at -2.525 10.16) (size 3.15 1) (layers F.Cu F.Mask F.Paste))
  (pad 26 smd rect (at 2.525 10.16) (size 3.15 1) (layers F.Cu F.Mask F.Paste))
  (pad 27 smd rect (at -2.525 12.7) (size 3.15 1) (layers F.Cu F.Mask F.Paste))
  (pad 28 smd rect (at 2.525 12.7) (size 3.15 1) (layers F.Cu F.Mask F.Paste))
  (pad 29 smd rect (at -2.525 15.24) (size 3.15 1) (layers F.Cu F.Mask F.Paste))
  (pad 30 smd rect (at 2.525 15.24) (size 3.15 1) (layers F.Cu F.Mask F.Paste))
  (pad 31 smd rect (at -2.525 17.78) (size 3.15 1) (layers F.Cu F.Mask F.Paste))
  (pad 32 smd rect (at 2.525 17.78) (size 3.15 1) (layers F.Cu F.Mask F.Paste))
  (pad 33 smd rect (at -2.525 20.32) (size 3.15 1) (layers F.Cu F.Mask F.Paste))
  (pad 34 smd rect (at 2.525 20.32) (size 3.15 1) (layers F.Cu F.Mask F.Paste))
  (fp_text user %R (at 0 0 90) (layer F.Fab)
    (effects (font (size 1 1) (thickness 0.15)))
  )
  (model ${KIPRJMOD}/kicad_libs_k/models_k.3d/Connector_PinHeader_2.54mm_k.3dshapes/PinHeader_2x17_P2.54mm_Vertical_SMD_k.wrl
    (at (xyz 0 0 0))
    (scale (xyz 1 1 1))
    (rotate (xyz 0 0 0))
  )
)