(module PinHeader_1x27_P2.54mm_Vertical_SMD_Pin1Left (layer F.Cu) (tedit 59FED5CC)
  (descr "surface-mounted straight pin header, 1x27, 2.54mm pitch, single row, style 1 (pin 1 left)")
  (tags "Surface mounted pin header SMD 1x27 2.54mm single row style1 pin1 left")
  (attr smd)
  (fp_text reference REF** (at 0 -35.35) (layer F.SilkS)
    (effects (font (size 1 1) (thickness 0.15)))
  )
  (fp_text value PinHeader_1x27_P2.54mm_Vertical_SMD_Pin1Left (at 0 35.35) (layer F.Fab)
    (effects (font (size 1 1) (thickness 0.15)))
  )
  (fp_line (start 1.27 34.29) (end -1.27 34.29) (layer F.Fab) (width 0.1))
  (fp_line (start -0.32 -34.29) (end 1.27 -34.29) (layer F.Fab) (width 0.1))
  (fp_line (start -1.27 34.29) (end -1.27 -33.34) (layer F.Fab) (width 0.1))
  (fp_line (start -1.27 -33.34) (end -0.32 -34.29) (layer F.Fab) (width 0.1))
  (fp_line (start 1.27 -34.29) (end 1.27 34.29) (layer F.Fab) (width 0.1))
  (fp_line (start -1.27 -33.34) (end -2.54 -33.34) (layer F.Fab) (width 0.1))
  (fp_line (start -2.54 -33.34) (end -2.54 -32.7) (layer F.Fab) (width 0.1))
  (fp_line (start -2.54 -32.7) (end -1.27 -32.7) (layer F.Fab) (width 0.1))
  (fp_line (start -1.27 -28.26) (end -2.54 -28.26) (layer F.Fab) (width 0.1))
  (fp_line (start -2.54 -28.26) (end -2.54 -27.62) (layer F.Fab) (width 0.1))
  (fp_line (start -2.54 -27.62) (end -1.27 -27.62) (layer F.Fab) (width 0.1))
  (fp_line (start -1.27 -23.18) (end -2.54 -23.18) (layer F.Fab) (width 0.1))
  (fp_line (start -2.54 -23.18) (end -2.54 -22.54) (layer F.Fab) (width 0.1))
  (fp_line (start -2.54 -22.54) (end -1.27 -22.54) (layer F.Fab) (width 0.1))
  (fp_line (start -1.27 -18.1) (end -2.54 -18.1) (layer F.Fab) (width 0.1))
  (fp_line (start -2.54 -18.1) (end -2.54 -17.46) (layer F.Fab) (width 0.1))
  (fp_line (start -2.54 -17.46) (end -1.27 -17.46) (layer F.Fab) (width 0.1))
  (fp_line (start -1.27 -13.02) (end -2.54 -13.02) (layer F.Fab) (width 0.1))
  (fp_line (start -2.54 -13.02) (end -2.54 -12.38) (layer F.Fab) (width 0.1))
  (fp_line (start -2.54 -12.38) (end -1.27 -12.38) (layer F.Fab) (width 0.1))
  (fp_line (start -1.27 -7.94) (end -2.54 -7.94) (layer F.Fab) (width 0.1))
  (fp_line (start -2.54 -7.94) (end -2.54 -7.3) (layer F.Fab) (width 0.1))
  (fp_line (start -2.54 -7.3) (end -1.27 -7.3) (layer F.Fab) (width 0.1))
  (fp_line (start -1.27 -2.86) (end -2.54 -2.86) (layer F.Fab) (width 0.1))
  (fp_line (start -2.54 -2.86) (end -2.54 -2.22) (layer F.Fab) (width 0.1))
  (fp_line (start -2.54 -2.22) (end -1.27 -2.22) (layer F.Fab) (width 0.1))
  (fp_line (start -1.27 2.22) (end -2.54 2.22) (layer F.Fab) (width 0.1))
  (fp_line (start -2.54 2.22) (end -2.54 2.86) (layer F.Fab) (width 0.1))
  (fp_line (start -2.54 2.86) (end -1.27 2.86) (layer F.Fab) (width 0.1))
  (fp_line (start -1.27 7.3) (end -2.54 7.3) (layer F.Fab) (width 0.1))
  (fp_line (start -2.54 7.3) (end -2.54 7.94) (layer F.Fab) (width 0.1))
  (fp_line (start -2.54 7.94) (end -1.27 7.94) (layer F.Fab) (width 0.1))
  (fp_line (start -1.27 12.38) (end -2.54 12.38) (layer F.Fab) (width 0.1))
  (fp_line (start -2.54 12.38) (end -2.54 13.02) (layer F.Fab) (width 0.1))
  (fp_line (start -2.54 13.02) (end -1.27 13.02) (layer F.Fab) (width 0.1))
  (fp_line (start -1.27 17.46) (end -2.54 17.46) (layer F.Fab) (width 0.1))
  (fp_line (start -2.54 17.46) (end -2.54 18.1) (layer F.Fab) (width 0.1))
  (fp_line (start -2.54 18.1) (end -1.27 18.1) (layer F.Fab) (width 0.1))
  (fp_line (start -1.27 22.54) (end -2.54 22.54) (layer F.Fab) (width 0.1))
  (fp_line (start -2.54 22.54) (end -2.54 23.18) (layer F.Fab) (width 0.1))
  (fp_line (start -2.54 23.18) (end -1.27 23.18) (layer F.Fab) (width 0.1))
  (fp_line (start -1.27 27.62) (end -2.54 27.62) (layer F.Fab) (width 0.1))
  (fp_line (start -2.54 27.62) (end -2.54 28.26) (layer F.Fab) (width 0.1))
  (fp_line (start -2.54 28.26) (end -1.27 28.26) (layer F.Fab) (width 0.1))
  (fp_line (start -1.27 32.7) (end -2.54 32.7) (layer F.Fab) (width 0.1))
  (fp_line (start -2.54 32.7) (end -2.54 33.34) (layer F.Fab) (width 0.1))
  (fp_line (start -2.54 33.34) (end -1.27 33.34) (layer F.Fab) (width 0.1))
  (fp_line (start 1.27 -30.8) (end 2.54 -30.8) (layer F.Fab) (width 0.1))
  (fp_line (start 2.54 -30.8) (end 2.54 -30.16) (layer F.Fab) (width 0.1))
  (fp_line (start 2.54 -30.16) (end 1.27 -30.16) (layer F.Fab) (width 0.1))
  (fp_line (start 1.27 -25.72) (end 2.54 -25.72) (layer F.Fab) (width 0.1))
  (fp_line (start 2.54 -25.72) (end 2.54 -25.08) (layer F.Fab) (width 0.1))
  (fp_line (start 2.54 -25.08) (end 1.27 -25.08) (layer F.Fab) (width 0.1))
  (fp_line (start 1.27 -20.64) (end 2.54 -20.64) (layer F.Fab) (width 0.1))
  (fp_line (start 2.54 -20.64) (end 2.54 -20) (layer F.Fab) (width 0.1))
  (fp_line (start 2.54 -20) (end 1.27 -20) (layer F.Fab) (width 0.1))
  (fp_line (start 1.27 -15.56) (end 2.54 -15.56) (layer F.Fab) (width 0.1))
  (fp_line (start 2.54 -15.56) (end 2.54 -14.92) (layer F.Fab) (width 0.1))
  (fp_line (start 2.54 -14.92) (end 1.27 -14.92) (layer F.Fab) (width 0.1))
  (fp_line (start 1.27 -10.48) (end 2.54 -10.48) (layer F.Fab) (width 0.1))
  (fp_line (start 2.54 -10.48) (end 2.54 -9.84) (layer F.Fab) (width 0.1))
  (fp_line (start 2.54 -9.84) (end 1.27 -9.84) (layer F.Fab) (width 0.1))
  (fp_line (start 1.27 -5.4) (end 2.54 -5.4) (layer F.Fab) (width 0.1))
  (fp_line (start 2.54 -5.4) (end 2.54 -4.76) (layer F.Fab) (width 0.1))
  (fp_line (start 2.54 -4.76) (end 1.27 -4.76) (layer F.Fab) (width 0.1))
  (fp_line (start 1.27 -0.32) (end 2.54 -0.32) (layer F.Fab) (width 0.1))
  (fp_line (start 2.54 -0.32) (end 2.54 0.32) (layer F.Fab) (width 0.1))
  (fp_line (start 2.54 0.32) (end 1.27 0.32) (layer F.Fab) (width 0.1))
  (fp_line (start 1.27 4.76) (end 2.54 4.76) (layer F.Fab) (width 0.1))
  (fp_line (start 2.54 4.76) (end 2.54 5.4) (layer F.Fab) (width 0.1))
  (fp_line (start 2.54 5.4) (end 1.27 5.4) (layer F.Fab) (width 0.1))
  (fp_line (start 1.27 9.84) (end 2.54 9.84) (layer F.Fab) (width 0.1))
  (fp_line (start 2.54 9.84) (end 2.54 10.48) (layer F.Fab) (width 0.1))
  (fp_line (start 2.54 10.48) (end 1.27 10.48) (layer F.Fab) (width 0.1))
  (fp_line (start 1.27 14.92) (end 2.54 14.92) (layer F.Fab) (width 0.1))
  (fp_line (start 2.54 14.92) (end 2.54 15.56) (layer F.Fab) (width 0.1))
  (fp_line (start 2.54 15.56) (end 1.27 15.56) (layer F.Fab) (width 0.1))
  (fp_line (start 1.27 20) (end 2.54 20) (layer F.Fab) (width 0.1))
  (fp_line (start 2.54 20) (end 2.54 20.64) (layer F.Fab) (width 0.1))
  (fp_line (start 2.54 20.64) (end 1.27 20.64) (layer F.Fab) (width 0.1))
  (fp_line (start 1.27 25.08) (end 2.54 25.08) (layer F.Fab) (width 0.1))
  (fp_line (start 2.54 25.08) (end 2.54 25.72) (layer F.Fab) (width 0.1))
  (fp_line (start 2.54 25.72) (end 1.27 25.72) (layer F.Fab) (width 0.1))
  (fp_line (start 1.27 30.16) (end 2.54 30.16) (layer F.Fab) (width 0.1))
  (fp_line (start 2.54 30.16) (end 2.54 30.8) (layer F.Fab) (width 0.1))
  (fp_line (start 2.54 30.8) (end 1.27 30.8) (layer F.Fab) (width 0.1))
  (fp_line (start -1.33 -34.35) (end 1.33 -34.35) (layer F.SilkS) (width 0.12))
  (fp_line (start -1.33 34.35) (end 1.33 34.35) (layer F.SilkS) (width 0.12))
  (fp_line (start 1.33 -34.35) (end 1.33 -31.24) (layer F.SilkS) (width 0.12))
  (fp_line (start -1.33 -33.78) (end -2.85 -33.78) (layer F.SilkS) (width 0.12))
  (fp_line (start -1.33 -34.35) (end -1.33 -33.78) (layer F.SilkS) (width 0.12))
  (fp_line (start 1.33 33.78) (end 1.33 34.35) (layer F.SilkS) (width 0.12))
  (fp_line (start 1.33 -29.72) (end 1.33 -26.16) (layer F.SilkS) (width 0.12))
  (fp_line (start 1.33 -24.64) (end 1.33 -21.08) (layer F.SilkS) (width 0.12))
  (fp_line (start 1.33 -19.56) (end 1.33 -16) (layer F.SilkS) (width 0.12))
  (fp_line (start 1.33 -14.48) (end 1.33 -10.92) (layer F.SilkS) (width 0.12))
  (fp_line (start 1.33 -9.4) (end 1.33 -5.84) (layer F.SilkS) (width 0.12))
  (fp_line (start 1.33 -4.32) (end 1.33 -0.76) (layer F.SilkS) (width 0.12))
  (fp_line (start 1.33 0.76) (end 1.33 4.32) (layer F.SilkS) (width 0.12))
  (fp_line (start 1.33 5.84) (end 1.33 9.4) (layer F.SilkS) (width 0.12))
  (fp_line (start 1.33 10.92) (end 1.33 14.48) (layer F.SilkS) (width 0.12))
  (fp_line (start 1.33 16) (end 1.33 19.56) (layer F.SilkS) (width 0.12))
  (fp_line (start 1.33 21.08) (end 1.33 24.64) (layer F.SilkS) (width 0.12))
  (fp_line (start 1.33 26.16) (end 1.33 29.72) (layer F.SilkS) (width 0.12))
  (fp_line (start 1.33 31.24) (end 1.33 34.35) (layer F.SilkS) (width 0.12))
  (fp_line (start -1.33 -32.26) (end -1.33 -28.7) (layer F.SilkS) (width 0.12))
  (fp_line (start -1.33 -27.18) (end -1.33 -23.62) (layer F.SilkS) (width 0.12))
  (fp_line (start -1.33 -22.1) (end -1.33 -18.54) (layer F.SilkS) (width 0.12))
  (fp_line (start -1.33 -17.02) (end -1.33 -13.46) (layer F.SilkS) (width 0.12))
  (fp_line (start -1.33 -11.94) (end -1.33 -8.38) (layer F.SilkS) (width 0.12))
  (fp_line (start -1.33 -6.86) (end -1.33 -3.3) (layer F.SilkS) (width 0.12))
  (fp_line (start -1.33 -1.78) (end -1.33 1.78) (layer F.SilkS) (width 0.12))
  (fp_line (start -1.33 3.3) (end -1.33 6.86) (layer F.SilkS) (width 0.12))
  (fp_line (start -1.33 8.38) (end -1.33 11.94) (layer F.SilkS) (width 0.12))
  (fp_line (start -1.33 13.46) (end -1.33 17.02) (layer F.SilkS) (width 0.12))
  (fp_line (start -1.33 18.54) (end -1.33 22.1) (layer F.SilkS) (width 0.12))
  (fp_line (start -1.33 23.62) (end -1.33 27.18) (layer F.SilkS) (width 0.12))
  (fp_line (start -1.33 28.7) (end -1.33 32.26) (layer F.SilkS) (width 0.12))
  (fp_line (start -3.45 -34.8) (end -3.45 34.8) (layer F.CrtYd) (width 0.05))
  (fp_line (start -3.45 34.8) (end 3.45 34.8) (layer F.CrtYd) (width 0.05))
  (fp_line (start 3.45 34.8) (end 3.45 -34.8) (layer F.CrtYd) (width 0.05))
  (fp_line (start 3.45 -34.8) (end -3.45 -34.8) (layer F.CrtYd) (width 0.05))
  (pad 1 smd rect (at -1.655 -33.02) (size 2.51 1) (layers F.Cu F.Mask F.Paste))
  (pad 3 smd rect (at -1.655 -27.94) (size 2.51 1) (layers F.Cu F.Mask F.Paste))
  (pad 5 smd rect (at -1.655 -22.86) (size 2.51 1) (layers F.Cu F.Mask F.Paste))
  (pad 7 smd rect (at -1.655 -17.78) (size 2.51 1) (layers F.Cu F.Mask F.Paste))
  (pad 9 smd rect (at -1.655 -12.7) (size 2.51 1) (layers F.Cu F.Mask F.Paste))
  (pad 11 smd rect (at -1.655 -7.62) (size 2.51 1) (layers F.Cu F.Mask F.Paste))
  (pad 13 smd rect (at -1.655 -2.54) (size 2.51 1) (layers F.Cu F.Mask F.Paste))
  (pad 15 smd rect (at -1.655 2.54) (size 2.51 1) (layers F.Cu F.Mask F.Paste))
  (pad 17 smd rect (at -1.655 7.62) (size 2.51 1) (layers F.Cu F.Mask F.Paste))
  (pad 19 smd rect (at -1.655 12.7) (size 2.51 1) (layers F.Cu F.Mask F.Paste))
  (pad 21 smd rect (at -1.655 17.78) (size 2.51 1) (layers F.Cu F.Mask F.Paste))
  (pad 23 smd rect (at -1.655 22.86) (size 2.51 1) (layers F.Cu F.Mask F.Paste))
  (pad 25 smd rect (at -1.655 27.94) (size 2.51 1) (layers F.Cu F.Mask F.Paste))
  (pad 27 smd rect (at -1.655 33.02) (size 2.51 1) (layers F.Cu F.Mask F.Paste))
  (pad 2 smd rect (at 1.655 -30.48) (size 2.51 1) (layers F.Cu F.Mask F.Paste))
  (pad 4 smd rect (at 1.655 -25.4) (size 2.51 1) (layers F.Cu F.Mask F.Paste))
  (pad 6 smd rect (at 1.655 -20.32) (size 2.51 1) (layers F.Cu F.Mask F.Paste))
  (pad 8 smd rect (at 1.655 -15.24) (size 2.51 1) (layers F.Cu F.Mask F.Paste))
  (pad 10 smd rect (at 1.655 -10.16) (size 2.51 1) (layers F.Cu F.Mask F.Paste))
  (pad 12 smd rect (at 1.655 -5.08) (size 2.51 1) (layers F.Cu F.Mask F.Paste))
  (pad 14 smd rect (at 1.655 0) (size 2.51 1) (layers F.Cu F.Mask F.Paste))
  (pad 16 smd rect (at 1.655 5.08) (size 2.51 1) (layers F.Cu F.Mask F.Paste))
  (pad 18 smd rect (at 1.655 10.16) (size 2.51 1) (layers F.Cu F.Mask F.Paste))
  (pad 20 smd rect (at 1.655 15.24) (size 2.51 1) (layers F.Cu F.Mask F.Paste))
  (pad 22 smd rect (at 1.655 20.32) (size 2.51 1) (layers F.Cu F.Mask F.Paste))
  (pad 24 smd rect (at 1.655 25.4) (size 2.51 1) (layers F.Cu F.Mask F.Paste))
  (pad 26 smd rect (at 1.655 30.48) (size 2.51 1) (layers F.Cu F.Mask F.Paste))
  (fp_text user %R (at 0 0 90) (layer F.Fab)
    (effects (font (size 1 1) (thickness 0.15)))
  )
  (model ${KIPRJMOD}/kicad_libs_k/models_k.3d/Connector_PinHeader_2.54mm_k.3dshapes/PinHeader_1x27_P2.54mm_Vertical_SMD_Pin1Left_k.wrl
    (at (xyz 0 0 0))
    (scale (xyz 1 1 1))
    (rotate (xyz 0 0 0))
  )
)