(module PinHeader_1x40_P2.54mm_Horizontal (layer F.Cu) (tedit 59FED5CB)
  (descr "Through hole angled pin header, 1x40, 2.54mm pitch, 6mm pin length, single row")
  (tags "Through hole angled pin header THT 1x40 2.54mm single row")
  (fp_text reference REF** (at 4.385 -2.27) (layer F.SilkS)
    (effects (font (size 1 1) (thickness 0.15)))
  )
  (fp_text value PinHeader_1x40_P2.54mm_Horizontal (at 4.385 101.33) (layer F.Fab)
    (effects (font (size 1 1) (thickness 0.15)))
  )
  (fp_line (start 2.135 -1.27) (end 4.04 -1.27) (layer F.Fab) (width 0.1))
  (fp_line (start 4.04 -1.27) (end 4.04 100.33) (layer F.Fab) (width 0.1))
  (fp_line (start 4.04 100.33) (end 1.5 100.33) (layer F.Fab) (width 0.1))
  (fp_line (start 1.5 100.33) (end 1.5 -0.635) (layer F.Fab) (width 0.1))
  (fp_line (start 1.5 -0.635) (end 2.135 -1.27) (layer F.Fab) (width 0.1))
  (fp_line (start -0.32 -0.32) (end 1.5 -0.32) (layer F.Fab) (width 0.1))
  (fp_line (start -0.32 -0.32) (end -0.32 0.32) (layer F.Fab) (width 0.1))
  (fp_line (start -0.32 0.32) (end 1.5 0.32) (layer F.Fab) (width 0.1))
  (fp_line (start 4.04 -0.32) (end 10.04 -0.32) (layer F.Fab) (width 0.1))
  (fp_line (start 10.04 -0.32) (end 10.04 0.32) (layer F.Fab) (width 0.1))
  (fp_line (start 4.04 0.32) (end 10.04 0.32) (layer F.Fab) (width 0.1))
  (fp_line (start -0.32 2.22) (end 1.5 2.22) (layer F.Fab) (width 0.1))
  (fp_line (start -0.32 2.22) (end -0.32 2.86) (layer F.Fab) (width 0.1))
  (fp_line (start -0.32 2.86) (end 1.5 2.86) (layer F.Fab) (width 0.1))
  (fp_line (start 4.04 2.22) (end 10.04 2.22) (layer F.Fab) (width 0.1))
  (fp_line (start 10.04 2.22) (end 10.04 2.86) (layer F.Fab) (width 0.1))
  (fp_line (start 4.04 2.86) (end 10.04 2.86) (layer F.Fab) (width 0.1))
  (fp_line (start -0.32 4.76) (end 1.5 4.76) (layer F.Fab) (width 0.1))
  (fp_line (start -0.32 4.76) (end -0.32 5.4) (layer F.Fab) (width 0.1))
  (fp_line (start -0.32 5.4) (end 1.5 5.4) (layer F.Fab) (width 0.1))
  (fp_line (start 4.04 4.76) (end 10.04 4.76) (layer F.Fab) (width 0.1))
  (fp_line (start 10.04 4.76) (end 10.04 5.4) (layer F.Fab) (width 0.1))
  (fp_line (start 4.04 5.4) (end 10.04 5.4) (layer F.Fab) (width 0.1))
  (fp_line (start -0.32 7.3) (end 1.5 7.3) (layer F.Fab) (width 0.1))
  (fp_line (start -0.32 7.3) (end -0.32 7.94) (layer F.Fab) (width 0.1))
  (fp_line (start -0.32 7.94) (end 1.5 7.94) (layer F.Fab) (width 0.1))
  (fp_line (start 4.04 7.3) (end 10.04 7.3) (layer F.Fab) (width 0.1))
  (fp_line (start 10.04 7.3) (end 10.04 7.94) (layer F.Fab) (width 0.1))
  (fp_line (start 4.04 7.94) (end 10.04 7.94) (layer F.Fab) (width 0.1))
  (fp_line (start -0.32 9.84) (end 1.5 9.84) (layer F.Fab) (width 0.1))
  (fp_line (start -0.32 9.84) (end -0.32 10.48) (layer F.Fab) (width 0.1))
  (fp_line (start -0.32 10.48) (end 1.5 10.48) (layer F.Fab) (width 0.1))
  (fp_line (start 4.04 9.84) (end 10.04 9.84) (layer F.Fab) (width 0.1))
  (fp_line (start 10.04 9.84) (end 10.04 10.48) (layer F.Fab) (width 0.1))
  (fp_line (start 4.04 10.48) (end 10.04 10.48) (layer F.Fab) (width 0.1))
  (fp_line (start -0.32 12.38) (end 1.5 12.38) (layer F.Fab) (width 0.1))
  (fp_line (start -0.32 12.38) (end -0.32 13.02) (layer F.Fab) (width 0.1))
  (fp_line (start -0.32 13.02) (end 1.5 13.02) (layer F.Fab) (width 0.1))
  (fp_line (start 4.04 12.38) (end 10.04 12.38) (layer F.Fab) (width 0.1))
  (fp_line (start 10.04 12.38) (end 10.04 13.02) (layer F.Fab) (width 0.1))
  (fp_line (start 4.04 13.02) (end 10.04 13.02) (layer F.Fab) (width 0.1))
  (fp_line (start -0.32 14.92) (end 1.5 14.92) (layer F.Fab) (width 0.1))
  (fp_line (start -0.32 14.92) (end -0.32 15.56) (layer F.Fab) (width 0.1))
  (fp_line (start -0.32 15.56) (end 1.5 15.56) (layer F.Fab) (width 0.1))
  (fp_line (start 4.04 14.92) (end 10.04 14.92) (layer F.Fab) (width 0.1))
  (fp_line (start 10.04 14.92) (end 10.04 15.56) (layer F.Fab) (width 0.1))
  (fp_line (start 4.04 15.56) (end 10.04 15.56) (layer F.Fab) (width 0.1))
  (fp_line (start -0.32 17.46) (end 1.5 17.46) (layer F.Fab) (width 0.1))
  (fp_line (start -0.32 17.46) (end -0.32 18.1) (layer F.Fab) (width 0.1))
  (fp_line (start -0.32 18.1) (end 1.5 18.1) (layer F.Fab) (width 0.1))
  (fp_line (start 4.04 17.46) (end 10.04 17.46) (layer F.Fab) (width 0.1))
  (fp_line (start 10.04 17.46) (end 10.04 18.1) (layer F.Fab) (width 0.1))
  (fp_line (start 4.04 18.1) (end 10.04 18.1) (layer F.Fab) (width 0.1))
  (fp_line (start -0.32 20) (end 1.5 20) (layer F.Fab) (width 0.1))
  (fp_line (start -0.32 20) (end -0.32 20.64) (layer F.Fab) (width 0.1))
  (fp_line (start -0.32 20.64) (end 1.5 20.64) (layer F.Fab) (width 0.1))
  (fp_line (start 4.04 20) (end 10.04 20) (layer F.Fab) (width 0.1))
  (fp_line (start 10.04 20) (end 10.04 20.64) (layer F.Fab) (width 0.1))
  (fp_line (start 4.04 20.64) (end 10.04 20.64) (layer F.Fab) (width 0.1))
  (fp_line (start -0.32 22.54) (end 1.5 22.54) (layer F.Fab) (width 0.1))
  (fp_line (start -0.32 22.54) (end -0.32 23.18) (layer F.Fab) (width 0.1))
  (fp_line (start -0.32 23.18) (end 1.5 23.18) (layer F.Fab) (width 0.1))
  (fp_line (start 4.04 22.54) (end 10.04 22.54) (layer F.Fab) (width 0.1))
  (fp_line (start 10.04 22.54) (end 10.04 23.18) (layer F.Fab) (width 0.1))
  (fp_line (start 4.04 23.18) (end 10.04 23.18) (layer F.Fab) (width 0.1))
  (fp_line (start -0.32 25.08) (end 1.5 25.08) (layer F.Fab) (width 0.1))
  (fp_line (start -0.32 25.08) (end -0.32 25.72) (layer F.Fab) (width 0.1))
  (fp_line (start -0.32 25.72) (end 1.5 25.72) (layer F.Fab) (width 0.1))
  (fp_line (start 4.04 25.08) (end 10.04 25.08) (layer F.Fab) (width 0.1))
  (fp_line (start 10.04 25.08) (end 10.04 25.72) (layer F.Fab) (width 0.1))
  (fp_line (start 4.04 25.72) (end 10.04 25.72) (layer F.Fab) (width 0.1))
  (fp_line (start -0.32 27.62) (end 1.5 27.62) (layer F.Fab) (width 0.1))
  (fp_line (start -0.32 27.62) (end -0.32 28.26) (layer F.Fab) (width 0.1))
  (fp_line (start -0.32 28.26) (end 1.5 28.26) (layer F.Fab) (width 0.1))
  (fp_line (start 4.04 27.62) (end 10.04 27.62) (layer F.Fab) (width 0.1))
  (fp_line (start 10.04 27.62) (end 10.04 28.26) (layer F.Fab) (width 0.1))
  (fp_line (start 4.04 28.26) (end 10.04 28.26) (layer F.Fab) (width 0.1))
  (fp_line (start -0.32 30.16) (end 1.5 30.16) (layer F.Fab) (width 0.1))
  (fp_line (start -0.32 30.16) (end -0.32 30.8) (layer F.Fab) (width 0.1))
  (fp_line (start -0.32 30.8) (end 1.5 30.8) (layer F.Fab) (width 0.1))
  (fp_line (start 4.04 30.16) (end 10.04 30.16) (layer F.Fab) (width 0.1))
  (fp_line (start 10.04 30.16) (end 10.04 30.8) (layer F.Fab) (width 0.1))
  (fp_line (start 4.04 30.8) (end 10.04 30.8) (layer F.Fab) (width 0.1))
  (fp_line (start -0.32 32.7) (end 1.5 32.7) (layer F.Fab) (width 0.1))
  (fp_line (start -0.32 32.7) (end -0.32 33.34) (layer F.Fab) (width 0.1))
  (fp_line (start -0.32 33.34) (end 1.5 33.34) (layer F.Fab) (width 0.1))
  (fp_line (start 4.04 32.7) (end 10.04 32.7) (layer F.Fab) (width 0.1))
  (fp_line (start 10.04 32.7) (end 10.04 33.34) (layer F.Fab) (width 0.1))
  (fp_line (start 4.04 33.34) (end 10.04 33.34) (layer F.Fab) (width 0.1))
  (fp_line (start -0.32 35.24) (end 1.5 35.24) (layer F.Fab) (width 0.1))
  (fp_line (start -0.32 35.24) (end -0.32 35.88) (layer F.Fab) (width 0.1))
  (fp_line (start -0.32 35.88) (end 1.5 35.88) (layer F.Fab) (width 0.1))
  (fp_line (start 4.04 35.24) (end 10.04 35.24) (layer F.Fab) (width 0.1))
  (fp_line (start 10.04 35.24) (end 10.04 35.88) (layer F.Fab) (width 0.1))
  (fp_line (start 4.04 35.88) (end 10.04 35.88) (layer F.Fab) (width 0.1))
  (fp_line (start -0.32 37.78) (end 1.5 37.78) (layer F.Fab) (width 0.1))
  (fp_line (start -0.32 37.78) (end -0.32 38.42) (layer F.Fab) (width 0.1))
  (fp_line (start -0.32 38.42) (end 1.5 38.42) (layer F.Fab) (width 0.1))
  (fp_line (start 4.04 37.78) (end 10.04 37.78) (layer F.Fab) (width 0.1))
  (fp_line (start 10.04 37.78) (end 10.04 38.42) (layer F.Fab) (width 0.1))
  (fp_line (start 4.04 38.42) (end 10.04 38.42) (layer F.Fab) (width 0.1))
  (fp_line (start -0.32 40.32) (end 1.5 40.32) (layer F.Fab) (width 0.1))
  (fp_line (start -0.32 40.32) (end -0.32 40.96) (layer F.Fab) (width 0.1))
  (fp_line (start -0.32 40.96) (end 1.5 40.96) (layer F.Fab) (width 0.1))
  (fp_line (start 4.04 40.32) (end 10.04 40.32) (layer F.Fab) (width 0.1))
  (fp_line (start 10.04 40.32) (end 10.04 40.96) (layer F.Fab) (width 0.1))
  (fp_line (start 4.04 40.96) (end 10.04 40.96) (layer F.Fab) (width 0.1))
  (fp_line (start -0.32 42.86) (end 1.5 42.86) (layer F.Fab) (width 0.1))
  (fp_line (start -0.32 42.86) (end -0.32 43.5) (layer F.Fab) (width 0.1))
  (fp_line (start -0.32 43.5) (end 1.5 43.5) (layer F.Fab) (width 0.1))
  (fp_line (start 4.04 42.86) (end 10.04 42.86) (layer F.Fab) (width 0.1))
  (fp_line (start 10.04 42.86) (end 10.04 43.5) (layer F.Fab) (width 0.1))
  (fp_line (start 4.04 43.5) (end 10.04 43.5) (layer F.Fab) (width 0.1))
  (fp_line (start -0.32 45.4) (end 1.5 45.4) (layer F.Fab) (width 0.1))
  (fp_line (start -0.32 45.4) (end -0.32 46.04) (layer F.Fab) (width 0.1))
  (fp_line (start -0.32 46.04) (end 1.5 46.04) (layer F.Fab) (width 0.1))
  (fp_line (start 4.04 45.4) (end 10.04 45.4) (layer F.Fab) (width 0.1))
  (fp_line (start 10.04 45.4) (end 10.04 46.04) (layer F.Fab) (width 0.1))
  (fp_line (start 4.04 46.04) (end 10.04 46.04) (layer F.Fab) (width 0.1))
  (fp_line (start -0.32 47.94) (end 1.5 47.94) (layer F.Fab) (width 0.1))
  (fp_line (start -0.32 47.94) (end -0.32 48.58) (layer F.Fab) (width 0.1))
  (fp_line (start -0.32 48.58) (end 1.5 48.58) (layer F.Fab) (width 0.1))
  (fp_line (start 4.04 47.94) (end 10.04 47.94) (layer F.Fab) (width 0.1))
  (fp_line (start 10.04 47.94) (end 10.04 48.58) (layer F.Fab) (width 0.1))
  (fp_line (start 4.04 48.58) (end 10.04 48.58) (layer F.Fab) (width 0.1))
  (fp_line (start -0.32 50.48) (end 1.5 50.48) (layer F.Fab) (width 0.1))
  (fp_line (start -0.32 50.48) (end -0.32 51.12) (layer F.Fab) (width 0.1))
  (fp_line (start -0.32 51.12) (end 1.5 51.12) (layer F.Fab) (width 0.1))
  (fp_line (start 4.04 50.48) (end 10.04 50.48) (layer F.Fab) (width 0.1))
  (fp_line (start 10.04 50.48) (end 10.04 51.12) (layer F.Fab) (width 0.1))
  (fp_line (start 4.04 51.12) (end 10.04 51.12) (layer F.Fab) (width 0.1))
  (fp_line (start -0.32 53.02) (end 1.5 53.02) (layer F.Fab) (width 0.1))
  (fp_line (start -0.32 53.02) (end -0.32 53.66) (layer F.Fab) (width 0.1))
  (fp_line (start -0.32 53.66) (end 1.5 53.66) (layer F.Fab) (width 0.1))
  (fp_line (start 4.04 53.02) (end 10.04 53.02) (layer F.Fab) (width 0.1))
  (fp_line (start 10.04 53.02) (end 10.04 53.66) (layer F.Fab) (width 0.1))
  (fp_line (start 4.04 53.66) (end 10.04 53.66) (layer F.Fab) (width 0.1))
  (fp_line (start -0.32 55.56) (end 1.5 55.56) (layer F.Fab) (width 0.1))
  (fp_line (start -0.32 55.56) (end -0.32 56.2) (layer F.Fab) (width 0.1))
  (fp_line (start -0.32 56.2) (end 1.5 56.2) (layer F.Fab) (width 0.1))
  (fp_line (start 4.04 55.56) (end 10.04 55.56) (layer F.Fab) (width 0.1))
  (fp_line (start 10.04 55.56) (end 10.04 56.2) (layer F.Fab) (width 0.1))
  (fp_line (start 4.04 56.2) (end 10.04 56.2) (layer F.Fab) (width 0.1))
  (fp_line (start -0.32 58.1) (end 1.5 58.1) (layer F.Fab) (width 0.1))
  (fp_line (start -0.32 58.1) (end -0.32 58.74) (layer F.Fab) (width 0.1))
  (fp_line (start -0.32 58.74) (end 1.5 58.74) (layer F.Fab) (width 0.1))
  (fp_line (start 4.04 58.1) (end 10.04 58.1) (layer F.Fab) (width 0.1))
  (fp_line (start 10.04 58.1) (end 10.04 58.74) (layer F.Fab) (width 0.1))
  (fp_line (start 4.04 58.74) (end 10.04 58.74) (layer F.Fab) (width 0.1))
  (fp_line (start -0.32 60.64) (end 1.5 60.64) (layer F.Fab) (width 0.1))
  (fp_line (start -0.32 60.64) (end -0.32 61.28) (layer F.Fab) (width 0.1))
  (fp_line (start -0.32 61.28) (end 1.5 61.28) (layer F.Fab) (width 0.1))
  (fp_line (start 4.04 60.64) (end 10.04 60.64) (layer F.Fab) (width 0.1))
  (fp_line (start 10.04 60.64) (end 10.04 61.28) (layer F.Fab) (width 0.1))
  (fp_line (start 4.04 61.28) (end 10.04 61.28) (layer F.Fab) (width 0.1))
  (fp_line (start -0.32 63.18) (end 1.5 63.18) (layer F.Fab) (width 0.1))
  (fp_line (start -0.32 63.18) (end -0.32 63.82) (layer F.Fab) (width 0.1))
  (fp_line (start -0.32 63.82) (end 1.5 63.82) (layer F.Fab) (width 0.1))
  (fp_line (start 4.04 63.18) (end 10.04 63.18) (layer F.Fab) (width 0.1))
  (fp_line (start 10.04 63.18) (end 10.04 63.82) (layer F.Fab) (width 0.1))
  (fp_line (start 4.04 63.82) (end 10.04 63.82) (layer F.Fab) (width 0.1))
  (fp_line (start -0.32 65.72) (end 1.5 65.72) (layer F.Fab) (width 0.1))
  (fp_line (start -0.32 65.72) (end -0.32 66.36) (layer F.Fab) (width 0.1))
  (fp_line (start -0.32 66.36) (end 1.5 66.36) (layer F.Fab) (width 0.1))
  (fp_line (start 4.04 65.72) (end 10.04 65.72) (layer F.Fab) (width 0.1))
  (fp_line (start 10.04 65.72) (end 10.04 66.36) (layer F.Fab) (width 0.1))
  (fp_line (start 4.04 66.36) (end 10.04 66.36) (layer F.Fab) (width 0.1))
  (fp_line (start -0.32 68.26) (end 1.5 68.26) (layer F.Fab) (width 0.1))
  (fp_line (start -0.32 68.26) (end -0.32 68.9) (layer F.Fab) (width 0.1))
  (fp_line (start -0.32 68.9) (end 1.5 68.9) (layer F.Fab) (width 0.1))
  (fp_line (start 4.04 68.26) (end 10.04 68.26) (layer F.Fab) (width 0.1))
  (fp_line (start 10.04 68.26) (end 10.04 68.9) (layer F.Fab) (width 0.1))
  (fp_line (start 4.04 68.9) (end 10.04 68.9) (layer F.Fab) (width 0.1))
  (fp_line (start -0.32 70.8) (end 1.5 70.8) (layer F.Fab) (width 0.1))
  (fp_line (start -0.32 70.8) (end -0.32 71.44) (layer F.Fab) (width 0.1))
  (fp_line (start -0.32 71.44) (end 1.5 71.44) (layer F.Fab) (width 0.1))
  (fp_line (start 4.04 70.8) (end 10.04 70.8) (layer F.Fab) (width 0.1))
  (fp_line (start 10.04 70.8) (end 10.04 71.44) (layer F.Fab) (width 0.1))
  (fp_line (start 4.04 71.44) (end 10.04 71.44) (layer F.Fab) (width 0.1))
  (fp_line (start -0.32 73.34) (end 1.5 73.34) (layer F.Fab) (width 0.1))
  (fp_line (start -0.32 73.34) (end -0.32 73.98) (layer F.Fab) (width 0.1))
  (fp_line (start -0.32 73.98) (end 1.5 73.98) (layer F.Fab) (width 0.1))
  (fp_line (start 4.04 73.34) (end 10.04 73.34) (layer F.Fab) (width 0.1))
  (fp_line (start 10.04 73.34) (end 10.04 73.98) (layer F.Fab) (width 0.1))
  (fp_line (start 4.04 73.98) (end 10.04 73.98) (layer F.Fab) (width 0.1))
  (fp_line (start -0.32 75.88) (end 1.5 75.88) (layer F.Fab) (width 0.1))
  (fp_line (start -0.32 75.88) (end -0.32 76.52) (layer F.Fab) (width 0.1))
  (fp_line (start -0.32 76.52) (end 1.5 76.52) (layer F.Fab) (width 0.1))
  (fp_line (start 4.04 75.88) (end 10.04 75.88) (layer F.Fab) (width 0.1))
  (fp_line (start 10.04 75.88) (end 10.04 76.52) (layer F.Fab) (width 0.1))
  (fp_line (start 4.04 76.52) (end 10.04 76.52) (layer F.Fab) (width 0.1))
  (fp_line (start -0.32 78.42) (end 1.5 78.42) (layer F.Fab) (width 0.1))
  (fp_line (start -0.32 78.42) (end -0.32 79.06) (layer F.Fab) (width 0.1))
  (fp_line (start -0.32 79.06) (end 1.5 79.06) (layer F.Fab) (width 0.1))
  (fp_line (start 4.04 78.42) (end 10.04 78.42) (layer F.Fab) (width 0.1))
  (fp_line (start 10.04 78.42) (end 10.04 79.06) (layer F.Fab) (width 0.1))
  (fp_line (start 4.04 79.06) (end 10.04 79.06) (layer F.Fab) (width 0.1))
  (fp_line (start -0.32 80.96) (end 1.5 80.96) (layer F.Fab) (width 0.1))
  (fp_line (start -0.32 80.96) (end -0.32 81.6) (layer F.Fab) (width 0.1))
  (fp_line (start -0.32 81.6) (end 1.5 81.6) (layer F.Fab) (width 0.1))
  (fp_line (start 4.04 80.96) (end 10.04 80.96) (layer F.Fab) (width 0.1))
  (fp_line (start 10.04 80.96) (end 10.04 81.6) (layer F.Fab) (width 0.1))
  (fp_line (start 4.04 81.6) (end 10.04 81.6) (layer F.Fab) (width 0.1))
  (fp_line (start -0.32 83.5) (end 1.5 83.5) (layer F.Fab) (width 0.1))
  (fp_line (start -0.32 83.5) (end -0.32 84.14) (layer F.Fab) (width 0.1))
  (fp_line (start -0.32 84.14) (end 1.5 84.14) (layer F.Fab) (width 0.1))
  (fp_line (start 4.04 83.5) (end 10.04 83.5) (layer F.Fab) (width 0.1))
  (fp_line (start 10.04 83.5) (end 10.04 84.14) (layer F.Fab) (width 0.1))
  (fp_line (start 4.04 84.14) (end 10.04 84.14) (layer F.Fab) (width 0.1))
  (fp_line (start -0.32 86.04) (end 1.5 86.04) (layer F.Fab) (width 0.1))
  (fp_line (start -0.32 86.04) (end -0.32 86.68) (layer F.Fab) (width 0.1))
  (fp_line (start -0.32 86.68) (end 1.5 86.68) (layer F.Fab) (width 0.1))
  (fp_line (start 4.04 86.04) (end 10.04 86.04) (layer F.Fab) (width 0.1))
  (fp_line (start 10.04 86.04) (end 10.04 86.68) (layer F.Fab) (width 0.1))
  (fp_line (start 4.04 86.68) (end 10.04 86.68) (layer F.Fab) (width 0.1))
  (fp_line (start -0.32 88.58) (end 1.5 88.58) (layer F.Fab) (width 0.1))
  (fp_line (start -0.32 88.58) (end -0.32 89.22) (layer F.Fab) (width 0.1))
  (fp_line (start -0.32 89.22) (end 1.5 89.22) (layer F.Fab) (width 0.1))
  (fp_line (start 4.04 88.58) (end 10.04 88.58) (layer F.Fab) (width 0.1))
  (fp_line (start 10.04 88.58) (end 10.04 89.22) (layer F.Fab) (width 0.1))
  (fp_line (start 4.04 89.22) (end 10.04 89.22) (layer F.Fab) (width 0.1))
  (fp_line (start -0.32 91.12) (end 1.5 91.12) (layer F.Fab) (width 0.1))
  (fp_line (start -0.32 91.12) (end -0.32 91.76) (layer F.Fab) (width 0.1))
  (fp_line (start -0.32 91.76) (end 1.5 91.76) (layer F.Fab) (width 0.1))
  (fp_line (start 4.04 91.12) (end 10.04 91.12) (layer F.Fab) (width 0.1))
  (fp_line (start 10.04 91.12) (end 10.04 91.76) (layer F.Fab) (width 0.1))
  (fp_line (start 4.04 91.76) (end 10.04 91.76) (layer F.Fab) (width 0.1))
  (fp_line (start -0.32 93.66) (end 1.5 93.66) (layer F.Fab) (width 0.1))
  (fp_line (start -0.32 93.66) (end -0.32 94.3) (layer F.Fab) (width 0.1))
  (fp_line (start -0.32 94.3) (end 1.5 94.3) (layer F.Fab) (width 0.1))
  (fp_line (start 4.04 93.66) (end 10.04 93.66) (layer F.Fab) (width 0.1))
  (fp_line (start 10.04 93.66) (end 10.04 94.3) (layer F.Fab) (width 0.1))
  (fp_line (start 4.04 94.3) (end 10.04 94.3) (layer F.Fab) (width 0.1))
  (fp_line (start -0.32 96.2) (end 1.5 96.2) (layer F.Fab) (width 0.1))
  (fp_line (start -0.32 96.2) (end -0.32 96.84) (layer F.Fab) (width 0.1))
  (fp_line (start -0.32 96.84) (end 1.5 96.84) (layer F.Fab) (width 0.1))
  (fp_line (start 4.04 96.2) (end 10.04 96.2) (layer F.Fab) (width 0.1))
  (fp_line (start 10.04 96.2) (end 10.04 96.84) (layer F.Fab) (width 0.1))
  (fp_line (start 4.04 96.84) (end 10.04 96.84) (layer F.Fab) (width 0.1))
  (fp_line (start -0.32 98.74) (end 1.5 98.74) (layer F.Fab) (width 0.1))
  (fp_line (start -0.32 98.74) (end -0.32 99.38) (layer F.Fab) (width 0.1))
  (fp_line (start -0.32 99.38) (end 1.5 99.38) (layer F.Fab) (width 0.1))
  (fp_line (start 4.04 98.74) (end 10.04 98.74) (layer F.Fab) (width 0.1))
  (fp_line (start 10.04 98.74) (end 10.04 99.38) (layer F.Fab) (width 0.1))
  (fp_line (start 4.04 99.38) (end 10.04 99.38) (layer F.Fab) (width 0.1))
  (fp_line (start 1.44 -1.33) (end 1.44 100.39) (layer F.SilkS) (width 0.12))
  (fp_line (start 1.44 100.39) (end 4.1 100.39) (layer F.SilkS) (width 0.12))
  (fp_line (start 4.1 100.39) (end 4.1 -1.33) (layer F.SilkS) (width 0.12))
  (fp_line (start 4.1 -1.33) (end 1.44 -1.33) (layer F.SilkS) (width 0.12))
  (fp_line (start 4.1 -0.38) (end 10.1 -0.38) (layer F.SilkS) (width 0.12))
  (fp_line (start 10.1 -0.38) (end 10.1 0.38) (layer F.SilkS) (width 0.12))
  (fp_line (start 10.1 0.38) (end 4.1 0.38) (layer F.SilkS) (width 0.12))
  (fp_line (start 4.1 -0.32) (end 10.1 -0.32) (layer F.SilkS) (width 0.12))
  (fp_line (start 4.1 -0.2) (end 10.1 -0.2) (layer F.SilkS) (width 0.12))
  (fp_line (start 4.1 -0.08) (end 10.1 -0.08) (layer F.SilkS) (width 0.12))
  (fp_line (start 4.1 0.04) (end 10.1 0.04) (layer F.SilkS) (width 0.12))
  (fp_line (start 4.1 0.16) (end 10.1 0.16) (layer F.SilkS) (width 0.12))
  (fp_line (start 4.1 0.28) (end 10.1 0.28) (layer F.SilkS) (width 0.12))
  (fp_line (start 1.11 -0.38) (end 1.44 -0.38) (layer F.SilkS) (width 0.12))
  (fp_line (start 1.11 0.38) (end 1.44 0.38) (layer F.SilkS) (width 0.12))
  (fp_line (start 1.44 1.27) (end 4.1 1.27) (layer F.SilkS) (width 0.12))
  (fp_line (start 4.1 2.16) (end 10.1 2.16) (layer F.SilkS) (width 0.12))
  (fp_line (start 10.1 2.16) (end 10.1 2.92) (layer F.SilkS) (width 0.12))
  (fp_line (start 10.1 2.92) (end 4.1 2.92) (layer F.SilkS) (width 0.12))
  (fp_line (start 1.042929 2.16) (end 1.44 2.16) (layer F.SilkS) (width 0.12))
  (fp_line (start 1.042929 2.92) (end 1.44 2.92) (layer F.SilkS) (width 0.12))
  (fp_line (start 1.44 3.81) (end 4.1 3.81) (layer F.SilkS) (width 0.12))
  (fp_line (start 4.1 4.7) (end 10.1 4.7) (layer F.SilkS) (width 0.12))
  (fp_line (start 10.1 4.7) (end 10.1 5.46) (layer F.SilkS) (width 0.12))
  (fp_line (start 10.1 5.46) (end 4.1 5.46) (layer F.SilkS) (width 0.12))
  (fp_line (start 1.042929 4.7) (end 1.44 4.7) (layer F.SilkS) (width 0.12))
  (fp_line (start 1.042929 5.46) (end 1.44 5.46) (layer F.SilkS) (width 0.12))
  (fp_line (start 1.44 6.35) (end 4.1 6.35) (layer F.SilkS) (width 0.12))
  (fp_line (start 4.1 7.24) (end 10.1 7.24) (layer F.SilkS) (width 0.12))
  (fp_line (start 10.1 7.24) (end 10.1 8) (layer F.SilkS) (width 0.12))
  (fp_line (start 10.1 8) (end 4.1 8) (layer F.SilkS) (width 0.12))
  (fp_line (start 1.042929 7.24) (end 1.44 7.24) (layer F.SilkS) (width 0.12))
  (fp_line (start 1.042929 8) (end 1.44 8) (layer F.SilkS) (width 0.12))
  (fp_line (start 1.44 8.89) (end 4.1 8.89) (layer F.SilkS) (width 0.12))
  (fp_line (start 4.1 9.78) (end 10.1 9.78) (layer F.SilkS) (width 0.12))
  (fp_line (start 10.1 9.78) (end 10.1 10.54) (layer F.SilkS) (width 0.12))
  (fp_line (start 10.1 10.54) (end 4.1 10.54) (layer F.SilkS) (width 0.12))
  (fp_line (start 1.042929 9.78) (end 1.44 9.78) (layer F.SilkS) (width 0.12))
  (fp_line (start 1.042929 10.54) (end 1.44 10.54) (layer F.SilkS) (width 0.12))
  (fp_line (start 1.44 11.43) (end 4.1 11.43) (layer F.SilkS) (width 0.12))
  (fp_line (start 4.1 12.32) (end 10.1 12.32) (layer F.SilkS) (width 0.12))
  (fp_line (start 10.1 12.32) (end 10.1 13.08) (layer F.SilkS) (width 0.12))
  (fp_line (start 10.1 13.08) (end 4.1 13.08) (layer F.SilkS) (width 0.12))
  (fp_line (start 1.042929 12.32) (end 1.44 12.32) (layer F.SilkS) (width 0.12))
  (fp_line (start 1.042929 13.08) (end 1.44 13.08) (layer F.SilkS) (width 0.12))
  (fp_line (start 1.44 13.97) (end 4.1 13.97) (layer F.SilkS) (width 0.12))
  (fp_line (start 4.1 14.86) (end 10.1 14.86) (layer F.SilkS) (width 0.12))
  (fp_line (start 10.1 14.86) (end 10.1 15.62) (layer F.SilkS) (width 0.12))
  (fp_line (start 10.1 15.62) (end 4.1 15.62) (layer F.SilkS) (width 0.12))
  (fp_line (start 1.042929 14.86) (end 1.44 14.86) (layer F.SilkS) (width 0.12))
  (fp_line (start 1.042929 15.62) (end 1.44 15.62) (layer F.SilkS) (width 0.12))
  (fp_line (start 1.44 16.51) (end 4.1 16.51) (layer F.SilkS) (width 0.12))
  (fp_line (start 4.1 17.4) (end 10.1 17.4) (layer F.SilkS) (width 0.12))
  (fp_line (start 10.1 17.4) (end 10.1 18.16) (layer F.SilkS) (width 0.12))
  (fp_line (start 10.1 18.16) (end 4.1 18.16) (layer F.SilkS) (width 0.12))
  (fp_line (start 1.042929 17.4) (end 1.44 17.4) (layer F.SilkS) (width 0.12))
  (fp_line (start 1.042929 18.16) (end 1.44 18.16) (layer F.SilkS) (width 0.12))
  (fp_line (start 1.44 19.05) (end 4.1 19.05) (layer F.SilkS) (width 0.12))
  (fp_line (start 4.1 19.94) (end 10.1 19.94) (layer F.SilkS) (width 0.12))
  (fp_line (start 10.1 19.94) (end 10.1 20.7) (layer F.SilkS) (width 0.12))
  (fp_line (start 10.1 20.7) (end 4.1 20.7) (layer F.SilkS) (width 0.12))
  (fp_line (start 1.042929 19.94) (end 1.44 19.94) (layer F.SilkS) (width 0.12))
  (fp_line (start 1.042929 20.7) (end 1.44 20.7) (layer F.SilkS) (width 0.12))
  (fp_line (start 1.44 21.59) (end 4.1 21.59) (layer F.SilkS) (width 0.12))
  (fp_line (start 4.1 22.48) (end 10.1 22.48) (layer F.SilkS) (width 0.12))
  (fp_line (start 10.1 22.48) (end 10.1 23.24) (layer F.SilkS) (width 0.12))
  (fp_line (start 10.1 23.24) (end 4.1 23.24) (layer F.SilkS) (width 0.12))
  (fp_line (start 1.042929 22.48) (end 1.44 22.48) (layer F.SilkS) (width 0.12))
  (fp_line (start 1.042929 23.24) (end 1.44 23.24) (layer F.SilkS) (width 0.12))
  (fp_line (start 1.44 24.13) (end 4.1 24.13) (layer F.SilkS) (width 0.12))
  (fp_line (start 4.1 25.02) (end 10.1 25.02) (layer F.SilkS) (width 0.12))
  (fp_line (start 10.1 25.02) (end 10.1 25.78) (layer F.SilkS) (width 0.12))
  (fp_line (start 10.1 25.78) (end 4.1 25.78) (layer F.SilkS) (width 0.12))
  (fp_line (start 1.042929 25.02) (end 1.44 25.02) (layer F.SilkS) (width 0.12))
  (fp_line (start 1.042929 25.78) (end 1.44 25.78) (layer F.SilkS) (width 0.12))
  (fp_line (start 1.44 26.67) (end 4.1 26.67) (layer F.SilkS) (width 0.12))
  (fp_line (start 4.1 27.56) (end 10.1 27.56) (layer F.SilkS) (width 0.12))
  (fp_line (start 10.1 27.56) (end 10.1 28.32) (layer F.SilkS) (width 0.12))
  (fp_line (start 10.1 28.32) (end 4.1 28.32) (layer F.SilkS) (width 0.12))
  (fp_line (start 1.042929 27.56) (end 1.44 27.56) (layer F.SilkS) (width 0.12))
  (fp_line (start 1.042929 28.32) (end 1.44 28.32) (layer F.SilkS) (width 0.12))
  (fp_line (start 1.44 29.21) (end 4.1 29.21) (layer F.SilkS) (width 0.12))
  (fp_line (start 4.1 30.1) (end 10.1 30.1) (layer F.SilkS) (width 0.12))
  (fp_line (start 10.1 30.1) (end 10.1 30.86) (layer F.SilkS) (width 0.12))
  (fp_line (start 10.1 30.86) (end 4.1 30.86) (layer F.SilkS) (width 0.12))
  (fp_line (start 1.042929 30.1) (end 1.44 30.1) (layer F.SilkS) (width 0.12))
  (fp_line (start 1.042929 30.86) (end 1.44 30.86) (layer F.SilkS) (width 0.12))
  (fp_line (start 1.44 31.75) (end 4.1 31.75) (layer F.SilkS) (width 0.12))
  (fp_line (start 4.1 32.64) (end 10.1 32.64) (layer F.SilkS) (width 0.12))
  (fp_line (start 10.1 32.64) (end 10.1 33.4) (layer F.SilkS) (width 0.12))
  (fp_line (start 10.1 33.4) (end 4.1 33.4) (layer F.SilkS) (width 0.12))
  (fp_line (start 1.042929 32.64) (end 1.44 32.64) (layer F.SilkS) (width 0.12))
  (fp_line (start 1.042929 33.4) (end 1.44 33.4) (layer F.SilkS) (width 0.12))
  (fp_line (start 1.44 34.29) (end 4.1 34.29) (layer F.SilkS) (width 0.12))
  (fp_line (start 4.1 35.18) (end 10.1 35.18) (layer F.SilkS) (width 0.12))
  (fp_line (start 10.1 35.18) (end 10.1 35.94) (layer F.SilkS) (width 0.12))
  (fp_line (start 10.1 35.94) (end 4.1 35.94) (layer F.SilkS) (width 0.12))
  (fp_line (start 1.042929 35.18) (end 1.44 35.18) (layer F.SilkS) (width 0.12))
  (fp_line (start 1.042929 35.94) (end 1.44 35.94) (layer F.SilkS) (width 0.12))
  (fp_line (start 1.44 36.83) (end 4.1 36.83) (layer F.SilkS) (width 0.12))
  (fp_line (start 4.1 37.72) (end 10.1 37.72) (layer F.SilkS) (width 0.12))
  (fp_line (start 10.1 37.72) (end 10.1 38.48) (layer F.SilkS) (width 0.12))
  (fp_line (start 10.1 38.48) (end 4.1 38.48) (layer F.SilkS) (width 0.12))
  (fp_line (start 1.042929 37.72) (end 1.44 37.72) (layer F.SilkS) (width 0.12))
  (fp_line (start 1.042929 38.48) (end 1.44 38.48) (layer F.SilkS) (width 0.12))
  (fp_line (start 1.44 39.37) (end 4.1 39.37) (layer F.SilkS) (width 0.12))
  (fp_line (start 4.1 40.26) (end 10.1 40.26) (layer F.SilkS) (width 0.12))
  (fp_line (start 10.1 40.26) (end 10.1 41.02) (layer F.SilkS) (width 0.12))
  (fp_line (start 10.1 41.02) (end 4.1 41.02) (layer F.SilkS) (width 0.12))
  (fp_line (start 1.042929 40.26) (end 1.44 40.26) (layer F.SilkS) (width 0.12))
  (fp_line (start 1.042929 41.02) (end 1.44 41.02) (layer F.SilkS) (width 0.12))
  (fp_line (start 1.44 41.91) (end 4.1 41.91) (layer F.SilkS) (width 0.12))
  (fp_line (start 4.1 42.8) (end 10.1 42.8) (layer F.SilkS) (width 0.12))
  (fp_line (start 10.1 42.8) (end 10.1 43.56) (layer F.SilkS) (width 0.12))
  (fp_line (start 10.1 43.56) (end 4.1 43.56) (layer F.SilkS) (width 0.12))
  (fp_line (start 1.042929 42.8) (end 1.44 42.8) (layer F.SilkS) (width 0.12))
  (fp_line (start 1.042929 43.56) (end 1.44 43.56) (layer F.SilkS) (width 0.12))
  (fp_line (start 1.44 44.45) (end 4.1 44.45) (layer F.SilkS) (width 0.12))
  (fp_line (start 4.1 45.34) (end 10.1 45.34) (layer F.SilkS) (width 0.12))
  (fp_line (start 10.1 45.34) (end 10.1 46.1) (layer F.SilkS) (width 0.12))
  (fp_line (start 10.1 46.1) (end 4.1 46.1) (layer F.SilkS) (width 0.12))
  (fp_line (start 1.042929 45.34) (end 1.44 45.34) (layer F.SilkS) (width 0.12))
  (fp_line (start 1.042929 46.1) (end 1.44 46.1) (layer F.SilkS) (width 0.12))
  (fp_line (start 1.44 46.99) (end 4.1 46.99) (layer F.SilkS) (width 0.12))
  (fp_line (start 4.1 47.88) (end 10.1 47.88) (layer F.SilkS) (width 0.12))
  (fp_line (start 10.1 47.88) (end 10.1 48.64) (layer F.SilkS) (width 0.12))
  (fp_line (start 10.1 48.64) (end 4.1 48.64) (layer F.SilkS) (width 0.12))
  (fp_line (start 1.042929 47.88) (end 1.44 47.88) (layer F.SilkS) (width 0.12))
  (fp_line (start 1.042929 48.64) (end 1.44 48.64) (layer F.SilkS) (width 0.12))
  (fp_line (start 1.44 49.53) (end 4.1 49.53) (layer F.SilkS) (width 0.12))
  (fp_line (start 4.1 50.42) (end 10.1 50.42) (layer F.SilkS) (width 0.12))
  (fp_line (start 10.1 50.42) (end 10.1 51.18) (layer F.SilkS) (width 0.12))
  (fp_line (start 10.1 51.18) (end 4.1 51.18) (layer F.SilkS) (width 0.12))
  (fp_line (start 1.042929 50.42) (end 1.44 50.42) (layer F.SilkS) (width 0.12))
  (fp_line (start 1.042929 51.18) (end 1.44 51.18) (layer F.SilkS) (width 0.12))
  (fp_line (start 1.44 52.07) (end 4.1 52.07) (layer F.SilkS) (width 0.12))
  (fp_line (start 4.1 52.96) (end 10.1 52.96) (layer F.SilkS) (width 0.12))
  (fp_line (start 10.1 52.96) (end 10.1 53.72) (layer F.SilkS) (width 0.12))
  (fp_line (start 10.1 53.72) (end 4.1 53.72) (layer F.SilkS) (width 0.12))
  (fp_line (start 1.042929 52.96) (end 1.44 52.96) (layer F.SilkS) (width 0.12))
  (fp_line (start 1.042929 53.72) (end 1.44 53.72) (layer F.SilkS) (width 0.12))
  (fp_line (start 1.44 54.61) (end 4.1 54.61) (layer F.SilkS) (width 0.12))
  (fp_line (start 4.1 55.5) (end 10.1 55.5) (layer F.SilkS) (width 0.12))
  (fp_line (start 10.1 55.5) (end 10.1 56.26) (layer F.SilkS) (width 0.12))
  (fp_line (start 10.1 56.26) (end 4.1 56.26) (layer F.SilkS) (width 0.12))
  (fp_line (start 1.042929 55.5) (end 1.44 55.5) (layer F.SilkS) (width 0.12))
  (fp_line (start 1.042929 56.26) (end 1.44 56.26) (layer F.SilkS) (width 0.12))
  (fp_line (start 1.44 57.15) (end 4.1 57.15) (layer F.SilkS) (width 0.12))
  (fp_line (start 4.1 58.04) (end 10.1 58.04) (layer F.SilkS) (width 0.12))
  (fp_line (start 10.1 58.04) (end 10.1 58.8) (layer F.SilkS) (width 0.12))
  (fp_line (start 10.1 58.8) (end 4.1 58.8) (layer F.SilkS) (width 0.12))
  (fp_line (start 1.042929 58.04) (end 1.44 58.04) (layer F.SilkS) (width 0.12))
  (fp_line (start 1.042929 58.8) (end 1.44 58.8) (layer F.SilkS) (width 0.12))
  (fp_line (start 1.44 59.69) (end 4.1 59.69) (layer F.SilkS) (width 0.12))
  (fp_line (start 4.1 60.58) (end 10.1 60.58) (layer F.SilkS) (width 0.12))
  (fp_line (start 10.1 60.58) (end 10.1 61.34) (layer F.SilkS) (width 0.12))
  (fp_line (start 10.1 61.34) (end 4.1 61.34) (layer F.SilkS) (width 0.12))
  (fp_line (start 1.042929 60.58) (end 1.44 60.58) (layer F.SilkS) (width 0.12))
  (fp_line (start 1.042929 61.34) (end 1.44 61.34) (layer F.SilkS) (width 0.12))
  (fp_line (start 1.44 62.23) (end 4.1 62.23) (layer F.SilkS) (width 0.12))
  (fp_line (start 4.1 63.12) (end 10.1 63.12) (layer F.SilkS) (width 0.12))
  (fp_line (start 10.1 63.12) (end 10.1 63.88) (layer F.SilkS) (width 0.12))
  (fp_line (start 10.1 63.88) (end 4.1 63.88) (layer F.SilkS) (width 0.12))
  (fp_line (start 1.042929 63.12) (end 1.44 63.12) (layer F.SilkS) (width 0.12))
  (fp_line (start 1.042929 63.88) (end 1.44 63.88) (layer F.SilkS) (width 0.12))
  (fp_line (start 1.44 64.77) (end 4.1 64.77) (layer F.SilkS) (width 0.12))
  (fp_line (start 4.1 65.66) (end 10.1 65.66) (layer F.SilkS) (width 0.12))
  (fp_line (start 10.1 65.66) (end 10.1 66.42) (layer F.SilkS) (width 0.12))
  (fp_line (start 10.1 66.42) (end 4.1 66.42) (layer F.SilkS) (width 0.12))
  (fp_line (start 1.042929 65.66) (end 1.44 65.66) (layer F.SilkS) (width 0.12))
  (fp_line (start 1.042929 66.42) (end 1.44 66.42) (layer F.SilkS) (width 0.12))
  (fp_line (start 1.44 67.31) (end 4.1 67.31) (layer F.SilkS) (width 0.12))
  (fp_line (start 4.1 68.2) (end 10.1 68.2) (layer F.SilkS) (width 0.12))
  (fp_line (start 10.1 68.2) (end 10.1 68.96) (layer F.SilkS) (width 0.12))
  (fp_line (start 10.1 68.96) (end 4.1 68.96) (layer F.SilkS) (width 0.12))
  (fp_line (start 1.042929 68.2) (end 1.44 68.2) (layer F.SilkS) (width 0.12))
  (fp_line (start 1.042929 68.96) (end 1.44 68.96) (layer F.SilkS) (width 0.12))
  (fp_line (start 1.44 69.85) (end 4.1 69.85) (layer F.SilkS) (width 0.12))
  (fp_line (start 4.1 70.74) (end 10.1 70.74) (layer F.SilkS) (width 0.12))
  (fp_line (start 10.1 70.74) (end 10.1 71.5) (layer F.SilkS) (width 0.12))
  (fp_line (start 10.1 71.5) (end 4.1 71.5) (layer F.SilkS) (width 0.12))
  (fp_line (start 1.042929 70.74) (end 1.44 70.74) (layer F.SilkS) (width 0.12))
  (fp_line (start 1.042929 71.5) (end 1.44 71.5) (layer F.SilkS) (width 0.12))
  (fp_line (start 1.44 72.39) (end 4.1 72.39) (layer F.SilkS) (width 0.12))
  (fp_line (start 4.1 73.28) (end 10.1 73.28) (layer F.SilkS) (width 0.12))
  (fp_line (start 10.1 73.28) (end 10.1 74.04) (layer F.SilkS) (width 0.12))
  (fp_line (start 10.1 74.04) (end 4.1 74.04) (layer F.SilkS) (width 0.12))
  (fp_line (start 1.042929 73.28) (end 1.44 73.28) (layer F.SilkS) (width 0.12))
  (fp_line (start 1.042929 74.04) (end 1.44 74.04) (layer F.SilkS) (width 0.12))
  (fp_line (start 1.44 74.93) (end 4.1 74.93) (layer F.SilkS) (width 0.12))
  (fp_line (start 4.1 75.82) (end 10.1 75.82) (layer F.SilkS) (width 0.12))
  (fp_line (start 10.1 75.82) (end 10.1 76.58) (layer F.SilkS) (width 0.12))
  (fp_line (start 10.1 76.58) (end 4.1 76.58) (layer F.SilkS) (width 0.12))
  (fp_line (start 1.042929 75.82) (end 1.44 75.82) (layer F.SilkS) (width 0.12))
  (fp_line (start 1.042929 76.58) (end 1.44 76.58) (layer F.SilkS) (width 0.12))
  (fp_line (start 1.44 77.47) (end 4.1 77.47) (layer F.SilkS) (width 0.12))
  (fp_line (start 4.1 78.36) (end 10.1 78.36) (layer F.SilkS) (width 0.12))
  (fp_line (start 10.1 78.36) (end 10.1 79.12) (layer F.SilkS) (width 0.12))
  (fp_line (start 10.1 79.12) (end 4.1 79.12) (layer F.SilkS) (width 0.12))
  (fp_line (start 1.042929 78.36) (end 1.44 78.36) (layer F.SilkS) (width 0.12))
  (fp_line (start 1.042929 79.12) (end 1.44 79.12) (layer F.SilkS) (width 0.12))
  (fp_line (start 1.44 80.01) (end 4.1 80.01) (layer F.SilkS) (width 0.12))
  (fp_line (start 4.1 80.9) (end 10.1 80.9) (layer F.SilkS) (width 0.12))
  (fp_line (start 10.1 80.9) (end 10.1 81.66) (layer F.SilkS) (width 0.12))
  (fp_line (start 10.1 81.66) (end 4.1 81.66) (layer F.SilkS) (width 0.12))
  (fp_line (start 1.042929 80.9) (end 1.44 80.9) (layer F.SilkS) (width 0.12))
  (fp_line (start 1.042929 81.66) (end 1.44 81.66) (layer F.SilkS) (width 0.12))
  (fp_line (start 1.44 82.55) (end 4.1 82.55) (layer F.SilkS) (width 0.12))
  (fp_line (start 4.1 83.44) (end 10.1 83.44) (layer F.SilkS) (width 0.12))
  (fp_line (start 10.1 83.44) (end 10.1 84.2) (layer F.SilkS) (width 0.12))
  (fp_line (start 10.1 84.2) (end 4.1 84.2) (layer F.SilkS) (width 0.12))
  (fp_line (start 1.042929 83.44) (end 1.44 83.44) (layer F.SilkS) (width 0.12))
  (fp_line (start 1.042929 84.2) (end 1.44 84.2) (layer F.SilkS) (width 0.12))
  (fp_line (start 1.44 85.09) (end 4.1 85.09) (layer F.SilkS) (width 0.12))
  (fp_line (start 4.1 85.98) (end 10.1 85.98) (layer F.SilkS) (width 0.12))
  (fp_line (start 10.1 85.98) (end 10.1 86.74) (layer F.SilkS) (width 0.12))
  (fp_line (start 10.1 86.74) (end 4.1 86.74) (layer F.SilkS) (width 0.12))
  (fp_line (start 1.042929 85.98) (end 1.44 85.98) (layer F.SilkS) (width 0.12))
  (fp_line (start 1.042929 86.74) (end 1.44 86.74) (layer F.SilkS) (width 0.12))
  (fp_line (start 1.44 87.63) (end 4.1 87.63) (layer F.SilkS) (width 0.12))
  (fp_line (start 4.1 88.52) (end 10.1 88.52) (layer F.SilkS) (width 0.12))
  (fp_line (start 10.1 88.52) (end 10.1 89.28) (layer F.SilkS) (width 0.12))
  (fp_line (start 10.1 89.28) (end 4.1 89.28) (layer F.SilkS) (width 0.12))
  (fp_line (start 1.042929 88.52) (end 1.44 88.52) (layer F.SilkS) (width 0.12))
  (fp_line (start 1.042929 89.28) (end 1.44 89.28) (layer F.SilkS) (width 0.12))
  (fp_line (start 1.44 90.17) (end 4.1 90.17) (layer F.SilkS) (width 0.12))
  (fp_line (start 4.1 91.06) (end 10.1 91.06) (layer F.SilkS) (width 0.12))
  (fp_line (start 10.1 91.06) (end 10.1 91.82) (layer F.SilkS) (width 0.12))
  (fp_line (start 10.1 91.82) (end 4.1 91.82) (layer F.SilkS) (width 0.12))
  (fp_line (start 1.042929 91.06) (end 1.44 91.06) (layer F.SilkS) (width 0.12))
  (fp_line (start 1.042929 91.82) (end 1.44 91.82) (layer F.SilkS) (width 0.12))
  (fp_line (start 1.44 92.71) (end 4.1 92.71) (layer F.SilkS) (width 0.12))
  (fp_line (start 4.1 93.6) (end 10.1 93.6) (layer F.SilkS) (width 0.12))
  (fp_line (start 10.1 93.6) (end 10.1 94.36) (layer F.SilkS) (width 0.12))
  (fp_line (start 10.1 94.36) (end 4.1 94.36) (layer F.SilkS) (width 0.12))
  (fp_line (start 1.042929 93.6) (end 1.44 93.6) (layer F.SilkS) (width 0.12))
  (fp_line (start 1.042929 94.36) (end 1.44 94.36) (layer F.SilkS) (width 0.12))
  (fp_line (start 1.44 95.25) (end 4.1 95.25) (layer F.SilkS) (width 0.12))
  (fp_line (start 4.1 96.14) (end 10.1 96.14) (layer F.SilkS) (width 0.12))
  (fp_line (start 10.1 96.14) (end 10.1 96.9) (layer F.SilkS) (width 0.12))
  (fp_line (start 10.1 96.9) (end 4.1 96.9) (layer F.SilkS) (width 0.12))
  (fp_line (start 1.042929 96.14) (end 1.44 96.14) (layer F.SilkS) (width 0.12))
  (fp_line (start 1.042929 96.9) (end 1.44 96.9) (layer F.SilkS) (width 0.12))
  (fp_line (start 1.44 97.79) (end 4.1 97.79) (layer F.SilkS) (width 0.12))
  (fp_line (start 4.1 98.68) (end 10.1 98.68) (layer F.SilkS) (width 0.12))
  (fp_line (start 10.1 98.68) (end 10.1 99.44) (layer F.SilkS) (width 0.12))
  (fp_line (start 10.1 99.44) (end 4.1 99.44) (layer F.SilkS) (width 0.12))
  (fp_line (start 1.042929 98.68) (end 1.44 98.68) (layer F.SilkS) (width 0.12))
  (fp_line (start 1.042929 99.44) (end 1.44 99.44) (layer F.SilkS) (width 0.12))
  (fp_line (start -1.27 0) (end -1.27 -1.27) (layer F.SilkS) (width 0.12))
  (fp_line (start -1.27 -1.27) (end 0 -1.27) (layer F.SilkS) (width 0.12))
  (fp_line (start -1.8 -1.8) (end -1.8 100.85) (layer F.CrtYd) (width 0.05))
  (fp_line (start -1.8 100.85) (end 10.55 100.85) (layer F.CrtYd) (width 0.05))
  (fp_line (start 10.55 100.85) (end 10.55 -1.8) (layer F.CrtYd) (width 0.05))
  (fp_line (start 10.55 -1.8) (end -1.8 -1.8) (layer F.CrtYd) (width 0.05))
  (pad 1 thru_hole rect (at 0 0) (size 1.7 1.7) (drill 1.0) (layers *.Cu *.Mask))
  (pad 2 thru_hole oval (at 0 2.54) (size 1.7 1.7) (drill 1.0) (layers *.Cu *.Mask))
  (pad 3 thru_hole oval (at 0 5.08) (size 1.7 1.7) (drill 1.0) (layers *.Cu *.Mask))
  (pad 4 thru_hole oval (at 0 7.62) (size 1.7 1.7) (drill 1.0) (layers *.Cu *.Mask))
  (pad 5 thru_hole oval (at 0 10.16) (size 1.7 1.7) (drill 1.0) (layers *.Cu *.Mask))
  (pad 6 thru_hole oval (at 0 12.7) (size 1.7 1.7) (drill 1.0) (layers *.Cu *.Mask))
  (pad 7 thru_hole oval (at 0 15.24) (size 1.7 1.7) (drill 1.0) (layers *.Cu *.Mask))
  (pad 8 thru_hole oval (at 0 17.78) (size 1.7 1.7) (drill 1.0) (layers *.Cu *.Mask))
  (pad 9 thru_hole oval (at 0 20.32) (size 1.7 1.7) (drill 1.0) (layers *.Cu *.Mask))
  (pad 10 thru_hole oval (at 0 22.86) (size 1.7 1.7) (drill 1.0) (layers *.Cu *.Mask))
  (pad 11 thru_hole oval (at 0 25.4) (size 1.7 1.7) (drill 1.0) (layers *.Cu *.Mask))
  (pad 12 thru_hole oval (at 0 27.94) (size 1.7 1.7) (drill 1.0) (layers *.Cu *.Mask))
  (pad 13 thru_hole oval (at 0 30.48) (size 1.7 1.7) (drill 1.0) (layers *.Cu *.Mask))
  (pad 14 thru_hole oval (at 0 33.02) (size 1.7 1.7) (drill 1.0) (layers *.Cu *.Mask))
  (pad 15 thru_hole oval (at 0 35.56) (size 1.7 1.7) (drill 1.0) (layers *.Cu *.Mask))
  (pad 16 thru_hole oval (at 0 38.1) (size 1.7 1.7) (drill 1.0) (layers *.Cu *.Mask))
  (pad 17 thru_hole oval (at 0 40.64) (size 1.7 1.7) (drill 1.0) (layers *.Cu *.Mask))
  (pad 18 thru_hole oval (at 0 43.18) (size 1.7 1.7) (drill 1.0) (layers *.Cu *.Mask))
  (pad 19 thru_hole oval (at 0 45.72) (size 1.7 1.7) (drill 1.0) (layers *.Cu *.Mask))
  (pad 20 thru_hole oval (at 0 48.26) (size 1.7 1.7) (drill 1.0) (layers *.Cu *.Mask))
  (pad 21 thru_hole oval (at 0 50.8) (size 1.7 1.7) (drill 1.0) (layers *.Cu *.Mask))
  (pad 22 thru_hole oval (at 0 53.34) (size 1.7 1.7) (drill 1.0) (layers *.Cu *.Mask))
  (pad 23 thru_hole oval (at 0 55.88) (size 1.7 1.7) (drill 1.0) (layers *.Cu *.Mask))
  (pad 24 thru_hole oval (at 0 58.42) (size 1.7 1.7) (drill 1.0) (layers *.Cu *.Mask))
  (pad 25 thru_hole oval (at 0 60.96) (size 1.7 1.7) (drill 1.0) (layers *.Cu *.Mask))
  (pad 26 thru_hole oval (at 0 63.5) (size 1.7 1.7) (drill 1.0) (layers *.Cu *.Mask))
  (pad 27 thru_hole oval (at 0 66.04) (size 1.7 1.7) (drill 1.0) (layers *.Cu *.Mask))
  (pad 28 thru_hole oval (at 0 68.58) (size 1.7 1.7) (drill 1.0) (layers *.Cu *.Mask))
  (pad 29 thru_hole oval (at 0 71.12) (size 1.7 1.7) (drill 1.0) (layers *.Cu *.Mask))
  (pad 30 thru_hole oval (at 0 73.66) (size 1.7 1.7) (drill 1.0) (layers *.Cu *.Mask))
  (pad 31 thru_hole oval (at 0 76.2) (size 1.7 1.7) (drill 1.0) (layers *.Cu *.Mask))
  (pad 32 thru_hole oval (at 0 78.74) (size 1.7 1.7) (drill 1.0) (layers *.Cu *.Mask))
  (pad 33 thru_hole oval (at 0 81.28) (size 1.7 1.7) (drill 1.0) (layers *.Cu *.Mask))
  (pad 34 thru_hole oval (at 0 83.82) (size 1.7 1.7) (drill 1.0) (layers *.Cu *.Mask))
  (pad 35 thru_hole oval (at 0 86.36) (size 1.7 1.7) (drill 1.0) (layers *.Cu *.Mask))
  (pad 36 thru_hole oval (at 0 88.9) (size 1.7 1.7) (drill 1.0) (layers *.Cu *.Mask))
  (pad 37 thru_hole oval (at 0 91.44) (size 1.7 1.7) (drill 1.0) (layers *.Cu *.Mask))
  (pad 38 thru_hole oval (at 0 93.98) (size 1.7 1.7) (drill 1.0) (layers *.Cu *.Mask))
  (pad 39 thru_hole oval (at 0 96.52) (size 1.7 1.7) (drill 1.0) (layers *.Cu *.Mask))
  (pad 40 thru_hole oval (at 0 99.06) (size 1.7 1.7) (drill 1.0) (layers *.Cu *.Mask))
  (fp_text user %R (at 2.77 49.53 90) (layer F.Fab)
    (effects (font (size 1 1) (thickness 0.15)))
  )
  (model ${KIPRJMOD}/kicad_libs_k/models_k.3d/Connector_PinHeader_2.54mm_k.3dshapes/PinHeader_1x40_P2.54mm_Horizontal_k.wrl
    (at (xyz 0 0 0))
    (scale (xyz 1 1 1))
    (rotate (xyz 0 0 0))
  )
)