(module PinHeader_2x03_P2.54mm_Vertical_SMD (layer F.Cu) (tedit 59FED5CC)
  (descr "surface-mounted straight pin header, 2x03, 2.54mm pitch, double rows")
  (tags "Surface mounted pin header SMD 2x03 2.54mm double row")
  (attr smd)
  (fp_text reference REF** (at 0 -4.87) (layer F.SilkS)
    (effects (font (size 1 1) (thickness 0.15)))
  )
  (fp_text value PinHeader_2x03_P2.54mm_Vertical_SMD (at 0 4.87) (layer F.Fab)
    (effects (font (size 1 1) (thickness 0.15)))
  )
  (fp_line (start 2.54 3.81) (end -2.54 3.81) (layer F.Fab) (width 0.1))
  (fp_line (start -1.59 -3.81) (end 2.54 -3.81) (layer F.Fab) (width 0.1))
  (fp_line (start -2.54 3.81) (end -2.54 -2.86) (layer F.Fab) (width 0.1))
  (fp_line (start -2.54 -2.86) (end -1.59 -3.81) (layer F.Fab) (width 0.1))
  (fp_line (start 2.54 -3.81) (end 2.54 3.81) (layer F.Fab) (width 0.1))
  (fp_line (start -2.54 -2.86) (end -3.6 -2.86) (layer F.Fab) (width 0.1))
  (fp_line (start -3.6 -2.86) (end -3.6 -2.22) (layer F.Fab) (width 0.1))
  (fp_line (start -3.6 -2.22) (end -2.54 -2.22) (layer F.Fab) (width 0.1))
  (fp_line (start 2.54 -2.86) (end 3.6 -2.86) (layer F.Fab) (width 0.1))
  (fp_line (start 3.6 -2.86) (end 3.6 -2.22) (layer F.Fab) (width 0.1))
  (fp_line (start 3.6 -2.22) (end 2.54 -2.22) (layer F.Fab) (width 0.1))
  (fp_line (start -2.54 -0.32) (end -3.6 -0.32) (layer F.Fab) (width 0.1))
  (fp_line (start -3.6 -0.32) (end -3.6 0.32) (layer F.Fab) (width 0.1))
  (fp_line (start -3.6 0.32) (end -2.54 0.32) (layer F.Fab) (width 0.1))
  (fp_line (start 2.54 -0.32) (end 3.6 -0.32) (layer F.Fab) (width 0.1))
  (fp_line (start 3.6 -0.32) (end 3.6 0.32) (layer F.Fab) (width 0.1))
  (fp_line (start 3.6 0.32) (end 2.54 0.32) (layer F.Fab) (width 0.1))
  (fp_line (start -2.54 2.22) (end -3.6 2.22) (layer F.Fab) (width 0.1))
  (fp_line (start -3.6 2.22) (end -3.6 2.86) (layer F.Fab) (width 0.1))
  (fp_line (start -3.6 2.86) (end -2.54 2.86) (layer F.Fab) (width 0.1))
  (fp_line (start 2.54 2.22) (end 3.6 2.22) (layer F.Fab) (width 0.1))
  (fp_line (start 3.6 2.22) (end 3.6 2.86) (layer F.Fab) (width 0.1))
  (fp_line (start 3.6 2.86) (end 2.54 2.86) (layer F.Fab) (width 0.1))
  (fp_line (start -2.6 -3.87) (end 2.6 -3.87) (layer F.SilkS) (width 0.12))
  (fp_line (start -2.6 3.87) (end 2.6 3.87) (layer F.SilkS) (width 0.12))
  (fp_line (start -4.04 -3.3) (end -2.6 -3.3) (layer F.SilkS) (width 0.12))
  (fp_line (start -2.6 -3.87) (end -2.6 -3.3) (layer F.SilkS) (width 0.12))
  (fp_line (start 2.6 -3.87) (end 2.6 -3.3) (layer F.SilkS) (width 0.12))
  (fp_line (start -2.6 3.3) (end -2.6 3.87) (layer F.SilkS) (width 0.12))
  (fp_line (start 2.6 3.3) (end 2.6 3.87) (layer F.SilkS) (width 0.12))
  (fp_line (start -2.6 -1.78) (end -2.6 -0.76) (layer F.SilkS) (width 0.12))
  (fp_line (start 2.6 -1.78) (end 2.6 -0.76) (layer F.SilkS) (width 0.12))
  (fp_line (start -2.6 0.76) (end -2.6 1.78) (layer F.SilkS) (width 0.12))
  (fp_line (start 2.6 0.76) (end 2.6 1.78) (layer F.SilkS) (width 0.12))
  (fp_line (start -5.9 -4.35) (end -5.9 4.35) (layer F.CrtYd) (width 0.05))
  (fp_line (start -5.9 4.35) (end 5.9 4.35) (layer F.CrtYd) (width 0.05))
  (fp_line (start 5.9 4.35) (end 5.9 -4.35) (layer F.CrtYd) (width 0.05))
  (fp_line (start 5.9 -4.35) (end -5.9 -4.35) (layer F.CrtYd) (width 0.05))
  (pad 1 smd rect (at -2.525 -2.54) (size 3.15 1) (layers F.Cu F.Mask F.Paste))
  (pad 2 smd rect (at 2.525 -2.54) (size 3.15 1) (layers F.Cu F.Mask F.Paste))
  (pad 3 smd rect (at -2.525 0) (size 3.15 1) (layers F.Cu F.Mask F.Paste))
  (pad 4 smd rect (at 2.525 0) (size 3.15 1) (layers F.Cu F.Mask F.Paste))
  (pad 5 smd rect (at -2.525 2.54) (size 3.15 1) (layers F.Cu F.Mask F.Paste))
  (pad 6 smd rect (at 2.525 2.54) (size 3.15 1) (layers F.Cu F.Mask F.Paste))
  (fp_text user %R (at 0 0 90) (layer F.Fab)
    (effects (font (size 1 1) (thickness 0.15)))
  )
  (model ${KIPRJMOD}/kicad_libs_k/models_k.3d/Connector_PinHeader_2.54mm_k.3dshapes/PinHeader_2x03_P2.54mm_Vertical_SMD_k.wrl
    (at (xyz 0 0 0))
    (scale (xyz 1 1 1))
    (rotate (xyz 0 0 0))
  )
)