(module PinHeader_2x40_P2.54mm_Vertical_SMD (layer F.Cu) (tedit 59FED5CC)
  (descr "surface-mounted straight pin header, 2x40, 2.54mm pitch, double rows")
  (tags "Surface mounted pin header SMD 2x40 2.54mm double row")
  (attr smd)
  (fp_text reference REF** (at 0 -51.86) (layer F.SilkS)
    (effects (font (size 1 1) (thickness 0.15)))
  )
  (fp_text value PinHeader_2x40_P2.54mm_Vertical_SMD (at 0 51.86) (layer F.Fab)
    (effects (font (size 1 1) (thickness 0.15)))
  )
  (fp_line (start 2.54 50.8) (end -2.54 50.8) (layer F.Fab) (width 0.1))
  (fp_line (start -1.59 -50.8) (end 2.54 -50.8) (layer F.Fab) (width 0.1))
  (fp_line (start -2.54 50.8) (end -2.54 -49.85) (layer F.Fab) (width 0.1))
  (fp_line (start -2.54 -49.85) (end -1.59 -50.8) (layer F.Fab) (width 0.1))
  (fp_line (start 2.54 -50.8) (end 2.54 50.8) (layer F.Fab) (width 0.1))
  (fp_line (start -2.54 -49.85) (end -3.6 -49.85) (layer F.Fab) (width 0.1))
  (fp_line (start -3.6 -49.85) (end -3.6 -49.21) (layer F.Fab) (width 0.1))
  (fp_line (start -3.6 -49.21) (end -2.54 -49.21) (layer F.Fab) (width 0.1))
  (fp_line (start 2.54 -49.85) (end 3.6 -49.85) (layer F.Fab) (width 0.1))
  (fp_line (start 3.6 -49.85) (end 3.6 -49.21) (layer F.Fab) (width 0.1))
  (fp_line (start 3.6 -49.21) (end 2.54 -49.21) (layer F.Fab) (width 0.1))
  (fp_line (start -2.54 -47.31) (end -3.6 -47.31) (layer F.Fab) (width 0.1))
  (fp_line (start -3.6 -47.31) (end -3.6 -46.67) (layer F.Fab) (width 0.1))
  (fp_line (start -3.6 -46.67) (end -2.54 -46.67) (layer F.Fab) (width 0.1))
  (fp_line (start 2.54 -47.31) (end 3.6 -47.31) (layer F.Fab) (width 0.1))
  (fp_line (start 3.6 -47.31) (end 3.6 -46.67) (layer F.Fab) (width 0.1))
  (fp_line (start 3.6 -46.67) (end 2.54 -46.67) (layer F.Fab) (width 0.1))
  (fp_line (start -2.54 -44.77) (end -3.6 -44.77) (layer F.Fab) (width 0.1))
  (fp_line (start -3.6 -44.77) (end -3.6 -44.13) (layer F.Fab) (width 0.1))
  (fp_line (start -3.6 -44.13) (end -2.54 -44.13) (layer F.Fab) (width 0.1))
  (fp_line (start 2.54 -44.77) (end 3.6 -44.77) (layer F.Fab) (width 0.1))
  (fp_line (start 3.6 -44.77) (end 3.6 -44.13) (layer F.Fab) (width 0.1))
  (fp_line (start 3.6 -44.13) (end 2.54 -44.13) (layer F.Fab) (width 0.1))
  (fp_line (start -2.54 -42.23) (end -3.6 -42.23) (layer F.Fab) (width 0.1))
  (fp_line (start -3.6 -42.23) (end -3.6 -41.59) (layer F.Fab) (width 0.1))
  (fp_line (start -3.6 -41.59) (end -2.54 -41.59) (layer F.Fab) (width 0.1))
  (fp_line (start 2.54 -42.23) (end 3.6 -42.23) (layer F.Fab) (width 0.1))
  (fp_line (start 3.6 -42.23) (end 3.6 -41.59) (layer F.Fab) (width 0.1))
  (fp_line (start 3.6 -41.59) (end 2.54 -41.59) (layer F.Fab) (width 0.1))
  (fp_line (start -2.54 -39.69) (end -3.6 -39.69) (layer F.Fab) (width 0.1))
  (fp_line (start -3.6 -39.69) (end -3.6 -39.05) (layer F.Fab) (width 0.1))
  (fp_line (start -3.6 -39.05) (end -2.54 -39.05) (layer F.Fab) (width 0.1))
  (fp_line (start 2.54 -39.69) (end 3.6 -39.69) (layer F.Fab) (width 0.1))
  (fp_line (start 3.6 -39.69) (end 3.6 -39.05) (layer F.Fab) (width 0.1))
  (fp_line (start 3.6 -39.05) (end 2.54 -39.05) (layer F.Fab) (width 0.1))
  (fp_line (start -2.54 -37.15) (end -3.6 -37.15) (layer F.Fab) (width 0.1))
  (fp_line (start -3.6 -37.15) (end -3.6 -36.51) (layer F.Fab) (width 0.1))
  (fp_line (start -3.6 -36.51) (end -2.54 -36.51) (layer F.Fab) (width 0.1))
  (fp_line (start 2.54 -37.15) (end 3.6 -37.15) (layer F.Fab) (width 0.1))
  (fp_line (start 3.6 -37.15) (end 3.6 -36.51) (layer F.Fab) (width 0.1))
  (fp_line (start 3.6 -36.51) (end 2.54 -36.51) (layer F.Fab) (width 0.1))
  (fp_line (start -2.54 -34.61) (end -3.6 -34.61) (layer F.Fab) (width 0.1))
  (fp_line (start -3.6 -34.61) (end -3.6 -33.97) (layer F.Fab) (width 0.1))
  (fp_line (start -3.6 -33.97) (end -2.54 -33.97) (layer F.Fab) (width 0.1))
  (fp_line (start 2.54 -34.61) (end 3.6 -34.61) (layer F.Fab) (width 0.1))
  (fp_line (start 3.6 -34.61) (end 3.6 -33.97) (layer F.Fab) (width 0.1))
  (fp_line (start 3.6 -33.97) (end 2.54 -33.97) (layer F.Fab) (width 0.1))
  (fp_line (start -2.54 -32.07) (end -3.6 -32.07) (layer F.Fab) (width 0.1))
  (fp_line (start -3.6 -32.07) (end -3.6 -31.43) (layer F.Fab) (width 0.1))
  (fp_line (start -3.6 -31.43) (end -2.54 -31.43) (layer F.Fab) (width 0.1))
  (fp_line (start 2.54 -32.07) (end 3.6 -32.07) (layer F.Fab) (width 0.1))
  (fp_line (start 3.6 -32.07) (end 3.6 -31.43) (layer F.Fab) (width 0.1))
  (fp_line (start 3.6 -31.43) (end 2.54 -31.43) (layer F.Fab) (width 0.1))
  (fp_line (start -2.54 -29.53) (end -3.6 -29.53) (layer F.Fab) (width 0.1))
  (fp_line (start -3.6 -29.53) (end -3.6 -28.89) (layer F.Fab) (width 0.1))
  (fp_line (start -3.6 -28.89) (end -2.54 -28.89) (layer F.Fab) (width 0.1))
  (fp_line (start 2.54 -29.53) (end 3.6 -29.53) (layer F.Fab) (width 0.1))
  (fp_line (start 3.6 -29.53) (end 3.6 -28.89) (layer F.Fab) (width 0.1))
  (fp_line (start 3.6 -28.89) (end 2.54 -28.89) (layer F.Fab) (width 0.1))
  (fp_line (start -2.54 -26.99) (end -3.6 -26.99) (layer F.Fab) (width 0.1))
  (fp_line (start -3.6 -26.99) (end -3.6 -26.35) (layer F.Fab) (width 0.1))
  (fp_line (start -3.6 -26.35) (end -2.54 -26.35) (layer F.Fab) (width 0.1))
  (fp_line (start 2.54 -26.99) (end 3.6 -26.99) (layer F.Fab) (width 0.1))
  (fp_line (start 3.6 -26.99) (end 3.6 -26.35) (layer F.Fab) (width 0.1))
  (fp_line (start 3.6 -26.35) (end 2.54 -26.35) (layer F.Fab) (width 0.1))
  (fp_line (start -2.54 -24.45) (end -3.6 -24.45) (layer F.Fab) (width 0.1))
  (fp_line (start -3.6 -24.45) (end -3.6 -23.81) (layer F.Fab) (width 0.1))
  (fp_line (start -3.6 -23.81) (end -2.54 -23.81) (layer F.Fab) (width 0.1))
  (fp_line (start 2.54 -24.45) (end 3.6 -24.45) (layer F.Fab) (width 0.1))
  (fp_line (start 3.6 -24.45) (end 3.6 -23.81) (layer F.Fab) (width 0.1))
  (fp_line (start 3.6 -23.81) (end 2.54 -23.81) (layer F.Fab) (width 0.1))
  (fp_line (start -2.54 -21.91) (end -3.6 -21.91) (layer F.Fab) (width 0.1))
  (fp_line (start -3.6 -21.91) (end -3.6 -21.27) (layer F.Fab) (width 0.1))
  (fp_line (start -3.6 -21.27) (end -2.54 -21.27) (layer F.Fab) (width 0.1))
  (fp_line (start 2.54 -21.91) (end 3.6 -21.91) (layer F.Fab) (width 0.1))
  (fp_line (start 3.6 -21.91) (end 3.6 -21.27) (layer F.Fab) (width 0.1))
  (fp_line (start 3.6 -21.27) (end 2.54 -21.27) (layer F.Fab) (width 0.1))
  (fp_line (start -2.54 -19.37) (end -3.6 -19.37) (layer F.Fab) (width 0.1))
  (fp_line (start -3.6 -19.37) (end -3.6 -18.73) (layer F.Fab) (width 0.1))
  (fp_line (start -3.6 -18.73) (end -2.54 -18.73) (layer F.Fab) (width 0.1))
  (fp_line (start 2.54 -19.37) (end 3.6 -19.37) (layer F.Fab) (width 0.1))
  (fp_line (start 3.6 -19.37) (end 3.6 -18.73) (layer F.Fab) (width 0.1))
  (fp_line (start 3.6 -18.73) (end 2.54 -18.73) (layer F.Fab) (width 0.1))
  (fp_line (start -2.54 -16.83) (end -3.6 -16.83) (layer F.Fab) (width 0.1))
  (fp_line (start -3.6 -16.83) (end -3.6 -16.19) (layer F.Fab) (width 0.1))
  (fp_line (start -3.6 -16.19) (end -2.54 -16.19) (layer F.Fab) (width 0.1))
  (fp_line (start 2.54 -16.83) (end 3.6 -16.83) (layer F.Fab) (width 0.1))
  (fp_line (start 3.6 -16.83) (end 3.6 -16.19) (layer F.Fab) (width 0.1))
  (fp_line (start 3.6 -16.19) (end 2.54 -16.19) (layer F.Fab) (width 0.1))
  (fp_line (start -2.54 -14.29) (end -3.6 -14.29) (layer F.Fab) (width 0.1))
  (fp_line (start -3.6 -14.29) (end -3.6 -13.65) (layer F.Fab) (width 0.1))
  (fp_line (start -3.6 -13.65) (end -2.54 -13.65) (layer F.Fab) (width 0.1))
  (fp_line (start 2.54 -14.29) (end 3.6 -14.29) (layer F.Fab) (width 0.1))
  (fp_line (start 3.6 -14.29) (end 3.6 -13.65) (layer F.Fab) (width 0.1))
  (fp_line (start 3.6 -13.65) (end 2.54 -13.65) (layer F.Fab) (width 0.1))
  (fp_line (start -2.54 -11.75) (end -3.6 -11.75) (layer F.Fab) (width 0.1))
  (fp_line (start -3.6 -11.75) (end -3.6 -11.11) (layer F.Fab) (width 0.1))
  (fp_line (start -3.6 -11.11) (end -2.54 -11.11) (layer F.Fab) (width 0.1))
  (fp_line (start 2.54 -11.75) (end 3.6 -11.75) (layer F.Fab) (width 0.1))
  (fp_line (start 3.6 -11.75) (end 3.6 -11.11) (layer F.Fab) (width 0.1))
  (fp_line (start 3.6 -11.11) (end 2.54 -11.11) (layer F.Fab) (width 0.1))
  (fp_line (start -2.54 -9.21) (end -3.6 -9.21) (layer F.Fab) (width 0.1))
  (fp_line (start -3.6 -9.21) (end -3.6 -8.57) (layer F.Fab) (width 0.1))
  (fp_line (start -3.6 -8.57) (end -2.54 -8.57) (layer F.Fab) (width 0.1))
  (fp_line (start 2.54 -9.21) (end 3.6 -9.21) (layer F.Fab) (width 0.1))
  (fp_line (start 3.6 -9.21) (end 3.6 -8.57) (layer F.Fab) (width 0.1))
  (fp_line (start 3.6 -8.57) (end 2.54 -8.57) (layer F.Fab) (width 0.1))
  (fp_line (start -2.54 -6.67) (end -3.6 -6.67) (layer F.Fab) (width 0.1))
  (fp_line (start -3.6 -6.67) (end -3.6 -6.03) (layer F.Fab) (width 0.1))
  (fp_line (start -3.6 -6.03) (end -2.54 -6.03) (layer F.Fab) (width 0.1))
  (fp_line (start 2.54 -6.67) (end 3.6 -6.67) (layer F.Fab) (width 0.1))
  (fp_line (start 3.6 -6.67) (end 3.6 -6.03) (layer F.Fab) (width 0.1))
  (fp_line (start 3.6 -6.03) (end 2.54 -6.03) (layer F.Fab) (width 0.1))
  (fp_line (start -2.54 -4.13) (end -3.6 -4.13) (layer F.Fab) (width 0.1))
  (fp_line (start -3.6 -4.13) (end -3.6 -3.49) (layer F.Fab) (width 0.1))
  (fp_line (start -3.6 -3.49) (end -2.54 -3.49) (layer F.Fab) (width 0.1))
  (fp_line (start 2.54 -4.13) (end 3.6 -4.13) (layer F.Fab) (width 0.1))
  (fp_line (start 3.6 -4.13) (end 3.6 -3.49) (layer F.Fab) (width 0.1))
  (fp_line (start 3.6 -3.49) (end 2.54 -3.49) (layer F.Fab) (width 0.1))
  (fp_line (start -2.54 -1.59) (end -3.6 -1.59) (layer F.Fab) (width 0.1))
  (fp_line (start -3.6 -1.59) (end -3.6 -0.95) (layer F.Fab) (width 0.1))
  (fp_line (start -3.6 -0.95) (end -2.54 -0.95) (layer F.Fab) (width 0.1))
  (fp_line (start 2.54 -1.59) (end 3.6 -1.59) (layer F.Fab) (width 0.1))
  (fp_line (start 3.6 -1.59) (end 3.6 -0.95) (layer F.Fab) (width 0.1))
  (fp_line (start 3.6 -0.95) (end 2.54 -0.95) (layer F.Fab) (width 0.1))
  (fp_line (start -2.54 0.95) (end -3.6 0.95) (layer F.Fab) (width 0.1))
  (fp_line (start -3.6 0.95) (end -3.6 1.59) (layer F.Fab) (width 0.1))
  (fp_line (start -3.6 1.59) (end -2.54 1.59) (layer F.Fab) (width 0.1))
  (fp_line (start 2.54 0.95) (end 3.6 0.95) (layer F.Fab) (width 0.1))
  (fp_line (start 3.6 0.95) (end 3.6 1.59) (layer F.Fab) (width 0.1))
  (fp_line (start 3.6 1.59) (end 2.54 1.59) (layer F.Fab) (width 0.1))
  (fp_line (start -2.54 3.49) (end -3.6 3.49) (layer F.Fab) (width 0.1))
  (fp_line (start -3.6 3.49) (end -3.6 4.13) (layer F.Fab) (width 0.1))
  (fp_line (start -3.6 4.13) (end -2.54 4.13) (layer F.Fab) (width 0.1))
  (fp_line (start 2.54 3.49) (end 3.6 3.49) (layer F.Fab) (width 0.1))
  (fp_line (start 3.6 3.49) (end 3.6 4.13) (layer F.Fab) (width 0.1))
  (fp_line (start 3.6 4.13) (end 2.54 4.13) (layer F.Fab) (width 0.1))
  (fp_line (start -2.54 6.03) (end -3.6 6.03) (layer F.Fab) (width 0.1))
  (fp_line (start -3.6 6.03) (end -3.6 6.67) (layer F.Fab) (width 0.1))
  (fp_line (start -3.6 6.67) (end -2.54 6.67) (layer F.Fab) (width 0.1))
  (fp_line (start 2.54 6.03) (end 3.6 6.03) (layer F.Fab) (width 0.1))
  (fp_line (start 3.6 6.03) (end 3.6 6.67) (layer F.Fab) (width 0.1))
  (fp_line (start 3.6 6.67) (end 2.54 6.67) (layer F.Fab) (width 0.1))
  (fp_line (start -2.54 8.57) (end -3.6 8.57) (layer F.Fab) (width 0.1))
  (fp_line (start -3.6 8.57) (end -3.6 9.21) (layer F.Fab) (width 0.1))
  (fp_line (start -3.6 9.21) (end -2.54 9.21) (layer F.Fab) (width 0.1))
  (fp_line (start 2.54 8.57) (end 3.6 8.57) (layer F.Fab) (width 0.1))
  (fp_line (start 3.6 8.57) (end 3.6 9.21) (layer F.Fab) (width 0.1))
  (fp_line (start 3.6 9.21) (end 2.54 9.21) (layer F.Fab) (width 0.1))
  (fp_line (start -2.54 11.11) (end -3.6 11.11) (layer F.Fab) (width 0.1))
  (fp_line (start -3.6 11.11) (end -3.6 11.75) (layer F.Fab) (width 0.1))
  (fp_line (start -3.6 11.75) (end -2.54 11.75) (layer F.Fab) (width 0.1))
  (fp_line (start 2.54 11.11) (end 3.6 11.11) (layer F.Fab) (width 0.1))
  (fp_line (start 3.6 11.11) (end 3.6 11.75) (layer F.Fab) (width 0.1))
  (fp_line (start 3.6 11.75) (end 2.54 11.75) (layer F.Fab) (width 0.1))
  (fp_line (start -2.54 13.65) (end -3.6 13.65) (layer F.Fab) (width 0.1))
  (fp_line (start -3.6 13.65) (end -3.6 14.29) (layer F.Fab) (width 0.1))
  (fp_line (start -3.6 14.29) (end -2.54 14.29) (layer F.Fab) (width 0.1))
  (fp_line (start 2.54 13.65) (end 3.6 13.65) (layer F.Fab) (width 0.1))
  (fp_line (start 3.6 13.65) (end 3.6 14.29) (layer F.Fab) (width 0.1))
  (fp_line (start 3.6 14.29) (end 2.54 14.29) (layer F.Fab) (width 0.1))
  (fp_line (start -2.54 16.19) (end -3.6 16.19) (layer F.Fab) (width 0.1))
  (fp_line (start -3.6 16.19) (end -3.6 16.83) (layer F.Fab) (width 0.1))
  (fp_line (start -3.6 16.83) (end -2.54 16.83) (layer F.Fab) (width 0.1))
  (fp_line (start 2.54 16.19) (end 3.6 16.19) (layer F.Fab) (width 0.1))
  (fp_line (start 3.6 16.19) (end 3.6 16.83) (layer F.Fab) (width 0.1))
  (fp_line (start 3.6 16.83) (end 2.54 16.83) (layer F.Fab) (width 0.1))
  (fp_line (start -2.54 18.73) (end -3.6 18.73) (layer F.Fab) (width 0.1))
  (fp_line (start -3.6 18.73) (end -3.6 19.37) (layer F.Fab) (width 0.1))
  (fp_line (start -3.6 19.37) (end -2.54 19.37) (layer F.Fab) (width 0.1))
  (fp_line (start 2.54 18.73) (end 3.6 18.73) (layer F.Fab) (width 0.1))
  (fp_line (start 3.6 18.73) (end 3.6 19.37) (layer F.Fab) (width 0.1))
  (fp_line (start 3.6 19.37) (end 2.54 19.37) (layer F.Fab) (width 0.1))
  (fp_line (start -2.54 21.27) (end -3.6 21.27) (layer F.Fab) (width 0.1))
  (fp_line (start -3.6 21.27) (end -3.6 21.91) (layer F.Fab) (width 0.1))
  (fp_line (start -3.6 21.91) (end -2.54 21.91) (layer F.Fab) (width 0.1))
  (fp_line (start 2.54 21.27) (end 3.6 21.27) (layer F.Fab) (width 0.1))
  (fp_line (start 3.6 21.27) (end 3.6 21.91) (layer F.Fab) (width 0.1))
  (fp_line (start 3.6 21.91) (end 2.54 21.91) (layer F.Fab) (width 0.1))
  (fp_line (start -2.54 23.81) (end -3.6 23.81) (layer F.Fab) (width 0.1))
  (fp_line (start -3.6 23.81) (end -3.6 24.45) (layer F.Fab) (width 0.1))
  (fp_line (start -3.6 24.45) (end -2.54 24.45) (layer F.Fab) (width 0.1))
  (fp_line (start 2.54 23.81) (end 3.6 23.81) (layer F.Fab) (width 0.1))
  (fp_line (start 3.6 23.81) (end 3.6 24.45) (layer F.Fab) (width 0.1))
  (fp_line (start 3.6 24.45) (end 2.54 24.45) (layer F.Fab) (width 0.1))
  (fp_line (start -2.54 26.35) (end -3.6 26.35) (layer F.Fab) (width 0.1))
  (fp_line (start -3.6 26.35) (end -3.6 26.99) (layer F.Fab) (width 0.1))
  (fp_line (start -3.6 26.99) (end -2.54 26.99) (layer F.Fab) (width 0.1))
  (fp_line (start 2.54 26.35) (end 3.6 26.35) (layer F.Fab) (width 0.1))
  (fp_line (start 3.6 26.35) (end 3.6 26.99) (layer F.Fab) (width 0.1))
  (fp_line (start 3.6 26.99) (end 2.54 26.99) (layer F.Fab) (width 0.1))
  (fp_line (start -2.54 28.89) (end -3.6 28.89) (layer F.Fab) (width 0.1))
  (fp_line (start -3.6 28.89) (end -3.6 29.53) (layer F.Fab) (width 0.1))
  (fp_line (start -3.6 29.53) (end -2.54 29.53) (layer F.Fab) (width 0.1))
  (fp_line (start 2.54 28.89) (end 3.6 28.89) (layer F.Fab) (width 0.1))
  (fp_line (start 3.6 28.89) (end 3.6 29.53) (layer F.Fab) (width 0.1))
  (fp_line (start 3.6 29.53) (end 2.54 29.53) (layer F.Fab) (width 0.1))
  (fp_line (start -2.54 31.43) (end -3.6 31.43) (layer F.Fab) (width 0.1))
  (fp_line (start -3.6 31.43) (end -3.6 32.07) (layer F.Fab) (width 0.1))
  (fp_line (start -3.6 32.07) (end -2.54 32.07) (layer F.Fab) (width 0.1))
  (fp_line (start 2.54 31.43) (end 3.6 31.43) (layer F.Fab) (width 0.1))
  (fp_line (start 3.6 31.43) (end 3.6 32.07) (layer F.Fab) (width 0.1))
  (fp_line (start 3.6 32.07) (end 2.54 32.07) (layer F.Fab) (width 0.1))
  (fp_line (start -2.54 33.97) (end -3.6 33.97) (layer F.Fab) (width 0.1))
  (fp_line (start -3.6 33.97) (end -3.6 34.61) (layer F.Fab) (width 0.1))
  (fp_line (start -3.6 34.61) (end -2.54 34.61) (layer F.Fab) (width 0.1))
  (fp_line (start 2.54 33.97) (end 3.6 33.97) (layer F.Fab) (width 0.1))
  (fp_line (start 3.6 33.97) (end 3.6 34.61) (layer F.Fab) (width 0.1))
  (fp_line (start 3.6 34.61) (end 2.54 34.61) (layer F.Fab) (width 0.1))
  (fp_line (start -2.54 36.51) (end -3.6 36.51) (layer F.Fab) (width 0.1))
  (fp_line (start -3.6 36.51) (end -3.6 37.15) (layer F.Fab) (width 0.1))
  (fp_line (start -3.6 37.15) (end -2.54 37.15) (layer F.Fab) (width 0.1))
  (fp_line (start 2.54 36.51) (end 3.6 36.51) (layer F.Fab) (width 0.1))
  (fp_line (start 3.6 36.51) (end 3.6 37.15) (layer F.Fab) (width 0.1))
  (fp_line (start 3.6 37.15) (end 2.54 37.15) (layer F.Fab) (width 0.1))
  (fp_line (start -2.54 39.05) (end -3.6 39.05) (layer F.Fab) (width 0.1))
  (fp_line (start -3.6 39.05) (end -3.6 39.69) (layer F.Fab) (width 0.1))
  (fp_line (start -3.6 39.69) (end -2.54 39.69) (layer F.Fab) (width 0.1))
  (fp_line (start 2.54 39.05) (end 3.6 39.05) (layer F.Fab) (width 0.1))
  (fp_line (start 3.6 39.05) (end 3.6 39.69) (layer F.Fab) (width 0.1))
  (fp_line (start 3.6 39.69) (end 2.54 39.69) (layer F.Fab) (width 0.1))
  (fp_line (start -2.54 41.59) (end -3.6 41.59) (layer F.Fab) (width 0.1))
  (fp_line (start -3.6 41.59) (end -3.6 42.23) (layer F.Fab) (width 0.1))
  (fp_line (start -3.6 42.23) (end -2.54 42.23) (layer F.Fab) (width 0.1))
  (fp_line (start 2.54 41.59) (end 3.6 41.59) (layer F.Fab) (width 0.1))
  (fp_line (start 3.6 41.59) (end 3.6 42.23) (layer F.Fab) (width 0.1))
  (fp_line (start 3.6 42.23) (end 2.54 42.23) (layer F.Fab) (width 0.1))
  (fp_line (start -2.54 44.13) (end -3.6 44.13) (layer F.Fab) (width 0.1))
  (fp_line (start -3.6 44.13) (end -3.6 44.77) (layer F.Fab) (width 0.1))
  (fp_line (start -3.6 44.77) (end -2.54 44.77) (layer F.Fab) (width 0.1))
  (fp_line (start 2.54 44.13) (end 3.6 44.13) (layer F.Fab) (width 0.1))
  (fp_line (start 3.6 44.13) (end 3.6 44.77) (layer F.Fab) (width 0.1))
  (fp_line (start 3.6 44.77) (end 2.54 44.77) (layer F.Fab) (width 0.1))
  (fp_line (start -2.54 46.67) (end -3.6 46.67) (layer F.Fab) (width 0.1))
  (fp_line (start -3.6 46.67) (end -3.6 47.31) (layer F.Fab) (width 0.1))
  (fp_line (start -3.6 47.31) (end -2.54 47.31) (layer F.Fab) (width 0.1))
  (fp_line (start 2.54 46.67) (end 3.6 46.67) (layer F.Fab) (width 0.1))
  (fp_line (start 3.6 46.67) (end 3.6 47.31) (layer F.Fab) (width 0.1))
  (fp_line (start 3.6 47.31) (end 2.54 47.31) (layer F.Fab) (width 0.1))
  (fp_line (start -2.54 49.21) (end -3.6 49.21) (layer F.Fab) (width 0.1))
  (fp_line (start -3.6 49.21) (end -3.6 49.85) (layer F.Fab) (width 0.1))
  (fp_line (start -3.6 49.85) (end -2.54 49.85) (layer F.Fab) (width 0.1))
  (fp_line (start 2.54 49.21) (end 3.6 49.21) (layer F.Fab) (width 0.1))
  (fp_line (start 3.6 49.21) (end 3.6 49.85) (layer F.Fab) (width 0.1))
  (fp_line (start 3.6 49.85) (end 2.54 49.85) (layer F.Fab) (width 0.1))
  (fp_line (start -2.6 -50.86) (end 2.6 -50.86) (layer F.SilkS) (width 0.12))
  (fp_line (start -2.6 50.86) (end 2.6 50.86) (layer F.SilkS) (width 0.12))
  (fp_line (start -4.04 -50.29) (end -2.6 -50.29) (layer F.SilkS) (width 0.12))
  (fp_line (start -2.6 -50.86) (end -2.6 -50.29) (layer F.SilkS) (width 0.12))
  (fp_line (start 2.6 -50.86) (end 2.6 -50.29) (layer F.SilkS) (width 0.12))
  (fp_line (start -2.6 50.29) (end -2.6 50.86) (layer F.SilkS) (width 0.12))
  (fp_line (start 2.6 50.29) (end 2.6 50.86) (layer F.SilkS) (width 0.12))
  (fp_line (start -2.6 -48.77) (end -2.6 -47.75) (layer F.SilkS) (width 0.12))
  (fp_line (start 2.6 -48.77) (end 2.6 -47.75) (layer F.SilkS) (width 0.12))
  (fp_line (start -2.6 -46.23) (end -2.6 -45.21) (layer F.SilkS) (width 0.12))
  (fp_line (start 2.6 -46.23) (end 2.6 -45.21) (layer F.SilkS) (width 0.12))
  (fp_line (start -2.6 -43.69) (end -2.6 -42.67) (layer F.SilkS) (width 0.12))
  (fp_line (start 2.6 -43.69) (end 2.6 -42.67) (layer F.SilkS) (width 0.12))
  (fp_line (start -2.6 -41.15) (end -2.6 -40.13) (layer F.SilkS) (width 0.12))
  (fp_line (start 2.6 -41.15) (end 2.6 -40.13) (layer F.SilkS) (width 0.12))
  (fp_line (start -2.6 -38.61) (end -2.6 -37.59) (layer F.SilkS) (width 0.12))
  (fp_line (start 2.6 -38.61) (end 2.6 -37.59) (layer F.SilkS) (width 0.12))
  (fp_line (start -2.6 -36.07) (end -2.6 -35.05) (layer F.SilkS) (width 0.12))
  (fp_line (start 2.6 -36.07) (end 2.6 -35.05) (layer F.SilkS) (width 0.12))
  (fp_line (start -2.6 -33.53) (end -2.6 -32.51) (layer F.SilkS) (width 0.12))
  (fp_line (start 2.6 -33.53) (end 2.6 -32.51) (layer F.SilkS) (width 0.12))
  (fp_line (start -2.6 -30.99) (end -2.6 -29.97) (layer F.SilkS) (width 0.12))
  (fp_line (start 2.6 -30.99) (end 2.6 -29.97) (layer F.SilkS) (width 0.12))
  (fp_line (start -2.6 -28.45) (end -2.6 -27.43) (layer F.SilkS) (width 0.12))
  (fp_line (start 2.6 -28.45) (end 2.6 -27.43) (layer F.SilkS) (width 0.12))
  (fp_line (start -2.6 -25.91) (end -2.6 -24.89) (layer F.SilkS) (width 0.12))
  (fp_line (start 2.6 -25.91) (end 2.6 -24.89) (layer F.SilkS) (width 0.12))
  (fp_line (start -2.6 -23.37) (end -2.6 -22.35) (layer F.SilkS) (width 0.12))
  (fp_line (start 2.6 -23.37) (end 2.6 -22.35) (layer F.SilkS) (width 0.12))
  (fp_line (start -2.6 -20.83) (end -2.6 -19.81) (layer F.SilkS) (width 0.12))
  (fp_line (start 2.6 -20.83) (end 2.6 -19.81) (layer F.SilkS) (width 0.12))
  (fp_line (start -2.6 -18.29) (end -2.6 -17.27) (layer F.SilkS) (width 0.12))
  (fp_line (start 2.6 -18.29) (end 2.6 -17.27) (layer F.SilkS) (width 0.12))
  (fp_line (start -2.6 -15.75) (end -2.6 -14.73) (layer F.SilkS) (width 0.12))
  (fp_line (start 2.6 -15.75) (end 2.6 -14.73) (layer F.SilkS) (width 0.12))
  (fp_line (start -2.6 -13.21) (end -2.6 -12.19) (layer F.SilkS) (width 0.12))
  (fp_line (start 2.6 -13.21) (end 2.6 -12.19) (layer F.SilkS) (width 0.12))
  (fp_line (start -2.6 -10.67) (end -2.6 -9.65) (layer F.SilkS) (width 0.12))
  (fp_line (start 2.6 -10.67) (end 2.6 -9.65) (layer F.SilkS) (width 0.12))
  (fp_line (start -2.6 -8.13) (end -2.6 -7.11) (layer F.SilkS) (width 0.12))
  (fp_line (start 2.6 -8.13) (end 2.6 -7.11) (layer F.SilkS) (width 0.12))
  (fp_line (start -2.6 -5.59) (end -2.6 -4.57) (layer F.SilkS) (width 0.12))
  (fp_line (start 2.6 -5.59) (end 2.6 -4.57) (layer F.SilkS) (width 0.12))
  (fp_line (start -2.6 -3.05) (end -2.6 -2.03) (layer F.SilkS) (width 0.12))
  (fp_line (start 2.6 -3.05) (end 2.6 -2.03) (layer F.SilkS) (width 0.12))
  (fp_line (start -2.6 -0.51) (end -2.6 0.51) (layer F.SilkS) (width 0.12))
  (fp_line (start 2.6 -0.51) (end 2.6 0.51) (layer F.SilkS) (width 0.12))
  (fp_line (start -2.6 2.03) (end -2.6 3.05) (layer F.SilkS) (width 0.12))
  (fp_line (start 2.6 2.03) (end 2.6 3.05) (layer F.SilkS) (width 0.12))
  (fp_line (start -2.6 4.57) (end -2.6 5.59) (layer F.SilkS) (width 0.12))
  (fp_line (start 2.6 4.57) (end 2.6 5.59) (layer F.SilkS) (width 0.12))
  (fp_line (start -2.6 7.11) (end -2.6 8.13) (layer F.SilkS) (width 0.12))
  (fp_line (start 2.6 7.11) (end 2.6 8.13) (layer F.SilkS) (width 0.12))
  (fp_line (start -2.6 9.65) (end -2.6 10.67) (layer F.SilkS) (width 0.12))
  (fp_line (start 2.6 9.65) (end 2.6 10.67) (layer F.SilkS) (width 0.12))
  (fp_line (start -2.6 12.19) (end -2.6 13.21) (layer F.SilkS) (width 0.12))
  (fp_line (start 2.6 12.19) (end 2.6 13.21) (layer F.SilkS) (width 0.12))
  (fp_line (start -2.6 14.73) (end -2.6 15.75) (layer F.SilkS) (width 0.12))
  (fp_line (start 2.6 14.73) (end 2.6 15.75) (layer F.SilkS) (width 0.12))
  (fp_line (start -2.6 17.27) (end -2.6 18.29) (layer F.SilkS) (width 0.12))
  (fp_line (start 2.6 17.27) (end 2.6 18.29) (layer F.SilkS) (width 0.12))
  (fp_line (start -2.6 19.81) (end -2.6 20.83) (layer F.SilkS) (width 0.12))
  (fp_line (start 2.6 19.81) (end 2.6 20.83) (layer F.SilkS) (width 0.12))
  (fp_line (start -2.6 22.35) (end -2.6 23.37) (layer F.SilkS) (width 0.12))
  (fp_line (start 2.6 22.35) (end 2.6 23.37) (layer F.SilkS) (width 0.12))
  (fp_line (start -2.6 24.89) (end -2.6 25.91) (layer F.SilkS) (width 0.12))
  (fp_line (start 2.6 24.89) (end 2.6 25.91) (layer F.SilkS) (width 0.12))
  (fp_line (start -2.6 27.43) (end -2.6 28.45) (layer F.SilkS) (width 0.12))
  (fp_line (start 2.6 27.43) (end 2.6 28.45) (layer F.SilkS) (width 0.12))
  (fp_line (start -2.6 29.97) (end -2.6 30.99) (layer F.SilkS) (width 0.12))
  (fp_line (start 2.6 29.97) (end 2.6 30.99) (layer F.SilkS) (width 0.12))
  (fp_line (start -2.6 32.51) (end -2.6 33.53) (layer F.SilkS) (width 0.12))
  (fp_line (start 2.6 32.51) (end 2.6 33.53) (layer F.SilkS) (width 0.12))
  (fp_line (start -2.6 35.05) (end -2.6 36.07) (layer F.SilkS) (width 0.12))
  (fp_line (start 2.6 35.05) (end 2.6 36.07) (layer F.SilkS) (width 0.12))
  (fp_line (start -2.6 37.59) (end -2.6 38.61) (layer F.SilkS) (width 0.12))
  (fp_line (start 2.6 37.59) (end 2.6 38.61) (layer F.SilkS) (width 0.12))
  (fp_line (start -2.6 40.13) (end -2.6 41.15) (layer F.SilkS) (width 0.12))
  (fp_line (start 2.6 40.13) (end 2.6 41.15) (layer F.SilkS) (width 0.12))
  (fp_line (start -2.6 42.67) (end -2.6 43.69) (layer F.SilkS) (width 0.12))
  (fp_line (start 2.6 42.67) (end 2.6 43.69) (layer F.SilkS) (width 0.12))
  (fp_line (start -2.6 45.21) (end -2.6 46.23) (layer F.SilkS) (width 0.12))
  (fp_line (start 2.6 45.21) (end 2.6 46.23) (layer F.SilkS) (width 0.12))
  (fp_line (start -2.6 47.75) (end -2.6 48.77) (layer F.SilkS) (width 0.12))
  (fp_line (start 2.6 47.75) (end 2.6 48.77) (layer F.SilkS) (width 0.12))
  (fp_line (start -5.9 -51.3) (end -5.9 51.3) (layer F.CrtYd) (width 0.05))
  (fp_line (start -5.9 51.3) (end 5.9 51.3) (layer F.CrtYd) (width 0.05))
  (fp_line (start 5.9 51.3) (end 5.9 -51.3) (layer F.CrtYd) (width 0.05))
  (fp_line (start 5.9 -51.3) (end -5.9 -51.3) (layer F.CrtYd) (width 0.05))
  (pad 1 smd rect (at -2.525 -49.53) (size 3.15 1) (layers F.Cu F.Mask F.Paste))
  (pad 2 smd rect (at 2.525 -49.53) (size 3.15 1) (layers F.Cu F.Mask F.Paste))
  (pad 3 smd rect (at -2.525 -46.99) (size 3.15 1) (layers F.Cu F.Mask F.Paste))
  (pad 4 smd rect (at 2.525 -46.99) (size 3.15 1) (layers F.Cu F.Mask F.Paste))
  (pad 5 smd rect (at -2.525 -44.45) (size 3.15 1) (layers F.Cu F.Mask F.Paste))
  (pad 6 smd rect (at 2.525 -44.45) (size 3.15 1) (layers F.Cu F.Mask F.Paste))
  (pad 7 smd rect (at -2.525 -41.91) (size 3.15 1) (layers F.Cu F.Mask F.Paste))
  (pad 8 smd rect (at 2.525 -41.91) (size 3.15 1) (layers F.Cu F.Mask F.Paste))
  (pad 9 smd rect (at -2.525 -39.37) (size 3.15 1) (layers F.Cu F.Mask F.Paste))
  (pad 10 smd rect (at 2.525 -39.37) (size 3.15 1) (layers F.Cu F.Mask F.Paste))
  (pad 11 smd rect (at -2.525 -36.83) (size 3.15 1) (layers F.Cu F.Mask F.Paste))
  (pad 12 smd rect (at 2.525 -36.83) (size 3.15 1) (layers F.Cu F.Mask F.Paste))
  (pad 13 smd rect (at -2.525 -34.29) (size 3.15 1) (layers F.Cu F.Mask F.Paste))
  (pad 14 smd rect (at 2.525 -34.29) (size 3.15 1) (layers F.Cu F.Mask F.Paste))
  (pad 15 smd rect (at -2.525 -31.75) (size 3.15 1) (layers F.Cu F.Mask F.Paste))
  (pad 16 smd rect (at 2.525 -31.75) (size 3.15 1) (layers F.Cu F.Mask F.Paste))
  (pad 17 smd rect (at -2.525 -29.21) (size 3.15 1) (layers F.Cu F.Mask F.Paste))
  (pad 18 smd rect (at 2.525 -29.21) (size 3.15 1) (layers F.Cu F.Mask F.Paste))
  (pad 19 smd rect (at -2.525 -26.67) (size 3.15 1) (layers F.Cu F.Mask F.Paste))
  (pad 20 smd rect (at 2.525 -26.67) (size 3.15 1) (layers F.Cu F.Mask F.Paste))
  (pad 21 smd rect (at -2.525 -24.13) (size 3.15 1) (layers F.Cu F.Mask F.Paste))
  (pad 22 smd rect (at 2.525 -24.13) (size 3.15 1) (layers F.Cu F.Mask F.Paste))
  (pad 23 smd rect (at -2.525 -21.59) (size 3.15 1) (layers F.Cu F.Mask F.Paste))
  (pad 24 smd rect (at 2.525 -21.59) (size 3.15 1) (layers F.Cu F.Mask F.Paste))
  (pad 25 smd rect (at -2.525 -19.05) (size 3.15 1) (layers F.Cu F.Mask F.Paste))
  (pad 26 smd rect (at 2.525 -19.05) (size 3.15 1) (layers F.Cu F.Mask F.Paste))
  (pad 27 smd rect (at -2.525 -16.51) (size 3.15 1) (layers F.Cu F.Mask F.Paste))
  (pad 28 smd rect (at 2.525 -16.51) (size 3.15 1) (layers F.Cu F.Mask F.Paste))
  (pad 29 smd rect (at -2.525 -13.97) (size 3.15 1) (layers F.Cu F.Mask F.Paste))
  (pad 30 smd rect (at 2.525 -13.97) (size 3.15 1) (layers F.Cu F.Mask F.Paste))
  (pad 31 smd rect (at -2.525 -11.43) (size 3.15 1) (layers F.Cu F.Mask F.Paste))
  (pad 32 smd rect (at 2.525 -11.43) (size 3.15 1) (layers F.Cu F.Mask F.Paste))
  (pad 33 smd rect (at -2.525 -8.89) (size 3.15 1) (layers F.Cu F.Mask F.Paste))
  (pad 34 smd rect (at 2.525 -8.89) (size 3.15 1) (layers F.Cu F.Mask F.Paste))
  (pad 35 smd rect (at -2.525 -6.35) (size 3.15 1) (layers F.Cu F.Mask F.Paste))
  (pad 36 smd rect (at 2.525 -6.35) (size 3.15 1) (layers F.Cu F.Mask F.Paste))
  (pad 37 smd rect (at -2.525 -3.81) (size 3.15 1) (layers F.Cu F.Mask F.Paste))
  (pad 38 smd rect (at 2.525 -3.81) (size 3.15 1) (layers F.Cu F.Mask F.Paste))
  (pad 39 smd rect (at -2.525 -1.27) (size 3.15 1) (layers F.Cu F.Mask F.Paste))
  (pad 40 smd rect (at 2.525 -1.27) (size 3.15 1) (layers F.Cu F.Mask F.Paste))
  (pad 41 smd rect (at -2.525 1.27) (size 3.15 1) (layers F.Cu F.Mask F.Paste))
  (pad 42 smd rect (at 2.525 1.27) (size 3.15 1) (layers F.Cu F.Mask F.Paste))
  (pad 43 smd rect (at -2.525 3.81) (size 3.15 1) (layers F.Cu F.Mask F.Paste))
  (pad 44 smd rect (at 2.525 3.81) (size 3.15 1) (layers F.Cu F.Mask F.Paste))
  (pad 45 smd rect (at -2.525 6.35) (size 3.15 1) (layers F.Cu F.Mask F.Paste))
  (pad 46 smd rect (at 2.525 6.35) (size 3.15 1) (layers F.Cu F.Mask F.Paste))
  (pad 47 smd rect (at -2.525 8.89) (size 3.15 1) (layers F.Cu F.Mask F.Paste))
  (pad 48 smd rect (at 2.525 8.89) (size 3.15 1) (layers F.Cu F.Mask F.Paste))
  (pad 49 smd rect (at -2.525 11.43) (size 3.15 1) (layers F.Cu F.Mask F.Paste))
  (pad 50 smd rect (at 2.525 11.43) (size 3.15 1) (layers F.Cu F.Mask F.Paste))
  (pad 51 smd rect (at -2.525 13.97) (size 3.15 1) (layers F.Cu F.Mask F.Paste))
  (pad 52 smd rect (at 2.525 13.97) (size 3.15 1) (layers F.Cu F.Mask F.Paste))
  (pad 53 smd rect (at -2.525 16.51) (size 3.15 1) (layers F.Cu F.Mask F.Paste))
  (pad 54 smd rect (at 2.525 16.51) (size 3.15 1) (layers F.Cu F.Mask F.Paste))
  (pad 55 smd rect (at -2.525 19.05) (size 3.15 1) (layers F.Cu F.Mask F.Paste))
  (pad 56 smd rect (at 2.525 19.05) (size 3.15 1) (layers F.Cu F.Mask F.Paste))
  (pad 57 smd rect (at -2.525 21.59) (size 3.15 1) (layers F.Cu F.Mask F.Paste))
  (pad 58 smd rect (at 2.525 21.59) (size 3.15 1) (layers F.Cu F.Mask F.Paste))
  (pad 59 smd rect (at -2.525 24.13) (size 3.15 1) (layers F.Cu F.Mask F.Paste))
  (pad 60 smd rect (at 2.525 24.13) (size 3.15 1) (layers F.Cu F.Mask F.Paste))
  (pad 61 smd rect (at -2.525 26.67) (size 3.15 1) (layers F.Cu F.Mask F.Paste))
  (pad 62 smd rect (at 2.525 26.67) (size 3.15 1) (layers F.Cu F.Mask F.Paste))
  (pad 63 smd rect (at -2.525 29.21) (size 3.15 1) (layers F.Cu F.Mask F.Paste))
  (pad 64 smd rect (at 2.525 29.21) (size 3.15 1) (layers F.Cu F.Mask F.Paste))
  (pad 65 smd rect (at -2.525 31.75) (size 3.15 1) (layers F.Cu F.Mask F.Paste))
  (pad 66 smd rect (at 2.525 31.75) (size 3.15 1) (layers F.Cu F.Mask F.Paste))
  (pad 67 smd rect (at -2.525 34.29) (size 3.15 1) (layers F.Cu F.Mask F.Paste))
  (pad 68 smd rect (at 2.525 34.29) (size 3.15 1) (layers F.Cu F.Mask F.Paste))
  (pad 69 smd rect (at -2.525 36.83) (size 3.15 1) (layers F.Cu F.Mask F.Paste))
  (pad 70 smd rect (at 2.525 36.83) (size 3.15 1) (layers F.Cu F.Mask F.Paste))
  (pad 71 smd rect (at -2.525 39.37) (size 3.15 1) (layers F.Cu F.Mask F.Paste))
  (pad 72 smd rect (at 2.525 39.37) (size 3.15 1) (layers F.Cu F.Mask F.Paste))
  (pad 73 smd rect (at -2.525 41.91) (size 3.15 1) (layers F.Cu F.Mask F.Paste))
  (pad 74 smd rect (at 2.525 41.91) (size 3.15 1) (layers F.Cu F.Mask F.Paste))
  (pad 75 smd rect (at -2.525 44.45) (size 3.15 1) (layers F.Cu F.Mask F.Paste))
  (pad 76 smd rect (at 2.525 44.45) (size 3.15 1) (layers F.Cu F.Mask F.Paste))
  (pad 77 smd rect (at -2.525 46.99) (size 3.15 1) (layers F.Cu F.Mask F.Paste))
  (pad 78 smd rect (at 2.525 46.99) (size 3.15 1) (layers F.Cu F.Mask F.Paste))
  (pad 79 smd rect (at -2.525 49.53) (size 3.15 1) (layers F.Cu F.Mask F.Paste))
  (pad 80 smd rect (at 2.525 49.53) (size 3.15 1) (layers F.Cu F.Mask F.Paste))
  (fp_text user %R (at 0 0 90) (layer F.Fab)
    (effects (font (size 1 1) (thickness 0.15)))
  )
  (model ${KIPRJMOD}/kicad_libs_k/models_k.3d/Connector_PinHeader_2.54mm_k.3dshapes/PinHeader_2x40_P2.54mm_Vertical_SMD_k.wrl
    (at (xyz 0 0 0))
    (scale (xyz 1 1 1))
    (rotate (xyz 0 0 0))
  )
)