(module PinHeader_2x09_P2.54mm_Vertical (layer F.Cu) (tedit 59FED5CC)
  (descr "Through hole straight pin header, 2x09, 2.54mm pitch, double rows")
  (tags "Through hole pin header THT 2x09 2.54mm double row")
  (fp_text reference REF** (at 1.27 -2.33) (layer F.SilkS)
    (effects (font (size 1 1) (thickness 0.15)))
  )
  (fp_text value PinHeader_2x09_P2.54mm_Vertical (at 1.27 22.65) (layer F.Fab)
    (effects (font (size 1 1) (thickness 0.15)))
  )
  (fp_line (start 0 -1.27) (end 3.81 -1.27) (layer F.Fab) (width 0.1))
  (fp_line (start 3.81 -1.27) (end 3.81 21.59) (layer F.Fab) (width 0.1))
  (fp_line (start 3.81 21.59) (end -1.27 21.59) (layer F.Fab) (width 0.1))
  (fp_line (start -1.27 21.59) (end -1.27 0) (layer F.Fab) (width 0.1))
  (fp_line (start -1.27 0) (end 0 -1.27) (layer F.Fab) (width 0.1))
  (fp_line (start -1.33 21.65) (end 3.87 21.65) (layer F.SilkS) (width 0.12))
  (fp_line (start -1.33 1.27) (end -1.33 21.65) (layer F.SilkS) (width 0.12))
  (fp_line (start 3.87 -1.33) (end 3.87 21.65) (layer F.SilkS) (width 0.12))
  (fp_line (start -1.33 1.27) (end 1.27 1.27) (layer F.SilkS) (width 0.12))
  (fp_line (start 1.27 1.27) (end 1.27 -1.33) (layer F.SilkS) (width 0.12))
  (fp_line (start 1.27 -1.33) (end 3.87 -1.33) (layer F.SilkS) (width 0.12))
  (fp_line (start -1.33 0) (end -1.33 -1.33) (layer F.SilkS) (width 0.12))
  (fp_line (start -1.33 -1.33) (end 0 -1.33) (layer F.SilkS) (width 0.12))
  (fp_line (start -1.8 -1.8) (end -1.8 22.1) (layer F.CrtYd) (width 0.05))
  (fp_line (start -1.8 22.1) (end 4.35 22.1) (layer F.CrtYd) (width 0.05))
  (fp_line (start 4.35 22.1) (end 4.35 -1.8) (layer F.CrtYd) (width 0.05))
  (fp_line (start 4.35 -1.8) (end -1.8 -1.8) (layer F.CrtYd) (width 0.05))
  (pad 1 thru_hole rect (at 0 0) (size 1.7 1.7) (drill 1.0) (layers *.Cu *.Mask))
  (pad 2 thru_hole oval (at 2.54 0) (size 1.7 1.7) (drill 1.0) (layers *.Cu *.Mask))
  (pad 3 thru_hole oval (at 0 2.54) (size 1.7 1.7) (drill 1.0) (layers *.Cu *.Mask))
  (pad 4 thru_hole oval (at 2.54 2.54) (size 1.7 1.7) (drill 1.0) (layers *.Cu *.Mask))
  (pad 5 thru_hole oval (at 0 5.08) (size 1.7 1.7) (drill 1.0) (layers *.Cu *.Mask))
  (pad 6 thru_hole oval (at 2.54 5.08) (size 1.7 1.7) (drill 1.0) (layers *.Cu *.Mask))
  (pad 7 thru_hole oval (at 0 7.62) (size 1.7 1.7) (drill 1.0) (layers *.Cu *.Mask))
  (pad 8 thru_hole oval (at 2.54 7.62) (size 1.7 1.7) (drill 1.0) (layers *.Cu *.Mask))
  (pad 9 thru_hole oval (at 0 10.16) (size 1.7 1.7) (drill 1.0) (layers *.Cu *.Mask))
  (pad 10 thru_hole oval (at 2.54 10.16) (size 1.7 1.7) (drill 1.0) (layers *.Cu *.Mask))
  (pad 11 thru_hole oval (at 0 12.7) (size 1.7 1.7) (drill 1.0) (layers *.Cu *.Mask))
  (pad 12 thru_hole oval (at 2.54 12.7) (size 1.7 1.7) (drill 1.0) (layers *.Cu *.Mask))
  (pad 13 thru_hole oval (at 0 15.24) (size 1.7 1.7) (drill 1.0) (layers *.Cu *.Mask))
  (pad 14 thru_hole oval (at 2.54 15.24) (size 1.7 1.7) (drill 1.0) (layers *.Cu *.Mask))
  (pad 15 thru_hole oval (at 0 17.78) (size 1.7 1.7) (drill 1.0) (layers *.Cu *.Mask))
  (pad 16 thru_hole oval (at 2.54 17.78) (size 1.7 1.7) (drill 1.0) (layers *.Cu *.Mask))
  (pad 17 thru_hole oval (at 0 20.32) (size 1.7 1.7) (drill 1.0) (layers *.Cu *.Mask))
  (pad 18 thru_hole oval (at 2.54 20.32) (size 1.7 1.7) (drill 1.0) (layers *.Cu *.Mask))
  (fp_text user %R (at 1.27 10.16 90) (layer F.Fab)
    (effects (font (size 1 1) (thickness 0.15)))
  )
  (model ${KIPRJMOD}/kicad_libs_k/models_k.3d/Connector_PinHeader_2.54mm_k.3dshapes/PinHeader_2x09_P2.54mm_Vertical_k.wrl
    (at (xyz 0 0 0))
    (scale (xyz 1 1 1))
    (rotate (xyz 0 0 0))
  )
)