(module PinHeader_1x05_P2.54mm_Vertical_SMD_Pin1Right (layer F.Cu) (tedit 59FED5CC)
  (descr "surface-mounted straight pin header, 1x05, 2.54mm pitch, single row, style 2 (pin 1 right)")
  (tags "Surface mounted pin header SMD 1x05 2.54mm single row style2 pin1 right")
  (attr smd)
  (fp_text reference REF** (at 0 -7.41) (layer F.SilkS)
    (effects (font (size 1 1) (thickness 0.15)))
  )
  (fp_text value PinHeader_1x05_P2.54mm_Vertical_SMD_Pin1Right (at 0 7.41) (layer F.Fab)
    (effects (font (size 1 1) (thickness 0.15)))
  )
  (fp_line (start 1.27 6.35) (end -1.27 6.35) (layer F.Fab) (width 0.1))
  (fp_line (start -1.27 -6.35) (end 0.32 -6.35) (layer F.Fab) (width 0.1))
  (fp_line (start 1.27 6.35) (end 1.27 -5.4) (layer F.Fab) (width 0.1))
  (fp_line (start 1.27 -5.4) (end 0.32 -6.35) (layer F.Fab) (width 0.1))
  (fp_line (start -1.27 -6.35) (end -1.27 6.35) (layer F.Fab) (width 0.1))
  (fp_line (start -1.27 -2.86) (end -2.54 -2.86) (layer F.Fab) (width 0.1))
  (fp_line (start -2.54 -2.86) (end -2.54 -2.22) (layer F.Fab) (width 0.1))
  (fp_line (start -2.54 -2.22) (end -1.27 -2.22) (layer F.Fab) (width 0.1))
  (fp_line (start -1.27 2.22) (end -2.54 2.22) (layer F.Fab) (width 0.1))
  (fp_line (start -2.54 2.22) (end -2.54 2.86) (layer F.Fab) (width 0.1))
  (fp_line (start -2.54 2.86) (end -1.27 2.86) (layer F.Fab) (width 0.1))
  (fp_line (start 1.27 -5.4) (end 2.54 -5.4) (layer F.Fab) (width 0.1))
  (fp_line (start 2.54 -5.4) (end 2.54 -4.76) (layer F.Fab) (width 0.1))
  (fp_line (start 2.54 -4.76) (end 1.27 -4.76) (layer F.Fab) (width 0.1))
  (fp_line (start 1.27 -0.32) (end 2.54 -0.32) (layer F.Fab) (width 0.1))
  (fp_line (start 2.54 -0.32) (end 2.54 0.32) (layer F.Fab) (width 0.1))
  (fp_line (start 2.54 0.32) (end 1.27 0.32) (layer F.Fab) (width 0.1))
  (fp_line (start 1.27 4.76) (end 2.54 4.76) (layer F.Fab) (width 0.1))
  (fp_line (start 2.54 4.76) (end 2.54 5.4) (layer F.Fab) (width 0.1))
  (fp_line (start 2.54 5.4) (end 1.27 5.4) (layer F.Fab) (width 0.1))
  (fp_line (start -1.33 -6.41) (end 1.33 -6.41) (layer F.SilkS) (width 0.12))
  (fp_line (start -1.33 6.41) (end 1.33 6.41) (layer F.SilkS) (width 0.12))
  (fp_line (start 1.33 -4.32) (end 1.33 -0.76) (layer F.SilkS) (width 0.12))
  (fp_line (start 1.33 0.76) (end 1.33 4.32) (layer F.SilkS) (width 0.12))
  (fp_line (start -1.33 -6.41) (end -1.33 -3.3) (layer F.SilkS) (width 0.12))
  (fp_line (start 1.33 -5.84) (end 2.85 -5.84) (layer F.SilkS) (width 0.12))
  (fp_line (start 1.33 -6.41) (end 1.33 -5.84) (layer F.SilkS) (width 0.12))
  (fp_line (start -1.33 5.84) (end -1.33 6.41) (layer F.SilkS) (width 0.12))
  (fp_line (start -1.33 -1.78) (end -1.33 1.78) (layer F.SilkS) (width 0.12))
  (fp_line (start -1.33 3.3) (end -1.33 6.41) (layer F.SilkS) (width 0.12))
  (fp_line (start -3.45 -6.85) (end -3.45 6.85) (layer F.CrtYd) (width 0.05))
  (fp_line (start -3.45 6.85) (end 3.45 6.85) (layer F.CrtYd) (width 0.05))
  (fp_line (start 3.45 6.85) (end 3.45 -6.85) (layer F.CrtYd) (width 0.05))
  (fp_line (start 3.45 -6.85) (end -3.45 -6.85) (layer F.CrtYd) (width 0.05))
  (pad 2 smd rect (at -1.655 -2.54) (size 2.51 1) (layers F.Cu F.Mask F.Paste))
  (pad 4 smd rect (at -1.655 2.54) (size 2.51 1) (layers F.Cu F.Mask F.Paste))
  (pad 1 smd rect (at 1.655 -5.08) (size 2.51 1) (layers F.Cu F.Mask F.Paste))
  (pad 3 smd rect (at 1.655 0) (size 2.51 1) (layers F.Cu F.Mask F.Paste))
  (pad 5 smd rect (at 1.655 5.08) (size 2.51 1) (layers F.Cu F.Mask F.Paste))
  (fp_text user %R (at 0 0 90) (layer F.Fab)
    (effects (font (size 1 1) (thickness 0.15)))
  )
  (model ${KIPRJMOD}/kicad_libs_k/models_k.3d/Connector_PinHeader_2.54mm_k.3dshapes/PinHeader_1x05_P2.54mm_Vertical_SMD_Pin1Right_k.wrl
    (at (xyz 0 0 0))
    (scale (xyz 1 1 1))
    (rotate (xyz 0 0 0))
  )
)