(module PinHeader_2x30_P2.54mm_Horizontal (layer F.Cu) (tedit 59FED5CB)
  (descr "Through hole angled pin header, 2x30, 2.54mm pitch, 6mm pin length, double rows")
  (tags "Through hole angled pin header THT 2x30 2.54mm double row")
  (fp_text reference REF** (at 5.655 -2.27) (layer F.SilkS)
    (effects (font (size 1 1) (thickness 0.15)))
  )
  (fp_text value PinHeader_2x30_P2.54mm_Horizontal (at 5.655 75.93) (layer F.Fab)
    (effects (font (size 1 1) (thickness 0.15)))
  )
  (fp_line (start 4.675 -1.27) (end 6.58 -1.27) (layer F.Fab) (width 0.1))
  (fp_line (start 6.58 -1.27) (end 6.58 74.93) (layer F.Fab) (width 0.1))
  (fp_line (start 6.58 74.93) (end 4.04 74.93) (layer F.Fab) (width 0.1))
  (fp_line (start 4.04 74.93) (end 4.04 -0.635) (layer F.Fab) (width 0.1))
  (fp_line (start 4.04 -0.635) (end 4.675 -1.27) (layer F.Fab) (width 0.1))
  (fp_line (start -0.32 -0.32) (end 4.04 -0.32) (layer F.Fab) (width 0.1))
  (fp_line (start -0.32 -0.32) (end -0.32 0.32) (layer F.Fab) (width 0.1))
  (fp_line (start -0.32 0.32) (end 4.04 0.32) (layer F.Fab) (width 0.1))
  (fp_line (start 6.58 -0.32) (end 12.58 -0.32) (layer F.Fab) (width 0.1))
  (fp_line (start 12.58 -0.32) (end 12.58 0.32) (layer F.Fab) (width 0.1))
  (fp_line (start 6.58 0.32) (end 12.58 0.32) (layer F.Fab) (width 0.1))
  (fp_line (start -0.32 2.22) (end 4.04 2.22) (layer F.Fab) (width 0.1))
  (fp_line (start -0.32 2.22) (end -0.32 2.86) (layer F.Fab) (width 0.1))
  (fp_line (start -0.32 2.86) (end 4.04 2.86) (layer F.Fab) (width 0.1))
  (fp_line (start 6.58 2.22) (end 12.58 2.22) (layer F.Fab) (width 0.1))
  (fp_line (start 12.58 2.22) (end 12.58 2.86) (layer F.Fab) (width 0.1))
  (fp_line (start 6.58 2.86) (end 12.58 2.86) (layer F.Fab) (width 0.1))
  (fp_line (start -0.32 4.76) (end 4.04 4.76) (layer F.Fab) (width 0.1))
  (fp_line (start -0.32 4.76) (end -0.32 5.4) (layer F.Fab) (width 0.1))
  (fp_line (start -0.32 5.4) (end 4.04 5.4) (layer F.Fab) (width 0.1))
  (fp_line (start 6.58 4.76) (end 12.58 4.76) (layer F.Fab) (width 0.1))
  (fp_line (start 12.58 4.76) (end 12.58 5.4) (layer F.Fab) (width 0.1))
  (fp_line (start 6.58 5.4) (end 12.58 5.4) (layer F.Fab) (width 0.1))
  (fp_line (start -0.32 7.3) (end 4.04 7.3) (layer F.Fab) (width 0.1))
  (fp_line (start -0.32 7.3) (end -0.32 7.94) (layer F.Fab) (width 0.1))
  (fp_line (start -0.32 7.94) (end 4.04 7.94) (layer F.Fab) (width 0.1))
  (fp_line (start 6.58 7.3) (end 12.58 7.3) (layer F.Fab) (width 0.1))
  (fp_line (start 12.58 7.3) (end 12.58 7.94) (layer F.Fab) (width 0.1))
  (fp_line (start 6.58 7.94) (end 12.58 7.94) (layer F.Fab) (width 0.1))
  (fp_line (start -0.32 9.84) (end 4.04 9.84) (layer F.Fab) (width 0.1))
  (fp_line (start -0.32 9.84) (end -0.32 10.48) (layer F.Fab) (width 0.1))
  (fp_line (start -0.32 10.48) (end 4.04 10.48) (layer F.Fab) (width 0.1))
  (fp_line (start 6.58 9.84) (end 12.58 9.84) (layer F.Fab) (width 0.1))
  (fp_line (start 12.58 9.84) (end 12.58 10.48) (layer F.Fab) (width 0.1))
  (fp_line (start 6.58 10.48) (end 12.58 10.48) (layer F.Fab) (width 0.1))
  (fp_line (start -0.32 12.38) (end 4.04 12.38) (layer F.Fab) (width 0.1))
  (fp_line (start -0.32 12.38) (end -0.32 13.02) (layer F.Fab) (width 0.1))
  (fp_line (start -0.32 13.02) (end 4.04 13.02) (layer F.Fab) (width 0.1))
  (fp_line (start 6.58 12.38) (end 12.58 12.38) (layer F.Fab) (width 0.1))
  (fp_line (start 12.58 12.38) (end 12.58 13.02) (layer F.Fab) (width 0.1))
  (fp_line (start 6.58 13.02) (end 12.58 13.02) (layer F.Fab) (width 0.1))
  (fp_line (start -0.32 14.92) (end 4.04 14.92) (layer F.Fab) (width 0.1))
  (fp_line (start -0.32 14.92) (end -0.32 15.56) (layer F.Fab) (width 0.1))
  (fp_line (start -0.32 15.56) (end 4.04 15.56) (layer F.Fab) (width 0.1))
  (fp_line (start 6.58 14.92) (end 12.58 14.92) (layer F.Fab) (width 0.1))
  (fp_line (start 12.58 14.92) (end 12.58 15.56) (layer F.Fab) (width 0.1))
  (fp_line (start 6.58 15.56) (end 12.58 15.56) (layer F.Fab) (width 0.1))
  (fp_line (start -0.32 17.46) (end 4.04 17.46) (layer F.Fab) (width 0.1))
  (fp_line (start -0.32 17.46) (end -0.32 18.1) (layer F.Fab) (width 0.1))
  (fp_line (start -0.32 18.1) (end 4.04 18.1) (layer F.Fab) (width 0.1))
  (fp_line (start 6.58 17.46) (end 12.58 17.46) (layer F.Fab) (width 0.1))
  (fp_line (start 12.58 17.46) (end 12.58 18.1) (layer F.Fab) (width 0.1))
  (fp_line (start 6.58 18.1) (end 12.58 18.1) (layer F.Fab) (width 0.1))
  (fp_line (start -0.32 20) (end 4.04 20) (layer F.Fab) (width 0.1))
  (fp_line (start -0.32 20) (end -0.32 20.64) (layer F.Fab) (width 0.1))
  (fp_line (start -0.32 20.64) (end 4.04 20.64) (layer F.Fab) (width 0.1))
  (fp_line (start 6.58 20) (end 12.58 20) (layer F.Fab) (width 0.1))
  (fp_line (start 12.58 20) (end 12.58 20.64) (layer F.Fab) (width 0.1))
  (fp_line (start 6.58 20.64) (end 12.58 20.64) (layer F.Fab) (width 0.1))
  (fp_line (start -0.32 22.54) (end 4.04 22.54) (layer F.Fab) (width 0.1))
  (fp_line (start -0.32 22.54) (end -0.32 23.18) (layer F.Fab) (width 0.1))
  (fp_line (start -0.32 23.18) (end 4.04 23.18) (layer F.Fab) (width 0.1))
  (fp_line (start 6.58 22.54) (end 12.58 22.54) (layer F.Fab) (width 0.1))
  (fp_line (start 12.58 22.54) (end 12.58 23.18) (layer F.Fab) (width 0.1))
  (fp_line (start 6.58 23.18) (end 12.58 23.18) (layer F.Fab) (width 0.1))
  (fp_line (start -0.32 25.08) (end 4.04 25.08) (layer F.Fab) (width 0.1))
  (fp_line (start -0.32 25.08) (end -0.32 25.72) (layer F.Fab) (width 0.1))
  (fp_line (start -0.32 25.72) (end 4.04 25.72) (layer F.Fab) (width 0.1))
  (fp_line (start 6.58 25.08) (end 12.58 25.08) (layer F.Fab) (width 0.1))
  (fp_line (start 12.58 25.08) (end 12.58 25.72) (layer F.Fab) (width 0.1))
  (fp_line (start 6.58 25.72) (end 12.58 25.72) (layer F.Fab) (width 0.1))
  (fp_line (start -0.32 27.62) (end 4.04 27.62) (layer F.Fab) (width 0.1))
  (fp_line (start -0.32 27.62) (end -0.32 28.26) (layer F.Fab) (width 0.1))
  (fp_line (start -0.32 28.26) (end 4.04 28.26) (layer F.Fab) (width 0.1))
  (fp_line (start 6.58 27.62) (end 12.58 27.62) (layer F.Fab) (width 0.1))
  (fp_line (start 12.58 27.62) (end 12.58 28.26) (layer F.Fab) (width 0.1))
  (fp_line (start 6.58 28.26) (end 12.58 28.26) (layer F.Fab) (width 0.1))
  (fp_line (start -0.32 30.16) (end 4.04 30.16) (layer F.Fab) (width 0.1))
  (fp_line (start -0.32 30.16) (end -0.32 30.8) (layer F.Fab) (width 0.1))
  (fp_line (start -0.32 30.8) (end 4.04 30.8) (layer F.Fab) (width 0.1))
  (fp_line (start 6.58 30.16) (end 12.58 30.16) (layer F.Fab) (width 0.1))
  (fp_line (start 12.58 30.16) (end 12.58 30.8) (layer F.Fab) (width 0.1))
  (fp_line (start 6.58 30.8) (end 12.58 30.8) (layer F.Fab) (width 0.1))
  (fp_line (start -0.32 32.7) (end 4.04 32.7) (layer F.Fab) (width 0.1))
  (fp_line (start -0.32 32.7) (end -0.32 33.34) (layer F.Fab) (width 0.1))
  (fp_line (start -0.32 33.34) (end 4.04 33.34) (layer F.Fab) (width 0.1))
  (fp_line (start 6.58 32.7) (end 12.58 32.7) (layer F.Fab) (width 0.1))
  (fp_line (start 12.58 32.7) (end 12.58 33.34) (layer F.Fab) (width 0.1))
  (fp_line (start 6.58 33.34) (end 12.58 33.34) (layer F.Fab) (width 0.1))
  (fp_line (start -0.32 35.24) (end 4.04 35.24) (layer F.Fab) (width 0.1))
  (fp_line (start -0.32 35.24) (end -0.32 35.88) (layer F.Fab) (width 0.1))
  (fp_line (start -0.32 35.88) (end 4.04 35.88) (layer F.Fab) (width 0.1))
  (fp_line (start 6.58 35.24) (end 12.58 35.24) (layer F.Fab) (width 0.1))
  (fp_line (start 12.58 35.24) (end 12.58 35.88) (layer F.Fab) (width 0.1))
  (fp_line (start 6.58 35.88) (end 12.58 35.88) (layer F.Fab) (width 0.1))
  (fp_line (start -0.32 37.78) (end 4.04 37.78) (layer F.Fab) (width 0.1))
  (fp_line (start -0.32 37.78) (end -0.32 38.42) (layer F.Fab) (width 0.1))
  (fp_line (start -0.32 38.42) (end 4.04 38.42) (layer F.Fab) (width 0.1))
  (fp_line (start 6.58 37.78) (end 12.58 37.78) (layer F.Fab) (width 0.1))
  (fp_line (start 12.58 37.78) (end 12.58 38.42) (layer F.Fab) (width 0.1))
  (fp_line (start 6.58 38.42) (end 12.58 38.42) (layer F.Fab) (width 0.1))
  (fp_line (start -0.32 40.32) (end 4.04 40.32) (layer F.Fab) (width 0.1))
  (fp_line (start -0.32 40.32) (end -0.32 40.96) (layer F.Fab) (width 0.1))
  (fp_line (start -0.32 40.96) (end 4.04 40.96) (layer F.Fab) (width 0.1))
  (fp_line (start 6.58 40.32) (end 12.58 40.32) (layer F.Fab) (width 0.1))
  (fp_line (start 12.58 40.32) (end 12.58 40.96) (layer F.Fab) (width 0.1))
  (fp_line (start 6.58 40.96) (end 12.58 40.96) (layer F.Fab) (width 0.1))
  (fp_line (start -0.32 42.86) (end 4.04 42.86) (layer F.Fab) (width 0.1))
  (fp_line (start -0.32 42.86) (end -0.32 43.5) (layer F.Fab) (width 0.1))
  (fp_line (start -0.32 43.5) (end 4.04 43.5) (layer F.Fab) (width 0.1))
  (fp_line (start 6.58 42.86) (end 12.58 42.86) (layer F.Fab) (width 0.1))
  (fp_line (start 12.58 42.86) (end 12.58 43.5) (layer F.Fab) (width 0.1))
  (fp_line (start 6.58 43.5) (end 12.58 43.5) (layer F.Fab) (width 0.1))
  (fp_line (start -0.32 45.4) (end 4.04 45.4) (layer F.Fab) (width 0.1))
  (fp_line (start -0.32 45.4) (end -0.32 46.04) (layer F.Fab) (width 0.1))
  (fp_line (start -0.32 46.04) (end 4.04 46.04) (layer F.Fab) (width 0.1))
  (fp_line (start 6.58 45.4) (end 12.58 45.4) (layer F.Fab) (width 0.1))
  (fp_line (start 12.58 45.4) (end 12.58 46.04) (layer F.Fab) (width 0.1))
  (fp_line (start 6.58 46.04) (end 12.58 46.04) (layer F.Fab) (width 0.1))
  (fp_line (start -0.32 47.94) (end 4.04 47.94) (layer F.Fab) (width 0.1))
  (fp_line (start -0.32 47.94) (end -0.32 48.58) (layer F.Fab) (width 0.1))
  (fp_line (start -0.32 48.58) (end 4.04 48.58) (layer F.Fab) (width 0.1))
  (fp_line (start 6.58 47.94) (end 12.58 47.94) (layer F.Fab) (width 0.1))
  (fp_line (start 12.58 47.94) (end 12.58 48.58) (layer F.Fab) (width 0.1))
  (fp_line (start 6.58 48.58) (end 12.58 48.58) (layer F.Fab) (width 0.1))
  (fp_line (start -0.32 50.48) (end 4.04 50.48) (layer F.Fab) (width 0.1))
  (fp_line (start -0.32 50.48) (end -0.32 51.12) (layer F.Fab) (width 0.1))
  (fp_line (start -0.32 51.12) (end 4.04 51.12) (layer F.Fab) (width 0.1))
  (fp_line (start 6.58 50.48) (end 12.58 50.48) (layer F.Fab) (width 0.1))
  (fp_line (start 12.58 50.48) (end 12.58 51.12) (layer F.Fab) (width 0.1))
  (fp_line (start 6.58 51.12) (end 12.58 51.12) (layer F.Fab) (width 0.1))
  (fp_line (start -0.32 53.02) (end 4.04 53.02) (layer F.Fab) (width 0.1))
  (fp_line (start -0.32 53.02) (end -0.32 53.66) (layer F.Fab) (width 0.1))
  (fp_line (start -0.32 53.66) (end 4.04 53.66) (layer F.Fab) (width 0.1))
  (fp_line (start 6.58 53.02) (end 12.58 53.02) (layer F.Fab) (width 0.1))
  (fp_line (start 12.58 53.02) (end 12.58 53.66) (layer F.Fab) (width 0.1))
  (fp_line (start 6.58 53.66) (end 12.58 53.66) (layer F.Fab) (width 0.1))
  (fp_line (start -0.32 55.56) (end 4.04 55.56) (layer F.Fab) (width 0.1))
  (fp_line (start -0.32 55.56) (end -0.32 56.2) (layer F.Fab) (width 0.1))
  (fp_line (start -0.32 56.2) (end 4.04 56.2) (layer F.Fab) (width 0.1))
  (fp_line (start 6.58 55.56) (end 12.58 55.56) (layer F.Fab) (width 0.1))
  (fp_line (start 12.58 55.56) (end 12.58 56.2) (layer F.Fab) (width 0.1))
  (fp_line (start 6.58 56.2) (end 12.58 56.2) (layer F.Fab) (width 0.1))
  (fp_line (start -0.32 58.1) (end 4.04 58.1) (layer F.Fab) (width 0.1))
  (fp_line (start -0.32 58.1) (end -0.32 58.74) (layer F.Fab) (width 0.1))
  (fp_line (start -0.32 58.74) (end 4.04 58.74) (layer F.Fab) (width 0.1))
  (fp_line (start 6.58 58.1) (end 12.58 58.1) (layer F.Fab) (width 0.1))
  (fp_line (start 12.58 58.1) (end 12.58 58.74) (layer F.Fab) (width 0.1))
  (fp_line (start 6.58 58.74) (end 12.58 58.74) (layer F.Fab) (width 0.1))
  (fp_line (start -0.32 60.64) (end 4.04 60.64) (layer F.Fab) (width 0.1))
  (fp_line (start -0.32 60.64) (end -0.32 61.28) (layer F.Fab) (width 0.1))
  (fp_line (start -0.32 61.28) (end 4.04 61.28) (layer F.Fab) (width 0.1))
  (fp_line (start 6.58 60.64) (end 12.58 60.64) (layer F.Fab) (width 0.1))
  (fp_line (start 12.58 60.64) (end 12.58 61.28) (layer F.Fab) (width 0.1))
  (fp_line (start 6.58 61.28) (end 12.58 61.28) (layer F.Fab) (width 0.1))
  (fp_line (start -0.32 63.18) (end 4.04 63.18) (layer F.Fab) (width 0.1))
  (fp_line (start -0.32 63.18) (end -0.32 63.82) (layer F.Fab) (width 0.1))
  (fp_line (start -0.32 63.82) (end 4.04 63.82) (layer F.Fab) (width 0.1))
  (fp_line (start 6.58 63.18) (end 12.58 63.18) (layer F.Fab) (width 0.1))
  (fp_line (start 12.58 63.18) (end 12.58 63.82) (layer F.Fab) (width 0.1))
  (fp_line (start 6.58 63.82) (end 12.58 63.82) (layer F.Fab) (width 0.1))
  (fp_line (start -0.32 65.72) (end 4.04 65.72) (layer F.Fab) (width 0.1))
  (fp_line (start -0.32 65.72) (end -0.32 66.36) (layer F.Fab) (width 0.1))
  (fp_line (start -0.32 66.36) (end 4.04 66.36) (layer F.Fab) (width 0.1))
  (fp_line (start 6.58 65.72) (end 12.58 65.72) (layer F.Fab) (width 0.1))
  (fp_line (start 12.58 65.72) (end 12.58 66.36) (layer F.Fab) (width 0.1))
  (fp_line (start 6.58 66.36) (end 12.58 66.36) (layer F.Fab) (width 0.1))
  (fp_line (start -0.32 68.26) (end 4.04 68.26) (layer F.Fab) (width 0.1))
  (fp_line (start -0.32 68.26) (end -0.32 68.9) (layer F.Fab) (width 0.1))
  (fp_line (start -0.32 68.9) (end 4.04 68.9) (layer F.Fab) (width 0.1))
  (fp_line (start 6.58 68.26) (end 12.58 68.26) (layer F.Fab) (width 0.1))
  (fp_line (start 12.58 68.26) (end 12.58 68.9) (layer F.Fab) (width 0.1))
  (fp_line (start 6.58 68.9) (end 12.58 68.9) (layer F.Fab) (width 0.1))
  (fp_line (start -0.32 70.8) (end 4.04 70.8) (layer F.Fab) (width 0.1))
  (fp_line (start -0.32 70.8) (end -0.32 71.44) (layer F.Fab) (width 0.1))
  (fp_line (start -0.32 71.44) (end 4.04 71.44) (layer F.Fab) (width 0.1))
  (fp_line (start 6.58 70.8) (end 12.58 70.8) (layer F.Fab) (width 0.1))
  (fp_line (start 12.58 70.8) (end 12.58 71.44) (layer F.Fab) (width 0.1))
  (fp_line (start 6.58 71.44) (end 12.58 71.44) (layer F.Fab) (width 0.1))
  (fp_line (start -0.32 73.34) (end 4.04 73.34) (layer F.Fab) (width 0.1))
  (fp_line (start -0.32 73.34) (end -0.32 73.98) (layer F.Fab) (width 0.1))
  (fp_line (start -0.32 73.98) (end 4.04 73.98) (layer F.Fab) (width 0.1))
  (fp_line (start 6.58 73.34) (end 12.58 73.34) (layer F.Fab) (width 0.1))
  (fp_line (start 12.58 73.34) (end 12.58 73.98) (layer F.Fab) (width 0.1))
  (fp_line (start 6.58 73.98) (end 12.58 73.98) (layer F.Fab) (width 0.1))
  (fp_line (start 3.98 -1.33) (end 3.98 74.99) (layer F.SilkS) (width 0.12))
  (fp_line (start 3.98 74.99) (end 6.64 74.99) (layer F.SilkS) (width 0.12))
  (fp_line (start 6.64 74.99) (end 6.64 -1.33) (layer F.SilkS) (width 0.12))
  (fp_line (start 6.64 -1.33) (end 3.98 -1.33) (layer F.SilkS) (width 0.12))
  (fp_line (start 6.64 -0.38) (end 12.64 -0.38) (layer F.SilkS) (width 0.12))
  (fp_line (start 12.64 -0.38) (end 12.64 0.38) (layer F.SilkS) (width 0.12))
  (fp_line (start 12.64 0.38) (end 6.64 0.38) (layer F.SilkS) (width 0.12))
  (fp_line (start 6.64 -0.32) (end 12.64 -0.32) (layer F.SilkS) (width 0.12))
  (fp_line (start 6.64 -0.2) (end 12.64 -0.2) (layer F.SilkS) (width 0.12))
  (fp_line (start 6.64 -0.08) (end 12.64 -0.08) (layer F.SilkS) (width 0.12))
  (fp_line (start 6.64 0.04) (end 12.64 0.04) (layer F.SilkS) (width 0.12))
  (fp_line (start 6.64 0.16) (end 12.64 0.16) (layer F.SilkS) (width 0.12))
  (fp_line (start 6.64 0.28) (end 12.64 0.28) (layer F.SilkS) (width 0.12))
  (fp_line (start 3.582929 -0.38) (end 3.98 -0.38) (layer F.SilkS) (width 0.12))
  (fp_line (start 3.582929 0.38) (end 3.98 0.38) (layer F.SilkS) (width 0.12))
  (fp_line (start 1.11 -0.38) (end 1.497071 -0.38) (layer F.SilkS) (width 0.12))
  (fp_line (start 1.11 0.38) (end 1.497071 0.38) (layer F.SilkS) (width 0.12))
  (fp_line (start 3.98 1.27) (end 6.64 1.27) (layer F.SilkS) (width 0.12))
  (fp_line (start 6.64 2.16) (end 12.64 2.16) (layer F.SilkS) (width 0.12))
  (fp_line (start 12.64 2.16) (end 12.64 2.92) (layer F.SilkS) (width 0.12))
  (fp_line (start 12.64 2.92) (end 6.64 2.92) (layer F.SilkS) (width 0.12))
  (fp_line (start 3.582929 2.16) (end 3.98 2.16) (layer F.SilkS) (width 0.12))
  (fp_line (start 3.582929 2.92) (end 3.98 2.92) (layer F.SilkS) (width 0.12))
  (fp_line (start 1.042929 2.16) (end 1.497071 2.16) (layer F.SilkS) (width 0.12))
  (fp_line (start 1.042929 2.92) (end 1.497071 2.92) (layer F.SilkS) (width 0.12))
  (fp_line (start 3.98 3.81) (end 6.64 3.81) (layer F.SilkS) (width 0.12))
  (fp_line (start 6.64 4.7) (end 12.64 4.7) (layer F.SilkS) (width 0.12))
  (fp_line (start 12.64 4.7) (end 12.64 5.46) (layer F.SilkS) (width 0.12))
  (fp_line (start 12.64 5.46) (end 6.64 5.46) (layer F.SilkS) (width 0.12))
  (fp_line (start 3.582929 4.7) (end 3.98 4.7) (layer F.SilkS) (width 0.12))
  (fp_line (start 3.582929 5.46) (end 3.98 5.46) (layer F.SilkS) (width 0.12))
  (fp_line (start 1.042929 4.7) (end 1.497071 4.7) (layer F.SilkS) (width 0.12))
  (fp_line (start 1.042929 5.46) (end 1.497071 5.46) (layer F.SilkS) (width 0.12))
  (fp_line (start 3.98 6.35) (end 6.64 6.35) (layer F.SilkS) (width 0.12))
  (fp_line (start 6.64 7.24) (end 12.64 7.24) (layer F.SilkS) (width 0.12))
  (fp_line (start 12.64 7.24) (end 12.64 8) (layer F.SilkS) (width 0.12))
  (fp_line (start 12.64 8) (end 6.64 8) (layer F.SilkS) (width 0.12))
  (fp_line (start 3.582929 7.24) (end 3.98 7.24) (layer F.SilkS) (width 0.12))
  (fp_line (start 3.582929 8) (end 3.98 8) (layer F.SilkS) (width 0.12))
  (fp_line (start 1.042929 7.24) (end 1.497071 7.24) (layer F.SilkS) (width 0.12))
  (fp_line (start 1.042929 8) (end 1.497071 8) (layer F.SilkS) (width 0.12))
  (fp_line (start 3.98 8.89) (end 6.64 8.89) (layer F.SilkS) (width 0.12))
  (fp_line (start 6.64 9.78) (end 12.64 9.78) (layer F.SilkS) (width 0.12))
  (fp_line (start 12.64 9.78) (end 12.64 10.54) (layer F.SilkS) (width 0.12))
  (fp_line (start 12.64 10.54) (end 6.64 10.54) (layer F.SilkS) (width 0.12))
  (fp_line (start 3.582929 9.78) (end 3.98 9.78) (layer F.SilkS) (width 0.12))
  (fp_line (start 3.582929 10.54) (end 3.98 10.54) (layer F.SilkS) (width 0.12))
  (fp_line (start 1.042929 9.78) (end 1.497071 9.78) (layer F.SilkS) (width 0.12))
  (fp_line (start 1.042929 10.54) (end 1.497071 10.54) (layer F.SilkS) (width 0.12))
  (fp_line (start 3.98 11.43) (end 6.64 11.43) (layer F.SilkS) (width 0.12))
  (fp_line (start 6.64 12.32) (end 12.64 12.32) (layer F.SilkS) (width 0.12))
  (fp_line (start 12.64 12.32) (end 12.64 13.08) (layer F.SilkS) (width 0.12))
  (fp_line (start 12.64 13.08) (end 6.64 13.08) (layer F.SilkS) (width 0.12))
  (fp_line (start 3.582929 12.32) (end 3.98 12.32) (layer F.SilkS) (width 0.12))
  (fp_line (start 3.582929 13.08) (end 3.98 13.08) (layer F.SilkS) (width 0.12))
  (fp_line (start 1.042929 12.32) (end 1.497071 12.32) (layer F.SilkS) (width 0.12))
  (fp_line (start 1.042929 13.08) (end 1.497071 13.08) (layer F.SilkS) (width 0.12))
  (fp_line (start 3.98 13.97) (end 6.64 13.97) (layer F.SilkS) (width 0.12))
  (fp_line (start 6.64 14.86) (end 12.64 14.86) (layer F.SilkS) (width 0.12))
  (fp_line (start 12.64 14.86) (end 12.64 15.62) (layer F.SilkS) (width 0.12))
  (fp_line (start 12.64 15.62) (end 6.64 15.62) (layer F.SilkS) (width 0.12))
  (fp_line (start 3.582929 14.86) (end 3.98 14.86) (layer F.SilkS) (width 0.12))
  (fp_line (start 3.582929 15.62) (end 3.98 15.62) (layer F.SilkS) (width 0.12))
  (fp_line (start 1.042929 14.86) (end 1.497071 14.86) (layer F.SilkS) (width 0.12))
  (fp_line (start 1.042929 15.62) (end 1.497071 15.62) (layer F.SilkS) (width 0.12))
  (fp_line (start 3.98 16.51) (end 6.64 16.51) (layer F.SilkS) (width 0.12))
  (fp_line (start 6.64 17.4) (end 12.64 17.4) (layer F.SilkS) (width 0.12))
  (fp_line (start 12.64 17.4) (end 12.64 18.16) (layer F.SilkS) (width 0.12))
  (fp_line (start 12.64 18.16) (end 6.64 18.16) (layer F.SilkS) (width 0.12))
  (fp_line (start 3.582929 17.4) (end 3.98 17.4) (layer F.SilkS) (width 0.12))
  (fp_line (start 3.582929 18.16) (end 3.98 18.16) (layer F.SilkS) (width 0.12))
  (fp_line (start 1.042929 17.4) (end 1.497071 17.4) (layer F.SilkS) (width 0.12))
  (fp_line (start 1.042929 18.16) (end 1.497071 18.16) (layer F.SilkS) (width 0.12))
  (fp_line (start 3.98 19.05) (end 6.64 19.05) (layer F.SilkS) (width 0.12))
  (fp_line (start 6.64 19.94) (end 12.64 19.94) (layer F.SilkS) (width 0.12))
  (fp_line (start 12.64 19.94) (end 12.64 20.7) (layer F.SilkS) (width 0.12))
  (fp_line (start 12.64 20.7) (end 6.64 20.7) (layer F.SilkS) (width 0.12))
  (fp_line (start 3.582929 19.94) (end 3.98 19.94) (layer F.SilkS) (width 0.12))
  (fp_line (start 3.582929 20.7) (end 3.98 20.7) (layer F.SilkS) (width 0.12))
  (fp_line (start 1.042929 19.94) (end 1.497071 19.94) (layer F.SilkS) (width 0.12))
  (fp_line (start 1.042929 20.7) (end 1.497071 20.7) (layer F.SilkS) (width 0.12))
  (fp_line (start 3.98 21.59) (end 6.64 21.59) (layer F.SilkS) (width 0.12))
  (fp_line (start 6.64 22.48) (end 12.64 22.48) (layer F.SilkS) (width 0.12))
  (fp_line (start 12.64 22.48) (end 12.64 23.24) (layer F.SilkS) (width 0.12))
  (fp_line (start 12.64 23.24) (end 6.64 23.24) (layer F.SilkS) (width 0.12))
  (fp_line (start 3.582929 22.48) (end 3.98 22.48) (layer F.SilkS) (width 0.12))
  (fp_line (start 3.582929 23.24) (end 3.98 23.24) (layer F.SilkS) (width 0.12))
  (fp_line (start 1.042929 22.48) (end 1.497071 22.48) (layer F.SilkS) (width 0.12))
  (fp_line (start 1.042929 23.24) (end 1.497071 23.24) (layer F.SilkS) (width 0.12))
  (fp_line (start 3.98 24.13) (end 6.64 24.13) (layer F.SilkS) (width 0.12))
  (fp_line (start 6.64 25.02) (end 12.64 25.02) (layer F.SilkS) (width 0.12))
  (fp_line (start 12.64 25.02) (end 12.64 25.78) (layer F.SilkS) (width 0.12))
  (fp_line (start 12.64 25.78) (end 6.64 25.78) (layer F.SilkS) (width 0.12))
  (fp_line (start 3.582929 25.02) (end 3.98 25.02) (layer F.SilkS) (width 0.12))
  (fp_line (start 3.582929 25.78) (end 3.98 25.78) (layer F.SilkS) (width 0.12))
  (fp_line (start 1.042929 25.02) (end 1.497071 25.02) (layer F.SilkS) (width 0.12))
  (fp_line (start 1.042929 25.78) (end 1.497071 25.78) (layer F.SilkS) (width 0.12))
  (fp_line (start 3.98 26.67) (end 6.64 26.67) (layer F.SilkS) (width 0.12))
  (fp_line (start 6.64 27.56) (end 12.64 27.56) (layer F.SilkS) (width 0.12))
  (fp_line (start 12.64 27.56) (end 12.64 28.32) (layer F.SilkS) (width 0.12))
  (fp_line (start 12.64 28.32) (end 6.64 28.32) (layer F.SilkS) (width 0.12))
  (fp_line (start 3.582929 27.56) (end 3.98 27.56) (layer F.SilkS) (width 0.12))
  (fp_line (start 3.582929 28.32) (end 3.98 28.32) (layer F.SilkS) (width 0.12))
  (fp_line (start 1.042929 27.56) (end 1.497071 27.56) (layer F.SilkS) (width 0.12))
  (fp_line (start 1.042929 28.32) (end 1.497071 28.32) (layer F.SilkS) (width 0.12))
  (fp_line (start 3.98 29.21) (end 6.64 29.21) (layer F.SilkS) (width 0.12))
  (fp_line (start 6.64 30.1) (end 12.64 30.1) (layer F.SilkS) (width 0.12))
  (fp_line (start 12.64 30.1) (end 12.64 30.86) (layer F.SilkS) (width 0.12))
  (fp_line (start 12.64 30.86) (end 6.64 30.86) (layer F.SilkS) (width 0.12))
  (fp_line (start 3.582929 30.1) (end 3.98 30.1) (layer F.SilkS) (width 0.12))
  (fp_line (start 3.582929 30.86) (end 3.98 30.86) (layer F.SilkS) (width 0.12))
  (fp_line (start 1.042929 30.1) (end 1.497071 30.1) (layer F.SilkS) (width 0.12))
  (fp_line (start 1.042929 30.86) (end 1.497071 30.86) (layer F.SilkS) (width 0.12))
  (fp_line (start 3.98 31.75) (end 6.64 31.75) (layer F.SilkS) (width 0.12))
  (fp_line (start 6.64 32.64) (end 12.64 32.64) (layer F.SilkS) (width 0.12))
  (fp_line (start 12.64 32.64) (end 12.64 33.4) (layer F.SilkS) (width 0.12))
  (fp_line (start 12.64 33.4) (end 6.64 33.4) (layer F.SilkS) (width 0.12))
  (fp_line (start 3.582929 32.64) (end 3.98 32.64) (layer F.SilkS) (width 0.12))
  (fp_line (start 3.582929 33.4) (end 3.98 33.4) (layer F.SilkS) (width 0.12))
  (fp_line (start 1.042929 32.64) (end 1.497071 32.64) (layer F.SilkS) (width 0.12))
  (fp_line (start 1.042929 33.4) (end 1.497071 33.4) (layer F.SilkS) (width 0.12))
  (fp_line (start 3.98 34.29) (end 6.64 34.29) (layer F.SilkS) (width 0.12))
  (fp_line (start 6.64 35.18) (end 12.64 35.18) (layer F.SilkS) (width 0.12))
  (fp_line (start 12.64 35.18) (end 12.64 35.94) (layer F.SilkS) (width 0.12))
  (fp_line (start 12.64 35.94) (end 6.64 35.94) (layer F.SilkS) (width 0.12))
  (fp_line (start 3.582929 35.18) (end 3.98 35.18) (layer F.SilkS) (width 0.12))
  (fp_line (start 3.582929 35.94) (end 3.98 35.94) (layer F.SilkS) (width 0.12))
  (fp_line (start 1.042929 35.18) (end 1.497071 35.18) (layer F.SilkS) (width 0.12))
  (fp_line (start 1.042929 35.94) (end 1.497071 35.94) (layer F.SilkS) (width 0.12))
  (fp_line (start 3.98 36.83) (end 6.64 36.83) (layer F.SilkS) (width 0.12))
  (fp_line (start 6.64 37.72) (end 12.64 37.72) (layer F.SilkS) (width 0.12))
  (fp_line (start 12.64 37.72) (end 12.64 38.48) (layer F.SilkS) (width 0.12))
  (fp_line (start 12.64 38.48) (end 6.64 38.48) (layer F.SilkS) (width 0.12))
  (fp_line (start 3.582929 37.72) (end 3.98 37.72) (layer F.SilkS) (width 0.12))
  (fp_line (start 3.582929 38.48) (end 3.98 38.48) (layer F.SilkS) (width 0.12))
  (fp_line (start 1.042929 37.72) (end 1.497071 37.72) (layer F.SilkS) (width 0.12))
  (fp_line (start 1.042929 38.48) (end 1.497071 38.48) (layer F.SilkS) (width 0.12))
  (fp_line (start 3.98 39.37) (end 6.64 39.37) (layer F.SilkS) (width 0.12))
  (fp_line (start 6.64 40.26) (end 12.64 40.26) (layer F.SilkS) (width 0.12))
  (fp_line (start 12.64 40.26) (end 12.64 41.02) (layer F.SilkS) (width 0.12))
  (fp_line (start 12.64 41.02) (end 6.64 41.02) (layer F.SilkS) (width 0.12))
  (fp_line (start 3.582929 40.26) (end 3.98 40.26) (layer F.SilkS) (width 0.12))
  (fp_line (start 3.582929 41.02) (end 3.98 41.02) (layer F.SilkS) (width 0.12))
  (fp_line (start 1.042929 40.26) (end 1.497071 40.26) (layer F.SilkS) (width 0.12))
  (fp_line (start 1.042929 41.02) (end 1.497071 41.02) (layer F.SilkS) (width 0.12))
  (fp_line (start 3.98 41.91) (end 6.64 41.91) (layer F.SilkS) (width 0.12))
  (fp_line (start 6.64 42.8) (end 12.64 42.8) (layer F.SilkS) (width 0.12))
  (fp_line (start 12.64 42.8) (end 12.64 43.56) (layer F.SilkS) (width 0.12))
  (fp_line (start 12.64 43.56) (end 6.64 43.56) (layer F.SilkS) (width 0.12))
  (fp_line (start 3.582929 42.8) (end 3.98 42.8) (layer F.SilkS) (width 0.12))
  (fp_line (start 3.582929 43.56) (end 3.98 43.56) (layer F.SilkS) (width 0.12))
  (fp_line (start 1.042929 42.8) (end 1.497071 42.8) (layer F.SilkS) (width 0.12))
  (fp_line (start 1.042929 43.56) (end 1.497071 43.56) (layer F.SilkS) (width 0.12))
  (fp_line (start 3.98 44.45) (end 6.64 44.45) (layer F.SilkS) (width 0.12))
  (fp_line (start 6.64 45.34) (end 12.64 45.34) (layer F.SilkS) (width 0.12))
  (fp_line (start 12.64 45.34) (end 12.64 46.1) (layer F.SilkS) (width 0.12))
  (fp_line (start 12.64 46.1) (end 6.64 46.1) (layer F.SilkS) (width 0.12))
  (fp_line (start 3.582929 45.34) (end 3.98 45.34) (layer F.SilkS) (width 0.12))
  (fp_line (start 3.582929 46.1) (end 3.98 46.1) (layer F.SilkS) (width 0.12))
  (fp_line (start 1.042929 45.34) (end 1.497071 45.34) (layer F.SilkS) (width 0.12))
  (fp_line (start 1.042929 46.1) (end 1.497071 46.1) (layer F.SilkS) (width 0.12))
  (fp_line (start 3.98 46.99) (end 6.64 46.99) (layer F.SilkS) (width 0.12))
  (fp_line (start 6.64 47.88) (end 12.64 47.88) (layer F.SilkS) (width 0.12))
  (fp_line (start 12.64 47.88) (end 12.64 48.64) (layer F.SilkS) (width 0.12))
  (fp_line (start 12.64 48.64) (end 6.64 48.64) (layer F.SilkS) (width 0.12))
  (fp_line (start 3.582929 47.88) (end 3.98 47.88) (layer F.SilkS) (width 0.12))
  (fp_line (start 3.582929 48.64) (end 3.98 48.64) (layer F.SilkS) (width 0.12))
  (fp_line (start 1.042929 47.88) (end 1.497071 47.88) (layer F.SilkS) (width 0.12))
  (fp_line (start 1.042929 48.64) (end 1.497071 48.64) (layer F.SilkS) (width 0.12))
  (fp_line (start 3.98 49.53) (end 6.64 49.53) (layer F.SilkS) (width 0.12))
  (fp_line (start 6.64 50.42) (end 12.64 50.42) (layer F.SilkS) (width 0.12))
  (fp_line (start 12.64 50.42) (end 12.64 51.18) (layer F.SilkS) (width 0.12))
  (fp_line (start 12.64 51.18) (end 6.64 51.18) (layer F.SilkS) (width 0.12))
  (fp_line (start 3.582929 50.42) (end 3.98 50.42) (layer F.SilkS) (width 0.12))
  (fp_line (start 3.582929 51.18) (end 3.98 51.18) (layer F.SilkS) (width 0.12))
  (fp_line (start 1.042929 50.42) (end 1.497071 50.42) (layer F.SilkS) (width 0.12))
  (fp_line (start 1.042929 51.18) (end 1.497071 51.18) (layer F.SilkS) (width 0.12))
  (fp_line (start 3.98 52.07) (end 6.64 52.07) (layer F.SilkS) (width 0.12))
  (fp_line (start 6.64 52.96) (end 12.64 52.96) (layer F.SilkS) (width 0.12))
  (fp_line (start 12.64 52.96) (end 12.64 53.72) (layer F.SilkS) (width 0.12))
  (fp_line (start 12.64 53.72) (end 6.64 53.72) (layer F.SilkS) (width 0.12))
  (fp_line (start 3.582929 52.96) (end 3.98 52.96) (layer F.SilkS) (width 0.12))
  (fp_line (start 3.582929 53.72) (end 3.98 53.72) (layer F.SilkS) (width 0.12))
  (fp_line (start 1.042929 52.96) (end 1.497071 52.96) (layer F.SilkS) (width 0.12))
  (fp_line (start 1.042929 53.72) (end 1.497071 53.72) (layer F.SilkS) (width 0.12))
  (fp_line (start 3.98 54.61) (end 6.64 54.61) (layer F.SilkS) (width 0.12))
  (fp_line (start 6.64 55.5) (end 12.64 55.5) (layer F.SilkS) (width 0.12))
  (fp_line (start 12.64 55.5) (end 12.64 56.26) (layer F.SilkS) (width 0.12))
  (fp_line (start 12.64 56.26) (end 6.64 56.26) (layer F.SilkS) (width 0.12))
  (fp_line (start 3.582929 55.5) (end 3.98 55.5) (layer F.SilkS) (width 0.12))
  (fp_line (start 3.582929 56.26) (end 3.98 56.26) (layer F.SilkS) (width 0.12))
  (fp_line (start 1.042929 55.5) (end 1.497071 55.5) (layer F.SilkS) (width 0.12))
  (fp_line (start 1.042929 56.26) (end 1.497071 56.26) (layer F.SilkS) (width 0.12))
  (fp_line (start 3.98 57.15) (end 6.64 57.15) (layer F.SilkS) (width 0.12))
  (fp_line (start 6.64 58.04) (end 12.64 58.04) (layer F.SilkS) (width 0.12))
  (fp_line (start 12.64 58.04) (end 12.64 58.8) (layer F.SilkS) (width 0.12))
  (fp_line (start 12.64 58.8) (end 6.64 58.8) (layer F.SilkS) (width 0.12))
  (fp_line (start 3.582929 58.04) (end 3.98 58.04) (layer F.SilkS) (width 0.12))
  (fp_line (start 3.582929 58.8) (end 3.98 58.8) (layer F.SilkS) (width 0.12))
  (fp_line (start 1.042929 58.04) (end 1.497071 58.04) (layer F.SilkS) (width 0.12))
  (fp_line (start 1.042929 58.8) (end 1.497071 58.8) (layer F.SilkS) (width 0.12))
  (fp_line (start 3.98 59.69) (end 6.64 59.69) (layer F.SilkS) (width 0.12))
  (fp_line (start 6.64 60.58) (end 12.64 60.58) (layer F.SilkS) (width 0.12))
  (fp_line (start 12.64 60.58) (end 12.64 61.34) (layer F.SilkS) (width 0.12))
  (fp_line (start 12.64 61.34) (end 6.64 61.34) (layer F.SilkS) (width 0.12))
  (fp_line (start 3.582929 60.58) (end 3.98 60.58) (layer F.SilkS) (width 0.12))
  (fp_line (start 3.582929 61.34) (end 3.98 61.34) (layer F.SilkS) (width 0.12))
  (fp_line (start 1.042929 60.58) (end 1.497071 60.58) (layer F.SilkS) (width 0.12))
  (fp_line (start 1.042929 61.34) (end 1.497071 61.34) (layer F.SilkS) (width 0.12))
  (fp_line (start 3.98 62.23) (end 6.64 62.23) (layer F.SilkS) (width 0.12))
  (fp_line (start 6.64 63.12) (end 12.64 63.12) (layer F.SilkS) (width 0.12))
  (fp_line (start 12.64 63.12) (end 12.64 63.88) (layer F.SilkS) (width 0.12))
  (fp_line (start 12.64 63.88) (end 6.64 63.88) (layer F.SilkS) (width 0.12))
  (fp_line (start 3.582929 63.12) (end 3.98 63.12) (layer F.SilkS) (width 0.12))
  (fp_line (start 3.582929 63.88) (end 3.98 63.88) (layer F.SilkS) (width 0.12))
  (fp_line (start 1.042929 63.12) (end 1.497071 63.12) (layer F.SilkS) (width 0.12))
  (fp_line (start 1.042929 63.88) (end 1.497071 63.88) (layer F.SilkS) (width 0.12))
  (fp_line (start 3.98 64.77) (end 6.64 64.77) (layer F.SilkS) (width 0.12))
  (fp_line (start 6.64 65.66) (end 12.64 65.66) (layer F.SilkS) (width 0.12))
  (fp_line (start 12.64 65.66) (end 12.64 66.42) (layer F.SilkS) (width 0.12))
  (fp_line (start 12.64 66.42) (end 6.64 66.42) (layer F.SilkS) (width 0.12))
  (fp_line (start 3.582929 65.66) (end 3.98 65.66) (layer F.SilkS) (width 0.12))
  (fp_line (start 3.582929 66.42) (end 3.98 66.42) (layer F.SilkS) (width 0.12))
  (fp_line (start 1.042929 65.66) (end 1.497071 65.66) (layer F.SilkS) (width 0.12))
  (fp_line (start 1.042929 66.42) (end 1.497071 66.42) (layer F.SilkS) (width 0.12))
  (fp_line (start 3.98 67.31) (end 6.64 67.31) (layer F.SilkS) (width 0.12))
  (fp_line (start 6.64 68.2) (end 12.64 68.2) (layer F.SilkS) (width 0.12))
  (fp_line (start 12.64 68.2) (end 12.64 68.96) (layer F.SilkS) (width 0.12))
  (fp_line (start 12.64 68.96) (end 6.64 68.96) (layer F.SilkS) (width 0.12))
  (fp_line (start 3.582929 68.2) (end 3.98 68.2) (layer F.SilkS) (width 0.12))
  (fp_line (start 3.582929 68.96) (end 3.98 68.96) (layer F.SilkS) (width 0.12))
  (fp_line (start 1.042929 68.2) (end 1.497071 68.2) (layer F.SilkS) (width 0.12))
  (fp_line (start 1.042929 68.96) (end 1.497071 68.96) (layer F.SilkS) (width 0.12))
  (fp_line (start 3.98 69.85) (end 6.64 69.85) (layer F.SilkS) (width 0.12))
  (fp_line (start 6.64 70.74) (end 12.64 70.74) (layer F.SilkS) (width 0.12))
  (fp_line (start 12.64 70.74) (end 12.64 71.5) (layer F.SilkS) (width 0.12))
  (fp_line (start 12.64 71.5) (end 6.64 71.5) (layer F.SilkS) (width 0.12))
  (fp_line (start 3.582929 70.74) (end 3.98 70.74) (layer F.SilkS) (width 0.12))
  (fp_line (start 3.582929 71.5) (end 3.98 71.5) (layer F.SilkS) (width 0.12))
  (fp_line (start 1.042929 70.74) (end 1.497071 70.74) (layer F.SilkS) (width 0.12))
  (fp_line (start 1.042929 71.5) (end 1.497071 71.5) (layer F.SilkS) (width 0.12))
  (fp_line (start 3.98 72.39) (end 6.64 72.39) (layer F.SilkS) (width 0.12))
  (fp_line (start 6.64 73.28) (end 12.64 73.28) (layer F.SilkS) (width 0.12))
  (fp_line (start 12.64 73.28) (end 12.64 74.04) (layer F.SilkS) (width 0.12))
  (fp_line (start 12.64 74.04) (end 6.64 74.04) (layer F.SilkS) (width 0.12))
  (fp_line (start 3.582929 73.28) (end 3.98 73.28) (layer F.SilkS) (width 0.12))
  (fp_line (start 3.582929 74.04) (end 3.98 74.04) (layer F.SilkS) (width 0.12))
  (fp_line (start 1.042929 73.28) (end 1.497071 73.28) (layer F.SilkS) (width 0.12))
  (fp_line (start 1.042929 74.04) (end 1.497071 74.04) (layer F.SilkS) (width 0.12))
  (fp_line (start -1.27 0) (end -1.27 -1.27) (layer F.SilkS) (width 0.12))
  (fp_line (start -1.27 -1.27) (end 0 -1.27) (layer F.SilkS) (width 0.12))
  (fp_line (start -1.8 -1.8) (end -1.8 75.45) (layer F.CrtYd) (width 0.05))
  (fp_line (start -1.8 75.45) (end 13.1 75.45) (layer F.CrtYd) (width 0.05))
  (fp_line (start 13.1 75.45) (end 13.1 -1.8) (layer F.CrtYd) (width 0.05))
  (fp_line (start 13.1 -1.8) (end -1.8 -1.8) (layer F.CrtYd) (width 0.05))
  (pad 1 thru_hole rect (at 0 0) (size 1.7 1.7) (drill 1.0) (layers *.Cu *.Mask))
  (pad 2 thru_hole oval (at 2.54 0) (size 1.7 1.7) (drill 1.0) (layers *.Cu *.Mask))
  (pad 3 thru_hole oval (at 0 2.54) (size 1.7 1.7) (drill 1.0) (layers *.Cu *.Mask))
  (pad 4 thru_hole oval (at 2.54 2.54) (size 1.7 1.7) (drill 1.0) (layers *.Cu *.Mask))
  (pad 5 thru_hole oval (at 0 5.08) (size 1.7 1.7) (drill 1.0) (layers *.Cu *.Mask))
  (pad 6 thru_hole oval (at 2.54 5.08) (size 1.7 1.7) (drill 1.0) (layers *.Cu *.Mask))
  (pad 7 thru_hole oval (at 0 7.62) (size 1.7 1.7) (drill 1.0) (layers *.Cu *.Mask))
  (pad 8 thru_hole oval (at 2.54 7.62) (size 1.7 1.7) (drill 1.0) (layers *.Cu *.Mask))
  (pad 9 thru_hole oval (at 0 10.16) (size 1.7 1.7) (drill 1.0) (layers *.Cu *.Mask))
  (pad 10 thru_hole oval (at 2.54 10.16) (size 1.7 1.7) (drill 1.0) (layers *.Cu *.Mask))
  (pad 11 thru_hole oval (at 0 12.7) (size 1.7 1.7) (drill 1.0) (layers *.Cu *.Mask))
  (pad 12 thru_hole oval (at 2.54 12.7) (size 1.7 1.7) (drill 1.0) (layers *.Cu *.Mask))
  (pad 13 thru_hole oval (at 0 15.24) (size 1.7 1.7) (drill 1.0) (layers *.Cu *.Mask))
  (pad 14 thru_hole oval (at 2.54 15.24) (size 1.7 1.7) (drill 1.0) (layers *.Cu *.Mask))
  (pad 15 thru_hole oval (at 0 17.78) (size 1.7 1.7) (drill 1.0) (layers *.Cu *.Mask))
  (pad 16 thru_hole oval (at 2.54 17.78) (size 1.7 1.7) (drill 1.0) (layers *.Cu *.Mask))
  (pad 17 thru_hole oval (at 0 20.32) (size 1.7 1.7) (drill 1.0) (layers *.Cu *.Mask))
  (pad 18 thru_hole oval (at 2.54 20.32) (size 1.7 1.7) (drill 1.0) (layers *.Cu *.Mask))
  (pad 19 thru_hole oval (at 0 22.86) (size 1.7 1.7) (drill 1.0) (layers *.Cu *.Mask))
  (pad 20 thru_hole oval (at 2.54 22.86) (size 1.7 1.7) (drill 1.0) (layers *.Cu *.Mask))
  (pad 21 thru_hole oval (at 0 25.4) (size 1.7 1.7) (drill 1.0) (layers *.Cu *.Mask))
  (pad 22 thru_hole oval (at 2.54 25.4) (size 1.7 1.7) (drill 1.0) (layers *.Cu *.Mask))
  (pad 23 thru_hole oval (at 0 27.94) (size 1.7 1.7) (drill 1.0) (layers *.Cu *.Mask))
  (pad 24 thru_hole oval (at 2.54 27.94) (size 1.7 1.7) (drill 1.0) (layers *.Cu *.Mask))
  (pad 25 thru_hole oval (at 0 30.48) (size 1.7 1.7) (drill 1.0) (layers *.Cu *.Mask))
  (pad 26 thru_hole oval (at 2.54 30.48) (size 1.7 1.7) (drill 1.0) (layers *.Cu *.Mask))
  (pad 27 thru_hole oval (at 0 33.02) (size 1.7 1.7) (drill 1.0) (layers *.Cu *.Mask))
  (pad 28 thru_hole oval (at 2.54 33.02) (size 1.7 1.7) (drill 1.0) (layers *.Cu *.Mask))
  (pad 29 thru_hole oval (at 0 35.56) (size 1.7 1.7) (drill 1.0) (layers *.Cu *.Mask))
  (pad 30 thru_hole oval (at 2.54 35.56) (size 1.7 1.7) (drill 1.0) (layers *.Cu *.Mask))
  (pad 31 thru_hole oval (at 0 38.1) (size 1.7 1.7) (drill 1.0) (layers *.Cu *.Mask))
  (pad 32 thru_hole oval (at 2.54 38.1) (size 1.7 1.7) (drill 1.0) (layers *.Cu *.Mask))
  (pad 33 thru_hole oval (at 0 40.64) (size 1.7 1.7) (drill 1.0) (layers *.Cu *.Mask))
  (pad 34 thru_hole oval (at 2.54 40.64) (size 1.7 1.7) (drill 1.0) (layers *.Cu *.Mask))
  (pad 35 thru_hole oval (at 0 43.18) (size 1.7 1.7) (drill 1.0) (layers *.Cu *.Mask))
  (pad 36 thru_hole oval (at 2.54 43.18) (size 1.7 1.7) (drill 1.0) (layers *.Cu *.Mask))
  (pad 37 thru_hole oval (at 0 45.72) (size 1.7 1.7) (drill 1.0) (layers *.Cu *.Mask))
  (pad 38 thru_hole oval (at 2.54 45.72) (size 1.7 1.7) (drill 1.0) (layers *.Cu *.Mask))
  (pad 39 thru_hole oval (at 0 48.26) (size 1.7 1.7) (drill 1.0) (layers *.Cu *.Mask))
  (pad 40 thru_hole oval (at 2.54 48.26) (size 1.7 1.7) (drill 1.0) (layers *.Cu *.Mask))
  (pad 41 thru_hole oval (at 0 50.8) (size 1.7 1.7) (drill 1.0) (layers *.Cu *.Mask))
  (pad 42 thru_hole oval (at 2.54 50.8) (size 1.7 1.7) (drill 1.0) (layers *.Cu *.Mask))
  (pad 43 thru_hole oval (at 0 53.34) (size 1.7 1.7) (drill 1.0) (layers *.Cu *.Mask))
  (pad 44 thru_hole oval (at 2.54 53.34) (size 1.7 1.7) (drill 1.0) (layers *.Cu *.Mask))
  (pad 45 thru_hole oval (at 0 55.88) (size 1.7 1.7) (drill 1.0) (layers *.Cu *.Mask))
  (pad 46 thru_hole oval (at 2.54 55.88) (size 1.7 1.7) (drill 1.0) (layers *.Cu *.Mask))
  (pad 47 thru_hole oval (at 0 58.42) (size 1.7 1.7) (drill 1.0) (layers *.Cu *.Mask))
  (pad 48 thru_hole oval (at 2.54 58.42) (size 1.7 1.7) (drill 1.0) (layers *.Cu *.Mask))
  (pad 49 thru_hole oval (at 0 60.96) (size 1.7 1.7) (drill 1.0) (layers *.Cu *.Mask))
  (pad 50 thru_hole oval (at 2.54 60.96) (size 1.7 1.7) (drill 1.0) (layers *.Cu *.Mask))
  (pad 51 thru_hole oval (at 0 63.5) (size 1.7 1.7) (drill 1.0) (layers *.Cu *.Mask))
  (pad 52 thru_hole oval (at 2.54 63.5) (size 1.7 1.7) (drill 1.0) (layers *.Cu *.Mask))
  (pad 53 thru_hole oval (at 0 66.04) (size 1.7 1.7) (drill 1.0) (layers *.Cu *.Mask))
  (pad 54 thru_hole oval (at 2.54 66.04) (size 1.7 1.7) (drill 1.0) (layers *.Cu *.Mask))
  (pad 55 thru_hole oval (at 0 68.58) (size 1.7 1.7) (drill 1.0) (layers *.Cu *.Mask))
  (pad 56 thru_hole oval (at 2.54 68.58) (size 1.7 1.7) (drill 1.0) (layers *.Cu *.Mask))
  (pad 57 thru_hole oval (at 0 71.12) (size 1.7 1.7) (drill 1.0) (layers *.Cu *.Mask))
  (pad 58 thru_hole oval (at 2.54 71.12) (size 1.7 1.7) (drill 1.0) (layers *.Cu *.Mask))
  (pad 59 thru_hole oval (at 0 73.66) (size 1.7 1.7) (drill 1.0) (layers *.Cu *.Mask))
  (pad 60 thru_hole oval (at 2.54 73.66) (size 1.7 1.7) (drill 1.0) (layers *.Cu *.Mask))
  (fp_text user %R (at 5.31 36.83 90) (layer F.Fab)
    (effects (font (size 1 1) (thickness 0.15)))
  )
  (model ${KIPRJMOD}/kicad_libs_k/models_k.3d/Connector_PinHeader_2.54mm_k.3dshapes/PinHeader_2x30_P2.54mm_Horizontal_k.wrl
    (at (xyz 0 0 0))
    (scale (xyz 1 1 1))
    (rotate (xyz 0 0 0))
  )
)