(module PinHeader_2x15_P2.54mm_Horizontal (layer F.Cu) (tedit 59FED5CB)
  (descr "Through hole angled pin header, 2x15, 2.54mm pitch, 6mm pin length, double rows")
  (tags "Through hole angled pin header THT 2x15 2.54mm double row")
  (fp_text reference REF** (at 5.655 -2.27) (layer F.SilkS)
    (effects (font (size 1 1) (thickness 0.15)))
  )
  (fp_text value PinHeader_2x15_P2.54mm_Horizontal (at 5.655 37.83) (layer F.Fab)
    (effects (font (size 1 1) (thickness 0.15)))
  )
  (fp_line (start 4.675 -1.27) (end 6.58 -1.27) (layer F.Fab) (width 0.1))
  (fp_line (start 6.58 -1.27) (end 6.58 36.83) (layer F.Fab) (width 0.1))
  (fp_line (start 6.58 36.83) (end 4.04 36.83) (layer F.Fab) (width 0.1))
  (fp_line (start 4.04 36.83) (end 4.04 -0.635) (layer F.Fab) (width 0.1))
  (fp_line (start 4.04 -0.635) (end 4.675 -1.27) (layer F.Fab) (width 0.1))
  (fp_line (start -0.32 -0.32) (end 4.04 -0.32) (layer F.Fab) (width 0.1))
  (fp_line (start -0.32 -0.32) (end -0.32 0.32) (layer F.Fab) (width 0.1))
  (fp_line (start -0.32 0.32) (end 4.04 0.32) (layer F.Fab) (width 0.1))
  (fp_line (start 6.58 -0.32) (end 12.58 -0.32) (layer F.Fab) (width 0.1))
  (fp_line (start 12.58 -0.32) (end 12.58 0.32) (layer F.Fab) (width 0.1))
  (fp_line (start 6.58 0.32) (end 12.58 0.32) (layer F.Fab) (width 0.1))
  (fp_line (start -0.32 2.22) (end 4.04 2.22) (layer F.Fab) (width 0.1))
  (fp_line (start -0.32 2.22) (end -0.32 2.86) (layer F.Fab) (width 0.1))
  (fp_line (start -0.32 2.86) (end 4.04 2.86) (layer F.Fab) (width 0.1))
  (fp_line (start 6.58 2.22) (end 12.58 2.22) (layer F.Fab) (width 0.1))
  (fp_line (start 12.58 2.22) (end 12.58 2.86) (layer F.Fab) (width 0.1))
  (fp_line (start 6.58 2.86) (end 12.58 2.86) (layer F.Fab) (width 0.1))
  (fp_line (start -0.32 4.76) (end 4.04 4.76) (layer F.Fab) (width 0.1))
  (fp_line (start -0.32 4.76) (end -0.32 5.4) (layer F.Fab) (width 0.1))
  (fp_line (start -0.32 5.4) (end 4.04 5.4) (layer F.Fab) (width 0.1))
  (fp_line (start 6.58 4.76) (end 12.58 4.76) (layer F.Fab) (width 0.1))
  (fp_line (start 12.58 4.76) (end 12.58 5.4) (layer F.Fab) (width 0.1))
  (fp_line (start 6.58 5.4) (end 12.58 5.4) (layer F.Fab) (width 0.1))
  (fp_line (start -0.32 7.3) (end 4.04 7.3) (layer F.Fab) (width 0.1))
  (fp_line (start -0.32 7.3) (end -0.32 7.94) (layer F.Fab) (width 0.1))
  (fp_line (start -0.32 7.94) (end 4.04 7.94) (layer F.Fab) (width 0.1))
  (fp_line (start 6.58 7.3) (end 12.58 7.3) (layer F.Fab) (width 0.1))
  (fp_line (start 12.58 7.3) (end 12.58 7.94) (layer F.Fab) (width 0.1))
  (fp_line (start 6.58 7.94) (end 12.58 7.94) (layer F.Fab) (width 0.1))
  (fp_line (start -0.32 9.84) (end 4.04 9.84) (layer F.Fab) (width 0.1))
  (fp_line (start -0.32 9.84) (end -0.32 10.48) (layer F.Fab) (width 0.1))
  (fp_line (start -0.32 10.48) (end 4.04 10.48) (layer F.Fab) (width 0.1))
  (fp_line (start 6.58 9.84) (end 12.58 9.84) (layer F.Fab) (width 0.1))
  (fp_line (start 12.58 9.84) (end 12.58 10.48) (layer F.Fab) (width 0.1))
  (fp_line (start 6.58 10.48) (end 12.58 10.48) (layer F.Fab) (width 0.1))
  (fp_line (start -0.32 12.38) (end 4.04 12.38) (layer F.Fab) (width 0.1))
  (fp_line (start -0.32 12.38) (end -0.32 13.02) (layer F.Fab) (width 0.1))
  (fp_line (start -0.32 13.02) (end 4.04 13.02) (layer F.Fab) (width 0.1))
  (fp_line (start 6.58 12.38) (end 12.58 12.38) (layer F.Fab) (width 0.1))
  (fp_line (start 12.58 12.38) (end 12.58 13.02) (layer F.Fab) (width 0.1))
  (fp_line (start 6.58 13.02) (end 12.58 13.02) (layer F.Fab) (width 0.1))
  (fp_line (start -0.32 14.92) (end 4.04 14.92) (layer F.Fab) (width 0.1))
  (fp_line (start -0.32 14.92) (end -0.32 15.56) (layer F.Fab) (width 0.1))
  (fp_line (start -0.32 15.56) (end 4.04 15.56) (layer F.Fab) (width 0.1))
  (fp_line (start 6.58 14.92) (end 12.58 14.92) (layer F.Fab) (width 0.1))
  (fp_line (start 12.58 14.92) (end 12.58 15.56) (layer F.Fab) (width 0.1))
  (fp_line (start 6.58 15.56) (end 12.58 15.56) (layer F.Fab) (width 0.1))
  (fp_line (start -0.32 17.46) (end 4.04 17.46) (layer F.Fab) (width 0.1))
  (fp_line (start -0.32 17.46) (end -0.32 18.1) (layer F.Fab) (width 0.1))
  (fp_line (start -0.32 18.1) (end 4.04 18.1) (layer F.Fab) (width 0.1))
  (fp_line (start 6.58 17.46) (end 12.58 17.46) (layer F.Fab) (width 0.1))
  (fp_line (start 12.58 17.46) (end 12.58 18.1) (layer F.Fab) (width 0.1))
  (fp_line (start 6.58 18.1) (end 12.58 18.1) (layer F.Fab) (width 0.1))
  (fp_line (start -0.32 20) (end 4.04 20) (layer F.Fab) (width 0.1))
  (fp_line (start -0.32 20) (end -0.32 20.64) (layer F.Fab) (width 0.1))
  (fp_line (start -0.32 20.64) (end 4.04 20.64) (layer F.Fab) (width 0.1))
  (fp_line (start 6.58 20) (end 12.58 20) (layer F.Fab) (width 0.1))
  (fp_line (start 12.58 20) (end 12.58 20.64) (layer F.Fab) (width 0.1))
  (fp_line (start 6.58 20.64) (end 12.58 20.64) (layer F.Fab) (width 0.1))
  (fp_line (start -0.32 22.54) (end 4.04 22.54) (layer F.Fab) (width 0.1))
  (fp_line (start -0.32 22.54) (end -0.32 23.18) (layer F.Fab) (width 0.1))
  (fp_line (start -0.32 23.18) (end 4.04 23.18) (layer F.Fab) (width 0.1))
  (fp_line (start 6.58 22.54) (end 12.58 22.54) (layer F.Fab) (width 0.1))
  (fp_line (start 12.58 22.54) (end 12.58 23.18) (layer F.Fab) (width 0.1))
  (fp_line (start 6.58 23.18) (end 12.58 23.18) (layer F.Fab) (width 0.1))
  (fp_line (start -0.32 25.08) (end 4.04 25.08) (layer F.Fab) (width 0.1))
  (fp_line (start -0.32 25.08) (end -0.32 25.72) (layer F.Fab) (width 0.1))
  (fp_line (start -0.32 25.72) (end 4.04 25.72) (layer F.Fab) (width 0.1))
  (fp_line (start 6.58 25.08) (end 12.58 25.08) (layer F.Fab) (width 0.1))
  (fp_line (start 12.58 25.08) (end 12.58 25.72) (layer F.Fab) (width 0.1))
  (fp_line (start 6.58 25.72) (end 12.58 25.72) (layer F.Fab) (width 0.1))
  (fp_line (start -0.32 27.62) (end 4.04 27.62) (layer F.Fab) (width 0.1))
  (fp_line (start -0.32 27.62) (end -0.32 28.26) (layer F.Fab) (width 0.1))
  (fp_line (start -0.32 28.26) (end 4.04 28.26) (layer F.Fab) (width 0.1))
  (fp_line (start 6.58 27.62) (end 12.58 27.62) (layer F.Fab) (width 0.1))
  (fp_line (start 12.58 27.62) (end 12.58 28.26) (layer F.Fab) (width 0.1))
  (fp_line (start 6.58 28.26) (end 12.58 28.26) (layer F.Fab) (width 0.1))
  (fp_line (start -0.32 30.16) (end 4.04 30.16) (layer F.Fab) (width 0.1))
  (fp_line (start -0.32 30.16) (end -0.32 30.8) (layer F.Fab) (width 0.1))
  (fp_line (start -0.32 30.8) (end 4.04 30.8) (layer F.Fab) (width 0.1))
  (fp_line (start 6.58 30.16) (end 12.58 30.16) (layer F.Fab) (width 0.1))
  (fp_line (start 12.58 30.16) (end 12.58 30.8) (layer F.Fab) (width 0.1))
  (fp_line (start 6.58 30.8) (end 12.58 30.8) (layer F.Fab) (width 0.1))
  (fp_line (start -0.32 32.7) (end 4.04 32.7) (layer F.Fab) (width 0.1))
  (fp_line (start -0.32 32.7) (end -0.32 33.34) (layer F.Fab) (width 0.1))
  (fp_line (start -0.32 33.34) (end 4.04 33.34) (layer F.Fab) (width 0.1))
  (fp_line (start 6.58 32.7) (end 12.58 32.7) (layer F.Fab) (width 0.1))
  (fp_line (start 12.58 32.7) (end 12.58 33.34) (layer F.Fab) (width 0.1))
  (fp_line (start 6.58 33.34) (end 12.58 33.34) (layer F.Fab) (width 0.1))
  (fp_line (start -0.32 35.24) (end 4.04 35.24) (layer F.Fab) (width 0.1))
  (fp_line (start -0.32 35.24) (end -0.32 35.88) (layer F.Fab) (width 0.1))
  (fp_line (start -0.32 35.88) (end 4.04 35.88) (layer F.Fab) (width 0.1))
  (fp_line (start 6.58 35.24) (end 12.58 35.24) (layer F.Fab) (width 0.1))
  (fp_line (start 12.58 35.24) (end 12.58 35.88) (layer F.Fab) (width 0.1))
  (fp_line (start 6.58 35.88) (end 12.58 35.88) (layer F.Fab) (width 0.1))
  (fp_line (start 3.98 -1.33) (end 3.98 36.89) (layer F.SilkS) (width 0.12))
  (fp_line (start 3.98 36.89) (end 6.64 36.89) (layer F.SilkS) (width 0.12))
  (fp_line (start 6.64 36.89) (end 6.64 -1.33) (layer F.SilkS) (width 0.12))
  (fp_line (start 6.64 -1.33) (end 3.98 -1.33) (layer F.SilkS) (width 0.12))
  (fp_line (start 6.64 -0.38) (end 12.64 -0.38) (layer F.SilkS) (width 0.12))
  (fp_line (start 12.64 -0.38) (end 12.64 0.38) (layer F.SilkS) (width 0.12))
  (fp_line (start 12.64 0.38) (end 6.64 0.38) (layer F.SilkS) (width 0.12))
  (fp_line (start 6.64 -0.32) (end 12.64 -0.32) (layer F.SilkS) (width 0.12))
  (fp_line (start 6.64 -0.2) (end 12.64 -0.2) (layer F.SilkS) (width 0.12))
  (fp_line (start 6.64 -0.08) (end 12.64 -0.08) (layer F.SilkS) (width 0.12))
  (fp_line (start 6.64 0.04) (end 12.64 0.04) (layer F.SilkS) (width 0.12))
  (fp_line (start 6.64 0.16) (end 12.64 0.16) (layer F.SilkS) (width 0.12))
  (fp_line (start 6.64 0.28) (end 12.64 0.28) (layer F.SilkS) (width 0.12))
  (fp_line (start 3.582929 -0.38) (end 3.98 -0.38) (layer F.SilkS) (width 0.12))
  (fp_line (start 3.582929 0.38) (end 3.98 0.38) (layer F.SilkS) (width 0.12))
  (fp_line (start 1.11 -0.38) (end 1.497071 -0.38) (layer F.SilkS) (width 0.12))
  (fp_line (start 1.11 0.38) (end 1.497071 0.38) (layer F.SilkS) (width 0.12))
  (fp_line (start 3.98 1.27) (end 6.64 1.27) (layer F.SilkS) (width 0.12))
  (fp_line (start 6.64 2.16) (end 12.64 2.16) (layer F.SilkS) (width 0.12))
  (fp_line (start 12.64 2.16) (end 12.64 2.92) (layer F.SilkS) (width 0.12))
  (fp_line (start 12.64 2.92) (end 6.64 2.92) (layer F.SilkS) (width 0.12))
  (fp_line (start 3.582929 2.16) (end 3.98 2.16) (layer F.SilkS) (width 0.12))
  (fp_line (start 3.582929 2.92) (end 3.98 2.92) (layer F.SilkS) (width 0.12))
  (fp_line (start 1.042929 2.16) (end 1.497071 2.16) (layer F.SilkS) (width 0.12))
  (fp_line (start 1.042929 2.92) (end 1.497071 2.92) (layer F.SilkS) (width 0.12))
  (fp_line (start 3.98 3.81) (end 6.64 3.81) (layer F.SilkS) (width 0.12))
  (fp_line (start 6.64 4.7) (end 12.64 4.7) (layer F.SilkS) (width 0.12))
  (fp_line (start 12.64 4.7) (end 12.64 5.46) (layer F.SilkS) (width 0.12))
  (fp_line (start 12.64 5.46) (end 6.64 5.46) (layer F.SilkS) (width 0.12))
  (fp_line (start 3.582929 4.7) (end 3.98 4.7) (layer F.SilkS) (width 0.12))
  (fp_line (start 3.582929 5.46) (end 3.98 5.46) (layer F.SilkS) (width 0.12))
  (fp_line (start 1.042929 4.7) (end 1.497071 4.7) (layer F.SilkS) (width 0.12))
  (fp_line (start 1.042929 5.46) (end 1.497071 5.46) (layer F.SilkS) (width 0.12))
  (fp_line (start 3.98 6.35) (end 6.64 6.35) (layer F.SilkS) (width 0.12))
  (fp_line (start 6.64 7.24) (end 12.64 7.24) (layer F.SilkS) (width 0.12))
  (fp_line (start 12.64 7.24) (end 12.64 8) (layer F.SilkS) (width 0.12))
  (fp_line (start 12.64 8) (end 6.64 8) (layer F.SilkS) (width 0.12))
  (fp_line (start 3.582929 7.24) (end 3.98 7.24) (layer F.SilkS) (width 0.12))
  (fp_line (start 3.582929 8) (end 3.98 8) (layer F.SilkS) (width 0.12))
  (fp_line (start 1.042929 7.24) (end 1.497071 7.24) (layer F.SilkS) (width 0.12))
  (fp_line (start 1.042929 8) (end 1.497071 8) (layer F.SilkS) (width 0.12))
  (fp_line (start 3.98 8.89) (end 6.64 8.89) (layer F.SilkS) (width 0.12))
  (fp_line (start 6.64 9.78) (end 12.64 9.78) (layer F.SilkS) (width 0.12))
  (fp_line (start 12.64 9.78) (end 12.64 10.54) (layer F.SilkS) (width 0.12))
  (fp_line (start 12.64 10.54) (end 6.64 10.54) (layer F.SilkS) (width 0.12))
  (fp_line (start 3.582929 9.78) (end 3.98 9.78) (layer F.SilkS) (width 0.12))
  (fp_line (start 3.582929 10.54) (end 3.98 10.54) (layer F.SilkS) (width 0.12))
  (fp_line (start 1.042929 9.78) (end 1.497071 9.78) (layer F.SilkS) (width 0.12))
  (fp_line (start 1.042929 10.54) (end 1.497071 10.54) (layer F.SilkS) (width 0.12))
  (fp_line (start 3.98 11.43) (end 6.64 11.43) (layer F.SilkS) (width 0.12))
  (fp_line (start 6.64 12.32) (end 12.64 12.32) (layer F.SilkS) (width 0.12))
  (fp_line (start 12.64 12.32) (end 12.64 13.08) (layer F.SilkS) (width 0.12))
  (fp_line (start 12.64 13.08) (end 6.64 13.08) (layer F.SilkS) (width 0.12))
  (fp_line (start 3.582929 12.32) (end 3.98 12.32) (layer F.SilkS) (width 0.12))
  (fp_line (start 3.582929 13.08) (end 3.98 13.08) (layer F.SilkS) (width 0.12))
  (fp_line (start 1.042929 12.32) (end 1.497071 12.32) (layer F.SilkS) (width 0.12))
  (fp_line (start 1.042929 13.08) (end 1.497071 13.08) (layer F.SilkS) (width 0.12))
  (fp_line (start 3.98 13.97) (end 6.64 13.97) (layer F.SilkS) (width 0.12))
  (fp_line (start 6.64 14.86) (end 12.64 14.86) (layer F.SilkS) (width 0.12))
  (fp_line (start 12.64 14.86) (end 12.64 15.62) (layer F.SilkS) (width 0.12))
  (fp_line (start 12.64 15.62) (end 6.64 15.62) (layer F.SilkS) (width 0.12))
  (fp_line (start 3.582929 14.86) (end 3.98 14.86) (layer F.SilkS) (width 0.12))
  (fp_line (start 3.582929 15.62) (end 3.98 15.62) (layer F.SilkS) (width 0.12))
  (fp_line (start 1.042929 14.86) (end 1.497071 14.86) (layer F.SilkS) (width 0.12))
  (fp_line (start 1.042929 15.62) (end 1.497071 15.62) (layer F.SilkS) (width 0.12))
  (fp_line (start 3.98 16.51) (end 6.64 16.51) (layer F.SilkS) (width 0.12))
  (fp_line (start 6.64 17.4) (end 12.64 17.4) (layer F.SilkS) (width 0.12))
  (fp_line (start 12.64 17.4) (end 12.64 18.16) (layer F.SilkS) (width 0.12))
  (fp_line (start 12.64 18.16) (end 6.64 18.16) (layer F.SilkS) (width 0.12))
  (fp_line (start 3.582929 17.4) (end 3.98 17.4) (layer F.SilkS) (width 0.12))
  (fp_line (start 3.582929 18.16) (end 3.98 18.16) (layer F.SilkS) (width 0.12))
  (fp_line (start 1.042929 17.4) (end 1.497071 17.4) (layer F.SilkS) (width 0.12))
  (fp_line (start 1.042929 18.16) (end 1.497071 18.16) (layer F.SilkS) (width 0.12))
  (fp_line (start 3.98 19.05) (end 6.64 19.05) (layer F.SilkS) (width 0.12))
  (fp_line (start 6.64 19.94) (end 12.64 19.94) (layer F.SilkS) (width 0.12))
  (fp_line (start 12.64 19.94) (end 12.64 20.7) (layer F.SilkS) (width 0.12))
  (fp_line (start 12.64 20.7) (end 6.64 20.7) (layer F.SilkS) (width 0.12))
  (fp_line (start 3.582929 19.94) (end 3.98 19.94) (layer F.SilkS) (width 0.12))
  (fp_line (start 3.582929 20.7) (end 3.98 20.7) (layer F.SilkS) (width 0.12))
  (fp_line (start 1.042929 19.94) (end 1.497071 19.94) (layer F.SilkS) (width 0.12))
  (fp_line (start 1.042929 20.7) (end 1.497071 20.7) (layer F.SilkS) (width 0.12))
  (fp_line (start 3.98 21.59) (end 6.64 21.59) (layer F.SilkS) (width 0.12))
  (fp_line (start 6.64 22.48) (end 12.64 22.48) (layer F.SilkS) (width 0.12))
  (fp_line (start 12.64 22.48) (end 12.64 23.24) (layer F.SilkS) (width 0.12))
  (fp_line (start 12.64 23.24) (end 6.64 23.24) (layer F.SilkS) (width 0.12))
  (fp_line (start 3.582929 22.48) (end 3.98 22.48) (layer F.SilkS) (width 0.12))
  (fp_line (start 3.582929 23.24) (end 3.98 23.24) (layer F.SilkS) (width 0.12))
  (fp_line (start 1.042929 22.48) (end 1.497071 22.48) (layer F.SilkS) (width 0.12))
  (fp_line (start 1.042929 23.24) (end 1.497071 23.24) (layer F.SilkS) (width 0.12))
  (fp_line (start 3.98 24.13) (end 6.64 24.13) (layer F.SilkS) (width 0.12))
  (fp_line (start 6.64 25.02) (end 12.64 25.02) (layer F.SilkS) (width 0.12))
  (fp_line (start 12.64 25.02) (end 12.64 25.78) (layer F.SilkS) (width 0.12))
  (fp_line (start 12.64 25.78) (end 6.64 25.78) (layer F.SilkS) (width 0.12))
  (fp_line (start 3.582929 25.02) (end 3.98 25.02) (layer F.SilkS) (width 0.12))
  (fp_line (start 3.582929 25.78) (end 3.98 25.78) (layer F.SilkS) (width 0.12))
  (fp_line (start 1.042929 25.02) (end 1.497071 25.02) (layer F.SilkS) (width 0.12))
  (fp_line (start 1.042929 25.78) (end 1.497071 25.78) (layer F.SilkS) (width 0.12))
  (fp_line (start 3.98 26.67) (end 6.64 26.67) (layer F.SilkS) (width 0.12))
  (fp_line (start 6.64 27.56) (end 12.64 27.56) (layer F.SilkS) (width 0.12))
  (fp_line (start 12.64 27.56) (end 12.64 28.32) (layer F.SilkS) (width 0.12))
  (fp_line (start 12.64 28.32) (end 6.64 28.32) (layer F.SilkS) (width 0.12))
  (fp_line (start 3.582929 27.56) (end 3.98 27.56) (layer F.SilkS) (width 0.12))
  (fp_line (start 3.582929 28.32) (end 3.98 28.32) (layer F.SilkS) (width 0.12))
  (fp_line (start 1.042929 27.56) (end 1.497071 27.56) (layer F.SilkS) (width 0.12))
  (fp_line (start 1.042929 28.32) (end 1.497071 28.32) (layer F.SilkS) (width 0.12))
  (fp_line (start 3.98 29.21) (end 6.64 29.21) (layer F.SilkS) (width 0.12))
  (fp_line (start 6.64 30.1) (end 12.64 30.1) (layer F.SilkS) (width 0.12))
  (fp_line (start 12.64 30.1) (end 12.64 30.86) (layer F.SilkS) (width 0.12))
  (fp_line (start 12.64 30.86) (end 6.64 30.86) (layer F.SilkS) (width 0.12))
  (fp_line (start 3.582929 30.1) (end 3.98 30.1) (layer F.SilkS) (width 0.12))
  (fp_line (start 3.582929 30.86) (end 3.98 30.86) (layer F.SilkS) (width 0.12))
  (fp_line (start 1.042929 30.1) (end 1.497071 30.1) (layer F.SilkS) (width 0.12))
  (fp_line (start 1.042929 30.86) (end 1.497071 30.86) (layer F.SilkS) (width 0.12))
  (fp_line (start 3.98 31.75) (end 6.64 31.75) (layer F.SilkS) (width 0.12))
  (fp_line (start 6.64 32.64) (end 12.64 32.64) (layer F.SilkS) (width 0.12))
  (fp_line (start 12.64 32.64) (end 12.64 33.4) (layer F.SilkS) (width 0.12))
  (fp_line (start 12.64 33.4) (end 6.64 33.4) (layer F.SilkS) (width 0.12))
  (fp_line (start 3.582929 32.64) (end 3.98 32.64) (layer F.SilkS) (width 0.12))
  (fp_line (start 3.582929 33.4) (end 3.98 33.4) (layer F.SilkS) (width 0.12))
  (fp_line (start 1.042929 32.64) (end 1.497071 32.64) (layer F.SilkS) (width 0.12))
  (fp_line (start 1.042929 33.4) (end 1.497071 33.4) (layer F.SilkS) (width 0.12))
  (fp_line (start 3.98 34.29) (end 6.64 34.29) (layer F.SilkS) (width 0.12))
  (fp_line (start 6.64 35.18) (end 12.64 35.18) (layer F.SilkS) (width 0.12))
  (fp_line (start 12.64 35.18) (end 12.64 35.94) (layer F.SilkS) (width 0.12))
  (fp_line (start 12.64 35.94) (end 6.64 35.94) (layer F.SilkS) (width 0.12))
  (fp_line (start 3.582929 35.18) (end 3.98 35.18) (layer F.SilkS) (width 0.12))
  (fp_line (start 3.582929 35.94) (end 3.98 35.94) (layer F.SilkS) (width 0.12))
  (fp_line (start 1.042929 35.18) (end 1.497071 35.18) (layer F.SilkS) (width 0.12))
  (fp_line (start 1.042929 35.94) (end 1.497071 35.94) (layer F.SilkS) (width 0.12))
  (fp_line (start -1.27 0) (end -1.27 -1.27) (layer F.SilkS) (width 0.12))
  (fp_line (start -1.27 -1.27) (end 0 -1.27) (layer F.SilkS) (width 0.12))
  (fp_line (start -1.8 -1.8) (end -1.8 37.35) (layer F.CrtYd) (width 0.05))
  (fp_line (start -1.8 37.35) (end 13.1 37.35) (layer F.CrtYd) (width 0.05))
  (fp_line (start 13.1 37.35) (end 13.1 -1.8) (layer F.CrtYd) (width 0.05))
  (fp_line (start 13.1 -1.8) (end -1.8 -1.8) (layer F.CrtYd) (width 0.05))
  (pad 1 thru_hole rect (at 0 0) (size 1.7 1.7) (drill 1.0) (layers *.Cu *.Mask))
  (pad 2 thru_hole oval (at 2.54 0) (size 1.7 1.7) (drill 1.0) (layers *.Cu *.Mask))
  (pad 3 thru_hole oval (at 0 2.54) (size 1.7 1.7) (drill 1.0) (layers *.Cu *.Mask))
  (pad 4 thru_hole oval (at 2.54 2.54) (size 1.7 1.7) (drill 1.0) (layers *.Cu *.Mask))
  (pad 5 thru_hole oval (at 0 5.08) (size 1.7 1.7) (drill 1.0) (layers *.Cu *.Mask))
  (pad 6 thru_hole oval (at 2.54 5.08) (size 1.7 1.7) (drill 1.0) (layers *.Cu *.Mask))
  (pad 7 thru_hole oval (at 0 7.62) (size 1.7 1.7) (drill 1.0) (layers *.Cu *.Mask))
  (pad 8 thru_hole oval (at 2.54 7.62) (size 1.7 1.7) (drill 1.0) (layers *.Cu *.Mask))
  (pad 9 thru_hole oval (at 0 10.16) (size 1.7 1.7) (drill 1.0) (layers *.Cu *.Mask))
  (pad 10 thru_hole oval (at 2.54 10.16) (size 1.7 1.7) (drill 1.0) (layers *.Cu *.Mask))
  (pad 11 thru_hole oval (at 0 12.7) (size 1.7 1.7) (drill 1.0) (layers *.Cu *.Mask))
  (pad 12 thru_hole oval (at 2.54 12.7) (size 1.7 1.7) (drill 1.0) (layers *.Cu *.Mask))
  (pad 13 thru_hole oval (at 0 15.24) (size 1.7 1.7) (drill 1.0) (layers *.Cu *.Mask))
  (pad 14 thru_hole oval (at 2.54 15.24) (size 1.7 1.7) (drill 1.0) (layers *.Cu *.Mask))
  (pad 15 thru_hole oval (at 0 17.78) (size 1.7 1.7) (drill 1.0) (layers *.Cu *.Mask))
  (pad 16 thru_hole oval (at 2.54 17.78) (size 1.7 1.7) (drill 1.0) (layers *.Cu *.Mask))
  (pad 17 thru_hole oval (at 0 20.32) (size 1.7 1.7) (drill 1.0) (layers *.Cu *.Mask))
  (pad 18 thru_hole oval (at 2.54 20.32) (size 1.7 1.7) (drill 1.0) (layers *.Cu *.Mask))
  (pad 19 thru_hole oval (at 0 22.86) (size 1.7 1.7) (drill 1.0) (layers *.Cu *.Mask))
  (pad 20 thru_hole oval (at 2.54 22.86) (size 1.7 1.7) (drill 1.0) (layers *.Cu *.Mask))
  (pad 21 thru_hole oval (at 0 25.4) (size 1.7 1.7) (drill 1.0) (layers *.Cu *.Mask))
  (pad 22 thru_hole oval (at 2.54 25.4) (size 1.7 1.7) (drill 1.0) (layers *.Cu *.Mask))
  (pad 23 thru_hole oval (at 0 27.94) (size 1.7 1.7) (drill 1.0) (layers *.Cu *.Mask))
  (pad 24 thru_hole oval (at 2.54 27.94) (size 1.7 1.7) (drill 1.0) (layers *.Cu *.Mask))
  (pad 25 thru_hole oval (at 0 30.48) (size 1.7 1.7) (drill 1.0) (layers *.Cu *.Mask))
  (pad 26 thru_hole oval (at 2.54 30.48) (size 1.7 1.7) (drill 1.0) (layers *.Cu *.Mask))
  (pad 27 thru_hole oval (at 0 33.02) (size 1.7 1.7) (drill 1.0) (layers *.Cu *.Mask))
  (pad 28 thru_hole oval (at 2.54 33.02) (size 1.7 1.7) (drill 1.0) (layers *.Cu *.Mask))
  (pad 29 thru_hole oval (at 0 35.56) (size 1.7 1.7) (drill 1.0) (layers *.Cu *.Mask))
  (pad 30 thru_hole oval (at 2.54 35.56) (size 1.7 1.7) (drill 1.0) (layers *.Cu *.Mask))
  (fp_text user %R (at 5.31 17.78 90) (layer F.Fab)
    (effects (font (size 1 1) (thickness 0.15)))
  )
  (model ${KIPRJMOD}/kicad_libs_k/models_k.3d/Connector_PinHeader_2.54mm_k.3dshapes/PinHeader_2x15_P2.54mm_Horizontal_k.wrl
    (at (xyz 0 0 0))
    (scale (xyz 1 1 1))
    (rotate (xyz 0 0 0))
  )
)