(module PinHeader_1x06_P2.54mm_Vertical_SMD_Pin1Right (layer F.Cu) (tedit 59FED5CC)
  (descr "surface-mounted straight pin header, 1x06, 2.54mm pitch, single row, style 2 (pin 1 right)")
  (tags "Surface mounted pin header SMD 1x06 2.54mm single row style2 pin1 right")
  (attr smd)
  (fp_text reference REF** (at 0 -8.68) (layer F.SilkS)
    (effects (font (size 1 1) (thickness 0.15)))
  )
  (fp_text value PinHeader_1x06_P2.54mm_Vertical_SMD_Pin1Right (at 0 8.68) (layer F.Fab)
    (effects (font (size 1 1) (thickness 0.15)))
  )
  (fp_line (start 1.27 7.62) (end -1.27 7.62) (layer F.Fab) (width 0.1))
  (fp_line (start -1.27 -7.62) (end 0.32 -7.62) (layer F.Fab) (width 0.1))
  (fp_line (start 1.27 7.62) (end 1.27 -6.67) (layer F.Fab) (width 0.1))
  (fp_line (start 1.27 -6.67) (end 0.32 -7.62) (layer F.Fab) (width 0.1))
  (fp_line (start -1.27 -7.62) (end -1.27 7.62) (layer F.Fab) (width 0.1))
  (fp_line (start -1.27 -4.13) (end -2.54 -4.13) (layer F.Fab) (width 0.1))
  (fp_line (start -2.54 -4.13) (end -2.54 -3.49) (layer F.Fab) (width 0.1))
  (fp_line (start -2.54 -3.49) (end -1.27 -3.49) (layer F.Fab) (width 0.1))
  (fp_line (start -1.27 0.95) (end -2.54 0.95) (layer F.Fab) (width 0.1))
  (fp_line (start -2.54 0.95) (end -2.54 1.59) (layer F.Fab) (width 0.1))
  (fp_line (start -2.54 1.59) (end -1.27 1.59) (layer F.Fab) (width 0.1))
  (fp_line (start -1.27 6.03) (end -2.54 6.03) (layer F.Fab) (width 0.1))
  (fp_line (start -2.54 6.03) (end -2.54 6.67) (layer F.Fab) (width 0.1))
  (fp_line (start -2.54 6.67) (end -1.27 6.67) (layer F.Fab) (width 0.1))
  (fp_line (start 1.27 -6.67) (end 2.54 -6.67) (layer F.Fab) (width 0.1))
  (fp_line (start 2.54 -6.67) (end 2.54 -6.03) (layer F.Fab) (width 0.1))
  (fp_line (start 2.54 -6.03) (end 1.27 -6.03) (layer F.Fab) (width 0.1))
  (fp_line (start 1.27 -1.59) (end 2.54 -1.59) (layer F.Fab) (width 0.1))
  (fp_line (start 2.54 -1.59) (end 2.54 -0.95) (layer F.Fab) (width 0.1))
  (fp_line (start 2.54 -0.95) (end 1.27 -0.95) (layer F.Fab) (width 0.1))
  (fp_line (start 1.27 3.49) (end 2.54 3.49) (layer F.Fab) (width 0.1))
  (fp_line (start 2.54 3.49) (end 2.54 4.13) (layer F.Fab) (width 0.1))
  (fp_line (start 2.54 4.13) (end 1.27 4.13) (layer F.Fab) (width 0.1))
  (fp_line (start -1.33 -7.68) (end 1.33 -7.68) (layer F.SilkS) (width 0.12))
  (fp_line (start -1.33 7.68) (end 1.33 7.68) (layer F.SilkS) (width 0.12))
  (fp_line (start 1.33 -5.59) (end 1.33 -2.03) (layer F.SilkS) (width 0.12))
  (fp_line (start 1.33 -0.51) (end 1.33 3.05) (layer F.SilkS) (width 0.12))
  (fp_line (start 1.33 4.57) (end 1.33 7.68) (layer F.SilkS) (width 0.12))
  (fp_line (start -1.33 -7.68) (end -1.33 -4.57) (layer F.SilkS) (width 0.12))
  (fp_line (start 1.33 -7.11) (end 2.85 -7.11) (layer F.SilkS) (width 0.12))
  (fp_line (start 1.33 -7.68) (end 1.33 -7.11) (layer F.SilkS) (width 0.12))
  (fp_line (start -1.33 7.11) (end -1.33 7.68) (layer F.SilkS) (width 0.12))
  (fp_line (start -1.33 -3.05) (end -1.33 0.51) (layer F.SilkS) (width 0.12))
  (fp_line (start -1.33 2.03) (end -1.33 5.59) (layer F.SilkS) (width 0.12))
  (fp_line (start -3.45 -8.15) (end -3.45 8.15) (layer F.CrtYd) (width 0.05))
  (fp_line (start -3.45 8.15) (end 3.45 8.15) (layer F.CrtYd) (width 0.05))
  (fp_line (start 3.45 8.15) (end 3.45 -8.15) (layer F.CrtYd) (width 0.05))
  (fp_line (start 3.45 -8.15) (end -3.45 -8.15) (layer F.CrtYd) (width 0.05))
  (pad 2 smd rect (at -1.655 -3.81) (size 2.51 1) (layers F.Cu F.Mask F.Paste))
  (pad 4 smd rect (at -1.655 1.27) (size 2.51 1) (layers F.Cu F.Mask F.Paste))
  (pad 6 smd rect (at -1.655 6.35) (size 2.51 1) (layers F.Cu F.Mask F.Paste))
  (pad 1 smd rect (at 1.655 -6.35) (size 2.51 1) (layers F.Cu F.Mask F.Paste))
  (pad 3 smd rect (at 1.655 -1.27) (size 2.51 1) (layers F.Cu F.Mask F.Paste))
  (pad 5 smd rect (at 1.655 3.81) (size 2.51 1) (layers F.Cu F.Mask F.Paste))
  (fp_text user %R (at 0 0 90) (layer F.Fab)
    (effects (font (size 1 1) (thickness 0.15)))
  )
  (model ${KIPRJMOD}/kicad_libs_k/models_k.3d/Connector_PinHeader_2.54mm_k.3dshapes/PinHeader_1x06_P2.54mm_Vertical_SMD_Pin1Right_k.wrl
    (at (xyz 0 0 0))
    (scale (xyz 1 1 1))
    (rotate (xyz 0 0 0))
  )
)