(module PinHeader_2x04_P2.54mm_Horizontal (layer F.Cu) (tedit 59FED5CB)
  (descr "Through hole angled pin header, 2x04, 2.54mm pitch, 6mm pin length, double rows")
  (tags "Through hole angled pin header THT 2x04 2.54mm double row")
  (fp_text reference REF** (at 5.655 -2.27) (layer F.SilkS)
    (effects (font (size 1 1) (thickness 0.15)))
  )
  (fp_text value PinHeader_2x04_P2.54mm_Horizontal (at 5.655 9.89) (layer F.Fab)
    (effects (font (size 1 1) (thickness 0.15)))
  )
  (fp_line (start 4.675 -1.27) (end 6.58 -1.27) (layer F.Fab) (width 0.1))
  (fp_line (start 6.58 -1.27) (end 6.58 8.89) (layer F.Fab) (width 0.1))
  (fp_line (start 6.58 8.89) (end 4.04 8.89) (layer F.Fab) (width 0.1))
  (fp_line (start 4.04 8.89) (end 4.04 -0.635) (layer F.Fab) (width 0.1))
  (fp_line (start 4.04 -0.635) (end 4.675 -1.27) (layer F.Fab) (width 0.1))
  (fp_line (start -0.32 -0.32) (end 4.04 -0.32) (layer F.Fab) (width 0.1))
  (fp_line (start -0.32 -0.32) (end -0.32 0.32) (layer F.Fab) (width 0.1))
  (fp_line (start -0.32 0.32) (end 4.04 0.32) (layer F.Fab) (width 0.1))
  (fp_line (start 6.58 -0.32) (end 12.58 -0.32) (layer F.Fab) (width 0.1))
  (fp_line (start 12.58 -0.32) (end 12.58 0.32) (layer F.Fab) (width 0.1))
  (fp_line (start 6.58 0.32) (end 12.58 0.32) (layer F.Fab) (width 0.1))
  (fp_line (start -0.32 2.22) (end 4.04 2.22) (layer F.Fab) (width 0.1))
  (fp_line (start -0.32 2.22) (end -0.32 2.86) (layer F.Fab) (width 0.1))
  (fp_line (start -0.32 2.86) (end 4.04 2.86) (layer F.Fab) (width 0.1))
  (fp_line (start 6.58 2.22) (end 12.58 2.22) (layer F.Fab) (width 0.1))
  (fp_line (start 12.58 2.22) (end 12.58 2.86) (layer F.Fab) (width 0.1))
  (fp_line (start 6.58 2.86) (end 12.58 2.86) (layer F.Fab) (width 0.1))
  (fp_line (start -0.32 4.76) (end 4.04 4.76) (layer F.Fab) (width 0.1))
  (fp_line (start -0.32 4.76) (end -0.32 5.4) (layer F.Fab) (width 0.1))
  (fp_line (start -0.32 5.4) (end 4.04 5.4) (layer F.Fab) (width 0.1))
  (fp_line (start 6.58 4.76) (end 12.58 4.76) (layer F.Fab) (width 0.1))
  (fp_line (start 12.58 4.76) (end 12.58 5.4) (layer F.Fab) (width 0.1))
  (fp_line (start 6.58 5.4) (end 12.58 5.4) (layer F.Fab) (width 0.1))
  (fp_line (start -0.32 7.3) (end 4.04 7.3) (layer F.Fab) (width 0.1))
  (fp_line (start -0.32 7.3) (end -0.32 7.94) (layer F.Fab) (width 0.1))
  (fp_line (start -0.32 7.94) (end 4.04 7.94) (layer F.Fab) (width 0.1))
  (fp_line (start 6.58 7.3) (end 12.58 7.3) (layer F.Fab) (width 0.1))
  (fp_line (start 12.58 7.3) (end 12.58 7.94) (layer F.Fab) (width 0.1))
  (fp_line (start 6.58 7.94) (end 12.58 7.94) (layer F.Fab) (width 0.1))
  (fp_line (start 3.98 -1.33) (end 3.98 8.95) (layer F.SilkS) (width 0.12))
  (fp_line (start 3.98 8.95) (end 6.64 8.95) (layer F.SilkS) (width 0.12))
  (fp_line (start 6.64 8.95) (end 6.64 -1.33) (layer F.SilkS) (width 0.12))
  (fp_line (start 6.64 -1.33) (end 3.98 -1.33) (layer F.SilkS) (width 0.12))
  (fp_line (start 6.64 -0.38) (end 12.64 -0.38) (layer F.SilkS) (width 0.12))
  (fp_line (start 12.64 -0.38) (end 12.64 0.38) (layer F.SilkS) (width 0.12))
  (fp_line (start 12.64 0.38) (end 6.64 0.38) (layer F.SilkS) (width 0.12))
  (fp_line (start 6.64 -0.32) (end 12.64 -0.32) (layer F.SilkS) (width 0.12))
  (fp_line (start 6.64 -0.2) (end 12.64 -0.2) (layer F.SilkS) (width 0.12))
  (fp_line (start 6.64 -0.08) (end 12.64 -0.08) (layer F.SilkS) (width 0.12))
  (fp_line (start 6.64 0.04) (end 12.64 0.04) (layer F.SilkS) (width 0.12))
  (fp_line (start 6.64 0.16) (end 12.64 0.16) (layer F.SilkS) (width 0.12))
  (fp_line (start 6.64 0.28) (end 12.64 0.28) (layer F.SilkS) (width 0.12))
  (fp_line (start 3.582929 -0.38) (end 3.98 -0.38) (layer F.SilkS) (width 0.12))
  (fp_line (start 3.582929 0.38) (end 3.98 0.38) (layer F.SilkS) (width 0.12))
  (fp_line (start 1.11 -0.38) (end 1.497071 -0.38) (layer F.SilkS) (width 0.12))
  (fp_line (start 1.11 0.38) (end 1.497071 0.38) (layer F.SilkS) (width 0.12))
  (fp_line (start 3.98 1.27) (end 6.64 1.27) (layer F.SilkS) (width 0.12))
  (fp_line (start 6.64 2.16) (end 12.64 2.16) (layer F.SilkS) (width 0.12))
  (fp_line (start 12.64 2.16) (end 12.64 2.92) (layer F.SilkS) (width 0.12))
  (fp_line (start 12.64 2.92) (end 6.64 2.92) (layer F.SilkS) (width 0.12))
  (fp_line (start 3.582929 2.16) (end 3.98 2.16) (layer F.SilkS) (width 0.12))
  (fp_line (start 3.582929 2.92) (end 3.98 2.92) (layer F.SilkS) (width 0.12))
  (fp_line (start 1.042929 2.16) (end 1.497071 2.16) (layer F.SilkS) (width 0.12))
  (fp_line (start 1.042929 2.92) (end 1.497071 2.92) (layer F.SilkS) (width 0.12))
  (fp_line (start 3.98 3.81) (end 6.64 3.81) (layer F.SilkS) (width 0.12))
  (fp_line (start 6.64 4.7) (end 12.64 4.7) (layer F.SilkS) (width 0.12))
  (fp_line (start 12.64 4.7) (end 12.64 5.46) (layer F.SilkS) (width 0.12))
  (fp_line (start 12.64 5.46) (end 6.64 5.46) (layer F.SilkS) (width 0.12))
  (fp_line (start 3.582929 4.7) (end 3.98 4.7) (layer F.SilkS) (width 0.12))
  (fp_line (start 3.582929 5.46) (end 3.98 5.46) (layer F.SilkS) (width 0.12))
  (fp_line (start 1.042929 4.7) (end 1.497071 4.7) (layer F.SilkS) (width 0.12))
  (fp_line (start 1.042929 5.46) (end 1.497071 5.46) (layer F.SilkS) (width 0.12))
  (fp_line (start 3.98 6.35) (end 6.64 6.35) (layer F.SilkS) (width 0.12))
  (fp_line (start 6.64 7.24) (end 12.64 7.24) (layer F.SilkS) (width 0.12))
  (fp_line (start 12.64 7.24) (end 12.64 8) (layer F.SilkS) (width 0.12))
  (fp_line (start 12.64 8) (end 6.64 8) (layer F.SilkS) (width 0.12))
  (fp_line (start 3.582929 7.24) (end 3.98 7.24) (layer F.SilkS) (width 0.12))
  (fp_line (start 3.582929 8) (end 3.98 8) (layer F.SilkS) (width 0.12))
  (fp_line (start 1.042929 7.24) (end 1.497071 7.24) (layer F.SilkS) (width 0.12))
  (fp_line (start 1.042929 8) (end 1.497071 8) (layer F.SilkS) (width 0.12))
  (fp_line (start -1.27 0) (end -1.27 -1.27) (layer F.SilkS) (width 0.12))
  (fp_line (start -1.27 -1.27) (end 0 -1.27) (layer F.SilkS) (width 0.12))
  (fp_line (start -1.8 -1.8) (end -1.8 9.4) (layer F.CrtYd) (width 0.05))
  (fp_line (start -1.8 9.4) (end 13.1 9.4) (layer F.CrtYd) (width 0.05))
  (fp_line (start 13.1 9.4) (end 13.1 -1.8) (layer F.CrtYd) (width 0.05))
  (fp_line (start 13.1 -1.8) (end -1.8 -1.8) (layer F.CrtYd) (width 0.05))
  (pad 1 thru_hole rect (at 0 0) (size 1.7 1.7) (drill 1.0) (layers *.Cu *.Mask))
  (pad 2 thru_hole oval (at 2.54 0) (size 1.7 1.7) (drill 1.0) (layers *.Cu *.Mask))
  (pad 3 thru_hole oval (at 0 2.54) (size 1.7 1.7) (drill 1.0) (layers *.Cu *.Mask))
  (pad 4 thru_hole oval (at 2.54 2.54) (size 1.7 1.7) (drill 1.0) (layers *.Cu *.Mask))
  (pad 5 thru_hole oval (at 0 5.08) (size 1.7 1.7) (drill 1.0) (layers *.Cu *.Mask))
  (pad 6 thru_hole oval (at 2.54 5.08) (size 1.7 1.7) (drill 1.0) (layers *.Cu *.Mask))
  (pad 7 thru_hole oval (at 0 7.62) (size 1.7 1.7) (drill 1.0) (layers *.Cu *.Mask))
  (pad 8 thru_hole oval (at 2.54 7.62) (size 1.7 1.7) (drill 1.0) (layers *.Cu *.Mask))
  (fp_text user %R (at 5.31 3.81 90) (layer F.Fab)
    (effects (font (size 1 1) (thickness 0.15)))
  )
  (model ${KIPRJMOD}/kicad_libs_k/models_k.3d/Connector_PinHeader_2.54mm_k.3dshapes/PinHeader_2x04_P2.54mm_Horizontal_k.wrl
    (at (xyz 0 0 0))
    (scale (xyz 1 1 1))
    (rotate (xyz 0 0 0))
  )
)