(module k_Wuerth_WR-WTB_01x04_Header_P2.54mm_horizontal (layer F.Cu) (tedit 5CCC5F02)
  (descr "Wuerth WR-WTB 01x04 Header P2.54mm horizontal")
  (fp_text reference REF** (at -2.54 -3.81 90) (layer F.SilkS)
    (effects (font (size 1 1) (thickness 0.15)))
  )
  (fp_text value k_Wuerth_WR-WTB_01x04_Header_P2.54mm_horizontal (at 3 11.5) (layer F.Fab)
    (effects (font (size 1 1) (thickness 0.15)))
  )
  (fp_line (start -1.27 -1.4) (end 8.89 -1.4) (layer F.SilkS) (width 0.15))
  (fp_line (start 8.89 -1.4) (end 8.89 -12.6) (layer F.SilkS) (width 0.15))
  (fp_line (start -1.27 -1.4) (end -1.27 -12.6) (layer F.SilkS) (width 0.15))
  (fp_line (start -1.27 -12.7) (end 8.89 -12.7) (layer F.SilkS) (width 0.15))
  (fp_line (start -0.254 -0.762) (end -0.254 -10.9) (layer F.SilkS) (width 0.15))
  (fp_line (start 0.254 -0.784) (end 0.254 -10.9) (layer F.SilkS) (width 0.15))
  (fp_line (start -0.254 -10.9) (end 0.254 -10.9) (layer F.SilkS) (width 0.15))
  (fp_line (start 2.286 -0.762) (end 2.286 -10.9) (layer F.SilkS) (width 0.15))
  (fp_line (start 2.794 -0.784) (end 2.794 -10.9) (layer F.SilkS) (width 0.15))
  (fp_line (start 2.286 -10.9) (end 2.794 -10.9) (layer F.SilkS) (width 0.15))
  (fp_line (start 4.826 -0.762) (end 4.826 -10.9) (layer F.SilkS) (width 0.15))
  (fp_line (start 5.334 -0.784) (end 5.334 -10.9) (layer F.SilkS) (width 0.15))
  (fp_line (start 4.826 -10.9) (end 5.334 -10.9) (layer F.SilkS) (width 0.15))
  (fp_line (start 7.366 -0.762) (end 7.366 -10.9) (layer F.SilkS) (width 0.15))
  (fp_line (start 7.874 -0.784) (end 7.874 -10.9) (layer F.SilkS) (width 0.15))
  (fp_line (start 7.366 -10.9) (end 7.874 -10.9) (layer F.SilkS) (width 0.15))
  (fp_line (start -1.27 -4) (end 8.89 -4) (layer F.SilkS) (width 0.15))
  (fp_line (start -1.524 -12.954) (end -1.524 1.016) (layer F.CrtYd) (width 0.12))
  (fp_line (start -1.524 1.016) (end 9.144 1.016) (layer F.CrtYd) (width 0.12))
  (fp_line (start 9.144 1.016) (end 9.144 -12.954) (layer F.CrtYd) (width 0.12))
  (fp_line (start 9.144 -12.954) (end -1.524 -12.954) (layer F.CrtYd) (width 0.12))
  (pad 1 thru_hole rect (at 0 0) (size 1.4 1.4) (drill 1) (layers *.Cu *.Mask))
  (pad 2 thru_hole circle (at 2.54 0) (size 1.5 1.5) (drill 1) (layers *.Cu *.Mask))
  (pad 3 thru_hole circle (at 5.08 0) (size 1.5 1.5) (drill 1) (layers *.Cu *.Mask))
  (pad 4 thru_hole circle (at 7.62 0) (size 1.5 1.5) (drill 1) (layers *.Cu *.Mask))
  (model ${KIKON3D}/k_Connector_Wuerth_WR-WTB.3dshapes/WR-WTB_Male_Angled_Shrouded_Header_66100411722.stp
    (offset (xyz 7.3 1.4 0))
    (scale (xyz 1 1 1))
    (rotate (xyz 0 -90 0))
  )
  (model ${KIKON3D}/k_Connector_Wuerth_WR-WTB.3dshapes/WR-WTB_Female_IDC_Connector_AWG22-24_661004151922.stp
    (offset (xyz 1.27 4 4))
    (scale (xyz 1 1 1))
    (rotate (xyz 180 90 0))
  )
)
