(module k_Wuerth_WR-WTB_01x02_Header_P2.54mm_vertical (layer F.Cu) (tedit 5CD95F1A)
  (descr "Wuerth WR-WTB 01x02 Header P2.54mm vertical")
  (fp_text reference REF** (at 1.27 -3.81) (layer F.SilkS)
    (effects (font (size 1 1) (thickness 0.15)))
  )
  (fp_text value k_Wuerth_WR-WTB_01x02_Header_P2.54mm_vertical (at 3 11.5) (layer F.Fab)
    (effects (font (size 1 1) (thickness 0.15)))
  )
  (fp_line (start -1.27 -2.6) (end 3.81 -2.6) (layer F.SilkS) (width 0.15))
  (fp_line (start -1.27 2.6) (end 3.81 2.6) (layer F.SilkS) (width 0.15))
  (fp_line (start -1.27 -2.6) (end -1.27 2.6) (layer F.SilkS) (width 0.15))
  (fp_line (start 3.81 -2.6) (end 3.81 2.6) (layer F.SilkS) (width 0.15))
  (fp_line (start 0 -2.54) (end 0 -1.905) (layer F.SilkS) (width 0.15))
  (fp_line (start 0 -1.905) (end 2.54 -1.905) (layer F.SilkS) (width 0.15))
  (fp_line (start 2.54 -1.905) (end 2.54 -2.54) (layer F.SilkS) (width 0.15))
  (fp_line (start -1.27 1.905) (end 3.81 1.905) (layer F.SilkS) (width 0.15))
  (fp_line (start 2.54 -2.54) (end 3.81 -1.27) (layer F.SilkS) (width 0.15))
  (pad 1 thru_hole rect (at 0 0) (size 1.4 1.4) (drill 1) (layers *.Cu *.Mask))
  (pad 2 thru_hole circle (at 2.54 0) (size 1.5 1.5) (drill 1) (layers *.Cu *.Mask))
  (model ${KIPRJMOD}/kicad_libs_k/models_k.3d/Connector_Wuerth_WR-WTB_k.3dshapes/WR-WTB_Male_Vertical_Shrouded_Header_66100211622_k.stp    (offset (xyz 2.2 -2.5 0))
    (scale (xyz 1 1 1))
    (rotate (xyz 90 180 -90))
  )
  (model ${KIPRJMOD}/kicad_libs_k/models_k.3d/Connector_Wuerth_WR-WTB_k.3dshapes/WR-WTB_Female_IDC_Connector_AWG22-24_661002151922_k.stp    (offset (xyz 1.27 1.65 2.54))
    (scale (xyz 1 1 1))
    (rotate (xyz 90 0 -90))
  )
)
