(module TestPoint_Keystone_5005-5009_Compact (layer F.Cu) (tedit 5A0F774F)
  (descr "Keystone Miniature THM Test Point 5005-5009, http://www.keyelco.com/product-pdf.cfm?p=1314")
  (tags "Through Hole Mount Test Points")
  (fp_text reference REF** (at 0 -2.75) (layer F.SilkS)
    (effects (font (size 1 1) (thickness 0.15)))
  )
  (fp_text value TestPoint_Keystone_5005-5009_Compact (at 0 2.75) (layer F.Fab)
    (effects (font (size 1 1) (thickness 0.15)))
  )
  (fp_text user %R (at 0 0) (layer F.Fab)
    (effects (font (size 0.6 0.6) (thickness 0.09)))
  )
  (fp_line (start -1.25 -0.4) (end 1.25 -0.4) (layer F.Fab) (width 0.15))
  (fp_line (start 1.25 -0.4) (end 1.25 0.4) (layer F.Fab) (width 0.15))
  (fp_line (start 1.25 0.4) (end -1.25 0.4) (layer F.Fab) (width 0.15))
  (fp_line (start -1.25 0.4) (end -1.25 -0.4) (layer F.Fab) (width 0.15))
  (fp_circle (center 0 0) (end 2 0) (layer F.CrtYd) (width 0.05))
  (fp_circle (center 0 0) (end 1.6 0) (layer F.Fab) (width 0.15))
  (fp_circle (center 0 0) (end 1.75 0) (layer F.SilkS) (width 0.15))
  (pad 1 thru_hole circle (at 0 0) (size 2.8 2.8) (drill 1.6) (layers *.Cu *.Mask))
  (model ${KIPRJMOD}/kicad_libs_k/models_k.3d/TestPoint_k.3dshapes/TestPoint_Keystone_5005-5009_Compact_k.wrl
    (at (xyz 0 0 0))
    (scale (xyz 1 1 1))
    (rotate (xyz 0 0 0))
  )
)
