(module TestPoint_Bridge_Pitch6.35mm_Drill1.3mm (layer F.Cu) (tedit 5A0F774F)
  (descr "wire loop as test point, pitch 6.35mm, hole diameter 1.3mm, wire diameter 1.0mm")
  (tags "test point wire loop")
  (fp_text reference REF** (at 3.3 2.4) (layer F.SilkS)
    (effects (font (size 1 1) (thickness 0.15)))
  )
  (fp_text value TestPoint_Bridge_Pitch6.35mm_Drill1.3mm (at 1 -2.1) (layer F.Fab)
    (effects (font (size 1 1) (thickness 0.15)))
  )
  (fp_text user %R (at 3.3 2.4) (layer F.Fab)
    (effects (font (size 1 1) (thickness 0.15)))
  )
  (fp_line (start -1.6 -1.6) (end 8 -1.6) (layer F.SilkS) (width 0.12))
  (fp_line (start 8 -1.6) (end 8 1.6) (layer F.SilkS) (width 0.12))
  (fp_line (start 8 1.6) (end -1.6 1.6) (layer F.SilkS) (width 0.12))
  (fp_line (start -1.6 1.6) (end -1.6 -1.6) (layer F.SilkS) (width 0.12))
  (fp_line (start 6.35 0) (end 0 0) (layer F.Fab) (width 0.12))
  (fp_line (start -1.8 -1.8) (end 8.18 -1.8) (layer F.CrtYd) (width 0.05))
  (fp_line (start -1.8 -1.8) (end -1.8 1.8) (layer F.CrtYd) (width 0.05))
  (fp_line (start 8.18 1.8) (end 8.18 -1.8) (layer F.CrtYd) (width 0.05))
  (fp_line (start 8.18 1.8) (end -1.8 1.8) (layer F.CrtYd) (width 0.05))
  (pad 1 thru_hole circle (at 0 0) (size 2.6 2.6) (drill 1.3) (layers *.Cu *.Mask))
  (pad 1 thru_hole circle (at 6.38 0) (size 2.6 2.6) (drill 1.3) (layers *.Cu *.Mask))
  (model ${KIPRJMOD}/kicad_libs_k/models_k.3d/TestPoint_k.3dshapes/TestPoint_Bridge_Pitch6.35mm_Drill1.3mm_k.wrl
    (at (xyz 0 0 0))
    (scale (xyz 1 1 1))
    (rotate (xyz 0 0 0))
  )
)
