(module Jack_3.5mm_PJ31060-I_Horizontal (layer F.Cu) (tedit 5A1DBF1B)
  (descr "PJ31060-I 6pin SMD 3.5mm headphones jack.")
  (tags "headphones jack plug stereo 3.5mm PJ31060-I PJ31060")
  (attr smd)
  (fp_text reference REF** (at 0 -11.43) (layer F.SilkS)
    (effects (font (size 1 1) (thickness 0.15)))
  )
  (fp_text value Jack_3.5mm_PJ31060-I_Horizontal (at 0 6.82) (layer F.Fab)
    (effects (font (size 1 1) (thickness 0.15)))
  )
  (fp_text user %R (at 0 0) (layer F.Fab)
    (effects (font (size 1 1) (thickness 0.15)))
  )
  (fp_line (start -4.9 -3.4) (end -3.2 -3.4) (layer F.SilkS) (width 0.12))
  (fp_line (start -3.2 -5.3) (end -4.9 -5.3) (layer F.SilkS) (width 0.12))
  (fp_line (start 3.2 3.1) (end 3.2 3.45) (layer F.SilkS) (width 0.12))
  (fp_line (start 3.2 -3.35) (end 3.2 1.1) (layer F.SilkS) (width 0.12))
  (fp_line (start -3.2 -5.3) (end -3.2 -7.2) (layer F.SilkS) (width 0.12))
  (fp_line (start -3.2 -7.2) (end -2.6 -7.2) (layer F.SilkS) (width 0.12))
  (fp_line (start -2.6 -7.2) (end -2.6 -9.2) (layer F.SilkS) (width 0.12))
  (fp_line (start -2.6 -9.2) (end 2.6 -9.2) (layer F.SilkS) (width 0.12))
  (fp_line (start 2.6 -9.2) (end 2.6 -7.2) (layer F.SilkS) (width 0.12))
  (fp_line (start 2.6 -7.2) (end 3.2 -7.2) (layer F.SilkS) (width 0.12))
  (fp_line (start 3.2 -7.2) (end 3.2 -5.35) (layer F.SilkS) (width 0.12))
  (fp_line (start -3.2 -2.55) (end -3.2 -3.4) (layer F.SilkS) (width 0.12))
  (fp_line (start -3.2 2.5) (end -3.2 -0.7) (layer F.SilkS) (width 0.12))
  (fp_line (start 1.3 5) (end -3.2 5) (layer F.SilkS) (width 0.12))
  (fp_line (start -3.2 5) (end -3.2 4.4) (layer F.SilkS) (width 0.12))
  (fp_line (start 3.1 4.85) (end -3.1 4.85) (layer F.Fab) (width 0.1))
  (fp_line (start -3.1 -7.15) (end -3.1 4.85) (layer F.Fab) (width 0.1))
  (fp_line (start 3.1 -7.15) (end 3.1 4.85) (layer F.Fab) (width 0.1))
  (fp_line (start -2.5 -7.15) (end -3.1 -7.15) (layer F.Fab) (width 0.1))
  (fp_line (start 2.5 -7.15) (end 3.1 -7.15) (layer F.Fab) (width 0.1))
  (fp_line (start 2.5 -7.15) (end 2.5 -9.15) (layer F.Fab) (width 0.1))
  (fp_line (start 2.5 -9.15) (end -2.5 -9.15) (layer F.Fab) (width 0.1))
  (fp_line (start -2.5 -9.15) (end -2.5 -7.15) (layer F.Fab) (width 0.1))
  (fp_line (start -5.4 -9.65) (end 5.85 -9.65) (layer F.CrtYd) (width 0.05))
  (fp_line (start -5.4 -9.65) (end -5.4 5.6) (layer F.CrtYd) (width 0.05))
  (fp_line (start 5.85 5.6) (end 5.85 -9.65) (layer F.CrtYd) (width 0.05))
  (fp_line (start 5.85 5.6) (end -5.4 5.6) (layer F.CrtYd) (width 0.05))
  (fp_circle (center -2.35 -4.3) (end -2.1 -4.3) (layer F.Fab) (width 0.12))
  (pad 6 smd rect (at -3.65 3.45) (size 2.5 1.5) (layers F.Cu F.Paste F.Mask))
  (pad 3 smd rect (at -3.65 -1.65) (size 2.5 1.5) (layers F.Cu F.Paste F.Mask))
  (pad 1 smd rect (at -3.65 -4.35) (size 2.5 1.5) (layers F.Cu F.Paste F.Mask))
  (pad 5 smd rect (at 3.2 4.35) (size 3.4 1.5) (layers F.Cu F.Paste F.Mask))
  (pad 2 smd rect (at 3.65 2.15) (size 2.5 1.5) (layers F.Cu F.Paste F.Mask))
  (pad "" np_thru_hole circle (at 0 3.35) (size 1.5 1.5) (drill 1.5) (layers *.Cu *.Mask F.SilkS))
  (pad 4 smd rect (at 3 -4.35) (size 3.4 1.5) (layers F.Cu F.Paste F.Mask))
  (model ${KIPRJMOD}/kicad_libs_k/models_k.3d/Connector_Audio_k.3dshapes/Jack_3.5mm_PJ31060-I_Horizontal_k.wrl
    (at (xyz 0 0 0))
    (scale (xyz 1 1 1))
    (rotate (xyz 0 0 0))
  )
)
