(module EA_DOGXL160-7_Backlight (layer F.Cu) (tedit 5A02FE80)
  (descr "Grapchical,Display,LCD,160x104 http://www.lcd-module.com/eng/pdf/grafik/dogxl160-7e.pdf")
  (tags EA_DOGXL160-7_Backlight)
  (fp_text reference REF** (at 0.18 -21.02) (layer F.SilkS)
    (effects (font (size 1 1) (thickness 0.15)))
  )
  (fp_text value EA_DOGXL160-7_Backlight (at 7.91 59.51) (layer F.Fab)
    (effects (font (size 1 1) (thickness 0.15)))
  )
  (fp_line (start -1.66 -2) (end -1.66 -19.95) (layer F.Fab) (width 0.1))
  (fp_line (start -1.82 -20.09) (end -1.82 58.19) (layer F.SilkS) (width 0.12))
  (fp_line (start 0.2 -1.35) (end -1.35 -1.35) (layer F.SilkS) (width 0.12))
  (fp_line (start 62.48 -20.09) (end -1.82 -20.09) (layer F.SilkS) (width 0.12))
  (fp_line (start 62.48 58.19) (end 62.48 -20.09) (layer F.SilkS) (width 0.12))
  (fp_line (start -1.82 58.19) (end 62.48 58.19) (layer F.SilkS) (width 0.12))
  (fp_line (start -1.66 -2) (end 0.34 0) (layer F.Fab) (width 0.1))
  (fp_line (start 0.34 0) (end -1.66 2) (layer F.Fab) (width 0.1))
  (fp_line (start -1.67 2) (end -1.67 58.05) (layer F.Fab) (width 0.1))
  (fp_line (start 3.1 57.6) (end 55 57.6) (layer F.SilkS) (width 0.12))
  (fp_line (start 55 57.6) (end 55 -19.5) (layer F.SilkS) (width 0.12))
  (fp_line (start 55 -19.5) (end 3.1 -19.5) (layer F.SilkS) (width 0.12))
  (fp_line (start 3.1 -19.5) (end 3.1 57.6) (layer F.SilkS) (width 0.12))
  (fp_line (start -1.35 -1.35) (end -1.35 1) (layer F.SilkS) (width 0.12))
  (fp_line (start -1.66 -19.95) (end 62.33 -19.95) (layer F.Fab) (width 0.1))
  (fp_line (start 62.33 -19.95) (end 62.33 58.05) (layer F.Fab) (width 0.1))
  (fp_line (start 62.33 58.05) (end -1.67 58.05) (layer F.Fab) (width 0.1))
  (fp_text user %R (at 30.48 20.32) (layer F.Fab)
    (effects (font (size 1 1) (thickness 0.1)))
  )
  (fp_line (start -1.92 -20.2) (end 62.58 -20.2) (layer F.CrtYd) (width 0.05))
  (fp_line (start 62.58 -20.2) (end 62.58 58.3) (layer F.CrtYd) (width 0.05))
  (fp_line (start 62.58 58.3) (end -1.92 58.3) (layer F.CrtYd) (width 0.05))
  (fp_line (start -1.92 58.3) (end -1.92 -20.2) (layer F.CrtYd) (width 0.05))
  (pad 1 thru_hole rect (at 0 0) (size 1.524 1.524) (drill 0.762) (layers *.Cu *.Mask))
  (pad 2 thru_hole circle (at 0 2.54) (size 1.524 1.524) (drill 0.762) (layers *.Cu *.Mask))
  (pad 3 thru_hole circle (at 0 5.08) (size 1.524 1.524) (drill 0.762) (layers *.Cu *.Mask))
  (pad 14 thru_hole circle (at 0 33.02) (size 1.524 1.524) (drill 0.762) (layers *.Cu *.Mask))
  (pad 15 thru_hole circle (at 0 35.56) (size 1.524 1.524) (drill 0.762) (layers *.Cu *.Mask))
  (pad 16 thru_hole circle (at 0 38.1) (size 1.524 1.524) (drill 0.762) (layers *.Cu *.Mask))
  (pad 17 thru_hole circle (at 60.96 38.1) (size 1.524 1.524) (drill 0.762) (layers *.Cu *.Mask))
  (pad 18 thru_hole circle (at 60.96 35.56) (size 1.524 1.524) (drill 0.762) (layers *.Cu *.Mask))
  (pad 19 thru_hole circle (at 60.96 33.02) (size 1.524 1.524) (drill 0.762) (layers *.Cu *.Mask))
  (pad 20 thru_hole circle (at 60.96 30.48) (size 1.524 1.524) (drill 0.762) (layers *.Cu *.Mask))
  (pad 21 thru_hole circle (at 60.96 27.94) (size 1.524 1.524) (drill 0.762) (layers *.Cu *.Mask))
  (pad 22 thru_hole circle (at 60.96 25.4) (size 1.524 1.524) (drill 0.762) (layers *.Cu *.Mask))
  (pad 23 thru_hole circle (at 60.96 22.86) (size 1.524 1.524) (drill 0.762) (layers *.Cu *.Mask))
  (pad 24 thru_hole circle (at 60.96 20.32) (size 1.524 1.524) (drill 0.762) (layers *.Cu *.Mask))
  (pad 25 thru_hole circle (at 60.96 17.78) (size 1.524 1.524) (drill 0.762) (layers *.Cu *.Mask))
  (pad 26 thru_hole circle (at 60.96 15.24) (size 1.524 1.524) (drill 0.762) (layers *.Cu *.Mask))
  (pad 27 thru_hole circle (at 60.96 12.7) (size 1.524 1.524) (drill 0.762) (layers *.Cu *.Mask))
  (pad 28 thru_hole circle (at 60.96 10.16) (size 1.524 1.524) (drill 0.762) (layers *.Cu *.Mask))
  (pad 29 thru_hole circle (at 60.96 7.62) (size 1.524 1.524) (drill 0.762) (layers *.Cu *.Mask))
  (pad 30 thru_hole circle (at 60.96 5.08) (size 1.524 1.524) (drill 0.762) (layers *.Cu *.Mask))
  (pad 31 thru_hole circle (at 60.96 2.54) (size 1.524 1.524) (drill 0.762) (layers *.Cu *.Mask))
  (pad 32 thru_hole circle (at 60.96 0) (size 1.524 1.524) (drill 0.762) (layers *.Cu *.Mask))
  (model ${KIPRJMOD}/kicad_libs_k/models_k.3d/Display_k.3dshapes/EA_DOGXL160-7_Backlight_k.wrl
    (at (xyz 0 0 0))
    (scale (xyz 1 1 1))
    (rotate (xyz 0 0 0))
  )
)
