(module EA_eDIPTFT70-ATC (layer F.Cu) (tedit 5A02FE80)
  (descr "TFT-graphical display 800x480 16-bit colours with capacitive touch panel http://www.lcd-module.com/fileadmin/eng/pdf/grafik/ediptft70-ae.pdf")
  (tags "TFT-graphical display 800x480 16-bit colours with capacitive touch panel")
  (fp_text reference REF** (at -34.575 -32.675) (layer F.SilkS)
    (effects (font (size 1 1) (thickness 0.15)))
  )
  (fp_text value EA_eDIPTFT70-ATC (at -29.475 162.475) (layer F.Fab)
    (effects (font (size 1 1) (thickness 0.15)))
  )
  (fp_line (start -14.51 -11.43) (end -14.51 140.97) (layer F.SilkS) (width 0.1))
  (fp_line (start -14.51 140.97) (end 76.93 140.97) (layer F.SilkS) (width 0.1))
  (fp_line (start 76.93 140.97) (end 76.93 -11.43) (layer F.SilkS) (width 0.1))
  (fp_line (start 76.93 -11.43) (end -14.51 -11.43) (layer F.SilkS) (width 0.1))
  (fp_line (start -37.04 -31.98) (end 95.46 -31.98) (layer F.CrtYd) (width 0.05))
  (fp_line (start 95.46 -31.98) (end 95.46 161.52) (layer F.CrtYd) (width 0.05))
  (fp_line (start 95.46 161.52) (end -37.04 161.52) (layer F.CrtYd) (width 0.05))
  (fp_line (start -37.04 161.52) (end -37.04 -31.98) (layer F.CrtYd) (width 0.05))
  (fp_line (start -36.91 -31.85) (end 95.33 -31.85) (layer F.SilkS) (width 0.12))
  (fp_line (start 95.33 -31.85) (end 95.33 161.39) (layer F.SilkS) (width 0.12))
  (fp_line (start 95.33 161.39) (end -36.91 161.39) (layer F.SilkS) (width 0.12))
  (fp_line (start -36.91 161.39) (end -36.91 -31.85) (layer F.SilkS) (width 0.12))
  (fp_line (start -1 -32.23) (end 10 -32.23) (layer F.SilkS) (width 0.12))
  (fp_line (start 0 -30.73) (end 1 -31.73) (layer F.Fab) (width 0.1))
  (fp_line (start -1 -31.73) (end 0 -30.73) (layer F.Fab) (width 0.1))
  (fp_line (start -36.79 -31.73) (end -1 -31.73) (layer F.Fab) (width 0.1))
  (fp_line (start 1 -31.73) (end 95.21 -31.73) (layer F.Fab) (width 0.1))
  (fp_line (start 95.21 -31.73) (end 95.21 161.27) (layer F.Fab) (width 0.1))
  (fp_line (start 95.21 161.27) (end -36.79 161.27) (layer F.Fab) (width 0.1))
  (fp_line (start -36.79 161.27) (end -36.79 -31.73) (layer F.Fab) (width 0.1))
  (fp_text user %R (at 30.48 66.04) (layer F.Fab)
    (effects (font (size 1 1) (thickness 0.15)))
  )
  (pad 1 thru_hole rect (at 0 0) (size 1.5 1.5) (drill 1) (layers *.Cu *.Mask))
  (pad 2 thru_hole circle (at 2.54 0) (size 1.5 1.5) (drill 1) (layers *.Cu *.Mask))
  (pad 3 thru_hole circle (at 5.08 0) (size 1.5 1.5) (drill 1) (layers *.Cu *.Mask))
  (pad 4 thru_hole circle (at 7.62 0) (size 1.5 1.5) (drill 1) (layers *.Cu *.Mask))
  (pad 5 thru_hole circle (at 10.16 0) (size 1.5 1.5) (drill 1) (layers *.Cu *.Mask))
  (pad 6 thru_hole circle (at 12.7 0) (size 1.5 1.5) (drill 1) (layers *.Cu *.Mask))
  (pad 7 thru_hole circle (at 15.24 0) (size 1.5 1.5) (drill 1) (layers *.Cu *.Mask))
  (pad 8 thru_hole circle (at 17.78 0) (size 1.5 1.5) (drill 1) (layers *.Cu *.Mask))
  (pad 9 thru_hole circle (at 20.32 0) (size 1.5 1.5) (drill 1) (layers *.Cu *.Mask))
  (pad 10 thru_hole circle (at 22.86 0) (size 1.5 1.5) (drill 1) (layers *.Cu *.Mask))
  (pad 11 thru_hole circle (at 25.4 0) (size 1.5 1.5) (drill 1) (layers *.Cu *.Mask))
  (pad 12 thru_hole circle (at 27.94 0) (size 1.5 1.5) (drill 1) (layers *.Cu *.Mask))
  (pad 13 thru_hole circle (at 30.48 0) (size 1.5 1.5) (drill 1) (layers *.Cu *.Mask))
  (pad 14 thru_hole circle (at 33.02 0) (size 1.5 1.5) (drill 1) (layers *.Cu *.Mask))
  (pad 15 thru_hole circle (at 35.56 0) (size 1.5 1.5) (drill 1) (layers *.Cu *.Mask))
  (pad 16 thru_hole circle (at 38.1 0) (size 1.5 1.5) (drill 1) (layers *.Cu *.Mask))
  (pad 17 thru_hole circle (at 40.64 0) (size 1.5 1.5) (drill 1) (layers *.Cu *.Mask))
  (pad 18 thru_hole circle (at 43.18 0) (size 1.5 1.5) (drill 1) (layers *.Cu *.Mask))
  (pad 19 thru_hole circle (at 45.72 0) (size 1.5 1.5) (drill 1) (layers *.Cu *.Mask))
  (pad 20 thru_hole circle (at 48.26 0) (size 1.5 1.5) (drill 1) (layers *.Cu *.Mask))
  (pad 21 thru_hole circle (at 50.8 0) (size 1.5 1.5) (drill 1) (layers *.Cu *.Mask))
  (pad 22 thru_hole circle (at 53.34 0) (size 1.5 1.5) (drill 1) (layers *.Cu *.Mask))
  (pad 23 thru_hole circle (at 55.88 0) (size 1.5 1.5) (drill 1) (layers *.Cu *.Mask))
  (pad 24 thru_hole circle (at 58.42 0) (size 1.5 1.5) (drill 1) (layers *.Cu *.Mask))
  (pad 25 thru_hole circle (at 58.42 129.54) (size 1.5 1.5) (drill 1) (layers *.Cu *.Mask))
  (pad 26 thru_hole circle (at 55.88 129.54) (size 1.5 1.5) (drill 1) (layers *.Cu *.Mask))
  (pad 27 thru_hole circle (at 53.34 129.54) (size 1.5 1.5) (drill 1) (layers *.Cu *.Mask))
  (pad 28 thru_hole circle (at 50.8 129.54) (size 1.5 1.5) (drill 1) (layers *.Cu *.Mask))
  (pad 29 thru_hole circle (at 48.26 129.54) (size 1.5 1.5) (drill 1) (layers *.Cu *.Mask))
  (pad 30 thru_hole circle (at 45.72 129.54) (size 1.5 1.5) (drill 1) (layers *.Cu *.Mask))
  (pad 31 thru_hole circle (at 43.18 129.54) (size 1.5 1.5) (drill 1) (layers *.Cu *.Mask))
  (pad 32 thru_hole circle (at 40.64 129.54) (size 1.5 1.5) (drill 1) (layers *.Cu *.Mask))
  (pad 33 thru_hole circle (at 38.1 129.54) (size 1.5 1.5) (drill 1) (layers *.Cu *.Mask))
  (pad 34 thru_hole circle (at 35.56 129.54) (size 1.5 1.5) (drill 1) (layers *.Cu *.Mask))
  (pad 35 thru_hole circle (at 33.02 129.54) (size 1.5 1.5) (drill 1) (layers *.Cu *.Mask))
  (pad 36 thru_hole circle (at 30.48 129.54) (size 1.5 1.5) (drill 1) (layers *.Cu *.Mask))
  (pad 37 thru_hole circle (at 27.94 129.54) (size 1.5 1.5) (drill 1) (layers *.Cu *.Mask))
  (pad 38 thru_hole circle (at 25.4 129.54) (size 1.5 1.5) (drill 1) (layers *.Cu *.Mask))
  (pad 39 thru_hole circle (at 22.86 129.54) (size 1.5 1.5) (drill 1) (layers *.Cu *.Mask))
  (pad 40 thru_hole circle (at 20.32 129.54) (size 1.5 1.5) (drill 1) (layers *.Cu *.Mask))
  (pad 41 thru_hole circle (at 17.78 129.54) (size 1.5 1.5) (drill 1) (layers *.Cu *.Mask))
  (pad 42 thru_hole circle (at 15.24 129.54) (size 1.5 1.5) (drill 1) (layers *.Cu *.Mask))
  (pad 43 thru_hole circle (at 12.7 129.54) (size 1.5 1.5) (drill 1) (layers *.Cu *.Mask))
  (pad 44 thru_hole circle (at 10.16 129.54) (size 1.5 1.5) (drill 1) (layers *.Cu *.Mask))
  (pad 45 thru_hole circle (at 7.62 129.54) (size 1.5 1.5) (drill 1) (layers *.Cu *.Mask))
  (pad 46 thru_hole circle (at 5.08 129.54) (size 1.5 1.5) (drill 1) (layers *.Cu *.Mask))
  (pad 47 thru_hole circle (at 2.54 129.54) (size 1.5 1.5) (drill 1) (layers *.Cu *.Mask))
  (pad 48 thru_hole circle (at 0 129.54) (size 1.5 1.5) (drill 1) (layers *.Cu *.Mask))
  (model ${KIPRJMOD}/kicad_libs_k/models_k.3d/Display_k.3dshapes/EA_eDIPTFT70-ATC_k.wrl
    (at (xyz 0 0 0))
    (scale (xyz 1 1 1))
    (rotate (xyz 0 0 0))
  )
)
