(module EA_eDIPTFT43-ATC (layer F.Cu) (tedit 5A02FE80)
  (descr http://www.lcd-module.com/fileadmin/eng/pdf/grafik/ediptft43-ae.pdf)
  (tags "TFT graphical display 480x272 16-bit colour with LED backlight")
  (fp_text reference REF** (at -19.625 -12.875) (layer F.SilkS)
    (effects (font (size 1 1) (thickness 0.15)))
  )
  (fp_text value EA_eDIPTFT43-ATC (at -14.85 109.325) (layer F.Fab)
    (effects (font (size 1 1) (thickness 0.15)))
  )
  (fp_line (start 53.35 0.74) (end 51 0.74) (layer F.SilkS) (width 0.12))
  (fp_line (start 53.36 0.74) (end 53.36 95.78) (layer F.SilkS) (width 0.12))
  (fp_line (start 53.36 95.78) (end 51 95.78) (layer F.SilkS) (width 0.12))
  (fp_line (start -0.5 94) (end -0.5 2) (layer F.SilkS) (width 0.12))
  (fp_line (start -1 -12.24) (end 5 -12.24) (layer F.SilkS) (width 0.12))
  (fp_line (start -22.12 -11.99) (end 70.38 -11.99) (layer F.CrtYd) (width 0.05))
  (fp_line (start 70.38 -11.99) (end 70.38 108.51) (layer F.CrtYd) (width 0.05))
  (fp_line (start 70.38 108.51) (end -22.12 108.51) (layer F.CrtYd) (width 0.05))
  (fp_line (start -22.12 108.51) (end -22.12 -11.99) (layer F.CrtYd) (width 0.05))
  (fp_line (start -21.99 -11.86) (end 70.25 -11.86) (layer F.SilkS) (width 0.12))
  (fp_line (start 70.25 -11.86) (end 70.25 108.38) (layer F.SilkS) (width 0.12))
  (fp_line (start 70.25 108.38) (end -21.99 108.38) (layer F.SilkS) (width 0.12))
  (fp_line (start -21.99 108.38) (end -21.99 -11.86) (layer F.SilkS) (width 0.12))
  (fp_text user %R (at 25.4 45.72) (layer F.Fab)
    (effects (font (size 1 1) (thickness 0.15)))
  )
  (fp_line (start -21.87 -11.74) (end -1 -11.74) (layer F.Fab) (width 0.1))
  (fp_line (start -1 -11.74) (end 0 -10.74) (layer F.Fab) (width 0.1))
  (fp_line (start 0 -10.74) (end 1 -11.74) (layer F.Fab) (width 0.1))
  (fp_line (start 1 -11.74) (end 70.13 -11.74) (layer F.Fab) (width 0.1))
  (fp_line (start 70.13 -11.74) (end 70.13 108.26) (layer F.Fab) (width 0.1))
  (fp_line (start 70.13 108.26) (end -21.87 108.26) (layer F.Fab) (width 0.1))
  (fp_line (start -21.87 108.26) (end -21.87 -11.74) (layer F.Fab) (width 0.1))
  (pad 1 thru_hole rect (at 0 0) (size 1.524 1.524) (drill 0.7) (layers *.Cu *.Mask))
  (pad 2 thru_hole circle (at 2.54 0) (size 1.524 1.524) (drill 0.7) (layers *.Cu *.Mask))
  (pad 3 thru_hole circle (at 5.08 0) (size 1.524 1.524) (drill 0.7) (layers *.Cu *.Mask))
  (pad 4 thru_hole circle (at 7.62 0) (size 1.524 1.524) (drill 0.7) (layers *.Cu *.Mask))
  (pad 5 thru_hole circle (at 10.16 0) (size 1.524 1.524) (drill 0.7) (layers *.Cu *.Mask))
  (pad 6 thru_hole circle (at 12.7 0) (size 1.524 1.524) (drill 0.7) (layers *.Cu *.Mask))
  (pad 7 thru_hole circle (at 15.24 0) (size 1.524 1.524) (drill 0.7) (layers *.Cu *.Mask))
  (pad 8 thru_hole circle (at 17.78 0) (size 1.524 1.524) (drill 0.7) (layers *.Cu *.Mask))
  (pad 9 thru_hole circle (at 20.32 0) (size 1.524 1.524) (drill 0.7) (layers *.Cu *.Mask))
  (pad 10 thru_hole circle (at 22.86 0) (size 1.524 1.524) (drill 0.7) (layers *.Cu *.Mask))
  (pad 11 thru_hole circle (at 25.4 0) (size 1.524 1.524) (drill 0.7) (layers *.Cu *.Mask))
  (pad 12 thru_hole circle (at 27.94 0) (size 1.524 1.524) (drill 0.7) (layers *.Cu *.Mask))
  (pad 13 thru_hole circle (at 30.48 0) (size 1.524 1.524) (drill 0.7) (layers *.Cu *.Mask))
  (pad 14 thru_hole circle (at 33.02 0) (size 1.524 1.524) (drill 0.7) (layers *.Cu *.Mask))
  (pad 15 thru_hole circle (at 35.56 0) (size 1.524 1.524) (drill 0.7) (layers *.Cu *.Mask))
  (pad 16 thru_hole circle (at 38.1 0) (size 1.524 1.524) (drill 0.7) (layers *.Cu *.Mask))
  (pad 17 thru_hole circle (at 40.64 0) (size 1.524 1.524) (drill 0.7) (layers *.Cu *.Mask))
  (pad 18 thru_hole circle (at 43.18 0) (size 1.524 1.524) (drill 0.7) (layers *.Cu *.Mask))
  (pad 19 thru_hole circle (at 45.72 0) (size 1.524 1.524) (drill 0.7) (layers *.Cu *.Mask))
  (pad 20 thru_hole circle (at 48.26 0) (size 1.524 1.524) (drill 0.7) (layers *.Cu *.Mask))
  (pad 21 thru_hole circle (at 48.26 96.52) (size 1.524 1.524) (drill 0.7) (layers *.Cu *.Mask))
  (pad 22 thru_hole circle (at 45.72 96.52) (size 1.524 1.524) (drill 0.7) (layers *.Cu *.Mask))
  (pad 23 thru_hole circle (at 43.18 96.52) (size 1.524 1.524) (drill 0.7) (layers *.Cu *.Mask))
  (pad 24 thru_hole circle (at 40.64 96.52) (size 1.524 1.524) (drill 0.7) (layers *.Cu *.Mask))
  (pad 25 thru_hole circle (at 38.1 96.52) (size 1.524 1.524) (drill 0.7) (layers *.Cu *.Mask))
  (pad 26 thru_hole circle (at 35.56 96.52) (size 1.524 1.524) (drill 0.7) (layers *.Cu *.Mask))
  (pad 27 thru_hole circle (at 33.02 96.52) (size 1.524 1.524) (drill 0.7) (layers *.Cu *.Mask))
  (pad 28 thru_hole circle (at 30.48 96.52) (size 1.524 1.524) (drill 0.7) (layers *.Cu *.Mask))
  (pad 29 thru_hole circle (at 27.94 96.52) (size 1.524 1.524) (drill 0.7) (layers *.Cu *.Mask))
  (pad 30 thru_hole circle (at 25.4 96.52) (size 1.524 1.524) (drill 0.7) (layers *.Cu *.Mask))
  (pad 31 thru_hole circle (at 22.86 96.52) (size 1.524 1.524) (drill 0.7) (layers *.Cu *.Mask))
  (pad 32 thru_hole circle (at 20.32 96.52) (size 1.524 1.524) (drill 0.7) (layers *.Cu *.Mask))
  (pad 33 thru_hole circle (at 17.78 96.52) (size 1.524 1.524) (drill 0.7) (layers *.Cu *.Mask))
  (pad 34 thru_hole circle (at 15.24 96.52) (size 1.524 1.524) (drill 0.7) (layers *.Cu *.Mask))
  (pad 35 thru_hole circle (at 12.7 96.52) (size 1.524 1.524) (drill 0.7) (layers *.Cu *.Mask))
  (pad 36 thru_hole circle (at 10.16 96.52) (size 1.524 1.524) (drill 0.7) (layers *.Cu *.Mask))
  (pad 37 thru_hole circle (at 7.62 96.52) (size 1.524 1.524) (drill 0.7) (layers *.Cu *.Mask))
  (pad 38 thru_hole circle (at 5.08 96.52) (size 1.524 1.524) (drill 0.7) (layers *.Cu *.Mask))
  (pad 39 thru_hole circle (at 2.54 96.52) (size 1.524 1.524) (drill 0.7) (layers *.Cu *.Mask))
  (pad 40 thru_hole circle (at 0 96.52) (size 1.524 1.524) (drill 0.7) (layers *.Cu *.Mask))
  (model ${KIPRJMOD}/kicad_libs_k/models_k.3d/Display_k.3dshapes/EA_eDIPTFT43-ATC_k.wrl
    (at (xyz 0 0 0))
    (scale (xyz 1 1 1))
    (rotate (xyz 0 0 0))
  )
)
