(module HDSM-541B_HDSM-543B (layer F.Cu) (tedit 5A02FE80)
  (descr "2 digit 7 segement blue LED with right hand decimal, https://docs.broadcom.com/docs/AV02-1588EN")
  (tags "2 digit 7 segement blue LED with right hand decimal")
  (attr smd)
  (fp_text reference REF** (at -9.09 -13.91) (layer F.SilkS)
    (effects (font (size 1 1) (thickness 0.15)))
  )
  (fp_text value HDSM-541B_HDSM-543B (at -0.4 14.1) (layer F.Fab)
    (effects (font (size 1 1) (thickness 0.15)))
  )
  (fp_line (start 9.7 -6.25) (end 9.7 -12.71) (layer F.SilkS) (width 0.12))
  (fp_line (start -9.7 -6.23) (end -9.7 -12.71) (layer F.SilkS) (width 0.12))
  (fp_line (start -11 -6.23) (end -9.7 -6.23) (layer F.SilkS) (width 0.12))
  (fp_line (start -9.7 6.3) (end -9.7 12.71) (layer F.SilkS) (width 0.12))
  (fp_line (start 9.7 6.25) (end 9.7 12.71) (layer F.SilkS) (width 0.12))
  (fp_line (start -11.28 -12.9) (end 11.28 -12.9) (layer F.CrtYd) (width 0.05))
  (fp_line (start 11.28 -12.9) (end 11.28 12.9) (layer F.CrtYd) (width 0.05))
  (fp_line (start 11.28 12.9) (end -11.28 12.9) (layer F.CrtYd) (width 0.05))
  (fp_line (start -11.28 12.9) (end -11.28 -12.9) (layer F.CrtYd) (width 0.05))
  (fp_line (start -9.7 12.71) (end 9.7 12.71) (layer F.SilkS) (width 0.12))
  (fp_line (start -9.7 -12.71) (end 9.7 -12.71) (layer F.SilkS) (width 0.12))
  (fp_text user %R (at 0.5 0.1) (layer F.Fab)
    (effects (font (size 1 1) (thickness 0.15)))
  )
  (fp_line (start 9.5 12.5) (end -9.5 12.5) (layer F.Fab) (width 0.1))
  (fp_line (start -9.5 12.5) (end -9.5 -9.08) (layer F.Fab) (width 0.1))
  (fp_line (start -9.5 -9.08) (end -6.08 -12.5) (layer F.Fab) (width 0.1))
  (fp_line (start -6.08 -12.5) (end 9.5 -12.5) (layer F.Fab) (width 0.1))
  (fp_line (start 9.5 -12.5) (end 9.5 12.5) (layer F.Fab) (width 0.1))
  (pad 1 smd rect (at -9.5 -5.08) (size 3 2) (layers F.Cu F.Paste F.Mask))
  (pad 2 smd rect (at -9.5 -2.54) (size 3 2) (layers F.Cu F.Paste F.Mask))
  (pad 3 smd rect (at -9.5 0) (size 3 2) (layers F.Cu F.Paste F.Mask))
  (pad 4 smd rect (at -9.5 2.54) (size 3 2) (layers F.Cu F.Paste F.Mask))
  (pad 5 smd rect (at -9.5 5.08) (size 3 2) (layers F.Cu F.Paste F.Mask))
  (pad 6 smd rect (at 9.5 5.08) (size 3 2) (layers F.Cu F.Paste F.Mask))
  (pad 7 smd rect (at 9.5 2.54) (size 3 2) (layers F.Cu F.Paste F.Mask))
  (pad 8 smd rect (at 9.5 0) (size 3 2) (layers F.Cu F.Paste F.Mask))
  (pad 9 smd rect (at 9.5 -2.54) (size 3 2) (layers F.Cu F.Paste F.Mask))
  (pad 10 smd rect (at 9.5 -5.08) (size 3 2) (layers F.Cu F.Paste F.Mask))
  (model ${KIPRJMOD}/kicad_libs_k/models_k.3d/Display_k.3dshapes/HDSM-541B_HDSM-543B_k.wrl
    (at (xyz 0 0 0))
    (scale (xyz 1 1 1))
    (rotate (xyz 0 0 0))
  )
)
