(module RC1602A (layer F.Cu) (tedit 5A02FE80)
  (descr http://www.raystar-optronics.com/down.php?ProID=18)
  (tags "LCD 16x2 Alphanumeric 16pin")
  (fp_text reference REF** (at -38.53 -3.41 180) (layer F.SilkS)
    (effects (font (size 1 1) (thickness 0.15)))
  )
  (fp_text value RC1602A (at -37.22 43.58 180) (layer F.Fab)
    (effects (font (size 1 1) (thickness 0.15)))
  )
  (fp_arc (start -38.28 38) (end -39.1 39.11) (angle 90) (layer F.SilkS) (width 0.12))
  (fp_arc (start -38.28 38) (end -39.39 38.82) (angle 90) (layer F.SilkS) (width 0.12))
  (fp_arc (start 40.73 38) (end 41.5 36.89) (angle 90) (layer F.SilkS) (width 0.12))
  (fp_arc (start 40.72 38) (end 41.84 37.21) (angle 90) (layer F.SilkS) (width 0.12))
  (fp_arc (start -38.28 38) (end -37.04 38) (angle 90) (layer F.Fab) (width 0.1))
  (fp_arc (start -38.28 38) (end -38.28 36.76) (angle 90) (layer F.Fab) (width 0.1))
  (fp_arc (start 40.72 38) (end 40.73 39.25) (angle 90) (layer F.Fab) (width 0.1))
  (fp_arc (start 40.72 38) (end 39.47 37.99) (angle 90) (layer F.Fab) (width 0.1))
  (fp_line (start -40.92 39.11) (end -39.1 39.11) (layer F.SilkS) (width 0.12))
  (fp_line (start -40.78 39.25) (end -38.28 39.25) (layer F.Fab) (width 0.1))
  (fp_line (start -40.92 42.14) (end -40.92 39.11) (layer F.SilkS) (width 0.12))
  (fp_line (start -41.03 42.25) (end -41.03 -2.25) (layer F.CrtYd) (width 0.05))
  (fp_line (start -40.78 41.99) (end -40.78 39.25) (layer F.Fab) (width 0.1))
  (fp_line (start -40.92 36.89) (end -39.1 36.89) (layer F.SilkS) (width 0.12))
  (fp_line (start -40.78 36.75) (end -38.28 36.75) (layer F.Fab) (width 0.1))
  (fp_line (start 43.47 42.25) (end 43.47 -2.25) (layer F.CrtYd) (width 0.05))
  (fp_line (start 41.5 39.11) (end 43.36 39.11) (layer F.SilkS) (width 0.12))
  (fp_line (start 43.36 39.11) (end 43.36 42.14) (layer F.SilkS) (width 0.12))
  (fp_line (start 43.36 36.89) (end 41.5 36.89) (layer F.SilkS) (width 0.12))
  (fp_line (start 40.72 39.25) (end 43.22 39.25) (layer F.Fab) (width 0.1))
  (fp_line (start 43.22 36.75) (end 40.72 36.75) (layer F.Fab) (width 0.1))
  (fp_line (start 43.22 39.25) (end 43.22 42) (layer F.Fab) (width 0.1))
  (fp_line (start 43.36 42.14) (end -40.92 42.14) (layer F.SilkS) (width 0.12))
  (fp_line (start -40.92 36.89) (end -40.92 -2.14) (layer F.SilkS) (width 0.12))
  (fp_line (start -40.92 -2.14) (end 43.36 -2.14) (layer F.SilkS) (width 0.12))
  (fp_line (start 43.36 -2.14) (end 43.36 36.89) (layer F.SilkS) (width 0.12))
  (fp_line (start -1.5 -2.5) (end 1.5 -2.5) (layer F.SilkS) (width 0.12))
  (fp_line (start -41.03 42.25) (end 43.47 42.25) (layer F.CrtYd) (width 0.05))
  (fp_line (start -41.03 -2.25) (end 43.47 -2.25) (layer F.CrtYd) (width 0.05))
  (fp_line (start 0 -1) (end 1 -2) (layer F.Fab) (width 0.1))
  (fp_line (start -1 -2) (end 0 -1) (layer F.Fab) (width 0.1))
  (fp_line (start -40.78 -2) (end -1 -2) (layer F.Fab) (width 0.1))
  (fp_text user %R (at 0.185 21.705) (layer F.Fab)
    (effects (font (size 1 1) (thickness 0.15)))
  )
  (fp_line (start 34.03 15) (end 34.03 29) (layer F.SilkS) (width 0.12))
  (fp_line (start -31 14) (end 33 14) (layer F.SilkS) (width 0.12))
  (fp_line (start -32 29) (end -32 15) (layer F.SilkS) (width 0.12))
  (fp_line (start 33 30) (end -31 30) (layer F.SilkS) (width 0.12))
  (fp_arc (start -30.99464 29.02294) (end -30.99464 30.0237) (angle 90) (layer F.SilkS) (width 0.12))
  (fp_arc (start -31.00464 15.00246) (end -32.00286 15.00246) (angle 90) (layer F.SilkS) (width 0.12))
  (fp_arc (start 33.03574 14.99246) (end 33.03574 13.99424) (angle 90) (layer F.SilkS) (width 0.12))
  (fp_arc (start 33.02574 29.00294) (end 34.0265 29.00294) (angle 90) (layer F.SilkS) (width 0.12))
  (fp_line (start 37 34) (end -34 34) (layer F.SilkS) (width 0.12))
  (fp_line (start -34 34) (end -34 9) (layer F.SilkS) (width 0.12))
  (fp_line (start -34 9) (end 37 9) (layer F.SilkS) (width 0.12))
  (fp_line (start 37 9) (end 37 34) (layer F.SilkS) (width 0.12))
  (fp_line (start -40.78 36.75) (end -40.78 -2) (layer F.Fab) (width 0.1))
  (fp_line (start 1 -2) (end 43.22 -2) (layer F.Fab) (width 0.1))
  (fp_line (start 43.22 42) (end -40.78 42) (layer F.Fab) (width 0.1))
  (fp_line (start 43.22 -2) (end 43.22 36.75) (layer F.Fab) (width 0.1))
  (pad 1 thru_hole rect (at 0 0 180) (size 1.8 2.6) (drill 1.2) (layers *.Cu *.Mask))
  (pad 2 thru_hole oval (at 2.54 0 180) (size 1.8 2.6) (drill 1.2) (layers *.Cu *.Mask))
  (pad 3 thru_hole oval (at 5.08 0 180) (size 1.8 2.6) (drill 1.2) (layers *.Cu *.Mask))
  (pad 4 thru_hole oval (at 7.62 0 180) (size 1.8 2.6) (drill 1.2) (layers *.Cu *.Mask))
  (pad 5 thru_hole oval (at 10.16 0 180) (size 1.8 2.6) (drill 1.2) (layers *.Cu *.Mask))
  (pad 6 thru_hole oval (at 12.7 0 180) (size 1.8 2.6) (drill 1.2) (layers *.Cu *.Mask))
  (pad 7 thru_hole oval (at 15.24 0 180) (size 1.8 2.6) (drill 1.2) (layers *.Cu *.Mask))
  (pad 8 thru_hole oval (at 17.78 0 180) (size 1.8 2.6) (drill 1.2) (layers *.Cu *.Mask))
  (pad 9 thru_hole oval (at 20.32 0 180) (size 1.8 2.6) (drill 1.2) (layers *.Cu *.Mask))
  (pad 10 thru_hole oval (at 22.86 0 180) (size 1.8 2.6) (drill 1.2) (layers *.Cu *.Mask))
  (pad 11 thru_hole oval (at 25.4 0 180) (size 1.8 2.6) (drill 1.2) (layers *.Cu *.Mask))
  (pad 12 thru_hole oval (at 27.94 0 180) (size 1.8 2.6) (drill 1.2) (layers *.Cu *.Mask))
  (pad 13 thru_hole oval (at 30.48508 0.00254 180) (size 1.8 2.6) (drill 1.2) (layers *.Cu *.Mask))
  (pad 14 thru_hole oval (at 33.02 0 180) (size 1.8 2.6) (drill 1.2) (layers *.Cu *.Mask))
  (pad 15 thru_hole oval (at -5.08 0 180) (size 1.8 2.6) (drill 1.2) (layers *.Cu *.Mask))
  (pad 16 thru_hole oval (at -2.53492 0.00254 180) (size 1.8 2.6) (drill 1.2) (layers *.Cu *.Mask))
  (pad "" np_thru_hole circle (at 39.22 2 180) (size 2.5 2.5) (drill 2.5) (layers *.Cu *.Mask))
  (pad "" np_thru_hole circle (at 40.72 38 180) (size 2.5 2.5) (drill 2.5) (layers *.Cu *.Mask))
  (pad "" np_thru_hole circle (at -38.28 38 180) (size 2.5 2.5) (drill 2.5) (layers *.Cu *.Mask))
  (pad "" np_thru_hole circle (at -36.78 2 180) (size 2.5 2.5) (drill 2.5) (layers *.Cu *.Mask))
  (pad A1 thru_hole rect (at -39.28 26.68 180) (size 2 2) (drill 1) (layers *.Cu *.Mask))
  (pad A1 thru_hole rect (at -39.28 24.14 180) (size 2 2) (drill 1) (layers *.Cu *.Mask))
  (pad A1 thru_hole rect (at -36.74 24.14 180) (size 2 2) (drill 1) (layers *.Cu *.Mask))
  (pad K1 thru_hole rect (at -36.74 19.06 180) (size 2 2) (drill 1) (layers *.Cu *.Mask))
  (pad K1 thru_hole rect (at -39.28 19.06 180) (size 2 2) (drill 1) (layers *.Cu *.Mask))
  (pad K1 thru_hole rect (at -39.28 16.52 180) (size 2 2) (drill 1) (layers *.Cu *.Mask))
  (model ${KIPRJMOD}/kicad_libs_k/models_k.3d/Display_k.3dshapes/RC1602A_k.wrl
    (at (xyz 0 0 0))
    (scale (xyz 1 1 1))
    (rotate (xyz 0 0 0))
  )
)
