(module PhoenixContact_MCV_1,5_5-GF-5.08_1x05_P5.08mm_Vertical_ThreadedFlange_MountHole (layer F.Cu) (tedit 5A00FA1B)
  (descr "Generic Phoenix Contact connector footprint for: MCV_1,5/5-GF-5.08; number of pins: 05; pin pitch: 5.08mm; Vertical; threaded flange; footprint includes mount hole for mounting screw: ISO 1481-ST 2.2x4.5 C or ISO 7049-ST 2.2x4.5 C (http://www.fasteners.eu/standards/ISO/7049/) || order number: 1847644 8A 320V")
  (tags "phoenix_contact connector MCV_01x05_GF_5.08mm_MH")
  (fp_text reference REF** (at 10.16 -5.35) (layer F.SilkS)
    (effects (font (size 1 1) (thickness 0.15)))
  )
  (fp_text value PhoenixContact_MCV_1,5_5-GF-5.08_1x05_P5.08mm_Vertical_ThreadedFlange_MountHole (at 10.16 3.9) (layer F.Fab)
    (effects (font (size 1 1) (thickness 0.15)))
  )
  (fp_arc (start 0 3.85) (end -0.75 2.15) (angle 47.6) (layer F.SilkS) (width 0.12))
  (fp_arc (start 5.08 3.85) (end 4.33 2.15) (angle 47.6) (layer F.SilkS) (width 0.12))
  (fp_arc (start 10.16 3.85) (end 9.41 2.15) (angle 47.6) (layer F.SilkS) (width 0.12))
  (fp_arc (start 15.24 3.85) (end 14.49 2.15) (angle 47.6) (layer F.SilkS) (width 0.12))
  (fp_arc (start 20.32 3.85) (end 19.57 2.15) (angle 47.6) (layer F.SilkS) (width 0.12))
  (fp_circle (center -4.5 0) (end -2.6 0) (layer F.SilkS) (width 0.12))
  (fp_circle (center 24.82 0) (end 26.72 0) (layer F.SilkS) (width 0.12))
  (fp_circle (center -4.5 0) (end -2.32 0) (layer B.SilkS) (width 0.12))
  (fp_circle (center 24.82 0) (end 27 0) (layer B.SilkS) (width 0.12))
  (fp_circle (center 24.82 0) (end 26.92 0) (layer B.Fab) (width 0.1))
  (fp_circle (center -4.5 0) (end -2.4 0) (layer B.Fab) (width 0.1))
  (fp_circle (center 24.82 0) (end 27.42 0) (layer B.CrtYd) (width 0.05))
  (fp_circle (center -4.5 0) (end -1.9 0) (layer B.CrtYd) (width 0.05))
  (fp_line (start -7.18 2.98) (end 27.5 2.98) (layer F.SilkS) (width 0.12))
  (fp_line (start 27.5 2.98) (end 27.5 -3.18) (layer F.SilkS) (width 0.12))
  (fp_line (start 27.5 -3.18) (end 22.7 -3.18) (layer F.SilkS) (width 0.12))
  (fp_line (start 22.7 -3.18) (end 22.7 -4.43) (layer F.SilkS) (width 0.12))
  (fp_line (start 22.7 -4.43) (end -2.38 -4.43) (layer F.SilkS) (width 0.12))
  (fp_line (start -2.38 -4.43) (end -2.38 -3.18) (layer F.SilkS) (width 0.12))
  (fp_line (start -2.38 -3.18) (end -7.18 -3.18) (layer F.SilkS) (width 0.12))
  (fp_line (start -7.18 -3.18) (end -7.18 2.98) (layer F.SilkS) (width 0.12))
  (fp_line (start -7.1 2.9) (end 27.42 2.9) (layer F.Fab) (width 0.1))
  (fp_line (start 27.42 2.9) (end 27.42 -3.1) (layer F.Fab) (width 0.1))
  (fp_line (start 27.42 -3.1) (end 22.62 -3.1) (layer F.Fab) (width 0.1))
  (fp_line (start 22.62 -3.1) (end 22.62 -4.35) (layer F.Fab) (width 0.1))
  (fp_line (start 22.62 -4.35) (end -2.3 -4.35) (layer F.Fab) (width 0.1))
  (fp_line (start -2.3 -4.35) (end -2.3 -3.1) (layer F.Fab) (width 0.1))
  (fp_line (start -2.3 -3.1) (end -7.1 -3.1) (layer F.Fab) (width 0.1))
  (fp_line (start -7.1 -3.1) (end -7.1 2.9) (layer F.Fab) (width 0.1))
  (fp_line (start -0.75 2.15) (end -1.5 2.15) (layer F.SilkS) (width 0.12))
  (fp_line (start -1.5 2.15) (end -1.5 -2.15) (layer F.SilkS) (width 0.12))
  (fp_line (start -1.5 -2.15) (end -0.75 -2.15) (layer F.SilkS) (width 0.12))
  (fp_line (start -0.75 -2.15) (end -0.75 -2.5) (layer F.SilkS) (width 0.12))
  (fp_line (start -0.75 -2.5) (end -1.25 -2.5) (layer F.SilkS) (width 0.12))
  (fp_line (start -1.25 -2.5) (end -1.5 -3.5) (layer F.SilkS) (width 0.12))
  (fp_line (start -1.5 -3.5) (end 1.5 -3.5) (layer F.SilkS) (width 0.12))
  (fp_line (start 1.5 -3.5) (end 1.25 -2.5) (layer F.SilkS) (width 0.12))
  (fp_line (start 1.25 -2.5) (end 0.75 -2.5) (layer F.SilkS) (width 0.12))
  (fp_line (start 0.75 -2.5) (end 0.75 -2.15) (layer F.SilkS) (width 0.12))
  (fp_line (start 0.75 -2.15) (end 1.5 -2.15) (layer F.SilkS) (width 0.12))
  (fp_line (start 1.5 -2.15) (end 1.5 2.15) (layer F.SilkS) (width 0.12))
  (fp_line (start 1.5 2.15) (end 0.75 2.15) (layer F.SilkS) (width 0.12))
  (fp_line (start 4.33 2.15) (end 3.58 2.15) (layer F.SilkS) (width 0.12))
  (fp_line (start 3.58 2.15) (end 3.58 -2.15) (layer F.SilkS) (width 0.12))
  (fp_line (start 3.58 -2.15) (end 4.33 -2.15) (layer F.SilkS) (width 0.12))
  (fp_line (start 4.33 -2.15) (end 4.33 -2.5) (layer F.SilkS) (width 0.12))
  (fp_line (start 4.33 -2.5) (end 3.83 -2.5) (layer F.SilkS) (width 0.12))
  (fp_line (start 3.83 -2.5) (end 3.58 -3.5) (layer F.SilkS) (width 0.12))
  (fp_line (start 3.58 -3.5) (end 6.58 -3.5) (layer F.SilkS) (width 0.12))
  (fp_line (start 6.58 -3.5) (end 6.33 -2.5) (layer F.SilkS) (width 0.12))
  (fp_line (start 6.33 -2.5) (end 5.83 -2.5) (layer F.SilkS) (width 0.12))
  (fp_line (start 5.83 -2.5) (end 5.83 -2.15) (layer F.SilkS) (width 0.12))
  (fp_line (start 5.83 -2.15) (end 6.58 -2.15) (layer F.SilkS) (width 0.12))
  (fp_line (start 6.58 -2.15) (end 6.58 2.15) (layer F.SilkS) (width 0.12))
  (fp_line (start 6.58 2.15) (end 5.83 2.15) (layer F.SilkS) (width 0.12))
  (fp_line (start 9.41 2.15) (end 8.66 2.15) (layer F.SilkS) (width 0.12))
  (fp_line (start 8.66 2.15) (end 8.66 -2.15) (layer F.SilkS) (width 0.12))
  (fp_line (start 8.66 -2.15) (end 9.41 -2.15) (layer F.SilkS) (width 0.12))
  (fp_line (start 9.41 -2.15) (end 9.41 -2.5) (layer F.SilkS) (width 0.12))
  (fp_line (start 9.41 -2.5) (end 8.91 -2.5) (layer F.SilkS) (width 0.12))
  (fp_line (start 8.91 -2.5) (end 8.66 -3.5) (layer F.SilkS) (width 0.12))
  (fp_line (start 8.66 -3.5) (end 11.66 -3.5) (layer F.SilkS) (width 0.12))
  (fp_line (start 11.66 -3.5) (end 11.41 -2.5) (layer F.SilkS) (width 0.12))
  (fp_line (start 11.41 -2.5) (end 10.91 -2.5) (layer F.SilkS) (width 0.12))
  (fp_line (start 10.91 -2.5) (end 10.91 -2.15) (layer F.SilkS) (width 0.12))
  (fp_line (start 10.91 -2.15) (end 11.66 -2.15) (layer F.SilkS) (width 0.12))
  (fp_line (start 11.66 -2.15) (end 11.66 2.15) (layer F.SilkS) (width 0.12))
  (fp_line (start 11.66 2.15) (end 10.91 2.15) (layer F.SilkS) (width 0.12))
  (fp_line (start 14.49 2.15) (end 13.74 2.15) (layer F.SilkS) (width 0.12))
  (fp_line (start 13.74 2.15) (end 13.74 -2.15) (layer F.SilkS) (width 0.12))
  (fp_line (start 13.74 -2.15) (end 14.49 -2.15) (layer F.SilkS) (width 0.12))
  (fp_line (start 14.49 -2.15) (end 14.49 -2.5) (layer F.SilkS) (width 0.12))
  (fp_line (start 14.49 -2.5) (end 13.99 -2.5) (layer F.SilkS) (width 0.12))
  (fp_line (start 13.99 -2.5) (end 13.74 -3.5) (layer F.SilkS) (width 0.12))
  (fp_line (start 13.74 -3.5) (end 16.74 -3.5) (layer F.SilkS) (width 0.12))
  (fp_line (start 16.74 -3.5) (end 16.49 -2.5) (layer F.SilkS) (width 0.12))
  (fp_line (start 16.49 -2.5) (end 15.99 -2.5) (layer F.SilkS) (width 0.12))
  (fp_line (start 15.99 -2.5) (end 15.99 -2.15) (layer F.SilkS) (width 0.12))
  (fp_line (start 15.99 -2.15) (end 16.74 -2.15) (layer F.SilkS) (width 0.12))
  (fp_line (start 16.74 -2.15) (end 16.74 2.15) (layer F.SilkS) (width 0.12))
  (fp_line (start 16.74 2.15) (end 15.99 2.15) (layer F.SilkS) (width 0.12))
  (fp_line (start 19.57 2.15) (end 18.82 2.15) (layer F.SilkS) (width 0.12))
  (fp_line (start 18.82 2.15) (end 18.82 -2.15) (layer F.SilkS) (width 0.12))
  (fp_line (start 18.82 -2.15) (end 19.57 -2.15) (layer F.SilkS) (width 0.12))
  (fp_line (start 19.57 -2.15) (end 19.57 -2.5) (layer F.SilkS) (width 0.12))
  (fp_line (start 19.57 -2.5) (end 19.07 -2.5) (layer F.SilkS) (width 0.12))
  (fp_line (start 19.07 -2.5) (end 18.82 -3.5) (layer F.SilkS) (width 0.12))
  (fp_line (start 18.82 -3.5) (end 21.82 -3.5) (layer F.SilkS) (width 0.12))
  (fp_line (start 21.82 -3.5) (end 21.57 -2.5) (layer F.SilkS) (width 0.12))
  (fp_line (start 21.57 -2.5) (end 21.07 -2.5) (layer F.SilkS) (width 0.12))
  (fp_line (start 21.07 -2.5) (end 21.07 -2.15) (layer F.SilkS) (width 0.12))
  (fp_line (start 21.07 -2.15) (end 21.82 -2.15) (layer F.SilkS) (width 0.12))
  (fp_line (start 21.82 -2.15) (end 21.82 2.15) (layer F.SilkS) (width 0.12))
  (fp_line (start 21.82 2.15) (end 21.07 2.15) (layer F.SilkS) (width 0.12))
  (fp_line (start -7.6 -4.85) (end -7.6 3.4) (layer F.CrtYd) (width 0.05))
  (fp_line (start -7.6 3.4) (end 27.92 3.4) (layer F.CrtYd) (width 0.05))
  (fp_line (start 27.92 3.4) (end 27.92 -4.85) (layer F.CrtYd) (width 0.05))
  (fp_line (start 27.92 -4.85) (end -7.6 -4.85) (layer F.CrtYd) (width 0.05))
  (fp_line (start -2.8 -3.6) (end -2.8 -4.85) (layer F.SilkS) (width 0.12))
  (fp_line (start -2.8 -4.85) (end -0.8 -4.85) (layer F.SilkS) (width 0.12))
  (fp_line (start -2.8 -3.6) (end -2.8 -4.85) (layer F.Fab) (width 0.1))
  (fp_line (start -2.8 -4.85) (end -0.8 -4.85) (layer F.Fab) (width 0.1))
  (pad 1 thru_hole rect (at 0 0) (size 1.8 3.6) (drill 1.2) (layers *.Cu *.Mask))
  (pad 2 thru_hole oval (at 5.08 0) (size 1.8 3.6) (drill 1.2) (layers *.Cu *.Mask))
  (pad 3 thru_hole oval (at 10.16 0) (size 1.8 3.6) (drill 1.2) (layers *.Cu *.Mask))
  (pad 4 thru_hole oval (at 15.24 0) (size 1.8 3.6) (drill 1.2) (layers *.Cu *.Mask))
  (pad 5 thru_hole oval (at 20.32 0) (size 1.8 3.6) (drill 1.2) (layers *.Cu *.Mask))
  (pad "" np_thru_hole circle (at -4.5 0) (size 2.4 2.4) (drill 2.4) (layers *.Cu *.Mask))
  (pad "" np_thru_hole circle (at 24.82 0) (size 2.4 2.4) (drill 2.4) (layers *.Cu *.Mask))
  (fp_text user %R (at 10.16 -3) (layer F.Fab)
    (effects (font (size 1 1) (thickness 0.15)))
  )
  (model ${KIPRJMOD}/kicad_libs_k/models_k.3d/Connector_Phoenix_MC_HighVoltage_k.3dshapes/PhoenixContact_MCV_1,5_5-GF-5.08_1x05_P5.08mm_Vertical_ThreadedFlange_MountHole_k.wrl
    (at (xyz 0 0 0))
    (scale (xyz 1 1 1))
    (rotate (xyz 0 0 0))
  )
)