(module PhoenixContact_MC_1,5_5-GF-5.08_1x05_P5.08mm_Horizontal_ThreadedFlange (layer F.Cu) (tedit 5A00FA1B)
  (descr "Generic Phoenix Contact connector footprint for: MC_1,5/5-GF-5.08; number of pins: 05; pin pitch: 5.08mm; Angled; threaded flange || order number: 1847495 8A 320V")
  (tags "phoenix_contact connector MC_01x05_GF_5.08mm")
  (fp_text reference REF** (at 10.16 -2.8) (layer F.SilkS)
    (effects (font (size 1 1) (thickness 0.15)))
  )
  (fp_text value PhoenixContact_MC_1,5_5-GF-5.08_1x05_P5.08mm_Horizontal_ThreadedFlange (at 10.16 9) (layer F.Fab)
    (effects (font (size 1 1) (thickness 0.15)))
  )
  (fp_line (start -7.18 -1.28) (end -7.18 8.08) (layer F.SilkS) (width 0.12))
  (fp_line (start -7.18 8.08) (end 27.5 8.08) (layer F.SilkS) (width 0.12))
  (fp_line (start 27.5 8.08) (end 27.5 -1.28) (layer F.SilkS) (width 0.12))
  (fp_line (start -7.18 -1.28) (end -1.05 -1.28) (layer F.SilkS) (width 0.12))
  (fp_line (start 27.5 -1.28) (end 21.37 -1.28) (layer F.SilkS) (width 0.12))
  (fp_line (start 1.05 -1.28) (end 4.03 -1.28) (layer F.SilkS) (width 0.12))
  (fp_line (start 6.13 -1.28) (end 9.11 -1.28) (layer F.SilkS) (width 0.12))
  (fp_line (start 11.21 -1.28) (end 14.19 -1.28) (layer F.SilkS) (width 0.12))
  (fp_line (start 16.29 -1.28) (end 19.27 -1.28) (layer F.SilkS) (width 0.12))
  (fp_line (start -7.1 -1.2) (end -7.1 8) (layer F.Fab) (width 0.1))
  (fp_line (start -7.1 8) (end 27.42 8) (layer F.Fab) (width 0.1))
  (fp_line (start 27.42 8) (end 27.42 -1.2) (layer F.Fab) (width 0.1))
  (fp_line (start 27.42 -1.2) (end -7.1 -1.2) (layer F.Fab) (width 0.1))
  (fp_line (start -2.38 4.8) (end 22.7 4.8) (layer F.SilkS) (width 0.12))
  (fp_line (start -2.38 -1.28) (end -2.38 8.08) (layer F.SilkS) (width 0.12))
  (fp_line (start 22.7 -1.28) (end 22.7 8.08) (layer F.SilkS) (width 0.12))
  (fp_line (start -7.68 -2.3) (end -7.68 8.5) (layer F.CrtYd) (width 0.05))
  (fp_line (start -7.68 8.5) (end 27.92 8.5) (layer F.CrtYd) (width 0.05))
  (fp_line (start 27.92 8.5) (end 27.92 -2.3) (layer F.CrtYd) (width 0.05))
  (fp_line (start 27.92 -2.3) (end -7.68 -2.3) (layer F.CrtYd) (width 0.05))
  (fp_line (start 0.3 -2.6) (end 0 -2) (layer F.SilkS) (width 0.12))
  (fp_line (start 0 -2) (end -0.3 -2.6) (layer F.SilkS) (width 0.12))
  (fp_line (start -0.3 -2.6) (end 0.3 -2.6) (layer F.SilkS) (width 0.12))
  (fp_line (start 0.8 -1.2) (end 0 0) (layer F.Fab) (width 0.1))
  (fp_line (start 0 0) (end -0.8 -1.2) (layer F.Fab) (width 0.1))
  (pad 1 thru_hole rect (at 0 0) (size 1.8 3.6) (drill 1.2) (layers *.Cu *.Mask))
  (pad 2 thru_hole oval (at 5.08 0) (size 1.8 3.6) (drill 1.2) (layers *.Cu *.Mask))
  (pad 3 thru_hole oval (at 10.16 0) (size 1.8 3.6) (drill 1.2) (layers *.Cu *.Mask))
  (pad 4 thru_hole oval (at 15.24 0) (size 1.8 3.6) (drill 1.2) (layers *.Cu *.Mask))
  (pad 5 thru_hole oval (at 20.32 0) (size 1.8 3.6) (drill 1.2) (layers *.Cu *.Mask))
  (fp_text user %R (at 10.16 3) (layer F.Fab)
    (effects (font (size 1 1) (thickness 0.15)))
  )
  (model ${KIPRJMOD}/kicad_libs_k/models_k.3d/Connector_Phoenix_MC_HighVoltage_k.3dshapes/PhoenixContact_MC_1,5_5-GF-5.08_1x05_P5.08mm_Horizontal_ThreadedFlange_k.wrl
    (at (xyz 0 0 0))
    (scale (xyz 1 1 1))
    (rotate (xyz 0 0 0))
  )
)