(module PhoenixContact_MCV_1,5_10-G-5.08_1x10_P5.08mm_Vertical (layer F.Cu) (tedit 5A00FA1B)
  (descr "Generic Phoenix Contact connector footprint for: MCV_1,5/10-G-5.08; number of pins: 10; pin pitch: 5.08mm; Vertical || order number: 1836370 8A 320V")
  (tags "phoenix_contact connector MCV_01x10_G_5.08mm")
  (fp_text reference REF** (at 22.86 -5.35) (layer F.SilkS)
    (effects (font (size 1 1) (thickness 0.15)))
  )
  (fp_text value PhoenixContact_MCV_1,5_10-G-5.08_1x10_P5.08mm_Vertical (at 22.86 3.9) (layer F.Fab)
    (effects (font (size 1 1) (thickness 0.15)))
  )
  (fp_arc (start 0 3.85) (end -0.75 2.15) (angle 47.6) (layer F.SilkS) (width 0.12))
  (fp_arc (start 5.08 3.85) (end 4.33 2.15) (angle 47.6) (layer F.SilkS) (width 0.12))
  (fp_arc (start 10.16 3.85) (end 9.41 2.15) (angle 47.6) (layer F.SilkS) (width 0.12))
  (fp_arc (start 15.24 3.85) (end 14.49 2.15) (angle 47.6) (layer F.SilkS) (width 0.12))
  (fp_arc (start 20.32 3.85) (end 19.57 2.15) (angle 47.6) (layer F.SilkS) (width 0.12))
  (fp_arc (start 25.4 3.85) (end 24.65 2.15) (angle 47.6) (layer F.SilkS) (width 0.12))
  (fp_arc (start 30.48 3.85) (end 29.73 2.15) (angle 47.6) (layer F.SilkS) (width 0.12))
  (fp_arc (start 35.56 3.85) (end 34.81 2.15) (angle 47.6) (layer F.SilkS) (width 0.12))
  (fp_arc (start 40.64 3.85) (end 39.89 2.15) (angle 47.6) (layer F.SilkS) (width 0.12))
  (fp_arc (start 45.72 3.85) (end 44.97 2.15) (angle 47.6) (layer F.SilkS) (width 0.12))
  (fp_line (start -2.62 -4.43) (end -2.62 2.98) (layer F.SilkS) (width 0.12))
  (fp_line (start -2.62 2.98) (end 48.34 2.98) (layer F.SilkS) (width 0.12))
  (fp_line (start 48.34 2.98) (end 48.34 -4.43) (layer F.SilkS) (width 0.12))
  (fp_line (start 48.34 -4.43) (end -2.62 -4.43) (layer F.SilkS) (width 0.12))
  (fp_line (start -2.54 -4.35) (end -2.54 2.9) (layer F.Fab) (width 0.1))
  (fp_line (start -2.54 2.9) (end 48.26 2.9) (layer F.Fab) (width 0.1))
  (fp_line (start 48.26 2.9) (end 48.26 -4.35) (layer F.Fab) (width 0.1))
  (fp_line (start 48.26 -4.35) (end -2.54 -4.35) (layer F.Fab) (width 0.1))
  (fp_line (start -0.75 2.15) (end -1.5 2.15) (layer F.SilkS) (width 0.12))
  (fp_line (start -1.5 2.15) (end -1.5 -2.15) (layer F.SilkS) (width 0.12))
  (fp_line (start -1.5 -2.15) (end -0.75 -2.15) (layer F.SilkS) (width 0.12))
  (fp_line (start -0.75 -2.15) (end -0.75 -2.5) (layer F.SilkS) (width 0.12))
  (fp_line (start -0.75 -2.5) (end -1.25 -2.5) (layer F.SilkS) (width 0.12))
  (fp_line (start -1.25 -2.5) (end -1.5 -3.5) (layer F.SilkS) (width 0.12))
  (fp_line (start -1.5 -3.5) (end 1.5 -3.5) (layer F.SilkS) (width 0.12))
  (fp_line (start 1.5 -3.5) (end 1.25 -2.5) (layer F.SilkS) (width 0.12))
  (fp_line (start 1.25 -2.5) (end 0.75 -2.5) (layer F.SilkS) (width 0.12))
  (fp_line (start 0.75 -2.5) (end 0.75 -2.15) (layer F.SilkS) (width 0.12))
  (fp_line (start 0.75 -2.15) (end 1.5 -2.15) (layer F.SilkS) (width 0.12))
  (fp_line (start 1.5 -2.15) (end 1.5 2.15) (layer F.SilkS) (width 0.12))
  (fp_line (start 1.5 2.15) (end 0.75 2.15) (layer F.SilkS) (width 0.12))
  (fp_line (start 4.33 2.15) (end 3.58 2.15) (layer F.SilkS) (width 0.12))
  (fp_line (start 3.58 2.15) (end 3.58 -2.15) (layer F.SilkS) (width 0.12))
  (fp_line (start 3.58 -2.15) (end 4.33 -2.15) (layer F.SilkS) (width 0.12))
  (fp_line (start 4.33 -2.15) (end 4.33 -2.5) (layer F.SilkS) (width 0.12))
  (fp_line (start 4.33 -2.5) (end 3.83 -2.5) (layer F.SilkS) (width 0.12))
  (fp_line (start 3.83 -2.5) (end 3.58 -3.5) (layer F.SilkS) (width 0.12))
  (fp_line (start 3.58 -3.5) (end 6.58 -3.5) (layer F.SilkS) (width 0.12))
  (fp_line (start 6.58 -3.5) (end 6.33 -2.5) (layer F.SilkS) (width 0.12))
  (fp_line (start 6.33 -2.5) (end 5.83 -2.5) (layer F.SilkS) (width 0.12))
  (fp_line (start 5.83 -2.5) (end 5.83 -2.15) (layer F.SilkS) (width 0.12))
  (fp_line (start 5.83 -2.15) (end 6.58 -2.15) (layer F.SilkS) (width 0.12))
  (fp_line (start 6.58 -2.15) (end 6.58 2.15) (layer F.SilkS) (width 0.12))
  (fp_line (start 6.58 2.15) (end 5.83 2.15) (layer F.SilkS) (width 0.12))
  (fp_line (start 9.41 2.15) (end 8.66 2.15) (layer F.SilkS) (width 0.12))
  (fp_line (start 8.66 2.15) (end 8.66 -2.15) (layer F.SilkS) (width 0.12))
  (fp_line (start 8.66 -2.15) (end 9.41 -2.15) (layer F.SilkS) (width 0.12))
  (fp_line (start 9.41 -2.15) (end 9.41 -2.5) (layer F.SilkS) (width 0.12))
  (fp_line (start 9.41 -2.5) (end 8.91 -2.5) (layer F.SilkS) (width 0.12))
  (fp_line (start 8.91 -2.5) (end 8.66 -3.5) (layer F.SilkS) (width 0.12))
  (fp_line (start 8.66 -3.5) (end 11.66 -3.5) (layer F.SilkS) (width 0.12))
  (fp_line (start 11.66 -3.5) (end 11.41 -2.5) (layer F.SilkS) (width 0.12))
  (fp_line (start 11.41 -2.5) (end 10.91 -2.5) (layer F.SilkS) (width 0.12))
  (fp_line (start 10.91 -2.5) (end 10.91 -2.15) (layer F.SilkS) (width 0.12))
  (fp_line (start 10.91 -2.15) (end 11.66 -2.15) (layer F.SilkS) (width 0.12))
  (fp_line (start 11.66 -2.15) (end 11.66 2.15) (layer F.SilkS) (width 0.12))
  (fp_line (start 11.66 2.15) (end 10.91 2.15) (layer F.SilkS) (width 0.12))
  (fp_line (start 14.49 2.15) (end 13.74 2.15) (layer F.SilkS) (width 0.12))
  (fp_line (start 13.74 2.15) (end 13.74 -2.15) (layer F.SilkS) (width 0.12))
  (fp_line (start 13.74 -2.15) (end 14.49 -2.15) (layer F.SilkS) (width 0.12))
  (fp_line (start 14.49 -2.15) (end 14.49 -2.5) (layer F.SilkS) (width 0.12))
  (fp_line (start 14.49 -2.5) (end 13.99 -2.5) (layer F.SilkS) (width 0.12))
  (fp_line (start 13.99 -2.5) (end 13.74 -3.5) (layer F.SilkS) (width 0.12))
  (fp_line (start 13.74 -3.5) (end 16.74 -3.5) (layer F.SilkS) (width 0.12))
  (fp_line (start 16.74 -3.5) (end 16.49 -2.5) (layer F.SilkS) (width 0.12))
  (fp_line (start 16.49 -2.5) (end 15.99 -2.5) (layer F.SilkS) (width 0.12))
  (fp_line (start 15.99 -2.5) (end 15.99 -2.15) (layer F.SilkS) (width 0.12))
  (fp_line (start 15.99 -2.15) (end 16.74 -2.15) (layer F.SilkS) (width 0.12))
  (fp_line (start 16.74 -2.15) (end 16.74 2.15) (layer F.SilkS) (width 0.12))
  (fp_line (start 16.74 2.15) (end 15.99 2.15) (layer F.SilkS) (width 0.12))
  (fp_line (start 19.57 2.15) (end 18.82 2.15) (layer F.SilkS) (width 0.12))
  (fp_line (start 18.82 2.15) (end 18.82 -2.15) (layer F.SilkS) (width 0.12))
  (fp_line (start 18.82 -2.15) (end 19.57 -2.15) (layer F.SilkS) (width 0.12))
  (fp_line (start 19.57 -2.15) (end 19.57 -2.5) (layer F.SilkS) (width 0.12))
  (fp_line (start 19.57 -2.5) (end 19.07 -2.5) (layer F.SilkS) (width 0.12))
  (fp_line (start 19.07 -2.5) (end 18.82 -3.5) (layer F.SilkS) (width 0.12))
  (fp_line (start 18.82 -3.5) (end 21.82 -3.5) (layer F.SilkS) (width 0.12))
  (fp_line (start 21.82 -3.5) (end 21.57 -2.5) (layer F.SilkS) (width 0.12))
  (fp_line (start 21.57 -2.5) (end 21.07 -2.5) (layer F.SilkS) (width 0.12))
  (fp_line (start 21.07 -2.5) (end 21.07 -2.15) (layer F.SilkS) (width 0.12))
  (fp_line (start 21.07 -2.15) (end 21.82 -2.15) (layer F.SilkS) (width 0.12))
  (fp_line (start 21.82 -2.15) (end 21.82 2.15) (layer F.SilkS) (width 0.12))
  (fp_line (start 21.82 2.15) (end 21.07 2.15) (layer F.SilkS) (width 0.12))
  (fp_line (start 24.65 2.15) (end 23.9 2.15) (layer F.SilkS) (width 0.12))
  (fp_line (start 23.9 2.15) (end 23.9 -2.15) (layer F.SilkS) (width 0.12))
  (fp_line (start 23.9 -2.15) (end 24.65 -2.15) (layer F.SilkS) (width 0.12))
  (fp_line (start 24.65 -2.15) (end 24.65 -2.5) (layer F.SilkS) (width 0.12))
  (fp_line (start 24.65 -2.5) (end 24.15 -2.5) (layer F.SilkS) (width 0.12))
  (fp_line (start 24.15 -2.5) (end 23.9 -3.5) (layer F.SilkS) (width 0.12))
  (fp_line (start 23.9 -3.5) (end 26.9 -3.5) (layer F.SilkS) (width 0.12))
  (fp_line (start 26.9 -3.5) (end 26.65 -2.5) (layer F.SilkS) (width 0.12))
  (fp_line (start 26.65 -2.5) (end 26.15 -2.5) (layer F.SilkS) (width 0.12))
  (fp_line (start 26.15 -2.5) (end 26.15 -2.15) (layer F.SilkS) (width 0.12))
  (fp_line (start 26.15 -2.15) (end 26.9 -2.15) (layer F.SilkS) (width 0.12))
  (fp_line (start 26.9 -2.15) (end 26.9 2.15) (layer F.SilkS) (width 0.12))
  (fp_line (start 26.9 2.15) (end 26.15 2.15) (layer F.SilkS) (width 0.12))
  (fp_line (start 29.73 2.15) (end 28.98 2.15) (layer F.SilkS) (width 0.12))
  (fp_line (start 28.98 2.15) (end 28.98 -2.15) (layer F.SilkS) (width 0.12))
  (fp_line (start 28.98 -2.15) (end 29.73 -2.15) (layer F.SilkS) (width 0.12))
  (fp_line (start 29.73 -2.15) (end 29.73 -2.5) (layer F.SilkS) (width 0.12))
  (fp_line (start 29.73 -2.5) (end 29.23 -2.5) (layer F.SilkS) (width 0.12))
  (fp_line (start 29.23 -2.5) (end 28.98 -3.5) (layer F.SilkS) (width 0.12))
  (fp_line (start 28.98 -3.5) (end 31.98 -3.5) (layer F.SilkS) (width 0.12))
  (fp_line (start 31.98 -3.5) (end 31.73 -2.5) (layer F.SilkS) (width 0.12))
  (fp_line (start 31.73 -2.5) (end 31.23 -2.5) (layer F.SilkS) (width 0.12))
  (fp_line (start 31.23 -2.5) (end 31.23 -2.15) (layer F.SilkS) (width 0.12))
  (fp_line (start 31.23 -2.15) (end 31.98 -2.15) (layer F.SilkS) (width 0.12))
  (fp_line (start 31.98 -2.15) (end 31.98 2.15) (layer F.SilkS) (width 0.12))
  (fp_line (start 31.98 2.15) (end 31.23 2.15) (layer F.SilkS) (width 0.12))
  (fp_line (start 34.81 2.15) (end 34.06 2.15) (layer F.SilkS) (width 0.12))
  (fp_line (start 34.06 2.15) (end 34.06 -2.15) (layer F.SilkS) (width 0.12))
  (fp_line (start 34.06 -2.15) (end 34.81 -2.15) (layer F.SilkS) (width 0.12))
  (fp_line (start 34.81 -2.15) (end 34.81 -2.5) (layer F.SilkS) (width 0.12))
  (fp_line (start 34.81 -2.5) (end 34.31 -2.5) (layer F.SilkS) (width 0.12))
  (fp_line (start 34.31 -2.5) (end 34.06 -3.5) (layer F.SilkS) (width 0.12))
  (fp_line (start 34.06 -3.5) (end 37.06 -3.5) (layer F.SilkS) (width 0.12))
  (fp_line (start 37.06 -3.5) (end 36.81 -2.5) (layer F.SilkS) (width 0.12))
  (fp_line (start 36.81 -2.5) (end 36.31 -2.5) (layer F.SilkS) (width 0.12))
  (fp_line (start 36.31 -2.5) (end 36.31 -2.15) (layer F.SilkS) (width 0.12))
  (fp_line (start 36.31 -2.15) (end 37.06 -2.15) (layer F.SilkS) (width 0.12))
  (fp_line (start 37.06 -2.15) (end 37.06 2.15) (layer F.SilkS) (width 0.12))
  (fp_line (start 37.06 2.15) (end 36.31 2.15) (layer F.SilkS) (width 0.12))
  (fp_line (start 39.89 2.15) (end 39.14 2.15) (layer F.SilkS) (width 0.12))
  (fp_line (start 39.14 2.15) (end 39.14 -2.15) (layer F.SilkS) (width 0.12))
  (fp_line (start 39.14 -2.15) (end 39.89 -2.15) (layer F.SilkS) (width 0.12))
  (fp_line (start 39.89 -2.15) (end 39.89 -2.5) (layer F.SilkS) (width 0.12))
  (fp_line (start 39.89 -2.5) (end 39.39 -2.5) (layer F.SilkS) (width 0.12))
  (fp_line (start 39.39 -2.5) (end 39.14 -3.5) (layer F.SilkS) (width 0.12))
  (fp_line (start 39.14 -3.5) (end 42.14 -3.5) (layer F.SilkS) (width 0.12))
  (fp_line (start 42.14 -3.5) (end 41.89 -2.5) (layer F.SilkS) (width 0.12))
  (fp_line (start 41.89 -2.5) (end 41.39 -2.5) (layer F.SilkS) (width 0.12))
  (fp_line (start 41.39 -2.5) (end 41.39 -2.15) (layer F.SilkS) (width 0.12))
  (fp_line (start 41.39 -2.15) (end 42.14 -2.15) (layer F.SilkS) (width 0.12))
  (fp_line (start 42.14 -2.15) (end 42.14 2.15) (layer F.SilkS) (width 0.12))
  (fp_line (start 42.14 2.15) (end 41.39 2.15) (layer F.SilkS) (width 0.12))
  (fp_line (start 44.97 2.15) (end 44.22 2.15) (layer F.SilkS) (width 0.12))
  (fp_line (start 44.22 2.15) (end 44.22 -2.15) (layer F.SilkS) (width 0.12))
  (fp_line (start 44.22 -2.15) (end 44.97 -2.15) (layer F.SilkS) (width 0.12))
  (fp_line (start 44.97 -2.15) (end 44.97 -2.5) (layer F.SilkS) (width 0.12))
  (fp_line (start 44.97 -2.5) (end 44.47 -2.5) (layer F.SilkS) (width 0.12))
  (fp_line (start 44.47 -2.5) (end 44.22 -3.5) (layer F.SilkS) (width 0.12))
  (fp_line (start 44.22 -3.5) (end 47.22 -3.5) (layer F.SilkS) (width 0.12))
  (fp_line (start 47.22 -3.5) (end 46.97 -2.5) (layer F.SilkS) (width 0.12))
  (fp_line (start 46.97 -2.5) (end 46.47 -2.5) (layer F.SilkS) (width 0.12))
  (fp_line (start 46.47 -2.5) (end 46.47 -2.15) (layer F.SilkS) (width 0.12))
  (fp_line (start 46.47 -2.15) (end 47.22 -2.15) (layer F.SilkS) (width 0.12))
  (fp_line (start 47.22 -2.15) (end 47.22 2.15) (layer F.SilkS) (width 0.12))
  (fp_line (start 47.22 2.15) (end 46.47 2.15) (layer F.SilkS) (width 0.12))
  (fp_line (start -3.04 -4.85) (end -3.04 3.4) (layer F.CrtYd) (width 0.05))
  (fp_line (start -3.04 3.4) (end 48.76 3.4) (layer F.CrtYd) (width 0.05))
  (fp_line (start 48.76 3.4) (end 48.76 -4.85) (layer F.CrtYd) (width 0.05))
  (fp_line (start 48.76 -4.85) (end -3.04 -4.85) (layer F.CrtYd) (width 0.05))
  (fp_line (start -3.04 -3.6) (end -3.04 -4.85) (layer F.SilkS) (width 0.12))
  (fp_line (start -3.04 -4.85) (end -1.04 -4.85) (layer F.SilkS) (width 0.12))
  (fp_line (start -3.04 -3.6) (end -3.04 -4.85) (layer F.Fab) (width 0.1))
  (fp_line (start -3.04 -4.85) (end -1.04 -4.85) (layer F.Fab) (width 0.1))
  (pad 1 thru_hole rect (at 0 0) (size 1.8 3.6) (drill 1.2) (layers *.Cu *.Mask))
  (pad 2 thru_hole oval (at 5.08 0) (size 1.8 3.6) (drill 1.2) (layers *.Cu *.Mask))
  (pad 3 thru_hole oval (at 10.16 0) (size 1.8 3.6) (drill 1.2) (layers *.Cu *.Mask))
  (pad 4 thru_hole oval (at 15.24 0) (size 1.8 3.6) (drill 1.2) (layers *.Cu *.Mask))
  (pad 5 thru_hole oval (at 20.32 0) (size 1.8 3.6) (drill 1.2) (layers *.Cu *.Mask))
  (pad 6 thru_hole oval (at 25.4 0) (size 1.8 3.6) (drill 1.2) (layers *.Cu *.Mask))
  (pad 7 thru_hole oval (at 30.48 0) (size 1.8 3.6) (drill 1.2) (layers *.Cu *.Mask))
  (pad 8 thru_hole oval (at 35.56 0) (size 1.8 3.6) (drill 1.2) (layers *.Cu *.Mask))
  (pad 9 thru_hole oval (at 40.64 0) (size 1.8 3.6) (drill 1.2) (layers *.Cu *.Mask))
  (pad 10 thru_hole oval (at 45.72 0) (size 1.8 3.6) (drill 1.2) (layers *.Cu *.Mask))
  (fp_text user %R (at 22.86 -3) (layer F.Fab)
    (effects (font (size 1 1) (thickness 0.15)))
  )
  (model ${KIPRJMOD}/kicad_libs_k/models_k.3d/Connector_Phoenix_MC_HighVoltage_k.3dshapes/PhoenixContact_MCV_1,5_10-G-5.08_1x10_P5.08mm_Vertical_k.wrl
    (at (xyz 0 0 0))
    (scale (xyz 1 1 1))
    (rotate (xyz 0 0 0))
  )
)