(module PhoenixContact_MCV_1,5_3-GF-5.08_1x03_P5.08mm_Vertical_ThreadedFlange (layer F.Cu) (tedit 5A00FA1B)
  (descr "Generic Phoenix Contact connector footprint for: MCV_1,5/3-GF-5.08; number of pins: 03; pin pitch: 5.08mm; Vertical; threaded flange || order number: 1847628 8A 320V")
  (tags "phoenix_contact connector MCV_01x03_GF_5.08mm")
  (fp_text reference REF** (at 5.08 -5.35) (layer F.SilkS)
    (effects (font (size 1 1) (thickness 0.15)))
  )
  (fp_text value PhoenixContact_MCV_1,5_3-GF-5.08_1x03_P5.08mm_Vertical_ThreadedFlange (at 5.08 3.9) (layer F.Fab)
    (effects (font (size 1 1) (thickness 0.15)))
  )
  (fp_arc (start 0 3.85) (end -0.75 2.15) (angle 47.6) (layer F.SilkS) (width 0.12))
  (fp_arc (start 5.08 3.85) (end 4.33 2.15) (angle 47.6) (layer F.SilkS) (width 0.12))
  (fp_arc (start 10.16 3.85) (end 9.41 2.15) (angle 47.6) (layer F.SilkS) (width 0.12))
  (fp_circle (center -4.5 0) (end -2.6 0) (layer F.SilkS) (width 0.12))
  (fp_circle (center 14.66 0) (end 16.56 0) (layer F.SilkS) (width 0.12))
  (fp_circle (center -4.5 0) (end -3.5 0) (layer F.SilkS) (width 0.12))
  (fp_circle (center 14.66 0) (end 15.66 0) (layer F.SilkS) (width 0.12))
  (fp_line (start -7.18 2.98) (end 17.34 2.98) (layer F.SilkS) (width 0.12))
  (fp_line (start 17.34 2.98) (end 17.34 -3.18) (layer F.SilkS) (width 0.12))
  (fp_line (start 17.34 -3.18) (end 12.54 -3.18) (layer F.SilkS) (width 0.12))
  (fp_line (start 12.54 -3.18) (end 12.54 -4.43) (layer F.SilkS) (width 0.12))
  (fp_line (start 12.54 -4.43) (end -2.38 -4.43) (layer F.SilkS) (width 0.12))
  (fp_line (start -2.38 -4.43) (end -2.38 -3.18) (layer F.SilkS) (width 0.12))
  (fp_line (start -2.38 -3.18) (end -7.18 -3.18) (layer F.SilkS) (width 0.12))
  (fp_line (start -7.18 -3.18) (end -7.18 2.98) (layer F.SilkS) (width 0.12))
  (fp_line (start -7.1 2.9) (end 17.26 2.9) (layer F.Fab) (width 0.1))
  (fp_line (start 17.26 2.9) (end 17.26 -3.1) (layer F.Fab) (width 0.1))
  (fp_line (start 17.26 -3.1) (end 12.46 -3.1) (layer F.Fab) (width 0.1))
  (fp_line (start 12.46 -3.1) (end 12.46 -4.35) (layer F.Fab) (width 0.1))
  (fp_line (start 12.46 -4.35) (end -2.3 -4.35) (layer F.Fab) (width 0.1))
  (fp_line (start -2.3 -4.35) (end -2.3 -3.1) (layer F.Fab) (width 0.1))
  (fp_line (start -2.3 -3.1) (end -7.1 -3.1) (layer F.Fab) (width 0.1))
  (fp_line (start -7.1 -3.1) (end -7.1 2.9) (layer F.Fab) (width 0.1))
  (fp_line (start -0.75 2.15) (end -1.5 2.15) (layer F.SilkS) (width 0.12))
  (fp_line (start -1.5 2.15) (end -1.5 -2.15) (layer F.SilkS) (width 0.12))
  (fp_line (start -1.5 -2.15) (end -0.75 -2.15) (layer F.SilkS) (width 0.12))
  (fp_line (start -0.75 -2.15) (end -0.75 -2.5) (layer F.SilkS) (width 0.12))
  (fp_line (start -0.75 -2.5) (end -1.25 -2.5) (layer F.SilkS) (width 0.12))
  (fp_line (start -1.25 -2.5) (end -1.5 -3.5) (layer F.SilkS) (width 0.12))
  (fp_line (start -1.5 -3.5) (end 1.5 -3.5) (layer F.SilkS) (width 0.12))
  (fp_line (start 1.5 -3.5) (end 1.25 -2.5) (layer F.SilkS) (width 0.12))
  (fp_line (start 1.25 -2.5) (end 0.75 -2.5) (layer F.SilkS) (width 0.12))
  (fp_line (start 0.75 -2.5) (end 0.75 -2.15) (layer F.SilkS) (width 0.12))
  (fp_line (start 0.75 -2.15) (end 1.5 -2.15) (layer F.SilkS) (width 0.12))
  (fp_line (start 1.5 -2.15) (end 1.5 2.15) (layer F.SilkS) (width 0.12))
  (fp_line (start 1.5 2.15) (end 0.75 2.15) (layer F.SilkS) (width 0.12))
  (fp_line (start 4.33 2.15) (end 3.58 2.15) (layer F.SilkS) (width 0.12))
  (fp_line (start 3.58 2.15) (end 3.58 -2.15) (layer F.SilkS) (width 0.12))
  (fp_line (start 3.58 -2.15) (end 4.33 -2.15) (layer F.SilkS) (width 0.12))
  (fp_line (start 4.33 -2.15) (end 4.33 -2.5) (layer F.SilkS) (width 0.12))
  (fp_line (start 4.33 -2.5) (end 3.83 -2.5) (layer F.SilkS) (width 0.12))
  (fp_line (start 3.83 -2.5) (end 3.58 -3.5) (layer F.SilkS) (width 0.12))
  (fp_line (start 3.58 -3.5) (end 6.58 -3.5) (layer F.SilkS) (width 0.12))
  (fp_line (start 6.58 -3.5) (end 6.33 -2.5) (layer F.SilkS) (width 0.12))
  (fp_line (start 6.33 -2.5) (end 5.83 -2.5) (layer F.SilkS) (width 0.12))
  (fp_line (start 5.83 -2.5) (end 5.83 -2.15) (layer F.SilkS) (width 0.12))
  (fp_line (start 5.83 -2.15) (end 6.58 -2.15) (layer F.SilkS) (width 0.12))
  (fp_line (start 6.58 -2.15) (end 6.58 2.15) (layer F.SilkS) (width 0.12))
  (fp_line (start 6.58 2.15) (end 5.83 2.15) (layer F.SilkS) (width 0.12))
  (fp_line (start 9.41 2.15) (end 8.66 2.15) (layer F.SilkS) (width 0.12))
  (fp_line (start 8.66 2.15) (end 8.66 -2.15) (layer F.SilkS) (width 0.12))
  (fp_line (start 8.66 -2.15) (end 9.41 -2.15) (layer F.SilkS) (width 0.12))
  (fp_line (start 9.41 -2.15) (end 9.41 -2.5) (layer F.SilkS) (width 0.12))
  (fp_line (start 9.41 -2.5) (end 8.91 -2.5) (layer F.SilkS) (width 0.12))
  (fp_line (start 8.91 -2.5) (end 8.66 -3.5) (layer F.SilkS) (width 0.12))
  (fp_line (start 8.66 -3.5) (end 11.66 -3.5) (layer F.SilkS) (width 0.12))
  (fp_line (start 11.66 -3.5) (end 11.41 -2.5) (layer F.SilkS) (width 0.12))
  (fp_line (start 11.41 -2.5) (end 10.91 -2.5) (layer F.SilkS) (width 0.12))
  (fp_line (start 10.91 -2.5) (end 10.91 -2.15) (layer F.SilkS) (width 0.12))
  (fp_line (start 10.91 -2.15) (end 11.66 -2.15) (layer F.SilkS) (width 0.12))
  (fp_line (start 11.66 -2.15) (end 11.66 2.15) (layer F.SilkS) (width 0.12))
  (fp_line (start 11.66 2.15) (end 10.91 2.15) (layer F.SilkS) (width 0.12))
  (fp_line (start -7.6 -4.85) (end -7.6 3.4) (layer F.CrtYd) (width 0.05))
  (fp_line (start -7.6 3.4) (end 17.76 3.4) (layer F.CrtYd) (width 0.05))
  (fp_line (start 17.76 3.4) (end 17.76 -4.85) (layer F.CrtYd) (width 0.05))
  (fp_line (start 17.76 -4.85) (end -7.6 -4.85) (layer F.CrtYd) (width 0.05))
  (fp_line (start -2.8 -3.6) (end -2.8 -4.85) (layer F.SilkS) (width 0.12))
  (fp_line (start -2.8 -4.85) (end -0.8 -4.85) (layer F.SilkS) (width 0.12))
  (fp_line (start -2.8 -3.6) (end -2.8 -4.85) (layer F.Fab) (width 0.1))
  (fp_line (start -2.8 -4.85) (end -0.8 -4.85) (layer F.Fab) (width 0.1))
  (pad 1 thru_hole rect (at 0 0) (size 1.8 3.6) (drill 1.2) (layers *.Cu *.Mask))
  (pad 2 thru_hole oval (at 5.08 0) (size 1.8 3.6) (drill 1.2) (layers *.Cu *.Mask))
  (pad 3 thru_hole oval (at 10.16 0) (size 1.8 3.6) (drill 1.2) (layers *.Cu *.Mask))
  (fp_text user %R (at 5.08 -3) (layer F.Fab)
    (effects (font (size 1 1) (thickness 0.15)))
  )
  (model ${KIPRJMOD}/kicad_libs_k/models_k.3d/Connector_Phoenix_MC_HighVoltage_k.3dshapes/PhoenixContact_MCV_1,5_3-GF-5.08_1x03_P5.08mm_Vertical_ThreadedFlange_k.wrl
    (at (xyz 0 0 0))
    (scale (xyz 1 1 1))
    (rotate (xyz 0 0 0))
  )
)