(module R_LDR_D6.4mm_P3.4mm_Vertical (layer F.Cu) (tedit 5A6C6585)
  (descr "Resistor, LDR D=6.4mm, see http://yourduino.com/docs/Photoresistor-5516-datasheet.pdf")
  (tags "Resistor LDRD=6.4mm")
  (fp_text reference REF** (at 1.7 -4) (layer F.SilkS)
    (effects (font (size 1 1) (thickness 0.15)))
  )
  (fp_text value R_LDR_D6.4mm_P3.4mm_Vertical (at 1.7 4.1) (layer F.Fab)
    (effects (font (size 1 1) (thickness 0.15)))
  )
  (fp_text user %R (at 1.7 0) (layer F.Fab)
    (effects (font (size 1 1) (thickness 0.15)))
  )
  (fp_line (start 2.6 0.6) (end 1 0.6) (layer F.Fab) (width 0.1))
  (fp_line (start 1 0.6) (end 1 0) (layer F.Fab) (width 0.1))
  (fp_line (start 1 0) (end 2.4 0) (layer F.Fab) (width 0.1))
  (fp_line (start 2.4 0) (end 2.4 -0.6) (layer F.Fab) (width 0.1))
  (fp_line (start 2.4 -0.6) (end 0.8 -0.6) (layer F.Fab) (width 0.1))
  (fp_line (start 0.8 -1.8) (end 2.6 -1.8) (layer F.Fab) (width 0.1))
  (fp_line (start 2.6 -1.8) (end 2.6 -1.2) (layer F.Fab) (width 0.1))
  (fp_line (start 2.6 -1.2) (end 0.8 -1.2) (layer F.Fab) (width 0.1))
  (fp_line (start 0.8 -1.2) (end 0.8 -0.6) (layer F.Fab) (width 0.1))
  (fp_line (start 2.6 0.6) (end 2.6 1.2) (layer F.Fab) (width 0.1))
  (fp_line (start 2.6 1.2) (end 0.8 1.2) (layer F.Fab) (width 0.1))
  (fp_line (start 0.8 1.2) (end 0.8 1.8) (layer F.Fab) (width 0.1))
  (fp_line (start 0.8 1.8) (end 2.6 1.8) (layer F.Fab) (width 0.1))
  (fp_circle (center 1.7 0) (end 5.2 0) (layer F.CrtYd) (width 0.05))
  (fp_circle (center 1.7 0) (end 5 -0.1) (layer F.SilkS) (width 0.12))
  (fp_circle (center 1.7 0) (end 4.5 0) (layer F.Fab) (width 0.1))
  (fp_circle (center 1.7 0) (end 4.9 0) (layer F.Fab) (width 0.1))
  (pad 1 thru_hole circle (at 0 0) (size 1.6 1.6) (drill 0.8) (layers *.Cu *.Mask))
  (pad 2 thru_hole circle (at 3.4 0) (size 1.6 1.6) (drill 0.8) (layers *.Cu *.Mask))
  (model ${KIPRJMOD}/kicad_libs_k/models_k.3d/OptoDevice_k.3dshapes/R_LDR_D6.4mm_P3.4mm_Vertical_k.wrl
    (at (xyz 0 0 0))
    (scale (xyz 1 1 1))
    (rotate (xyz 0 0 0))
  )
)
