(module R_LDR_10x8.5mm_P7.6mm_Vertical (layer F.Cu) (tedit 5A6C6585)
  (descr "Resistor, LDR 10x8.5mm")
  (tags "Resistor LDR10.8.5mm")
  (fp_text reference REF** (at 3.8 -5.2) (layer F.SilkS)
    (effects (font (size 1 1) (thickness 0.15)))
  )
  (fp_text value R_LDR_10x8.5mm_P7.6mm_Vertical (at 3.7 5.2) (layer F.Fab)
    (effects (font (size 1 1) (thickness 0.15)))
  )
  (fp_text user %R (at 3.8 0) (layer F.Fab)
    (effects (font (size 1 1) (thickness 0.15)))
  )
  (fp_line (start 0.8 4.4) (end 6.8 4.4) (layer F.SilkS) (width 0.12))
  (fp_line (start 0.8 -4.4) (end 6.8 -4.4) (layer F.SilkS) (width 0.12))
  (fp_line (start 2.9 -1.8) (end 4.7 -1.8) (layer F.Fab) (width 0.1))
  (fp_line (start 4.7 -1.8) (end 4.7 -1.2) (layer F.Fab) (width 0.1))
  (fp_line (start 4.7 -1.2) (end 2.9 -1.2) (layer F.Fab) (width 0.1))
  (fp_line (start 2.9 -1.2) (end 2.9 -0.6) (layer F.Fab) (width 0.1))
  (fp_line (start 2.9 -0.6) (end 4.7 -0.6) (layer F.Fab) (width 0.1))
  (fp_line (start 4.7 -0.6) (end 4.7 0) (layer F.Fab) (width 0.1))
  (fp_line (start 4.7 0) (end 2.9 0) (layer F.Fab) (width 0.1))
  (fp_line (start 2.9 0) (end 2.9 0.6) (layer F.Fab) (width 0.1))
  (fp_line (start 2.9 0.6) (end 4.7 0.6) (layer F.Fab) (width 0.1))
  (fp_line (start 4.7 0.6) (end 4.7 1.2) (layer F.Fab) (width 0.1))
  (fp_line (start 4.7 1.2) (end 2.9 1.2) (layer F.Fab) (width 0.1))
  (fp_line (start 2.9 1.2) (end 2.9 1.8) (layer F.Fab) (width 0.1))
  (fp_line (start 2.9 1.8) (end 4.7 1.8) (layer F.Fab) (width 0.1))
  (fp_line (start 6.8 4.25) (end 0.8 4.25) (layer F.Fab) (width 0.1))
  (fp_line (start 0.8 -4.25) (end 6.8 -4.25) (layer F.Fab) (width 0.1))
  (fp_line (start -1.65 -4.5) (end 9.25 -4.5) (layer F.CrtYd) (width 0.05))
  (fp_line (start -1.65 -4.5) (end -1.65 4.5) (layer F.CrtYd) (width 0.05))
  (fp_line (start 9.25 4.5) (end 9.25 -4.5) (layer F.CrtYd) (width 0.05))
  (fp_line (start 9.25 4.5) (end -1.65 4.5) (layer F.CrtYd) (width 0.05))
  (fp_arc (start 3.8 0) (end 0.8 4.4) (angle 111) (layer F.SilkS) (width 0.12))
  (fp_arc (start 3.8 0) (end 6.8 -4.4) (angle 111) (layer F.SilkS) (width 0.12))
  (fp_arc (start 3.8 0) (end 6.8 -4.25) (angle 109) (layer F.Fab) (width 0.1))
  (fp_arc (start 3.8 0) (end 0.8 4.25) (angle 109) (layer F.Fab) (width 0.1))
  (pad 1 thru_hole circle (at 0 0) (size 1.6 1.6) (drill 0.8) (layers *.Cu *.Mask))
  (pad 2 thru_hole circle (at 7.6 0) (size 1.6 1.6) (drill 0.8) (layers *.Cu *.Mask))
  (model ${KIPRJMOD}/kicad_libs_k/models_k.3d/OptoDevice_k.3dshapes/R_LDR_10x8.5mm_P7.6mm_Vertical_k.wrl
    (at (xyz 0 0 0))
    (scale (xyz 1 1 1))
    (rotate (xyz 0 0 0))
  )
)
