(module R_LDR_5.0x4.1mm_P3mm_Vertical (layer F.Cu) (tedit 5A6C6585)
  (descr "Resistor, LDR 5x4.1mm, see http://cdn-reichelt.de/documents/datenblatt/A500/A90xxxx%23PE.pdf")
  (tags "Resistor LDR5x4.1mm")
  (fp_text reference REF** (at 1.5 -2.9) (layer F.SilkS)
    (effects (font (size 1 1) (thickness 0.15)))
  )
  (fp_text value R_LDR_5.0x4.1mm_P3mm_Vertical (at 1.3 3) (layer F.Fab)
    (effects (font (size 1 1) (thickness 0.15)))
  )
  (fp_text user %R (at 1.5 0) (layer F.Fab)
    (effects (font (size 1 1) (thickness 0.15)))
  )
  (fp_line (start 0.1 2.1) (end 2.9 2.1) (layer F.SilkS) (width 0.12))
  (fp_line (start 0.1 -2.1) (end 2.9 -2.1) (layer F.SilkS) (width 0.12))
  (fp_line (start 0.6 1.2) (end 2.1 1.2) (layer F.Fab) (width 0.1))
  (fp_line (start 2.1 1.2) (end 2.1 0.6) (layer F.Fab) (width 0.1))
  (fp_line (start 2.1 0.6) (end 0.9 0.6) (layer F.Fab) (width 0.1))
  (fp_line (start 0.9 0.6) (end 0.9 0) (layer F.Fab) (width 0.1))
  (fp_line (start 0.9 0) (end 2.1 0) (layer F.Fab) (width 0.1))
  (fp_line (start 2.1 0) (end 2.1 -0.5) (layer F.Fab) (width 0.1))
  (fp_line (start 2.1 -0.5) (end 2.1 -0.6) (layer F.Fab) (width 0.1))
  (fp_line (start 2.1 -0.6) (end 0.9 -0.6) (layer F.Fab) (width 0.1))
  (fp_line (start 0.9 -0.6) (end 0.9 -1.2) (layer F.Fab) (width 0.1))
  (fp_line (start 0.9 -1.2) (end 2.4 -1.2) (layer F.Fab) (width 0.1))
  (fp_line (start 0.6 -1.8) (end 2.4 -1.8) (layer F.Fab) (width 0.1))
  (fp_line (start 2.4 -1.8) (end 2.4 -1.2) (layer F.Fab) (width 0.1))
  (fp_line (start 0.6 1.2) (end 0.6 1.8) (layer F.Fab) (width 0.1))
  (fp_line (start 0.6 1.8) (end 2.4 1.8) (layer F.Fab) (width 0.1))
  (fp_line (start 2.8 2.05) (end 0.2 2.05) (layer F.Fab) (width 0.1))
  (fp_line (start 0.2 -2.05) (end 2.8 -2.05) (layer F.Fab) (width 0.1))
  (fp_line (start -1.18 -2.3) (end 4.18 -2.3) (layer F.CrtYd) (width 0.05))
  (fp_line (start -1.18 -2.3) (end -1.18 2.3) (layer F.CrtYd) (width 0.05))
  (fp_line (start 4.18 2.3) (end 4.18 -2.3) (layer F.CrtYd) (width 0.05))
  (fp_line (start 4.18 2.3) (end -1.18 2.3) (layer F.CrtYd) (width 0.05))
  (fp_arc (start 1.5 0) (end 2.9 -2.1) (angle 113) (layer F.SilkS) (width 0.12))
  (fp_arc (start 1.5 0) (end 0.1 2.1) (angle 113) (layer F.SilkS) (width 0.12))
  (fp_arc (start 1.5 0) (end 2.8 -2.05) (angle 114) (layer F.Fab) (width 0.1))
  (fp_arc (start 1.5 0) (end 0.2 2.05) (angle 114) (layer F.Fab) (width 0.1))
  (pad 1 thru_hole circle (at 0 0) (size 1.6 1.6) (drill 0.8) (layers *.Cu *.Mask))
  (pad 2 thru_hole circle (at 3 0) (size 1.6 1.6) (drill 0.8) (layers *.Cu *.Mask))
  (model ${KIPRJMOD}/kicad_libs_k/models_k.3d/OptoDevice_k.3dshapes/R_LDR_5.0x4.1mm_P3mm_Vertical_k.wrl
    (at (xyz 0 0 0))
    (scale (xyz 1 1 1))
    (rotate (xyz 0 0 0))
  )
)
