(module R_LDR_11x9.4mm_P8.2mm_Vertical (layer F.Cu) (tedit 5A6C6585)
  (descr "Resistor, LDR 11x9.4mm")
  (tags "Resistor LDR11x9.4mm")
  (fp_text reference REF** (at 4.1 -5.8) (layer F.SilkS)
    (effects (font (size 1 1) (thickness 0.15)))
  )
  (fp_text value R_LDR_11x9.4mm_P8.2mm_Vertical (at 4.1 5.6) (layer F.Fab)
    (effects (font (size 1 1) (thickness 0.15)))
  )
  (fp_text user %R (at 4.1 0) (layer F.Fab)
    (effects (font (size 1 1) (thickness 0.15)))
  )
  (fp_line (start 7.9 4.8) (end 0.3 4.8) (layer F.SilkS) (width 0.12))
  (fp_line (start 0.3 -4.8) (end 7.9 -4.8) (layer F.SilkS) (width 0.12))
  (fp_line (start 3.2 -1.8) (end 5 -1.8) (layer F.Fab) (width 0.1))
  (fp_line (start 5 -1.8) (end 5 -1.2) (layer F.Fab) (width 0.1))
  (fp_line (start 5 -1.2) (end 3.2 -1.2) (layer F.Fab) (width 0.1))
  (fp_line (start 3.2 -1.2) (end 3.2 -0.6) (layer F.Fab) (width 0.1))
  (fp_line (start 3.2 -0.6) (end 5 -0.6) (layer F.Fab) (width 0.1))
  (fp_line (start 5 -0.6) (end 5 0) (layer F.Fab) (width 0.1))
  (fp_line (start 5 0) (end 3.2 0) (layer F.Fab) (width 0.1))
  (fp_line (start 3.2 0) (end 3.2 0.6) (layer F.Fab) (width 0.1))
  (fp_line (start 3.2 0.6) (end 5 0.6) (layer F.Fab) (width 0.1))
  (fp_line (start 5 0.6) (end 5 1.2) (layer F.Fab) (width 0.1))
  (fp_line (start 5 1.2) (end 3.2 1.2) (layer F.Fab) (width 0.1))
  (fp_line (start 3.2 1.2) (end 3.2 1.8) (layer F.Fab) (width 0.1))
  (fp_line (start 3.2 1.8) (end 5 1.8) (layer F.Fab) (width 0.1))
  (fp_line (start 7.9 4.7) (end 0.3 4.7) (layer F.Fab) (width 0.1))
  (fp_line (start 0.3 -4.7) (end 7.9 -4.7) (layer F.Fab) (width 0.1))
  (fp_line (start -2.19 -4.95) (end 10.39 -4.95) (layer F.CrtYd) (width 0.05))
  (fp_line (start -2.19 -4.95) (end -2.19 4.95) (layer F.CrtYd) (width 0.05))
  (fp_line (start 10.39 4.95) (end 10.39 -4.95) (layer F.CrtYd) (width 0.05))
  (fp_line (start 10.39 4.95) (end -2.19 4.95) (layer F.CrtYd) (width 0.05))
  (fp_arc (start 4.1 0) (end 7.9 -4.8) (angle 103) (layer F.SilkS) (width 0.12))
  (fp_arc (start 4.1 0) (end 0.3 4.8) (angle 103) (layer F.SilkS) (width 0.12))
  (fp_arc (start 4.1 0) (end 7.9 -4.7) (angle 102) (layer F.Fab) (width 0.1))
  (fp_arc (start 4.1 0) (end 0.3 4.7) (angle 102) (layer F.Fab) (width 0.1))
  (pad 1 thru_hole circle (at 0 0) (size 1.6 1.6) (drill 0.8) (layers *.Cu *.Mask))
  (pad 2 thru_hole circle (at 8.2 0) (size 1.6 1.6) (drill 0.8) (layers *.Cu *.Mask))
  (model ${KIPRJMOD}/kicad_libs_k/models_k.3d/OptoDevice_k.3dshapes/R_LDR_11x9.4mm_P8.2mm_Vertical_k.wrl
    (at (xyz 0 0 0))
    (scale (xyz 1 1 1))
    (rotate (xyz 0 0 0))
  )
)
