(module Toshiba_TORX170_TORX173_TORX193_TORX194 (layer F.Cu) (tedit 5A6C9AA8)
  (descr "Fiberoptic Reciver, RX, Toshiba, Toslink, TORX170, TORX173, TORX193, TORX194")
  (tags "Fiberoptic Reciver RX Toshiba Toslink TORX170 TORX173 TORX193 TORX194")
  (fp_text reference REF** (at 3.91 -11.15) (layer F.SilkS)
    (effects (font (size 1 1) (thickness 0.15)))
  )
  (fp_text value Toshiba_TORX170_TORX173_TORX193_TORX194 (at 3.81 7) (layer F.Fab)
    (effects (font (size 1 1) (thickness 0.15)))
  )
  (fp_line (start -3.9 0.8) (end -3.1 0) (layer F.SilkS) (width 0.12))
  (fp_line (start -3.9 -0.9) (end -3.9 0.8) (layer F.SilkS) (width 0.12))
  (fp_line (start -3.1 0) (end -3.9 -0.9) (layer F.SilkS) (width 0.12))
  (fp_text user %R (at 3.81 -2.075) (layer F.Fab)
    (effects (font (size 1 1) (thickness 0.15)))
  )
  (fp_line (start -2.69 5.65) (end -2.69 5.7) (layer F.Fab) (width 0.1))
  (fp_line (start -2.69 5.7) (end 10.26 5.7) (layer F.Fab) (width 0.1))
  (fp_line (start 10.26 5.7) (end 10.31 5.7) (layer F.Fab) (width 0.1))
  (fp_line (start 10.31 5.7) (end 10.31 -9.85) (layer F.Fab) (width 0.1))
  (fp_line (start -2.69 -9.85) (end 10.31 -9.85) (layer F.Fab) (width 0.1))
  (fp_line (start -2.69 5.65) (end -2.69 -9.85) (layer F.Fab) (width 0.1))
  (fp_line (start -2.89 5.8) (end -2.89 -2.9) (layer F.SilkS) (width 0.12))
  (fp_line (start -2.89 -10) (end -2.89 -5.6) (layer F.SilkS) (width 0.12))
  (fp_line (start 10.51 5.8) (end 10.51 -2.9) (layer F.SilkS) (width 0.12))
  (fp_line (start 10.51 -10) (end 10.51 -5.5) (layer F.SilkS) (width 0.12))
  (fp_line (start 1.81 -9.1) (end 5.81 -9.1) (layer F.Fab) (width 0.1))
  (fp_line (start 5.81 -9.1) (end 5.81 -8.1) (layer F.Fab) (width 0.1))
  (fp_line (start 5.81 -8.1) (end 1.81 -8.1) (layer F.Fab) (width 0.1))
  (fp_line (start 1.81 -8.1) (end 1.81 -9.1) (layer F.Fab) (width 0.1))
  (fp_line (start 10.51 -10) (end -2.89 -10) (layer F.SilkS) (width 0.12))
  (fp_line (start -2.89 5.8) (end 10.51 5.8) (layer F.SilkS) (width 0.12))
  (fp_line (start -2.94 -10.1) (end 10.56 -10.1) (layer F.CrtYd) (width 0.05))
  (fp_line (start -2.94 -10.1) (end -2.94 5.95) (layer F.CrtYd) (width 0.05))
  (fp_line (start 10.56 5.95) (end 10.56 -10.1) (layer F.CrtYd) (width 0.05))
  (fp_line (start 10.56 5.95) (end -2.94 5.95) (layer F.CrtYd) (width 0.05))
  (pad 1 thru_hole rect (at 0 0) (size 1.5 2.5) (drill 1) (layers *.Cu *.Mask))
  (pad 2 thru_hole oval (at 2.54 0) (size 1.5 2.5) (drill 1) (layers *.Cu *.Mask))
  (pad 3 thru_hole oval (at 5.08 0) (size 1.5 2.5) (drill 1) (layers *.Cu *.Mask))
  (pad 4 thru_hole oval (at 7.62 0) (size 1.5 2.5) (drill 1) (layers *.Cu *.Mask))
  (pad 5 thru_hole circle (at 9.01 -4.2) (size 2.5 2.5) (drill 1.2) (layers *.Cu *.Mask))
  (pad 6 thru_hole circle (at -1.39 -4.2) (size 2.5 2.5) (drill 1.2) (layers *.Cu *.Mask))
  (model ${KIPRJMOD}/kicad_libs_k/models_k.3d/OptoDevice_k.3dshapes/Toshiba_TORX170_TORX173_TORX193_TORX194_k.wrl
    (at (xyz 0 0 0))
    (scale (xyz 1 1 1))
    (rotate (xyz 0 0 0))
  )
)
