(module Vishay_CNY70 (layer F.Cu) (tedit 5A4CBBD0)
  (descr "package for Vishay CNY70 refective photo coupler/interrupter")
  (tags "Vishay CNY70 refective photo coupler")
  (fp_text reference REF** (at 1.4 -3) (layer F.SilkS)
    (effects (font (size 1 1) (thickness 0.15)))
  )
  (fp_text value Vishay_CNY70 (at 1.4 5.8) (layer F.Fab)
    (effects (font (size 1 1) (thickness 0.15)))
  )
  (fp_text user %R (at 1.5 1.4) (layer F.Fab)
    (effects (font (size 1 1) (thickness 0.15)))
  )
  (fp_line (start -2.4 -2.5) (end -0.9 -2.5) (layer F.SilkS) (width 0.12))
  (fp_line (start -2.4 -0.9) (end -2.4 -2.5) (layer F.SilkS) (width 0.12))
  (fp_line (start 5 4.9) (end 5 -2.3) (layer F.SilkS) (width 0.12))
  (fp_line (start -2.2 4.9) (end 5 4.9) (layer F.SilkS) (width 0.12))
  (fp_line (start -2.2 -2.3) (end -2.2 4.9) (layer F.SilkS) (width 0.12))
  (fp_line (start 5 -2.3) (end -2.2 -2.3) (layer F.SilkS) (width 0.12))
  (fp_line (start -1.1 3.9) (end 3.9 3.9) (layer F.Fab) (width 0.12))
  (fp_line (start -1.1 -1.2) (end -1.1 3.9) (layer F.Fab) (width 0.12))
  (fp_line (start 3.9 -1.2) (end -1.1 -1.2) (layer F.Fab) (width 0.12))
  (fp_line (start 3.9 3.9) (end 3.9 -1.2) (layer F.Fab) (width 0.12))
  (fp_line (start 1.2 4.5) (end 1.2 4.8) (layer F.Fab) (width 0.12))
  (fp_line (start 1.6 4.5) (end 1.2 4.5) (layer F.Fab) (width 0.12))
  (fp_line (start 1.6 4.8) (end 1.6 4.5) (layer F.Fab) (width 0.12))
  (fp_line (start 1.6 -1.9) (end 1.6 -2.2) (layer F.Fab) (width 0.12))
  (fp_line (start 1.2 -1.9) (end 1.6 -1.9) (layer F.Fab) (width 0.12))
  (fp_line (start 1.2 -2.2) (end 1.2 -1.9) (layer F.Fab) (width 0.12))
  (fp_line (start -2.1 -0.9) (end -0.9 -2.2) (layer F.Fab) (width 0.12))
  (fp_line (start -2.1 4.8) (end -2.1 -0.9) (layer F.Fab) (width 0.12))
  (fp_line (start 4.9 4.8) (end -2.1 4.8) (layer F.Fab) (width 0.12))
  (fp_line (start 4.9 -2.2) (end 4.9 4.8) (layer F.Fab) (width 0.12))
  (fp_line (start -0.9 -2.2) (end 4.9 -2.2) (layer F.Fab) (width 0.12))
  (fp_line (start -2.35 -2.45) (end 5.15 -2.45) (layer F.CrtYd) (width 0.05))
  (fp_line (start -2.35 -2.45) (end -2.35 5.05) (layer F.CrtYd) (width 0.05))
  (fp_line (start 5.15 5.05) (end 5.15 -2.45) (layer F.CrtYd) (width 0.05))
  (fp_line (start 5.15 5.05) (end -2.35 5.05) (layer F.CrtYd) (width 0.05))
  (pad 4 thru_hole circle (at 2.8 0) (size 1.6 1.6) (drill 0.8) (layers *.Cu *.Mask))
  (pad 3 thru_hole circle (at 2.8 2.54) (size 1.6 1.6) (drill 0.8) (layers *.Cu *.Mask))
  (pad 2 thru_hole circle (at 0 2.54) (size 1.6 1.6) (drill 0.8) (layers *.Cu *.Mask))
  (pad 1 thru_hole rect (at 0 0) (size 1.6 1.6) (drill 0.8) (layers *.Cu *.Mask))
  (model ${KIPRJMOD}/kicad_libs_k/models_k.3d/OptoDevice_k.3dshapes/Vishay_CNY70_k.wrl
    (at (xyz 0 0 0))
    (scale (xyz 1 1 1))
    (rotate (xyz 0 0 0))
  )
)
