(module BatteryHolder_Keystone_3008_1x2450 (layer F.Cu) (tedit 58972352)
  (descr http://www.keyelco.com/product-pdf.cfm?p=786)
  (tags "Keystone type 3008 coin cell retainer")
  (attr smd)
  (fp_text reference REF** (at 0 -14.4) (layer F.SilkS)
    (effects (font (size 1 1) (thickness 0.15)))
  )
  (fp_text value BatteryHolder_Keystone_3008_1x2450 (at 0 14) (layer F.Fab)
    (effects (font (size 1 1) (thickness 0.15)))
  )
  (fp_text user %R (at 0 0) (layer F.Fab)
    (effects (font (size 1 1) (thickness 0.15)))
  )
  (fp_arc (start 0 0) (end 0 12.8) (angle -41.7) (layer F.CrtYd) (width 0.05))
  (fp_arc (start 0 21) (end 9.15 10.05) (angle -3.2) (layer F.CrtYd) (width 0.05))
  (fp_arc (start 0 0) (end 0 12.8) (angle 41.7) (layer F.CrtYd) (width 0.05))
  (fp_arc (start 0 21) (end -9.15 10.05) (angle 3.2) (layer F.CrtYd) (width 0.05))
  (fp_arc (start 10.15 9) (end 10.15 10.45) (angle 45) (layer F.CrtYd) (width 0.05))
  (fp_arc (start -10.15 9) (end -10.15 10.45) (angle -45) (layer F.CrtYd) (width 0.05))
  (fp_arc (start 10.15 7.25) (end 10.15 10.45) (angle -90) (layer F.CrtYd) (width 0.05))
  (fp_arc (start -10.15 7.25) (end -10.15 10.45) (angle 90) (layer F.CrtYd) (width 0.05))
  (fp_arc (start 0 21) (end -9.55 9.73) (angle 80) (layer F.SilkS) (width 0.12))
  (fp_arc (start 10.15 9) (end 10.15 9.95) (angle 45) (layer F.SilkS) (width 0.12))
  (fp_arc (start -10.15 9) (end -10.15 9.95) (angle -45) (layer F.SilkS) (width 0.12))
  (fp_arc (start 10.15 9) (end 10.15 9.8) (angle 45) (layer F.Fab) (width 0.10))
  (fp_arc (start -10.15 9) (end -10.15 9.8) (angle -45) (layer F.Fab) (width 0.10))
  (fp_arc (start 0 21) (end -9.6 9.58) (angle 80) (layer F.Fab) (width 0.10))
  (fp_arc (start -10.15 7.25) (end -10.15 9.95) (angle 90) (layer F.SilkS) (width 0.12))
  (fp_arc (start 10.15 7.25) (end 10.15 9.95) (angle -90) (layer F.SilkS) (width 0.12))
  (fp_line (start 12.85 3.1) (end 12.85 7.3) (layer F.SilkS) (width 0.12))
  (fp_line (start -12.85 3.1) (end -12.85 7.3) (layer F.SilkS) (width 0.12))
  (fp_line (start 13.35 3.25) (end 13.35 7.3) (layer F.CrtYd) (width 0.05))
  (fp_arc (start 10.15 7.25) (end 10.15 9.8) (angle -90) (layer F.Fab) (width 0.10))
  (fp_arc (start -10.15 7.25) (end -10.15 9.8) (angle 90) (layer F.Fab) (width 0.10))
  (fp_circle (center 0 0) (end 12.25 0) (layer Dwgs.User) (width 0.15))
  (fp_line (start 4.45 -13.55) (end 4.45 -12.55) (layer F.CrtYd) (width 0.05))
  (fp_line (start -4.45 -13.55) (end 4.45 -13.55) (layer F.CrtYd) (width 0.05))
  (fp_line (start -4.45 -13.55) (end -4.45 -12.55) (layer F.CrtYd) (width 0.05))
  (fp_line (start 4.45 -12.55) (end 13.35 -6.7) (layer F.CrtYd) (width 0.05))
  (fp_line (start 13.35 -6.7) (end 13.35 -3.25) (layer F.CrtYd) (width 0.05))
  (fp_line (start 18.8 3.25) (end 13.35 3.25) (layer F.CrtYd) (width 0.05))
  (fp_line (start 18.8 -3.25) (end 18.8 3.25) (layer F.CrtYd) (width 0.05))
  (fp_line (start 13.35 -3.25) (end 18.8 -3.25) (layer F.CrtYd) (width 0.05))
  (fp_line (start -4.45 -12.55) (end -13.35 -6.7) (layer F.CrtYd) (width 0.05))
  (fp_line (start -18.8 -3.25) (end -18.8 3.25) (layer F.CrtYd) (width 0.05))
  (fp_line (start -18.8 3.25) (end -13.35 3.25) (layer F.CrtYd) (width 0.05))
  (fp_line (start -13.35 3.25) (end -13.35 7.3) (layer F.CrtYd) (width 0.05))
  (fp_line (start -13.35 -3.25) (end -18.8 -3.25) (layer F.CrtYd) (width 0.05))
  (fp_line (start -13.35 -6.7) (end -13.35 -3.25) (layer F.CrtYd) (width 0.05))
  (fp_line (start 12.85 -6.4) (end 12.85 -3.1) (layer F.SilkS) (width 0.12))
  (fp_line (start 3.95 -12.25) (end 12.85 -6.4) (layer F.SilkS) (width 0.12))
  (fp_line (start 3.95 -13.05) (end 3.95 -12.25) (layer F.SilkS) (width 0.12))
  (fp_line (start -3.95 -13.05) (end 3.95 -13.05) (layer F.SilkS) (width 0.12))
  (fp_line (start -3.95 -13.05) (end -3.95 -12.25) (layer F.SilkS) (width 0.12))
  (fp_line (start -3.95 -12.25) (end -12.85 -6.4) (layer F.SilkS) (width 0.12))
  (fp_line (start -12.85 -6.4) (end -12.85 -3.1) (layer F.SilkS) (width 0.12))
  (fp_line (start 3.8 -12.2) (end 12.7 -6.35) (layer F.Fab) (width 0.10))
  (fp_line (start 12.7 -6.35) (end 12.7 7.3) (layer F.Fab) (width 0.10))
  (fp_line (start -3.8 -12.2) (end -12.7 -6.35) (layer F.Fab) (width 0.10))
  (fp_line (start -12.7 -6.35) (end -12.7 7.3) (layer F.Fab) (width 0.10))
  (fp_line (start -3.8 -12.9) (end -3.8 -12.2) (layer F.Fab) (width 0.10))
  (fp_line (start 3.8 -12.9) (end 3.8 -12.2) (layer F.Fab) (width 0.10))
  (fp_line (start -3.8 -12.9) (end 3.8 -12.9) (layer F.Fab) (width 0.10))
  (pad 1 smd rect (at -15.3 0) (size 6 5.5) (layers F.Cu F.Paste F.Mask))
  (pad 1 smd rect (at 15.3 0) (size 6 5.5) (layers F.Cu F.Paste F.Mask))
  (pad 2 smd rect (at 0 0) (size 8 8) (layers F.Cu F.Mask))
  (model ${KIPRJMOD}/kicad_libs_k/models_k.3d/Battery_k.3dshapes/BatteryHolder_Keystone_3008_1x2450_k.wrl
    (at (xyz 0 0 0))
    (scale (xyz 1 1 1))
    (rotate (xyz 0 0 0))
  )
)
