(module BatteryHolder_Keystone_105_1x2430 (layer F.Cu) (tedit 5787C363)
  (descr http://www.keyelco.com/product-pdf.cfm?p=745)
  (tags "Keystone type 105 battery holder")
  (fp_text reference REF** (at -1.25 -4.5) (layer F.SilkS)
    (effects (font (size 1 1) (thickness 0.15)))
  )
  (fp_text value BatteryHolder_Keystone_105_1x2430 (at 15 15) (layer F.Fab)
    (effects (font (size 1 1) (thickness 0.15)))
  )
  (fp_text user + (at 2.75 0) (layer F.SilkS)
    (effects (font (size 1.5 1.5) (thickness 0.15)))
  )
  (fp_text user %R (at 0 0) (layer F.Fab)
    (effects (font (size 1 1) (thickness 0.15)))
  )
  (fp_arc (start 15.2 0) (end 1.65 3.52) (angle -165.5) (layer F.SilkS) (width 0.12))
  (fp_arc (start 15.2 0) (end 1.8 3.5) (angle -165.5) (layer F.Fab) (width 0.10))
  (fp_arc (start 15.2 0) (end 1.65 -3.52) (angle 165.5) (layer F.SilkS) (width 0.12))
  (fp_arc (start 15.2 0) (end 1.8 -3.5) (angle 165.5) (layer F.Fab) (width 0.10))
  (fp_arc (start 0.95 3.8) (end 0.95 3.05) (angle 70) (layer F.SilkS) (width 0.12))
  (fp_arc (start 0.95 3.8) (end 0.95 2.9) (angle 70) (layer F.Fab) (width 0.10))
  (fp_arc (start 0.95 -3.8) (end 0.95 -3.05) (angle -70) (layer F.SilkS) (width 0.12))
  (fp_arc (start 0.95 -3.8) (end 0.95 -2.9) (angle -70) (layer F.Fab) (width 0.10))
  (fp_line (start 0.95 -3.05) (end -1.5 -3.05) (layer F.SilkS) (width 0.12))
  (fp_line (start -1.5 3.05) (end 0.95 3.05) (layer F.SilkS) (width 0.12))
  (fp_arc (start -1.5 -2.5) (end -2.05 -2.5) (angle 90) (layer F.SilkS) (width 0.12))
  (fp_arc (start -1.5 2.5) (end -2.05 2.5) (angle -90) (layer F.SilkS) (width 0.12))
  (fp_line (start -2.05 -2.5) (end -2.05 2.5) (layer F.SilkS) (width 0.12))
  (fp_line (start 0.95 -2.9) (end -1.5 -2.9) (layer F.Fab) (width 0.10))
  (fp_line (start -1.5 2.9) (end 0.95 2.9) (layer F.Fab) (width 0.10))
  (fp_arc (start -1.5 2.5) (end -1.9 2.5) (angle -90) (layer F.Fab) (width 0.10))
  (fp_arc (start -1.5 -2.5) (end -2.3 -2.5) (angle 90) (layer F.CrtYd) (width 0.05))
  (fp_line (start -2.3 -2.5) (end -2.3 2.5) (layer F.CrtYd) (width 0.05))
  (fp_arc (start 0.95 3.8) (end 0.95 3.3) (angle 70) (layer F.CrtYd) (width 0.05))
  (fp_arc (start 15.2 0) (end 1.41 3.6) (angle -165.5) (layer F.CrtYd) (width 0.05))
  (fp_arc (start 15.2 0) (end 1.41 -3.6) (angle 165.5) (layer F.CrtYd) (width 0.05))
  (fp_arc (start 15.2 0) (end 2.75 1.3) (angle -180) (layer F.Fab) (width 0.10))
  (fp_arc (start 15.2 0) (end 9 1.3) (angle -170) (layer F.Fab) (width 0.10))
  (fp_arc (start 15.2 0) (end 13.3 1.3) (angle -150) (layer F.Fab) (width 0.10))
  (fp_arc (start 15.2 0) (end 13.3 -1.3) (angle 150) (layer F.Fab) (width 0.10))
  (fp_arc (start 15.2 0) (end 9 -1.3) (angle 170) (layer F.Fab) (width 0.10))
  (fp_arc (start 15.2 0) (end 2.75 -1.3) (angle 180) (layer F.Fab) (width 0.10))
  (fp_line (start 0.95 -3.3) (end -1.5 -3.3) (layer F.CrtYd) (width 0.05))
  (fp_line (start -1.5 3.3) (end 0.95 3.3) (layer F.CrtYd) (width 0.05))
  (fp_line (start -1.9 -2.5) (end -1.9 2.5) (layer F.Fab) (width 0.10))
  (fp_line (start 0 1.3) (end 16.2 1.3) (layer F.Fab) (width 0.10))
  (fp_line (start 16.2 -1.3) (end 0 -1.3) (layer F.Fab) (width 0.10))
  (fp_arc (start 0.95 -3.8) (end 0.95 -3.3) (angle -70) (layer F.CrtYd) (width 0.05))
  (fp_arc (start 16.2 0) (end 16.2 -1.3) (angle 180) (layer F.Fab) (width 0.10))
  (fp_line (start 0 -1.3) (end 0 1.3) (layer F.Fab) (width 0.10))
  (fp_arc (start -1.5 2.5) (end -2.3 2.5) (angle -90) (layer F.CrtYd) (width 0.05))
  (fp_arc (start -1.5 -2.5) (end -1.9 -2.5) (angle 90) (layer F.Fab) (width 0.10))
  (fp_line (start 24.4094 8.4963) (end 25.3746 9.398) (layer F.Fab) (width 0.10))
  (fp_line (start 24.384 -8.5471) (end 25.2992 -9.3988) (layer F.Fab) (width 0.10))
  (pad 2 thru_hole circle (at 20.49 0) (size 3 3) (drill 1.5) (layers *.Cu *.Mask))
  (pad 1 thru_hole rect (at 0 0) (size 3 3) (drill 1.5) (layers *.Cu *.Mask))
  (model ${KIPRJMOD}/kicad_libs_k/models_k.3d/Battery_k.3dshapes/BatteryHolder_Keystone_105_1x2430_k.wrl
    (at (xyz 0 0 0))
    (scale (xyz 1 1 1))
    (rotate (xyz 0 0 0))
  )
)
