(module CYBLE-21Pin-10x10mm (layer F.Cu) (tedit 5A056DAE)
  (descr "Cypress EZ-BLE PRoC Module (Bluetooth Smart) 21 Pin Module")
  (tags "Cypress BT Bluetooth")
  (attr smd)
  (fp_text reference REF** (at -3 -5.68) (layer F.SilkS)
    (effects (font (size 1 1) (thickness 0.15)))
  )
  (fp_text value CYBLE-21Pin-10x10mm (at 0 6.99) (layer F.Fab)
    (effects (font (size 1 1) (thickness 0.15)))
  )
  (fp_text user "Optional Copper Keep Out" (at 2.54 8.89) (layer Cmts.User)
    (effects (font (size 0.5 0.5) (thickness 0.1)))
  )
  (fp_text user "Copper Keep Out" (at 1.51 1.22) (layer Cmts.User)
    (effects (font (size 0.5 0.5) (thickness 0.1)))
  )
  (fp_text user "For Best RF Performance" (at 2.54 10.16) (layer Cmts.User)
    (effects (font (size 0.5 0.5) (thickness 0.1)))
  )
  (fp_line (start 5 1.82) (end 9 1.82) (layer Dwgs.User) (width 0.12))
  (fp_line (start 9 1.82) (end 9 11.82) (layer Dwgs.User) (width 0.12))
  (fp_line (start 9 11.82) (end -4 11.82) (layer Dwgs.User) (width 0.12))
  (fp_line (start -4 11.82) (end -4 5.82) (layer Dwgs.User) (width 0.12))
  (fp_line (start 5.12 -4.3) (end 4.65 -4.3) (layer F.SilkS) (width 0.12))
  (fp_line (start -5.12 4.65) (end -5.12 5.94) (layer F.SilkS) (width 0.12))
  (fp_line (start -5.12 5.94) (end 5.12 5.94) (layer F.SilkS) (width 0.12))
  (fp_line (start 5.12 5.94) (end 5.12 0.07) (layer F.SilkS) (width 0.12))
  (fp_line (start -4.66 -4.3) (end -5.12 -4.3) (layer F.SilkS) (width 0.12))
  (fp_line (start -5.12 -4.3) (end -5.12 0.67) (layer F.SilkS) (width 0.12))
  (fp_line (start -2 0.82) (end 5 5.82) (layer Dwgs.User) (width 0.12))
  (fp_line (start 5 0.82) (end -2 0.82) (layer Dwgs.User) (width 0.12))
  (fp_line (start -2 0.82) (end -2 5.82) (layer Dwgs.User) (width 0.12))
  (fp_line (start 5.12 -4.3) (end 5.12 -3.15) (layer F.SilkS) (width 0.12))
  (fp_line (start 5 0.82) (end -2 5.82) (layer Dwgs.User) (width 0.12))
  (fp_line (start -5.7 -4.9) (end -5.7 6.05) (layer F.CrtYd) (width 0.05))
  (fp_line (start -5.7 6.05) (end 5.7 6.05) (layer F.CrtYd) (width 0.05))
  (fp_line (start 5.7 6.05) (end 5.7 -4.9) (layer F.CrtYd) (width 0.05))
  (fp_line (start 5.7 -4.9) (end -5.7 -4.9) (layer F.CrtYd) (width 0.05))
  (fp_line (start -5.12 4.65) (end -5.72 4.65) (layer F.SilkS) (width 0.12))
  (fp_line (start -5.72 4.65) (end -5.72 4) (layer F.SilkS) (width 0.12))
  (fp_line (start -5 -4.18) (end 5 -4.18) (layer F.Fab) (width 0.1))
  (fp_line (start 5 -4.18) (end 5 5.82) (layer F.Fab) (width 0.1))
  (fp_line (start 5 5.82) (end -5 5.82) (layer F.Fab) (width 0.1))
  (fp_line (start -5 5.82) (end -5 -4.18) (layer F.Fab) (width 0.1))
  (fp_line (start -5 3.9) (end -4.5 4.2) (layer F.Fab) (width 0.1))
  (fp_line (start -4.5 4.2) (end -5 4.5) (layer F.Fab) (width 0.1))
  (fp_text user %R (at 0 0) (layer F.Fab)
    (effects (font (size 1 1) (thickness 0.15)))
  )
  (pad 1 smd rect (at -5 4.18) (size 0.91 0.41) (layers F.Cu F.Paste F.Mask))
  (pad 2 smd rect (at -5 3.42) (size 0.91 0.41) (layers F.Cu F.Paste F.Mask))
  (pad 3 smd rect (at -5 2.66) (size 0.91 0.41) (layers F.Cu F.Paste F.Mask))
  (pad 4 smd rect (at -5 1.9) (size 0.91 0.41) (layers F.Cu F.Paste F.Mask))
  (pad 5 smd rect (at -5 1.14) (size 0.91 0.41) (layers F.Cu F.Paste F.Mask))
  (pad 6 smd rect (at -4.19 -4.18) (size 0.41 0.91) (layers F.Cu F.Paste F.Mask))
  (pad 7 smd rect (at -3.43 -4.18) (size 0.41 0.91) (layers F.Cu F.Paste F.Mask))
  (pad 8 smd rect (at -2.67 -4.18) (size 0.41 0.91) (layers F.Cu F.Paste F.Mask))
  (pad 9 smd rect (at -1.91 -4.18) (size 0.41 0.91) (layers F.Cu F.Paste F.Mask))
  (pad 10 smd rect (at -1.15 -4.18) (size 0.41 0.91) (layers F.Cu F.Paste F.Mask))
  (pad 11 smd rect (at -0.39 -4.18) (size 0.41 0.91) (layers F.Cu F.Paste F.Mask))
  (pad 12 smd rect (at 0.37 -4.18) (size 0.41 0.91) (layers F.Cu F.Paste F.Mask))
  (pad 13 smd rect (at 1.13 -4.18) (size 0.41 0.91) (layers F.Cu F.Paste F.Mask))
  (pad 14 smd rect (at 1.89 -4.18) (size 0.41 0.91) (layers F.Cu F.Paste F.Mask))
  (pad 15 smd rect (at 2.65 -4.18) (size 0.41 0.91) (layers F.Cu F.Paste F.Mask))
  (pad 16 smd rect (at 3.41 -4.18) (size 0.41 0.91) (layers F.Cu F.Paste F.Mask))
  (pad 17 smd rect (at 4.17 -4.18) (size 0.41 0.91) (layers F.Cu F.Paste F.Mask))
  (pad 18 smd rect (at 5 -2.68) (size 0.91 0.41) (layers F.Cu F.Paste F.Mask))
  (pad 19 smd rect (at 5 -1.92) (size 0.91 0.41) (layers F.Cu F.Paste F.Mask))
  (pad 20 smd rect (at 5 -1.16) (size 0.91 0.41) (layers F.Cu F.Paste F.Mask))
  (pad 21 smd rect (at 5 -0.4) (size 0.91 0.41) (layers F.Cu F.Paste F.Mask))
  (model ${KIPRJMOD}/kicad_libs_k/models_k.3d/RF_Module_k.3dshapes/CYBLE-21Pin-10x10mm_k.wrl
    (at (xyz 0 0 0))
    (scale (xyz 1 1 1))
    (rotate (xyz 0 0 0))
  )
)
