(module DWM1000 (layer F.Cu) (tedit 5A5206A0)
  (descr "IEEE802.15.4-2011 UWB")
  (tags "UWB Module")
  (attr smd)
  (fp_text reference REF** (at -5.08 13.97) (layer F.SilkS)
    (effects (font (size 1 1) (thickness 0.15)))
  )
  (fp_text value DWM1000 (at 0 7.5) (layer F.Fab)
    (effects (font (size 1 1) (thickness 0.15)))
  )
  (fp_text user "no components, traces, or copper on any layer" (at 0 -6.35) (layer Cmts.User)
    (effects (font (size 0.5 0.5) (thickness 0.03175)))
  )
  (fp_text user "KEEP-OUT ZONE" (at 0 -8.89) (layer Cmts.User)
    (effects (font (size 1 1) (thickness 0.15)))
  )
  (fp_line (start 6.35 -12.7) (end 8.89 -10.16) (layer Dwgs.User) (width 0.15))
  (fp_line (start 2.54 -12.7) (end 8.89 -6.35) (layer Dwgs.User) (width 0.15))
  (fp_line (start -1.27 -12.7) (end 8.89 -2.54) (layer Dwgs.User) (width 0.15))
  (fp_line (start 6.35 -1.27) (end -5.08 -12.7) (layer Dwgs.User) (width 0.15))
  (fp_line (start 2.54 -1.27) (end -8.89 -12.7) (layer Dwgs.User) (width 0.15))
  (fp_line (start -8.89 -8.89) (end -1.27 -1.27) (layer Dwgs.User) (width 0.15))
  (fp_line (start -8.89 -5.08) (end -5.08 -1.27) (layer Dwgs.User) (width 0.15))
  (fp_line (start -8.89 -12.7) (end 8.89 -12.7) (layer Dwgs.User) (width 0.15))
  (fp_line (start 8.89 -12.7) (end 8.89 -1.27) (layer Dwgs.User) (width 0.15))
  (fp_line (start 8.89 -1.27) (end -8.89 -1.27) (layer Dwgs.User) (width 0.15))
  (fp_line (start -8.89 -1.27) (end -8.89 -12.7) (layer Dwgs.User) (width 0.15))
  (fp_text user %R (at 0 0) (layer F.Fab)
    (effects (font (size 1 1) (thickness 0.15)))
  )
  (fp_line (start -6 11.75) (end -6.75 11.75) (layer F.SilkS) (width 0.15))
  (fp_line (start -6.75 11.75) (end -6.75 10) (layer F.SilkS) (width 0.15))
  (fp_line (start 6 11.75) (end 6.75 11.75) (layer F.SilkS) (width 0.15))
  (fp_line (start 6.75 11.75) (end 6.75 10) (layer F.SilkS) (width 0.15))
  (fp_line (start 6.5 11.5) (end 6.5 -11.5) (layer F.Fab) (width 0.15))
  (fp_line (start 6.5 -11.5) (end -6.5 -11.5) (layer F.Fab) (width 0.15))
  (fp_line (start -6.5 -11.5) (end -6.5 11.5) (layer F.Fab) (width 0.15))
  (fp_line (start -6.5 11.5) (end 6.5 11.5) (layer F.Fab) (width 0.15))
  (fp_line (start -7.85 12.85) (end 7.85 12.85) (layer F.CrtYd) (width 0.05))
  (fp_line (start 7.85 12.85) (end 7.85 -11.85) (layer F.CrtYd) (width 0.05))
  (fp_line (start 7.85 -11.85) (end -7.85 -11.85) (layer F.CrtYd) (width 0.05))
  (fp_line (start -7.85 -11.85) (end -7.85 12.85) (layer F.CrtYd) (width 0.05))
  (fp_line (start -3.81 -2.47) (end -3.81 -10.725) (layer F.Fab) (width 0.15))
  (fp_line (start -3.81 -10.725) (end 1.905 -10.725) (layer F.Fab) (width 0.15))
  (fp_line (start 1.905 -10.725) (end 1.905 -2.47) (layer F.Fab) (width 0.15))
  (fp_line (start 1.905 -2.47) (end -3.81 -2.47) (layer F.Fab) (width 0.15))
  (fp_line (start -5.08 10.865) (end -5.715 10.23) (layer F.Fab) (width 0.15))
  (fp_line (start -5.715 10.23) (end -5.715 -1.2) (layer F.Fab) (width 0.15))
  (fp_line (start -5.715 -1.2) (end 4.445 -1.2) (layer F.Fab) (width 0.15))
  (fp_line (start 4.445 -1.2) (end 5.08 -1.2) (layer F.Fab) (width 0.15))
  (fp_line (start 5.08 -1.2) (end 5.715 -0.565) (layer F.Fab) (width 0.15))
  (fp_line (start 5.715 -0.565) (end 5.715 10.865) (layer F.Fab) (width 0.15))
  (fp_line (start 5.715 10.865) (end -5.08 10.865) (layer F.Fab) (width 0.15))
  (fp_line (start -6.75 -11.75) (end 6.75 -11.75) (layer F.SilkS) (width 0.15))
  (fp_line (start 6.75 -11.75) (end 6.75 -1.75) (layer F.SilkS) (width 0.15))
  (fp_line (start -6.75 -11.75) (end -6.75 -1.75) (layer F.SilkS) (width 0.15))
  (pad 1 smd rect (at -6.3 -0.7988 90) (size 1 2.45) (layers F.Cu F.Paste F.Mask))
  (pad 2 smd rect (at -6.3 0.6012 90) (size 1 2.45) (layers F.Cu F.Paste F.Mask))
  (pad 3 smd rect (at -6.3 2.0012 90) (size 1 2.45) (layers F.Cu F.Paste F.Mask))
  (pad 4 smd rect (at -6.3 3.4012 90) (size 1 2.45) (layers F.Cu F.Paste F.Mask))
  (pad 5 smd rect (at -6.3 4.8012 90) (size 1 2.45) (layers F.Cu F.Paste F.Mask))
  (pad 6 smd rect (at -6.3 6.2012 90) (size 1 2.45) (layers F.Cu F.Paste F.Mask))
  (pad 7 smd rect (at -6.3 7.6012 90) (size 1 2.45) (layers F.Cu F.Paste F.Mask))
  (pad 8 smd rect (at -6.3 9.0012 90) (size 1 2.45) (layers F.Cu F.Paste F.Mask))
  (pad 9 smd rect (at -4.9 11.2962) (size 1 2.45) (layers F.Cu F.Paste F.Mask))
  (pad 10 smd rect (at -3.5 11.2962) (size 1 2.45) (layers F.Cu F.Paste F.Mask))
  (pad 11 smd rect (at -2.1 11.2962) (size 1 2.45) (layers F.Cu F.Paste F.Mask))
  (pad 12 smd rect (at -0.7 11.2962) (size 1 2.45) (layers F.Cu F.Paste F.Mask))
  (pad 13 smd rect (at 0.7 11.2962) (size 1 2.45) (layers F.Cu F.Paste F.Mask))
  (pad 14 smd rect (at 2.1 11.2962) (size 1 2.45) (layers F.Cu F.Paste F.Mask))
  (pad 15 smd rect (at 3.5 11.2962) (size 1 2.45) (layers F.Cu F.Paste F.Mask))
  (pad 16 smd rect (at 4.9 11.2962) (size 1 2.45) (layers F.Cu F.Paste F.Mask))
  (pad 17 smd rect (at 6.3 9 90) (size 1 2.45) (layers F.Cu F.Paste F.Mask))
  (pad 18 smd rect (at 6.3 7.6 90) (size 1 2.45) (layers F.Cu F.Paste F.Mask))
  (pad 19 smd rect (at 6.3 6.2012 90) (size 1 2.45) (layers F.Cu F.Paste F.Mask))
  (pad 20 smd rect (at 6.3 4.8012 90) (size 1 2.45) (layers F.Cu F.Paste F.Mask))
  (pad 21 smd rect (at 6.3 3.4012 90) (size 1 2.45) (layers F.Cu F.Paste F.Mask))
  (pad 22 smd rect (at 6.3 2.0012 90) (size 1 2.45) (layers F.Cu F.Paste F.Mask))
  (pad 23 smd rect (at 6.3 0.6012 90) (size 1 2.45) (layers F.Cu F.Paste F.Mask))
  (pad 24 smd rect (at 6.3 -0.7988 90) (size 1 2.45) (layers F.Cu F.Paste F.Mask))
  (model ${KIPRJMOD}/kicad_libs_k/models_k.3d/RF_Module_k.3dshapes/DWM1000_k.wrl
    (at (xyz 0 0 0))
    (scale (xyz 1 1 1))
    (rotate (xyz 0 0 0))
  )
)
