(module HOPERF_RFM9XW_THT (layer F.Cu) (tedit 5A030172)
  (descr " Low Power Long Range Transceiver Module SMD-16 http://www.hoperf.com/upload/rf/RFM95_96_97_98W.pdf")
  (tags " Low Power Long Range Transceiver Module")
  (fp_text reference REF** (at 1 -3) (layer F.SilkS)
    (effects (font (size 1 1) (thickness 0.15)))
  )
  (fp_text value HOPERF_RFM9XW_THT (at 5.5 16.5) (layer F.Fab)
    (effects (font (size 1 1) (thickness 0.15)))
  )
  (fp_line (start -1.6 -1) (end 14.4 -1) (layer F.Fab) (width 0.12))
  (fp_line (start 14.4 15) (end 14.4 -1) (layer F.Fab) (width 0.12))
  (fp_line (start -1.6 15) (end 14.4 15) (layer F.Fab) (width 0.12))
  (fp_line (start -1.6 15) (end -1.6 0.5) (layer F.Fab) (width 0.12))
  (fp_text user %R (at 7 7) (layer F.Fab)
    (effects (font (size 1 1) (thickness 0.15)))
  )
  (fp_line (start -1.8 -1.2) (end 14.6 -1.2) (layer F.SilkS) (width 0.1))
  (fp_line (start 14.6 -1.2) (end 14.6 15.2) (layer F.SilkS) (width 0.1))
  (fp_line (start 14.6 15.2) (end -1.8 15.2) (layer F.SilkS) (width 0.1))
  (fp_line (start -1.8 15.2) (end -1.8 -1.2) (layer F.SilkS) (width 0.1))
  (fp_line (start -1.6 0.5) (end -1.1 0) (layer F.Fab) (width 0.12))
  (fp_line (start -1.1 0) (end -1.6 -0.5) (layer F.Fab) (width 0.12))
  (fp_line (start -1.6 -0.5) (end -1.6 -1) (layer F.Fab) (width 0.12))
  (fp_line (start -1.93 -1.33) (end 14.73 -1.33) (layer F.CrtYd) (width 0.05))
  (fp_line (start 14.73 -1.33) (end 14.73 15.45) (layer F.CrtYd) (width 0.05))
  (fp_line (start 14.73 15.45) (end -1.93 15.45) (layer F.CrtYd) (width 0.05))
  (fp_line (start -1.93 15.45) (end -1.93 -1.33) (layer F.CrtYd) (width 0.05))
  (pad 1 thru_hole circle (at 0 0) (size 1.524 1.524) (drill 0.762) (layers *.Cu *.Mask))
  (pad 2 thru_hole circle (at 0 2) (size 1.524 1.524) (drill 0.762) (layers *.Cu *.Mask))
  (pad 3 thru_hole circle (at 0 4) (size 1.524 1.524) (drill 0.762) (layers *.Cu *.Mask))
  (pad 4 thru_hole circle (at 0 6) (size 1.524 1.524) (drill 0.762) (layers *.Cu *.Mask))
  (pad 5 thru_hole circle (at 0 8) (size 1.524 1.524) (drill 0.762) (layers *.Cu *.Mask))
  (pad 6 thru_hole circle (at 0 10) (size 1.524 1.524) (drill 0.762) (layers *.Cu *.Mask))
  (pad 7 thru_hole circle (at 0 12) (size 1.524 1.524) (drill 0.762) (layers *.Cu *.Mask))
  (pad 8 thru_hole circle (at 0 14) (size 1.524 1.524) (drill 0.762) (layers *.Cu *.Mask))
  (pad 9 thru_hole circle (at 12.8 14) (size 1.524 1.524) (drill 0.762) (layers *.Cu *.Mask))
  (pad 10 thru_hole circle (at 12.8 12) (size 1.524 1.524) (drill 0.762) (layers *.Cu *.Mask))
  (pad 11 thru_hole circle (at 12.8 10) (size 1.524 1.524) (drill 0.762) (layers *.Cu *.Mask))
  (pad 12 thru_hole circle (at 12.8 8) (size 1.524 1.524) (drill 0.762) (layers *.Cu *.Mask))
  (pad 13 thru_hole circle (at 12.8 6) (size 1.524 1.524) (drill 0.762) (layers *.Cu *.Mask))
  (pad 14 thru_hole circle (at 12.8 4) (size 1.524 1.524) (drill 0.762) (layers *.Cu *.Mask))
  (pad 15 thru_hole circle (at 12.8 2) (size 1.524 1.524) (drill 0.762) (layers *.Cu *.Mask))
  (pad 16 thru_hole circle (at 12.8 0) (size 1.524 1.524) (drill 0.762) (layers *.Cu *.Mask))
  (model ${KIPRJMOD}/kicad_libs_k/models_k.3d/RF_Module_k.3dshapes/HOPERF_RFM9XW_THT_k.wrl
    (at (xyz 0 0 0))
    (scale (xyz 1 1 1))
    (rotate (xyz 0 0 0))
  )
)
