(module IQRF_TRx2DA_KON-SIM-01 (layer F.Cu) (tedit 5B3E7DE4)
  (descr "8 pin SIM connector for IQRF TR-x2DA(T) modules, http://iqrf.org/weben/downloads.php?id=104")
  (tags "IQRF_KON-SIM-01 IQRF_TRx2DA")
  (attr smd)
  (fp_text reference REF** (at 0.1 -9) (layer F.SilkS)
    (effects (font (size 1 1) (thickness 0.15)))
  )
  (fp_text value IQRF_TRx2DA_KON-SIM-01 (at 0 24) (layer F.Fab)
    (effects (font (size 1 1) (thickness 0.15)))
  )
  (fp_line (start -3.895 -4.975) (end -2.995 -5.92) (layer F.Fab) (width 0.1))
  (fp_line (start -4.8 -5.92) (end -3.895 -4.975) (layer F.Fab) (width 0.1))
  (fp_line (start -5.69 -5.92) (end -4.795 -5.92) (layer F.Fab) (width 0.1))
  (fp_line (start -4.8 -6.49) (end -2.995 -6.49) (layer F.Fab) (width 0.15))
  (fp_line (start -4.8 -6.49) (end -2.995 -6.49) (layer F.SilkS) (width 0.15))
  (fp_line (start 6.5 22.75) (end 8.5 20.75) (layer Dwgs.User) (width 0.15))
  (fp_line (start 4.5 22.75) (end 8.5 18.75) (layer Dwgs.User) (width 0.15))
  (fp_line (start 2.5 22.75) (end 8.5 16.75) (layer Dwgs.User) (width 0.15))
  (fp_line (start 0.5 22.75) (end 8.5 14.75) (layer Dwgs.User) (width 0.15))
  (fp_line (start -8.225 -9.72) (end -8.225 5.93) (layer F.Fab) (width 0.1))
  (fp_line (start -8.225 5.93) (end 8.225 5.93) (layer F.Fab) (width 0.1))
  (fp_line (start 8.225 5.93) (end 8.225 -9.72) (layer F.Fab) (width 0.1))
  (fp_line (start -2.995 -5.92) (end 5.69 -5.92) (layer F.Fab) (width 0.1))
  (fp_line (start -8.225 -9.72) (end -5.69 -9.72) (layer F.Fab) (width 0.1))
  (fp_line (start 5.69 -9.72) (end 8.225 -9.72) (layer F.Fab) (width 0.1))
  (fp_line (start 5.69 -9.72) (end 5.69 -5.92) (layer F.Fab) (width 0.1))
  (fp_line (start -5.69 -9.72) (end -5.69 -5.92) (layer F.Fab) (width 0.1))
  (fp_line (start -8.5 6.2) (end 8.5 6.2) (layer F.SilkS) (width 0.12))
  (fp_line (start 8.5 6.2) (end 8.5 -9.99) (layer F.SilkS) (width 0.12))
  (fp_line (start 5.42 -9.99) (end 8.5 -9.99) (layer F.SilkS) (width 0.12))
  (fp_line (start -8.5 6.2) (end -8.5 -9.99) (layer F.SilkS) (width 0.12))
  (fp_line (start -8.5 -9.99) (end -5.42 -9.99) (layer F.SilkS) (width 0.12))
  (fp_line (start 5.42 -6.19) (end 5.42 -9.99) (layer F.SilkS) (width 0.12))
  (fp_line (start -5.42 -6.19) (end 5.42 -6.19) (layer F.SilkS) (width 0.12))
  (fp_line (start -5.42 -9.98) (end -5.42 -6.19) (layer F.SilkS) (width 0.12))
  (fp_line (start 8.73 23) (end 8.73 -10.22) (layer F.CrtYd) (width 0.05))
  (fp_line (start -8.73 -10.22) (end 8.73 -10.22) (layer F.CrtYd) (width 0.05))
  (fp_line (start -8.73 23) (end -8.73 -10.22) (layer F.CrtYd) (width 0.05))
  (fp_line (start -8.73 23) (end 8.73 23) (layer F.CrtYd) (width 0.05))
  (fp_text user %R (at 0 0) (layer F.Fab)
    (effects (font (size 1 1) (thickness 0.15)))
  )
  (fp_line (start -8.5 22.75) (end -8.5 11.75) (layer Dwgs.User) (width 0.15))
  (fp_line (start -8.5 11.75) (end 8.5 11.75) (layer Dwgs.User) (width 0.15))
  (fp_line (start 8.5 11.75) (end 8.5 22.75) (layer Dwgs.User) (width 0.15))
  (fp_line (start 8.5 22.75) (end -8.5 22.75) (layer Dwgs.User) (width 0.15))
  (fp_text user "KEEP OUT ZONE" (at 0 14.75) (layer Cmts.User)
    (effects (font (size 1 1) (thickness 0.15)))
  )
  (fp_text user Antenna (at 0 20) (layer Cmts.User)
    (effects (font (size 1 1) (thickness 0.15)))
  )
  (fp_line (start -8.5 13.75) (end -6.5 11.75) (layer Dwgs.User) (width 0.15))
  (fp_line (start -8.5 15.75) (end -4.5 11.75) (layer Dwgs.User) (width 0.15))
  (fp_line (start -8.5 17.75) (end -2.5 11.75) (layer Dwgs.User) (width 0.15))
  (fp_line (start -8.5 19.75) (end -0.5 11.75) (layer Dwgs.User) (width 0.15))
  (fp_line (start -8.5 21.75) (end 1.5 11.75) (layer Dwgs.User) (width 0.15))
  (fp_line (start -7.5 22.75) (end 3.5 11.75) (layer Dwgs.User) (width 0.15))
  (fp_line (start -5.5 22.75) (end 5.5 11.75) (layer Dwgs.User) (width 0.15))
  (fp_line (start -3.5 22.75) (end 7.5 11.75) (layer Dwgs.User) (width 0.15))
  (fp_line (start -1.5 22.75) (end 8.5 12.75) (layer Dwgs.User) (width 0.15))
  (pad "" smd rect (at 7.075 -1.07) (size 1.7 4.5) (layers F.Cu F.Paste F.Mask))
  (pad "" smd rect (at -7.075 -1.07) (size 1.7 4.5) (layers F.Cu F.Paste F.Mask))
  (pad C8 smd rect (at 3.725 4.975) (size 1 1.9) (layers F.Cu F.Paste F.Mask))
  (pad C7 smd rect (at 1.185 4.975) (size 1 1.9) (layers F.Cu F.Paste F.Mask))
  (pad C6 smd rect (at -1.355 4.975) (size 1 1.9) (layers F.Cu F.Paste F.Mask))
  (pad C5 smd rect (at -3.895 4.975) (size 1 1.9) (layers F.Cu F.Paste F.Mask))
  (pad C4 smd rect (at 3.725 -4.975) (size 1 1.9) (layers F.Cu F.Paste F.Mask))
  (pad C3 smd rect (at 1.185 -4.975) (size 1 1.9) (layers F.Cu F.Paste F.Mask))
  (pad C2 smd rect (at -1.355 -4.975) (size 1 1.9) (layers F.Cu F.Paste F.Mask))
  (pad C1 smd rect (at -3.895 -4.975) (size 1 1.9) (layers F.Cu F.Paste F.Mask))
  (model ${KIPRJMOD}/kicad_libs_k/models_k.3d/RF_Module_k.3dshapes/IQRF_TRx2DA_KON-SIM-01_k.wrl
    (at (xyz 0 0 0))
    (scale (xyz 1 1 1))
    (rotate (xyz 0 0 0))
  )
)
