(module SIMCom_SIM800C (layer F.Cu) (tedit 5B1BD79D)
  (descr "Quad-Band GSM/GPRS module, 17.6x15.7x2.3mm, http://simcom.ee/documents/SIM800C/SIM800C_Hardware_Design_V1.05.pdf")
  (tags "GSM Module SIM800C")
  (attr smd)
  (fp_text reference REF** (at 0 -11) (layer F.SilkS)
    (effects (font (size 1 1) (thickness 0.15)))
  )
  (fp_text value SIMCom_SIM800C (at 0 11) (layer F.Fab)
    (effects (font (size 1 1) (thickness 0.15)))
  )
  (fp_text user %R (at 0 0) (layer F.Fab)
    (effects (font (size 1 1) (thickness 0.15)))
  )
  (fp_text user "Keep out " (at 5.18 -4.95 90) (layer Cmts.User)
    (effects (font (size 0.5 0.5) (thickness 0.05)))
  )
  (fp_text user "of Area" (at 6 -4.97 90) (layer Cmts.User)
    (effects (font (size 0.5 0.5) (thickness 0.05)))
  )
  (fp_line (start -7.96 8.91) (end -5 8.91) (layer F.SilkS) (width 0.12))
  (fp_line (start 7.96 8.91) (end 7.96 6.6) (layer F.SilkS) (width 0.12))
  (fp_line (start 7.96 8.91) (end 5 8.91) (layer F.SilkS) (width 0.12))
  (fp_line (start -7.96 8.91) (end -7.96 6.6) (layer F.SilkS) (width 0.12))
  (fp_line (start 7.96 -8.91) (end 5 -8.91) (layer F.SilkS) (width 0.12))
  (fp_line (start 7.96 -8.91) (end 7.96 -6.6) (layer F.SilkS) (width 0.12))
  (fp_line (start -7.85 -8.91) (end -5 -8.91) (layer F.SilkS) (width 0.12))
  (fp_line (start -8.9 -9.85) (end -8.9 9.85) (layer F.CrtYd) (width 0.05))
  (fp_line (start -8.9 9.85) (end 8.9 9.85) (layer F.CrtYd) (width 0.05))
  (fp_line (start 8.9 -9.85) (end 8.9 9.85) (layer F.CrtYd) (width 0.05))
  (fp_line (start -8.9 -9.85) (end 8.9 -9.85) (layer F.CrtYd) (width 0.05))
  (fp_line (start 4.65 -7.43) (end 4.65 -2.48) (layer Dwgs.User) (width 0.1))
  (fp_line (start 4.65 -2.48) (end 6.8 -2.48) (layer Dwgs.User) (width 0.1))
  (fp_line (start 6.8 -7.43) (end 6.8 -2.48) (layer Dwgs.User) (width 0.1))
  (fp_line (start 4.65 -7.43) (end 6.8 -7.43) (layer Dwgs.User) (width 0.1))
  (fp_line (start -7.85 -8.8) (end -7.85 8.8) (layer F.Fab) (width 0.1))
  (fp_line (start -7.85 8.8) (end 7.85 8.8) (layer F.Fab) (width 0.1))
  (fp_line (start 7.85 -8.8) (end 7.85 8.8) (layer F.Fab) (width 0.1))
  (fp_line (start -7.85 -8.8) (end 7.85 -8.8) (layer F.Fab) (width 0.1))
  (fp_line (start 4.65 -2.48) (end 6.8 -4.63) (layer Dwgs.User) (width 0.1))
  (fp_line (start 4.65 -3.25) (end 6.8 -5.4) (layer Dwgs.User) (width 0.1))
  (fp_line (start 4.65 -4.02) (end 6.8 -6.17) (layer Dwgs.User) (width 0.1))
  (fp_line (start 4.65 -4.79) (end 6.8 -6.94) (layer Dwgs.User) (width 0.1))
  (fp_line (start 4.65 -5.56) (end 6.51 -7.42) (layer Dwgs.User) (width 0.1))
  (fp_line (start 4.65 -6.33) (end 5.78 -7.42) (layer Dwgs.User) (width 0.1))
  (fp_line (start 4.65 -7.1) (end 4.97 -7.42) (layer Dwgs.User) (width 0.1))
  (fp_line (start 5.415 -2.486) (end 6.8 -3.86) (layer Dwgs.User) (width 0.1))
  (fp_line (start 6.18 -2.48) (end 6.8 -3.09) (layer Dwgs.User) (width 0.1))
  (fp_line (start -7.85 -6.3) (end -7.1 -6.05) (layer F.Fab) (width 0.1))
  (fp_line (start -7.85 -5.8) (end -7.1 -6.05) (layer F.Fab) (width 0.1))
  (pad 1 smd oval (at -7.85 -6.05) (size 1.6 0.6) (layers F.Cu F.Paste F.Mask))
  (pad 2 smd oval (at -7.85 -4.95) (size 1.6 0.6) (layers F.Cu F.Paste F.Mask))
  (pad 3 smd oval (at -7.85 -3.85) (size 1.6 0.6) (layers F.Cu F.Paste F.Mask))
  (pad 4 smd oval (at -7.85 -2.75) (size 1.6 0.6) (layers F.Cu F.Paste F.Mask))
  (pad 5 smd oval (at -7.85 -1.65) (size 1.6 0.6) (layers F.Cu F.Paste F.Mask))
  (pad 6 smd oval (at -7.85 -0.55) (size 1.6 0.6) (layers F.Cu F.Paste F.Mask))
  (pad 7 smd oval (at -7.85 0.55) (size 1.6 0.6) (layers F.Cu F.Paste F.Mask))
  (pad 8 smd oval (at -7.85 1.65) (size 1.6 0.6) (layers F.Cu F.Paste F.Mask))
  (pad 9 smd oval (at -7.85 2.75) (size 1.6 0.6) (layers F.Cu F.Paste F.Mask))
  (pad 10 smd oval (at -7.85 3.85) (size 1.6 0.6) (layers F.Cu F.Paste F.Mask))
  (pad 11 smd oval (at -7.85 4.95) (size 1.6 0.6) (layers F.Cu F.Paste F.Mask))
  (pad 12 smd oval (at -7.85 6.05) (size 1.6 0.6) (layers F.Cu F.Paste F.Mask))
  (pad 13 smd oval (at -4.4 8.8) (size 0.6 1.6) (layers F.Cu F.Paste F.Mask))
  (pad 14 smd oval (at -3.3 8.8) (size 0.6 1.6) (layers F.Cu F.Paste F.Mask))
  (pad 15 smd oval (at -2.2 8.8) (size 0.6 1.6) (layers F.Cu F.Paste F.Mask))
  (pad 16 smd oval (at -1.1 8.8) (size 0.6 1.6) (layers F.Cu F.Paste F.Mask))
  (pad 17 smd oval (at 0 8.8) (size 0.6 1.6) (layers F.Cu F.Paste F.Mask))
  (pad 18 smd oval (at 1.1 8.8) (size 0.6 1.6) (layers F.Cu F.Paste F.Mask))
  (pad 19 smd oval (at 2.2 8.8) (size 0.6 1.6) (layers F.Cu F.Paste F.Mask))
  (pad 20 smd oval (at 3.3 8.8) (size 0.6 1.6) (layers F.Cu F.Paste F.Mask))
  (pad 21 smd oval (at 4.4 8.8) (size 0.6 1.6) (layers F.Cu F.Paste F.Mask))
  (pad 22 smd oval (at 7.85 6.05) (size 1.6 0.6) (layers F.Cu F.Paste F.Mask))
  (pad 23 smd oval (at 7.85 4.95) (size 1.6 0.6) (layers F.Cu F.Paste F.Mask))
  (pad 24 smd oval (at 7.85 3.85) (size 1.6 0.6) (layers F.Cu F.Paste F.Mask))
  (pad 25 smd oval (at 7.85 2.75) (size 1.6 0.6) (layers F.Cu F.Paste F.Mask))
  (pad 26 smd oval (at 7.85 1.65) (size 1.6 0.6) (layers F.Cu F.Paste F.Mask))
  (pad 27 smd oval (at 7.85 0.55) (size 1.6 0.6) (layers F.Cu F.Paste F.Mask))
  (pad 28 smd oval (at 7.85 -0.55) (size 1.6 0.6) (layers F.Cu F.Paste F.Mask))
  (pad 29 smd oval (at 7.85 -1.65) (size 1.6 0.6) (layers F.Cu F.Paste F.Mask))
  (pad 30 smd oval (at 7.85 -2.75) (size 1.6 0.6) (layers F.Cu F.Paste F.Mask))
  (pad 31 smd oval (at 7.85 -3.85) (size 1.6 0.6) (layers F.Cu F.Paste F.Mask))
  (pad 32 smd oval (at 7.85 -4.95) (size 1.6 0.6) (layers F.Cu F.Paste F.Mask))
  (pad 33 smd oval (at 7.85 -6.05) (size 1.6 0.6) (layers F.Cu F.Paste F.Mask))
  (pad 34 smd oval (at 4.4 -8.8) (size 0.6 1.6) (layers F.Cu F.Paste F.Mask))
  (pad 35 smd oval (at 3.3 -8.8) (size 0.6 1.6) (layers F.Cu F.Paste F.Mask))
  (pad 36 smd oval (at 2.2 -8.8) (size 0.6 1.6) (layers F.Cu F.Paste F.Mask))
  (pad 37 smd oval (at 1.1 -8.8) (size 0.6 1.6) (layers F.Cu F.Paste F.Mask))
  (pad 38 smd oval (at 0 -8.8) (size 0.6 1.6) (layers F.Cu F.Paste F.Mask))
  (pad 39 smd oval (at -1.1 -8.8) (size 0.6 1.6) (layers F.Cu F.Paste F.Mask))
  (pad 40 smd oval (at -2.2 -8.8) (size 0.6 1.6) (layers F.Cu F.Paste F.Mask))
  (pad 41 smd oval (at -3.3 -8.8) (size 0.6 1.6) (layers F.Cu F.Paste F.Mask))
  (pad 42 smd oval (at -4.4 -8.8) (size 0.6 1.6) (layers F.Cu F.Paste F.Mask))
  (model ${KIPRJMOD}/kicad_libs_k/models_k.3d/RF_Module_k.3dshapes/SIMCom_SIM800C_k.wrl
    (at (xyz 0 0 0))
    (scale (xyz 1 1 1))
    (rotate (xyz 0 0 0))
  )
)
