(module Conn_XLR_female_Neutrik_MC5MAH locked (layer F.Cu) (tedit 5BAA16D3)
  (fp_text reference J101 (at 2.6122 2.6522 180) (layer F.SilkS)
    (effects (font (size 0.75 0.75) (thickness 0.15)))
  )
  (fp_text value "XLR Neutric NC5MAH" (at 4.7 -11.85) (layer F.Fab) hide
    (effects (font (size 1 1) (thickness 0.15)))
  )
  (fp_line (start 9 2) (end 9 -17.78) (layer F.SilkS) (width 0.1))
  (fp_line (start -9 2) (end 9 2) (layer F.SilkS) (width 0.1))
  (fp_line (start -9 -17.78) (end -9 2) (layer F.SilkS) (width 0.1))
  (fp_line (start 11 -20.5) (end 11 -17.8) (layer F.Fab) (width 0.1))
  (fp_line (start -11 -20.5) (end 11 -20.5) (layer F.Fab) (width 0.1))
  (fp_line (start -11 -17.8) (end -11 -20.5) (layer F.Fab) (width 0.1))
  (fp_line (start 11 -17.78) (end -11 -17.78) (layer F.SilkS) (width 0.1))
  (fp_line (start -11 -20.5) (end 11 -20.5) (layer F.CrtYd) (width 0.15))
  (fp_line (start 11 -20.5) (end 11 -17.8) (layer F.CrtYd) (width 0.15))
  (fp_line (start 11 -17.8) (end 9 -17.8) (layer F.CrtYd) (width 0.15))
  (fp_line (start 9 -17.8) (end 9 2) (layer F.CrtYd) (width 0.15))
  (fp_line (start 9 2) (end -9 2) (layer F.CrtYd) (width 0.15))
  (fp_line (start -9 2) (end -9 -17.8) (layer F.CrtYd) (width 0.15))
  (fp_line (start -9 -17.8) (end -11 -17.8) (layer F.CrtYd) (width 0.15))
  (fp_line (start -11 -17.8) (end -11 -20.5) (layer F.CrtYd) (width 0.15))
  (pad "" np_thru_hole circle (at 3.81 -8.89) (size 1.6 1.6) (drill 1.6) (layers *.Cu *.Mask))
  (pad 5 thru_hole circle (at -6.98 0) (size 3 3) (drill 1.6) (layers *.Cu *.Mask))
  (pad "" np_thru_hole circle (at -3.81 -13.97) (size 1.6 1.6) (drill 1.6) (layers *.Cu *.Mask))
  (pad 4 thru_hole circle (at -3.81 -5.08) (size 2.5 2.5) (drill 1.2) (layers *.Cu *.Mask))
  (pad 3 thru_hole circle (at 0.1 0.05) (size 2.5 2.5) (drill 1.2) (layers *.Cu *.Mask))
  (pad 2 thru_hole circle (at 3.81 -5.08) (size 2.5 2.5) (drill 1.2) (layers *.Cu *.Mask))
  (pad 1 thru_hole circle (at 6.98 0) (size 3 3) (drill 1.6) (layers *.Cu *.Mask))
  (pad 6 thru_hole circle (at 0 -5.08) (size 2.5 2.5) (drill 1.2) (layers *.Cu *.Mask))
  (model ${KIKONMOD}/3D_packages/Conn_XLR_Neutrik_NC5MAH.stp
    (offset (xyz 0 18 12.5))
    (scale (xyz 1 1 1))
    (rotate (xyz -90 0 0))
  )
)
