(module TerminalBlock_WAGO_804-310_1x10_P7.50mm_45Degree (layer F.Cu) (tedit 5B294EDD)
  (descr "Terminal Block WAGO 804-310, 45Degree (cable under 45degree), 10 pins, pitch 7.5mm, size 74x15mm^2, drill diamater 1.2mm, pad diameter 3mm, see , script-generated with , script-generated using https://github.com/pointhi/kicad-footprint-generator/scripts/TerminalBlock_WAGO")
  (tags "THT Terminal Block WAGO 804-310 45Degree pitch 7.5mm size 74x15mm^2 drill 1.2mm pad 3mm")
  (fp_text reference REF** (at 34.25 -9.36) (layer F.SilkS)
    (effects (font (size 1 1) (thickness 0.15)))
  )
  (fp_text value TerminalBlock_WAGO_804-310_1x10_P7.50mm_45Degree (at 34.25 7.76) (layer F.Fab)
    (effects (font (size 1 1) (thickness 0.15)))
  )
  (fp_arc (start 1.25 5.59) (end 2.701 5.251) (angle -153.676754) (layer F.Fab) (width 0.1))
  (fp_arc (start 1.25 4.911) (end 2.7 5.25) (angle 153.676754) (layer F.Fab) (width 0.1))
  (fp_arc (start 1.25 5.59) (end 2.701 5.251) (angle -153.676754) (layer F.SilkS) (width 0.12))
  (fp_arc (start 1.25 4.911) (end 2.7 5.25) (angle 153.676754) (layer F.SilkS) (width 0.12))
  (fp_arc (start 1.25 -5.75) (end 1.25 -4.25) (angle -1) (layer F.SilkS) (width 0.12))
  (fp_arc (start 1.25 -5.75) (end 2.383 -6.735) (angle -230) (layer F.SilkS) (width 0.12))
  (fp_arc (start 8.75 5.59) (end 10.201 5.251) (angle -153.676754) (layer F.Fab) (width 0.1))
  (fp_arc (start 8.75 4.911) (end 10.2 5.25) (angle 153.676754) (layer F.Fab) (width 0.1))
  (fp_arc (start 8.75 5.59) (end 10.201 5.251) (angle -153.676754) (layer F.SilkS) (width 0.12))
  (fp_arc (start 8.75 4.911) (end 10.2 5.25) (angle 153.676754) (layer F.SilkS) (width 0.12))
  (fp_arc (start 8.75 -5.75) (end 8.75 -4.25) (angle -1) (layer F.SilkS) (width 0.12))
  (fp_arc (start 8.75 -5.75) (end 9.883 -6.735) (angle -230) (layer F.SilkS) (width 0.12))
  (fp_arc (start 16.25 5.59) (end 17.701 5.251) (angle -153.676754) (layer F.Fab) (width 0.1))
  (fp_arc (start 16.25 4.911) (end 17.7 5.25) (angle 153.676754) (layer F.Fab) (width 0.1))
  (fp_arc (start 16.25 5.59) (end 17.701 5.251) (angle -153.676754) (layer F.SilkS) (width 0.12))
  (fp_arc (start 16.25 4.911) (end 17.7 5.25) (angle 153.676754) (layer F.SilkS) (width 0.12))
  (fp_arc (start 16.25 -5.75) (end 16.25 -4.25) (angle -1) (layer F.SilkS) (width 0.12))
  (fp_arc (start 16.25 -5.75) (end 17.383 -6.735) (angle -230) (layer F.SilkS) (width 0.12))
  (fp_arc (start 23.75 5.59) (end 25.201 5.251) (angle -153.676754) (layer F.Fab) (width 0.1))
  (fp_arc (start 23.75 4.911) (end 25.2 5.25) (angle 153.676754) (layer F.Fab) (width 0.1))
  (fp_arc (start 23.75 5.59) (end 25.201 5.251) (angle -153.676754) (layer F.SilkS) (width 0.12))
  (fp_arc (start 23.75 4.911) (end 25.2 5.25) (angle 153.676754) (layer F.SilkS) (width 0.12))
  (fp_arc (start 23.75 -5.75) (end 23.75 -4.25) (angle -1) (layer F.SilkS) (width 0.12))
  (fp_arc (start 23.75 -5.75) (end 24.883 -6.735) (angle -230) (layer F.SilkS) (width 0.12))
  (fp_arc (start 31.25 5.59) (end 32.701 5.251) (angle -153.676754) (layer F.Fab) (width 0.1))
  (fp_arc (start 31.25 4.911) (end 32.701 5.25) (angle 153.676754) (layer F.Fab) (width 0.1))
  (fp_arc (start 31.25 5.59) (end 32.701 5.251) (angle -153.676754) (layer F.SilkS) (width 0.12))
  (fp_arc (start 31.25 4.911) (end 32.701 5.25) (angle 153.676754) (layer F.SilkS) (width 0.12))
  (fp_arc (start 31.25 -5.75) (end 31.25 -4.25) (angle -1) (layer F.SilkS) (width 0.12))
  (fp_arc (start 31.25 -5.75) (end 32.383 -6.735) (angle -230) (layer F.SilkS) (width 0.12))
  (fp_arc (start 38.75 5.59) (end 40.201 5.251) (angle -153.676754) (layer F.Fab) (width 0.1))
  (fp_arc (start 38.75 4.911) (end 40.2 5.25) (angle 153.676754) (layer F.Fab) (width 0.1))
  (fp_arc (start 38.75 5.59) (end 40.201 5.251) (angle -153.676754) (layer F.SilkS) (width 0.12))
  (fp_arc (start 38.75 4.911) (end 40.2 5.25) (angle 153.676754) (layer F.SilkS) (width 0.12))
  (fp_arc (start 38.75 -5.75) (end 38.75 -4.25) (angle -1) (layer F.SilkS) (width 0.12))
  (fp_arc (start 38.75 -5.75) (end 39.883 -6.735) (angle -230) (layer F.SilkS) (width 0.12))
  (fp_arc (start 46.25 5.59) (end 47.701 5.251) (angle -153.676754) (layer F.Fab) (width 0.1))
  (fp_arc (start 46.25 4.911) (end 47.7 5.25) (angle 153.676754) (layer F.Fab) (width 0.1))
  (fp_arc (start 46.25 5.59) (end 47.701 5.251) (angle -153.676754) (layer F.SilkS) (width 0.12))
  (fp_arc (start 46.25 4.911) (end 47.7 5.25) (angle 153.676754) (layer F.SilkS) (width 0.12))
  (fp_arc (start 46.25 -5.75) (end 46.25 -4.25) (angle -1) (layer F.SilkS) (width 0.12))
  (fp_arc (start 46.25 -5.75) (end 47.383 -6.735) (angle -230) (layer F.SilkS) (width 0.12))
  (fp_arc (start 53.75 5.59) (end 55.201 5.251) (angle -153.676754) (layer F.Fab) (width 0.1))
  (fp_arc (start 53.75 4.911) (end 55.2 5.25) (angle 153.676754) (layer F.Fab) (width 0.1))
  (fp_arc (start 53.75 5.59) (end 55.201 5.251) (angle -153.676754) (layer F.SilkS) (width 0.12))
  (fp_arc (start 53.75 4.911) (end 55.2 5.25) (angle 153.676754) (layer F.SilkS) (width 0.12))
  (fp_arc (start 53.75 -5.75) (end 53.75 -4.25) (angle -1) (layer F.SilkS) (width 0.12))
  (fp_arc (start 53.75 -5.75) (end 54.883 -6.735) (angle -230) (layer F.SilkS) (width 0.12))
  (fp_arc (start 61.25 5.59) (end 62.701 5.251) (angle -153.676754) (layer F.Fab) (width 0.1))
  (fp_arc (start 61.25 4.911) (end 62.7 5.25) (angle 153.676754) (layer F.Fab) (width 0.1))
  (fp_arc (start 61.25 5.59) (end 62.701 5.251) (angle -153.676754) (layer F.SilkS) (width 0.12))
  (fp_arc (start 61.25 4.911) (end 62.7 5.25) (angle 153.676754) (layer F.SilkS) (width 0.12))
  (fp_arc (start 61.25 -5.75) (end 61.25 -4.25) (angle -1) (layer F.SilkS) (width 0.12))
  (fp_arc (start 61.25 -5.75) (end 62.383 -6.735) (angle -230) (layer F.SilkS) (width 0.12))
  (fp_arc (start 68.75 5.59) (end 70.201 5.251) (angle -153.676754) (layer F.Fab) (width 0.1))
  (fp_arc (start 68.75 4.911) (end 70.2 5.25) (angle 153.676754) (layer F.Fab) (width 0.1))
  (fp_arc (start 68.75 5.59) (end 70.201 5.251) (angle -153.676754) (layer F.SilkS) (width 0.12))
  (fp_arc (start 68.75 4.911) (end 70.2 5.25) (angle 153.676754) (layer F.SilkS) (width 0.12))
  (fp_arc (start 68.75 -5.75) (end 68.75 -4.25) (angle -1) (layer F.SilkS) (width 0.12))
  (fp_arc (start 68.75 -5.75) (end 69.883 -6.735) (angle -230) (layer F.SilkS) (width 0.12))
  (fp_circle (center 1.25 -5.75) (end 2.75 -5.75) (layer F.Fab) (width 0.1))
  (fp_circle (center 8.75 -5.75) (end 10.25 -5.75) (layer F.Fab) (width 0.1))
  (fp_circle (center 16.25 -5.75) (end 17.75 -5.75) (layer F.Fab) (width 0.1))
  (fp_circle (center 23.75 -5.75) (end 25.25 -5.75) (layer F.Fab) (width 0.1))
  (fp_circle (center 31.25 -5.75) (end 32.75 -5.75) (layer F.Fab) (width 0.1))
  (fp_circle (center 38.75 -5.75) (end 40.25 -5.75) (layer F.Fab) (width 0.1))
  (fp_circle (center 46.25 -5.75) (end 47.75 -5.75) (layer F.Fab) (width 0.1))
  (fp_circle (center 53.75 -5.75) (end 55.25 -5.75) (layer F.Fab) (width 0.1))
  (fp_circle (center 61.25 -5.75) (end 62.75 -5.75) (layer F.Fab) (width 0.1))
  (fp_circle (center 68.75 -5.75) (end 70.25 -5.75) (layer F.Fab) (width 0.1))
  (fp_line (start -2.75 -8.3) (end 71.25 -8.3) (layer F.Fab) (width 0.1))
  (fp_line (start 71.25 -8.3) (end 71.25 6.7) (layer F.Fab) (width 0.1))
  (fp_line (start 71.25 6.7) (end -0.75 6.7) (layer F.Fab) (width 0.1))
  (fp_line (start -0.75 6.7) (end -2.75 4.7) (layer F.Fab) (width 0.1))
  (fp_line (start -2.75 4.7) (end -2.75 -8.3) (layer F.Fab) (width 0.1))
  (fp_line (start -2.75 3.8) (end 71.25 3.8) (layer F.Fab) (width 0.1))
  (fp_line (start -2.81 3.8) (end 71.31 3.8) (layer F.SilkS) (width 0.12))
  (fp_line (start -2.81 -8.361) (end 71.31 -8.361) (layer F.SilkS) (width 0.12))
  (fp_line (start -2.81 6.76) (end 71.31 6.76) (layer F.SilkS) (width 0.12))
  (fp_line (start -2.81 -8.361) (end -2.81 6.76) (layer F.SilkS) (width 0.12))
  (fp_line (start 71.31 -8.361) (end 71.31 6.76) (layer F.SilkS) (width 0.12))
  (fp_line (start -1.25 -8.3) (end -1.25 6.7) (layer F.Fab) (width 0.1))
  (fp_line (start -1.25 -8.361) (end -1.25 6.76) (layer F.SilkS) (width 0.12))
  (fp_line (start -0.75 -2.2) (end -0.75 2.2) (layer F.Fab) (width 0.1))
  (fp_line (start -0.75 2.2) (end 3.25 2.2) (layer F.Fab) (width 0.1))
  (fp_line (start 3.25 2.2) (end 3.25 -2.2) (layer F.Fab) (width 0.1))
  (fp_line (start 3.25 -2.2) (end -0.75 -2.2) (layer F.Fab) (width 0.1))
  (fp_line (start -0.75 -2.2) (end 3.25 -2.2) (layer F.SilkS) (width 0.12))
  (fp_line (start -0.75 2.2) (end 3.25 2.2) (layer F.SilkS) (width 0.12))
  (fp_line (start -0.75 -2.2) (end -0.75 -1.74) (layer F.SilkS) (width 0.12))
  (fp_line (start -0.75 1.74) (end -0.75 2.2) (layer F.SilkS) (width 0.12))
  (fp_line (start 3.25 -2.2) (end 3.25 2.2) (layer F.SilkS) (width 0.12))
  (fp_line (start -0.75 -0.5) (end -0.75 0.5) (layer F.Fab) (width 0.1))
  (fp_line (start -0.75 0.5) (end 3.25 0.5) (layer F.Fab) (width 0.1))
  (fp_line (start 3.25 0.5) (end 3.25 -0.5) (layer F.Fab) (width 0.1))
  (fp_line (start 3.25 -0.5) (end -0.75 -0.5) (layer F.Fab) (width 0.1))
  (fp_line (start 1.24 -0.5) (end 3.25 -0.5) (layer F.SilkS) (width 0.12))
  (fp_line (start 1.24 0.5) (end 3.25 0.5) (layer F.SilkS) (width 0.12))
  (fp_line (start 3.25 -0.5) (end 3.25 0.5) (layer F.SilkS) (width 0.12))
  (fp_line (start 6.25 -8.3) (end 6.25 6.7) (layer F.Fab) (width 0.1))
  (fp_line (start 6.25 -8.361) (end 6.25 6.76) (layer F.SilkS) (width 0.12))
  (fp_line (start 6.75 -2.2) (end 6.75 2.2) (layer F.Fab) (width 0.1))
  (fp_line (start 6.75 2.2) (end 10.75 2.2) (layer F.Fab) (width 0.1))
  (fp_line (start 10.75 2.2) (end 10.75 -2.2) (layer F.Fab) (width 0.1))
  (fp_line (start 10.75 -2.2) (end 6.75 -2.2) (layer F.Fab) (width 0.1))
  (fp_line (start 6.75 -2.2) (end 10.75 -2.2) (layer F.SilkS) (width 0.12))
  (fp_line (start 6.75 2.2) (end 10.75 2.2) (layer F.SilkS) (width 0.12))
  (fp_line (start 6.75 -2.2) (end 6.75 -1.74) (layer F.SilkS) (width 0.12))
  (fp_line (start 6.75 1.74) (end 6.75 2.2) (layer F.SilkS) (width 0.12))
  (fp_line (start 10.75 -2.2) (end 10.75 2.2) (layer F.SilkS) (width 0.12))
  (fp_line (start 6.75 -0.5) (end 6.75 0.5) (layer F.Fab) (width 0.1))
  (fp_line (start 6.75 0.5) (end 10.75 0.5) (layer F.Fab) (width 0.1))
  (fp_line (start 10.75 0.5) (end 10.75 -0.5) (layer F.Fab) (width 0.1))
  (fp_line (start 10.75 -0.5) (end 6.75 -0.5) (layer F.Fab) (width 0.1))
  (fp_line (start 8.74 -0.5) (end 10.75 -0.5) (layer F.SilkS) (width 0.12))
  (fp_line (start 8.74 0.5) (end 10.75 0.5) (layer F.SilkS) (width 0.12))
  (fp_line (start 10.75 -0.5) (end 10.75 0.5) (layer F.SilkS) (width 0.12))
  (fp_line (start 13.75 -8.3) (end 13.75 6.7) (layer F.Fab) (width 0.1))
  (fp_line (start 13.75 -8.361) (end 13.75 6.76) (layer F.SilkS) (width 0.12))
  (fp_line (start 14.25 -2.2) (end 14.25 2.2) (layer F.Fab) (width 0.1))
  (fp_line (start 14.25 2.2) (end 18.25 2.2) (layer F.Fab) (width 0.1))
  (fp_line (start 18.25 2.2) (end 18.25 -2.2) (layer F.Fab) (width 0.1))
  (fp_line (start 18.25 -2.2) (end 14.25 -2.2) (layer F.Fab) (width 0.1))
  (fp_line (start 14.25 -2.2) (end 18.25 -2.2) (layer F.SilkS) (width 0.12))
  (fp_line (start 14.25 2.2) (end 18.25 2.2) (layer F.SilkS) (width 0.12))
  (fp_line (start 14.25 -2.2) (end 14.25 -1.74) (layer F.SilkS) (width 0.12))
  (fp_line (start 14.25 1.74) (end 14.25 2.2) (layer F.SilkS) (width 0.12))
  (fp_line (start 18.25 -2.2) (end 18.25 2.2) (layer F.SilkS) (width 0.12))
  (fp_line (start 14.25 -0.5) (end 14.25 0.5) (layer F.Fab) (width 0.1))
  (fp_line (start 14.25 0.5) (end 18.25 0.5) (layer F.Fab) (width 0.1))
  (fp_line (start 18.25 0.5) (end 18.25 -0.5) (layer F.Fab) (width 0.1))
  (fp_line (start 18.25 -0.5) (end 14.25 -0.5) (layer F.Fab) (width 0.1))
  (fp_line (start 16.24 -0.5) (end 18.25 -0.5) (layer F.SilkS) (width 0.12))
  (fp_line (start 16.24 0.5) (end 18.25 0.5) (layer F.SilkS) (width 0.12))
  (fp_line (start 18.25 -0.5) (end 18.25 0.5) (layer F.SilkS) (width 0.12))
  (fp_line (start 21.25 -8.3) (end 21.25 6.7) (layer F.Fab) (width 0.1))
  (fp_line (start 21.25 -8.361) (end 21.25 6.76) (layer F.SilkS) (width 0.12))
  (fp_line (start 21.75 -2.2) (end 21.75 2.2) (layer F.Fab) (width 0.1))
  (fp_line (start 21.75 2.2) (end 25.75 2.2) (layer F.Fab) (width 0.1))
  (fp_line (start 25.75 2.2) (end 25.75 -2.2) (layer F.Fab) (width 0.1))
  (fp_line (start 25.75 -2.2) (end 21.75 -2.2) (layer F.Fab) (width 0.1))
  (fp_line (start 21.75 -2.2) (end 25.75 -2.2) (layer F.SilkS) (width 0.12))
  (fp_line (start 21.75 2.2) (end 25.75 2.2) (layer F.SilkS) (width 0.12))
  (fp_line (start 21.75 -2.2) (end 21.75 -1.74) (layer F.SilkS) (width 0.12))
  (fp_line (start 21.75 1.74) (end 21.75 2.2) (layer F.SilkS) (width 0.12))
  (fp_line (start 25.75 -2.2) (end 25.75 2.2) (layer F.SilkS) (width 0.12))
  (fp_line (start 21.75 -0.5) (end 21.75 0.5) (layer F.Fab) (width 0.1))
  (fp_line (start 21.75 0.5) (end 25.75 0.5) (layer F.Fab) (width 0.1))
  (fp_line (start 25.75 0.5) (end 25.75 -0.5) (layer F.Fab) (width 0.1))
  (fp_line (start 25.75 -0.5) (end 21.75 -0.5) (layer F.Fab) (width 0.1))
  (fp_line (start 23.74 -0.5) (end 25.75 -0.5) (layer F.SilkS) (width 0.12))
  (fp_line (start 23.74 0.5) (end 25.75 0.5) (layer F.SilkS) (width 0.12))
  (fp_line (start 25.75 -0.5) (end 25.75 0.5) (layer F.SilkS) (width 0.12))
  (fp_line (start 28.75 -8.3) (end 28.75 6.7) (layer F.Fab) (width 0.1))
  (fp_line (start 28.75 -8.361) (end 28.75 6.76) (layer F.SilkS) (width 0.12))
  (fp_line (start 29.25 -2.2) (end 29.25 2.2) (layer F.Fab) (width 0.1))
  (fp_line (start 29.25 2.2) (end 33.25 2.2) (layer F.Fab) (width 0.1))
  (fp_line (start 33.25 2.2) (end 33.25 -2.2) (layer F.Fab) (width 0.1))
  (fp_line (start 33.25 -2.2) (end 29.25 -2.2) (layer F.Fab) (width 0.1))
  (fp_line (start 29.25 -2.2) (end 33.25 -2.2) (layer F.SilkS) (width 0.12))
  (fp_line (start 29.25 2.2) (end 33.25 2.2) (layer F.SilkS) (width 0.12))
  (fp_line (start 29.25 -2.2) (end 29.25 -1.74) (layer F.SilkS) (width 0.12))
  (fp_line (start 29.25 1.74) (end 29.25 2.2) (layer F.SilkS) (width 0.12))
  (fp_line (start 33.25 -2.2) (end 33.25 2.2) (layer F.SilkS) (width 0.12))
  (fp_line (start 29.25 -0.5) (end 29.25 0.5) (layer F.Fab) (width 0.1))
  (fp_line (start 29.25 0.5) (end 33.25 0.5) (layer F.Fab) (width 0.1))
  (fp_line (start 33.25 0.5) (end 33.25 -0.5) (layer F.Fab) (width 0.1))
  (fp_line (start 33.25 -0.5) (end 29.25 -0.5) (layer F.Fab) (width 0.1))
  (fp_line (start 31.24 -0.5) (end 33.25 -0.5) (layer F.SilkS) (width 0.12))
  (fp_line (start 31.24 0.5) (end 33.25 0.5) (layer F.SilkS) (width 0.12))
  (fp_line (start 33.25 -0.5) (end 33.25 0.5) (layer F.SilkS) (width 0.12))
  (fp_line (start 36.25 -8.3) (end 36.25 6.7) (layer F.Fab) (width 0.1))
  (fp_line (start 36.25 -8.361) (end 36.25 6.76) (layer F.SilkS) (width 0.12))
  (fp_line (start 36.75 -2.2) (end 36.75 2.2) (layer F.Fab) (width 0.1))
  (fp_line (start 36.75 2.2) (end 40.75 2.2) (layer F.Fab) (width 0.1))
  (fp_line (start 40.75 2.2) (end 40.75 -2.2) (layer F.Fab) (width 0.1))
  (fp_line (start 40.75 -2.2) (end 36.75 -2.2) (layer F.Fab) (width 0.1))
  (fp_line (start 36.75 -2.2) (end 40.75 -2.2) (layer F.SilkS) (width 0.12))
  (fp_line (start 36.75 2.2) (end 40.75 2.2) (layer F.SilkS) (width 0.12))
  (fp_line (start 36.75 -2.2) (end 36.75 -1.74) (layer F.SilkS) (width 0.12))
  (fp_line (start 36.75 1.74) (end 36.75 2.2) (layer F.SilkS) (width 0.12))
  (fp_line (start 40.75 -2.2) (end 40.75 2.2) (layer F.SilkS) (width 0.12))
  (fp_line (start 36.75 -0.5) (end 36.75 0.5) (layer F.Fab) (width 0.1))
  (fp_line (start 36.75 0.5) (end 40.75 0.5) (layer F.Fab) (width 0.1))
  (fp_line (start 40.75 0.5) (end 40.75 -0.5) (layer F.Fab) (width 0.1))
  (fp_line (start 40.75 -0.5) (end 36.75 -0.5) (layer F.Fab) (width 0.1))
  (fp_line (start 38.74 -0.5) (end 40.75 -0.5) (layer F.SilkS) (width 0.12))
  (fp_line (start 38.74 0.5) (end 40.75 0.5) (layer F.SilkS) (width 0.12))
  (fp_line (start 40.75 -0.5) (end 40.75 0.5) (layer F.SilkS) (width 0.12))
  (fp_line (start 43.75 -8.3) (end 43.75 6.7) (layer F.Fab) (width 0.1))
  (fp_line (start 43.75 -8.361) (end 43.75 6.76) (layer F.SilkS) (width 0.12))
  (fp_line (start 44.25 -2.2) (end 44.25 2.2) (layer F.Fab) (width 0.1))
  (fp_line (start 44.25 2.2) (end 48.25 2.2) (layer F.Fab) (width 0.1))
  (fp_line (start 48.25 2.2) (end 48.25 -2.2) (layer F.Fab) (width 0.1))
  (fp_line (start 48.25 -2.2) (end 44.25 -2.2) (layer F.Fab) (width 0.1))
  (fp_line (start 44.25 -2.2) (end 48.25 -2.2) (layer F.SilkS) (width 0.12))
  (fp_line (start 44.25 2.2) (end 48.25 2.2) (layer F.SilkS) (width 0.12))
  (fp_line (start 44.25 -2.2) (end 44.25 -1.74) (layer F.SilkS) (width 0.12))
  (fp_line (start 44.25 1.74) (end 44.25 2.2) (layer F.SilkS) (width 0.12))
  (fp_line (start 48.25 -2.2) (end 48.25 2.2) (layer F.SilkS) (width 0.12))
  (fp_line (start 44.25 -0.5) (end 44.25 0.5) (layer F.Fab) (width 0.1))
  (fp_line (start 44.25 0.5) (end 48.25 0.5) (layer F.Fab) (width 0.1))
  (fp_line (start 48.25 0.5) (end 48.25 -0.5) (layer F.Fab) (width 0.1))
  (fp_line (start 48.25 -0.5) (end 44.25 -0.5) (layer F.Fab) (width 0.1))
  (fp_line (start 46.24 -0.5) (end 48.25 -0.5) (layer F.SilkS) (width 0.12))
  (fp_line (start 46.24 0.5) (end 48.25 0.5) (layer F.SilkS) (width 0.12))
  (fp_line (start 48.25 -0.5) (end 48.25 0.5) (layer F.SilkS) (width 0.12))
  (fp_line (start 51.25 -8.3) (end 51.25 6.7) (layer F.Fab) (width 0.1))
  (fp_line (start 51.25 -8.361) (end 51.25 6.76) (layer F.SilkS) (width 0.12))
  (fp_line (start 51.75 -2.2) (end 51.75 2.2) (layer F.Fab) (width 0.1))
  (fp_line (start 51.75 2.2) (end 55.75 2.2) (layer F.Fab) (width 0.1))
  (fp_line (start 55.75 2.2) (end 55.75 -2.2) (layer F.Fab) (width 0.1))
  (fp_line (start 55.75 -2.2) (end 51.75 -2.2) (layer F.Fab) (width 0.1))
  (fp_line (start 51.75 -2.2) (end 55.75 -2.2) (layer F.SilkS) (width 0.12))
  (fp_line (start 51.75 2.2) (end 55.75 2.2) (layer F.SilkS) (width 0.12))
  (fp_line (start 51.75 -2.2) (end 51.75 -1.74) (layer F.SilkS) (width 0.12))
  (fp_line (start 51.75 1.74) (end 51.75 2.2) (layer F.SilkS) (width 0.12))
  (fp_line (start 55.75 -2.2) (end 55.75 2.2) (layer F.SilkS) (width 0.12))
  (fp_line (start 51.75 -0.5) (end 51.75 0.5) (layer F.Fab) (width 0.1))
  (fp_line (start 51.75 0.5) (end 55.75 0.5) (layer F.Fab) (width 0.1))
  (fp_line (start 55.75 0.5) (end 55.75 -0.5) (layer F.Fab) (width 0.1))
  (fp_line (start 55.75 -0.5) (end 51.75 -0.5) (layer F.Fab) (width 0.1))
  (fp_line (start 53.74 -0.5) (end 55.75 -0.5) (layer F.SilkS) (width 0.12))
  (fp_line (start 53.74 0.5) (end 55.75 0.5) (layer F.SilkS) (width 0.12))
  (fp_line (start 55.75 -0.5) (end 55.75 0.5) (layer F.SilkS) (width 0.12))
  (fp_line (start 58.75 -8.3) (end 58.75 6.7) (layer F.Fab) (width 0.1))
  (fp_line (start 58.75 -8.361) (end 58.75 6.76) (layer F.SilkS) (width 0.12))
  (fp_line (start 59.25 -2.2) (end 59.25 2.2) (layer F.Fab) (width 0.1))
  (fp_line (start 59.25 2.2) (end 63.25 2.2) (layer F.Fab) (width 0.1))
  (fp_line (start 63.25 2.2) (end 63.25 -2.2) (layer F.Fab) (width 0.1))
  (fp_line (start 63.25 -2.2) (end 59.25 -2.2) (layer F.Fab) (width 0.1))
  (fp_line (start 59.25 -2.2) (end 63.25 -2.2) (layer F.SilkS) (width 0.12))
  (fp_line (start 59.25 2.2) (end 63.25 2.2) (layer F.SilkS) (width 0.12))
  (fp_line (start 59.25 -2.2) (end 59.25 -1.74) (layer F.SilkS) (width 0.12))
  (fp_line (start 59.25 1.74) (end 59.25 2.2) (layer F.SilkS) (width 0.12))
  (fp_line (start 63.25 -2.2) (end 63.25 2.2) (layer F.SilkS) (width 0.12))
  (fp_line (start 59.25 -0.5) (end 59.25 0.5) (layer F.Fab) (width 0.1))
  (fp_line (start 59.25 0.5) (end 63.25 0.5) (layer F.Fab) (width 0.1))
  (fp_line (start 63.25 0.5) (end 63.25 -0.5) (layer F.Fab) (width 0.1))
  (fp_line (start 63.25 -0.5) (end 59.25 -0.5) (layer F.Fab) (width 0.1))
  (fp_line (start 61.24 -0.5) (end 63.25 -0.5) (layer F.SilkS) (width 0.12))
  (fp_line (start 61.24 0.5) (end 63.25 0.5) (layer F.SilkS) (width 0.12))
  (fp_line (start 63.25 -0.5) (end 63.25 0.5) (layer F.SilkS) (width 0.12))
  (fp_line (start 66.25 -8.3) (end 66.25 6.7) (layer F.Fab) (width 0.1))
  (fp_line (start 66.25 -8.361) (end 66.25 6.76) (layer F.SilkS) (width 0.12))
  (fp_line (start 66.75 -2.2) (end 66.75 2.2) (layer F.Fab) (width 0.1))
  (fp_line (start 66.75 2.2) (end 70.75 2.2) (layer F.Fab) (width 0.1))
  (fp_line (start 70.75 2.2) (end 70.75 -2.2) (layer F.Fab) (width 0.1))
  (fp_line (start 70.75 -2.2) (end 66.75 -2.2) (layer F.Fab) (width 0.1))
  (fp_line (start 66.75 -2.2) (end 70.75 -2.2) (layer F.SilkS) (width 0.12))
  (fp_line (start 66.75 2.2) (end 70.75 2.2) (layer F.SilkS) (width 0.12))
  (fp_line (start 66.75 -2.2) (end 66.75 -1.74) (layer F.SilkS) (width 0.12))
  (fp_line (start 66.75 1.74) (end 66.75 2.2) (layer F.SilkS) (width 0.12))
  (fp_line (start 70.75 -2.2) (end 70.75 2.2) (layer F.SilkS) (width 0.12))
  (fp_line (start 66.75 -0.5) (end 66.75 0.5) (layer F.Fab) (width 0.1))
  (fp_line (start 66.75 0.5) (end 70.75 0.5) (layer F.Fab) (width 0.1))
  (fp_line (start 70.75 0.5) (end 70.75 -0.5) (layer F.Fab) (width 0.1))
  (fp_line (start 70.75 -0.5) (end 66.75 -0.5) (layer F.Fab) (width 0.1))
  (fp_line (start 68.74 -0.5) (end 70.75 -0.5) (layer F.SilkS) (width 0.12))
  (fp_line (start 68.74 0.5) (end 70.75 0.5) (layer F.SilkS) (width 0.12))
  (fp_line (start 70.75 -0.5) (end 70.75 0.5) (layer F.SilkS) (width 0.12))
  (fp_line (start -3.05 4.76) (end -3.05 7) (layer F.SilkS) (width 0.12))
  (fp_line (start -3.05 7) (end -1.05 7) (layer F.SilkS) (width 0.12))
  (fp_line (start -3.25 -8.8) (end -3.25 7.2) (layer F.CrtYd) (width 0.05))
  (fp_line (start -3.25 7.2) (end 71.75 7.2) (layer F.CrtYd) (width 0.05))
  (fp_line (start 71.75 7.2) (end 71.75 -8.8) (layer F.CrtYd) (width 0.05))
  (fp_line (start 71.75 -8.8) (end -3.25 -8.8) (layer F.CrtYd) (width 0.05))
  (pad 1 thru_hole rect (at 0 0) (size 2 3) (drill 1.2) (layers *.Cu *.Mask))
  (pad 1 thru_hole rect (at 2.5 -5) (size 2 3) (drill 1.2) (layers *.Cu *.Mask))
  (pad 2 thru_hole oval (at 7.5 0) (size 2 3) (drill 1.2) (layers *.Cu *.Mask))
  (pad 2 thru_hole oval (at 10 -5) (size 2 3) (drill 1.2) (layers *.Cu *.Mask))
  (pad 3 thru_hole oval (at 15 0) (size 2 3) (drill 1.2) (layers *.Cu *.Mask))
  (pad 3 thru_hole oval (at 17.5 -5) (size 2 3) (drill 1.2) (layers *.Cu *.Mask))
  (pad 4 thru_hole oval (at 22.5 0) (size 2 3) (drill 1.2) (layers *.Cu *.Mask))
  (pad 4 thru_hole oval (at 25 -5) (size 2 3) (drill 1.2) (layers *.Cu *.Mask))
  (pad 5 thru_hole oval (at 30 0) (size 2 3) (drill 1.2) (layers *.Cu *.Mask))
  (pad 5 thru_hole oval (at 32.5 -5) (size 2 3) (drill 1.2) (layers *.Cu *.Mask))
  (pad 6 thru_hole oval (at 37.5 0) (size 2 3) (drill 1.2) (layers *.Cu *.Mask))
  (pad 6 thru_hole oval (at 40 -5) (size 2 3) (drill 1.2) (layers *.Cu *.Mask))
  (pad 7 thru_hole oval (at 45 0) (size 2 3) (drill 1.2) (layers *.Cu *.Mask))
  (pad 7 thru_hole oval (at 47.5 -5) (size 2 3) (drill 1.2) (layers *.Cu *.Mask))
  (pad 8 thru_hole oval (at 52.5 0) (size 2 3) (drill 1.2) (layers *.Cu *.Mask))
  (pad 8 thru_hole oval (at 55 -5) (size 2 3) (drill 1.2) (layers *.Cu *.Mask))
  (pad 9 thru_hole oval (at 60 0) (size 2 3) (drill 1.2) (layers *.Cu *.Mask))
  (pad 9 thru_hole oval (at 62.5 -5) (size 2 3) (drill 1.2) (layers *.Cu *.Mask))
  (pad 10 thru_hole oval (at 67.5 0) (size 2 3) (drill 1.2) (layers *.Cu *.Mask))
  (pad 10 thru_hole oval (at 70 -5) (size 2 3) (drill 1.2) (layers *.Cu *.Mask))
  (fp_text user %R (at 34.25 -1.8) (layer F.Fab)
    (effects (font (size 1 1) (thickness 0.15)))
  )
  (model ${KIPRJMOD}/kicad_libs_k/models_k.3d/TerminalBlock_WAGO_k.3dshapes/TerminalBlock_WAGO_804-310_1x10_P7.50mm_45Degree_k.wrl
    (at (xyz 0 0 0))
    (scale (xyz 1 1 1))
    (rotate (xyz 0 0 0))
  )
)