(module TerminalBlock_WAGO_236-312_1x12_P10.00mm_45Degree (layer F.Cu) (tedit 5B294EE5)
  (descr "Terminal Block WAGO 236-312, 45Degree (cable under 45degree), 12 pins, pitch 10mm, size 122x14mm^2, drill diamater 1mm, pad diameter 3mm, see , script-generated with , script-generated using https://github.com/pointhi/kicad-footprint-generator/scripts/TerminalBlock_WAGO")
  (tags "THT Terminal Block WAGO 236-312 45Degree pitch 10mm size 122x14mm^2 drill 1mm pad 3mm")
  (fp_text reference REF** (at 57.25 -11.06) (layer F.SilkS)
    (effects (font (size 1 1) (thickness 0.15)))
  )
  (fp_text value TerminalBlock_WAGO_236-312_1x12_P10.00mm_45Degree (at 57.25 5.06) (layer F.Fab)
    (effects (font (size 1 1) (thickness 0.15)))
  )
  (fp_line (start -3.5 -10) (end 118 -10) (layer F.Fab) (width 0.1))
  (fp_line (start 118 -10) (end 118 4) (layer F.Fab) (width 0.1))
  (fp_line (start 118 4) (end -2.5 4) (layer F.Fab) (width 0.1))
  (fp_line (start -2.5 4) (end -3.5 3) (layer F.Fab) (width 0.1))
  (fp_line (start -3.5 3) (end -3.5 -10) (layer F.Fab) (width 0.1))
  (fp_line (start -3.5 3) (end 118 3) (layer F.Fab) (width 0.1))
  (fp_line (start -3.56 3) (end 118.06 3) (layer F.SilkS) (width 0.12))
  (fp_line (start -3.5 -2.7) (end 118 -2.7) (layer F.Fab) (width 0.1))
  (fp_line (start -3.56 -2.7) (end 118.06 -2.7) (layer F.SilkS) (width 0.12))
  (fp_line (start -3.5 -5.5) (end 118 -5.5) (layer F.Fab) (width 0.1))
  (fp_line (start -3.56 -5.5) (end -0.99 -5.5) (layer F.SilkS) (width 0.12))
  (fp_line (start 0.99 -5.5) (end 9.01 -5.5) (layer F.SilkS) (width 0.12))
  (fp_line (start 10.99 -5.5) (end 19.01 -5.5) (layer F.SilkS) (width 0.12))
  (fp_line (start 20.99 -5.5) (end 29.01 -5.5) (layer F.SilkS) (width 0.12))
  (fp_line (start 30.99 -5.5) (end 39.01 -5.5) (layer F.SilkS) (width 0.12))
  (fp_line (start 40.99 -5.5) (end 49.01 -5.5) (layer F.SilkS) (width 0.12))
  (fp_line (start 50.99 -5.5) (end 59.01 -5.5) (layer F.SilkS) (width 0.12))
  (fp_line (start 60.99 -5.5) (end 69.01 -5.5) (layer F.SilkS) (width 0.12))
  (fp_line (start 70.99 -5.5) (end 79.01 -5.5) (layer F.SilkS) (width 0.12))
  (fp_line (start 80.99 -5.5) (end 89.01 -5.5) (layer F.SilkS) (width 0.12))
  (fp_line (start 90.99 -5.5) (end 99.01 -5.5) (layer F.SilkS) (width 0.12))
  (fp_line (start 100.99 -5.5) (end 109.01 -5.5) (layer F.SilkS) (width 0.12))
  (fp_line (start 110.99 -5.5) (end 118.06 -5.5) (layer F.SilkS) (width 0.12))
  (fp_line (start -3.56 -10.06) (end 118.06 -10.06) (layer F.SilkS) (width 0.12))
  (fp_line (start -3.56 4.06) (end 118.06 4.06) (layer F.SilkS) (width 0.12))
  (fp_line (start -3.56 -10.06) (end -3.56 4.06) (layer F.SilkS) (width 0.12))
  (fp_line (start 118.06 -10.06) (end 118.06 4.06) (layer F.SilkS) (width 0.12))
  (fp_line (start -1.5 -0.6) (end -0.99 -0.6) (layer F.SilkS) (width 0.12))
  (fp_line (start 0.99 -0.6) (end 2.5 -0.6) (layer F.SilkS) (width 0.12))
  (fp_line (start -1.5 2.7) (end 2.5 2.7) (layer F.SilkS) (width 0.12))
  (fp_line (start -1.5 -0.6) (end -1.5 2.7) (layer F.SilkS) (width 0.12))
  (fp_line (start 2.5 -0.6) (end 2.5 2.7) (layer F.SilkS) (width 0.12))
  (fp_line (start -1.5 -0.6) (end -1.5 2.7) (layer F.Fab) (width 0.1))
  (fp_line (start -1.5 2.7) (end 2.5 2.7) (layer F.Fab) (width 0.1))
  (fp_line (start 2.5 2.7) (end 2.5 -0.6) (layer F.Fab) (width 0.1))
  (fp_line (start 2.5 -0.6) (end -1.5 -0.6) (layer F.Fab) (width 0.1))
  (fp_line (start -2 -10) (end -2 4) (layer F.Fab) (width 0.1))
  (fp_line (start -2 4) (end 8 4) (layer F.Fab) (width 0.1))
  (fp_line (start 8 4) (end 8 -10) (layer F.Fab) (width 0.1))
  (fp_line (start 8 -10) (end -2 -10) (layer F.Fab) (width 0.1))
  (fp_line (start -2 -10) (end 8 -10) (layer F.SilkS) (width 0.12))
  (fp_line (start -2 4) (end 8 4) (layer F.SilkS) (width 0.12))
  (fp_line (start -2 -10) (end -2 4) (layer F.SilkS) (width 0.12))
  (fp_line (start 8 -10) (end 8 4) (layer F.SilkS) (width 0.12))
  (fp_line (start -1.5 -2.7) (end -1.5 -1.7) (layer F.Fab) (width 0.1))
  (fp_line (start -1.5 -1.7) (end 2.5 -1.7) (layer F.Fab) (width 0.1))
  (fp_line (start 2.5 -1.7) (end 2.5 -2.7) (layer F.Fab) (width 0.1))
  (fp_line (start 2.5 -2.7) (end -1.5 -2.7) (layer F.Fab) (width 0.1))
  (fp_line (start -1.5 -2.7) (end 2.5 -2.7) (layer F.SilkS) (width 0.12))
  (fp_line (start -1.5 -1.701) (end -0.99 -1.701) (layer F.SilkS) (width 0.12))
  (fp_line (start 0.99 -1.701) (end 2.5 -1.701) (layer F.SilkS) (width 0.12))
  (fp_line (start -1.5 -2.7) (end -1.5 -1.701) (layer F.SilkS) (width 0.12))
  (fp_line (start 2.5 -2.7) (end 2.5 -1.701) (layer F.SilkS) (width 0.12))
  (fp_line (start 0 -9.65) (end 0 -7.15) (layer F.Fab) (width 0.1))
  (fp_line (start 0 -7.15) (end 1 -7.15) (layer F.Fab) (width 0.1))
  (fp_line (start 1 -7.15) (end 1 -9.65) (layer F.Fab) (width 0.1))
  (fp_line (start 1 -9.65) (end 0 -9.65) (layer F.Fab) (width 0.1))
  (fp_line (start 0 -9.65) (end 1 -9.65) (layer F.SilkS) (width 0.12))
  (fp_line (start 0 -7.15) (end 1 -7.15) (layer F.SilkS) (width 0.12))
  (fp_line (start 0 -9.65) (end 0 -7.15) (layer F.SilkS) (width 0.12))
  (fp_line (start 1 -9.65) (end 1 -7.15) (layer F.SilkS) (width 0.12))
  (fp_line (start 8.5 -0.6) (end 9.01 -0.6) (layer F.SilkS) (width 0.12))
  (fp_line (start 10.99 -0.6) (end 12.5 -0.6) (layer F.SilkS) (width 0.12))
  (fp_line (start 8.5 2.7) (end 12.5 2.7) (layer F.SilkS) (width 0.12))
  (fp_line (start 8.5 -0.6) (end 8.5 2.7) (layer F.SilkS) (width 0.12))
  (fp_line (start 12.5 -0.6) (end 12.5 2.7) (layer F.SilkS) (width 0.12))
  (fp_line (start 8.5 -0.6) (end 8.5 2.7) (layer F.Fab) (width 0.1))
  (fp_line (start 8.5 2.7) (end 12.5 2.7) (layer F.Fab) (width 0.1))
  (fp_line (start 12.5 2.7) (end 12.5 -0.6) (layer F.Fab) (width 0.1))
  (fp_line (start 12.5 -0.6) (end 8.5 -0.6) (layer F.Fab) (width 0.1))
  (fp_line (start 8 -10) (end 8 4) (layer F.Fab) (width 0.1))
  (fp_line (start 8 4) (end 18 4) (layer F.Fab) (width 0.1))
  (fp_line (start 18 4) (end 18 -10) (layer F.Fab) (width 0.1))
  (fp_line (start 18 -10) (end 8 -10) (layer F.Fab) (width 0.1))
  (fp_line (start 8 -10) (end 18 -10) (layer F.SilkS) (width 0.12))
  (fp_line (start 8 4) (end 18 4) (layer F.SilkS) (width 0.12))
  (fp_line (start 8 -10) (end 8 4) (layer F.SilkS) (width 0.12))
  (fp_line (start 18 -10) (end 18 4) (layer F.SilkS) (width 0.12))
  (fp_line (start 8.5 -2.7) (end 8.5 -1.7) (layer F.Fab) (width 0.1))
  (fp_line (start 8.5 -1.7) (end 12.5 -1.7) (layer F.Fab) (width 0.1))
  (fp_line (start 12.5 -1.7) (end 12.5 -2.7) (layer F.Fab) (width 0.1))
  (fp_line (start 12.5 -2.7) (end 8.5 -2.7) (layer F.Fab) (width 0.1))
  (fp_line (start 8.5 -2.7) (end 12.5 -2.7) (layer F.SilkS) (width 0.12))
  (fp_line (start 8.5 -1.701) (end 9.01 -1.701) (layer F.SilkS) (width 0.12))
  (fp_line (start 10.99 -1.701) (end 12.5 -1.701) (layer F.SilkS) (width 0.12))
  (fp_line (start 8.5 -2.7) (end 8.5 -1.701) (layer F.SilkS) (width 0.12))
  (fp_line (start 12.5 -2.7) (end 12.5 -1.701) (layer F.SilkS) (width 0.12))
  (fp_line (start 10 -9.65) (end 10 -7.15) (layer F.Fab) (width 0.1))
  (fp_line (start 10 -7.15) (end 11 -7.15) (layer F.Fab) (width 0.1))
  (fp_line (start 11 -7.15) (end 11 -9.65) (layer F.Fab) (width 0.1))
  (fp_line (start 11 -9.65) (end 10 -9.65) (layer F.Fab) (width 0.1))
  (fp_line (start 10 -9.65) (end 11 -9.65) (layer F.SilkS) (width 0.12))
  (fp_line (start 10 -7.15) (end 11 -7.15) (layer F.SilkS) (width 0.12))
  (fp_line (start 10 -9.65) (end 10 -7.15) (layer F.SilkS) (width 0.12))
  (fp_line (start 11 -9.65) (end 11 -7.15) (layer F.SilkS) (width 0.12))
  (fp_line (start 18.5 -0.6) (end 19.01 -0.6) (layer F.SilkS) (width 0.12))
  (fp_line (start 20.99 -0.6) (end 22.5 -0.6) (layer F.SilkS) (width 0.12))
  (fp_line (start 18.5 2.7) (end 22.5 2.7) (layer F.SilkS) (width 0.12))
  (fp_line (start 18.5 -0.6) (end 18.5 2.7) (layer F.SilkS) (width 0.12))
  (fp_line (start 22.5 -0.6) (end 22.5 2.7) (layer F.SilkS) (width 0.12))
  (fp_line (start 18.5 -0.6) (end 18.5 2.7) (layer F.Fab) (width 0.1))
  (fp_line (start 18.5 2.7) (end 22.5 2.7) (layer F.Fab) (width 0.1))
  (fp_line (start 22.5 2.7) (end 22.5 -0.6) (layer F.Fab) (width 0.1))
  (fp_line (start 22.5 -0.6) (end 18.5 -0.6) (layer F.Fab) (width 0.1))
  (fp_line (start 18 -10) (end 18 4) (layer F.Fab) (width 0.1))
  (fp_line (start 18 4) (end 28 4) (layer F.Fab) (width 0.1))
  (fp_line (start 28 4) (end 28 -10) (layer F.Fab) (width 0.1))
  (fp_line (start 28 -10) (end 18 -10) (layer F.Fab) (width 0.1))
  (fp_line (start 18 -10) (end 28 -10) (layer F.SilkS) (width 0.12))
  (fp_line (start 18 4) (end 28 4) (layer F.SilkS) (width 0.12))
  (fp_line (start 18 -10) (end 18 4) (layer F.SilkS) (width 0.12))
  (fp_line (start 28 -10) (end 28 4) (layer F.SilkS) (width 0.12))
  (fp_line (start 18.5 -2.7) (end 18.5 -1.7) (layer F.Fab) (width 0.1))
  (fp_line (start 18.5 -1.7) (end 22.5 -1.7) (layer F.Fab) (width 0.1))
  (fp_line (start 22.5 -1.7) (end 22.5 -2.7) (layer F.Fab) (width 0.1))
  (fp_line (start 22.5 -2.7) (end 18.5 -2.7) (layer F.Fab) (width 0.1))
  (fp_line (start 18.5 -2.7) (end 22.5 -2.7) (layer F.SilkS) (width 0.12))
  (fp_line (start 18.5 -1.701) (end 19.01 -1.701) (layer F.SilkS) (width 0.12))
  (fp_line (start 20.99 -1.701) (end 22.5 -1.701) (layer F.SilkS) (width 0.12))
  (fp_line (start 18.5 -2.7) (end 18.5 -1.701) (layer F.SilkS) (width 0.12))
  (fp_line (start 22.5 -2.7) (end 22.5 -1.701) (layer F.SilkS) (width 0.12))
  (fp_line (start 20 -9.65) (end 20 -7.15) (layer F.Fab) (width 0.1))
  (fp_line (start 20 -7.15) (end 21 -7.15) (layer F.Fab) (width 0.1))
  (fp_line (start 21 -7.15) (end 21 -9.65) (layer F.Fab) (width 0.1))
  (fp_line (start 21 -9.65) (end 20 -9.65) (layer F.Fab) (width 0.1))
  (fp_line (start 20 -9.65) (end 21 -9.65) (layer F.SilkS) (width 0.12))
  (fp_line (start 20 -7.15) (end 21 -7.15) (layer F.SilkS) (width 0.12))
  (fp_line (start 20 -9.65) (end 20 -7.15) (layer F.SilkS) (width 0.12))
  (fp_line (start 21 -9.65) (end 21 -7.15) (layer F.SilkS) (width 0.12))
  (fp_line (start 28.5 -0.6) (end 29.01 -0.6) (layer F.SilkS) (width 0.12))
  (fp_line (start 30.99 -0.6) (end 32.5 -0.6) (layer F.SilkS) (width 0.12))
  (fp_line (start 28.5 2.7) (end 32.5 2.7) (layer F.SilkS) (width 0.12))
  (fp_line (start 28.5 -0.6) (end 28.5 2.7) (layer F.SilkS) (width 0.12))
  (fp_line (start 32.5 -0.6) (end 32.5 2.7) (layer F.SilkS) (width 0.12))
  (fp_line (start 28.5 -0.6) (end 28.5 2.7) (layer F.Fab) (width 0.1))
  (fp_line (start 28.5 2.7) (end 32.5 2.7) (layer F.Fab) (width 0.1))
  (fp_line (start 32.5 2.7) (end 32.5 -0.6) (layer F.Fab) (width 0.1))
  (fp_line (start 32.5 -0.6) (end 28.5 -0.6) (layer F.Fab) (width 0.1))
  (fp_line (start 28 -10) (end 28 4) (layer F.Fab) (width 0.1))
  (fp_line (start 28 4) (end 38 4) (layer F.Fab) (width 0.1))
  (fp_line (start 38 4) (end 38 -10) (layer F.Fab) (width 0.1))
  (fp_line (start 38 -10) (end 28 -10) (layer F.Fab) (width 0.1))
  (fp_line (start 28 -10) (end 38 -10) (layer F.SilkS) (width 0.12))
  (fp_line (start 28 4) (end 38 4) (layer F.SilkS) (width 0.12))
  (fp_line (start 28 -10) (end 28 4) (layer F.SilkS) (width 0.12))
  (fp_line (start 38 -10) (end 38 4) (layer F.SilkS) (width 0.12))
  (fp_line (start 28.5 -2.7) (end 28.5 -1.7) (layer F.Fab) (width 0.1))
  (fp_line (start 28.5 -1.7) (end 32.5 -1.7) (layer F.Fab) (width 0.1))
  (fp_line (start 32.5 -1.7) (end 32.5 -2.7) (layer F.Fab) (width 0.1))
  (fp_line (start 32.5 -2.7) (end 28.5 -2.7) (layer F.Fab) (width 0.1))
  (fp_line (start 28.5 -2.7) (end 32.5 -2.7) (layer F.SilkS) (width 0.12))
  (fp_line (start 28.5 -1.701) (end 29.01 -1.701) (layer F.SilkS) (width 0.12))
  (fp_line (start 30.99 -1.701) (end 32.5 -1.701) (layer F.SilkS) (width 0.12))
  (fp_line (start 28.5 -2.7) (end 28.5 -1.701) (layer F.SilkS) (width 0.12))
  (fp_line (start 32.5 -2.7) (end 32.5 -1.701) (layer F.SilkS) (width 0.12))
  (fp_line (start 30 -9.65) (end 30 -7.15) (layer F.Fab) (width 0.1))
  (fp_line (start 30 -7.15) (end 31 -7.15) (layer F.Fab) (width 0.1))
  (fp_line (start 31 -7.15) (end 31 -9.65) (layer F.Fab) (width 0.1))
  (fp_line (start 31 -9.65) (end 30 -9.65) (layer F.Fab) (width 0.1))
  (fp_line (start 30 -9.65) (end 31 -9.65) (layer F.SilkS) (width 0.12))
  (fp_line (start 30 -7.15) (end 31 -7.15) (layer F.SilkS) (width 0.12))
  (fp_line (start 30 -9.65) (end 30 -7.15) (layer F.SilkS) (width 0.12))
  (fp_line (start 31 -9.65) (end 31 -7.15) (layer F.SilkS) (width 0.12))
  (fp_line (start 38.5 -0.6) (end 39.01 -0.6) (layer F.SilkS) (width 0.12))
  (fp_line (start 40.99 -0.6) (end 42.5 -0.6) (layer F.SilkS) (width 0.12))
  (fp_line (start 38.5 2.7) (end 42.5 2.7) (layer F.SilkS) (width 0.12))
  (fp_line (start 38.5 -0.6) (end 38.5 2.7) (layer F.SilkS) (width 0.12))
  (fp_line (start 42.5 -0.6) (end 42.5 2.7) (layer F.SilkS) (width 0.12))
  (fp_line (start 38.5 -0.6) (end 38.5 2.7) (layer F.Fab) (width 0.1))
  (fp_line (start 38.5 2.7) (end 42.5 2.7) (layer F.Fab) (width 0.1))
  (fp_line (start 42.5 2.7) (end 42.5 -0.6) (layer F.Fab) (width 0.1))
  (fp_line (start 42.5 -0.6) (end 38.5 -0.6) (layer F.Fab) (width 0.1))
  (fp_line (start 38 -10) (end 38 4) (layer F.Fab) (width 0.1))
  (fp_line (start 38 4) (end 48 4) (layer F.Fab) (width 0.1))
  (fp_line (start 48 4) (end 48 -10) (layer F.Fab) (width 0.1))
  (fp_line (start 48 -10) (end 38 -10) (layer F.Fab) (width 0.1))
  (fp_line (start 38 -10) (end 48 -10) (layer F.SilkS) (width 0.12))
  (fp_line (start 38 4) (end 48 4) (layer F.SilkS) (width 0.12))
  (fp_line (start 38 -10) (end 38 4) (layer F.SilkS) (width 0.12))
  (fp_line (start 48 -10) (end 48 4) (layer F.SilkS) (width 0.12))
  (fp_line (start 38.5 -2.7) (end 38.5 -1.7) (layer F.Fab) (width 0.1))
  (fp_line (start 38.5 -1.7) (end 42.5 -1.7) (layer F.Fab) (width 0.1))
  (fp_line (start 42.5 -1.7) (end 42.5 -2.7) (layer F.Fab) (width 0.1))
  (fp_line (start 42.5 -2.7) (end 38.5 -2.7) (layer F.Fab) (width 0.1))
  (fp_line (start 38.5 -2.7) (end 42.5 -2.7) (layer F.SilkS) (width 0.12))
  (fp_line (start 38.5 -1.701) (end 39.01 -1.701) (layer F.SilkS) (width 0.12))
  (fp_line (start 40.99 -1.701) (end 42.5 -1.701) (layer F.SilkS) (width 0.12))
  (fp_line (start 38.5 -2.7) (end 38.5 -1.701) (layer F.SilkS) (width 0.12))
  (fp_line (start 42.5 -2.7) (end 42.5 -1.701) (layer F.SilkS) (width 0.12))
  (fp_line (start 40 -9.65) (end 40 -7.15) (layer F.Fab) (width 0.1))
  (fp_line (start 40 -7.15) (end 41 -7.15) (layer F.Fab) (width 0.1))
  (fp_line (start 41 -7.15) (end 41 -9.65) (layer F.Fab) (width 0.1))
  (fp_line (start 41 -9.65) (end 40 -9.65) (layer F.Fab) (width 0.1))
  (fp_line (start 40 -9.65) (end 41 -9.65) (layer F.SilkS) (width 0.12))
  (fp_line (start 40 -7.15) (end 41 -7.15) (layer F.SilkS) (width 0.12))
  (fp_line (start 40 -9.65) (end 40 -7.15) (layer F.SilkS) (width 0.12))
  (fp_line (start 41 -9.65) (end 41 -7.15) (layer F.SilkS) (width 0.12))
  (fp_line (start 48.5 -0.6) (end 49.01 -0.6) (layer F.SilkS) (width 0.12))
  (fp_line (start 50.99 -0.6) (end 52.5 -0.6) (layer F.SilkS) (width 0.12))
  (fp_line (start 48.5 2.7) (end 52.5 2.7) (layer F.SilkS) (width 0.12))
  (fp_line (start 48.5 -0.6) (end 48.5 2.7) (layer F.SilkS) (width 0.12))
  (fp_line (start 52.5 -0.6) (end 52.5 2.7) (layer F.SilkS) (width 0.12))
  (fp_line (start 48.5 -0.6) (end 48.5 2.7) (layer F.Fab) (width 0.1))
  (fp_line (start 48.5 2.7) (end 52.5 2.7) (layer F.Fab) (width 0.1))
  (fp_line (start 52.5 2.7) (end 52.5 -0.6) (layer F.Fab) (width 0.1))
  (fp_line (start 52.5 -0.6) (end 48.5 -0.6) (layer F.Fab) (width 0.1))
  (fp_line (start 48 -10) (end 48 4) (layer F.Fab) (width 0.1))
  (fp_line (start 48 4) (end 58 4) (layer F.Fab) (width 0.1))
  (fp_line (start 58 4) (end 58 -10) (layer F.Fab) (width 0.1))
  (fp_line (start 58 -10) (end 48 -10) (layer F.Fab) (width 0.1))
  (fp_line (start 48 -10) (end 58 -10) (layer F.SilkS) (width 0.12))
  (fp_line (start 48 4) (end 58 4) (layer F.SilkS) (width 0.12))
  (fp_line (start 48 -10) (end 48 4) (layer F.SilkS) (width 0.12))
  (fp_line (start 58 -10) (end 58 4) (layer F.SilkS) (width 0.12))
  (fp_line (start 48.5 -2.7) (end 48.5 -1.7) (layer F.Fab) (width 0.1))
  (fp_line (start 48.5 -1.7) (end 52.5 -1.7) (layer F.Fab) (width 0.1))
  (fp_line (start 52.5 -1.7) (end 52.5 -2.7) (layer F.Fab) (width 0.1))
  (fp_line (start 52.5 -2.7) (end 48.5 -2.7) (layer F.Fab) (width 0.1))
  (fp_line (start 48.5 -2.7) (end 52.5 -2.7) (layer F.SilkS) (width 0.12))
  (fp_line (start 48.5 -1.701) (end 49.01 -1.701) (layer F.SilkS) (width 0.12))
  (fp_line (start 50.99 -1.701) (end 52.5 -1.701) (layer F.SilkS) (width 0.12))
  (fp_line (start 48.5 -2.7) (end 48.5 -1.701) (layer F.SilkS) (width 0.12))
  (fp_line (start 52.5 -2.7) (end 52.5 -1.701) (layer F.SilkS) (width 0.12))
  (fp_line (start 50 -9.65) (end 50 -7.15) (layer F.Fab) (width 0.1))
  (fp_line (start 50 -7.15) (end 51 -7.15) (layer F.Fab) (width 0.1))
  (fp_line (start 51 -7.15) (end 51 -9.65) (layer F.Fab) (width 0.1))
  (fp_line (start 51 -9.65) (end 50 -9.65) (layer F.Fab) (width 0.1))
  (fp_line (start 50 -9.65) (end 51 -9.65) (layer F.SilkS) (width 0.12))
  (fp_line (start 50 -7.15) (end 51 -7.15) (layer F.SilkS) (width 0.12))
  (fp_line (start 50 -9.65) (end 50 -7.15) (layer F.SilkS) (width 0.12))
  (fp_line (start 51 -9.65) (end 51 -7.15) (layer F.SilkS) (width 0.12))
  (fp_line (start 58.5 -0.6) (end 59.01 -0.6) (layer F.SilkS) (width 0.12))
  (fp_line (start 60.99 -0.6) (end 62.5 -0.6) (layer F.SilkS) (width 0.12))
  (fp_line (start 58.5 2.7) (end 62.5 2.7) (layer F.SilkS) (width 0.12))
  (fp_line (start 58.5 -0.6) (end 58.5 2.7) (layer F.SilkS) (width 0.12))
  (fp_line (start 62.5 -0.6) (end 62.5 2.7) (layer F.SilkS) (width 0.12))
  (fp_line (start 58.5 -0.6) (end 58.5 2.7) (layer F.Fab) (width 0.1))
  (fp_line (start 58.5 2.7) (end 62.5 2.7) (layer F.Fab) (width 0.1))
  (fp_line (start 62.5 2.7) (end 62.5 -0.6) (layer F.Fab) (width 0.1))
  (fp_line (start 62.5 -0.6) (end 58.5 -0.6) (layer F.Fab) (width 0.1))
  (fp_line (start 58 -10) (end 58 4) (layer F.Fab) (width 0.1))
  (fp_line (start 58 4) (end 68 4) (layer F.Fab) (width 0.1))
  (fp_line (start 68 4) (end 68 -10) (layer F.Fab) (width 0.1))
  (fp_line (start 68 -10) (end 58 -10) (layer F.Fab) (width 0.1))
  (fp_line (start 58 -10) (end 68 -10) (layer F.SilkS) (width 0.12))
  (fp_line (start 58 4) (end 68 4) (layer F.SilkS) (width 0.12))
  (fp_line (start 58 -10) (end 58 4) (layer F.SilkS) (width 0.12))
  (fp_line (start 68 -10) (end 68 4) (layer F.SilkS) (width 0.12))
  (fp_line (start 58.5 -2.7) (end 58.5 -1.7) (layer F.Fab) (width 0.1))
  (fp_line (start 58.5 -1.7) (end 62.5 -1.7) (layer F.Fab) (width 0.1))
  (fp_line (start 62.5 -1.7) (end 62.5 -2.7) (layer F.Fab) (width 0.1))
  (fp_line (start 62.5 -2.7) (end 58.5 -2.7) (layer F.Fab) (width 0.1))
  (fp_line (start 58.5 -2.7) (end 62.5 -2.7) (layer F.SilkS) (width 0.12))
  (fp_line (start 58.5 -1.701) (end 59.01 -1.701) (layer F.SilkS) (width 0.12))
  (fp_line (start 60.99 -1.701) (end 62.5 -1.701) (layer F.SilkS) (width 0.12))
  (fp_line (start 58.5 -2.7) (end 58.5 -1.701) (layer F.SilkS) (width 0.12))
  (fp_line (start 62.5 -2.7) (end 62.5 -1.701) (layer F.SilkS) (width 0.12))
  (fp_line (start 60 -9.65) (end 60 -7.15) (layer F.Fab) (width 0.1))
  (fp_line (start 60 -7.15) (end 61 -7.15) (layer F.Fab) (width 0.1))
  (fp_line (start 61 -7.15) (end 61 -9.65) (layer F.Fab) (width 0.1))
  (fp_line (start 61 -9.65) (end 60 -9.65) (layer F.Fab) (width 0.1))
  (fp_line (start 60 -9.65) (end 61 -9.65) (layer F.SilkS) (width 0.12))
  (fp_line (start 60 -7.15) (end 61 -7.15) (layer F.SilkS) (width 0.12))
  (fp_line (start 60 -9.65) (end 60 -7.15) (layer F.SilkS) (width 0.12))
  (fp_line (start 61 -9.65) (end 61 -7.15) (layer F.SilkS) (width 0.12))
  (fp_line (start 68.5 -0.6) (end 69.01 -0.6) (layer F.SilkS) (width 0.12))
  (fp_line (start 70.99 -0.6) (end 72.5 -0.6) (layer F.SilkS) (width 0.12))
  (fp_line (start 68.5 2.7) (end 72.5 2.7) (layer F.SilkS) (width 0.12))
  (fp_line (start 68.5 -0.6) (end 68.5 2.7) (layer F.SilkS) (width 0.12))
  (fp_line (start 72.5 -0.6) (end 72.5 2.7) (layer F.SilkS) (width 0.12))
  (fp_line (start 68.5 -0.6) (end 68.5 2.7) (layer F.Fab) (width 0.1))
  (fp_line (start 68.5 2.7) (end 72.5 2.7) (layer F.Fab) (width 0.1))
  (fp_line (start 72.5 2.7) (end 72.5 -0.6) (layer F.Fab) (width 0.1))
  (fp_line (start 72.5 -0.6) (end 68.5 -0.6) (layer F.Fab) (width 0.1))
  (fp_line (start 68 -10) (end 68 4) (layer F.Fab) (width 0.1))
  (fp_line (start 68 4) (end 78 4) (layer F.Fab) (width 0.1))
  (fp_line (start 78 4) (end 78 -10) (layer F.Fab) (width 0.1))
  (fp_line (start 78 -10) (end 68 -10) (layer F.Fab) (width 0.1))
  (fp_line (start 68 -10) (end 78 -10) (layer F.SilkS) (width 0.12))
  (fp_line (start 68 4) (end 78 4) (layer F.SilkS) (width 0.12))
  (fp_line (start 68 -10) (end 68 4) (layer F.SilkS) (width 0.12))
  (fp_line (start 78 -10) (end 78 4) (layer F.SilkS) (width 0.12))
  (fp_line (start 68.5 -2.7) (end 68.5 -1.7) (layer F.Fab) (width 0.1))
  (fp_line (start 68.5 -1.7) (end 72.5 -1.7) (layer F.Fab) (width 0.1))
  (fp_line (start 72.5 -1.7) (end 72.5 -2.7) (layer F.Fab) (width 0.1))
  (fp_line (start 72.5 -2.7) (end 68.5 -2.7) (layer F.Fab) (width 0.1))
  (fp_line (start 68.5 -2.7) (end 72.5 -2.7) (layer F.SilkS) (width 0.12))
  (fp_line (start 68.5 -1.701) (end 69.01 -1.701) (layer F.SilkS) (width 0.12))
  (fp_line (start 70.99 -1.701) (end 72.5 -1.701) (layer F.SilkS) (width 0.12))
  (fp_line (start 68.5 -2.7) (end 68.5 -1.701) (layer F.SilkS) (width 0.12))
  (fp_line (start 72.5 -2.7) (end 72.5 -1.701) (layer F.SilkS) (width 0.12))
  (fp_line (start 70 -9.65) (end 70 -7.15) (layer F.Fab) (width 0.1))
  (fp_line (start 70 -7.15) (end 71 -7.15) (layer F.Fab) (width 0.1))
  (fp_line (start 71 -7.15) (end 71 -9.65) (layer F.Fab) (width 0.1))
  (fp_line (start 71 -9.65) (end 70 -9.65) (layer F.Fab) (width 0.1))
  (fp_line (start 70 -9.65) (end 71 -9.65) (layer F.SilkS) (width 0.12))
  (fp_line (start 70 -7.15) (end 71 -7.15) (layer F.SilkS) (width 0.12))
  (fp_line (start 70 -9.65) (end 70 -7.15) (layer F.SilkS) (width 0.12))
  (fp_line (start 71 -9.65) (end 71 -7.15) (layer F.SilkS) (width 0.12))
  (fp_line (start 78.5 -0.6) (end 79.01 -0.6) (layer F.SilkS) (width 0.12))
  (fp_line (start 80.99 -0.6) (end 82.5 -0.6) (layer F.SilkS) (width 0.12))
  (fp_line (start 78.5 2.7) (end 82.5 2.7) (layer F.SilkS) (width 0.12))
  (fp_line (start 78.5 -0.6) (end 78.5 2.7) (layer F.SilkS) (width 0.12))
  (fp_line (start 82.5 -0.6) (end 82.5 2.7) (layer F.SilkS) (width 0.12))
  (fp_line (start 78.5 -0.6) (end 78.5 2.7) (layer F.Fab) (width 0.1))
  (fp_line (start 78.5 2.7) (end 82.5 2.7) (layer F.Fab) (width 0.1))
  (fp_line (start 82.5 2.7) (end 82.5 -0.6) (layer F.Fab) (width 0.1))
  (fp_line (start 82.5 -0.6) (end 78.5 -0.6) (layer F.Fab) (width 0.1))
  (fp_line (start 78 -10) (end 78 4) (layer F.Fab) (width 0.1))
  (fp_line (start 78 4) (end 88 4) (layer F.Fab) (width 0.1))
  (fp_line (start 88 4) (end 88 -10) (layer F.Fab) (width 0.1))
  (fp_line (start 88 -10) (end 78 -10) (layer F.Fab) (width 0.1))
  (fp_line (start 78 -10) (end 88 -10) (layer F.SilkS) (width 0.12))
  (fp_line (start 78 4) (end 88 4) (layer F.SilkS) (width 0.12))
  (fp_line (start 78 -10) (end 78 4) (layer F.SilkS) (width 0.12))
  (fp_line (start 88 -10) (end 88 4) (layer F.SilkS) (width 0.12))
  (fp_line (start 78.5 -2.7) (end 78.5 -1.7) (layer F.Fab) (width 0.1))
  (fp_line (start 78.5 -1.7) (end 82.5 -1.7) (layer F.Fab) (width 0.1))
  (fp_line (start 82.5 -1.7) (end 82.5 -2.7) (layer F.Fab) (width 0.1))
  (fp_line (start 82.5 -2.7) (end 78.5 -2.7) (layer F.Fab) (width 0.1))
  (fp_line (start 78.5 -2.7) (end 82.5 -2.7) (layer F.SilkS) (width 0.12))
  (fp_line (start 78.5 -1.701) (end 79.01 -1.701) (layer F.SilkS) (width 0.12))
  (fp_line (start 80.99 -1.701) (end 82.5 -1.701) (layer F.SilkS) (width 0.12))
  (fp_line (start 78.5 -2.7) (end 78.5 -1.701) (layer F.SilkS) (width 0.12))
  (fp_line (start 82.5 -2.7) (end 82.5 -1.701) (layer F.SilkS) (width 0.12))
  (fp_line (start 80 -9.65) (end 80 -7.15) (layer F.Fab) (width 0.1))
  (fp_line (start 80 -7.15) (end 81 -7.15) (layer F.Fab) (width 0.1))
  (fp_line (start 81 -7.15) (end 81 -9.65) (layer F.Fab) (width 0.1))
  (fp_line (start 81 -9.65) (end 80 -9.65) (layer F.Fab) (width 0.1))
  (fp_line (start 80 -9.65) (end 81 -9.65) (layer F.SilkS) (width 0.12))
  (fp_line (start 80 -7.15) (end 81 -7.15) (layer F.SilkS) (width 0.12))
  (fp_line (start 80 -9.65) (end 80 -7.15) (layer F.SilkS) (width 0.12))
  (fp_line (start 81 -9.65) (end 81 -7.15) (layer F.SilkS) (width 0.12))
  (fp_line (start 88.5 -0.6) (end 89.01 -0.6) (layer F.SilkS) (width 0.12))
  (fp_line (start 90.99 -0.6) (end 92.5 -0.6) (layer F.SilkS) (width 0.12))
  (fp_line (start 88.5 2.7) (end 92.5 2.7) (layer F.SilkS) (width 0.12))
  (fp_line (start 88.5 -0.6) (end 88.5 2.7) (layer F.SilkS) (width 0.12))
  (fp_line (start 92.5 -0.6) (end 92.5 2.7) (layer F.SilkS) (width 0.12))
  (fp_line (start 88.5 -0.6) (end 88.5 2.7) (layer F.Fab) (width 0.1))
  (fp_line (start 88.5 2.7) (end 92.5 2.7) (layer F.Fab) (width 0.1))
  (fp_line (start 92.5 2.7) (end 92.5 -0.6) (layer F.Fab) (width 0.1))
  (fp_line (start 92.5 -0.6) (end 88.5 -0.6) (layer F.Fab) (width 0.1))
  (fp_line (start 88 -10) (end 88 4) (layer F.Fab) (width 0.1))
  (fp_line (start 88 4) (end 98 4) (layer F.Fab) (width 0.1))
  (fp_line (start 98 4) (end 98 -10) (layer F.Fab) (width 0.1))
  (fp_line (start 98 -10) (end 88 -10) (layer F.Fab) (width 0.1))
  (fp_line (start 88 -10) (end 98 -10) (layer F.SilkS) (width 0.12))
  (fp_line (start 88 4) (end 98 4) (layer F.SilkS) (width 0.12))
  (fp_line (start 88 -10) (end 88 4) (layer F.SilkS) (width 0.12))
  (fp_line (start 98 -10) (end 98 4) (layer F.SilkS) (width 0.12))
  (fp_line (start 88.5 -2.7) (end 88.5 -1.7) (layer F.Fab) (width 0.1))
  (fp_line (start 88.5 -1.7) (end 92.5 -1.7) (layer F.Fab) (width 0.1))
  (fp_line (start 92.5 -1.7) (end 92.5 -2.7) (layer F.Fab) (width 0.1))
  (fp_line (start 92.5 -2.7) (end 88.5 -2.7) (layer F.Fab) (width 0.1))
  (fp_line (start 88.5 -2.7) (end 92.5 -2.7) (layer F.SilkS) (width 0.12))
  (fp_line (start 88.5 -1.701) (end 89.01 -1.701) (layer F.SilkS) (width 0.12))
  (fp_line (start 90.99 -1.701) (end 92.5 -1.701) (layer F.SilkS) (width 0.12))
  (fp_line (start 88.5 -2.7) (end 88.5 -1.701) (layer F.SilkS) (width 0.12))
  (fp_line (start 92.5 -2.7) (end 92.5 -1.701) (layer F.SilkS) (width 0.12))
  (fp_line (start 90 -9.65) (end 90 -7.15) (layer F.Fab) (width 0.1))
  (fp_line (start 90 -7.15) (end 91 -7.15) (layer F.Fab) (width 0.1))
  (fp_line (start 91 -7.15) (end 91 -9.65) (layer F.Fab) (width 0.1))
  (fp_line (start 91 -9.65) (end 90 -9.65) (layer F.Fab) (width 0.1))
  (fp_line (start 90 -9.65) (end 91 -9.65) (layer F.SilkS) (width 0.12))
  (fp_line (start 90 -7.15) (end 91 -7.15) (layer F.SilkS) (width 0.12))
  (fp_line (start 90 -9.65) (end 90 -7.15) (layer F.SilkS) (width 0.12))
  (fp_line (start 91 -9.65) (end 91 -7.15) (layer F.SilkS) (width 0.12))
  (fp_line (start 98.5 -0.6) (end 99.01 -0.6) (layer F.SilkS) (width 0.12))
  (fp_line (start 100.99 -0.6) (end 102.5 -0.6) (layer F.SilkS) (width 0.12))
  (fp_line (start 98.5 2.7) (end 102.5 2.7) (layer F.SilkS) (width 0.12))
  (fp_line (start 98.5 -0.6) (end 98.5 2.7) (layer F.SilkS) (width 0.12))
  (fp_line (start 102.5 -0.6) (end 102.5 2.7) (layer F.SilkS) (width 0.12))
  (fp_line (start 98.5 -0.6) (end 98.5 2.7) (layer F.Fab) (width 0.1))
  (fp_line (start 98.5 2.7) (end 102.5 2.7) (layer F.Fab) (width 0.1))
  (fp_line (start 102.5 2.7) (end 102.5 -0.6) (layer F.Fab) (width 0.1))
  (fp_line (start 102.5 -0.6) (end 98.5 -0.6) (layer F.Fab) (width 0.1))
  (fp_line (start 98 -10) (end 98 4) (layer F.Fab) (width 0.1))
  (fp_line (start 98 4) (end 108 4) (layer F.Fab) (width 0.1))
  (fp_line (start 108 4) (end 108 -10) (layer F.Fab) (width 0.1))
  (fp_line (start 108 -10) (end 98 -10) (layer F.Fab) (width 0.1))
  (fp_line (start 98 -10) (end 108 -10) (layer F.SilkS) (width 0.12))
  (fp_line (start 98 4) (end 108 4) (layer F.SilkS) (width 0.12))
  (fp_line (start 98 -10) (end 98 4) (layer F.SilkS) (width 0.12))
  (fp_line (start 108 -10) (end 108 4) (layer F.SilkS) (width 0.12))
  (fp_line (start 98.5 -2.7) (end 98.5 -1.7) (layer F.Fab) (width 0.1))
  (fp_line (start 98.5 -1.7) (end 102.5 -1.7) (layer F.Fab) (width 0.1))
  (fp_line (start 102.5 -1.7) (end 102.5 -2.7) (layer F.Fab) (width 0.1))
  (fp_line (start 102.5 -2.7) (end 98.5 -2.7) (layer F.Fab) (width 0.1))
  (fp_line (start 98.5 -2.7) (end 102.5 -2.7) (layer F.SilkS) (width 0.12))
  (fp_line (start 98.5 -1.701) (end 99.01 -1.701) (layer F.SilkS) (width 0.12))
  (fp_line (start 100.99 -1.701) (end 102.5 -1.701) (layer F.SilkS) (width 0.12))
  (fp_line (start 98.5 -2.7) (end 98.5 -1.701) (layer F.SilkS) (width 0.12))
  (fp_line (start 102.5 -2.7) (end 102.5 -1.701) (layer F.SilkS) (width 0.12))
  (fp_line (start 100 -9.65) (end 100 -7.15) (layer F.Fab) (width 0.1))
  (fp_line (start 100 -7.15) (end 101 -7.15) (layer F.Fab) (width 0.1))
  (fp_line (start 101 -7.15) (end 101 -9.65) (layer F.Fab) (width 0.1))
  (fp_line (start 101 -9.65) (end 100 -9.65) (layer F.Fab) (width 0.1))
  (fp_line (start 100 -9.65) (end 101 -9.65) (layer F.SilkS) (width 0.12))
  (fp_line (start 100 -7.15) (end 101 -7.15) (layer F.SilkS) (width 0.12))
  (fp_line (start 100 -9.65) (end 100 -7.15) (layer F.SilkS) (width 0.12))
  (fp_line (start 101 -9.65) (end 101 -7.15) (layer F.SilkS) (width 0.12))
  (fp_line (start 108.5 -0.6) (end 109.01 -0.6) (layer F.SilkS) (width 0.12))
  (fp_line (start 110.99 -0.6) (end 112.5 -0.6) (layer F.SilkS) (width 0.12))
  (fp_line (start 108.5 2.7) (end 112.5 2.7) (layer F.SilkS) (width 0.12))
  (fp_line (start 108.5 -0.6) (end 108.5 2.7) (layer F.SilkS) (width 0.12))
  (fp_line (start 112.5 -0.6) (end 112.5 2.7) (layer F.SilkS) (width 0.12))
  (fp_line (start 108.5 -0.6) (end 108.5 2.7) (layer F.Fab) (width 0.1))
  (fp_line (start 108.5 2.7) (end 112.5 2.7) (layer F.Fab) (width 0.1))
  (fp_line (start 112.5 2.7) (end 112.5 -0.6) (layer F.Fab) (width 0.1))
  (fp_line (start 112.5 -0.6) (end 108.5 -0.6) (layer F.Fab) (width 0.1))
  (fp_line (start 108 -10) (end 108 4) (layer F.Fab) (width 0.1))
  (fp_line (start 108 4) (end 118 4) (layer F.Fab) (width 0.1))
  (fp_line (start 118 4) (end 118 -10) (layer F.Fab) (width 0.1))
  (fp_line (start 118 -10) (end 108 -10) (layer F.Fab) (width 0.1))
  (fp_line (start 108 -10) (end 118 -10) (layer F.SilkS) (width 0.12))
  (fp_line (start 108 4) (end 118 4) (layer F.SilkS) (width 0.12))
  (fp_line (start 108 -10) (end 108 4) (layer F.SilkS) (width 0.12))
  (fp_line (start 118 -10) (end 118 4) (layer F.SilkS) (width 0.12))
  (fp_line (start 108.5 -2.7) (end 108.5 -1.7) (layer F.Fab) (width 0.1))
  (fp_line (start 108.5 -1.7) (end 112.5 -1.7) (layer F.Fab) (width 0.1))
  (fp_line (start 112.5 -1.7) (end 112.5 -2.7) (layer F.Fab) (width 0.1))
  (fp_line (start 112.5 -2.7) (end 108.5 -2.7) (layer F.Fab) (width 0.1))
  (fp_line (start 108.5 -2.7) (end 112.5 -2.7) (layer F.SilkS) (width 0.12))
  (fp_line (start 108.5 -1.701) (end 109.01 -1.701) (layer F.SilkS) (width 0.12))
  (fp_line (start 110.99 -1.701) (end 112.5 -1.701) (layer F.SilkS) (width 0.12))
  (fp_line (start 108.5 -2.7) (end 108.5 -1.701) (layer F.SilkS) (width 0.12))
  (fp_line (start 112.5 -2.7) (end 112.5 -1.701) (layer F.SilkS) (width 0.12))
  (fp_line (start 110 -9.65) (end 110 -7.15) (layer F.Fab) (width 0.1))
  (fp_line (start 110 -7.15) (end 111 -7.15) (layer F.Fab) (width 0.1))
  (fp_line (start 111 -7.15) (end 111 -9.65) (layer F.Fab) (width 0.1))
  (fp_line (start 111 -9.65) (end 110 -9.65) (layer F.Fab) (width 0.1))
  (fp_line (start 110 -9.65) (end 111 -9.65) (layer F.SilkS) (width 0.12))
  (fp_line (start 110 -7.15) (end 111 -7.15) (layer F.SilkS) (width 0.12))
  (fp_line (start 110 -9.65) (end 110 -7.15) (layer F.SilkS) (width 0.12))
  (fp_line (start 111 -9.65) (end 111 -7.15) (layer F.SilkS) (width 0.12))
  (fp_line (start -3.8 3.06) (end -3.8 4.3) (layer F.SilkS) (width 0.12))
  (fp_line (start -3.8 4.3) (end -2.8 4.3) (layer F.SilkS) (width 0.12))
  (fp_line (start -4 -10.5) (end -4 4.5) (layer F.CrtYd) (width 0.05))
  (fp_line (start -4 4.5) (end 118.5 4.5) (layer F.CrtYd) (width 0.05))
  (fp_line (start 118.5 4.5) (end 118.5 -10.5) (layer F.CrtYd) (width 0.05))
  (fp_line (start 118.5 -10.5) (end -4 -10.5) (layer F.CrtYd) (width 0.05))
  (pad 1 thru_hole rect (at 0 0) (size 1.5 3) (drill 1) (layers *.Cu *.Mask))
  (pad 1 thru_hole rect (at 0 -5) (size 1.5 3) (drill 1) (layers *.Cu *.Mask))
  (pad 2 thru_hole oval (at 10 0) (size 1.5 3) (drill 1) (layers *.Cu *.Mask))
  (pad 2 thru_hole oval (at 10 -5) (size 1.5 3) (drill 1) (layers *.Cu *.Mask))
  (pad 3 thru_hole oval (at 20 0) (size 1.5 3) (drill 1) (layers *.Cu *.Mask))
  (pad 3 thru_hole oval (at 20 -5) (size 1.5 3) (drill 1) (layers *.Cu *.Mask))
  (pad 4 thru_hole oval (at 30 0) (size 1.5 3) (drill 1) (layers *.Cu *.Mask))
  (pad 4 thru_hole oval (at 30 -5) (size 1.5 3) (drill 1) (layers *.Cu *.Mask))
  (pad 5 thru_hole oval (at 40 0) (size 1.5 3) (drill 1) (layers *.Cu *.Mask))
  (pad 5 thru_hole oval (at 40 -5) (size 1.5 3) (drill 1) (layers *.Cu *.Mask))
  (pad 6 thru_hole oval (at 50 0) (size 1.5 3) (drill 1) (layers *.Cu *.Mask))
  (pad 6 thru_hole oval (at 50 -5) (size 1.5 3) (drill 1) (layers *.Cu *.Mask))
  (pad 7 thru_hole oval (at 60 0) (size 1.5 3) (drill 1) (layers *.Cu *.Mask))
  (pad 7 thru_hole oval (at 60 -5) (size 1.5 3) (drill 1) (layers *.Cu *.Mask))
  (pad 8 thru_hole oval (at 70 0) (size 1.5 3) (drill 1) (layers *.Cu *.Mask))
  (pad 8 thru_hole oval (at 70 -5) (size 1.5 3) (drill 1) (layers *.Cu *.Mask))
  (pad 9 thru_hole oval (at 80 0) (size 1.5 3) (drill 1) (layers *.Cu *.Mask))
  (pad 9 thru_hole oval (at 80 -5) (size 1.5 3) (drill 1) (layers *.Cu *.Mask))
  (pad 10 thru_hole oval (at 90 0) (size 1.5 3) (drill 1) (layers *.Cu *.Mask))
  (pad 10 thru_hole oval (at 90 -5) (size 1.5 3) (drill 1) (layers *.Cu *.Mask))
  (pad 11 thru_hole oval (at 100 0) (size 1.5 3) (drill 1) (layers *.Cu *.Mask))
  (pad 11 thru_hole oval (at 100 -5) (size 1.5 3) (drill 1) (layers *.Cu *.Mask))
  (pad 12 thru_hole oval (at 110 0) (size 1.5 3) (drill 1) (layers *.Cu *.Mask))
  (pad 12 thru_hole oval (at 110 -5) (size 1.5 3) (drill 1) (layers *.Cu *.Mask))
  (fp_text user %R (at 57.25 -4) (layer F.Fab)
    (effects (font (size 1 1) (thickness 0.15)))
  )
  (model ${KIPRJMOD}/kicad_libs_k/models_k.3d/TerminalBlock_WAGO_k.3dshapes/TerminalBlock_WAGO_236-312_1x12_P10.00mm_45Degree_k.wrl
    (at (xyz 0 0 0))
    (scale (xyz 1 1 1))
    (rotate (xyz 0 0 0))
  )
)