(module TerminalBlock_WAGO_236-202_1x02_P7.50mm_45Degree (layer F.Cu) (tedit 5B294EE4)
  (descr "Terminal Block WAGO 236-202, 45Degree (cable under 45degree), 2 pins, pitch 7.5mm, size 16.5x14mm^2, drill diamater 1mm, pad diameter 3mm, see , script-generated with , script-generated using https://github.com/pointhi/kicad-footprint-generator/scripts/TerminalBlock_WAGO")
  (tags "THT Terminal Block WAGO 236-202 45Degree pitch 7.5mm size 16.5x14mm^2 drill 1mm pad 3mm")
  (fp_text reference REF** (at 4.75 -11.06) (layer F.SilkS)
    (effects (font (size 1 1) (thickness 0.15)))
  )
  (fp_text value TerminalBlock_WAGO_236-202_1x02_P7.50mm_45Degree (at 4.75 5.06) (layer F.Fab)
    (effects (font (size 1 1) (thickness 0.15)))
  )
  (fp_line (start -3.5 -10) (end 13 -10) (layer F.Fab) (width 0.1))
  (fp_line (start 13 -10) (end 13 4) (layer F.Fab) (width 0.1))
  (fp_line (start 13 4) (end -2.5 4) (layer F.Fab) (width 0.1))
  (fp_line (start -2.5 4) (end -3.5 3) (layer F.Fab) (width 0.1))
  (fp_line (start -3.5 3) (end -3.5 -10) (layer F.Fab) (width 0.1))
  (fp_line (start -3.5 3) (end 13 3) (layer F.Fab) (width 0.1))
  (fp_line (start -3.56 3) (end 13.06 3) (layer F.SilkS) (width 0.12))
  (fp_line (start -3.5 -2.7) (end 13 -2.7) (layer F.Fab) (width 0.1))
  (fp_line (start -3.56 -2.7) (end 13.06 -2.7) (layer F.SilkS) (width 0.12))
  (fp_line (start -3.5 -5.5) (end 13 -5.5) (layer F.Fab) (width 0.1))
  (fp_line (start -3.56 -5.5) (end -0.99 -5.5) (layer F.SilkS) (width 0.12))
  (fp_line (start 0.99 -5.5) (end 6.51 -5.5) (layer F.SilkS) (width 0.12))
  (fp_line (start 8.49 -5.5) (end 13.06 -5.5) (layer F.SilkS) (width 0.12))
  (fp_line (start -3.56 -10.06) (end 13.06 -10.06) (layer F.SilkS) (width 0.12))
  (fp_line (start -3.56 4.06) (end 13.06 4.06) (layer F.SilkS) (width 0.12))
  (fp_line (start -3.56 -10.06) (end -3.56 4.06) (layer F.SilkS) (width 0.12))
  (fp_line (start 13.06 -10.06) (end 13.06 4.06) (layer F.SilkS) (width 0.12))
  (fp_line (start -1.5 -0.6) (end -0.99 -0.6) (layer F.SilkS) (width 0.12))
  (fp_line (start 0.99 -0.6) (end 2.5 -0.6) (layer F.SilkS) (width 0.12))
  (fp_line (start -1.5 2.7) (end 2.5 2.7) (layer F.SilkS) (width 0.12))
  (fp_line (start -1.5 -0.6) (end -1.5 2.7) (layer F.SilkS) (width 0.12))
  (fp_line (start 2.5 -0.6) (end 2.5 2.7) (layer F.SilkS) (width 0.12))
  (fp_line (start -1.5 -0.6) (end -1.5 2.7) (layer F.Fab) (width 0.1))
  (fp_line (start -1.5 2.7) (end 2.5 2.7) (layer F.Fab) (width 0.1))
  (fp_line (start 2.5 2.7) (end 2.5 -0.6) (layer F.Fab) (width 0.1))
  (fp_line (start 2.5 -0.6) (end -1.5 -0.6) (layer F.Fab) (width 0.1))
  (fp_line (start -2 -10) (end -2 4) (layer F.Fab) (width 0.1))
  (fp_line (start -2 4) (end 5.5 4) (layer F.Fab) (width 0.1))
  (fp_line (start 5.5 4) (end 5.5 -10) (layer F.Fab) (width 0.1))
  (fp_line (start 5.5 -10) (end -2 -10) (layer F.Fab) (width 0.1))
  (fp_line (start -2 -10) (end 5.5 -10) (layer F.SilkS) (width 0.12))
  (fp_line (start -2 4) (end 5.5 4) (layer F.SilkS) (width 0.12))
  (fp_line (start -2 -10) (end -2 4) (layer F.SilkS) (width 0.12))
  (fp_line (start 5.5 -10) (end 5.5 4) (layer F.SilkS) (width 0.12))
  (fp_line (start -1.5 -2.7) (end -1.5 -1.7) (layer F.Fab) (width 0.1))
  (fp_line (start -1.5 -1.7) (end 2.5 -1.7) (layer F.Fab) (width 0.1))
  (fp_line (start 2.5 -1.7) (end 2.5 -2.7) (layer F.Fab) (width 0.1))
  (fp_line (start 2.5 -2.7) (end -1.5 -2.7) (layer F.Fab) (width 0.1))
  (fp_line (start -1.5 -2.7) (end 2.5 -2.7) (layer F.SilkS) (width 0.12))
  (fp_line (start -1.5 -1.701) (end -0.99 -1.701) (layer F.SilkS) (width 0.12))
  (fp_line (start 0.99 -1.701) (end 2.5 -1.701) (layer F.SilkS) (width 0.12))
  (fp_line (start -1.5 -2.7) (end -1.5 -1.701) (layer F.SilkS) (width 0.12))
  (fp_line (start 2.5 -2.7) (end 2.5 -1.701) (layer F.SilkS) (width 0.12))
  (fp_line (start 0 -9.65) (end 0 -7.15) (layer F.Fab) (width 0.1))
  (fp_line (start 0 -7.15) (end 1 -7.15) (layer F.Fab) (width 0.1))
  (fp_line (start 1 -7.15) (end 1 -9.65) (layer F.Fab) (width 0.1))
  (fp_line (start 1 -9.65) (end 0 -9.65) (layer F.Fab) (width 0.1))
  (fp_line (start 0 -9.65) (end 1 -9.65) (layer F.SilkS) (width 0.12))
  (fp_line (start 0 -7.15) (end 1 -7.15) (layer F.SilkS) (width 0.12))
  (fp_line (start 0 -9.65) (end 0 -7.15) (layer F.SilkS) (width 0.12))
  (fp_line (start 1 -9.65) (end 1 -7.15) (layer F.SilkS) (width 0.12))
  (fp_line (start 6 -0.6) (end 6.51 -0.6) (layer F.SilkS) (width 0.12))
  (fp_line (start 8.49 -0.6) (end 10 -0.6) (layer F.SilkS) (width 0.12))
  (fp_line (start 6 2.7) (end 10 2.7) (layer F.SilkS) (width 0.12))
  (fp_line (start 6 -0.6) (end 6 2.7) (layer F.SilkS) (width 0.12))
  (fp_line (start 10 -0.6) (end 10 2.7) (layer F.SilkS) (width 0.12))
  (fp_line (start 6 -0.6) (end 6 2.7) (layer F.Fab) (width 0.1))
  (fp_line (start 6 2.7) (end 10 2.7) (layer F.Fab) (width 0.1))
  (fp_line (start 10 2.7) (end 10 -0.6) (layer F.Fab) (width 0.1))
  (fp_line (start 10 -0.6) (end 6 -0.6) (layer F.Fab) (width 0.1))
  (fp_line (start 5.5 -10) (end 5.5 4) (layer F.Fab) (width 0.1))
  (fp_line (start 5.5 4) (end 13 4) (layer F.Fab) (width 0.1))
  (fp_line (start 13 4) (end 13 -10) (layer F.Fab) (width 0.1))
  (fp_line (start 13 -10) (end 5.5 -10) (layer F.Fab) (width 0.1))
  (fp_line (start 5.5 -10) (end 13 -10) (layer F.SilkS) (width 0.12))
  (fp_line (start 5.5 4) (end 13 4) (layer F.SilkS) (width 0.12))
  (fp_line (start 5.5 -10) (end 5.5 4) (layer F.SilkS) (width 0.12))
  (fp_line (start 13 -10) (end 13 4) (layer F.SilkS) (width 0.12))
  (fp_line (start 6 -2.7) (end 6 -1.7) (layer F.Fab) (width 0.1))
  (fp_line (start 6 -1.7) (end 10 -1.7) (layer F.Fab) (width 0.1))
  (fp_line (start 10 -1.7) (end 10 -2.7) (layer F.Fab) (width 0.1))
  (fp_line (start 10 -2.7) (end 6 -2.7) (layer F.Fab) (width 0.1))
  (fp_line (start 6 -2.7) (end 10 -2.7) (layer F.SilkS) (width 0.12))
  (fp_line (start 6 -1.701) (end 6.51 -1.701) (layer F.SilkS) (width 0.12))
  (fp_line (start 8.49 -1.701) (end 10 -1.701) (layer F.SilkS) (width 0.12))
  (fp_line (start 6 -2.7) (end 6 -1.701) (layer F.SilkS) (width 0.12))
  (fp_line (start 10 -2.7) (end 10 -1.701) (layer F.SilkS) (width 0.12))
  (fp_line (start 7.5 -9.65) (end 7.5 -7.15) (layer F.Fab) (width 0.1))
  (fp_line (start 7.5 -7.15) (end 8.5 -7.15) (layer F.Fab) (width 0.1))
  (fp_line (start 8.5 -7.15) (end 8.5 -9.65) (layer F.Fab) (width 0.1))
  (fp_line (start 8.5 -9.65) (end 7.5 -9.65) (layer F.Fab) (width 0.1))
  (fp_line (start 7.5 -9.65) (end 8.5 -9.65) (layer F.SilkS) (width 0.12))
  (fp_line (start 7.5 -7.15) (end 8.5 -7.15) (layer F.SilkS) (width 0.12))
  (fp_line (start 7.5 -9.65) (end 7.5 -7.15) (layer F.SilkS) (width 0.12))
  (fp_line (start 8.5 -9.65) (end 8.5 -7.15) (layer F.SilkS) (width 0.12))
  (fp_line (start -3.8 3.06) (end -3.8 4.3) (layer F.SilkS) (width 0.12))
  (fp_line (start -3.8 4.3) (end -2.8 4.3) (layer F.SilkS) (width 0.12))
  (fp_line (start -4 -10.5) (end -4 4.5) (layer F.CrtYd) (width 0.05))
  (fp_line (start -4 4.5) (end 13.5 4.5) (layer F.CrtYd) (width 0.05))
  (fp_line (start 13.5 4.5) (end 13.5 -10.5) (layer F.CrtYd) (width 0.05))
  (fp_line (start 13.5 -10.5) (end -4 -10.5) (layer F.CrtYd) (width 0.05))
  (pad 1 thru_hole rect (at 0 0) (size 1.5 3) (drill 1) (layers *.Cu *.Mask))
  (pad 1 thru_hole rect (at 0 -5) (size 1.5 3) (drill 1) (layers *.Cu *.Mask))
  (pad 2 thru_hole oval (at 7.5 0) (size 1.5 3) (drill 1) (layers *.Cu *.Mask))
  (pad 2 thru_hole oval (at 7.5 -5) (size 1.5 3) (drill 1) (layers *.Cu *.Mask))
  (fp_text user %R (at 4.75 -4) (layer F.Fab)
    (effects (font (size 1 1) (thickness 0.15)))
  )
  (model ${KIPRJMOD}/kicad_libs_k/models_k.3d/TerminalBlock_WAGO_k.3dshapes/TerminalBlock_WAGO_236-202_1x02_P7.50mm_45Degree_k.wrl
    (at (xyz 0 0 0))
    (scale (xyz 1 1 1))
    (rotate (xyz 0 0 0))
  )
)