(module TerminalBlock_WAGO_804-110_1x10_P5.00mm_45Degree (layer F.Cu) (tedit 5B294EE1)
  (descr "Terminal Block WAGO 804-110, 45Degree (cable under 45degree), 10 pins, pitch 5mm, size 51.5x15mm^2, drill diamater 1.2mm, pad diameter 3mm, see , script-generated with , script-generated using https://github.com/pointhi/kicad-footprint-generator/scripts/TerminalBlock_WAGO")
  (tags "THT Terminal Block WAGO 804-110 45Degree pitch 5mm size 51.5x15mm^2 drill 1.2mm pad 3mm")
  (fp_text reference REF** (at 23 -9.36) (layer F.SilkS)
    (effects (font (size 1 1) (thickness 0.15)))
  )
  (fp_text value TerminalBlock_WAGO_804-110_1x10_P5.00mm_45Degree (at 23 7.76) (layer F.Fab)
    (effects (font (size 1 1) (thickness 0.15)))
  )
  (fp_arc (start 1.25 5.59) (end 2.701 5.251) (angle -153.676754) (layer F.Fab) (width 0.1))
  (fp_arc (start 1.25 4.911) (end 2.7 5.25) (angle 153.676754) (layer F.Fab) (width 0.1))
  (fp_arc (start 1.25 5.59) (end 2.701 5.251) (angle -153.676754) (layer F.SilkS) (width 0.12))
  (fp_arc (start 1.25 4.911) (end 2.7 5.25) (angle 153.676754) (layer F.SilkS) (width 0.12))
  (fp_arc (start 1.25 -5.75) (end 1.25 -4.25) (angle -1) (layer F.SilkS) (width 0.12))
  (fp_arc (start 1.25 -5.75) (end 2.383 -6.735) (angle -230) (layer F.SilkS) (width 0.12))
  (fp_arc (start 6.25 5.59) (end 7.701 5.251) (angle -153.676754) (layer F.Fab) (width 0.1))
  (fp_arc (start 6.25 4.911) (end 7.7 5.25) (angle 153.676754) (layer F.Fab) (width 0.1))
  (fp_arc (start 6.25 5.59) (end 7.701 5.251) (angle -153.676754) (layer F.SilkS) (width 0.12))
  (fp_arc (start 6.25 4.911) (end 7.7 5.25) (angle 153.676754) (layer F.SilkS) (width 0.12))
  (fp_arc (start 6.25 -5.75) (end 6.25 -4.25) (angle -1) (layer F.SilkS) (width 0.12))
  (fp_arc (start 6.25 -5.75) (end 7.383 -6.735) (angle -230) (layer F.SilkS) (width 0.12))
  (fp_arc (start 11.25 5.59) (end 12.701 5.251) (angle -153.676754) (layer F.Fab) (width 0.1))
  (fp_arc (start 11.25 4.911) (end 12.7 5.25) (angle 153.676754) (layer F.Fab) (width 0.1))
  (fp_arc (start 11.25 5.59) (end 12.701 5.251) (angle -153.676754) (layer F.SilkS) (width 0.12))
  (fp_arc (start 11.25 4.911) (end 12.7 5.25) (angle 153.676754) (layer F.SilkS) (width 0.12))
  (fp_arc (start 11.25 -5.75) (end 11.25 -4.25) (angle -1) (layer F.SilkS) (width 0.12))
  (fp_arc (start 11.25 -5.75) (end 12.383 -6.735) (angle -230) (layer F.SilkS) (width 0.12))
  (fp_arc (start 16.25 5.59) (end 17.701 5.251) (angle -153.676754) (layer F.Fab) (width 0.1))
  (fp_arc (start 16.25 4.911) (end 17.7 5.25) (angle 153.676754) (layer F.Fab) (width 0.1))
  (fp_arc (start 16.25 5.59) (end 17.701 5.251) (angle -153.676754) (layer F.SilkS) (width 0.12))
  (fp_arc (start 16.25 4.911) (end 17.7 5.25) (angle 153.676754) (layer F.SilkS) (width 0.12))
  (fp_arc (start 16.25 -5.75) (end 16.25 -4.25) (angle -1) (layer F.SilkS) (width 0.12))
  (fp_arc (start 16.25 -5.75) (end 17.383 -6.735) (angle -230) (layer F.SilkS) (width 0.12))
  (fp_arc (start 21.25 5.59) (end 22.701 5.251) (angle -153.676754) (layer F.Fab) (width 0.1))
  (fp_arc (start 21.25 4.911) (end 22.7 5.25) (angle 153.676754) (layer F.Fab) (width 0.1))
  (fp_arc (start 21.25 5.59) (end 22.701 5.251) (angle -153.676754) (layer F.SilkS) (width 0.12))
  (fp_arc (start 21.25 4.911) (end 22.7 5.25) (angle 153.676754) (layer F.SilkS) (width 0.12))
  (fp_arc (start 21.25 -5.75) (end 21.25 -4.25) (angle -1) (layer F.SilkS) (width 0.12))
  (fp_arc (start 21.25 -5.75) (end 22.383 -6.735) (angle -230) (layer F.SilkS) (width 0.12))
  (fp_arc (start 26.25 5.59) (end 27.701 5.251) (angle -153.676754) (layer F.Fab) (width 0.1))
  (fp_arc (start 26.25 4.911) (end 27.7 5.25) (angle 153.676754) (layer F.Fab) (width 0.1))
  (fp_arc (start 26.25 5.59) (end 27.701 5.251) (angle -153.676754) (layer F.SilkS) (width 0.12))
  (fp_arc (start 26.25 4.911) (end 27.7 5.25) (angle 153.676754) (layer F.SilkS) (width 0.12))
  (fp_arc (start 26.25 -5.75) (end 26.25 -4.25) (angle -1) (layer F.SilkS) (width 0.12))
  (fp_arc (start 26.25 -5.75) (end 27.383 -6.735) (angle -230) (layer F.SilkS) (width 0.12))
  (fp_arc (start 31.25 5.59) (end 32.701 5.251) (angle -153.676754) (layer F.Fab) (width 0.1))
  (fp_arc (start 31.25 4.911) (end 32.701 5.25) (angle 153.676754) (layer F.Fab) (width 0.1))
  (fp_arc (start 31.25 5.59) (end 32.701 5.251) (angle -153.676754) (layer F.SilkS) (width 0.12))
  (fp_arc (start 31.25 4.911) (end 32.701 5.25) (angle 153.676754) (layer F.SilkS) (width 0.12))
  (fp_arc (start 31.25 -5.75) (end 31.25 -4.25) (angle -1) (layer F.SilkS) (width 0.12))
  (fp_arc (start 31.25 -5.75) (end 32.383 -6.735) (angle -230) (layer F.SilkS) (width 0.12))
  (fp_arc (start 36.25 5.59) (end 37.701 5.251) (angle -153.676754) (layer F.Fab) (width 0.1))
  (fp_arc (start 36.25 4.911) (end 37.7 5.25) (angle 153.676754) (layer F.Fab) (width 0.1))
  (fp_arc (start 36.25 5.59) (end 37.701 5.251) (angle -153.676754) (layer F.SilkS) (width 0.12))
  (fp_arc (start 36.25 4.911) (end 37.7 5.25) (angle 153.676754) (layer F.SilkS) (width 0.12))
  (fp_arc (start 36.25 -5.75) (end 36.25 -4.25) (angle -1) (layer F.SilkS) (width 0.12))
  (fp_arc (start 36.25 -5.75) (end 37.383 -6.735) (angle -230) (layer F.SilkS) (width 0.12))
  (fp_arc (start 41.25 5.59) (end 42.701 5.251) (angle -153.676754) (layer F.Fab) (width 0.1))
  (fp_arc (start 41.25 4.911) (end 42.7 5.25) (angle 153.676754) (layer F.Fab) (width 0.1))
  (fp_arc (start 41.25 5.59) (end 42.701 5.251) (angle -153.676754) (layer F.SilkS) (width 0.12))
  (fp_arc (start 41.25 4.911) (end 42.7 5.25) (angle 153.676754) (layer F.SilkS) (width 0.12))
  (fp_arc (start 41.25 -5.75) (end 41.25 -4.25) (angle -1) (layer F.SilkS) (width 0.12))
  (fp_arc (start 41.25 -5.75) (end 42.383 -6.735) (angle -230) (layer F.SilkS) (width 0.12))
  (fp_arc (start 46.25 5.59) (end 47.701 5.251) (angle -153.676754) (layer F.Fab) (width 0.1))
  (fp_arc (start 46.25 4.911) (end 47.7 5.25) (angle 153.676754) (layer F.Fab) (width 0.1))
  (fp_arc (start 46.25 5.59) (end 47.701 5.251) (angle -153.676754) (layer F.SilkS) (width 0.12))
  (fp_arc (start 46.25 4.911) (end 47.7 5.25) (angle 153.676754) (layer F.SilkS) (width 0.12))
  (fp_arc (start 46.25 -5.75) (end 46.25 -4.25) (angle -1) (layer F.SilkS) (width 0.12))
  (fp_arc (start 46.25 -5.75) (end 47.383 -6.735) (angle -230) (layer F.SilkS) (width 0.12))
  (fp_circle (center 1.25 -5.75) (end 2.75 -5.75) (layer F.Fab) (width 0.1))
  (fp_circle (center 6.25 -5.75) (end 7.75 -5.75) (layer F.Fab) (width 0.1))
  (fp_circle (center 11.25 -5.75) (end 12.75 -5.75) (layer F.Fab) (width 0.1))
  (fp_circle (center 16.25 -5.75) (end 17.75 -5.75) (layer F.Fab) (width 0.1))
  (fp_circle (center 21.25 -5.75) (end 22.75 -5.75) (layer F.Fab) (width 0.1))
  (fp_circle (center 26.25 -5.75) (end 27.75 -5.75) (layer F.Fab) (width 0.1))
  (fp_circle (center 31.25 -5.75) (end 32.75 -5.75) (layer F.Fab) (width 0.1))
  (fp_circle (center 36.25 -5.75) (end 37.75 -5.75) (layer F.Fab) (width 0.1))
  (fp_circle (center 41.25 -5.75) (end 42.75 -5.75) (layer F.Fab) (width 0.1))
  (fp_circle (center 46.25 -5.75) (end 47.75 -5.75) (layer F.Fab) (width 0.1))
  (fp_line (start -2.75 -8.3) (end 48.75 -8.3) (layer F.Fab) (width 0.1))
  (fp_line (start 48.75 -8.3) (end 48.75 6.7) (layer F.Fab) (width 0.1))
  (fp_line (start 48.75 6.7) (end -0.75 6.7) (layer F.Fab) (width 0.1))
  (fp_line (start -0.75 6.7) (end -2.75 4.7) (layer F.Fab) (width 0.1))
  (fp_line (start -2.75 4.7) (end -2.75 -8.3) (layer F.Fab) (width 0.1))
  (fp_line (start -2.75 3.8) (end 48.75 3.8) (layer F.Fab) (width 0.1))
  (fp_line (start -2.81 3.8) (end 48.81 3.8) (layer F.SilkS) (width 0.12))
  (fp_line (start -2.81 -8.361) (end 48.81 -8.361) (layer F.SilkS) (width 0.12))
  (fp_line (start -2.81 6.76) (end 48.81 6.76) (layer F.SilkS) (width 0.12))
  (fp_line (start -2.81 -8.361) (end -2.81 6.76) (layer F.SilkS) (width 0.12))
  (fp_line (start 48.81 -8.361) (end 48.81 6.76) (layer F.SilkS) (width 0.12))
  (fp_line (start -1.25 -8.3) (end -1.25 6.7) (layer F.Fab) (width 0.1))
  (fp_line (start -1.25 -8.361) (end -1.25 6.76) (layer F.SilkS) (width 0.12))
  (fp_line (start -0.75 -2.2) (end -0.75 2.2) (layer F.Fab) (width 0.1))
  (fp_line (start -0.75 2.2) (end 3.25 2.2) (layer F.Fab) (width 0.1))
  (fp_line (start 3.25 2.2) (end 3.25 -2.2) (layer F.Fab) (width 0.1))
  (fp_line (start 3.25 -2.2) (end -0.75 -2.2) (layer F.Fab) (width 0.1))
  (fp_line (start -0.75 -2.2) (end 3.25 -2.2) (layer F.SilkS) (width 0.12))
  (fp_line (start -0.75 2.2) (end 3.25 2.2) (layer F.SilkS) (width 0.12))
  (fp_line (start -0.75 -2.2) (end -0.75 -1.74) (layer F.SilkS) (width 0.12))
  (fp_line (start -0.75 1.74) (end -0.75 2.2) (layer F.SilkS) (width 0.12))
  (fp_line (start 3.25 -2.2) (end 3.25 2.2) (layer F.SilkS) (width 0.12))
  (fp_line (start -0.75 -0.5) (end -0.75 0.5) (layer F.Fab) (width 0.1))
  (fp_line (start -0.75 0.5) (end 3.25 0.5) (layer F.Fab) (width 0.1))
  (fp_line (start 3.25 0.5) (end 3.25 -0.5) (layer F.Fab) (width 0.1))
  (fp_line (start 3.25 -0.5) (end -0.75 -0.5) (layer F.Fab) (width 0.1))
  (fp_line (start 1.24 -0.5) (end 3.25 -0.5) (layer F.SilkS) (width 0.12))
  (fp_line (start 1.24 0.5) (end 3.25 0.5) (layer F.SilkS) (width 0.12))
  (fp_line (start 3.25 -0.5) (end 3.25 0.5) (layer F.SilkS) (width 0.12))
  (fp_line (start 3.75 -8.3) (end 3.75 6.7) (layer F.Fab) (width 0.1))
  (fp_line (start 3.75 -8.361) (end 3.75 6.76) (layer F.SilkS) (width 0.12))
  (fp_line (start 4.25 -2.2) (end 4.25 2.2) (layer F.Fab) (width 0.1))
  (fp_line (start 4.25 2.2) (end 8.25 2.2) (layer F.Fab) (width 0.1))
  (fp_line (start 8.25 2.2) (end 8.25 -2.2) (layer F.Fab) (width 0.1))
  (fp_line (start 8.25 -2.2) (end 4.25 -2.2) (layer F.Fab) (width 0.1))
  (fp_line (start 4.25 -2.2) (end 8.25 -2.2) (layer F.SilkS) (width 0.12))
  (fp_line (start 4.25 2.2) (end 8.25 2.2) (layer F.SilkS) (width 0.12))
  (fp_line (start 4.25 -2.2) (end 4.25 -1.74) (layer F.SilkS) (width 0.12))
  (fp_line (start 4.25 1.74) (end 4.25 2.2) (layer F.SilkS) (width 0.12))
  (fp_line (start 8.25 -2.2) (end 8.25 2.2) (layer F.SilkS) (width 0.12))
  (fp_line (start 4.25 -0.5) (end 4.25 0.5) (layer F.Fab) (width 0.1))
  (fp_line (start 4.25 0.5) (end 8.25 0.5) (layer F.Fab) (width 0.1))
  (fp_line (start 8.25 0.5) (end 8.25 -0.5) (layer F.Fab) (width 0.1))
  (fp_line (start 8.25 -0.5) (end 4.25 -0.5) (layer F.Fab) (width 0.1))
  (fp_line (start 6.24 -0.5) (end 8.25 -0.5) (layer F.SilkS) (width 0.12))
  (fp_line (start 6.24 0.5) (end 8.25 0.5) (layer F.SilkS) (width 0.12))
  (fp_line (start 8.25 -0.5) (end 8.25 0.5) (layer F.SilkS) (width 0.12))
  (fp_line (start 8.75 -8.3) (end 8.75 6.7) (layer F.Fab) (width 0.1))
  (fp_line (start 8.75 -8.361) (end 8.75 6.76) (layer F.SilkS) (width 0.12))
  (fp_line (start 9.25 -2.2) (end 9.25 2.2) (layer F.Fab) (width 0.1))
  (fp_line (start 9.25 2.2) (end 13.25 2.2) (layer F.Fab) (width 0.1))
  (fp_line (start 13.25 2.2) (end 13.25 -2.2) (layer F.Fab) (width 0.1))
  (fp_line (start 13.25 -2.2) (end 9.25 -2.2) (layer F.Fab) (width 0.1))
  (fp_line (start 9.25 -2.2) (end 13.25 -2.2) (layer F.SilkS) (width 0.12))
  (fp_line (start 9.25 2.2) (end 13.25 2.2) (layer F.SilkS) (width 0.12))
  (fp_line (start 9.25 -2.2) (end 9.25 -1.74) (layer F.SilkS) (width 0.12))
  (fp_line (start 9.25 1.74) (end 9.25 2.2) (layer F.SilkS) (width 0.12))
  (fp_line (start 13.25 -2.2) (end 13.25 2.2) (layer F.SilkS) (width 0.12))
  (fp_line (start 9.25 -0.5) (end 9.25 0.5) (layer F.Fab) (width 0.1))
  (fp_line (start 9.25 0.5) (end 13.25 0.5) (layer F.Fab) (width 0.1))
  (fp_line (start 13.25 0.5) (end 13.25 -0.5) (layer F.Fab) (width 0.1))
  (fp_line (start 13.25 -0.5) (end 9.25 -0.5) (layer F.Fab) (width 0.1))
  (fp_line (start 11.24 -0.5) (end 13.25 -0.5) (layer F.SilkS) (width 0.12))
  (fp_line (start 11.24 0.5) (end 13.25 0.5) (layer F.SilkS) (width 0.12))
  (fp_line (start 13.25 -0.5) (end 13.25 0.5) (layer F.SilkS) (width 0.12))
  (fp_line (start 13.75 -8.3) (end 13.75 6.7) (layer F.Fab) (width 0.1))
  (fp_line (start 13.75 -8.361) (end 13.75 6.76) (layer F.SilkS) (width 0.12))
  (fp_line (start 14.25 -2.2) (end 14.25 2.2) (layer F.Fab) (width 0.1))
  (fp_line (start 14.25 2.2) (end 18.25 2.2) (layer F.Fab) (width 0.1))
  (fp_line (start 18.25 2.2) (end 18.25 -2.2) (layer F.Fab) (width 0.1))
  (fp_line (start 18.25 -2.2) (end 14.25 -2.2) (layer F.Fab) (width 0.1))
  (fp_line (start 14.25 -2.2) (end 18.25 -2.2) (layer F.SilkS) (width 0.12))
  (fp_line (start 14.25 2.2) (end 18.25 2.2) (layer F.SilkS) (width 0.12))
  (fp_line (start 14.25 -2.2) (end 14.25 -1.74) (layer F.SilkS) (width 0.12))
  (fp_line (start 14.25 1.74) (end 14.25 2.2) (layer F.SilkS) (width 0.12))
  (fp_line (start 18.25 -2.2) (end 18.25 2.2) (layer F.SilkS) (width 0.12))
  (fp_line (start 14.25 -0.5) (end 14.25 0.5) (layer F.Fab) (width 0.1))
  (fp_line (start 14.25 0.5) (end 18.25 0.5) (layer F.Fab) (width 0.1))
  (fp_line (start 18.25 0.5) (end 18.25 -0.5) (layer F.Fab) (width 0.1))
  (fp_line (start 18.25 -0.5) (end 14.25 -0.5) (layer F.Fab) (width 0.1))
  (fp_line (start 16.24 -0.5) (end 18.25 -0.5) (layer F.SilkS) (width 0.12))
  (fp_line (start 16.24 0.5) (end 18.25 0.5) (layer F.SilkS) (width 0.12))
  (fp_line (start 18.25 -0.5) (end 18.25 0.5) (layer F.SilkS) (width 0.12))
  (fp_line (start 18.75 -8.3) (end 18.75 6.7) (layer F.Fab) (width 0.1))
  (fp_line (start 18.75 -8.361) (end 18.75 6.76) (layer F.SilkS) (width 0.12))
  (fp_line (start 19.25 -2.2) (end 19.25 2.2) (layer F.Fab) (width 0.1))
  (fp_line (start 19.25 2.2) (end 23.25 2.2) (layer F.Fab) (width 0.1))
  (fp_line (start 23.25 2.2) (end 23.25 -2.2) (layer F.Fab) (width 0.1))
  (fp_line (start 23.25 -2.2) (end 19.25 -2.2) (layer F.Fab) (width 0.1))
  (fp_line (start 19.25 -2.2) (end 23.25 -2.2) (layer F.SilkS) (width 0.12))
  (fp_line (start 19.25 2.2) (end 23.25 2.2) (layer F.SilkS) (width 0.12))
  (fp_line (start 19.25 -2.2) (end 19.25 -1.74) (layer F.SilkS) (width 0.12))
  (fp_line (start 19.25 1.74) (end 19.25 2.2) (layer F.SilkS) (width 0.12))
  (fp_line (start 23.25 -2.2) (end 23.25 2.2) (layer F.SilkS) (width 0.12))
  (fp_line (start 19.25 -0.5) (end 19.25 0.5) (layer F.Fab) (width 0.1))
  (fp_line (start 19.25 0.5) (end 23.25 0.5) (layer F.Fab) (width 0.1))
  (fp_line (start 23.25 0.5) (end 23.25 -0.5) (layer F.Fab) (width 0.1))
  (fp_line (start 23.25 -0.5) (end 19.25 -0.5) (layer F.Fab) (width 0.1))
  (fp_line (start 21.24 -0.5) (end 23.25 -0.5) (layer F.SilkS) (width 0.12))
  (fp_line (start 21.24 0.5) (end 23.25 0.5) (layer F.SilkS) (width 0.12))
  (fp_line (start 23.25 -0.5) (end 23.25 0.5) (layer F.SilkS) (width 0.12))
  (fp_line (start 23.75 -8.3) (end 23.75 6.7) (layer F.Fab) (width 0.1))
  (fp_line (start 23.75 -8.361) (end 23.75 6.76) (layer F.SilkS) (width 0.12))
  (fp_line (start 24.25 -2.2) (end 24.25 2.2) (layer F.Fab) (width 0.1))
  (fp_line (start 24.25 2.2) (end 28.25 2.2) (layer F.Fab) (width 0.1))
  (fp_line (start 28.25 2.2) (end 28.25 -2.2) (layer F.Fab) (width 0.1))
  (fp_line (start 28.25 -2.2) (end 24.25 -2.2) (layer F.Fab) (width 0.1))
  (fp_line (start 24.25 -2.2) (end 28.25 -2.2) (layer F.SilkS) (width 0.12))
  (fp_line (start 24.25 2.2) (end 28.25 2.2) (layer F.SilkS) (width 0.12))
  (fp_line (start 24.25 -2.2) (end 24.25 -1.74) (layer F.SilkS) (width 0.12))
  (fp_line (start 24.25 1.74) (end 24.25 2.2) (layer F.SilkS) (width 0.12))
  (fp_line (start 28.25 -2.2) (end 28.25 2.2) (layer F.SilkS) (width 0.12))
  (fp_line (start 24.25 -0.5) (end 24.25 0.5) (layer F.Fab) (width 0.1))
  (fp_line (start 24.25 0.5) (end 28.25 0.5) (layer F.Fab) (width 0.1))
  (fp_line (start 28.25 0.5) (end 28.25 -0.5) (layer F.Fab) (width 0.1))
  (fp_line (start 28.25 -0.5) (end 24.25 -0.5) (layer F.Fab) (width 0.1))
  (fp_line (start 26.24 -0.5) (end 28.25 -0.5) (layer F.SilkS) (width 0.12))
  (fp_line (start 26.24 0.5) (end 28.25 0.5) (layer F.SilkS) (width 0.12))
  (fp_line (start 28.25 -0.5) (end 28.25 0.5) (layer F.SilkS) (width 0.12))
  (fp_line (start 28.75 -8.3) (end 28.75 6.7) (layer F.Fab) (width 0.1))
  (fp_line (start 28.75 -8.361) (end 28.75 6.76) (layer F.SilkS) (width 0.12))
  (fp_line (start 29.25 -2.2) (end 29.25 2.2) (layer F.Fab) (width 0.1))
  (fp_line (start 29.25 2.2) (end 33.25 2.2) (layer F.Fab) (width 0.1))
  (fp_line (start 33.25 2.2) (end 33.25 -2.2) (layer F.Fab) (width 0.1))
  (fp_line (start 33.25 -2.2) (end 29.25 -2.2) (layer F.Fab) (width 0.1))
  (fp_line (start 29.25 -2.2) (end 33.25 -2.2) (layer F.SilkS) (width 0.12))
  (fp_line (start 29.25 2.2) (end 33.25 2.2) (layer F.SilkS) (width 0.12))
  (fp_line (start 29.25 -2.2) (end 29.25 -1.74) (layer F.SilkS) (width 0.12))
  (fp_line (start 29.25 1.74) (end 29.25 2.2) (layer F.SilkS) (width 0.12))
  (fp_line (start 33.25 -2.2) (end 33.25 2.2) (layer F.SilkS) (width 0.12))
  (fp_line (start 29.25 -0.5) (end 29.25 0.5) (layer F.Fab) (width 0.1))
  (fp_line (start 29.25 0.5) (end 33.25 0.5) (layer F.Fab) (width 0.1))
  (fp_line (start 33.25 0.5) (end 33.25 -0.5) (layer F.Fab) (width 0.1))
  (fp_line (start 33.25 -0.5) (end 29.25 -0.5) (layer F.Fab) (width 0.1))
  (fp_line (start 31.24 -0.5) (end 33.25 -0.5) (layer F.SilkS) (width 0.12))
  (fp_line (start 31.24 0.5) (end 33.25 0.5) (layer F.SilkS) (width 0.12))
  (fp_line (start 33.25 -0.5) (end 33.25 0.5) (layer F.SilkS) (width 0.12))
  (fp_line (start 33.75 -8.3) (end 33.75 6.7) (layer F.Fab) (width 0.1))
  (fp_line (start 33.75 -8.361) (end 33.75 6.76) (layer F.SilkS) (width 0.12))
  (fp_line (start 34.25 -2.2) (end 34.25 2.2) (layer F.Fab) (width 0.1))
  (fp_line (start 34.25 2.2) (end 38.25 2.2) (layer F.Fab) (width 0.1))
  (fp_line (start 38.25 2.2) (end 38.25 -2.2) (layer F.Fab) (width 0.1))
  (fp_line (start 38.25 -2.2) (end 34.25 -2.2) (layer F.Fab) (width 0.1))
  (fp_line (start 34.25 -2.2) (end 38.25 -2.2) (layer F.SilkS) (width 0.12))
  (fp_line (start 34.25 2.2) (end 38.25 2.2) (layer F.SilkS) (width 0.12))
  (fp_line (start 34.25 -2.2) (end 34.25 -1.74) (layer F.SilkS) (width 0.12))
  (fp_line (start 34.25 1.74) (end 34.25 2.2) (layer F.SilkS) (width 0.12))
  (fp_line (start 38.25 -2.2) (end 38.25 2.2) (layer F.SilkS) (width 0.12))
  (fp_line (start 34.25 -0.5) (end 34.25 0.5) (layer F.Fab) (width 0.1))
  (fp_line (start 34.25 0.5) (end 38.25 0.5) (layer F.Fab) (width 0.1))
  (fp_line (start 38.25 0.5) (end 38.25 -0.5) (layer F.Fab) (width 0.1))
  (fp_line (start 38.25 -0.5) (end 34.25 -0.5) (layer F.Fab) (width 0.1))
  (fp_line (start 36.24 -0.5) (end 38.25 -0.5) (layer F.SilkS) (width 0.12))
  (fp_line (start 36.24 0.5) (end 38.25 0.5) (layer F.SilkS) (width 0.12))
  (fp_line (start 38.25 -0.5) (end 38.25 0.5) (layer F.SilkS) (width 0.12))
  (fp_line (start 38.75 -8.3) (end 38.75 6.7) (layer F.Fab) (width 0.1))
  (fp_line (start 38.75 -8.361) (end 38.75 6.76) (layer F.SilkS) (width 0.12))
  (fp_line (start 39.25 -2.2) (end 39.25 2.2) (layer F.Fab) (width 0.1))
  (fp_line (start 39.25 2.2) (end 43.25 2.2) (layer F.Fab) (width 0.1))
  (fp_line (start 43.25 2.2) (end 43.25 -2.2) (layer F.Fab) (width 0.1))
  (fp_line (start 43.25 -2.2) (end 39.25 -2.2) (layer F.Fab) (width 0.1))
  (fp_line (start 39.25 -2.2) (end 43.25 -2.2) (layer F.SilkS) (width 0.12))
  (fp_line (start 39.25 2.2) (end 43.25 2.2) (layer F.SilkS) (width 0.12))
  (fp_line (start 39.25 -2.2) (end 39.25 -1.74) (layer F.SilkS) (width 0.12))
  (fp_line (start 39.25 1.74) (end 39.25 2.2) (layer F.SilkS) (width 0.12))
  (fp_line (start 43.25 -2.2) (end 43.25 2.2) (layer F.SilkS) (width 0.12))
  (fp_line (start 39.25 -0.5) (end 39.25 0.5) (layer F.Fab) (width 0.1))
  (fp_line (start 39.25 0.5) (end 43.25 0.5) (layer F.Fab) (width 0.1))
  (fp_line (start 43.25 0.5) (end 43.25 -0.5) (layer F.Fab) (width 0.1))
  (fp_line (start 43.25 -0.5) (end 39.25 -0.5) (layer F.Fab) (width 0.1))
  (fp_line (start 41.24 -0.5) (end 43.25 -0.5) (layer F.SilkS) (width 0.12))
  (fp_line (start 41.24 0.5) (end 43.25 0.5) (layer F.SilkS) (width 0.12))
  (fp_line (start 43.25 -0.5) (end 43.25 0.5) (layer F.SilkS) (width 0.12))
  (fp_line (start 43.75 -8.3) (end 43.75 6.7) (layer F.Fab) (width 0.1))
  (fp_line (start 43.75 -8.361) (end 43.75 6.76) (layer F.SilkS) (width 0.12))
  (fp_line (start 44.25 -2.2) (end 44.25 2.2) (layer F.Fab) (width 0.1))
  (fp_line (start 44.25 2.2) (end 48.25 2.2) (layer F.Fab) (width 0.1))
  (fp_line (start 48.25 2.2) (end 48.25 -2.2) (layer F.Fab) (width 0.1))
  (fp_line (start 48.25 -2.2) (end 44.25 -2.2) (layer F.Fab) (width 0.1))
  (fp_line (start 44.25 -2.2) (end 48.25 -2.2) (layer F.SilkS) (width 0.12))
  (fp_line (start 44.25 2.2) (end 48.25 2.2) (layer F.SilkS) (width 0.12))
  (fp_line (start 44.25 -2.2) (end 44.25 -1.74) (layer F.SilkS) (width 0.12))
  (fp_line (start 44.25 1.74) (end 44.25 2.2) (layer F.SilkS) (width 0.12))
  (fp_line (start 48.25 -2.2) (end 48.25 2.2) (layer F.SilkS) (width 0.12))
  (fp_line (start 44.25 -0.5) (end 44.25 0.5) (layer F.Fab) (width 0.1))
  (fp_line (start 44.25 0.5) (end 48.25 0.5) (layer F.Fab) (width 0.1))
  (fp_line (start 48.25 0.5) (end 48.25 -0.5) (layer F.Fab) (width 0.1))
  (fp_line (start 48.25 -0.5) (end 44.25 -0.5) (layer F.Fab) (width 0.1))
  (fp_line (start 46.24 -0.5) (end 48.25 -0.5) (layer F.SilkS) (width 0.12))
  (fp_line (start 46.24 0.5) (end 48.25 0.5) (layer F.SilkS) (width 0.12))
  (fp_line (start 48.25 -0.5) (end 48.25 0.5) (layer F.SilkS) (width 0.12))
  (fp_line (start -3.05 4.76) (end -3.05 7) (layer F.SilkS) (width 0.12))
  (fp_line (start -3.05 7) (end -1.05 7) (layer F.SilkS) (width 0.12))
  (fp_line (start -3.25 -8.8) (end -3.25 7.2) (layer F.CrtYd) (width 0.05))
  (fp_line (start -3.25 7.2) (end 49.25 7.2) (layer F.CrtYd) (width 0.05))
  (fp_line (start 49.25 7.2) (end 49.25 -8.8) (layer F.CrtYd) (width 0.05))
  (fp_line (start 49.25 -8.8) (end -3.25 -8.8) (layer F.CrtYd) (width 0.05))
  (pad 1 thru_hole rect (at 0 0) (size 2 3) (drill 1.2) (layers *.Cu *.Mask))
  (pad 1 thru_hole rect (at 2.5 -5) (size 2 3) (drill 1.2) (layers *.Cu *.Mask))
  (pad 2 thru_hole oval (at 5 0) (size 2 3) (drill 1.2) (layers *.Cu *.Mask))
  (pad 2 thru_hole oval (at 7.5 -5) (size 2 3) (drill 1.2) (layers *.Cu *.Mask))
  (pad 3 thru_hole oval (at 10 0) (size 2 3) (drill 1.2) (layers *.Cu *.Mask))
  (pad 3 thru_hole oval (at 12.5 -5) (size 2 3) (drill 1.2) (layers *.Cu *.Mask))
  (pad 4 thru_hole oval (at 15 0) (size 2 3) (drill 1.2) (layers *.Cu *.Mask))
  (pad 4 thru_hole oval (at 17.5 -5) (size 2 3) (drill 1.2) (layers *.Cu *.Mask))
  (pad 5 thru_hole oval (at 20 0) (size 2 3) (drill 1.2) (layers *.Cu *.Mask))
  (pad 5 thru_hole oval (at 22.5 -5) (size 2 3) (drill 1.2) (layers *.Cu *.Mask))
  (pad 6 thru_hole oval (at 25 0) (size 2 3) (drill 1.2) (layers *.Cu *.Mask))
  (pad 6 thru_hole oval (at 27.5 -5) (size 2 3) (drill 1.2) (layers *.Cu *.Mask))
  (pad 7 thru_hole oval (at 30 0) (size 2 3) (drill 1.2) (layers *.Cu *.Mask))
  (pad 7 thru_hole oval (at 32.5 -5) (size 2 3) (drill 1.2) (layers *.Cu *.Mask))
  (pad 8 thru_hole oval (at 35 0) (size 2 3) (drill 1.2) (layers *.Cu *.Mask))
  (pad 8 thru_hole oval (at 37.5 -5) (size 2 3) (drill 1.2) (layers *.Cu *.Mask))
  (pad 9 thru_hole oval (at 40 0) (size 2 3) (drill 1.2) (layers *.Cu *.Mask))
  (pad 9 thru_hole oval (at 42.5 -5) (size 2 3) (drill 1.2) (layers *.Cu *.Mask))
  (pad 10 thru_hole oval (at 45 0) (size 2 3) (drill 1.2) (layers *.Cu *.Mask))
  (pad 10 thru_hole oval (at 47.5 -5) (size 2 3) (drill 1.2) (layers *.Cu *.Mask))
  (fp_text user %R (at 23 -1.8) (layer F.Fab)
    (effects (font (size 1 1) (thickness 0.15)))
  )
  (model ${KIPRJMOD}/kicad_libs_k/models_k.3d/TerminalBlock_WAGO_k.3dshapes/TerminalBlock_WAGO_804-110_1x10_P5.00mm_45Degree_k.wrl
    (at (xyz 0 0 0))
    (scale (xyz 1 1 1))
    (rotate (xyz 0 0 0))
  )
)