(module TerminalBlock_WAGO_236-302_1x02_P10.00mm_45Degree (layer F.Cu) (tedit 5B294EE4)
  (descr "Terminal Block WAGO 236-302, 45Degree (cable under 45degree), 2 pins, pitch 10mm, size 21.5x14mm^2, drill diamater 1mm, pad diameter 3mm, see , script-generated with , script-generated using https://github.com/pointhi/kicad-footprint-generator/scripts/TerminalBlock_WAGO")
  (tags "THT Terminal Block WAGO 236-302 45Degree pitch 10mm size 21.5x14mm^2 drill 1mm pad 3mm")
  (fp_text reference REF** (at 7.25 -11.06) (layer F.SilkS)
    (effects (font (size 1 1) (thickness 0.15)))
  )
  (fp_text value TerminalBlock_WAGO_236-302_1x02_P10.00mm_45Degree (at 7.25 5.06) (layer F.Fab)
    (effects (font (size 1 1) (thickness 0.15)))
  )
  (fp_line (start -3.5 -10) (end 18 -10) (layer F.Fab) (width 0.1))
  (fp_line (start 18 -10) (end 18 4) (layer F.Fab) (width 0.1))
  (fp_line (start 18 4) (end -2.5 4) (layer F.Fab) (width 0.1))
  (fp_line (start -2.5 4) (end -3.5 3) (layer F.Fab) (width 0.1))
  (fp_line (start -3.5 3) (end -3.5 -10) (layer F.Fab) (width 0.1))
  (fp_line (start -3.5 3) (end 18 3) (layer F.Fab) (width 0.1))
  (fp_line (start -3.56 3) (end 18.061 3) (layer F.SilkS) (width 0.12))
  (fp_line (start -3.5 -2.7) (end 18 -2.7) (layer F.Fab) (width 0.1))
  (fp_line (start -3.56 -2.7) (end 18.061 -2.7) (layer F.SilkS) (width 0.12))
  (fp_line (start -3.5 -5.5) (end 18 -5.5) (layer F.Fab) (width 0.1))
  (fp_line (start -3.56 -5.5) (end -0.99 -5.5) (layer F.SilkS) (width 0.12))
  (fp_line (start 0.99 -5.5) (end 9.01 -5.5) (layer F.SilkS) (width 0.12))
  (fp_line (start 10.99 -5.5) (end 18.061 -5.5) (layer F.SilkS) (width 0.12))
  (fp_line (start -3.56 -10.06) (end 18.061 -10.06) (layer F.SilkS) (width 0.12))
  (fp_line (start -3.56 4.06) (end 18.061 4.06) (layer F.SilkS) (width 0.12))
  (fp_line (start -3.56 -10.06) (end -3.56 4.06) (layer F.SilkS) (width 0.12))
  (fp_line (start 18.061 -10.06) (end 18.061 4.06) (layer F.SilkS) (width 0.12))
  (fp_line (start -1.5 -0.6) (end -0.99 -0.6) (layer F.SilkS) (width 0.12))
  (fp_line (start 0.99 -0.6) (end 2.5 -0.6) (layer F.SilkS) (width 0.12))
  (fp_line (start -1.5 2.7) (end 2.5 2.7) (layer F.SilkS) (width 0.12))
  (fp_line (start -1.5 -0.6) (end -1.5 2.7) (layer F.SilkS) (width 0.12))
  (fp_line (start 2.5 -0.6) (end 2.5 2.7) (layer F.SilkS) (width 0.12))
  (fp_line (start -1.5 -0.6) (end -1.5 2.7) (layer F.Fab) (width 0.1))
  (fp_line (start -1.5 2.7) (end 2.5 2.7) (layer F.Fab) (width 0.1))
  (fp_line (start 2.5 2.7) (end 2.5 -0.6) (layer F.Fab) (width 0.1))
  (fp_line (start 2.5 -0.6) (end -1.5 -0.6) (layer F.Fab) (width 0.1))
  (fp_line (start -2 -10) (end -2 4) (layer F.Fab) (width 0.1))
  (fp_line (start -2 4) (end 8 4) (layer F.Fab) (width 0.1))
  (fp_line (start 8 4) (end 8 -10) (layer F.Fab) (width 0.1))
  (fp_line (start 8 -10) (end -2 -10) (layer F.Fab) (width 0.1))
  (fp_line (start -2 -10) (end 8 -10) (layer F.SilkS) (width 0.12))
  (fp_line (start -2 4) (end 8 4) (layer F.SilkS) (width 0.12))
  (fp_line (start -2 -10) (end -2 4) (layer F.SilkS) (width 0.12))
  (fp_line (start 8 -10) (end 8 4) (layer F.SilkS) (width 0.12))
  (fp_line (start -1.5 -2.7) (end -1.5 -1.7) (layer F.Fab) (width 0.1))
  (fp_line (start -1.5 -1.7) (end 2.5 -1.7) (layer F.Fab) (width 0.1))
  (fp_line (start 2.5 -1.7) (end 2.5 -2.7) (layer F.Fab) (width 0.1))
  (fp_line (start 2.5 -2.7) (end -1.5 -2.7) (layer F.Fab) (width 0.1))
  (fp_line (start -1.5 -2.7) (end 2.5 -2.7) (layer F.SilkS) (width 0.12))
  (fp_line (start -1.5 -1.701) (end -0.99 -1.701) (layer F.SilkS) (width 0.12))
  (fp_line (start 0.99 -1.701) (end 2.5 -1.701) (layer F.SilkS) (width 0.12))
  (fp_line (start -1.5 -2.7) (end -1.5 -1.701) (layer F.SilkS) (width 0.12))
  (fp_line (start 2.5 -2.7) (end 2.5 -1.701) (layer F.SilkS) (width 0.12))
  (fp_line (start 0 -9.65) (end 0 -7.15) (layer F.Fab) (width 0.1))
  (fp_line (start 0 -7.15) (end 1 -7.15) (layer F.Fab) (width 0.1))
  (fp_line (start 1 -7.15) (end 1 -9.65) (layer F.Fab) (width 0.1))
  (fp_line (start 1 -9.65) (end 0 -9.65) (layer F.Fab) (width 0.1))
  (fp_line (start 0 -9.65) (end 1 -9.65) (layer F.SilkS) (width 0.12))
  (fp_line (start 0 -7.15) (end 1 -7.15) (layer F.SilkS) (width 0.12))
  (fp_line (start 0 -9.65) (end 0 -7.15) (layer F.SilkS) (width 0.12))
  (fp_line (start 1 -9.65) (end 1 -7.15) (layer F.SilkS) (width 0.12))
  (fp_line (start 8.5 -0.6) (end 9.01 -0.6) (layer F.SilkS) (width 0.12))
  (fp_line (start 10.99 -0.6) (end 12.5 -0.6) (layer F.SilkS) (width 0.12))
  (fp_line (start 8.5 2.7) (end 12.5 2.7) (layer F.SilkS) (width 0.12))
  (fp_line (start 8.5 -0.6) (end 8.5 2.7) (layer F.SilkS) (width 0.12))
  (fp_line (start 12.5 -0.6) (end 12.5 2.7) (layer F.SilkS) (width 0.12))
  (fp_line (start 8.5 -0.6) (end 8.5 2.7) (layer F.Fab) (width 0.1))
  (fp_line (start 8.5 2.7) (end 12.5 2.7) (layer F.Fab) (width 0.1))
  (fp_line (start 12.5 2.7) (end 12.5 -0.6) (layer F.Fab) (width 0.1))
  (fp_line (start 12.5 -0.6) (end 8.5 -0.6) (layer F.Fab) (width 0.1))
  (fp_line (start 8 -10) (end 8 4) (layer F.Fab) (width 0.1))
  (fp_line (start 8 4) (end 18 4) (layer F.Fab) (width 0.1))
  (fp_line (start 18 4) (end 18 -10) (layer F.Fab) (width 0.1))
  (fp_line (start 18 -10) (end 8 -10) (layer F.Fab) (width 0.1))
  (fp_line (start 8 -10) (end 18 -10) (layer F.SilkS) (width 0.12))
  (fp_line (start 8 4) (end 18 4) (layer F.SilkS) (width 0.12))
  (fp_line (start 8 -10) (end 8 4) (layer F.SilkS) (width 0.12))
  (fp_line (start 18 -10) (end 18 4) (layer F.SilkS) (width 0.12))
  (fp_line (start 8.5 -2.7) (end 8.5 -1.7) (layer F.Fab) (width 0.1))
  (fp_line (start 8.5 -1.7) (end 12.5 -1.7) (layer F.Fab) (width 0.1))
  (fp_line (start 12.5 -1.7) (end 12.5 -2.7) (layer F.Fab) (width 0.1))
  (fp_line (start 12.5 -2.7) (end 8.5 -2.7) (layer F.Fab) (width 0.1))
  (fp_line (start 8.5 -2.7) (end 12.5 -2.7) (layer F.SilkS) (width 0.12))
  (fp_line (start 8.5 -1.701) (end 9.01 -1.701) (layer F.SilkS) (width 0.12))
  (fp_line (start 10.99 -1.701) (end 12.5 -1.701) (layer F.SilkS) (width 0.12))
  (fp_line (start 8.5 -2.7) (end 8.5 -1.701) (layer F.SilkS) (width 0.12))
  (fp_line (start 12.5 -2.7) (end 12.5 -1.701) (layer F.SilkS) (width 0.12))
  (fp_line (start 10 -9.65) (end 10 -7.15) (layer F.Fab) (width 0.1))
  (fp_line (start 10 -7.15) (end 11 -7.15) (layer F.Fab) (width 0.1))
  (fp_line (start 11 -7.15) (end 11 -9.65) (layer F.Fab) (width 0.1))
  (fp_line (start 11 -9.65) (end 10 -9.65) (layer F.Fab) (width 0.1))
  (fp_line (start 10 -9.65) (end 11 -9.65) (layer F.SilkS) (width 0.12))
  (fp_line (start 10 -7.15) (end 11 -7.15) (layer F.SilkS) (width 0.12))
  (fp_line (start 10 -9.65) (end 10 -7.15) (layer F.SilkS) (width 0.12))
  (fp_line (start 11 -9.65) (end 11 -7.15) (layer F.SilkS) (width 0.12))
  (fp_line (start -3.8 3.06) (end -3.8 4.3) (layer F.SilkS) (width 0.12))
  (fp_line (start -3.8 4.3) (end -2.8 4.3) (layer F.SilkS) (width 0.12))
  (fp_line (start -4 -10.5) (end -4 4.5) (layer F.CrtYd) (width 0.05))
  (fp_line (start -4 4.5) (end 18.5 4.5) (layer F.CrtYd) (width 0.05))
  (fp_line (start 18.5 4.5) (end 18.5 -10.5) (layer F.CrtYd) (width 0.05))
  (fp_line (start 18.5 -10.5) (end -4 -10.5) (layer F.CrtYd) (width 0.05))
  (pad 1 thru_hole rect (at 0 0) (size 1.5 3) (drill 1) (layers *.Cu *.Mask))
  (pad 1 thru_hole rect (at 0 -5) (size 1.5 3) (drill 1) (layers *.Cu *.Mask))
  (pad 2 thru_hole oval (at 10 0) (size 1.5 3) (drill 1) (layers *.Cu *.Mask))
  (pad 2 thru_hole oval (at 10 -5) (size 1.5 3) (drill 1) (layers *.Cu *.Mask))
  (fp_text user %R (at 7.25 -4) (layer F.Fab)
    (effects (font (size 1 1) (thickness 0.15)))
  )
  (model ${KIPRJMOD}/kicad_libs_k/models_k.3d/TerminalBlock_WAGO_k.3dshapes/TerminalBlock_WAGO_236-302_1x02_P10.00mm_45Degree_k.wrl
    (at (xyz 0 0 0))
    (scale (xyz 1 1 1))
    (rotate (xyz 0 0 0))
  )
)