(module TerminalBlock_WAGO_804-302_1x02_P7.50mm_45Degree (layer F.Cu) (tedit 5B294EDC)
  (descr "Terminal Block WAGO 804-302, 45Degree (cable under 45degree), 2 pins, pitch 7.5mm, size 14x15mm^2, drill diamater 1.2mm, pad diameter 3mm, see , script-generated with , script-generated using https://github.com/pointhi/kicad-footprint-generator/scripts/TerminalBlock_WAGO")
  (tags "THT Terminal Block WAGO 804-302 45Degree pitch 7.5mm size 14x15mm^2 drill 1.2mm pad 3mm")
  (fp_text reference REF** (at 4.25 -9.36) (layer F.SilkS)
    (effects (font (size 1 1) (thickness 0.15)))
  )
  (fp_text value TerminalBlock_WAGO_804-302_1x02_P7.50mm_45Degree (at 4.25 7.76) (layer F.Fab)
    (effects (font (size 1 1) (thickness 0.15)))
  )
  (fp_arc (start 1.25 5.59) (end 2.701 5.251) (angle -153.676754) (layer F.Fab) (width 0.1))
  (fp_arc (start 1.25 4.911) (end 2.7 5.25) (angle 153.676754) (layer F.Fab) (width 0.1))
  (fp_arc (start 1.25 5.59) (end 2.701 5.251) (angle -153.676754) (layer F.SilkS) (width 0.12))
  (fp_arc (start 1.25 4.911) (end 2.7 5.25) (angle 153.676754) (layer F.SilkS) (width 0.12))
  (fp_arc (start 1.25 -5.75) (end 1.25 -4.25) (angle -1) (layer F.SilkS) (width 0.12))
  (fp_arc (start 1.25 -5.75) (end 2.383 -6.735) (angle -230) (layer F.SilkS) (width 0.12))
  (fp_arc (start 8.75 5.59) (end 10.201 5.251) (angle -153.676754) (layer F.Fab) (width 0.1))
  (fp_arc (start 8.75 4.911) (end 10.2 5.25) (angle 153.676754) (layer F.Fab) (width 0.1))
  (fp_arc (start 8.75 5.59) (end 10.201 5.251) (angle -153.676754) (layer F.SilkS) (width 0.12))
  (fp_arc (start 8.75 4.911) (end 10.2 5.25) (angle 153.676754) (layer F.SilkS) (width 0.12))
  (fp_arc (start 8.75 -5.75) (end 8.75 -4.25) (angle -1) (layer F.SilkS) (width 0.12))
  (fp_arc (start 8.75 -5.75) (end 9.883 -6.735) (angle -230) (layer F.SilkS) (width 0.12))
  (fp_circle (center 1.25 -5.75) (end 2.75 -5.75) (layer F.Fab) (width 0.1))
  (fp_circle (center 8.75 -5.75) (end 10.25 -5.75) (layer F.Fab) (width 0.1))
  (fp_line (start -2.75 -8.3) (end 11.25 -8.3) (layer F.Fab) (width 0.1))
  (fp_line (start 11.25 -8.3) (end 11.25 6.7) (layer F.Fab) (width 0.1))
  (fp_line (start 11.25 6.7) (end -0.75 6.7) (layer F.Fab) (width 0.1))
  (fp_line (start -0.75 6.7) (end -2.75 4.7) (layer F.Fab) (width 0.1))
  (fp_line (start -2.75 4.7) (end -2.75 -8.3) (layer F.Fab) (width 0.1))
  (fp_line (start -2.75 3.8) (end 11.25 3.8) (layer F.Fab) (width 0.1))
  (fp_line (start -2.81 3.8) (end 11.31 3.8) (layer F.SilkS) (width 0.12))
  (fp_line (start -2.81 -8.361) (end 11.31 -8.361) (layer F.SilkS) (width 0.12))
  (fp_line (start -2.81 6.76) (end 11.31 6.76) (layer F.SilkS) (width 0.12))
  (fp_line (start -2.81 -8.361) (end -2.81 6.76) (layer F.SilkS) (width 0.12))
  (fp_line (start 11.31 -8.361) (end 11.31 6.76) (layer F.SilkS) (width 0.12))
  (fp_line (start -1.25 -8.3) (end -1.25 6.7) (layer F.Fab) (width 0.1))
  (fp_line (start -1.25 -8.361) (end -1.25 6.76) (layer F.SilkS) (width 0.12))
  (fp_line (start -0.75 -2.2) (end -0.75 2.2) (layer F.Fab) (width 0.1))
  (fp_line (start -0.75 2.2) (end 3.25 2.2) (layer F.Fab) (width 0.1))
  (fp_line (start 3.25 2.2) (end 3.25 -2.2) (layer F.Fab) (width 0.1))
  (fp_line (start 3.25 -2.2) (end -0.75 -2.2) (layer F.Fab) (width 0.1))
  (fp_line (start -0.75 -2.2) (end 3.25 -2.2) (layer F.SilkS) (width 0.12))
  (fp_line (start -0.75 2.2) (end 3.25 2.2) (layer F.SilkS) (width 0.12))
  (fp_line (start -0.75 -2.2) (end -0.75 -1.74) (layer F.SilkS) (width 0.12))
  (fp_line (start -0.75 1.74) (end -0.75 2.2) (layer F.SilkS) (width 0.12))
  (fp_line (start 3.25 -2.2) (end 3.25 2.2) (layer F.SilkS) (width 0.12))
  (fp_line (start -0.75 -0.5) (end -0.75 0.5) (layer F.Fab) (width 0.1))
  (fp_line (start -0.75 0.5) (end 3.25 0.5) (layer F.Fab) (width 0.1))
  (fp_line (start 3.25 0.5) (end 3.25 -0.5) (layer F.Fab) (width 0.1))
  (fp_line (start 3.25 -0.5) (end -0.75 -0.5) (layer F.Fab) (width 0.1))
  (fp_line (start 1.24 -0.5) (end 3.25 -0.5) (layer F.SilkS) (width 0.12))
  (fp_line (start 1.24 0.5) (end 3.25 0.5) (layer F.SilkS) (width 0.12))
  (fp_line (start 3.25 -0.5) (end 3.25 0.5) (layer F.SilkS) (width 0.12))
  (fp_line (start 6.25 -8.3) (end 6.25 6.7) (layer F.Fab) (width 0.1))
  (fp_line (start 6.25 -8.361) (end 6.25 6.76) (layer F.SilkS) (width 0.12))
  (fp_line (start 6.75 -2.2) (end 6.75 2.2) (layer F.Fab) (width 0.1))
  (fp_line (start 6.75 2.2) (end 10.75 2.2) (layer F.Fab) (width 0.1))
  (fp_line (start 10.75 2.2) (end 10.75 -2.2) (layer F.Fab) (width 0.1))
  (fp_line (start 10.75 -2.2) (end 6.75 -2.2) (layer F.Fab) (width 0.1))
  (fp_line (start 6.75 -2.2) (end 10.75 -2.2) (layer F.SilkS) (width 0.12))
  (fp_line (start 6.75 2.2) (end 10.75 2.2) (layer F.SilkS) (width 0.12))
  (fp_line (start 6.75 -2.2) (end 6.75 -1.74) (layer F.SilkS) (width 0.12))
  (fp_line (start 6.75 1.74) (end 6.75 2.2) (layer F.SilkS) (width 0.12))
  (fp_line (start 10.75 -2.2) (end 10.75 2.2) (layer F.SilkS) (width 0.12))
  (fp_line (start 6.75 -0.5) (end 6.75 0.5) (layer F.Fab) (width 0.1))
  (fp_line (start 6.75 0.5) (end 10.75 0.5) (layer F.Fab) (width 0.1))
  (fp_line (start 10.75 0.5) (end 10.75 -0.5) (layer F.Fab) (width 0.1))
  (fp_line (start 10.75 -0.5) (end 6.75 -0.5) (layer F.Fab) (width 0.1))
  (fp_line (start 8.74 -0.5) (end 10.75 -0.5) (layer F.SilkS) (width 0.12))
  (fp_line (start 8.74 0.5) (end 10.75 0.5) (layer F.SilkS) (width 0.12))
  (fp_line (start 10.75 -0.5) (end 10.75 0.5) (layer F.SilkS) (width 0.12))
  (fp_line (start -3.05 4.76) (end -3.05 7) (layer F.SilkS) (width 0.12))
  (fp_line (start -3.05 7) (end -1.05 7) (layer F.SilkS) (width 0.12))
  (fp_line (start -3.25 -8.8) (end -3.25 7.2) (layer F.CrtYd) (width 0.05))
  (fp_line (start -3.25 7.2) (end 11.75 7.2) (layer F.CrtYd) (width 0.05))
  (fp_line (start 11.75 7.2) (end 11.75 -8.8) (layer F.CrtYd) (width 0.05))
  (fp_line (start 11.75 -8.8) (end -3.25 -8.8) (layer F.CrtYd) (width 0.05))
  (pad 1 thru_hole rect (at 0 0) (size 2 3) (drill 1.2) (layers *.Cu *.Mask))
  (pad 1 thru_hole rect (at 2.5 -5) (size 2 3) (drill 1.2) (layers *.Cu *.Mask))
  (pad 2 thru_hole oval (at 7.5 0) (size 2 3) (drill 1.2) (layers *.Cu *.Mask))
  (pad 2 thru_hole oval (at 10 -5) (size 2 3) (drill 1.2) (layers *.Cu *.Mask))
  (fp_text user %R (at 4.25 -1.8) (layer F.Fab)
    (effects (font (size 1 1) (thickness 0.15)))
  )
  (model ${KIPRJMOD}/kicad_libs_k/models_k.3d/TerminalBlock_WAGO_k.3dshapes/TerminalBlock_WAGO_804-302_1x02_P7.50mm_45Degree_k.wrl
    (at (xyz 0 0 0))
    (scale (xyz 1 1 1))
    (rotate (xyz 0 0 0))
  )
)