(module TerminalBlock_WAGO_236-105_1x05_P5.00mm_45Degree (layer F.Cu) (tedit 5B294EE3)
  (descr "Terminal Block WAGO 236-105, 45Degree (cable under 45degree), 5 pins, pitch 5mm, size 26.5x14mm^2, drill diamater 1mm, pad diameter 3mm, see , script-generated with , script-generated using https://github.com/pointhi/kicad-footprint-generator/scripts/TerminalBlock_WAGO")
  (tags "THT Terminal Block WAGO 236-105 45Degree pitch 5mm size 26.5x14mm^2 drill 1mm pad 3mm")
  (fp_text reference REF** (at 9.75 -11.06) (layer F.SilkS)
    (effects (font (size 1 1) (thickness 0.15)))
  )
  (fp_text value TerminalBlock_WAGO_236-105_1x05_P5.00mm_45Degree (at 9.75 5.06) (layer F.Fab)
    (effects (font (size 1 1) (thickness 0.15)))
  )
  (fp_line (start -3.5 -10) (end 23 -10) (layer F.Fab) (width 0.1))
  (fp_line (start 23 -10) (end 23 4) (layer F.Fab) (width 0.1))
  (fp_line (start 23 4) (end -2.5 4) (layer F.Fab) (width 0.1))
  (fp_line (start -2.5 4) (end -3.5 3) (layer F.Fab) (width 0.1))
  (fp_line (start -3.5 3) (end -3.5 -10) (layer F.Fab) (width 0.1))
  (fp_line (start -3.5 3) (end 23 3) (layer F.Fab) (width 0.1))
  (fp_line (start -3.56 3) (end 23.06 3) (layer F.SilkS) (width 0.12))
  (fp_line (start -3.5 -2.7) (end 23 -2.7) (layer F.Fab) (width 0.1))
  (fp_line (start -3.56 -2.7) (end 23.06 -2.7) (layer F.SilkS) (width 0.12))
  (fp_line (start -3.5 -5.5) (end 23 -5.5) (layer F.Fab) (width 0.1))
  (fp_line (start -3.56 -5.5) (end -0.99 -5.5) (layer F.SilkS) (width 0.12))
  (fp_line (start 0.99 -5.5) (end 4.01 -5.5) (layer F.SilkS) (width 0.12))
  (fp_line (start 5.99 -5.5) (end 9.01 -5.5) (layer F.SilkS) (width 0.12))
  (fp_line (start 10.99 -5.5) (end 14.01 -5.5) (layer F.SilkS) (width 0.12))
  (fp_line (start 15.99 -5.5) (end 19.01 -5.5) (layer F.SilkS) (width 0.12))
  (fp_line (start 20.99 -5.5) (end 23.06 -5.5) (layer F.SilkS) (width 0.12))
  (fp_line (start -3.56 -10.06) (end 23.06 -10.06) (layer F.SilkS) (width 0.12))
  (fp_line (start -3.56 4.06) (end 23.06 4.06) (layer F.SilkS) (width 0.12))
  (fp_line (start -3.56 -10.06) (end -3.56 4.06) (layer F.SilkS) (width 0.12))
  (fp_line (start 23.06 -10.06) (end 23.06 4.06) (layer F.SilkS) (width 0.12))
  (fp_line (start -1.5 -0.6) (end -0.99 -0.6) (layer F.SilkS) (width 0.12))
  (fp_line (start 0.99 -0.6) (end 2.5 -0.6) (layer F.SilkS) (width 0.12))
  (fp_line (start -1.5 2.7) (end 2.5 2.7) (layer F.SilkS) (width 0.12))
  (fp_line (start -1.5 -0.6) (end -1.5 2.7) (layer F.SilkS) (width 0.12))
  (fp_line (start 2.5 -0.6) (end 2.5 2.7) (layer F.SilkS) (width 0.12))
  (fp_line (start -1.5 -0.6) (end -1.5 2.7) (layer F.Fab) (width 0.1))
  (fp_line (start -1.5 2.7) (end 2.5 2.7) (layer F.Fab) (width 0.1))
  (fp_line (start 2.5 2.7) (end 2.5 -0.6) (layer F.Fab) (width 0.1))
  (fp_line (start 2.5 -0.6) (end -1.5 -0.6) (layer F.Fab) (width 0.1))
  (fp_line (start -2 -10) (end -2 4) (layer F.Fab) (width 0.1))
  (fp_line (start -2 4) (end 3 4) (layer F.Fab) (width 0.1))
  (fp_line (start 3 4) (end 3 -10) (layer F.Fab) (width 0.1))
  (fp_line (start 3 -10) (end -2 -10) (layer F.Fab) (width 0.1))
  (fp_line (start -2 -10) (end 3 -10) (layer F.SilkS) (width 0.12))
  (fp_line (start -2 4) (end 3 4) (layer F.SilkS) (width 0.12))
  (fp_line (start -2 -10) (end -2 4) (layer F.SilkS) (width 0.12))
  (fp_line (start 3 -10) (end 3 4) (layer F.SilkS) (width 0.12))
  (fp_line (start -1.5 -2.7) (end -1.5 -1.7) (layer F.Fab) (width 0.1))
  (fp_line (start -1.5 -1.7) (end 2.5 -1.7) (layer F.Fab) (width 0.1))
  (fp_line (start 2.5 -1.7) (end 2.5 -2.7) (layer F.Fab) (width 0.1))
  (fp_line (start 2.5 -2.7) (end -1.5 -2.7) (layer F.Fab) (width 0.1))
  (fp_line (start -1.5 -2.7) (end 2.5 -2.7) (layer F.SilkS) (width 0.12))
  (fp_line (start -1.5 -1.701) (end -0.99 -1.701) (layer F.SilkS) (width 0.12))
  (fp_line (start 0.99 -1.701) (end 2.5 -1.701) (layer F.SilkS) (width 0.12))
  (fp_line (start -1.5 -2.7) (end -1.5 -1.701) (layer F.SilkS) (width 0.12))
  (fp_line (start 2.5 -2.7) (end 2.5 -1.701) (layer F.SilkS) (width 0.12))
  (fp_line (start 0 -9.65) (end 0 -7.15) (layer F.Fab) (width 0.1))
  (fp_line (start 0 -7.15) (end 1 -7.15) (layer F.Fab) (width 0.1))
  (fp_line (start 1 -7.15) (end 1 -9.65) (layer F.Fab) (width 0.1))
  (fp_line (start 1 -9.65) (end 0 -9.65) (layer F.Fab) (width 0.1))
  (fp_line (start 0 -9.65) (end 1 -9.65) (layer F.SilkS) (width 0.12))
  (fp_line (start 0 -7.15) (end 1 -7.15) (layer F.SilkS) (width 0.12))
  (fp_line (start 0 -9.65) (end 0 -7.15) (layer F.SilkS) (width 0.12))
  (fp_line (start 1 -9.65) (end 1 -7.15) (layer F.SilkS) (width 0.12))
  (fp_line (start 3.5 -0.6) (end 4.01 -0.6) (layer F.SilkS) (width 0.12))
  (fp_line (start 5.99 -0.6) (end 7.5 -0.6) (layer F.SilkS) (width 0.12))
  (fp_line (start 3.5 2.7) (end 7.5 2.7) (layer F.SilkS) (width 0.12))
  (fp_line (start 3.5 -0.6) (end 3.5 2.7) (layer F.SilkS) (width 0.12))
  (fp_line (start 7.5 -0.6) (end 7.5 2.7) (layer F.SilkS) (width 0.12))
  (fp_line (start 3.5 -0.6) (end 3.5 2.7) (layer F.Fab) (width 0.1))
  (fp_line (start 3.5 2.7) (end 7.5 2.7) (layer F.Fab) (width 0.1))
  (fp_line (start 7.5 2.7) (end 7.5 -0.6) (layer F.Fab) (width 0.1))
  (fp_line (start 7.5 -0.6) (end 3.5 -0.6) (layer F.Fab) (width 0.1))
  (fp_line (start 3 -10) (end 3 4) (layer F.Fab) (width 0.1))
  (fp_line (start 3 4) (end 8 4) (layer F.Fab) (width 0.1))
  (fp_line (start 8 4) (end 8 -10) (layer F.Fab) (width 0.1))
  (fp_line (start 8 -10) (end 3 -10) (layer F.Fab) (width 0.1))
  (fp_line (start 3 -10) (end 8 -10) (layer F.SilkS) (width 0.12))
  (fp_line (start 3 4) (end 8 4) (layer F.SilkS) (width 0.12))
  (fp_line (start 3 -10) (end 3 4) (layer F.SilkS) (width 0.12))
  (fp_line (start 8 -10) (end 8 4) (layer F.SilkS) (width 0.12))
  (fp_line (start 3.5 -2.7) (end 3.5 -1.7) (layer F.Fab) (width 0.1))
  (fp_line (start 3.5 -1.7) (end 7.5 -1.7) (layer F.Fab) (width 0.1))
  (fp_line (start 7.5 -1.7) (end 7.5 -2.7) (layer F.Fab) (width 0.1))
  (fp_line (start 7.5 -2.7) (end 3.5 -2.7) (layer F.Fab) (width 0.1))
  (fp_line (start 3.5 -2.7) (end 7.5 -2.7) (layer F.SilkS) (width 0.12))
  (fp_line (start 3.5 -1.701) (end 4.01 -1.701) (layer F.SilkS) (width 0.12))
  (fp_line (start 5.99 -1.701) (end 7.5 -1.701) (layer F.SilkS) (width 0.12))
  (fp_line (start 3.5 -2.7) (end 3.5 -1.701) (layer F.SilkS) (width 0.12))
  (fp_line (start 7.5 -2.7) (end 7.5 -1.701) (layer F.SilkS) (width 0.12))
  (fp_line (start 5 -9.65) (end 5 -7.15) (layer F.Fab) (width 0.1))
  (fp_line (start 5 -7.15) (end 6 -7.15) (layer F.Fab) (width 0.1))
  (fp_line (start 6 -7.15) (end 6 -9.65) (layer F.Fab) (width 0.1))
  (fp_line (start 6 -9.65) (end 5 -9.65) (layer F.Fab) (width 0.1))
  (fp_line (start 5 -9.65) (end 6 -9.65) (layer F.SilkS) (width 0.12))
  (fp_line (start 5 -7.15) (end 6 -7.15) (layer F.SilkS) (width 0.12))
  (fp_line (start 5 -9.65) (end 5 -7.15) (layer F.SilkS) (width 0.12))
  (fp_line (start 6 -9.65) (end 6 -7.15) (layer F.SilkS) (width 0.12))
  (fp_line (start 8.5 -0.6) (end 9.01 -0.6) (layer F.SilkS) (width 0.12))
  (fp_line (start 10.99 -0.6) (end 12.5 -0.6) (layer F.SilkS) (width 0.12))
  (fp_line (start 8.5 2.7) (end 12.5 2.7) (layer F.SilkS) (width 0.12))
  (fp_line (start 8.5 -0.6) (end 8.5 2.7) (layer F.SilkS) (width 0.12))
  (fp_line (start 12.5 -0.6) (end 12.5 2.7) (layer F.SilkS) (width 0.12))
  (fp_line (start 8.5 -0.6) (end 8.5 2.7) (layer F.Fab) (width 0.1))
  (fp_line (start 8.5 2.7) (end 12.5 2.7) (layer F.Fab) (width 0.1))
  (fp_line (start 12.5 2.7) (end 12.5 -0.6) (layer F.Fab) (width 0.1))
  (fp_line (start 12.5 -0.6) (end 8.5 -0.6) (layer F.Fab) (width 0.1))
  (fp_line (start 8 -10) (end 8 4) (layer F.Fab) (width 0.1))
  (fp_line (start 8 4) (end 13 4) (layer F.Fab) (width 0.1))
  (fp_line (start 13 4) (end 13 -10) (layer F.Fab) (width 0.1))
  (fp_line (start 13 -10) (end 8 -10) (layer F.Fab) (width 0.1))
  (fp_line (start 8 -10) (end 13 -10) (layer F.SilkS) (width 0.12))
  (fp_line (start 8 4) (end 13 4) (layer F.SilkS) (width 0.12))
  (fp_line (start 8 -10) (end 8 4) (layer F.SilkS) (width 0.12))
  (fp_line (start 13 -10) (end 13 4) (layer F.SilkS) (width 0.12))
  (fp_line (start 8.5 -2.7) (end 8.5 -1.7) (layer F.Fab) (width 0.1))
  (fp_line (start 8.5 -1.7) (end 12.5 -1.7) (layer F.Fab) (width 0.1))
  (fp_line (start 12.5 -1.7) (end 12.5 -2.7) (layer F.Fab) (width 0.1))
  (fp_line (start 12.5 -2.7) (end 8.5 -2.7) (layer F.Fab) (width 0.1))
  (fp_line (start 8.5 -2.7) (end 12.5 -2.7) (layer F.SilkS) (width 0.12))
  (fp_line (start 8.5 -1.701) (end 9.01 -1.701) (layer F.SilkS) (width 0.12))
  (fp_line (start 10.99 -1.701) (end 12.5 -1.701) (layer F.SilkS) (width 0.12))
  (fp_line (start 8.5 -2.7) (end 8.5 -1.701) (layer F.SilkS) (width 0.12))
  (fp_line (start 12.5 -2.7) (end 12.5 -1.701) (layer F.SilkS) (width 0.12))
  (fp_line (start 10 -9.65) (end 10 -7.15) (layer F.Fab) (width 0.1))
  (fp_line (start 10 -7.15) (end 11 -7.15) (layer F.Fab) (width 0.1))
  (fp_line (start 11 -7.15) (end 11 -9.65) (layer F.Fab) (width 0.1))
  (fp_line (start 11 -9.65) (end 10 -9.65) (layer F.Fab) (width 0.1))
  (fp_line (start 10 -9.65) (end 11 -9.65) (layer F.SilkS) (width 0.12))
  (fp_line (start 10 -7.15) (end 11 -7.15) (layer F.SilkS) (width 0.12))
  (fp_line (start 10 -9.65) (end 10 -7.15) (layer F.SilkS) (width 0.12))
  (fp_line (start 11 -9.65) (end 11 -7.15) (layer F.SilkS) (width 0.12))
  (fp_line (start 13.5 -0.6) (end 14.01 -0.6) (layer F.SilkS) (width 0.12))
  (fp_line (start 15.99 -0.6) (end 17.5 -0.6) (layer F.SilkS) (width 0.12))
  (fp_line (start 13.5 2.7) (end 17.5 2.7) (layer F.SilkS) (width 0.12))
  (fp_line (start 13.5 -0.6) (end 13.5 2.7) (layer F.SilkS) (width 0.12))
  (fp_line (start 17.5 -0.6) (end 17.5 2.7) (layer F.SilkS) (width 0.12))
  (fp_line (start 13.5 -0.6) (end 13.5 2.7) (layer F.Fab) (width 0.1))
  (fp_line (start 13.5 2.7) (end 17.5 2.7) (layer F.Fab) (width 0.1))
  (fp_line (start 17.5 2.7) (end 17.5 -0.6) (layer F.Fab) (width 0.1))
  (fp_line (start 17.5 -0.6) (end 13.5 -0.6) (layer F.Fab) (width 0.1))
  (fp_line (start 13 -10) (end 13 4) (layer F.Fab) (width 0.1))
  (fp_line (start 13 4) (end 18 4) (layer F.Fab) (width 0.1))
  (fp_line (start 18 4) (end 18 -10) (layer F.Fab) (width 0.1))
  (fp_line (start 18 -10) (end 13 -10) (layer F.Fab) (width 0.1))
  (fp_line (start 13 -10) (end 18 -10) (layer F.SilkS) (width 0.12))
  (fp_line (start 13 4) (end 18 4) (layer F.SilkS) (width 0.12))
  (fp_line (start 13 -10) (end 13 4) (layer F.SilkS) (width 0.12))
  (fp_line (start 18 -10) (end 18 4) (layer F.SilkS) (width 0.12))
  (fp_line (start 13.5 -2.7) (end 13.5 -1.7) (layer F.Fab) (width 0.1))
  (fp_line (start 13.5 -1.7) (end 17.5 -1.7) (layer F.Fab) (width 0.1))
  (fp_line (start 17.5 -1.7) (end 17.5 -2.7) (layer F.Fab) (width 0.1))
  (fp_line (start 17.5 -2.7) (end 13.5 -2.7) (layer F.Fab) (width 0.1))
  (fp_line (start 13.5 -2.7) (end 17.5 -2.7) (layer F.SilkS) (width 0.12))
  (fp_line (start 13.5 -1.701) (end 14.01 -1.701) (layer F.SilkS) (width 0.12))
  (fp_line (start 15.99 -1.701) (end 17.5 -1.701) (layer F.SilkS) (width 0.12))
  (fp_line (start 13.5 -2.7) (end 13.5 -1.701) (layer F.SilkS) (width 0.12))
  (fp_line (start 17.5 -2.7) (end 17.5 -1.701) (layer F.SilkS) (width 0.12))
  (fp_line (start 15 -9.65) (end 15 -7.15) (layer F.Fab) (width 0.1))
  (fp_line (start 15 -7.15) (end 16 -7.15) (layer F.Fab) (width 0.1))
  (fp_line (start 16 -7.15) (end 16 -9.65) (layer F.Fab) (width 0.1))
  (fp_line (start 16 -9.65) (end 15 -9.65) (layer F.Fab) (width 0.1))
  (fp_line (start 15 -9.65) (end 16 -9.65) (layer F.SilkS) (width 0.12))
  (fp_line (start 15 -7.15) (end 16 -7.15) (layer F.SilkS) (width 0.12))
  (fp_line (start 15 -9.65) (end 15 -7.15) (layer F.SilkS) (width 0.12))
  (fp_line (start 16 -9.65) (end 16 -7.15) (layer F.SilkS) (width 0.12))
  (fp_line (start 18.5 -0.6) (end 19.01 -0.6) (layer F.SilkS) (width 0.12))
  (fp_line (start 20.99 -0.6) (end 22.5 -0.6) (layer F.SilkS) (width 0.12))
  (fp_line (start 18.5 2.7) (end 22.5 2.7) (layer F.SilkS) (width 0.12))
  (fp_line (start 18.5 -0.6) (end 18.5 2.7) (layer F.SilkS) (width 0.12))
  (fp_line (start 22.5 -0.6) (end 22.5 2.7) (layer F.SilkS) (width 0.12))
  (fp_line (start 18.5 -0.6) (end 18.5 2.7) (layer F.Fab) (width 0.1))
  (fp_line (start 18.5 2.7) (end 22.5 2.7) (layer F.Fab) (width 0.1))
  (fp_line (start 22.5 2.7) (end 22.5 -0.6) (layer F.Fab) (width 0.1))
  (fp_line (start 22.5 -0.6) (end 18.5 -0.6) (layer F.Fab) (width 0.1))
  (fp_line (start 18 -10) (end 18 4) (layer F.Fab) (width 0.1))
  (fp_line (start 18 4) (end 23 4) (layer F.Fab) (width 0.1))
  (fp_line (start 23 4) (end 23 -10) (layer F.Fab) (width 0.1))
  (fp_line (start 23 -10) (end 18 -10) (layer F.Fab) (width 0.1))
  (fp_line (start 18 -10) (end 23 -10) (layer F.SilkS) (width 0.12))
  (fp_line (start 18 4) (end 23 4) (layer F.SilkS) (width 0.12))
  (fp_line (start 18 -10) (end 18 4) (layer F.SilkS) (width 0.12))
  (fp_line (start 23 -10) (end 23 4) (layer F.SilkS) (width 0.12))
  (fp_line (start 18.5 -2.7) (end 18.5 -1.7) (layer F.Fab) (width 0.1))
  (fp_line (start 18.5 -1.7) (end 22.5 -1.7) (layer F.Fab) (width 0.1))
  (fp_line (start 22.5 -1.7) (end 22.5 -2.7) (layer F.Fab) (width 0.1))
  (fp_line (start 22.5 -2.7) (end 18.5 -2.7) (layer F.Fab) (width 0.1))
  (fp_line (start 18.5 -2.7) (end 22.5 -2.7) (layer F.SilkS) (width 0.12))
  (fp_line (start 18.5 -1.701) (end 19.01 -1.701) (layer F.SilkS) (width 0.12))
  (fp_line (start 20.99 -1.701) (end 22.5 -1.701) (layer F.SilkS) (width 0.12))
  (fp_line (start 18.5 -2.7) (end 18.5 -1.701) (layer F.SilkS) (width 0.12))
  (fp_line (start 22.5 -2.7) (end 22.5 -1.701) (layer F.SilkS) (width 0.12))
  (fp_line (start 20 -9.65) (end 20 -7.15) (layer F.Fab) (width 0.1))
  (fp_line (start 20 -7.15) (end 21 -7.15) (layer F.Fab) (width 0.1))
  (fp_line (start 21 -7.15) (end 21 -9.65) (layer F.Fab) (width 0.1))
  (fp_line (start 21 -9.65) (end 20 -9.65) (layer F.Fab) (width 0.1))
  (fp_line (start 20 -9.65) (end 21 -9.65) (layer F.SilkS) (width 0.12))
  (fp_line (start 20 -7.15) (end 21 -7.15) (layer F.SilkS) (width 0.12))
  (fp_line (start 20 -9.65) (end 20 -7.15) (layer F.SilkS) (width 0.12))
  (fp_line (start 21 -9.65) (end 21 -7.15) (layer F.SilkS) (width 0.12))
  (fp_line (start -3.8 3.06) (end -3.8 4.3) (layer F.SilkS) (width 0.12))
  (fp_line (start -3.8 4.3) (end -2.8 4.3) (layer F.SilkS) (width 0.12))
  (fp_line (start -4 -10.5) (end -4 4.5) (layer F.CrtYd) (width 0.05))
  (fp_line (start -4 4.5) (end 23.5 4.5) (layer F.CrtYd) (width 0.05))
  (fp_line (start 23.5 4.5) (end 23.5 -10.5) (layer F.CrtYd) (width 0.05))
  (fp_line (start 23.5 -10.5) (end -4 -10.5) (layer F.CrtYd) (width 0.05))
  (pad 1 thru_hole rect (at 0 0) (size 1.5 3) (drill 1) (layers *.Cu *.Mask))
  (pad 1 thru_hole rect (at 0 -5) (size 1.5 3) (drill 1) (layers *.Cu *.Mask))
  (pad 2 thru_hole oval (at 5 0) (size 1.5 3) (drill 1) (layers *.Cu *.Mask))
  (pad 2 thru_hole oval (at 5 -5) (size 1.5 3) (drill 1) (layers *.Cu *.Mask))
  (pad 3 thru_hole oval (at 10 0) (size 1.5 3) (drill 1) (layers *.Cu *.Mask))
  (pad 3 thru_hole oval (at 10 -5) (size 1.5 3) (drill 1) (layers *.Cu *.Mask))
  (pad 4 thru_hole oval (at 15 0) (size 1.5 3) (drill 1) (layers *.Cu *.Mask))
  (pad 4 thru_hole oval (at 15 -5) (size 1.5 3) (drill 1) (layers *.Cu *.Mask))
  (pad 5 thru_hole oval (at 20 0) (size 1.5 3) (drill 1) (layers *.Cu *.Mask))
  (pad 5 thru_hole oval (at 20 -5) (size 1.5 3) (drill 1) (layers *.Cu *.Mask))
  (fp_text user %R (at 9.75 -4) (layer F.Fab)
    (effects (font (size 1 1) (thickness 0.15)))
  )
  (model ${KIPRJMOD}/kicad_libs_k/models_k.3d/TerminalBlock_WAGO_k.3dshapes/TerminalBlock_WAGO_236-105_1x05_P5.00mm_45Degree_k.wrl
    (at (xyz 0 0 0))
    (scale (xyz 1 1 1))
    (rotate (xyz 0 0 0))
  )
)