(module TerminalBlock_WAGO_236-112_1x12_P5.00mm_45Degree (layer F.Cu) (tedit 5B294EE3)
  (descr "Terminal Block WAGO 236-112, 45Degree (cable under 45degree), 12 pins, pitch 5mm, size 61.5x14mm^2, drill diamater 1mm, pad diameter 3mm, see , script-generated with , script-generated using https://github.com/pointhi/kicad-footprint-generator/scripts/TerminalBlock_WAGO")
  (tags "THT Terminal Block WAGO 236-112 45Degree pitch 5mm size 61.5x14mm^2 drill 1mm pad 3mm")
  (fp_text reference REF** (at 27.25 -11.06) (layer F.SilkS)
    (effects (font (size 1 1) (thickness 0.15)))
  )
  (fp_text value TerminalBlock_WAGO_236-112_1x12_P5.00mm_45Degree (at 27.25 5.06) (layer F.Fab)
    (effects (font (size 1 1) (thickness 0.15)))
  )
  (fp_line (start -3.5 -10) (end 58 -10) (layer F.Fab) (width 0.1))
  (fp_line (start 58 -10) (end 58 4) (layer F.Fab) (width 0.1))
  (fp_line (start 58 4) (end -2.5 4) (layer F.Fab) (width 0.1))
  (fp_line (start -2.5 4) (end -3.5 3) (layer F.Fab) (width 0.1))
  (fp_line (start -3.5 3) (end -3.5 -10) (layer F.Fab) (width 0.1))
  (fp_line (start -3.5 3) (end 58 3) (layer F.Fab) (width 0.1))
  (fp_line (start -3.56 3) (end 58.06 3) (layer F.SilkS) (width 0.12))
  (fp_line (start -3.5 -2.7) (end 58 -2.7) (layer F.Fab) (width 0.1))
  (fp_line (start -3.56 -2.7) (end 58.06 -2.7) (layer F.SilkS) (width 0.12))
  (fp_line (start -3.5 -5.5) (end 58 -5.5) (layer F.Fab) (width 0.1))
  (fp_line (start -3.56 -5.5) (end -0.99 -5.5) (layer F.SilkS) (width 0.12))
  (fp_line (start 0.99 -5.5) (end 4.01 -5.5) (layer F.SilkS) (width 0.12))
  (fp_line (start 5.99 -5.5) (end 9.01 -5.5) (layer F.SilkS) (width 0.12))
  (fp_line (start 10.99 -5.5) (end 14.01 -5.5) (layer F.SilkS) (width 0.12))
  (fp_line (start 15.99 -5.5) (end 19.01 -5.5) (layer F.SilkS) (width 0.12))
  (fp_line (start 20.99 -5.5) (end 24.01 -5.5) (layer F.SilkS) (width 0.12))
  (fp_line (start 25.99 -5.5) (end 29.01 -5.5) (layer F.SilkS) (width 0.12))
  (fp_line (start 30.99 -5.5) (end 34.01 -5.5) (layer F.SilkS) (width 0.12))
  (fp_line (start 35.99 -5.5) (end 39.01 -5.5) (layer F.SilkS) (width 0.12))
  (fp_line (start 40.99 -5.5) (end 44.01 -5.5) (layer F.SilkS) (width 0.12))
  (fp_line (start 45.99 -5.5) (end 49.01 -5.5) (layer F.SilkS) (width 0.12))
  (fp_line (start 50.99 -5.5) (end 54.01 -5.5) (layer F.SilkS) (width 0.12))
  (fp_line (start 55.99 -5.5) (end 58.06 -5.5) (layer F.SilkS) (width 0.12))
  (fp_line (start -3.56 -10.06) (end 58.06 -10.06) (layer F.SilkS) (width 0.12))
  (fp_line (start -3.56 4.06) (end 58.06 4.06) (layer F.SilkS) (width 0.12))
  (fp_line (start -3.56 -10.06) (end -3.56 4.06) (layer F.SilkS) (width 0.12))
  (fp_line (start 58.06 -10.06) (end 58.06 4.06) (layer F.SilkS) (width 0.12))
  (fp_line (start -1.5 -0.6) (end -0.99 -0.6) (layer F.SilkS) (width 0.12))
  (fp_line (start 0.99 -0.6) (end 2.5 -0.6) (layer F.SilkS) (width 0.12))
  (fp_line (start -1.5 2.7) (end 2.5 2.7) (layer F.SilkS) (width 0.12))
  (fp_line (start -1.5 -0.6) (end -1.5 2.7) (layer F.SilkS) (width 0.12))
  (fp_line (start 2.5 -0.6) (end 2.5 2.7) (layer F.SilkS) (width 0.12))
  (fp_line (start -1.5 -0.6) (end -1.5 2.7) (layer F.Fab) (width 0.1))
  (fp_line (start -1.5 2.7) (end 2.5 2.7) (layer F.Fab) (width 0.1))
  (fp_line (start 2.5 2.7) (end 2.5 -0.6) (layer F.Fab) (width 0.1))
  (fp_line (start 2.5 -0.6) (end -1.5 -0.6) (layer F.Fab) (width 0.1))
  (fp_line (start -2 -10) (end -2 4) (layer F.Fab) (width 0.1))
  (fp_line (start -2 4) (end 3 4) (layer F.Fab) (width 0.1))
  (fp_line (start 3 4) (end 3 -10) (layer F.Fab) (width 0.1))
  (fp_line (start 3 -10) (end -2 -10) (layer F.Fab) (width 0.1))
  (fp_line (start -2 -10) (end 3 -10) (layer F.SilkS) (width 0.12))
  (fp_line (start -2 4) (end 3 4) (layer F.SilkS) (width 0.12))
  (fp_line (start -2 -10) (end -2 4) (layer F.SilkS) (width 0.12))
  (fp_line (start 3 -10) (end 3 4) (layer F.SilkS) (width 0.12))
  (fp_line (start -1.5 -2.7) (end -1.5 -1.7) (layer F.Fab) (width 0.1))
  (fp_line (start -1.5 -1.7) (end 2.5 -1.7) (layer F.Fab) (width 0.1))
  (fp_line (start 2.5 -1.7) (end 2.5 -2.7) (layer F.Fab) (width 0.1))
  (fp_line (start 2.5 -2.7) (end -1.5 -2.7) (layer F.Fab) (width 0.1))
  (fp_line (start -1.5 -2.7) (end 2.5 -2.7) (layer F.SilkS) (width 0.12))
  (fp_line (start -1.5 -1.701) (end -0.99 -1.701) (layer F.SilkS) (width 0.12))
  (fp_line (start 0.99 -1.701) (end 2.5 -1.701) (layer F.SilkS) (width 0.12))
  (fp_line (start -1.5 -2.7) (end -1.5 -1.701) (layer F.SilkS) (width 0.12))
  (fp_line (start 2.5 -2.7) (end 2.5 -1.701) (layer F.SilkS) (width 0.12))
  (fp_line (start 0 -9.65) (end 0 -7.15) (layer F.Fab) (width 0.1))
  (fp_line (start 0 -7.15) (end 1 -7.15) (layer F.Fab) (width 0.1))
  (fp_line (start 1 -7.15) (end 1 -9.65) (layer F.Fab) (width 0.1))
  (fp_line (start 1 -9.65) (end 0 -9.65) (layer F.Fab) (width 0.1))
  (fp_line (start 0 -9.65) (end 1 -9.65) (layer F.SilkS) (width 0.12))
  (fp_line (start 0 -7.15) (end 1 -7.15) (layer F.SilkS) (width 0.12))
  (fp_line (start 0 -9.65) (end 0 -7.15) (layer F.SilkS) (width 0.12))
  (fp_line (start 1 -9.65) (end 1 -7.15) (layer F.SilkS) (width 0.12))
  (fp_line (start 3.5 -0.6) (end 4.01 -0.6) (layer F.SilkS) (width 0.12))
  (fp_line (start 5.99 -0.6) (end 7.5 -0.6) (layer F.SilkS) (width 0.12))
  (fp_line (start 3.5 2.7) (end 7.5 2.7) (layer F.SilkS) (width 0.12))
  (fp_line (start 3.5 -0.6) (end 3.5 2.7) (layer F.SilkS) (width 0.12))
  (fp_line (start 7.5 -0.6) (end 7.5 2.7) (layer F.SilkS) (width 0.12))
  (fp_line (start 3.5 -0.6) (end 3.5 2.7) (layer F.Fab) (width 0.1))
  (fp_line (start 3.5 2.7) (end 7.5 2.7) (layer F.Fab) (width 0.1))
  (fp_line (start 7.5 2.7) (end 7.5 -0.6) (layer F.Fab) (width 0.1))
  (fp_line (start 7.5 -0.6) (end 3.5 -0.6) (layer F.Fab) (width 0.1))
  (fp_line (start 3 -10) (end 3 4) (layer F.Fab) (width 0.1))
  (fp_line (start 3 4) (end 8 4) (layer F.Fab) (width 0.1))
  (fp_line (start 8 4) (end 8 -10) (layer F.Fab) (width 0.1))
  (fp_line (start 8 -10) (end 3 -10) (layer F.Fab) (width 0.1))
  (fp_line (start 3 -10) (end 8 -10) (layer F.SilkS) (width 0.12))
  (fp_line (start 3 4) (end 8 4) (layer F.SilkS) (width 0.12))
  (fp_line (start 3 -10) (end 3 4) (layer F.SilkS) (width 0.12))
  (fp_line (start 8 -10) (end 8 4) (layer F.SilkS) (width 0.12))
  (fp_line (start 3.5 -2.7) (end 3.5 -1.7) (layer F.Fab) (width 0.1))
  (fp_line (start 3.5 -1.7) (end 7.5 -1.7) (layer F.Fab) (width 0.1))
  (fp_line (start 7.5 -1.7) (end 7.5 -2.7) (layer F.Fab) (width 0.1))
  (fp_line (start 7.5 -2.7) (end 3.5 -2.7) (layer F.Fab) (width 0.1))
  (fp_line (start 3.5 -2.7) (end 7.5 -2.7) (layer F.SilkS) (width 0.12))
  (fp_line (start 3.5 -1.701) (end 4.01 -1.701) (layer F.SilkS) (width 0.12))
  (fp_line (start 5.99 -1.701) (end 7.5 -1.701) (layer F.SilkS) (width 0.12))
  (fp_line (start 3.5 -2.7) (end 3.5 -1.701) (layer F.SilkS) (width 0.12))
  (fp_line (start 7.5 -2.7) (end 7.5 -1.701) (layer F.SilkS) (width 0.12))
  (fp_line (start 5 -9.65) (end 5 -7.15) (layer F.Fab) (width 0.1))
  (fp_line (start 5 -7.15) (end 6 -7.15) (layer F.Fab) (width 0.1))
  (fp_line (start 6 -7.15) (end 6 -9.65) (layer F.Fab) (width 0.1))
  (fp_line (start 6 -9.65) (end 5 -9.65) (layer F.Fab) (width 0.1))
  (fp_line (start 5 -9.65) (end 6 -9.65) (layer F.SilkS) (width 0.12))
  (fp_line (start 5 -7.15) (end 6 -7.15) (layer F.SilkS) (width 0.12))
  (fp_line (start 5 -9.65) (end 5 -7.15) (layer F.SilkS) (width 0.12))
  (fp_line (start 6 -9.65) (end 6 -7.15) (layer F.SilkS) (width 0.12))
  (fp_line (start 8.5 -0.6) (end 9.01 -0.6) (layer F.SilkS) (width 0.12))
  (fp_line (start 10.99 -0.6) (end 12.5 -0.6) (layer F.SilkS) (width 0.12))
  (fp_line (start 8.5 2.7) (end 12.5 2.7) (layer F.SilkS) (width 0.12))
  (fp_line (start 8.5 -0.6) (end 8.5 2.7) (layer F.SilkS) (width 0.12))
  (fp_line (start 12.5 -0.6) (end 12.5 2.7) (layer F.SilkS) (width 0.12))
  (fp_line (start 8.5 -0.6) (end 8.5 2.7) (layer F.Fab) (width 0.1))
  (fp_line (start 8.5 2.7) (end 12.5 2.7) (layer F.Fab) (width 0.1))
  (fp_line (start 12.5 2.7) (end 12.5 -0.6) (layer F.Fab) (width 0.1))
  (fp_line (start 12.5 -0.6) (end 8.5 -0.6) (layer F.Fab) (width 0.1))
  (fp_line (start 8 -10) (end 8 4) (layer F.Fab) (width 0.1))
  (fp_line (start 8 4) (end 13 4) (layer F.Fab) (width 0.1))
  (fp_line (start 13 4) (end 13 -10) (layer F.Fab) (width 0.1))
  (fp_line (start 13 -10) (end 8 -10) (layer F.Fab) (width 0.1))
  (fp_line (start 8 -10) (end 13 -10) (layer F.SilkS) (width 0.12))
  (fp_line (start 8 4) (end 13 4) (layer F.SilkS) (width 0.12))
  (fp_line (start 8 -10) (end 8 4) (layer F.SilkS) (width 0.12))
  (fp_line (start 13 -10) (end 13 4) (layer F.SilkS) (width 0.12))
  (fp_line (start 8.5 -2.7) (end 8.5 -1.7) (layer F.Fab) (width 0.1))
  (fp_line (start 8.5 -1.7) (end 12.5 -1.7) (layer F.Fab) (width 0.1))
  (fp_line (start 12.5 -1.7) (end 12.5 -2.7) (layer F.Fab) (width 0.1))
  (fp_line (start 12.5 -2.7) (end 8.5 -2.7) (layer F.Fab) (width 0.1))
  (fp_line (start 8.5 -2.7) (end 12.5 -2.7) (layer F.SilkS) (width 0.12))
  (fp_line (start 8.5 -1.701) (end 9.01 -1.701) (layer F.SilkS) (width 0.12))
  (fp_line (start 10.99 -1.701) (end 12.5 -1.701) (layer F.SilkS) (width 0.12))
  (fp_line (start 8.5 -2.7) (end 8.5 -1.701) (layer F.SilkS) (width 0.12))
  (fp_line (start 12.5 -2.7) (end 12.5 -1.701) (layer F.SilkS) (width 0.12))
  (fp_line (start 10 -9.65) (end 10 -7.15) (layer F.Fab) (width 0.1))
  (fp_line (start 10 -7.15) (end 11 -7.15) (layer F.Fab) (width 0.1))
  (fp_line (start 11 -7.15) (end 11 -9.65) (layer F.Fab) (width 0.1))
  (fp_line (start 11 -9.65) (end 10 -9.65) (layer F.Fab) (width 0.1))
  (fp_line (start 10 -9.65) (end 11 -9.65) (layer F.SilkS) (width 0.12))
  (fp_line (start 10 -7.15) (end 11 -7.15) (layer F.SilkS) (width 0.12))
  (fp_line (start 10 -9.65) (end 10 -7.15) (layer F.SilkS) (width 0.12))
  (fp_line (start 11 -9.65) (end 11 -7.15) (layer F.SilkS) (width 0.12))
  (fp_line (start 13.5 -0.6) (end 14.01 -0.6) (layer F.SilkS) (width 0.12))
  (fp_line (start 15.99 -0.6) (end 17.5 -0.6) (layer F.SilkS) (width 0.12))
  (fp_line (start 13.5 2.7) (end 17.5 2.7) (layer F.SilkS) (width 0.12))
  (fp_line (start 13.5 -0.6) (end 13.5 2.7) (layer F.SilkS) (width 0.12))
  (fp_line (start 17.5 -0.6) (end 17.5 2.7) (layer F.SilkS) (width 0.12))
  (fp_line (start 13.5 -0.6) (end 13.5 2.7) (layer F.Fab) (width 0.1))
  (fp_line (start 13.5 2.7) (end 17.5 2.7) (layer F.Fab) (width 0.1))
  (fp_line (start 17.5 2.7) (end 17.5 -0.6) (layer F.Fab) (width 0.1))
  (fp_line (start 17.5 -0.6) (end 13.5 -0.6) (layer F.Fab) (width 0.1))
  (fp_line (start 13 -10) (end 13 4) (layer F.Fab) (width 0.1))
  (fp_line (start 13 4) (end 18 4) (layer F.Fab) (width 0.1))
  (fp_line (start 18 4) (end 18 -10) (layer F.Fab) (width 0.1))
  (fp_line (start 18 -10) (end 13 -10) (layer F.Fab) (width 0.1))
  (fp_line (start 13 -10) (end 18 -10) (layer F.SilkS) (width 0.12))
  (fp_line (start 13 4) (end 18 4) (layer F.SilkS) (width 0.12))
  (fp_line (start 13 -10) (end 13 4) (layer F.SilkS) (width 0.12))
  (fp_line (start 18 -10) (end 18 4) (layer F.SilkS) (width 0.12))
  (fp_line (start 13.5 -2.7) (end 13.5 -1.7) (layer F.Fab) (width 0.1))
  (fp_line (start 13.5 -1.7) (end 17.5 -1.7) (layer F.Fab) (width 0.1))
  (fp_line (start 17.5 -1.7) (end 17.5 -2.7) (layer F.Fab) (width 0.1))
  (fp_line (start 17.5 -2.7) (end 13.5 -2.7) (layer F.Fab) (width 0.1))
  (fp_line (start 13.5 -2.7) (end 17.5 -2.7) (layer F.SilkS) (width 0.12))
  (fp_line (start 13.5 -1.701) (end 14.01 -1.701) (layer F.SilkS) (width 0.12))
  (fp_line (start 15.99 -1.701) (end 17.5 -1.701) (layer F.SilkS) (width 0.12))
  (fp_line (start 13.5 -2.7) (end 13.5 -1.701) (layer F.SilkS) (width 0.12))
  (fp_line (start 17.5 -2.7) (end 17.5 -1.701) (layer F.SilkS) (width 0.12))
  (fp_line (start 15 -9.65) (end 15 -7.15) (layer F.Fab) (width 0.1))
  (fp_line (start 15 -7.15) (end 16 -7.15) (layer F.Fab) (width 0.1))
  (fp_line (start 16 -7.15) (end 16 -9.65) (layer F.Fab) (width 0.1))
  (fp_line (start 16 -9.65) (end 15 -9.65) (layer F.Fab) (width 0.1))
  (fp_line (start 15 -9.65) (end 16 -9.65) (layer F.SilkS) (width 0.12))
  (fp_line (start 15 -7.15) (end 16 -7.15) (layer F.SilkS) (width 0.12))
  (fp_line (start 15 -9.65) (end 15 -7.15) (layer F.SilkS) (width 0.12))
  (fp_line (start 16 -9.65) (end 16 -7.15) (layer F.SilkS) (width 0.12))
  (fp_line (start 18.5 -0.6) (end 19.01 -0.6) (layer F.SilkS) (width 0.12))
  (fp_line (start 20.99 -0.6) (end 22.5 -0.6) (layer F.SilkS) (width 0.12))
  (fp_line (start 18.5 2.7) (end 22.5 2.7) (layer F.SilkS) (width 0.12))
  (fp_line (start 18.5 -0.6) (end 18.5 2.7) (layer F.SilkS) (width 0.12))
  (fp_line (start 22.5 -0.6) (end 22.5 2.7) (layer F.SilkS) (width 0.12))
  (fp_line (start 18.5 -0.6) (end 18.5 2.7) (layer F.Fab) (width 0.1))
  (fp_line (start 18.5 2.7) (end 22.5 2.7) (layer F.Fab) (width 0.1))
  (fp_line (start 22.5 2.7) (end 22.5 -0.6) (layer F.Fab) (width 0.1))
  (fp_line (start 22.5 -0.6) (end 18.5 -0.6) (layer F.Fab) (width 0.1))
  (fp_line (start 18 -10) (end 18 4) (layer F.Fab) (width 0.1))
  (fp_line (start 18 4) (end 23 4) (layer F.Fab) (width 0.1))
  (fp_line (start 23 4) (end 23 -10) (layer F.Fab) (width 0.1))
  (fp_line (start 23 -10) (end 18 -10) (layer F.Fab) (width 0.1))
  (fp_line (start 18 -10) (end 23 -10) (layer F.SilkS) (width 0.12))
  (fp_line (start 18 4) (end 23 4) (layer F.SilkS) (width 0.12))
  (fp_line (start 18 -10) (end 18 4) (layer F.SilkS) (width 0.12))
  (fp_line (start 23 -10) (end 23 4) (layer F.SilkS) (width 0.12))
  (fp_line (start 18.5 -2.7) (end 18.5 -1.7) (layer F.Fab) (width 0.1))
  (fp_line (start 18.5 -1.7) (end 22.5 -1.7) (layer F.Fab) (width 0.1))
  (fp_line (start 22.5 -1.7) (end 22.5 -2.7) (layer F.Fab) (width 0.1))
  (fp_line (start 22.5 -2.7) (end 18.5 -2.7) (layer F.Fab) (width 0.1))
  (fp_line (start 18.5 -2.7) (end 22.5 -2.7) (layer F.SilkS) (width 0.12))
  (fp_line (start 18.5 -1.701) (end 19.01 -1.701) (layer F.SilkS) (width 0.12))
  (fp_line (start 20.99 -1.701) (end 22.5 -1.701) (layer F.SilkS) (width 0.12))
  (fp_line (start 18.5 -2.7) (end 18.5 -1.701) (layer F.SilkS) (width 0.12))
  (fp_line (start 22.5 -2.7) (end 22.5 -1.701) (layer F.SilkS) (width 0.12))
  (fp_line (start 20 -9.65) (end 20 -7.15) (layer F.Fab) (width 0.1))
  (fp_line (start 20 -7.15) (end 21 -7.15) (layer F.Fab) (width 0.1))
  (fp_line (start 21 -7.15) (end 21 -9.65) (layer F.Fab) (width 0.1))
  (fp_line (start 21 -9.65) (end 20 -9.65) (layer F.Fab) (width 0.1))
  (fp_line (start 20 -9.65) (end 21 -9.65) (layer F.SilkS) (width 0.12))
  (fp_line (start 20 -7.15) (end 21 -7.15) (layer F.SilkS) (width 0.12))
  (fp_line (start 20 -9.65) (end 20 -7.15) (layer F.SilkS) (width 0.12))
  (fp_line (start 21 -9.65) (end 21 -7.15) (layer F.SilkS) (width 0.12))
  (fp_line (start 23.5 -0.6) (end 24.01 -0.6) (layer F.SilkS) (width 0.12))
  (fp_line (start 25.99 -0.6) (end 27.5 -0.6) (layer F.SilkS) (width 0.12))
  (fp_line (start 23.5 2.7) (end 27.5 2.7) (layer F.SilkS) (width 0.12))
  (fp_line (start 23.5 -0.6) (end 23.5 2.7) (layer F.SilkS) (width 0.12))
  (fp_line (start 27.5 -0.6) (end 27.5 2.7) (layer F.SilkS) (width 0.12))
  (fp_line (start 23.5 -0.6) (end 23.5 2.7) (layer F.Fab) (width 0.1))
  (fp_line (start 23.5 2.7) (end 27.5 2.7) (layer F.Fab) (width 0.1))
  (fp_line (start 27.5 2.7) (end 27.5 -0.6) (layer F.Fab) (width 0.1))
  (fp_line (start 27.5 -0.6) (end 23.5 -0.6) (layer F.Fab) (width 0.1))
  (fp_line (start 23 -10) (end 23 4) (layer F.Fab) (width 0.1))
  (fp_line (start 23 4) (end 28 4) (layer F.Fab) (width 0.1))
  (fp_line (start 28 4) (end 28 -10) (layer F.Fab) (width 0.1))
  (fp_line (start 28 -10) (end 23 -10) (layer F.Fab) (width 0.1))
  (fp_line (start 23 -10) (end 28 -10) (layer F.SilkS) (width 0.12))
  (fp_line (start 23 4) (end 28 4) (layer F.SilkS) (width 0.12))
  (fp_line (start 23 -10) (end 23 4) (layer F.SilkS) (width 0.12))
  (fp_line (start 28 -10) (end 28 4) (layer F.SilkS) (width 0.12))
  (fp_line (start 23.5 -2.7) (end 23.5 -1.7) (layer F.Fab) (width 0.1))
  (fp_line (start 23.5 -1.7) (end 27.5 -1.7) (layer F.Fab) (width 0.1))
  (fp_line (start 27.5 -1.7) (end 27.5 -2.7) (layer F.Fab) (width 0.1))
  (fp_line (start 27.5 -2.7) (end 23.5 -2.7) (layer F.Fab) (width 0.1))
  (fp_line (start 23.5 -2.7) (end 27.5 -2.7) (layer F.SilkS) (width 0.12))
  (fp_line (start 23.5 -1.701) (end 24.01 -1.701) (layer F.SilkS) (width 0.12))
  (fp_line (start 25.99 -1.701) (end 27.5 -1.701) (layer F.SilkS) (width 0.12))
  (fp_line (start 23.5 -2.7) (end 23.5 -1.701) (layer F.SilkS) (width 0.12))
  (fp_line (start 27.5 -2.7) (end 27.5 -1.701) (layer F.SilkS) (width 0.12))
  (fp_line (start 25 -9.65) (end 25 -7.15) (layer F.Fab) (width 0.1))
  (fp_line (start 25 -7.15) (end 26 -7.15) (layer F.Fab) (width 0.1))
  (fp_line (start 26 -7.15) (end 26 -9.65) (layer F.Fab) (width 0.1))
  (fp_line (start 26 -9.65) (end 25 -9.65) (layer F.Fab) (width 0.1))
  (fp_line (start 25 -9.65) (end 26 -9.65) (layer F.SilkS) (width 0.12))
  (fp_line (start 25 -7.15) (end 26 -7.15) (layer F.SilkS) (width 0.12))
  (fp_line (start 25 -9.65) (end 25 -7.15) (layer F.SilkS) (width 0.12))
  (fp_line (start 26 -9.65) (end 26 -7.15) (layer F.SilkS) (width 0.12))
  (fp_line (start 28.5 -0.6) (end 29.01 -0.6) (layer F.SilkS) (width 0.12))
  (fp_line (start 30.99 -0.6) (end 32.5 -0.6) (layer F.SilkS) (width 0.12))
  (fp_line (start 28.5 2.7) (end 32.5 2.7) (layer F.SilkS) (width 0.12))
  (fp_line (start 28.5 -0.6) (end 28.5 2.7) (layer F.SilkS) (width 0.12))
  (fp_line (start 32.5 -0.6) (end 32.5 2.7) (layer F.SilkS) (width 0.12))
  (fp_line (start 28.5 -0.6) (end 28.5 2.7) (layer F.Fab) (width 0.1))
  (fp_line (start 28.5 2.7) (end 32.5 2.7) (layer F.Fab) (width 0.1))
  (fp_line (start 32.5 2.7) (end 32.5 -0.6) (layer F.Fab) (width 0.1))
  (fp_line (start 32.5 -0.6) (end 28.5 -0.6) (layer F.Fab) (width 0.1))
  (fp_line (start 28 -10) (end 28 4) (layer F.Fab) (width 0.1))
  (fp_line (start 28 4) (end 33 4) (layer F.Fab) (width 0.1))
  (fp_line (start 33 4) (end 33 -10) (layer F.Fab) (width 0.1))
  (fp_line (start 33 -10) (end 28 -10) (layer F.Fab) (width 0.1))
  (fp_line (start 28 -10) (end 33 -10) (layer F.SilkS) (width 0.12))
  (fp_line (start 28 4) (end 33 4) (layer F.SilkS) (width 0.12))
  (fp_line (start 28 -10) (end 28 4) (layer F.SilkS) (width 0.12))
  (fp_line (start 33 -10) (end 33 4) (layer F.SilkS) (width 0.12))
  (fp_line (start 28.5 -2.7) (end 28.5 -1.7) (layer F.Fab) (width 0.1))
  (fp_line (start 28.5 -1.7) (end 32.5 -1.7) (layer F.Fab) (width 0.1))
  (fp_line (start 32.5 -1.7) (end 32.5 -2.7) (layer F.Fab) (width 0.1))
  (fp_line (start 32.5 -2.7) (end 28.5 -2.7) (layer F.Fab) (width 0.1))
  (fp_line (start 28.5 -2.7) (end 32.5 -2.7) (layer F.SilkS) (width 0.12))
  (fp_line (start 28.5 -1.701) (end 29.01 -1.701) (layer F.SilkS) (width 0.12))
  (fp_line (start 30.99 -1.701) (end 32.5 -1.701) (layer F.SilkS) (width 0.12))
  (fp_line (start 28.5 -2.7) (end 28.5 -1.701) (layer F.SilkS) (width 0.12))
  (fp_line (start 32.5 -2.7) (end 32.5 -1.701) (layer F.SilkS) (width 0.12))
  (fp_line (start 30 -9.65) (end 30 -7.15) (layer F.Fab) (width 0.1))
  (fp_line (start 30 -7.15) (end 31 -7.15) (layer F.Fab) (width 0.1))
  (fp_line (start 31 -7.15) (end 31 -9.65) (layer F.Fab) (width 0.1))
  (fp_line (start 31 -9.65) (end 30 -9.65) (layer F.Fab) (width 0.1))
  (fp_line (start 30 -9.65) (end 31 -9.65) (layer F.SilkS) (width 0.12))
  (fp_line (start 30 -7.15) (end 31 -7.15) (layer F.SilkS) (width 0.12))
  (fp_line (start 30 -9.65) (end 30 -7.15) (layer F.SilkS) (width 0.12))
  (fp_line (start 31 -9.65) (end 31 -7.15) (layer F.SilkS) (width 0.12))
  (fp_line (start 33.5 -0.6) (end 34.01 -0.6) (layer F.SilkS) (width 0.12))
  (fp_line (start 35.99 -0.6) (end 37.5 -0.6) (layer F.SilkS) (width 0.12))
  (fp_line (start 33.5 2.7) (end 37.5 2.7) (layer F.SilkS) (width 0.12))
  (fp_line (start 33.5 -0.6) (end 33.5 2.7) (layer F.SilkS) (width 0.12))
  (fp_line (start 37.5 -0.6) (end 37.5 2.7) (layer F.SilkS) (width 0.12))
  (fp_line (start 33.5 -0.6) (end 33.5 2.7) (layer F.Fab) (width 0.1))
  (fp_line (start 33.5 2.7) (end 37.5 2.7) (layer F.Fab) (width 0.1))
  (fp_line (start 37.5 2.7) (end 37.5 -0.6) (layer F.Fab) (width 0.1))
  (fp_line (start 37.5 -0.6) (end 33.5 -0.6) (layer F.Fab) (width 0.1))
  (fp_line (start 33 -10) (end 33 4) (layer F.Fab) (width 0.1))
  (fp_line (start 33 4) (end 38 4) (layer F.Fab) (width 0.1))
  (fp_line (start 38 4) (end 38 -10) (layer F.Fab) (width 0.1))
  (fp_line (start 38 -10) (end 33 -10) (layer F.Fab) (width 0.1))
  (fp_line (start 33 -10) (end 38 -10) (layer F.SilkS) (width 0.12))
  (fp_line (start 33 4) (end 38 4) (layer F.SilkS) (width 0.12))
  (fp_line (start 33 -10) (end 33 4) (layer F.SilkS) (width 0.12))
  (fp_line (start 38 -10) (end 38 4) (layer F.SilkS) (width 0.12))
  (fp_line (start 33.5 -2.7) (end 33.5 -1.7) (layer F.Fab) (width 0.1))
  (fp_line (start 33.5 -1.7) (end 37.5 -1.7) (layer F.Fab) (width 0.1))
  (fp_line (start 37.5 -1.7) (end 37.5 -2.7) (layer F.Fab) (width 0.1))
  (fp_line (start 37.5 -2.7) (end 33.5 -2.7) (layer F.Fab) (width 0.1))
  (fp_line (start 33.5 -2.7) (end 37.5 -2.7) (layer F.SilkS) (width 0.12))
  (fp_line (start 33.5 -1.701) (end 34.01 -1.701) (layer F.SilkS) (width 0.12))
  (fp_line (start 35.99 -1.701) (end 37.5 -1.701) (layer F.SilkS) (width 0.12))
  (fp_line (start 33.5 -2.7) (end 33.5 -1.701) (layer F.SilkS) (width 0.12))
  (fp_line (start 37.5 -2.7) (end 37.5 -1.701) (layer F.SilkS) (width 0.12))
  (fp_line (start 35 -9.65) (end 35 -7.15) (layer F.Fab) (width 0.1))
  (fp_line (start 35 -7.15) (end 36 -7.15) (layer F.Fab) (width 0.1))
  (fp_line (start 36 -7.15) (end 36 -9.65) (layer F.Fab) (width 0.1))
  (fp_line (start 36 -9.65) (end 35 -9.65) (layer F.Fab) (width 0.1))
  (fp_line (start 35 -9.65) (end 36 -9.65) (layer F.SilkS) (width 0.12))
  (fp_line (start 35 -7.15) (end 36 -7.15) (layer F.SilkS) (width 0.12))
  (fp_line (start 35 -9.65) (end 35 -7.15) (layer F.SilkS) (width 0.12))
  (fp_line (start 36 -9.65) (end 36 -7.15) (layer F.SilkS) (width 0.12))
  (fp_line (start 38.5 -0.6) (end 39.01 -0.6) (layer F.SilkS) (width 0.12))
  (fp_line (start 40.99 -0.6) (end 42.5 -0.6) (layer F.SilkS) (width 0.12))
  (fp_line (start 38.5 2.7) (end 42.5 2.7) (layer F.SilkS) (width 0.12))
  (fp_line (start 38.5 -0.6) (end 38.5 2.7) (layer F.SilkS) (width 0.12))
  (fp_line (start 42.5 -0.6) (end 42.5 2.7) (layer F.SilkS) (width 0.12))
  (fp_line (start 38.5 -0.6) (end 38.5 2.7) (layer F.Fab) (width 0.1))
  (fp_line (start 38.5 2.7) (end 42.5 2.7) (layer F.Fab) (width 0.1))
  (fp_line (start 42.5 2.7) (end 42.5 -0.6) (layer F.Fab) (width 0.1))
  (fp_line (start 42.5 -0.6) (end 38.5 -0.6) (layer F.Fab) (width 0.1))
  (fp_line (start 38 -10) (end 38 4) (layer F.Fab) (width 0.1))
  (fp_line (start 38 4) (end 43 4) (layer F.Fab) (width 0.1))
  (fp_line (start 43 4) (end 43 -10) (layer F.Fab) (width 0.1))
  (fp_line (start 43 -10) (end 38 -10) (layer F.Fab) (width 0.1))
  (fp_line (start 38 -10) (end 43 -10) (layer F.SilkS) (width 0.12))
  (fp_line (start 38 4) (end 43 4) (layer F.SilkS) (width 0.12))
  (fp_line (start 38 -10) (end 38 4) (layer F.SilkS) (width 0.12))
  (fp_line (start 43 -10) (end 43 4) (layer F.SilkS) (width 0.12))
  (fp_line (start 38.5 -2.7) (end 38.5 -1.7) (layer F.Fab) (width 0.1))
  (fp_line (start 38.5 -1.7) (end 42.5 -1.7) (layer F.Fab) (width 0.1))
  (fp_line (start 42.5 -1.7) (end 42.5 -2.7) (layer F.Fab) (width 0.1))
  (fp_line (start 42.5 -2.7) (end 38.5 -2.7) (layer F.Fab) (width 0.1))
  (fp_line (start 38.5 -2.7) (end 42.5 -2.7) (layer F.SilkS) (width 0.12))
  (fp_line (start 38.5 -1.701) (end 39.01 -1.701) (layer F.SilkS) (width 0.12))
  (fp_line (start 40.99 -1.701) (end 42.5 -1.701) (layer F.SilkS) (width 0.12))
  (fp_line (start 38.5 -2.7) (end 38.5 -1.701) (layer F.SilkS) (width 0.12))
  (fp_line (start 42.5 -2.7) (end 42.5 -1.701) (layer F.SilkS) (width 0.12))
  (fp_line (start 40 -9.65) (end 40 -7.15) (layer F.Fab) (width 0.1))
  (fp_line (start 40 -7.15) (end 41 -7.15) (layer F.Fab) (width 0.1))
  (fp_line (start 41 -7.15) (end 41 -9.65) (layer F.Fab) (width 0.1))
  (fp_line (start 41 -9.65) (end 40 -9.65) (layer F.Fab) (width 0.1))
  (fp_line (start 40 -9.65) (end 41 -9.65) (layer F.SilkS) (width 0.12))
  (fp_line (start 40 -7.15) (end 41 -7.15) (layer F.SilkS) (width 0.12))
  (fp_line (start 40 -9.65) (end 40 -7.15) (layer F.SilkS) (width 0.12))
  (fp_line (start 41 -9.65) (end 41 -7.15) (layer F.SilkS) (width 0.12))
  (fp_line (start 43.5 -0.6) (end 44.01 -0.6) (layer F.SilkS) (width 0.12))
  (fp_line (start 45.99 -0.6) (end 47.5 -0.6) (layer F.SilkS) (width 0.12))
  (fp_line (start 43.5 2.7) (end 47.5 2.7) (layer F.SilkS) (width 0.12))
  (fp_line (start 43.5 -0.6) (end 43.5 2.7) (layer F.SilkS) (width 0.12))
  (fp_line (start 47.5 -0.6) (end 47.5 2.7) (layer F.SilkS) (width 0.12))
  (fp_line (start 43.5 -0.6) (end 43.5 2.7) (layer F.Fab) (width 0.1))
  (fp_line (start 43.5 2.7) (end 47.5 2.7) (layer F.Fab) (width 0.1))
  (fp_line (start 47.5 2.7) (end 47.5 -0.6) (layer F.Fab) (width 0.1))
  (fp_line (start 47.5 -0.6) (end 43.5 -0.6) (layer F.Fab) (width 0.1))
  (fp_line (start 43 -10) (end 43 4) (layer F.Fab) (width 0.1))
  (fp_line (start 43 4) (end 48 4) (layer F.Fab) (width 0.1))
  (fp_line (start 48 4) (end 48 -10) (layer F.Fab) (width 0.1))
  (fp_line (start 48 -10) (end 43 -10) (layer F.Fab) (width 0.1))
  (fp_line (start 43 -10) (end 48 -10) (layer F.SilkS) (width 0.12))
  (fp_line (start 43 4) (end 48 4) (layer F.SilkS) (width 0.12))
  (fp_line (start 43 -10) (end 43 4) (layer F.SilkS) (width 0.12))
  (fp_line (start 48 -10) (end 48 4) (layer F.SilkS) (width 0.12))
  (fp_line (start 43.5 -2.7) (end 43.5 -1.7) (layer F.Fab) (width 0.1))
  (fp_line (start 43.5 -1.7) (end 47.5 -1.7) (layer F.Fab) (width 0.1))
  (fp_line (start 47.5 -1.7) (end 47.5 -2.7) (layer F.Fab) (width 0.1))
  (fp_line (start 47.5 -2.7) (end 43.5 -2.7) (layer F.Fab) (width 0.1))
  (fp_line (start 43.5 -2.7) (end 47.5 -2.7) (layer F.SilkS) (width 0.12))
  (fp_line (start 43.5 -1.701) (end 44.01 -1.701) (layer F.SilkS) (width 0.12))
  (fp_line (start 45.99 -1.701) (end 47.5 -1.701) (layer F.SilkS) (width 0.12))
  (fp_line (start 43.5 -2.7) (end 43.5 -1.701) (layer F.SilkS) (width 0.12))
  (fp_line (start 47.5 -2.7) (end 47.5 -1.701) (layer F.SilkS) (width 0.12))
  (fp_line (start 45 -9.65) (end 45 -7.15) (layer F.Fab) (width 0.1))
  (fp_line (start 45 -7.15) (end 46 -7.15) (layer F.Fab) (width 0.1))
  (fp_line (start 46 -7.15) (end 46 -9.65) (layer F.Fab) (width 0.1))
  (fp_line (start 46 -9.65) (end 45 -9.65) (layer F.Fab) (width 0.1))
  (fp_line (start 45 -9.65) (end 46 -9.65) (layer F.SilkS) (width 0.12))
  (fp_line (start 45 -7.15) (end 46 -7.15) (layer F.SilkS) (width 0.12))
  (fp_line (start 45 -9.65) (end 45 -7.15) (layer F.SilkS) (width 0.12))
  (fp_line (start 46 -9.65) (end 46 -7.15) (layer F.SilkS) (width 0.12))
  (fp_line (start 48.5 -0.6) (end 49.01 -0.6) (layer F.SilkS) (width 0.12))
  (fp_line (start 50.99 -0.6) (end 52.5 -0.6) (layer F.SilkS) (width 0.12))
  (fp_line (start 48.5 2.7) (end 52.5 2.7) (layer F.SilkS) (width 0.12))
  (fp_line (start 48.5 -0.6) (end 48.5 2.7) (layer F.SilkS) (width 0.12))
  (fp_line (start 52.5 -0.6) (end 52.5 2.7) (layer F.SilkS) (width 0.12))
  (fp_line (start 48.5 -0.6) (end 48.5 2.7) (layer F.Fab) (width 0.1))
  (fp_line (start 48.5 2.7) (end 52.5 2.7) (layer F.Fab) (width 0.1))
  (fp_line (start 52.5 2.7) (end 52.5 -0.6) (layer F.Fab) (width 0.1))
  (fp_line (start 52.5 -0.6) (end 48.5 -0.6) (layer F.Fab) (width 0.1))
  (fp_line (start 48 -10) (end 48 4) (layer F.Fab) (width 0.1))
  (fp_line (start 48 4) (end 53 4) (layer F.Fab) (width 0.1))
  (fp_line (start 53 4) (end 53 -10) (layer F.Fab) (width 0.1))
  (fp_line (start 53 -10) (end 48 -10) (layer F.Fab) (width 0.1))
  (fp_line (start 48 -10) (end 53 -10) (layer F.SilkS) (width 0.12))
  (fp_line (start 48 4) (end 53 4) (layer F.SilkS) (width 0.12))
  (fp_line (start 48 -10) (end 48 4) (layer F.SilkS) (width 0.12))
  (fp_line (start 53 -10) (end 53 4) (layer F.SilkS) (width 0.12))
  (fp_line (start 48.5 -2.7) (end 48.5 -1.7) (layer F.Fab) (width 0.1))
  (fp_line (start 48.5 -1.7) (end 52.5 -1.7) (layer F.Fab) (width 0.1))
  (fp_line (start 52.5 -1.7) (end 52.5 -2.7) (layer F.Fab) (width 0.1))
  (fp_line (start 52.5 -2.7) (end 48.5 -2.7) (layer F.Fab) (width 0.1))
  (fp_line (start 48.5 -2.7) (end 52.5 -2.7) (layer F.SilkS) (width 0.12))
  (fp_line (start 48.5 -1.701) (end 49.01 -1.701) (layer F.SilkS) (width 0.12))
  (fp_line (start 50.99 -1.701) (end 52.5 -1.701) (layer F.SilkS) (width 0.12))
  (fp_line (start 48.5 -2.7) (end 48.5 -1.701) (layer F.SilkS) (width 0.12))
  (fp_line (start 52.5 -2.7) (end 52.5 -1.701) (layer F.SilkS) (width 0.12))
  (fp_line (start 50 -9.65) (end 50 -7.15) (layer F.Fab) (width 0.1))
  (fp_line (start 50 -7.15) (end 51 -7.15) (layer F.Fab) (width 0.1))
  (fp_line (start 51 -7.15) (end 51 -9.65) (layer F.Fab) (width 0.1))
  (fp_line (start 51 -9.65) (end 50 -9.65) (layer F.Fab) (width 0.1))
  (fp_line (start 50 -9.65) (end 51 -9.65) (layer F.SilkS) (width 0.12))
  (fp_line (start 50 -7.15) (end 51 -7.15) (layer F.SilkS) (width 0.12))
  (fp_line (start 50 -9.65) (end 50 -7.15) (layer F.SilkS) (width 0.12))
  (fp_line (start 51 -9.65) (end 51 -7.15) (layer F.SilkS) (width 0.12))
  (fp_line (start 53.5 -0.6) (end 54.01 -0.6) (layer F.SilkS) (width 0.12))
  (fp_line (start 55.99 -0.6) (end 57.5 -0.6) (layer F.SilkS) (width 0.12))
  (fp_line (start 53.5 2.7) (end 57.5 2.7) (layer F.SilkS) (width 0.12))
  (fp_line (start 53.5 -0.6) (end 53.5 2.7) (layer F.SilkS) (width 0.12))
  (fp_line (start 57.5 -0.6) (end 57.5 2.7) (layer F.SilkS) (width 0.12))
  (fp_line (start 53.5 -0.6) (end 53.5 2.7) (layer F.Fab) (width 0.1))
  (fp_line (start 53.5 2.7) (end 57.5 2.7) (layer F.Fab) (width 0.1))
  (fp_line (start 57.5 2.7) (end 57.5 -0.6) (layer F.Fab) (width 0.1))
  (fp_line (start 57.5 -0.6) (end 53.5 -0.6) (layer F.Fab) (width 0.1))
  (fp_line (start 53 -10) (end 53 4) (layer F.Fab) (width 0.1))
  (fp_line (start 53 4) (end 58 4) (layer F.Fab) (width 0.1))
  (fp_line (start 58 4) (end 58 -10) (layer F.Fab) (width 0.1))
  (fp_line (start 58 -10) (end 53 -10) (layer F.Fab) (width 0.1))
  (fp_line (start 53 -10) (end 58 -10) (layer F.SilkS) (width 0.12))
  (fp_line (start 53 4) (end 58 4) (layer F.SilkS) (width 0.12))
  (fp_line (start 53 -10) (end 53 4) (layer F.SilkS) (width 0.12))
  (fp_line (start 58 -10) (end 58 4) (layer F.SilkS) (width 0.12))
  (fp_line (start 53.5 -2.7) (end 53.5 -1.7) (layer F.Fab) (width 0.1))
  (fp_line (start 53.5 -1.7) (end 57.5 -1.7) (layer F.Fab) (width 0.1))
  (fp_line (start 57.5 -1.7) (end 57.5 -2.7) (layer F.Fab) (width 0.1))
  (fp_line (start 57.5 -2.7) (end 53.5 -2.7) (layer F.Fab) (width 0.1))
  (fp_line (start 53.5 -2.7) (end 57.5 -2.7) (layer F.SilkS) (width 0.12))
  (fp_line (start 53.5 -1.701) (end 54.01 -1.701) (layer F.SilkS) (width 0.12))
  (fp_line (start 55.99 -1.701) (end 57.5 -1.701) (layer F.SilkS) (width 0.12))
  (fp_line (start 53.5 -2.7) (end 53.5 -1.701) (layer F.SilkS) (width 0.12))
  (fp_line (start 57.5 -2.7) (end 57.5 -1.701) (layer F.SilkS) (width 0.12))
  (fp_line (start 55 -9.65) (end 55 -7.15) (layer F.Fab) (width 0.1))
  (fp_line (start 55 -7.15) (end 56 -7.15) (layer F.Fab) (width 0.1))
  (fp_line (start 56 -7.15) (end 56 -9.65) (layer F.Fab) (width 0.1))
  (fp_line (start 56 -9.65) (end 55 -9.65) (layer F.Fab) (width 0.1))
  (fp_line (start 55 -9.65) (end 56 -9.65) (layer F.SilkS) (width 0.12))
  (fp_line (start 55 -7.15) (end 56 -7.15) (layer F.SilkS) (width 0.12))
  (fp_line (start 55 -9.65) (end 55 -7.15) (layer F.SilkS) (width 0.12))
  (fp_line (start 56 -9.65) (end 56 -7.15) (layer F.SilkS) (width 0.12))
  (fp_line (start -3.8 3.06) (end -3.8 4.3) (layer F.SilkS) (width 0.12))
  (fp_line (start -3.8 4.3) (end -2.8 4.3) (layer F.SilkS) (width 0.12))
  (fp_line (start -4 -10.5) (end -4 4.5) (layer F.CrtYd) (width 0.05))
  (fp_line (start -4 4.5) (end 58.5 4.5) (layer F.CrtYd) (width 0.05))
  (fp_line (start 58.5 4.5) (end 58.5 -10.5) (layer F.CrtYd) (width 0.05))
  (fp_line (start 58.5 -10.5) (end -4 -10.5) (layer F.CrtYd) (width 0.05))
  (pad 1 thru_hole rect (at 0 0) (size 1.5 3) (drill 1) (layers *.Cu *.Mask))
  (pad 1 thru_hole rect (at 0 -5) (size 1.5 3) (drill 1) (layers *.Cu *.Mask))
  (pad 2 thru_hole oval (at 5 0) (size 1.5 3) (drill 1) (layers *.Cu *.Mask))
  (pad 2 thru_hole oval (at 5 -5) (size 1.5 3) (drill 1) (layers *.Cu *.Mask))
  (pad 3 thru_hole oval (at 10 0) (size 1.5 3) (drill 1) (layers *.Cu *.Mask))
  (pad 3 thru_hole oval (at 10 -5) (size 1.5 3) (drill 1) (layers *.Cu *.Mask))
  (pad 4 thru_hole oval (at 15 0) (size 1.5 3) (drill 1) (layers *.Cu *.Mask))
  (pad 4 thru_hole oval (at 15 -5) (size 1.5 3) (drill 1) (layers *.Cu *.Mask))
  (pad 5 thru_hole oval (at 20 0) (size 1.5 3) (drill 1) (layers *.Cu *.Mask))
  (pad 5 thru_hole oval (at 20 -5) (size 1.5 3) (drill 1) (layers *.Cu *.Mask))
  (pad 6 thru_hole oval (at 25 0) (size 1.5 3) (drill 1) (layers *.Cu *.Mask))
  (pad 6 thru_hole oval (at 25 -5) (size 1.5 3) (drill 1) (layers *.Cu *.Mask))
  (pad 7 thru_hole oval (at 30 0) (size 1.5 3) (drill 1) (layers *.Cu *.Mask))
  (pad 7 thru_hole oval (at 30 -5) (size 1.5 3) (drill 1) (layers *.Cu *.Mask))
  (pad 8 thru_hole oval (at 35 0) (size 1.5 3) (drill 1) (layers *.Cu *.Mask))
  (pad 8 thru_hole oval (at 35 -5) (size 1.5 3) (drill 1) (layers *.Cu *.Mask))
  (pad 9 thru_hole oval (at 40 0) (size 1.5 3) (drill 1) (layers *.Cu *.Mask))
  (pad 9 thru_hole oval (at 40 -5) (size 1.5 3) (drill 1) (layers *.Cu *.Mask))
  (pad 10 thru_hole oval (at 45 0) (size 1.5 3) (drill 1) (layers *.Cu *.Mask))
  (pad 10 thru_hole oval (at 45 -5) (size 1.5 3) (drill 1) (layers *.Cu *.Mask))
  (pad 11 thru_hole oval (at 50 0) (size 1.5 3) (drill 1) (layers *.Cu *.Mask))
  (pad 11 thru_hole oval (at 50 -5) (size 1.5 3) (drill 1) (layers *.Cu *.Mask))
  (pad 12 thru_hole oval (at 55 0) (size 1.5 3) (drill 1) (layers *.Cu *.Mask))
  (pad 12 thru_hole oval (at 55 -5) (size 1.5 3) (drill 1) (layers *.Cu *.Mask))
  (fp_text user %R (at 27.25 -4) (layer F.Fab)
    (effects (font (size 1 1) (thickness 0.15)))
  )
  (model ${KIPRJMOD}/kicad_libs_k/models_k.3d/TerminalBlock_WAGO_k.3dshapes/TerminalBlock_WAGO_236-112_1x12_P5.00mm_45Degree_k.wrl
    (at (xyz 0 0 0))
    (scale (xyz 1 1 1))
    (rotate (xyz 0 0 0))
  )
)