(module PinSocket_1x02_P1.00mm_Vertical (layer F.Cu) (tedit 5A19A428)
  (descr "Through hole straight socket strip, 1x02, 1.00mm pitch, single row (https://gct.co/files/drawings/bc065.pdf), script generated")
  (tags "Through hole socket strip THT 1x02 1.00mm single row")
  (fp_text reference REF** (at -0.29 -2.25) (layer F.SilkS)
    (effects (font (size 1 1) (thickness 0.15)))
  )
  (fp_text value PinSocket_1x02_P1.00mm_Vertical (at -0.29 3.25) (layer F.Fab)
    (effects (font (size 1 1) (thickness 0.15)))
  )
  (fp_line (start -1.04 -0.75) (end 0.085 -0.75) (layer F.Fab) (width 0.1))
  (fp_line (start 0.085 -0.75) (end 0.46 -0.375) (layer F.Fab) (width 0.1))
  (fp_line (start 0.46 -0.375) (end 0.46 1.75) (layer F.Fab) (width 0.1))
  (fp_line (start 0.46 1.75) (end -1.04 1.75) (layer F.Fab) (width 0.1))
  (fp_line (start -1.04 1.75) (end -1.04 -0.75) (layer F.Fab) (width 0.1))
  (fp_line (start -1.1 0.5) (end -0.685 0.5) (layer F.SilkS) (width 0.12))
  (fp_line (start -1.1 0.5) (end -1.1 1.81) (layer F.SilkS) (width 0.12))
  (fp_line (start -1.1 1.81) (end 0.52 1.81) (layer F.SilkS) (width 0.12))
  (fp_line (start 0.52 1.445898) (end 0.52 1.81) (layer F.SilkS) (width 0.12))
  (fp_line (start 0.685 -0.81) (end 0.685 0) (layer F.SilkS) (width 0.12))
  (fp_line (start 0 -0.81) (end 0.685 -0.81) (layer F.SilkS) (width 0.12))
  (fp_line (start -1.54 -1.25) (end 0.96 -1.25) (layer F.CrtYd) (width 0.05))
  (fp_line (start 0.96 -1.25) (end 0.96 2.25) (layer F.CrtYd) (width 0.05))
  (fp_line (start 0.96 2.25) (end -1.54 2.25) (layer F.CrtYd) (width 0.05))
  (fp_line (start -1.54 2.25) (end -1.54 -1.25) (layer F.CrtYd) (width 0.05))
  (pad 1 thru_hole rect (at 0 0) (size 0.85 0.85) (drill 0.5) (layers *.Cu *.Mask))
  (pad 2 thru_hole oval (at 0 1) (size 0.85 0.85) (drill 0.5) (layers *.Cu *.Mask))
  (fp_text user %R (at -0.29 0.5 90) (layer F.Fab)
    (effects (font (size 0.9 0.9) (thickness 0.14)))
  )
  (model ${KIPRJMOD}/kicad_libs_k/models_k.3d/Connector_PinSocket_1.00mm_k.3dshapes/PinSocket_1x02_P1.00mm_Vertical_k.wrl
    (at (xyz 0 0 0))
    (scale (xyz 1 1 1))
    (rotate (xyz 0 0 0))
  )
)