(module PinSocket_2x27_P1.00mm_Vertical_SMD (layer F.Cu) (tedit 5A19A428)
  (descr "surface-mounted straight socket strip, 2x27, 1.00mm pitch, double cols (https://gct.co/files/drawings/bc085.pdf), script generated")
  (tags "Surface mounted socket strip SMD 2x27 1.00mm double row")
  (attr smd)
  (fp_text reference REF** (at 0 -15.25) (layer F.SilkS)
    (effects (font (size 1 1) (thickness 0.15)))
  )
  (fp_text value PinSocket_2x27_P1.00mm_Vertical_SMD (at 0 15.25) (layer F.Fab)
    (effects (font (size 1 1) (thickness 0.15)))
  )
  (fp_line (start -1.31 -13.81) (end 1.31 -13.81) (layer F.SilkS) (width 0.12))
  (fp_line (start 1.31 -13.81) (end 1.31 -13.51) (layer F.SilkS) (width 0.12))
  (fp_line (start 1.31 13.51) (end 1.31 13.81) (layer F.SilkS) (width 0.12))
  (fp_line (start -1.31 13.81) (end 1.31 13.81) (layer F.SilkS) (width 0.12))
  (fp_line (start -1.31 -13.81) (end -1.31 -13.51) (layer F.SilkS) (width 0.12))
  (fp_line (start -1.31 13.51) (end -1.31 13.81) (layer F.SilkS) (width 0.12))
  (fp_line (start 1.31 -13.51) (end 2.39 -13.51) (layer F.SilkS) (width 0.12))
  (fp_line (start -1.25 -13.75) (end 0.625 -13.75) (layer F.Fab) (width 0.1))
  (fp_line (start 0.625 -13.75) (end 1.25 -13.125) (layer F.Fab) (width 0.1))
  (fp_line (start 1.25 -13.125) (end 1.25 13.75) (layer F.Fab) (width 0.1))
  (fp_line (start 1.25 13.75) (end -1.25 13.75) (layer F.Fab) (width 0.1))
  (fp_line (start -1.25 13.75) (end -1.25 -13.75) (layer F.Fab) (width 0.1))
  (fp_line (start -1.95 -13.15) (end -1.25 -13.15) (layer F.Fab) (width 0.1))
  (fp_line (start -1.25 -12.85) (end -1.95 -12.85) (layer F.Fab) (width 0.1))
  (fp_line (start -1.95 -12.85) (end -1.95 -13.15) (layer F.Fab) (width 0.1))
  (fp_line (start 1.25 -13.15) (end 1.95 -13.15) (layer F.Fab) (width 0.1))
  (fp_line (start 1.95 -13.15) (end 1.95 -12.85) (layer F.Fab) (width 0.1))
  (fp_line (start 1.95 -12.85) (end 1.25 -12.85) (layer F.Fab) (width 0.1))
  (fp_line (start -1.95 -12.15) (end -1.25 -12.15) (layer F.Fab) (width 0.1))
  (fp_line (start -1.25 -11.85) (end -1.95 -11.85) (layer F.Fab) (width 0.1))
  (fp_line (start -1.95 -11.85) (end -1.95 -12.15) (layer F.Fab) (width 0.1))
  (fp_line (start 1.25 -12.15) (end 1.95 -12.15) (layer F.Fab) (width 0.1))
  (fp_line (start 1.95 -12.15) (end 1.95 -11.85) (layer F.Fab) (width 0.1))
  (fp_line (start 1.95 -11.85) (end 1.25 -11.85) (layer F.Fab) (width 0.1))
  (fp_line (start -1.95 -11.15) (end -1.25 -11.15) (layer F.Fab) (width 0.1))
  (fp_line (start -1.25 -10.85) (end -1.95 -10.85) (layer F.Fab) (width 0.1))
  (fp_line (start -1.95 -10.85) (end -1.95 -11.15) (layer F.Fab) (width 0.1))
  (fp_line (start 1.25 -11.15) (end 1.95 -11.15) (layer F.Fab) (width 0.1))
  (fp_line (start 1.95 -11.15) (end 1.95 -10.85) (layer F.Fab) (width 0.1))
  (fp_line (start 1.95 -10.85) (end 1.25 -10.85) (layer F.Fab) (width 0.1))
  (fp_line (start -1.95 -10.15) (end -1.25 -10.15) (layer F.Fab) (width 0.1))
  (fp_line (start -1.25 -9.85) (end -1.95 -9.85) (layer F.Fab) (width 0.1))
  (fp_line (start -1.95 -9.85) (end -1.95 -10.15) (layer F.Fab) (width 0.1))
  (fp_line (start 1.25 -10.15) (end 1.95 -10.15) (layer F.Fab) (width 0.1))
  (fp_line (start 1.95 -10.15) (end 1.95 -9.85) (layer F.Fab) (width 0.1))
  (fp_line (start 1.95 -9.85) (end 1.25 -9.85) (layer F.Fab) (width 0.1))
  (fp_line (start -1.95 -9.15) (end -1.25 -9.15) (layer F.Fab) (width 0.1))
  (fp_line (start -1.25 -8.85) (end -1.95 -8.85) (layer F.Fab) (width 0.1))
  (fp_line (start -1.95 -8.85) (end -1.95 -9.15) (layer F.Fab) (width 0.1))
  (fp_line (start 1.25 -9.15) (end 1.95 -9.15) (layer F.Fab) (width 0.1))
  (fp_line (start 1.95 -9.15) (end 1.95 -8.85) (layer F.Fab) (width 0.1))
  (fp_line (start 1.95 -8.85) (end 1.25 -8.85) (layer F.Fab) (width 0.1))
  (fp_line (start -1.95 -8.15) (end -1.25 -8.15) (layer F.Fab) (width 0.1))
  (fp_line (start -1.25 -7.85) (end -1.95 -7.85) (layer F.Fab) (width 0.1))
  (fp_line (start -1.95 -7.85) (end -1.95 -8.15) (layer F.Fab) (width 0.1))
  (fp_line (start 1.25 -8.15) (end 1.95 -8.15) (layer F.Fab) (width 0.1))
  (fp_line (start 1.95 -8.15) (end 1.95 -7.85) (layer F.Fab) (width 0.1))
  (fp_line (start 1.95 -7.85) (end 1.25 -7.85) (layer F.Fab) (width 0.1))
  (fp_line (start -1.95 -7.15) (end -1.25 -7.15) (layer F.Fab) (width 0.1))
  (fp_line (start -1.25 -6.85) (end -1.95 -6.85) (layer F.Fab) (width 0.1))
  (fp_line (start -1.95 -6.85) (end -1.95 -7.15) (layer F.Fab) (width 0.1))
  (fp_line (start 1.25 -7.15) (end 1.95 -7.15) (layer F.Fab) (width 0.1))
  (fp_line (start 1.95 -7.15) (end 1.95 -6.85) (layer F.Fab) (width 0.1))
  (fp_line (start 1.95 -6.85) (end 1.25 -6.85) (layer F.Fab) (width 0.1))
  (fp_line (start -1.95 -6.15) (end -1.25 -6.15) (layer F.Fab) (width 0.1))
  (fp_line (start -1.25 -5.85) (end -1.95 -5.85) (layer F.Fab) (width 0.1))
  (fp_line (start -1.95 -5.85) (end -1.95 -6.15) (layer F.Fab) (width 0.1))
  (fp_line (start 1.25 -6.15) (end 1.95 -6.15) (layer F.Fab) (width 0.1))
  (fp_line (start 1.95 -6.15) (end 1.95 -5.85) (layer F.Fab) (width 0.1))
  (fp_line (start 1.95 -5.85) (end 1.25 -5.85) (layer F.Fab) (width 0.1))
  (fp_line (start -1.95 -5.15) (end -1.25 -5.15) (layer F.Fab) (width 0.1))
  (fp_line (start -1.25 -4.85) (end -1.95 -4.85) (layer F.Fab) (width 0.1))
  (fp_line (start -1.95 -4.85) (end -1.95 -5.15) (layer F.Fab) (width 0.1))
  (fp_line (start 1.25 -5.15) (end 1.95 -5.15) (layer F.Fab) (width 0.1))
  (fp_line (start 1.95 -5.15) (end 1.95 -4.85) (layer F.Fab) (width 0.1))
  (fp_line (start 1.95 -4.85) (end 1.25 -4.85) (layer F.Fab) (width 0.1))
  (fp_line (start -1.95 -4.15) (end -1.25 -4.15) (layer F.Fab) (width 0.1))
  (fp_line (start -1.25 -3.85) (end -1.95 -3.85) (layer F.Fab) (width 0.1))
  (fp_line (start -1.95 -3.85) (end -1.95 -4.15) (layer F.Fab) (width 0.1))
  (fp_line (start 1.25 -4.15) (end 1.95 -4.15) (layer F.Fab) (width 0.1))
  (fp_line (start 1.95 -4.15) (end 1.95 -3.85) (layer F.Fab) (width 0.1))
  (fp_line (start 1.95 -3.85) (end 1.25 -3.85) (layer F.Fab) (width 0.1))
  (fp_line (start -1.95 -3.15) (end -1.25 -3.15) (layer F.Fab) (width 0.1))
  (fp_line (start -1.25 -2.85) (end -1.95 -2.85) (layer F.Fab) (width 0.1))
  (fp_line (start -1.95 -2.85) (end -1.95 -3.15) (layer F.Fab) (width 0.1))
  (fp_line (start 1.25 -3.15) (end 1.95 -3.15) (layer F.Fab) (width 0.1))
  (fp_line (start 1.95 -3.15) (end 1.95 -2.85) (layer F.Fab) (width 0.1))
  (fp_line (start 1.95 -2.85) (end 1.25 -2.85) (layer F.Fab) (width 0.1))
  (fp_line (start -1.95 -2.15) (end -1.25 -2.15) (layer F.Fab) (width 0.1))
  (fp_line (start -1.25 -1.85) (end -1.95 -1.85) (layer F.Fab) (width 0.1))
  (fp_line (start -1.95 -1.85) (end -1.95 -2.15) (layer F.Fab) (width 0.1))
  (fp_line (start 1.25 -2.15) (end 1.95 -2.15) (layer F.Fab) (width 0.1))
  (fp_line (start 1.95 -2.15) (end 1.95 -1.85) (layer F.Fab) (width 0.1))
  (fp_line (start 1.95 -1.85) (end 1.25 -1.85) (layer F.Fab) (width 0.1))
  (fp_line (start -1.95 -1.15) (end -1.25 -1.15) (layer F.Fab) (width 0.1))
  (fp_line (start -1.25 -0.85) (end -1.95 -0.85) (layer F.Fab) (width 0.1))
  (fp_line (start -1.95 -0.85) (end -1.95 -1.15) (layer F.Fab) (width 0.1))
  (fp_line (start 1.25 -1.15) (end 1.95 -1.15) (layer F.Fab) (width 0.1))
  (fp_line (start 1.95 -1.15) (end 1.95 -0.85) (layer F.Fab) (width 0.1))
  (fp_line (start 1.95 -0.85) (end 1.25 -0.85) (layer F.Fab) (width 0.1))
  (fp_line (start -1.95 -0.15) (end -1.25 -0.15) (layer F.Fab) (width 0.1))
  (fp_line (start -1.25 0.15) (end -1.95 0.15) (layer F.Fab) (width 0.1))
  (fp_line (start -1.95 0.15) (end -1.95 -0.15) (layer F.Fab) (width 0.1))
  (fp_line (start 1.25 -0.15) (end 1.95 -0.15) (layer F.Fab) (width 0.1))
  (fp_line (start 1.95 -0.15) (end 1.95 0.15) (layer F.Fab) (width 0.1))
  (fp_line (start 1.95 0.15) (end 1.25 0.15) (layer F.Fab) (width 0.1))
  (fp_line (start -1.95 0.85) (end -1.25 0.85) (layer F.Fab) (width 0.1))
  (fp_line (start -1.25 1.15) (end -1.95 1.15) (layer F.Fab) (width 0.1))
  (fp_line (start -1.95 1.15) (end -1.95 0.85) (layer F.Fab) (width 0.1))
  (fp_line (start 1.25 0.85) (end 1.95 0.85) (layer F.Fab) (width 0.1))
  (fp_line (start 1.95 0.85) (end 1.95 1.15) (layer F.Fab) (width 0.1))
  (fp_line (start 1.95 1.15) (end 1.25 1.15) (layer F.Fab) (width 0.1))
  (fp_line (start -1.95 1.85) (end -1.25 1.85) (layer F.Fab) (width 0.1))
  (fp_line (start -1.25 2.15) (end -1.95 2.15) (layer F.Fab) (width 0.1))
  (fp_line (start -1.95 2.15) (end -1.95 1.85) (layer F.Fab) (width 0.1))
  (fp_line (start 1.25 1.85) (end 1.95 1.85) (layer F.Fab) (width 0.1))
  (fp_line (start 1.95 1.85) (end 1.95 2.15) (layer F.Fab) (width 0.1))
  (fp_line (start 1.95 2.15) (end 1.25 2.15) (layer F.Fab) (width 0.1))
  (fp_line (start -1.95 2.85) (end -1.25 2.85) (layer F.Fab) (width 0.1))
  (fp_line (start -1.25 3.15) (end -1.95 3.15) (layer F.Fab) (width 0.1))
  (fp_line (start -1.95 3.15) (end -1.95 2.85) (layer F.Fab) (width 0.1))
  (fp_line (start 1.25 2.85) (end 1.95 2.85) (layer F.Fab) (width 0.1))
  (fp_line (start 1.95 2.85) (end 1.95 3.15) (layer F.Fab) (width 0.1))
  (fp_line (start 1.95 3.15) (end 1.25 3.15) (layer F.Fab) (width 0.1))
  (fp_line (start -1.95 3.85) (end -1.25 3.85) (layer F.Fab) (width 0.1))
  (fp_line (start -1.25 4.15) (end -1.95 4.15) (layer F.Fab) (width 0.1))
  (fp_line (start -1.95 4.15) (end -1.95 3.85) (layer F.Fab) (width 0.1))
  (fp_line (start 1.25 3.85) (end 1.95 3.85) (layer F.Fab) (width 0.1))
  (fp_line (start 1.95 3.85) (end 1.95 4.15) (layer F.Fab) (width 0.1))
  (fp_line (start 1.95 4.15) (end 1.25 4.15) (layer F.Fab) (width 0.1))
  (fp_line (start -1.95 4.85) (end -1.25 4.85) (layer F.Fab) (width 0.1))
  (fp_line (start -1.25 5.15) (end -1.95 5.15) (layer F.Fab) (width 0.1))
  (fp_line (start -1.95 5.15) (end -1.95 4.85) (layer F.Fab) (width 0.1))
  (fp_line (start 1.25 4.85) (end 1.95 4.85) (layer F.Fab) (width 0.1))
  (fp_line (start 1.95 4.85) (end 1.95 5.15) (layer F.Fab) (width 0.1))
  (fp_line (start 1.95 5.15) (end 1.25 5.15) (layer F.Fab) (width 0.1))
  (fp_line (start -1.95 5.85) (end -1.25 5.85) (layer F.Fab) (width 0.1))
  (fp_line (start -1.25 6.15) (end -1.95 6.15) (layer F.Fab) (width 0.1))
  (fp_line (start -1.95 6.15) (end -1.95 5.85) (layer F.Fab) (width 0.1))
  (fp_line (start 1.25 5.85) (end 1.95 5.85) (layer F.Fab) (width 0.1))
  (fp_line (start 1.95 5.85) (end 1.95 6.15) (layer F.Fab) (width 0.1))
  (fp_line (start 1.95 6.15) (end 1.25 6.15) (layer F.Fab) (width 0.1))
  (fp_line (start -1.95 6.85) (end -1.25 6.85) (layer F.Fab) (width 0.1))
  (fp_line (start -1.25 7.15) (end -1.95 7.15) (layer F.Fab) (width 0.1))
  (fp_line (start -1.95 7.15) (end -1.95 6.85) (layer F.Fab) (width 0.1))
  (fp_line (start 1.25 6.85) (end 1.95 6.85) (layer F.Fab) (width 0.1))
  (fp_line (start 1.95 6.85) (end 1.95 7.15) (layer F.Fab) (width 0.1))
  (fp_line (start 1.95 7.15) (end 1.25 7.15) (layer F.Fab) (width 0.1))
  (fp_line (start -1.95 7.85) (end -1.25 7.85) (layer F.Fab) (width 0.1))
  (fp_line (start -1.25 8.15) (end -1.95 8.15) (layer F.Fab) (width 0.1))
  (fp_line (start -1.95 8.15) (end -1.95 7.85) (layer F.Fab) (width 0.1))
  (fp_line (start 1.25 7.85) (end 1.95 7.85) (layer F.Fab) (width 0.1))
  (fp_line (start 1.95 7.85) (end 1.95 8.15) (layer F.Fab) (width 0.1))
  (fp_line (start 1.95 8.15) (end 1.25 8.15) (layer F.Fab) (width 0.1))
  (fp_line (start -1.95 8.85) (end -1.25 8.85) (layer F.Fab) (width 0.1))
  (fp_line (start -1.25 9.15) (end -1.95 9.15) (layer F.Fab) (width 0.1))
  (fp_line (start -1.95 9.15) (end -1.95 8.85) (layer F.Fab) (width 0.1))
  (fp_line (start 1.25 8.85) (end 1.95 8.85) (layer F.Fab) (width 0.1))
  (fp_line (start 1.95 8.85) (end 1.95 9.15) (layer F.Fab) (width 0.1))
  (fp_line (start 1.95 9.15) (end 1.25 9.15) (layer F.Fab) (width 0.1))
  (fp_line (start -1.95 9.85) (end -1.25 9.85) (layer F.Fab) (width 0.1))
  (fp_line (start -1.25 10.15) (end -1.95 10.15) (layer F.Fab) (width 0.1))
  (fp_line (start -1.95 10.15) (end -1.95 9.85) (layer F.Fab) (width 0.1))
  (fp_line (start 1.25 9.85) (end 1.95 9.85) (layer F.Fab) (width 0.1))
  (fp_line (start 1.95 9.85) (end 1.95 10.15) (layer F.Fab) (width 0.1))
  (fp_line (start 1.95 10.15) (end 1.25 10.15) (layer F.Fab) (width 0.1))
  (fp_line (start -1.95 10.85) (end -1.25 10.85) (layer F.Fab) (width 0.1))
  (fp_line (start -1.25 11.15) (end -1.95 11.15) (layer F.Fab) (width 0.1))
  (fp_line (start -1.95 11.15) (end -1.95 10.85) (layer F.Fab) (width 0.1))
  (fp_line (start 1.25 10.85) (end 1.95 10.85) (layer F.Fab) (width 0.1))
  (fp_line (start 1.95 10.85) (end 1.95 11.15) (layer F.Fab) (width 0.1))
  (fp_line (start 1.95 11.15) (end 1.25 11.15) (layer F.Fab) (width 0.1))
  (fp_line (start -1.95 11.85) (end -1.25 11.85) (layer F.Fab) (width 0.1))
  (fp_line (start -1.25 12.15) (end -1.95 12.15) (layer F.Fab) (width 0.1))
  (fp_line (start -1.95 12.15) (end -1.95 11.85) (layer F.Fab) (width 0.1))
  (fp_line (start 1.25 11.85) (end 1.95 11.85) (layer F.Fab) (width 0.1))
  (fp_line (start 1.95 11.85) (end 1.95 12.15) (layer F.Fab) (width 0.1))
  (fp_line (start 1.95 12.15) (end 1.25 12.15) (layer F.Fab) (width 0.1))
  (fp_line (start -1.95 12.85) (end -1.25 12.85) (layer F.Fab) (width 0.1))
  (fp_line (start -1.25 13.15) (end -1.95 13.15) (layer F.Fab) (width 0.1))
  (fp_line (start -1.95 13.15) (end -1.95 12.85) (layer F.Fab) (width 0.1))
  (fp_line (start 1.25 12.85) (end 1.95 12.85) (layer F.Fab) (width 0.1))
  (fp_line (start 1.95 12.85) (end 1.95 13.15) (layer F.Fab) (width 0.1))
  (fp_line (start 1.95 13.15) (end 1.25 13.15) (layer F.Fab) (width 0.1))
  (fp_line (start -2.95 -14.25) (end 2.95 -14.25) (layer F.CrtYd) (width 0.05))
  (fp_line (start 2.95 -14.25) (end 2.95 14.25) (layer F.CrtYd) (width 0.05))
  (fp_line (start 2.95 14.25) (end -2.95 14.25) (layer F.CrtYd) (width 0.05))
  (fp_line (start -2.95 14.25) (end -2.95 -14.25) (layer F.CrtYd) (width 0.05))
  (pad 1 smd rect (at 1.525 -13) (size 1.85 0.5) (layers F.Cu F.Mask F.Paste))
  (pad 2 smd rect (at -1.525 -13) (size 1.85 0.5) (layers F.Cu F.Mask F.Paste))
  (pad 3 smd rect (at 1.525 -12) (size 1.85 0.5) (layers F.Cu F.Mask F.Paste))
  (pad 4 smd rect (at -1.525 -12) (size 1.85 0.5) (layers F.Cu F.Mask F.Paste))
  (pad 5 smd rect (at 1.525 -11) (size 1.85 0.5) (layers F.Cu F.Mask F.Paste))
  (pad 6 smd rect (at -1.525 -11) (size 1.85 0.5) (layers F.Cu F.Mask F.Paste))
  (pad 7 smd rect (at 1.525 -10) (size 1.85 0.5) (layers F.Cu F.Mask F.Paste))
  (pad 8 smd rect (at -1.525 -10) (size 1.85 0.5) (layers F.Cu F.Mask F.Paste))
  (pad 9 smd rect (at 1.525 -9) (size 1.85 0.5) (layers F.Cu F.Mask F.Paste))
  (pad 10 smd rect (at -1.525 -9) (size 1.85 0.5) (layers F.Cu F.Mask F.Paste))
  (pad 11 smd rect (at 1.525 -8) (size 1.85 0.5) (layers F.Cu F.Mask F.Paste))
  (pad 12 smd rect (at -1.525 -8) (size 1.85 0.5) (layers F.Cu F.Mask F.Paste))
  (pad 13 smd rect (at 1.525 -7) (size 1.85 0.5) (layers F.Cu F.Mask F.Paste))
  (pad 14 smd rect (at -1.525 -7) (size 1.85 0.5) (layers F.Cu F.Mask F.Paste))
  (pad 15 smd rect (at 1.525 -6) (size 1.85 0.5) (layers F.Cu F.Mask F.Paste))
  (pad 16 smd rect (at -1.525 -6) (size 1.85 0.5) (layers F.Cu F.Mask F.Paste))
  (pad 17 smd rect (at 1.525 -5) (size 1.85 0.5) (layers F.Cu F.Mask F.Paste))
  (pad 18 smd rect (at -1.525 -5) (size 1.85 0.5) (layers F.Cu F.Mask F.Paste))
  (pad 19 smd rect (at 1.525 -4) (size 1.85 0.5) (layers F.Cu F.Mask F.Paste))
  (pad 20 smd rect (at -1.525 -4) (size 1.85 0.5) (layers F.Cu F.Mask F.Paste))
  (pad 21 smd rect (at 1.525 -3) (size 1.85 0.5) (layers F.Cu F.Mask F.Paste))
  (pad 22 smd rect (at -1.525 -3) (size 1.85 0.5) (layers F.Cu F.Mask F.Paste))
  (pad 23 smd rect (at 1.525 -2) (size 1.85 0.5) (layers F.Cu F.Mask F.Paste))
  (pad 24 smd rect (at -1.525 -2) (size 1.85 0.5) (layers F.Cu F.Mask F.Paste))
  (pad 25 smd rect (at 1.525 -1) (size 1.85 0.5) (layers F.Cu F.Mask F.Paste))
  (pad 26 smd rect (at -1.525 -1) (size 1.85 0.5) (layers F.Cu F.Mask F.Paste))
  (pad 27 smd rect (at 1.525 0) (size 1.85 0.5) (layers F.Cu F.Mask F.Paste))
  (pad 28 smd rect (at -1.525 0) (size 1.85 0.5) (layers F.Cu F.Mask F.Paste))
  (pad 29 smd rect (at 1.525 1) (size 1.85 0.5) (layers F.Cu F.Mask F.Paste))
  (pad 30 smd rect (at -1.525 1) (size 1.85 0.5) (layers F.Cu F.Mask F.Paste))
  (pad 31 smd rect (at 1.525 2) (size 1.85 0.5) (layers F.Cu F.Mask F.Paste))
  (pad 32 smd rect (at -1.525 2) (size 1.85 0.5) (layers F.Cu F.Mask F.Paste))
  (pad 33 smd rect (at 1.525 3) (size 1.85 0.5) (layers F.Cu F.Mask F.Paste))
  (pad 34 smd rect (at -1.525 3) (size 1.85 0.5) (layers F.Cu F.Mask F.Paste))
  (pad 35 smd rect (at 1.525 4) (size 1.85 0.5) (layers F.Cu F.Mask F.Paste))
  (pad 36 smd rect (at -1.525 4) (size 1.85 0.5) (layers F.Cu F.Mask F.Paste))
  (pad 37 smd rect (at 1.525 5) (size 1.85 0.5) (layers F.Cu F.Mask F.Paste))
  (pad 38 smd rect (at -1.525 5) (size 1.85 0.5) (layers F.Cu F.Mask F.Paste))
  (pad 39 smd rect (at 1.525 6) (size 1.85 0.5) (layers F.Cu F.Mask F.Paste))
  (pad 40 smd rect (at -1.525 6) (size 1.85 0.5) (layers F.Cu F.Mask F.Paste))
  (pad 41 smd rect (at 1.525 7) (size 1.85 0.5) (layers F.Cu F.Mask F.Paste))
  (pad 42 smd rect (at -1.525 7) (size 1.85 0.5) (layers F.Cu F.Mask F.Paste))
  (pad 43 smd rect (at 1.525 8) (size 1.85 0.5) (layers F.Cu F.Mask F.Paste))
  (pad 44 smd rect (at -1.525 8) (size 1.85 0.5) (layers F.Cu F.Mask F.Paste))
  (pad 45 smd rect (at 1.525 9) (size 1.85 0.5) (layers F.Cu F.Mask F.Paste))
  (pad 46 smd rect (at -1.525 9) (size 1.85 0.5) (layers F.Cu F.Mask F.Paste))
  (pad 47 smd rect (at 1.525 10) (size 1.85 0.5) (layers F.Cu F.Mask F.Paste))
  (pad 48 smd rect (at -1.525 10) (size 1.85 0.5) (layers F.Cu F.Mask F.Paste))
  (pad 49 smd rect (at 1.525 11) (size 1.85 0.5) (layers F.Cu F.Mask F.Paste))
  (pad 50 smd rect (at -1.525 11) (size 1.85 0.5) (layers F.Cu F.Mask F.Paste))
  (pad 51 smd rect (at 1.525 12) (size 1.85 0.5) (layers F.Cu F.Mask F.Paste))
  (pad 52 smd rect (at -1.525 12) (size 1.85 0.5) (layers F.Cu F.Mask F.Paste))
  (pad 53 smd rect (at 1.525 13) (size 1.85 0.5) (layers F.Cu F.Mask F.Paste))
  (pad 54 smd rect (at -1.525 13) (size 1.85 0.5) (layers F.Cu F.Mask F.Paste))
  (fp_text user %R (at 0 0 90) (layer F.Fab)
    (effects (font (size 1 1) (thickness 0.15)))
  )
  (model ${KIPRJMOD}/kicad_libs_k/models_k.3d/Connector_PinSocket_1.00mm_k.3dshapes/PinSocket_2x27_P1.00mm_Vertical_SMD_k.wrl
    (at (xyz 0 0 0))
    (scale (xyz 1 1 1))
    (rotate (xyz 0 0 0))
  )
)