(module PinSocket_2x15_P1.00mm_Vertical_SMD (layer F.Cu) (tedit 5A19A41F)
  (descr "surface-mounted straight socket strip, 2x15, 1.00mm pitch, double cols (https://gct.co/files/drawings/bc085.pdf), script generated")
  (tags "Surface mounted socket strip SMD 2x15 1.00mm double row")
  (attr smd)
  (fp_text reference REF** (at 0 -9.25) (layer F.SilkS)
    (effects (font (size 1 1) (thickness 0.15)))
  )
  (fp_text value PinSocket_2x15_P1.00mm_Vertical_SMD (at 0 9.25) (layer F.Fab)
    (effects (font (size 1 1) (thickness 0.15)))
  )
  (fp_line (start -1.31 -7.81) (end 1.31 -7.81) (layer F.SilkS) (width 0.12))
  (fp_line (start 1.31 -7.81) (end 1.31 -7.51) (layer F.SilkS) (width 0.12))
  (fp_line (start 1.31 7.51) (end 1.31 7.81) (layer F.SilkS) (width 0.12))
  (fp_line (start -1.31 7.81) (end 1.31 7.81) (layer F.SilkS) (width 0.12))
  (fp_line (start -1.31 -7.81) (end -1.31 -7.51) (layer F.SilkS) (width 0.12))
  (fp_line (start -1.31 7.51) (end -1.31 7.81) (layer F.SilkS) (width 0.12))
  (fp_line (start 1.31 -7.51) (end 2.39 -7.51) (layer F.SilkS) (width 0.12))
  (fp_line (start -1.25 -7.75) (end 0.625 -7.75) (layer F.Fab) (width 0.1))
  (fp_line (start 0.625 -7.75) (end 1.25 -7.125) (layer F.Fab) (width 0.1))
  (fp_line (start 1.25 -7.125) (end 1.25 7.75) (layer F.Fab) (width 0.1))
  (fp_line (start 1.25 7.75) (end -1.25 7.75) (layer F.Fab) (width 0.1))
  (fp_line (start -1.25 7.75) (end -1.25 -7.75) (layer F.Fab) (width 0.1))
  (fp_line (start -1.95 -7.15) (end -1.25 -7.15) (layer F.Fab) (width 0.1))
  (fp_line (start -1.25 -6.85) (end -1.95 -6.85) (layer F.Fab) (width 0.1))
  (fp_line (start -1.95 -6.85) (end -1.95 -7.15) (layer F.Fab) (width 0.1))
  (fp_line (start 1.25 -7.15) (end 1.95 -7.15) (layer F.Fab) (width 0.1))
  (fp_line (start 1.95 -7.15) (end 1.95 -6.85) (layer F.Fab) (width 0.1))
  (fp_line (start 1.95 -6.85) (end 1.25 -6.85) (layer F.Fab) (width 0.1))
  (fp_line (start -1.95 -6.15) (end -1.25 -6.15) (layer F.Fab) (width 0.1))
  (fp_line (start -1.25 -5.85) (end -1.95 -5.85) (layer F.Fab) (width 0.1))
  (fp_line (start -1.95 -5.85) (end -1.95 -6.15) (layer F.Fab) (width 0.1))
  (fp_line (start 1.25 -6.15) (end 1.95 -6.15) (layer F.Fab) (width 0.1))
  (fp_line (start 1.95 -6.15) (end 1.95 -5.85) (layer F.Fab) (width 0.1))
  (fp_line (start 1.95 -5.85) (end 1.25 -5.85) (layer F.Fab) (width 0.1))
  (fp_line (start -1.95 -5.15) (end -1.25 -5.15) (layer F.Fab) (width 0.1))
  (fp_line (start -1.25 -4.85) (end -1.95 -4.85) (layer F.Fab) (width 0.1))
  (fp_line (start -1.95 -4.85) (end -1.95 -5.15) (layer F.Fab) (width 0.1))
  (fp_line (start 1.25 -5.15) (end 1.95 -5.15) (layer F.Fab) (width 0.1))
  (fp_line (start 1.95 -5.15) (end 1.95 -4.85) (layer F.Fab) (width 0.1))
  (fp_line (start 1.95 -4.85) (end 1.25 -4.85) (layer F.Fab) (width 0.1))
  (fp_line (start -1.95 -4.15) (end -1.25 -4.15) (layer F.Fab) (width 0.1))
  (fp_line (start -1.25 -3.85) (end -1.95 -3.85) (layer F.Fab) (width 0.1))
  (fp_line (start -1.95 -3.85) (end -1.95 -4.15) (layer F.Fab) (width 0.1))
  (fp_line (start 1.25 -4.15) (end 1.95 -4.15) (layer F.Fab) (width 0.1))
  (fp_line (start 1.95 -4.15) (end 1.95 -3.85) (layer F.Fab) (width 0.1))
  (fp_line (start 1.95 -3.85) (end 1.25 -3.85) (layer F.Fab) (width 0.1))
  (fp_line (start -1.95 -3.15) (end -1.25 -3.15) (layer F.Fab) (width 0.1))
  (fp_line (start -1.25 -2.85) (end -1.95 -2.85) (layer F.Fab) (width 0.1))
  (fp_line (start -1.95 -2.85) (end -1.95 -3.15) (layer F.Fab) (width 0.1))
  (fp_line (start 1.25 -3.15) (end 1.95 -3.15) (layer F.Fab) (width 0.1))
  (fp_line (start 1.95 -3.15) (end 1.95 -2.85) (layer F.Fab) (width 0.1))
  (fp_line (start 1.95 -2.85) (end 1.25 -2.85) (layer F.Fab) (width 0.1))
  (fp_line (start -1.95 -2.15) (end -1.25 -2.15) (layer F.Fab) (width 0.1))
  (fp_line (start -1.25 -1.85) (end -1.95 -1.85) (layer F.Fab) (width 0.1))
  (fp_line (start -1.95 -1.85) (end -1.95 -2.15) (layer F.Fab) (width 0.1))
  (fp_line (start 1.25 -2.15) (end 1.95 -2.15) (layer F.Fab) (width 0.1))
  (fp_line (start 1.95 -2.15) (end 1.95 -1.85) (layer F.Fab) (width 0.1))
  (fp_line (start 1.95 -1.85) (end 1.25 -1.85) (layer F.Fab) (width 0.1))
  (fp_line (start -1.95 -1.15) (end -1.25 -1.15) (layer F.Fab) (width 0.1))
  (fp_line (start -1.25 -0.85) (end -1.95 -0.85) (layer F.Fab) (width 0.1))
  (fp_line (start -1.95 -0.85) (end -1.95 -1.15) (layer F.Fab) (width 0.1))
  (fp_line (start 1.25 -1.15) (end 1.95 -1.15) (layer F.Fab) (width 0.1))
  (fp_line (start 1.95 -1.15) (end 1.95 -0.85) (layer F.Fab) (width 0.1))
  (fp_line (start 1.95 -0.85) (end 1.25 -0.85) (layer F.Fab) (width 0.1))
  (fp_line (start -1.95 -0.15) (end -1.25 -0.15) (layer F.Fab) (width 0.1))
  (fp_line (start -1.25 0.15) (end -1.95 0.15) (layer F.Fab) (width 0.1))
  (fp_line (start -1.95 0.15) (end -1.95 -0.15) (layer F.Fab) (width 0.1))
  (fp_line (start 1.25 -0.15) (end 1.95 -0.15) (layer F.Fab) (width 0.1))
  (fp_line (start 1.95 -0.15) (end 1.95 0.15) (layer F.Fab) (width 0.1))
  (fp_line (start 1.95 0.15) (end 1.25 0.15) (layer F.Fab) (width 0.1))
  (fp_line (start -1.95 0.85) (end -1.25 0.85) (layer F.Fab) (width 0.1))
  (fp_line (start -1.25 1.15) (end -1.95 1.15) (layer F.Fab) (width 0.1))
  (fp_line (start -1.95 1.15) (end -1.95 0.85) (layer F.Fab) (width 0.1))
  (fp_line (start 1.25 0.85) (end 1.95 0.85) (layer F.Fab) (width 0.1))
  (fp_line (start 1.95 0.85) (end 1.95 1.15) (layer F.Fab) (width 0.1))
  (fp_line (start 1.95 1.15) (end 1.25 1.15) (layer F.Fab) (width 0.1))
  (fp_line (start -1.95 1.85) (end -1.25 1.85) (layer F.Fab) (width 0.1))
  (fp_line (start -1.25 2.15) (end -1.95 2.15) (layer F.Fab) (width 0.1))
  (fp_line (start -1.95 2.15) (end -1.95 1.85) (layer F.Fab) (width 0.1))
  (fp_line (start 1.25 1.85) (end 1.95 1.85) (layer F.Fab) (width 0.1))
  (fp_line (start 1.95 1.85) (end 1.95 2.15) (layer F.Fab) (width 0.1))
  (fp_line (start 1.95 2.15) (end 1.25 2.15) (layer F.Fab) (width 0.1))
  (fp_line (start -1.95 2.85) (end -1.25 2.85) (layer F.Fab) (width 0.1))
  (fp_line (start -1.25 3.15) (end -1.95 3.15) (layer F.Fab) (width 0.1))
  (fp_line (start -1.95 3.15) (end -1.95 2.85) (layer F.Fab) (width 0.1))
  (fp_line (start 1.25 2.85) (end 1.95 2.85) (layer F.Fab) (width 0.1))
  (fp_line (start 1.95 2.85) (end 1.95 3.15) (layer F.Fab) (width 0.1))
  (fp_line (start 1.95 3.15) (end 1.25 3.15) (layer F.Fab) (width 0.1))
  (fp_line (start -1.95 3.85) (end -1.25 3.85) (layer F.Fab) (width 0.1))
  (fp_line (start -1.25 4.15) (end -1.95 4.15) (layer F.Fab) (width 0.1))
  (fp_line (start -1.95 4.15) (end -1.95 3.85) (layer F.Fab) (width 0.1))
  (fp_line (start 1.25 3.85) (end 1.95 3.85) (layer F.Fab) (width 0.1))
  (fp_line (start 1.95 3.85) (end 1.95 4.15) (layer F.Fab) (width 0.1))
  (fp_line (start 1.95 4.15) (end 1.25 4.15) (layer F.Fab) (width 0.1))
  (fp_line (start -1.95 4.85) (end -1.25 4.85) (layer F.Fab) (width 0.1))
  (fp_line (start -1.25 5.15) (end -1.95 5.15) (layer F.Fab) (width 0.1))
  (fp_line (start -1.95 5.15) (end -1.95 4.85) (layer F.Fab) (width 0.1))
  (fp_line (start 1.25 4.85) (end 1.95 4.85) (layer F.Fab) (width 0.1))
  (fp_line (start 1.95 4.85) (end 1.95 5.15) (layer F.Fab) (width 0.1))
  (fp_line (start 1.95 5.15) (end 1.25 5.15) (layer F.Fab) (width 0.1))
  (fp_line (start -1.95 5.85) (end -1.25 5.85) (layer F.Fab) (width 0.1))
  (fp_line (start -1.25 6.15) (end -1.95 6.15) (layer F.Fab) (width 0.1))
  (fp_line (start -1.95 6.15) (end -1.95 5.85) (layer F.Fab) (width 0.1))
  (fp_line (start 1.25 5.85) (end 1.95 5.85) (layer F.Fab) (width 0.1))
  (fp_line (start 1.95 5.85) (end 1.95 6.15) (layer F.Fab) (width 0.1))
  (fp_line (start 1.95 6.15) (end 1.25 6.15) (layer F.Fab) (width 0.1))
  (fp_line (start -1.95 6.85) (end -1.25 6.85) (layer F.Fab) (width 0.1))
  (fp_line (start -1.25 7.15) (end -1.95 7.15) (layer F.Fab) (width 0.1))
  (fp_line (start -1.95 7.15) (end -1.95 6.85) (layer F.Fab) (width 0.1))
  (fp_line (start 1.25 6.85) (end 1.95 6.85) (layer F.Fab) (width 0.1))
  (fp_line (start 1.95 6.85) (end 1.95 7.15) (layer F.Fab) (width 0.1))
  (fp_line (start 1.95 7.15) (end 1.25 7.15) (layer F.Fab) (width 0.1))
  (fp_line (start -2.95 -8.25) (end 2.95 -8.25) (layer F.CrtYd) (width 0.05))
  (fp_line (start 2.95 -8.25) (end 2.95 8.25) (layer F.CrtYd) (width 0.05))
  (fp_line (start 2.95 8.25) (end -2.95 8.25) (layer F.CrtYd) (width 0.05))
  (fp_line (start -2.95 8.25) (end -2.95 -8.25) (layer F.CrtYd) (width 0.05))
  (pad 1 smd rect (at 1.525 -7) (size 1.85 0.5) (layers F.Cu F.Mask F.Paste))
  (pad 2 smd rect (at -1.525 -7) (size 1.85 0.5) (layers F.Cu F.Mask F.Paste))
  (pad 3 smd rect (at 1.525 -6) (size 1.85 0.5) (layers F.Cu F.Mask F.Paste))
  (pad 4 smd rect (at -1.525 -6) (size 1.85 0.5) (layers F.Cu F.Mask F.Paste))
  (pad 5 smd rect (at 1.525 -5) (size 1.85 0.5) (layers F.Cu F.Mask F.Paste))
  (pad 6 smd rect (at -1.525 -5) (size 1.85 0.5) (layers F.Cu F.Mask F.Paste))
  (pad 7 smd rect (at 1.525 -4) (size 1.85 0.5) (layers F.Cu F.Mask F.Paste))
  (pad 8 smd rect (at -1.525 -4) (size 1.85 0.5) (layers F.Cu F.Mask F.Paste))
  (pad 9 smd rect (at 1.525 -3) (size 1.85 0.5) (layers F.Cu F.Mask F.Paste))
  (pad 10 smd rect (at -1.525 -3) (size 1.85 0.5) (layers F.Cu F.Mask F.Paste))
  (pad 11 smd rect (at 1.525 -2) (size 1.85 0.5) (layers F.Cu F.Mask F.Paste))
  (pad 12 smd rect (at -1.525 -2) (size 1.85 0.5) (layers F.Cu F.Mask F.Paste))
  (pad 13 smd rect (at 1.525 -1) (size 1.85 0.5) (layers F.Cu F.Mask F.Paste))
  (pad 14 smd rect (at -1.525 -1) (size 1.85 0.5) (layers F.Cu F.Mask F.Paste))
  (pad 15 smd rect (at 1.525 0) (size 1.85 0.5) (layers F.Cu F.Mask F.Paste))
  (pad 16 smd rect (at -1.525 0) (size 1.85 0.5) (layers F.Cu F.Mask F.Paste))
  (pad 17 smd rect (at 1.525 1) (size 1.85 0.5) (layers F.Cu F.Mask F.Paste))
  (pad 18 smd rect (at -1.525 1) (size 1.85 0.5) (layers F.Cu F.Mask F.Paste))
  (pad 19 smd rect (at 1.525 2) (size 1.85 0.5) (layers F.Cu F.Mask F.Paste))
  (pad 20 smd rect (at -1.525 2) (size 1.85 0.5) (layers F.Cu F.Mask F.Paste))
  (pad 21 smd rect (at 1.525 3) (size 1.85 0.5) (layers F.Cu F.Mask F.Paste))
  (pad 22 smd rect (at -1.525 3) (size 1.85 0.5) (layers F.Cu F.Mask F.Paste))
  (pad 23 smd rect (at 1.525 4) (size 1.85 0.5) (layers F.Cu F.Mask F.Paste))
  (pad 24 smd rect (at -1.525 4) (size 1.85 0.5) (layers F.Cu F.Mask F.Paste))
  (pad 25 smd rect (at 1.525 5) (size 1.85 0.5) (layers F.Cu F.Mask F.Paste))
  (pad 26 smd rect (at -1.525 5) (size 1.85 0.5) (layers F.Cu F.Mask F.Paste))
  (pad 27 smd rect (at 1.525 6) (size 1.85 0.5) (layers F.Cu F.Mask F.Paste))
  (pad 28 smd rect (at -1.525 6) (size 1.85 0.5) (layers F.Cu F.Mask F.Paste))
  (pad 29 smd rect (at 1.525 7) (size 1.85 0.5) (layers F.Cu F.Mask F.Paste))
  (pad 30 smd rect (at -1.525 7) (size 1.85 0.5) (layers F.Cu F.Mask F.Paste))
  (fp_text user %R (at 0 0 90) (layer F.Fab)
    (effects (font (size 1 1) (thickness 0.15)))
  )
  (model ${KIPRJMOD}/kicad_libs_k/models_k.3d/Connector_PinSocket_1.00mm_k.3dshapes/PinSocket_2x15_P1.00mm_Vertical_SMD_k.wrl
    (at (xyz 0 0 0))
    (scale (xyz 1 1 1))
    (rotate (xyz 0 0 0))
  )
)