(module PinSocket_1x05_P1.00mm_Vertical_SMD_Pin1Left (layer F.Cu) (tedit 5A19A41C)
  (descr "surface-mounted straight socket strip, 1x05, 1.00mm pitch, single row, style 1 (pin 1 left) (https://gct.co/files/drawings/bc070.pdf), script generated")
  (tags "Surface mounted socket strip SMD 1x05 1.00mm single row style1 pin1 left")
  (attr smd)
  (fp_text reference REF** (at 0 -4.25) (layer F.SilkS)
    (effects (font (size 1 1) (thickness 0.15)))
  )
  (fp_text value PinSocket_1x05_P1.00mm_Vertical_SMD_Pin1Left (at 0 4.25) (layer F.Fab)
    (effects (font (size 1 1) (thickness 0.15)))
  )
  (fp_line (start -0.81 -2.81) (end 0.81 -2.81) (layer F.SilkS) (width 0.12))
  (fp_line (start 0.81 -2.81) (end 0.81 -1.51) (layer F.SilkS) (width 0.12))
  (fp_line (start 0.81 -0.49) (end 0.81 0.49) (layer F.SilkS) (width 0.12))
  (fp_line (start 0.81 1.51) (end 0.81 2.81) (layer F.SilkS) (width 0.12))
  (fp_line (start -0.81 2.81) (end 0.81 2.81) (layer F.SilkS) (width 0.12))
  (fp_line (start -0.81 -2.81) (end -0.81 -2.51) (layer F.SilkS) (width 0.12))
  (fp_line (start -0.81 -1.49) (end -0.81 -0.51) (layer F.SilkS) (width 0.12))
  (fp_line (start -0.81 0.51) (end -0.81 1.49) (layer F.SilkS) (width 0.12))
  (fp_line (start -0.81 2.51) (end -0.81 2.81) (layer F.SilkS) (width 0.12))
  (fp_line (start -1.89 -2.51) (end -0.81 -2.51) (layer F.SilkS) (width 0.12))
  (fp_line (start -0.375 -2.75) (end 0.75 -2.75) (layer F.Fab) (width 0.1))
  (fp_line (start 0.75 -2.75) (end 0.75 2.75) (layer F.Fab) (width 0.1))
  (fp_line (start 0.75 2.75) (end -0.75 2.75) (layer F.Fab) (width 0.1))
  (fp_line (start -0.75 2.75) (end -0.75 -2.375) (layer F.Fab) (width 0.1))
  (fp_line (start -0.75 -2.375) (end -0.375 -2.75) (layer F.Fab) (width 0.1))
  (fp_line (start -1.45 -2.15) (end -0.75 -2.15) (layer F.Fab) (width 0.1))
  (fp_line (start -0.75 -1.85) (end -1.45 -1.85) (layer F.Fab) (width 0.1))
  (fp_line (start -1.45 -1.85) (end -1.45 -2.15) (layer F.Fab) (width 0.1))
  (fp_line (start 0.75 -1.15) (end 1.45 -1.15) (layer F.Fab) (width 0.1))
  (fp_line (start 1.45 -1.15) (end 1.45 -0.85) (layer F.Fab) (width 0.1))
  (fp_line (start 1.45 -0.85) (end 0.75 -0.85) (layer F.Fab) (width 0.1))
  (fp_line (start -1.45 -0.15) (end -0.75 -0.15) (layer F.Fab) (width 0.1))
  (fp_line (start -0.75 0.15) (end -1.45 0.15) (layer F.Fab) (width 0.1))
  (fp_line (start -1.45 0.15) (end -1.45 -0.15) (layer F.Fab) (width 0.1))
  (fp_line (start 0.75 0.85) (end 1.45 0.85) (layer F.Fab) (width 0.1))
  (fp_line (start 1.45 0.85) (end 1.45 1.15) (layer F.Fab) (width 0.1))
  (fp_line (start 1.45 1.15) (end 0.75 1.15) (layer F.Fab) (width 0.1))
  (fp_line (start -1.45 1.85) (end -0.75 1.85) (layer F.Fab) (width 0.1))
  (fp_line (start -0.75 2.15) (end -1.45 2.15) (layer F.Fab) (width 0.1))
  (fp_line (start -1.45 2.15) (end -1.45 1.85) (layer F.Fab) (width 0.1))
  (fp_line (start -2.45 -3.25) (end 2.45 -3.25) (layer F.CrtYd) (width 0.05))
  (fp_line (start 2.45 -3.25) (end 2.45 3.25) (layer F.CrtYd) (width 0.05))
  (fp_line (start 2.45 3.25) (end -2.45 3.25) (layer F.CrtYd) (width 0.05))
  (fp_line (start -2.45 3.25) (end -2.45 -3.25) (layer F.CrtYd) (width 0.05))
  (pad 1 smd rect (at -0.975 -2) (size 1.95 0.5) (layers F.Cu F.Mask F.Paste))
  (pad 3 smd rect (at -0.975 0) (size 1.95 0.5) (layers F.Cu F.Mask F.Paste))
  (pad 5 smd rect (at -0.975 2) (size 1.95 0.5) (layers F.Cu F.Mask F.Paste))
  (pad 2 smd rect (at 0.975 -1) (size 1.95 0.5) (layers F.Cu F.Mask F.Paste))
  (pad 4 smd rect (at 0.975 1) (size 1.95 0.5) (layers F.Cu F.Mask F.Paste))
  (fp_text user %R (at 0 0 90) (layer F.Fab)
    (effects (font (size 0.9 0.9) (thickness 0.14)))
  )
  (model ${KIPRJMOD}/kicad_libs_k/models_k.3d/Connector_PinSocket_1.00mm_k.3dshapes/PinSocket_1x05_P1.00mm_Vertical_SMD_Pin1Left_k.wrl
    (at (xyz 0 0 0))
    (scale (xyz 1 1 1))
    (rotate (xyz 0 0 0))
  )
)