(module PinSocket_1x18_P1.00mm_Vertical_SMD_Pin1Left (layer F.Cu) (tedit 5A19A432)
  (descr "surface-mounted straight socket strip, 1x18, 1.00mm pitch, single row, style 1 (pin 1 left) (https://gct.co/files/drawings/bc070.pdf), script generated")
  (tags "Surface mounted socket strip SMD 1x18 1.00mm single row style1 pin1 left")
  (attr smd)
  (fp_text reference REF** (at 0 -10.75) (layer F.SilkS)
    (effects (font (size 1 1) (thickness 0.15)))
  )
  (fp_text value PinSocket_1x18_P1.00mm_Vertical_SMD_Pin1Left (at 0 10.75) (layer F.Fab)
    (effects (font (size 1 1) (thickness 0.15)))
  )
  (fp_line (start -0.81 -9.31) (end 0.81 -9.31) (layer F.SilkS) (width 0.12))
  (fp_line (start 0.81 -9.31) (end 0.81 -8.01) (layer F.SilkS) (width 0.12))
  (fp_line (start 0.81 -6.99) (end 0.81 -6.01) (layer F.SilkS) (width 0.12))
  (fp_line (start 0.81 -4.99) (end 0.81 -4.01) (layer F.SilkS) (width 0.12))
  (fp_line (start 0.81 -2.99) (end 0.81 -2.01) (layer F.SilkS) (width 0.12))
  (fp_line (start 0.81 -0.99) (end 0.81 -0.01) (layer F.SilkS) (width 0.12))
  (fp_line (start 0.81 1.01) (end 0.81 1.99) (layer F.SilkS) (width 0.12))
  (fp_line (start 0.81 3.01) (end 0.81 3.99) (layer F.SilkS) (width 0.12))
  (fp_line (start 0.81 5.01) (end 0.81 5.99) (layer F.SilkS) (width 0.12))
  (fp_line (start 0.81 7.01) (end 0.81 7.99) (layer F.SilkS) (width 0.12))
  (fp_line (start 0.81 9.01) (end 0.81 9.31) (layer F.SilkS) (width 0.12))
  (fp_line (start -0.81 9.31) (end 0.81 9.31) (layer F.SilkS) (width 0.12))
  (fp_line (start -0.81 -9.31) (end -0.81 -9.01) (layer F.SilkS) (width 0.12))
  (fp_line (start -0.81 -7.99) (end -0.81 -7.01) (layer F.SilkS) (width 0.12))
  (fp_line (start -0.81 -5.99) (end -0.81 -5.01) (layer F.SilkS) (width 0.12))
  (fp_line (start -0.81 -3.99) (end -0.81 -3.01) (layer F.SilkS) (width 0.12))
  (fp_line (start -0.81 -1.99) (end -0.81 -1.01) (layer F.SilkS) (width 0.12))
  (fp_line (start -0.81 0.01) (end -0.81 0.99) (layer F.SilkS) (width 0.12))
  (fp_line (start -0.81 2.01) (end -0.81 2.99) (layer F.SilkS) (width 0.12))
  (fp_line (start -0.81 4.01) (end -0.81 4.99) (layer F.SilkS) (width 0.12))
  (fp_line (start -0.81 6.01) (end -0.81 6.99) (layer F.SilkS) (width 0.12))
  (fp_line (start -0.81 8.01) (end -0.81 9.31) (layer F.SilkS) (width 0.12))
  (fp_line (start -1.89 -9.01) (end -0.81 -9.01) (layer F.SilkS) (width 0.12))
  (fp_line (start -0.375 -9.25) (end 0.75 -9.25) (layer F.Fab) (width 0.1))
  (fp_line (start 0.75 -9.25) (end 0.75 9.25) (layer F.Fab) (width 0.1))
  (fp_line (start 0.75 9.25) (end -0.75 9.25) (layer F.Fab) (width 0.1))
  (fp_line (start -0.75 9.25) (end -0.75 -8.875) (layer F.Fab) (width 0.1))
  (fp_line (start -0.75 -8.875) (end -0.375 -9.25) (layer F.Fab) (width 0.1))
  (fp_line (start -1.45 -8.65) (end -0.75 -8.65) (layer F.Fab) (width 0.1))
  (fp_line (start -0.75 -8.35) (end -1.45 -8.35) (layer F.Fab) (width 0.1))
  (fp_line (start -1.45 -8.35) (end -1.45 -8.65) (layer F.Fab) (width 0.1))
  (fp_line (start 0.75 -7.65) (end 1.45 -7.65) (layer F.Fab) (width 0.1))
  (fp_line (start 1.45 -7.65) (end 1.45 -7.35) (layer F.Fab) (width 0.1))
  (fp_line (start 1.45 -7.35) (end 0.75 -7.35) (layer F.Fab) (width 0.1))
  (fp_line (start -1.45 -6.65) (end -0.75 -6.65) (layer F.Fab) (width 0.1))
  (fp_line (start -0.75 -6.35) (end -1.45 -6.35) (layer F.Fab) (width 0.1))
  (fp_line (start -1.45 -6.35) (end -1.45 -6.65) (layer F.Fab) (width 0.1))
  (fp_line (start 0.75 -5.65) (end 1.45 -5.65) (layer F.Fab) (width 0.1))
  (fp_line (start 1.45 -5.65) (end 1.45 -5.35) (layer F.Fab) (width 0.1))
  (fp_line (start 1.45 -5.35) (end 0.75 -5.35) (layer F.Fab) (width 0.1))
  (fp_line (start -1.45 -4.65) (end -0.75 -4.65) (layer F.Fab) (width 0.1))
  (fp_line (start -0.75 -4.35) (end -1.45 -4.35) (layer F.Fab) (width 0.1))
  (fp_line (start -1.45 -4.35) (end -1.45 -4.65) (layer F.Fab) (width 0.1))
  (fp_line (start 0.75 -3.65) (end 1.45 -3.65) (layer F.Fab) (width 0.1))
  (fp_line (start 1.45 -3.65) (end 1.45 -3.35) (layer F.Fab) (width 0.1))
  (fp_line (start 1.45 -3.35) (end 0.75 -3.35) (layer F.Fab) (width 0.1))
  (fp_line (start -1.45 -2.65) (end -0.75 -2.65) (layer F.Fab) (width 0.1))
  (fp_line (start -0.75 -2.35) (end -1.45 -2.35) (layer F.Fab) (width 0.1))
  (fp_line (start -1.45 -2.35) (end -1.45 -2.65) (layer F.Fab) (width 0.1))
  (fp_line (start 0.75 -1.65) (end 1.45 -1.65) (layer F.Fab) (width 0.1))
  (fp_line (start 1.45 -1.65) (end 1.45 -1.35) (layer F.Fab) (width 0.1))
  (fp_line (start 1.45 -1.35) (end 0.75 -1.35) (layer F.Fab) (width 0.1))
  (fp_line (start -1.45 -0.65) (end -0.75 -0.65) (layer F.Fab) (width 0.1))
  (fp_line (start -0.75 -0.35) (end -1.45 -0.35) (layer F.Fab) (width 0.1))
  (fp_line (start -1.45 -0.35) (end -1.45 -0.65) (layer F.Fab) (width 0.1))
  (fp_line (start 0.75 0.35) (end 1.45 0.35) (layer F.Fab) (width 0.1))
  (fp_line (start 1.45 0.35) (end 1.45 0.65) (layer F.Fab) (width 0.1))
  (fp_line (start 1.45 0.65) (end 0.75 0.65) (layer F.Fab) (width 0.1))
  (fp_line (start -1.45 1.35) (end -0.75 1.35) (layer F.Fab) (width 0.1))
  (fp_line (start -0.75 1.65) (end -1.45 1.65) (layer F.Fab) (width 0.1))
  (fp_line (start -1.45 1.65) (end -1.45 1.35) (layer F.Fab) (width 0.1))
  (fp_line (start 0.75 2.35) (end 1.45 2.35) (layer F.Fab) (width 0.1))
  (fp_line (start 1.45 2.35) (end 1.45 2.65) (layer F.Fab) (width 0.1))
  (fp_line (start 1.45 2.65) (end 0.75 2.65) (layer F.Fab) (width 0.1))
  (fp_line (start -1.45 3.35) (end -0.75 3.35) (layer F.Fab) (width 0.1))
  (fp_line (start -0.75 3.65) (end -1.45 3.65) (layer F.Fab) (width 0.1))
  (fp_line (start -1.45 3.65) (end -1.45 3.35) (layer F.Fab) (width 0.1))
  (fp_line (start 0.75 4.35) (end 1.45 4.35) (layer F.Fab) (width 0.1))
  (fp_line (start 1.45 4.35) (end 1.45 4.65) (layer F.Fab) (width 0.1))
  (fp_line (start 1.45 4.65) (end 0.75 4.65) (layer F.Fab) (width 0.1))
  (fp_line (start -1.45 5.35) (end -0.75 5.35) (layer F.Fab) (width 0.1))
  (fp_line (start -0.75 5.65) (end -1.45 5.65) (layer F.Fab) (width 0.1))
  (fp_line (start -1.45 5.65) (end -1.45 5.35) (layer F.Fab) (width 0.1))
  (fp_line (start 0.75 6.35) (end 1.45 6.35) (layer F.Fab) (width 0.1))
  (fp_line (start 1.45 6.35) (end 1.45 6.65) (layer F.Fab) (width 0.1))
  (fp_line (start 1.45 6.65) (end 0.75 6.65) (layer F.Fab) (width 0.1))
  (fp_line (start -1.45 7.35) (end -0.75 7.35) (layer F.Fab) (width 0.1))
  (fp_line (start -0.75 7.65) (end -1.45 7.65) (layer F.Fab) (width 0.1))
  (fp_line (start -1.45 7.65) (end -1.45 7.35) (layer F.Fab) (width 0.1))
  (fp_line (start 0.75 8.35) (end 1.45 8.35) (layer F.Fab) (width 0.1))
  (fp_line (start 1.45 8.35) (end 1.45 8.65) (layer F.Fab) (width 0.1))
  (fp_line (start 1.45 8.65) (end 0.75 8.65) (layer F.Fab) (width 0.1))
  (fp_line (start -2.45 -9.75) (end 2.45 -9.75) (layer F.CrtYd) (width 0.05))
  (fp_line (start 2.45 -9.75) (end 2.45 9.75) (layer F.CrtYd) (width 0.05))
  (fp_line (start 2.45 9.75) (end -2.45 9.75) (layer F.CrtYd) (width 0.05))
  (fp_line (start -2.45 9.75) (end -2.45 -9.75) (layer F.CrtYd) (width 0.05))
  (pad 1 smd rect (at -0.975 -8.5) (size 1.95 0.5) (layers F.Cu F.Mask F.Paste))
  (pad 3 smd rect (at -0.975 -6.5) (size 1.95 0.5) (layers F.Cu F.Mask F.Paste))
  (pad 5 smd rect (at -0.975 -4.5) (size 1.95 0.5) (layers F.Cu F.Mask F.Paste))
  (pad 7 smd rect (at -0.975 -2.5) (size 1.95 0.5) (layers F.Cu F.Mask F.Paste))
  (pad 9 smd rect (at -0.975 -0.5) (size 1.95 0.5) (layers F.Cu F.Mask F.Paste))
  (pad 11 smd rect (at -0.975 1.5) (size 1.95 0.5) (layers F.Cu F.Mask F.Paste))
  (pad 13 smd rect (at -0.975 3.5) (size 1.95 0.5) (layers F.Cu F.Mask F.Paste))
  (pad 15 smd rect (at -0.975 5.5) (size 1.95 0.5) (layers F.Cu F.Mask F.Paste))
  (pad 17 smd rect (at -0.975 7.5) (size 1.95 0.5) (layers F.Cu F.Mask F.Paste))
  (pad 2 smd rect (at 0.975 -7.5) (size 1.95 0.5) (layers F.Cu F.Mask F.Paste))
  (pad 4 smd rect (at 0.975 -5.5) (size 1.95 0.5) (layers F.Cu F.Mask F.Paste))
  (pad 6 smd rect (at 0.975 -3.5) (size 1.95 0.5) (layers F.Cu F.Mask F.Paste))
  (pad 8 smd rect (at 0.975 -1.5) (size 1.95 0.5) (layers F.Cu F.Mask F.Paste))
  (pad 10 smd rect (at 0.975 0.5) (size 1.95 0.5) (layers F.Cu F.Mask F.Paste))
  (pad 12 smd rect (at 0.975 2.5) (size 1.95 0.5) (layers F.Cu F.Mask F.Paste))
  (pad 14 smd rect (at 0.975 4.5) (size 1.95 0.5) (layers F.Cu F.Mask F.Paste))
  (pad 16 smd rect (at 0.975 6.5) (size 1.95 0.5) (layers F.Cu F.Mask F.Paste))
  (pad 18 smd rect (at 0.975 8.5) (size 1.95 0.5) (layers F.Cu F.Mask F.Paste))
  (fp_text user %R (at 0 0 90) (layer F.Fab)
    (effects (font (size 0.9 0.9) (thickness 0.14)))
  )
  (model ${KIPRJMOD}/kicad_libs_k/models_k.3d/Connector_PinSocket_1.00mm_k.3dshapes/PinSocket_1x18_P1.00mm_Vertical_SMD_Pin1Left_k.wrl
    (at (xyz 0 0 0))
    (scale (xyz 1 1 1))
    (rotate (xyz 0 0 0))
  )
)