(module PinSocket_1x08_P1.00mm_Vertical_SMD_Pin1Right (layer F.Cu) (tedit 5A19A428)
  (descr "surface-mounted straight socket strip, 1x08, 1.00mm pitch, single row, style 2 (pin 1 right) (https://gct.co/files/drawings/bc070.pdf), script generated")
  (tags "Surface mounted socket strip SMD 1x08 1.00mm single row style2 pin1 right")
  (attr smd)
  (fp_text reference REF** (at 0 -5.75) (layer F.SilkS)
    (effects (font (size 1 1) (thickness 0.15)))
  )
  (fp_text value PinSocket_1x08_P1.00mm_Vertical_SMD_Pin1Right (at 0 5.75) (layer F.Fab)
    (effects (font (size 1 1) (thickness 0.15)))
  )
  (fp_line (start -0.81 -4.31) (end 0.81 -4.31) (layer F.SilkS) (width 0.12))
  (fp_line (start 0.81 -4.31) (end 0.81 -4.01) (layer F.SilkS) (width 0.12))
  (fp_line (start 0.81 -2.99) (end 0.81 -2.01) (layer F.SilkS) (width 0.12))
  (fp_line (start 0.81 -0.99) (end 0.81 -0.01) (layer F.SilkS) (width 0.12))
  (fp_line (start 0.81 1.01) (end 0.81 1.99) (layer F.SilkS) (width 0.12))
  (fp_line (start 0.81 3.01) (end 0.81 4.31) (layer F.SilkS) (width 0.12))
  (fp_line (start -0.81 4.31) (end 0.81 4.31) (layer F.SilkS) (width 0.12))
  (fp_line (start -0.81 -4.31) (end -0.81 -3.01) (layer F.SilkS) (width 0.12))
  (fp_line (start -0.81 -1.99) (end -0.81 -1.01) (layer F.SilkS) (width 0.12))
  (fp_line (start -0.81 0.01) (end -0.81 0.99) (layer F.SilkS) (width 0.12))
  (fp_line (start -0.81 2.01) (end -0.81 2.99) (layer F.SilkS) (width 0.12))
  (fp_line (start -0.81 4.01) (end -0.81 4.31) (layer F.SilkS) (width 0.12))
  (fp_line (start 0.81 -4.01) (end 1.89 -4.01) (layer F.SilkS) (width 0.12))
  (fp_line (start -0.75 -4.25) (end 0.375 -4.25) (layer F.Fab) (width 0.1))
  (fp_line (start 0.375 -4.25) (end 0.75 -3.875) (layer F.Fab) (width 0.1))
  (fp_line (start 0.75 -3.875) (end 0.75 4.25) (layer F.Fab) (width 0.1))
  (fp_line (start 0.75 4.25) (end -0.75 4.25) (layer F.Fab) (width 0.1))
  (fp_line (start -0.75 4.25) (end -0.75 -4.25) (layer F.Fab) (width 0.1))
  (fp_line (start 0.75 -3.65) (end 1.45 -3.65) (layer F.Fab) (width 0.1))
  (fp_line (start 1.45 -3.65) (end 1.45 -3.35) (layer F.Fab) (width 0.1))
  (fp_line (start 1.45 -3.35) (end 0.75 -3.35) (layer F.Fab) (width 0.1))
  (fp_line (start -1.45 -2.65) (end -0.75 -2.65) (layer F.Fab) (width 0.1))
  (fp_line (start -0.75 -2.35) (end -1.45 -2.35) (layer F.Fab) (width 0.1))
  (fp_line (start -1.45 -2.35) (end -1.45 -2.65) (layer F.Fab) (width 0.1))
  (fp_line (start 0.75 -1.65) (end 1.45 -1.65) (layer F.Fab) (width 0.1))
  (fp_line (start 1.45 -1.65) (end 1.45 -1.35) (layer F.Fab) (width 0.1))
  (fp_line (start 1.45 -1.35) (end 0.75 -1.35) (layer F.Fab) (width 0.1))
  (fp_line (start -1.45 -0.65) (end -0.75 -0.65) (layer F.Fab) (width 0.1))
  (fp_line (start -0.75 -0.35) (end -1.45 -0.35) (layer F.Fab) (width 0.1))
  (fp_line (start -1.45 -0.35) (end -1.45 -0.65) (layer F.Fab) (width 0.1))
  (fp_line (start 0.75 0.35) (end 1.45 0.35) (layer F.Fab) (width 0.1))
  (fp_line (start 1.45 0.35) (end 1.45 0.65) (layer F.Fab) (width 0.1))
  (fp_line (start 1.45 0.65) (end 0.75 0.65) (layer F.Fab) (width 0.1))
  (fp_line (start -1.45 1.35) (end -0.75 1.35) (layer F.Fab) (width 0.1))
  (fp_line (start -0.75 1.65) (end -1.45 1.65) (layer F.Fab) (width 0.1))
  (fp_line (start -1.45 1.65) (end -1.45 1.35) (layer F.Fab) (width 0.1))
  (fp_line (start 0.75 2.35) (end 1.45 2.35) (layer F.Fab) (width 0.1))
  (fp_line (start 1.45 2.35) (end 1.45 2.65) (layer F.Fab) (width 0.1))
  (fp_line (start 1.45 2.65) (end 0.75 2.65) (layer F.Fab) (width 0.1))
  (fp_line (start -1.45 3.35) (end -0.75 3.35) (layer F.Fab) (width 0.1))
  (fp_line (start -0.75 3.65) (end -1.45 3.65) (layer F.Fab) (width 0.1))
  (fp_line (start -1.45 3.65) (end -1.45 3.35) (layer F.Fab) (width 0.1))
  (fp_line (start -2.45 -4.75) (end 2.45 -4.75) (layer F.CrtYd) (width 0.05))
  (fp_line (start 2.45 -4.75) (end 2.45 4.75) (layer F.CrtYd) (width 0.05))
  (fp_line (start 2.45 4.75) (end -2.45 4.75) (layer F.CrtYd) (width 0.05))
  (fp_line (start -2.45 4.75) (end -2.45 -4.75) (layer F.CrtYd) (width 0.05))
  (pad 2 smd rect (at -0.975 -2.5) (size 1.95 0.5) (layers F.Cu F.Mask F.Paste))
  (pad 4 smd rect (at -0.975 -0.5) (size 1.95 0.5) (layers F.Cu F.Mask F.Paste))
  (pad 6 smd rect (at -0.975 1.5) (size 1.95 0.5) (layers F.Cu F.Mask F.Paste))
  (pad 8 smd rect (at -0.975 3.5) (size 1.95 0.5) (layers F.Cu F.Mask F.Paste))
  (pad 1 smd rect (at 0.975 -3.5) (size 1.95 0.5) (layers F.Cu F.Mask F.Paste))
  (pad 3 smd rect (at 0.975 -1.5) (size 1.95 0.5) (layers F.Cu F.Mask F.Paste))
  (pad 5 smd rect (at 0.975 0.5) (size 1.95 0.5) (layers F.Cu F.Mask F.Paste))
  (pad 7 smd rect (at 0.975 2.5) (size 1.95 0.5) (layers F.Cu F.Mask F.Paste))
  (fp_text user %R (at 0 0 90) (layer F.Fab)
    (effects (font (size 0.9 0.9) (thickness 0.14)))
  )
  (model ${KIPRJMOD}/kicad_libs_k/models_k.3d/Connector_PinSocket_1.00mm_k.3dshapes/PinSocket_1x08_P1.00mm_Vertical_SMD_Pin1Right_k.wrl
    (at (xyz 0 0 0))
    (scale (xyz 1 1 1))
    (rotate (xyz 0 0 0))
  )
)