(module PinSocket_2x12_P1.00mm_Vertical_SMD (layer F.Cu) (tedit 5A19A42C)
  (descr "surface-mounted straight socket strip, 2x12, 1.00mm pitch, double cols (https://gct.co/files/drawings/bc085.pdf), script generated")
  (tags "Surface mounted socket strip SMD 2x12 1.00mm double row")
  (attr smd)
  (fp_text reference REF** (at 0 -7.75) (layer F.SilkS)
    (effects (font (size 1 1) (thickness 0.15)))
  )
  (fp_text value PinSocket_2x12_P1.00mm_Vertical_SMD (at 0 7.75) (layer F.Fab)
    (effects (font (size 1 1) (thickness 0.15)))
  )
  (fp_line (start -1.31 -6.31) (end 1.31 -6.31) (layer F.SilkS) (width 0.12))
  (fp_line (start 1.31 -6.31) (end 1.31 -6.01) (layer F.SilkS) (width 0.12))
  (fp_line (start 1.31 6.01) (end 1.31 6.31) (layer F.SilkS) (width 0.12))
  (fp_line (start -1.31 6.31) (end 1.31 6.31) (layer F.SilkS) (width 0.12))
  (fp_line (start -1.31 -6.31) (end -1.31 -6.01) (layer F.SilkS) (width 0.12))
  (fp_line (start -1.31 6.01) (end -1.31 6.31) (layer F.SilkS) (width 0.12))
  (fp_line (start 1.31 -6.01) (end 2.39 -6.01) (layer F.SilkS) (width 0.12))
  (fp_line (start -1.25 -6.25) (end 0.625 -6.25) (layer F.Fab) (width 0.1))
  (fp_line (start 0.625 -6.25) (end 1.25 -5.625) (layer F.Fab) (width 0.1))
  (fp_line (start 1.25 -5.625) (end 1.25 6.25) (layer F.Fab) (width 0.1))
  (fp_line (start 1.25 6.25) (end -1.25 6.25) (layer F.Fab) (width 0.1))
  (fp_line (start -1.25 6.25) (end -1.25 -6.25) (layer F.Fab) (width 0.1))
  (fp_line (start -1.95 -5.65) (end -1.25 -5.65) (layer F.Fab) (width 0.1))
  (fp_line (start -1.25 -5.35) (end -1.95 -5.35) (layer F.Fab) (width 0.1))
  (fp_line (start -1.95 -5.35) (end -1.95 -5.65) (layer F.Fab) (width 0.1))
  (fp_line (start 1.25 -5.65) (end 1.95 -5.65) (layer F.Fab) (width 0.1))
  (fp_line (start 1.95 -5.65) (end 1.95 -5.35) (layer F.Fab) (width 0.1))
  (fp_line (start 1.95 -5.35) (end 1.25 -5.35) (layer F.Fab) (width 0.1))
  (fp_line (start -1.95 -4.65) (end -1.25 -4.65) (layer F.Fab) (width 0.1))
  (fp_line (start -1.25 -4.35) (end -1.95 -4.35) (layer F.Fab) (width 0.1))
  (fp_line (start -1.95 -4.35) (end -1.95 -4.65) (layer F.Fab) (width 0.1))
  (fp_line (start 1.25 -4.65) (end 1.95 -4.65) (layer F.Fab) (width 0.1))
  (fp_line (start 1.95 -4.65) (end 1.95 -4.35) (layer F.Fab) (width 0.1))
  (fp_line (start 1.95 -4.35) (end 1.25 -4.35) (layer F.Fab) (width 0.1))
  (fp_line (start -1.95 -3.65) (end -1.25 -3.65) (layer F.Fab) (width 0.1))
  (fp_line (start -1.25 -3.35) (end -1.95 -3.35) (layer F.Fab) (width 0.1))
  (fp_line (start -1.95 -3.35) (end -1.95 -3.65) (layer F.Fab) (width 0.1))
  (fp_line (start 1.25 -3.65) (end 1.95 -3.65) (layer F.Fab) (width 0.1))
  (fp_line (start 1.95 -3.65) (end 1.95 -3.35) (layer F.Fab) (width 0.1))
  (fp_line (start 1.95 -3.35) (end 1.25 -3.35) (layer F.Fab) (width 0.1))
  (fp_line (start -1.95 -2.65) (end -1.25 -2.65) (layer F.Fab) (width 0.1))
  (fp_line (start -1.25 -2.35) (end -1.95 -2.35) (layer F.Fab) (width 0.1))
  (fp_line (start -1.95 -2.35) (end -1.95 -2.65) (layer F.Fab) (width 0.1))
  (fp_line (start 1.25 -2.65) (end 1.95 -2.65) (layer F.Fab) (width 0.1))
  (fp_line (start 1.95 -2.65) (end 1.95 -2.35) (layer F.Fab) (width 0.1))
  (fp_line (start 1.95 -2.35) (end 1.25 -2.35) (layer F.Fab) (width 0.1))
  (fp_line (start -1.95 -1.65) (end -1.25 -1.65) (layer F.Fab) (width 0.1))
  (fp_line (start -1.25 -1.35) (end -1.95 -1.35) (layer F.Fab) (width 0.1))
  (fp_line (start -1.95 -1.35) (end -1.95 -1.65) (layer F.Fab) (width 0.1))
  (fp_line (start 1.25 -1.65) (end 1.95 -1.65) (layer F.Fab) (width 0.1))
  (fp_line (start 1.95 -1.65) (end 1.95 -1.35) (layer F.Fab) (width 0.1))
  (fp_line (start 1.95 -1.35) (end 1.25 -1.35) (layer F.Fab) (width 0.1))
  (fp_line (start -1.95 -0.65) (end -1.25 -0.65) (layer F.Fab) (width 0.1))
  (fp_line (start -1.25 -0.35) (end -1.95 -0.35) (layer F.Fab) (width 0.1))
  (fp_line (start -1.95 -0.35) (end -1.95 -0.65) (layer F.Fab) (width 0.1))
  (fp_line (start 1.25 -0.65) (end 1.95 -0.65) (layer F.Fab) (width 0.1))
  (fp_line (start 1.95 -0.65) (end 1.95 -0.35) (layer F.Fab) (width 0.1))
  (fp_line (start 1.95 -0.35) (end 1.25 -0.35) (layer F.Fab) (width 0.1))
  (fp_line (start -1.95 0.35) (end -1.25 0.35) (layer F.Fab) (width 0.1))
  (fp_line (start -1.25 0.65) (end -1.95 0.65) (layer F.Fab) (width 0.1))
  (fp_line (start -1.95 0.65) (end -1.95 0.35) (layer F.Fab) (width 0.1))
  (fp_line (start 1.25 0.35) (end 1.95 0.35) (layer F.Fab) (width 0.1))
  (fp_line (start 1.95 0.35) (end 1.95 0.65) (layer F.Fab) (width 0.1))
  (fp_line (start 1.95 0.65) (end 1.25 0.65) (layer F.Fab) (width 0.1))
  (fp_line (start -1.95 1.35) (end -1.25 1.35) (layer F.Fab) (width 0.1))
  (fp_line (start -1.25 1.65) (end -1.95 1.65) (layer F.Fab) (width 0.1))
  (fp_line (start -1.95 1.65) (end -1.95 1.35) (layer F.Fab) (width 0.1))
  (fp_line (start 1.25 1.35) (end 1.95 1.35) (layer F.Fab) (width 0.1))
  (fp_line (start 1.95 1.35) (end 1.95 1.65) (layer F.Fab) (width 0.1))
  (fp_line (start 1.95 1.65) (end 1.25 1.65) (layer F.Fab) (width 0.1))
  (fp_line (start -1.95 2.35) (end -1.25 2.35) (layer F.Fab) (width 0.1))
  (fp_line (start -1.25 2.65) (end -1.95 2.65) (layer F.Fab) (width 0.1))
  (fp_line (start -1.95 2.65) (end -1.95 2.35) (layer F.Fab) (width 0.1))
  (fp_line (start 1.25 2.35) (end 1.95 2.35) (layer F.Fab) (width 0.1))
  (fp_line (start 1.95 2.35) (end 1.95 2.65) (layer F.Fab) (width 0.1))
  (fp_line (start 1.95 2.65) (end 1.25 2.65) (layer F.Fab) (width 0.1))
  (fp_line (start -1.95 3.35) (end -1.25 3.35) (layer F.Fab) (width 0.1))
  (fp_line (start -1.25 3.65) (end -1.95 3.65) (layer F.Fab) (width 0.1))
  (fp_line (start -1.95 3.65) (end -1.95 3.35) (layer F.Fab) (width 0.1))
  (fp_line (start 1.25 3.35) (end 1.95 3.35) (layer F.Fab) (width 0.1))
  (fp_line (start 1.95 3.35) (end 1.95 3.65) (layer F.Fab) (width 0.1))
  (fp_line (start 1.95 3.65) (end 1.25 3.65) (layer F.Fab) (width 0.1))
  (fp_line (start -1.95 4.35) (end -1.25 4.35) (layer F.Fab) (width 0.1))
  (fp_line (start -1.25 4.65) (end -1.95 4.65) (layer F.Fab) (width 0.1))
  (fp_line (start -1.95 4.65) (end -1.95 4.35) (layer F.Fab) (width 0.1))
  (fp_line (start 1.25 4.35) (end 1.95 4.35) (layer F.Fab) (width 0.1))
  (fp_line (start 1.95 4.35) (end 1.95 4.65) (layer F.Fab) (width 0.1))
  (fp_line (start 1.95 4.65) (end 1.25 4.65) (layer F.Fab) (width 0.1))
  (fp_line (start -1.95 5.35) (end -1.25 5.35) (layer F.Fab) (width 0.1))
  (fp_line (start -1.25 5.65) (end -1.95 5.65) (layer F.Fab) (width 0.1))
  (fp_line (start -1.95 5.65) (end -1.95 5.35) (layer F.Fab) (width 0.1))
  (fp_line (start 1.25 5.35) (end 1.95 5.35) (layer F.Fab) (width 0.1))
  (fp_line (start 1.95 5.35) (end 1.95 5.65) (layer F.Fab) (width 0.1))
  (fp_line (start 1.95 5.65) (end 1.25 5.65) (layer F.Fab) (width 0.1))
  (fp_line (start -2.95 -6.75) (end 2.95 -6.75) (layer F.CrtYd) (width 0.05))
  (fp_line (start 2.95 -6.75) (end 2.95 6.75) (layer F.CrtYd) (width 0.05))
  (fp_line (start 2.95 6.75) (end -2.95 6.75) (layer F.CrtYd) (width 0.05))
  (fp_line (start -2.95 6.75) (end -2.95 -6.75) (layer F.CrtYd) (width 0.05))
  (pad 1 smd rect (at 1.525 -5.5) (size 1.85 0.5) (layers F.Cu F.Mask F.Paste))
  (pad 2 smd rect (at -1.525 -5.5) (size 1.85 0.5) (layers F.Cu F.Mask F.Paste))
  (pad 3 smd rect (at 1.525 -4.5) (size 1.85 0.5) (layers F.Cu F.Mask F.Paste))
  (pad 4 smd rect (at -1.525 -4.5) (size 1.85 0.5) (layers F.Cu F.Mask F.Paste))
  (pad 5 smd rect (at 1.525 -3.5) (size 1.85 0.5) (layers F.Cu F.Mask F.Paste))
  (pad 6 smd rect (at -1.525 -3.5) (size 1.85 0.5) (layers F.Cu F.Mask F.Paste))
  (pad 7 smd rect (at 1.525 -2.5) (size 1.85 0.5) (layers F.Cu F.Mask F.Paste))
  (pad 8 smd rect (at -1.525 -2.5) (size 1.85 0.5) (layers F.Cu F.Mask F.Paste))
  (pad 9 smd rect (at 1.525 -1.5) (size 1.85 0.5) (layers F.Cu F.Mask F.Paste))
  (pad 10 smd rect (at -1.525 -1.5) (size 1.85 0.5) (layers F.Cu F.Mask F.Paste))
  (pad 11 smd rect (at 1.525 -0.5) (size 1.85 0.5) (layers F.Cu F.Mask F.Paste))
  (pad 12 smd rect (at -1.525 -0.5) (size 1.85 0.5) (layers F.Cu F.Mask F.Paste))
  (pad 13 smd rect (at 1.525 0.5) (size 1.85 0.5) (layers F.Cu F.Mask F.Paste))
  (pad 14 smd rect (at -1.525 0.5) (size 1.85 0.5) (layers F.Cu F.Mask F.Paste))
  (pad 15 smd rect (at 1.525 1.5) (size 1.85 0.5) (layers F.Cu F.Mask F.Paste))
  (pad 16 smd rect (at -1.525 1.5) (size 1.85 0.5) (layers F.Cu F.Mask F.Paste))
  (pad 17 smd rect (at 1.525 2.5) (size 1.85 0.5) (layers F.Cu F.Mask F.Paste))
  (pad 18 smd rect (at -1.525 2.5) (size 1.85 0.5) (layers F.Cu F.Mask F.Paste))
  (pad 19 smd rect (at 1.525 3.5) (size 1.85 0.5) (layers F.Cu F.Mask F.Paste))
  (pad 20 smd rect (at -1.525 3.5) (size 1.85 0.5) (layers F.Cu F.Mask F.Paste))
  (pad 21 smd rect (at 1.525 4.5) (size 1.85 0.5) (layers F.Cu F.Mask F.Paste))
  (pad 22 smd rect (at -1.525 4.5) (size 1.85 0.5) (layers F.Cu F.Mask F.Paste))
  (pad 23 smd rect (at 1.525 5.5) (size 1.85 0.5) (layers F.Cu F.Mask F.Paste))
  (pad 24 smd rect (at -1.525 5.5) (size 1.85 0.5) (layers F.Cu F.Mask F.Paste))
  (fp_text user %R (at 0 0 90) (layer F.Fab)
    (effects (font (size 1 1) (thickness 0.15)))
  )
  (model ${KIPRJMOD}/kicad_libs_k/models_k.3d/Connector_PinSocket_1.00mm_k.3dshapes/PinSocket_2x12_P1.00mm_Vertical_SMD_k.wrl
    (at (xyz 0 0 0))
    (scale (xyz 1 1 1))
    (rotate (xyz 0 0 0))
  )
)