(module TerminalBlock_4Ucon_1x14_P3.50mm_Vertical (layer F.Cu) (tedit 5B294E8E)
  (descr "Terminal Block 4Ucon ItemNo. 10705, vertical (cable from top), 14 pins, pitch 3.5mm, size 50x8.3mm^2, drill diamater 1.3mm, pad diameter 2.6mm, see http://www.4uconnector.com/online/object/4udrawing/10705.pdf, script-generated with , script-generated using https://github.com/pointhi/kicad-footprint-generator/scripts/TerminalBlock_4Ucon")
  (tags "THT Terminal Block 4Ucon ItemNo. 10705 vertical pitch 3.5mm size 50x8.3mm^2 drill 1.3mm pad 2.6mm")
  (fp_text reference REF** (at 22.75 -4.76) (layer F.SilkS)
    (effects (font (size 1 1) (thickness 0.15)))
  )
  (fp_text value TerminalBlock_4Ucon_1x14_P3.50mm_Vertical (at 22.75 5.66) (layer F.Fab)
    (effects (font (size 1 1) (thickness 0.15)))
  )
  (fp_arc (start 0 -1.6) (end 0.998 -1.531) (angle -188) (layer F.SilkS) (width 0.12))
  (fp_arc (start 3.5 -1.6) (end 4.44 -1.258) (angle -220) (layer F.SilkS) (width 0.12))
  (fp_arc (start 7 -1.6) (end 7.94 -1.258) (angle -220) (layer F.SilkS) (width 0.12))
  (fp_arc (start 10.5 -1.6) (end 11.44 -1.258) (angle -220) (layer F.SilkS) (width 0.12))
  (fp_arc (start 14 -1.6) (end 14.94 -1.258) (angle -220) (layer F.SilkS) (width 0.12))
  (fp_arc (start 17.5 -1.6) (end 18.44 -1.258) (angle -220) (layer F.SilkS) (width 0.12))
  (fp_arc (start 21 -1.6) (end 21.94 -1.258) (angle -220) (layer F.SilkS) (width 0.12))
  (fp_arc (start 24.5 -1.6) (end 25.44 -1.258) (angle -220) (layer F.SilkS) (width 0.12))
  (fp_arc (start 28 -1.6) (end 28.94 -1.258) (angle -220) (layer F.SilkS) (width 0.12))
  (fp_arc (start 31.5 -1.6) (end 32.44 -1.258) (angle -220) (layer F.SilkS) (width 0.12))
  (fp_arc (start 35 -1.6) (end 35.94 -1.258) (angle -220) (layer F.SilkS) (width 0.12))
  (fp_arc (start 38.5 -1.6) (end 39.44 -1.258) (angle -220) (layer F.SilkS) (width 0.12))
  (fp_arc (start 42 -1.6) (end 42.94 -1.258) (angle -220) (layer F.SilkS) (width 0.12))
  (fp_arc (start 45.5 -1.6) (end 46.44 -1.258) (angle -220) (layer F.SilkS) (width 0.12))
  (fp_circle (center 0 -1.6) (end 1 -1.6) (layer F.Fab) (width 0.1))
  (fp_circle (center 3.5 -1.6) (end 4.5 -1.6) (layer F.Fab) (width 0.1))
  (fp_circle (center 7 -1.6) (end 8 -1.6) (layer F.Fab) (width 0.1))
  (fp_circle (center 10.5 -1.6) (end 11.5 -1.6) (layer F.Fab) (width 0.1))
  (fp_circle (center 14 -1.6) (end 15 -1.6) (layer F.Fab) (width 0.1))
  (fp_circle (center 17.5 -1.6) (end 18.5 -1.6) (layer F.Fab) (width 0.1))
  (fp_circle (center 21 -1.6) (end 22 -1.6) (layer F.Fab) (width 0.1))
  (fp_circle (center 24.5 -1.6) (end 25.5 -1.6) (layer F.Fab) (width 0.1))
  (fp_circle (center 28 -1.6) (end 29 -1.6) (layer F.Fab) (width 0.1))
  (fp_circle (center 31.5 -1.6) (end 32.5 -1.6) (layer F.Fab) (width 0.1))
  (fp_circle (center 35 -1.6) (end 36 -1.6) (layer F.Fab) (width 0.1))
  (fp_circle (center 38.5 -1.6) (end 39.5 -1.6) (layer F.Fab) (width 0.1))
  (fp_circle (center 42 -1.6) (end 43 -1.6) (layer F.Fab) (width 0.1))
  (fp_circle (center 45.5 -1.6) (end 46.5 -1.6) (layer F.Fab) (width 0.1))
  (fp_line (start -2.25 -3.7) (end 47.75 -3.7) (layer F.Fab) (width 0.1))
  (fp_line (start 47.75 -3.7) (end 47.75 4.6) (layer F.Fab) (width 0.1))
  (fp_line (start 47.75 4.6) (end -0.25 4.6) (layer F.Fab) (width 0.1))
  (fp_line (start -0.25 4.6) (end -2.25 2.6) (layer F.Fab) (width 0.1))
  (fp_line (start -2.25 2.6) (end -2.25 -3.7) (layer F.Fab) (width 0.1))
  (fp_line (start -2.25 1.1) (end 47.75 1.1) (layer F.Fab) (width 0.1))
  (fp_line (start -2.31 1.101) (end -1.54 1.101) (layer F.SilkS) (width 0.12))
  (fp_line (start 1.54 1.101) (end 2.367 1.101) (layer F.SilkS) (width 0.12))
  (fp_line (start 4.634 1.101) (end 5.867 1.101) (layer F.SilkS) (width 0.12))
  (fp_line (start 8.134 1.101) (end 9.367 1.101) (layer F.SilkS) (width 0.12))
  (fp_line (start 11.634 1.101) (end 12.867 1.101) (layer F.SilkS) (width 0.12))
  (fp_line (start 15.134 1.101) (end 16.367 1.101) (layer F.SilkS) (width 0.12))
  (fp_line (start 18.634 1.101) (end 19.867 1.101) (layer F.SilkS) (width 0.12))
  (fp_line (start 22.134 1.101) (end 23.367 1.101) (layer F.SilkS) (width 0.12))
  (fp_line (start 25.634 1.101) (end 26.867 1.101) (layer F.SilkS) (width 0.12))
  (fp_line (start 29.134 1.101) (end 30.367 1.101) (layer F.SilkS) (width 0.12))
  (fp_line (start 32.634 1.101) (end 33.867 1.101) (layer F.SilkS) (width 0.12))
  (fp_line (start 36.134 1.101) (end 37.367 1.101) (layer F.SilkS) (width 0.12))
  (fp_line (start 39.634 1.101) (end 40.867 1.101) (layer F.SilkS) (width 0.12))
  (fp_line (start 43.134 1.101) (end 44.367 1.101) (layer F.SilkS) (width 0.12))
  (fp_line (start 46.634 1.101) (end 47.81 1.101) (layer F.SilkS) (width 0.12))
  (fp_line (start -2.31 -3.76) (end 47.81 -3.76) (layer F.SilkS) (width 0.12))
  (fp_line (start -2.31 4.66) (end 47.81 4.66) (layer F.SilkS) (width 0.12))
  (fp_line (start -2.31 -3.76) (end -2.31 4.66) (layer F.SilkS) (width 0.12))
  (fp_line (start 47.81 -3.76) (end 47.81 4.66) (layer F.SilkS) (width 0.12))
  (fp_line (start -1.4 -3) (end 1.4 -3) (layer F.SilkS) (width 0.12))
  (fp_line (start -1.4 -3) (end -1.4 -1.54) (layer F.SilkS) (width 0.12))
  (fp_line (start 1.4 -3) (end 1.4 -1.54) (layer F.SilkS) (width 0.12))
  (fp_line (start -1.4 -3) (end -1.4 0.75) (layer F.Fab) (width 0.1))
  (fp_line (start -1.4 0.75) (end 1.4 0.75) (layer F.Fab) (width 0.1))
  (fp_line (start 1.4 0.75) (end 1.4 -3) (layer F.Fab) (width 0.1))
  (fp_line (start 1.4 -3) (end -1.4 -3) (layer F.Fab) (width 0.1))
  (fp_line (start 2.1 -3) (end 4.9 -3) (layer F.SilkS) (width 0.12))
  (fp_line (start 2.1 0.75) (end 2.101 0.75) (layer F.SilkS) (width 0.12))
  (fp_line (start 4.9 0.75) (end 4.9 0.75) (layer F.SilkS) (width 0.12))
  (fp_line (start 2.1 -3) (end 2.1 -0.689) (layer F.SilkS) (width 0.12))
  (fp_line (start 2.1 0.689) (end 2.1 0.75) (layer F.SilkS) (width 0.12))
  (fp_line (start 4.9 -3) (end 4.9 -0.689) (layer F.SilkS) (width 0.12))
  (fp_line (start 4.9 0.689) (end 4.9 0.75) (layer F.SilkS) (width 0.12))
  (fp_line (start 2.1 -3) (end 2.1 0.75) (layer F.Fab) (width 0.1))
  (fp_line (start 2.1 0.75) (end 4.9 0.75) (layer F.Fab) (width 0.1))
  (fp_line (start 4.9 0.75) (end 4.9 -3) (layer F.Fab) (width 0.1))
  (fp_line (start 4.9 -3) (end 2.1 -3) (layer F.Fab) (width 0.1))
  (fp_line (start 5.6 -3) (end 8.4 -3) (layer F.SilkS) (width 0.12))
  (fp_line (start 5.6 0.75) (end 5.601 0.75) (layer F.SilkS) (width 0.12))
  (fp_line (start 8.4 0.75) (end 8.4 0.75) (layer F.SilkS) (width 0.12))
  (fp_line (start 5.6 -3) (end 5.6 -0.689) (layer F.SilkS) (width 0.12))
  (fp_line (start 5.6 0.689) (end 5.6 0.75) (layer F.SilkS) (width 0.12))
  (fp_line (start 8.4 -3) (end 8.4 -0.689) (layer F.SilkS) (width 0.12))
  (fp_line (start 8.4 0.689) (end 8.4 0.75) (layer F.SilkS) (width 0.12))
  (fp_line (start 5.6 -3) (end 5.6 0.75) (layer F.Fab) (width 0.1))
  (fp_line (start 5.6 0.75) (end 8.4 0.75) (layer F.Fab) (width 0.1))
  (fp_line (start 8.4 0.75) (end 8.4 -3) (layer F.Fab) (width 0.1))
  (fp_line (start 8.4 -3) (end 5.6 -3) (layer F.Fab) (width 0.1))
  (fp_line (start 9.1 -3) (end 11.9 -3) (layer F.SilkS) (width 0.12))
  (fp_line (start 9.1 0.75) (end 9.101 0.75) (layer F.SilkS) (width 0.12))
  (fp_line (start 11.9 0.75) (end 11.9 0.75) (layer F.SilkS) (width 0.12))
  (fp_line (start 9.1 -3) (end 9.1 -0.689) (layer F.SilkS) (width 0.12))
  (fp_line (start 9.1 0.689) (end 9.1 0.75) (layer F.SilkS) (width 0.12))
  (fp_line (start 11.9 -3) (end 11.9 -0.689) (layer F.SilkS) (width 0.12))
  (fp_line (start 11.9 0.689) (end 11.9 0.75) (layer F.SilkS) (width 0.12))
  (fp_line (start 9.1 -3) (end 9.1 0.75) (layer F.Fab) (width 0.1))
  (fp_line (start 9.1 0.75) (end 11.9 0.75) (layer F.Fab) (width 0.1))
  (fp_line (start 11.9 0.75) (end 11.9 -3) (layer F.Fab) (width 0.1))
  (fp_line (start 11.9 -3) (end 9.1 -3) (layer F.Fab) (width 0.1))
  (fp_line (start 12.6 -3) (end 15.4 -3) (layer F.SilkS) (width 0.12))
  (fp_line (start 12.6 0.75) (end 12.601 0.75) (layer F.SilkS) (width 0.12))
  (fp_line (start 15.4 0.75) (end 15.4 0.75) (layer F.SilkS) (width 0.12))
  (fp_line (start 12.6 -3) (end 12.6 -0.689) (layer F.SilkS) (width 0.12))
  (fp_line (start 12.6 0.689) (end 12.6 0.75) (layer F.SilkS) (width 0.12))
  (fp_line (start 15.4 -3) (end 15.4 -0.689) (layer F.SilkS) (width 0.12))
  (fp_line (start 15.4 0.689) (end 15.4 0.75) (layer F.SilkS) (width 0.12))
  (fp_line (start 12.6 -3) (end 12.6 0.75) (layer F.Fab) (width 0.1))
  (fp_line (start 12.6 0.75) (end 15.4 0.75) (layer F.Fab) (width 0.1))
  (fp_line (start 15.4 0.75) (end 15.4 -3) (layer F.Fab) (width 0.1))
  (fp_line (start 15.4 -3) (end 12.6 -3) (layer F.Fab) (width 0.1))
  (fp_line (start 16.101 -3) (end 18.9 -3) (layer F.SilkS) (width 0.12))
  (fp_line (start 16.101 0.75) (end 16.101 0.75) (layer F.SilkS) (width 0.12))
  (fp_line (start 18.9 0.75) (end 18.9 0.75) (layer F.SilkS) (width 0.12))
  (fp_line (start 16.101 -3) (end 16.101 -0.689) (layer F.SilkS) (width 0.12))
  (fp_line (start 16.101 0.689) (end 16.101 0.75) (layer F.SilkS) (width 0.12))
  (fp_line (start 18.9 -3) (end 18.9 -0.689) (layer F.SilkS) (width 0.12))
  (fp_line (start 18.9 0.689) (end 18.9 0.75) (layer F.SilkS) (width 0.12))
  (fp_line (start 16.101 -3) (end 16.101 0.75) (layer F.Fab) (width 0.1))
  (fp_line (start 16.101 0.75) (end 18.9 0.75) (layer F.Fab) (width 0.1))
  (fp_line (start 18.9 0.75) (end 18.9 -3) (layer F.Fab) (width 0.1))
  (fp_line (start 18.9 -3) (end 16.101 -3) (layer F.Fab) (width 0.1))
  (fp_line (start 19.6 -3) (end 22.4 -3) (layer F.SilkS) (width 0.12))
  (fp_line (start 19.6 0.75) (end 19.601 0.75) (layer F.SilkS) (width 0.12))
  (fp_line (start 22.4 0.75) (end 22.4 0.75) (layer F.SilkS) (width 0.12))
  (fp_line (start 19.6 -3) (end 19.6 -0.689) (layer F.SilkS) (width 0.12))
  (fp_line (start 19.6 0.689) (end 19.6 0.75) (layer F.SilkS) (width 0.12))
  (fp_line (start 22.4 -3) (end 22.4 -0.689) (layer F.SilkS) (width 0.12))
  (fp_line (start 22.4 0.689) (end 22.4 0.75) (layer F.SilkS) (width 0.12))
  (fp_line (start 19.6 -3) (end 19.6 0.75) (layer F.Fab) (width 0.1))
  (fp_line (start 19.6 0.75) (end 22.4 0.75) (layer F.Fab) (width 0.1))
  (fp_line (start 22.4 0.75) (end 22.4 -3) (layer F.Fab) (width 0.1))
  (fp_line (start 22.4 -3) (end 19.6 -3) (layer F.Fab) (width 0.1))
  (fp_line (start 23.1 -3) (end 25.9 -3) (layer F.SilkS) (width 0.12))
  (fp_line (start 23.1 0.75) (end 23.101 0.75) (layer F.SilkS) (width 0.12))
  (fp_line (start 25.9 0.75) (end 25.9 0.75) (layer F.SilkS) (width 0.12))
  (fp_line (start 23.1 -3) (end 23.1 -0.689) (layer F.SilkS) (width 0.12))
  (fp_line (start 23.1 0.689) (end 23.1 0.75) (layer F.SilkS) (width 0.12))
  (fp_line (start 25.9 -3) (end 25.9 -0.689) (layer F.SilkS) (width 0.12))
  (fp_line (start 25.9 0.689) (end 25.9 0.75) (layer F.SilkS) (width 0.12))
  (fp_line (start 23.1 -3) (end 23.1 0.75) (layer F.Fab) (width 0.1))
  (fp_line (start 23.1 0.75) (end 25.9 0.75) (layer F.Fab) (width 0.1))
  (fp_line (start 25.9 0.75) (end 25.9 -3) (layer F.Fab) (width 0.1))
  (fp_line (start 25.9 -3) (end 23.1 -3) (layer F.Fab) (width 0.1))
  (fp_line (start 26.6 -3) (end 29.4 -3) (layer F.SilkS) (width 0.12))
  (fp_line (start 26.6 0.75) (end 26.601 0.75) (layer F.SilkS) (width 0.12))
  (fp_line (start 29.4 0.75) (end 29.4 0.75) (layer F.SilkS) (width 0.12))
  (fp_line (start 26.6 -3) (end 26.6 -0.689) (layer F.SilkS) (width 0.12))
  (fp_line (start 26.6 0.689) (end 26.6 0.75) (layer F.SilkS) (width 0.12))
  (fp_line (start 29.4 -3) (end 29.4 -0.689) (layer F.SilkS) (width 0.12))
  (fp_line (start 29.4 0.689) (end 29.4 0.75) (layer F.SilkS) (width 0.12))
  (fp_line (start 26.6 -3) (end 26.6 0.75) (layer F.Fab) (width 0.1))
  (fp_line (start 26.6 0.75) (end 29.4 0.75) (layer F.Fab) (width 0.1))
  (fp_line (start 29.4 0.75) (end 29.4 -3) (layer F.Fab) (width 0.1))
  (fp_line (start 29.4 -3) (end 26.6 -3) (layer F.Fab) (width 0.1))
  (fp_line (start 30.1 -3) (end 32.9 -3) (layer F.SilkS) (width 0.12))
  (fp_line (start 30.1 0.75) (end 30.101 0.75) (layer F.SilkS) (width 0.12))
  (fp_line (start 32.9 0.75) (end 32.9 0.75) (layer F.SilkS) (width 0.12))
  (fp_line (start 30.1 -3) (end 30.1 -0.689) (layer F.SilkS) (width 0.12))
  (fp_line (start 30.1 0.689) (end 30.1 0.75) (layer F.SilkS) (width 0.12))
  (fp_line (start 32.9 -3) (end 32.9 -0.689) (layer F.SilkS) (width 0.12))
  (fp_line (start 32.9 0.689) (end 32.9 0.75) (layer F.SilkS) (width 0.12))
  (fp_line (start 30.1 -3) (end 30.1 0.75) (layer F.Fab) (width 0.1))
  (fp_line (start 30.1 0.75) (end 32.9 0.75) (layer F.Fab) (width 0.1))
  (fp_line (start 32.9 0.75) (end 32.9 -3) (layer F.Fab) (width 0.1))
  (fp_line (start 32.9 -3) (end 30.1 -3) (layer F.Fab) (width 0.1))
  (fp_line (start 33.6 -3) (end 36.4 -3) (layer F.SilkS) (width 0.12))
  (fp_line (start 33.6 0.75) (end 33.601 0.75) (layer F.SilkS) (width 0.12))
  (fp_line (start 36.4 0.75) (end 36.4 0.75) (layer F.SilkS) (width 0.12))
  (fp_line (start 33.6 -3) (end 33.6 -0.689) (layer F.SilkS) (width 0.12))
  (fp_line (start 33.6 0.689) (end 33.6 0.75) (layer F.SilkS) (width 0.12))
  (fp_line (start 36.4 -3) (end 36.4 -0.689) (layer F.SilkS) (width 0.12))
  (fp_line (start 36.4 0.689) (end 36.4 0.75) (layer F.SilkS) (width 0.12))
  (fp_line (start 33.6 -3) (end 33.6 0.75) (layer F.Fab) (width 0.1))
  (fp_line (start 33.6 0.75) (end 36.4 0.75) (layer F.Fab) (width 0.1))
  (fp_line (start 36.4 0.75) (end 36.4 -3) (layer F.Fab) (width 0.1))
  (fp_line (start 36.4 -3) (end 33.6 -3) (layer F.Fab) (width 0.1))
  (fp_line (start 37.1 -3) (end 39.9 -3) (layer F.SilkS) (width 0.12))
  (fp_line (start 37.1 0.75) (end 37.101 0.75) (layer F.SilkS) (width 0.12))
  (fp_line (start 39.9 0.75) (end 39.9 0.75) (layer F.SilkS) (width 0.12))
  (fp_line (start 37.1 -3) (end 37.1 -0.689) (layer F.SilkS) (width 0.12))
  (fp_line (start 37.1 0.689) (end 37.1 0.75) (layer F.SilkS) (width 0.12))
  (fp_line (start 39.9 -3) (end 39.9 -0.689) (layer F.SilkS) (width 0.12))
  (fp_line (start 39.9 0.689) (end 39.9 0.75) (layer F.SilkS) (width 0.12))
  (fp_line (start 37.1 -3) (end 37.1 0.75) (layer F.Fab) (width 0.1))
  (fp_line (start 37.1 0.75) (end 39.9 0.75) (layer F.Fab) (width 0.1))
  (fp_line (start 39.9 0.75) (end 39.9 -3) (layer F.Fab) (width 0.1))
  (fp_line (start 39.9 -3) (end 37.1 -3) (layer F.Fab) (width 0.1))
  (fp_line (start 40.6 -3) (end 43.4 -3) (layer F.SilkS) (width 0.12))
  (fp_line (start 40.6 0.75) (end 40.601 0.75) (layer F.SilkS) (width 0.12))
  (fp_line (start 43.4 0.75) (end 43.4 0.75) (layer F.SilkS) (width 0.12))
  (fp_line (start 40.6 -3) (end 40.6 -0.689) (layer F.SilkS) (width 0.12))
  (fp_line (start 40.6 0.689) (end 40.6 0.75) (layer F.SilkS) (width 0.12))
  (fp_line (start 43.4 -3) (end 43.4 -0.689) (layer F.SilkS) (width 0.12))
  (fp_line (start 43.4 0.689) (end 43.4 0.75) (layer F.SilkS) (width 0.12))
  (fp_line (start 40.6 -3) (end 40.6 0.75) (layer F.Fab) (width 0.1))
  (fp_line (start 40.6 0.75) (end 43.4 0.75) (layer F.Fab) (width 0.1))
  (fp_line (start 43.4 0.75) (end 43.4 -3) (layer F.Fab) (width 0.1))
  (fp_line (start 43.4 -3) (end 40.6 -3) (layer F.Fab) (width 0.1))
  (fp_line (start 44.1 -3) (end 46.9 -3) (layer F.SilkS) (width 0.12))
  (fp_line (start 44.1 0.75) (end 44.101 0.75) (layer F.SilkS) (width 0.12))
  (fp_line (start 46.9 0.75) (end 46.9 0.75) (layer F.SilkS) (width 0.12))
  (fp_line (start 44.1 -3) (end 44.1 -0.689) (layer F.SilkS) (width 0.12))
  (fp_line (start 44.1 0.689) (end 44.1 0.75) (layer F.SilkS) (width 0.12))
  (fp_line (start 46.9 -3) (end 46.9 -0.689) (layer F.SilkS) (width 0.12))
  (fp_line (start 46.9 0.689) (end 46.9 0.75) (layer F.SilkS) (width 0.12))
  (fp_line (start 44.1 -3) (end 44.1 0.75) (layer F.Fab) (width 0.1))
  (fp_line (start 44.1 0.75) (end 46.9 0.75) (layer F.Fab) (width 0.1))
  (fp_line (start 46.9 0.75) (end 46.9 -3) (layer F.Fab) (width 0.1))
  (fp_line (start 46.9 -3) (end 44.1 -3) (layer F.Fab) (width 0.1))
  (fp_line (start -2.55 2.66) (end -2.55 4.9) (layer F.SilkS) (width 0.12))
  (fp_line (start -2.55 4.9) (end -0.55 4.9) (layer F.SilkS) (width 0.12))
  (fp_line (start -2.75 -4.2) (end -2.75 5.11) (layer F.CrtYd) (width 0.05))
  (fp_line (start -2.75 5.11) (end 48.25 5.11) (layer F.CrtYd) (width 0.05))
  (fp_line (start 48.25 5.11) (end 48.25 -4.2) (layer F.CrtYd) (width 0.05))
  (fp_line (start 48.25 -4.2) (end -2.75 -4.2) (layer F.CrtYd) (width 0.05))
  (pad 1 thru_hole rect (at 0 0) (size 2.6 2.6) (drill 1.3) (layers *.Cu *.Mask))
  (pad 2 thru_hole circle (at 3.5 0) (size 2.6 2.6) (drill 1.3) (layers *.Cu *.Mask))
  (pad 3 thru_hole circle (at 7 0) (size 2.6 2.6) (drill 1.3) (layers *.Cu *.Mask))
  (pad 4 thru_hole circle (at 10.5 0) (size 2.6 2.6) (drill 1.3) (layers *.Cu *.Mask))
  (pad 5 thru_hole circle (at 14 0) (size 2.6 2.6) (drill 1.3) (layers *.Cu *.Mask))
  (pad 6 thru_hole circle (at 17.5 0) (size 2.6 2.6) (drill 1.3) (layers *.Cu *.Mask))
  (pad 7 thru_hole circle (at 21 0) (size 2.6 2.6) (drill 1.3) (layers *.Cu *.Mask))
  (pad 8 thru_hole circle (at 24.5 0) (size 2.6 2.6) (drill 1.3) (layers *.Cu *.Mask))
  (pad 9 thru_hole circle (at 28 0) (size 2.6 2.6) (drill 1.3) (layers *.Cu *.Mask))
  (pad 10 thru_hole circle (at 31.5 0) (size 2.6 2.6) (drill 1.3) (layers *.Cu *.Mask))
  (pad 11 thru_hole circle (at 35 0) (size 2.6 2.6) (drill 1.3) (layers *.Cu *.Mask))
  (pad 12 thru_hole circle (at 38.5 0) (size 2.6 2.6) (drill 1.3) (layers *.Cu *.Mask))
  (pad 13 thru_hole circle (at 42 0) (size 2.6 2.6) (drill 1.3) (layers *.Cu *.Mask))
  (pad 14 thru_hole circle (at 45.5 0) (size 2.6 2.6) (drill 1.3) (layers *.Cu *.Mask))
  (fp_text user %R (at 22.75 3.45) (layer F.Fab)
    (effects (font (size 1 1) (thickness 0.15)))
  )
  (model ${KIPRJMOD}/kicad_libs_k/models_k.3d/TerminalBlock_4Ucon_k.3dshapes/TerminalBlock_4Ucon_1x14_P3.50mm_Vertical_k.wrl
    (at (xyz 0 0 0))
    (scale (xyz 1 1 1))
    (rotate (xyz 0 0 0))
  )
)