(module Wuerth_WR-TBL_1031_1x02_Clamp_Connector_Horizontal_3.5mm_691103110002 (layer F.Cu) (tedit 6008770B)
  (descr "WR-TBL Serie 1031 - 3.50 mm Horiz. Entry Modular Max Height = 8.4mm , Pitch 3.5mm , 2 Pins")
  (fp_text reference REF** (at 1.75 -4.635) (layer F.SilkS)
    (effects (font (size 1 1) (thickness 0.015)))
  )
  (fp_text value "" (at 5.87 4.865) (layer F.Fab)
    (effects (font (size 1 1) (thickness 0.015)))
  )
  (fp_line (start -1.75 3.6) (end 5.25 3.6) (layer F.Fab) (width 0.1))
  (fp_line (start 5.75 -2.25) (end 5.75 -2.8) (layer F.Fab) (width 0.1))
  (fp_line (start 5.25 -3.4) (end -1.75 -3.4) (layer F.Fab) (width 0.1))
  (fp_line (start -1.75 -3.4) (end -1.75 1.65) (layer F.Fab) (width 0.1))
  (fp_line (start -1.75 2.3) (end -1.75 3.6) (layer F.Fab) (width 0.1))
  (fp_line (start 5.25 -3.4) (end 5.25 -2.75) (layer F.Fab) (width 0.1))
  (fp_line (start 5.25 -2.3) (end 5.25 3.6) (layer F.Fab) (width 0.1))
  (fp_line (start 5.25 -2.75) (end 5.75 -2.8) (layer F.Fab) (width 0.1))
  (fp_line (start 5.25 -2.3) (end 5.75 -2.25) (layer F.Fab) (width 0.1))
  (fp_line (start -2.25 1.58) (end -2.25 2.38) (layer F.Fab) (width 0.1))
  (fp_line (start -1.75 2.3) (end -2.25 2.38) (layer F.Fab) (width 0.1))
  (fp_line (start -1.75 1.65) (end -2.25 1.58) (layer F.Fab) (width 0.1))
  (fp_line (start -1.85 -3.5) (end 5.35 -3.5) (layer F.SilkS) (width 0.2))
  (fp_line (start 5.35 -3.5) (end 5.35 -2.85) (layer F.SilkS) (width 0.2))
  (fp_line (start 5.35 -2.85) (end 5.85 -2.9) (layer F.SilkS) (width 0.2))
  (fp_line (start 5.85 -2.9) (end 5.85 -2.15) (layer F.SilkS) (width 0.2))
  (fp_line (start 5.85 -2.15) (end 5.35 -2.2) (layer F.SilkS) (width 0.2))
  (fp_line (start 5.35 -2.2) (end 5.35 3.7) (layer F.SilkS) (width 0.2))
  (fp_line (start 5.35 3.7) (end -1.85 3.7) (layer F.SilkS) (width 0.2))
  (fp_line (start -1.85 3.7) (end -1.85 2.4) (layer F.SilkS) (width 0.2))
  (fp_line (start -1.85 2.4) (end -2.35 2.48) (layer F.SilkS) (width 0.2))
  (fp_line (start -2.35 2.48) (end -2.35 1.48) (layer F.SilkS) (width 0.2))
  (fp_line (start -2.35 1.48) (end -1.85 1.55) (layer F.SilkS) (width 0.2))
  (fp_line (start -1.85 1.55) (end -1.85 -3.5) (layer F.SilkS) (width 0.2))
  (fp_circle (center -0.95 -1.1) (end -0.85 -1.1) (layer F.SilkS) (width 0.3))
  (pad 1 thru_hole rect (at 0 0) (size 1.8 1.8) (drill 1.2) (layers *.Cu *.Mask))
  (pad 2 thru_hole circle (at 3.5 0) (size 1.8 1.8) (drill 1.2) (layers *.Cu *.Mask))
  (model ${KIPRJMOD}/kicad_libs_k/models_k.3d/Connector_Wuerth_WR-TBL_k.3dshapes/Wuerth_WR-TBL_1031_1x02_Clamp_Connector_Horizontal_3.5mm_691103110002.stp
    (offset (xyz 1.75 -0.1 4.2))
    (scale (xyz 1 1 1))
    (rotate (xyz 0 0 0))
  )
)
