(module k_Wuerth_WR-TBL_3211_01x02_Header_P3.50mm (layer F.Cu) (tedit 5CD95EAA)
  (descr "Wuerth WR-TBL 3211 01x02pin Header P3.50mm")
  (fp_text reference REF** (at -0.5 -5.5) (layer F.SilkS)
    (effects (font (size 1 1) (thickness 0.15)))
  )
  (fp_text value k_Wuerth_WR-TBL_3211_01x02_Header_P3.50mm (at 1.55 4.85) (layer F.Fab)
    (effects (font (size 1 1) (thickness 0.15)))
  )
  (fp_line (start -2.45 0) (end -2.45 3) (layer F.SilkS) (width 0.15))
  (fp_line (start -2.45 3) (end 5.95 3) (layer F.SilkS) (width 0.15))
  (fp_line (start 5.95 3) (end 5.95 0) (layer F.SilkS) (width 0.15))
  (fp_line (start -2.45 0) (end -2.45 -4.4) (layer F.SilkS) (width 0.15))
  (fp_line (start -2.45 -4.4) (end 5.95 -4.4) (layer F.SilkS) (width 0.15))
  (fp_line (start 5.95 -4.4) (end 5.95 0) (layer F.SilkS) (width 0.15))
  (fp_line (start -1.5 -4) (end 1.5 -4) (layer F.SilkS) (width 0.15))
  (fp_line (start 1.5 -4) (end 1 -3) (layer F.SilkS) (width 0.15))
  (fp_line (start 1 -3) (end 1 -2.5) (layer F.SilkS) (width 0.15))
  (fp_line (start 1 -2.5) (end 1.5 -2.5) (layer F.SilkS) (width 0.15))
  (fp_line (start 1.5 -2.5) (end 1.5 2.5) (layer F.SilkS) (width 0.15))
  (fp_line (start 1.5 2.5) (end -1.5 2.5) (layer F.SilkS) (width 0.15))
  (fp_line (start -1.5 2.5) (end -1.5 -2.5) (layer F.SilkS) (width 0.15))
  (fp_line (start -1.5 -2.5) (end -1 -2.5) (layer F.SilkS) (width 0.15))
  (fp_line (start -1 -2.5) (end -1.5 -4) (layer F.SilkS) (width 0.15))
  (fp_line (start 2 2.5) (end 2 -2.5) (layer F.SilkS) (width 0.15))
  (fp_line (start 2.5 -2.5) (end 2 -4) (layer F.SilkS) (width 0.15))
  (fp_line (start 4.5 -2.5) (end 5 -2.5) (layer F.SilkS) (width 0.15))
  (fp_line (start 5 -2.5) (end 5 2.5) (layer F.SilkS) (width 0.15))
  (fp_line (start 4.5 -3) (end 4.5 -2.5) (layer F.SilkS) (width 0.15))
  (fp_line (start 5 -4) (end 4.5 -3) (layer F.SilkS) (width 0.15))
  (fp_line (start 5 2.5) (end 2 2.5) (layer F.SilkS) (width 0.15))
  (fp_line (start 2 -4) (end 5 -4) (layer F.SilkS) (width 0.15))
  (fp_line (start 2 -2.5) (end 2.5 -2.5) (layer F.SilkS) (width 0.15))
  (pad 1 thru_hole rect (at 0 0) (size 2.2 2.2) (drill 1.4) (layers *.Cu *.Mask))
  (pad 2 thru_hole circle (at 3.5 0) (size 2.2 2.2) (drill 1.4) (layers *.Cu *.Mask))
  (model ${KIPRJMOD}/kicad_libs_k/models_k.3d/Connector_Wuerth_WR-TBL_k.3dshapes/Wuerth_WR-TBL_3211_01x02_Header_P3.50mm_691321100002_k.stp    (offset (xyz 1.75 0.785 4.5))
    (scale (xyz 1 1 1))
    (rotate (xyz 0 0 0))
  )
  (model ${KIPRJMOD}/kicad_libs_k/models_k.3d/Connector_Wuerth_WR-TBL_k.3dshapes/Wuerth_WR-TBL_3041_01x02_Header_P3.50mm_691304100002_k.stp    (offset (xyz 1.75 0.89 16.3))
    (scale (xyz 1 1 1))
    (rotate (xyz 0 0 0))
  )
)
