(module Transformer_Breve_TEZ-47x57 (layer F.Cu) (tedit 5A030845)
  (descr http://www.breve.pl/pdf/ANG/TEZ_ang.pdf)
  (tags "TEZ PCB Transformer")
  (fp_text reference REF** (at 15 -40) (layer F.SilkS)
    (effects (font (size 1 1) (thickness 0.15)))
  )
  (fp_text value Transformer_Breve_TEZ-47x57 (at 15 -13.5) (layer F.Fab)
    (effects (font (size 1 1) (thickness 0.15)))
  )
  (fp_text user 14 (at 0 -36) (layer F.SilkS)
    (effects (font (size 1 1) (thickness 0.15)))
  )
  (fp_text user 13 (at 5 -36) (layer F.SilkS)
    (effects (font (size 1 1) (thickness 0.15)))
  )
  (fp_text user 12 (at 10 -36) (layer F.SilkS)
    (effects (font (size 1 1) (thickness 0.15)))
  )
  (fp_text user 11 (at 15 -36) (layer F.SilkS)
    (effects (font (size 1 1) (thickness 0.15)))
  )
  (fp_text user 10 (at 20 -36) (layer F.SilkS)
    (effects (font (size 1 1) (thickness 0.15)))
  )
  (fp_text user 9 (at 25 -36) (layer F.SilkS)
    (effects (font (size 1 1) (thickness 0.15)))
  )
  (fp_text user 8 (at 30 -36) (layer F.SilkS)
    (effects (font (size 1 1) (thickness 0.15)))
  )
  (fp_text user 7 (at 30 6.5) (layer F.SilkS)
    (effects (font (size 1 1) (thickness 0.15)))
  )
  (fp_text user 6 (at 25 6.5) (layer F.SilkS)
    (effects (font (size 1 1) (thickness 0.15)))
  )
  (fp_text user 5 (at 20 6.5) (layer F.SilkS)
    (effects (font (size 1 1) (thickness 0.15)))
  )
  (fp_text user 4 (at 15 6.5) (layer F.SilkS)
    (effects (font (size 1 1) (thickness 0.15)))
  )
  (fp_text user 3 (at 10 6.5) (layer F.SilkS)
    (effects (font (size 1 1) (thickness 0.15)))
  )
  (fp_text user 2 (at 5 6.5) (layer F.SilkS)
    (effects (font (size 1 1) (thickness 0.15)))
  )
  (fp_text user 1 (at 0 6.5) (layer F.SilkS)
    (effects (font (size 1 1) (thickness 0.15)))
  )
  (fp_text user %R (at 15 -15) (layer F.Fab)
    (effects (font (size 1 1) (thickness 0.15)))
  )
  (fp_line (start 36 -33.5) (end -6 -33.5) (layer F.SilkS) (width 0.12))
  (fp_line (start -6 -33.5) (end -6 4) (layer F.SilkS) (width 0.12))
  (fp_line (start -6 4) (end 36 4) (layer F.SilkS) (width 0.12))
  (fp_line (start 36 4) (end 36 -33.5) (layer F.SilkS) (width 0.12))
  (fp_line (start 36 -33.5) (end -6 -33.5) (layer F.Fab) (width 0.1))
  (fp_line (start -6 -33.5) (end -6 4) (layer F.Fab) (width 0.1))
  (fp_line (start -6 4) (end 36 4) (layer F.Fab) (width 0.1))
  (fp_line (start 36 4) (end 36 -33.5) (layer F.Fab) (width 0.1))
  (fp_line (start -13.5 -38.5) (end -13.5 8.5) (layer F.Fab) (width 0.1))
  (fp_line (start -13.5 -38.5) (end 43.5 -38.5) (layer F.Fab) (width 0.1))
  (fp_line (start 43.5 -38.5) (end 43.5 8.5) (layer F.Fab) (width 0.1))
  (fp_line (start 43.5 8.5) (end -13.5 8.5) (layer F.Fab) (width 0.1))
  (fp_line (start -13.75 -38.75) (end 43.75 -38.75) (layer F.CrtYd) (width 0.05))
  (fp_line (start -13.75 -38.75) (end -13.75 8.75) (layer F.CrtYd) (width 0.05))
  (fp_line (start 43.75 8.75) (end 43.75 -38.75) (layer F.CrtYd) (width 0.05))
  (fp_line (start 43.75 8.75) (end -13.75 8.75) (layer F.CrtYd) (width 0.05))
  (fp_line (start -13.62 -38.62) (end 43.62 -38.62) (layer F.SilkS) (width 0.12))
  (fp_line (start -13.62 -38.62) (end -13.62 8.62) (layer F.SilkS) (width 0.12))
  (fp_line (start 43.62 8.62) (end 43.62 -38.62) (layer F.SilkS) (width 0.12))
  (fp_line (start 43.62 8.62) (end -13.62 8.62) (layer F.SilkS) (width 0.12))
  (pad 1 thru_hole rect (at 0 0) (size 2 2) (drill 0.9) (layers *.Cu *.Mask))
  (pad 2 thru_hole circle (at 5 0) (size 2 2) (drill 0.9) (layers *.Cu *.Mask))
  (pad 5 thru_hole circle (at 20 0) (size 2 2) (drill 0.9) (layers *.Cu *.Mask))
  (pad 6 thru_hole circle (at 25 0) (size 2 2) (drill 0.9) (layers *.Cu *.Mask))
  (pad 7 thru_hole circle (at 30 0) (size 2 2) (drill 0.9) (layers *.Cu *.Mask))
  (pad 8 thru_hole circle (at 30 -30) (size 2 2) (drill 0.9) (layers *.Cu *.Mask))
  (pad 9 thru_hole circle (at 25 -30) (size 2 2) (drill 0.9) (layers *.Cu *.Mask))
  (pad 10 thru_hole circle (at 20 -30) (size 2 2) (drill 0.9) (layers *.Cu *.Mask))
  (pad 11 thru_hole circle (at 15 -30) (size 2 2) (drill 0.9) (layers *.Cu *.Mask))
  (pad 12 thru_hole circle (at 10 -30) (size 2 2) (drill 0.9) (layers *.Cu *.Mask))
  (pad 3 thru_hole circle (at 10 0) (size 2 2) (drill 0.9) (layers *.Cu *.Mask))
  (pad 14 thru_hole circle (at 0 -30) (size 2 2) (drill 0.9) (layers *.Cu *.Mask))
  (pad 13 thru_hole circle (at 5 -30) (size 2 2) (drill 0.9) (layers *.Cu *.Mask))
  (model ${KIPRJMOD}/kicad_libs_k/models_k.3d/Transformer_THT_k.3dshapes/Transformer_Breve_TEZ-47x57_k.wrl
    (at (xyz 0 0 0))
    (scale (xyz 1 1 1))
    (rotate (xyz 0 0 0))
  )
)
