(module Transformer_Microphone_Lundahl_LL1587 (layer F.Cu) (tedit 5A030845)
  (descr "AUDIO TRAFO LUNDAHL")
  (tags "AUDIO TRAFO LUNDAHL")
  (fp_text reference REF** (at 10.35 -15.55) (layer F.SilkS)
    (effects (font (size 1 1) (thickness 0.15)))
  )
  (fp_text value Transformer_Microphone_Lundahl_LL1587 (at 10.16 -1.9) (layer F.Fab)
    (effects (font (size 1 1) (thickness 0.15)))
  )
  (fp_text user %R (at 10.16 -5.715) (layer F.Fab)
    (effects (font (size 1 1) (thickness 0.15)))
  )
  (fp_line (start 24.13 -5.71) (end 24.13 -14.61) (layer F.Fab) (width 0.1))
  (fp_line (start 24.13 -14.61) (end -3.81 -14.61) (layer F.Fab) (width 0.1))
  (fp_line (start -3.81 -14.61) (end -3.81 3.18) (layer F.Fab) (width 0.1))
  (fp_line (start -3.81 3.18) (end 24.13 3.18) (layer F.Fab) (width 0.1))
  (fp_line (start 24.13 3.18) (end 24.13 -5.71) (layer F.Fab) (width 0.1))
  (fp_line (start -4.06 -14.86) (end 24.38 -14.86) (layer F.CrtYd) (width 0.05))
  (fp_line (start -4.06 -14.86) (end -4.06 3.43) (layer F.CrtYd) (width 0.05))
  (fp_line (start 24.38 3.43) (end 24.38 -14.86) (layer F.CrtYd) (width 0.05))
  (fp_line (start 24.38 3.43) (end -4.06 3.43) (layer F.CrtYd) (width 0.05))
  (fp_line (start -3.93 -14.72) (end 24.25 -14.72) (layer F.SilkS) (width 0.12))
  (fp_line (start -3.93 -14.72) (end -3.93 3.3) (layer F.SilkS) (width 0.12))
  (fp_line (start 24.25 3.3) (end 24.25 -14.72) (layer F.SilkS) (width 0.12))
  (fp_line (start 24.25 3.3) (end -3.93 3.3) (layer F.SilkS) (width 0.12))
  (fp_circle (center -2.45 1.7) (end -1.75 2.5) (layer F.SilkS) (width 0.12))
  (fp_circle (center -1.27 0.63) (end -1.27 -0.63) (layer F.Fab) (width 0.1))
  (pad 1 thru_hole rect (at 0 0) (size 2.29 2.29) (drill 1.52) (layers *.Cu *.Mask))
  (pad 2 thru_hole circle (at 0 -3.81) (size 2.29 2.29) (drill 1.52) (layers *.Cu *.Mask))
  (pad 3 thru_hole circle (at 0 -7.62) (size 2.29 2.29) (drill 1.52) (layers *.Cu *.Mask))
  (pad 4 thru_hole circle (at 0 -11.43) (size 2.29 2.29) (drill 1.52) (layers *.Cu *.Mask))
  (pad 5 thru_hole circle (at 20.32 0) (size 2.29 2.29) (drill 1.52) (layers *.Cu *.Mask))
  (pad 6 thru_hole circle (at 20.32 -3.81) (size 2.29 2.29) (drill 1.52) (layers *.Cu *.Mask))
  (pad 8 thru_hole circle (at 20.32 -11.43) (size 2.29 2.29) (drill 1.52) (layers *.Cu *.Mask))
  (model ${KIPRJMOD}/kicad_libs_k/models_k.3d/Transformer_THT_k.3dshapes/Transformer_Microphone_Lundahl_LL1587_k.wrl
    (at (xyz 0 0 0))
    (scale (xyz 1 1 1))
    (rotate (xyz 0 0 0))
  )
)
