(module Transformer_Breve_TEZ-22x24 (layer F.Cu) (tedit 5A030845)
  (descr http://www.breve.pl/pdf/ANG/TEZ_ang.pdf)
  (tags "TEZ PCB Transformer")
  (fp_text reference REF** (at 7.5 -20) (layer F.SilkS)
    (effects (font (size 1 1) (thickness 0.15)))
  )
  (fp_text value Transformer_Breve_TEZ-22x24 (at 7.25 -6) (layer F.Fab)
    (effects (font (size 1 1) (thickness 0.15)))
  )
  (fp_text user 8 (at 0 -17) (layer F.SilkS)
    (effects (font (size 1 1) (thickness 0.15)))
  )
  (fp_text user 7 (at 5 -17) (layer F.SilkS)
    (effects (font (size 1 1) (thickness 0.15)))
  )
  (fp_text user 6 (at 10 -17) (layer F.SilkS)
    (effects (font (size 1 1) (thickness 0.15)))
  )
  (fp_text user 5 (at 15 -17) (layer F.SilkS)
    (effects (font (size 1 1) (thickness 0.15)))
  )
  (fp_text user 4 (at 15 2.5) (layer F.SilkS)
    (effects (font (size 1 1) (thickness 0.15)))
  )
  (fp_text user 3 (at 10 2.5) (layer F.SilkS)
    (effects (font (size 1 1) (thickness 0.15)))
  )
  (fp_text user 2 (at 5 2.5) (layer F.SilkS)
    (effects (font (size 1 1) (thickness 0.15)))
  )
  (fp_text user 1 (at 0 2.5) (layer F.SilkS)
    (effects (font (size 1 1) (thickness 0.15)))
  )
  (fp_text user %R (at 7.5 -7.5) (layer F.Fab)
    (effects (font (size 1 1) (thickness 0.15)))
  )
  (fp_line (start -1.5 -16) (end 16.5 -16) (layer F.Fab) (width 0.1))
  (fp_line (start 16.5 -16) (end 16.5 1) (layer F.Fab) (width 0.1))
  (fp_line (start 16.5 1) (end -1.5 1) (layer F.Fab) (width 0.1))
  (fp_line (start -1.5 1) (end -1.5 -16) (layer F.Fab) (width 0.1))
  (fp_line (start 4 1) (end 1.5 1) (layer F.SilkS) (width 0.12))
  (fp_line (start -1.5 1) (end -1.5 -16) (layer F.SilkS) (width 0.12))
  (fp_line (start 16 1) (end 16.5 1) (layer F.SilkS) (width 0.12))
  (fp_line (start 16.5 1) (end 16.5 -16) (layer F.SilkS) (width 0.12))
  (fp_line (start 6 1) (end 14 1) (layer F.SilkS) (width 0.12))
  (fp_line (start -1 -16) (end -1.5 -16) (layer F.SilkS) (width 0.12))
  (fp_line (start 16 -16) (end 16.5 -16) (layer F.SilkS) (width 0.12))
  (fp_line (start 11 -16) (end 14 -16) (layer F.SilkS) (width 0.12))
  (fp_line (start 6 -16) (end 9 -16) (layer F.SilkS) (width 0.12))
  (fp_line (start 1 -16) (end 4 -16) (layer F.SilkS) (width 0.12))
  (fp_line (start -4.5 -18.5) (end 19.5 -18.5) (layer F.Fab) (width 0.1))
  (fp_line (start 19.5 -18.5) (end 19.5 3.5) (layer F.Fab) (width 0.1))
  (fp_line (start 19.5 3.5) (end -4.5 3.5) (layer F.Fab) (width 0.1))
  (fp_line (start -4.5 3.5) (end -4.5 -18.5) (layer F.Fab) (width 0.1))
  (fp_line (start -4.75 -18.75) (end 19.75 -18.75) (layer F.CrtYd) (width 0.05))
  (fp_line (start -4.75 -18.75) (end -4.75 3.75) (layer F.CrtYd) (width 0.05))
  (fp_line (start 19.75 3.75) (end 19.75 -18.75) (layer F.CrtYd) (width 0.05))
  (fp_line (start 19.75 3.75) (end -4.75 3.75) (layer F.CrtYd) (width 0.05))
  (fp_line (start -4.62 -18.62) (end 19.62 -18.62) (layer F.SilkS) (width 0.12))
  (fp_line (start -4.62 -18.62) (end -4.62 3.62) (layer F.SilkS) (width 0.12))
  (fp_line (start 19.62 3.62) (end 19.62 -18.62) (layer F.SilkS) (width 0.12))
  (fp_line (start 19.62 3.62) (end -4.62 3.62) (layer F.SilkS) (width 0.12))
  (pad 1 thru_hole rect (at 0 0) (size 2 2) (drill 0.9) (layers *.Cu *.Mask))
  (pad 2 thru_hole circle (at 5 0) (size 2 2) (drill 0.9) (layers *.Cu *.Mask))
  (pad 4 thru_hole circle (at 15 0) (size 2 2) (drill 0.9) (layers *.Cu *.Mask))
  (pad 5 thru_hole circle (at 15 -15) (size 2 2) (drill 0.9) (layers *.Cu *.Mask))
  (pad 6 thru_hole circle (at 10 -15) (size 2 2) (drill 0.9) (layers *.Cu *.Mask))
  (pad 7 thru_hole circle (at 5 -15) (size 2 2) (drill 0.9) (layers *.Cu *.Mask))
  (pad 8 thru_hole circle (at 0 -15) (size 2 2) (drill 0.9) (layers *.Cu *.Mask))
  (model ${KIPRJMOD}/kicad_libs_k/models_k.3d/Transformer_THT_k.3dshapes/Transformer_Breve_TEZ-22x24_k.wrl
    (at (xyz 0 0 0))
    (scale (xyz 1 1 1))
    (rotate (xyz 0 0 0))
  )
)
