(module Transformer_CHK_EI30-2VA_2xSec (layer F.Cu) (tedit 5A030845)
  (descr "Trafo, Printtrafo, CHK, EI30, 2VA, 2x Sec,")
  (tags "Trafo Printtrafo CHK EI30 2VA 2x Sec ")
  (fp_text reference REF** (at 10 -27.78) (layer F.SilkS)
    (effects (font (size 1 1) (thickness 0.15)))
  )
  (fp_text value Transformer_CHK_EI30-2VA_2xSec (at 11 -10 90) (layer F.Fab)
    (effects (font (size 1 1) (thickness 0.15)))
  )
  (fp_text user Sec-II (at 16.5 -2.5 90) (layer F.Fab)
    (effects (font (size 1 1) (thickness 0.15)))
  )
  (fp_text user Sec-I (at 16.5 -17.5 90) (layer F.Fab)
    (effects (font (size 1 1) (thickness 0.15)))
  )
  (fp_text user 10 (at 16.5 1 90) (layer F.Fab)
    (effects (font (size 1 1) (thickness 0.15)))
  )
  (fp_text user 9 (at 16.5 -6 90) (layer F.Fab)
    (effects (font (size 1 1) (thickness 0.15)))
  )
  (fp_text user 7 (at 16.5 -14 90) (layer F.Fab)
    (effects (font (size 1 1) (thickness 0.15)))
  )
  (fp_text user 6 (at 16.5 -22 90) (layer F.Fab)
    (effects (font (size 1 1) (thickness 0.15)))
  )
  (fp_text user Pri (at 3 -10 90) (layer F.SilkS)
    (effects (font (size 1 1) (thickness 0.15)))
  )
  (fp_text user 5 (at 3 -22 90) (layer F.Fab)
    (effects (font (size 1 1) (thickness 0.15)))
  )
  (fp_text user 1 (at 3 2 90) (layer F.SilkS)
    (effects (font (size 1 1) (thickness 0.15)))
  )
  (fp_text user %R (at 9 -10 90) (layer F.Fab)
    (effects (font (size 1 1) (thickness 0.15)))
  )
  (fp_line (start 15 -1) (end 12 -1) (layer F.Fab) (width 0.1))
  (fp_line (start 12 -2) (end 15 -2) (layer F.Fab) (width 0.1))
  (fp_line (start 15 -3) (end 12 -3) (layer F.Fab) (width 0.1))
  (fp_line (start 12 -4) (end 15 -4) (layer F.Fab) (width 0.1))
  (fp_line (start 13 -5) (end 13 0) (layer F.Fab) (width 0.1))
  (fp_line (start 15 0) (end 14 0) (layer F.Fab) (width 0.1))
  (fp_line (start 14 0) (end 14 -5) (layer F.Fab) (width 0.1))
  (fp_line (start 15 -5) (end 15 0) (layer F.Fab) (width 0.1))
  (fp_line (start 17 -5) (end 12 -5) (layer F.Fab) (width 0.1))
  (fp_line (start 12 -5) (end 12 0) (layer F.Fab) (width 0.1))
  (fp_line (start 12 0) (end 17 0) (layer F.Fab) (width 0.1))
  (fp_line (start 15 -16) (end 12 -16) (layer F.Fab) (width 0.1))
  (fp_line (start 12 -17) (end 15 -17) (layer F.Fab) (width 0.1))
  (fp_line (start 15 -18) (end 12 -18) (layer F.Fab) (width 0.1))
  (fp_line (start 12 -19) (end 15 -19) (layer F.Fab) (width 0.1))
  (fp_line (start 13 -20) (end 12 -20) (layer F.Fab) (width 0.1))
  (fp_line (start 12 -20) (end 12 -15) (layer F.Fab) (width 0.1))
  (fp_line (start 12 -15) (end 13 -15) (layer F.Fab) (width 0.1))
  (fp_line (start 14 -20) (end 13 -20) (layer F.Fab) (width 0.1))
  (fp_line (start 13 -20) (end 13 -15) (layer F.Fab) (width 0.1))
  (fp_line (start 13 -15) (end 14 -15) (layer F.Fab) (width 0.1))
  (fp_line (start 15 -20) (end 14 -20) (layer F.Fab) (width 0.1))
  (fp_line (start 14 -20) (end 14 -15) (layer F.Fab) (width 0.1))
  (fp_line (start 14 -15) (end 15 -15) (layer F.Fab) (width 0.1))
  (fp_line (start 17 -20) (end 15 -20) (layer F.Fab) (width 0.1))
  (fp_line (start 15 -20) (end 15 -15) (layer F.Fab) (width 0.1))
  (fp_line (start 15 -15) (end 17 -15) (layer F.Fab) (width 0.1))
  (fp_line (start 5 -1) (end 8 -1) (layer F.Fab) (width 0.1))
  (fp_line (start 8 -2) (end 5 -2) (layer F.Fab) (width 0.1))
  (fp_line (start 5 -3) (end 8 -3) (layer F.Fab) (width 0.1))
  (fp_line (start 8 -4) (end 5 -4) (layer F.Fab) (width 0.1))
  (fp_line (start 5 -5) (end 8 -5) (layer F.Fab) (width 0.1))
  (fp_line (start 8 -6) (end 5 -6) (layer F.Fab) (width 0.1))
  (fp_line (start 5 -7) (end 8 -7) (layer F.Fab) (width 0.1))
  (fp_line (start 8 -8) (end 5 -8) (layer F.Fab) (width 0.1))
  (fp_line (start 5 -9) (end 8 -9) (layer F.Fab) (width 0.1))
  (fp_line (start 8 -10) (end 5 -10) (layer F.Fab) (width 0.1))
  (fp_line (start 5 -11) (end 8 -11) (layer F.Fab) (width 0.1))
  (fp_line (start 8 -12) (end 5 -12) (layer F.Fab) (width 0.1))
  (fp_line (start 5 -13) (end 8 -13) (layer F.Fab) (width 0.1))
  (fp_line (start 8 -14) (end 5 -14) (layer F.Fab) (width 0.1))
  (fp_line (start 5 -15) (end 8 -15) (layer F.Fab) (width 0.1))
  (fp_line (start 8 -16) (end 5 -16) (layer F.Fab) (width 0.1))
  (fp_line (start 5 -17) (end 8 -17) (layer F.Fab) (width 0.1))
  (fp_line (start 8 -18) (end 5 -18) (layer F.Fab) (width 0.1))
  (fp_line (start 5 -19) (end 8 -19) (layer F.Fab) (width 0.1))
  (fp_line (start 7 -20) (end 8 -20) (layer F.Fab) (width 0.1))
  (fp_line (start 8 -20) (end 8 0) (layer F.Fab) (width 0.1))
  (fp_line (start 8 0) (end 7 0) (layer F.Fab) (width 0.1))
  (fp_line (start 6 -20) (end 7 -20) (layer F.Fab) (width 0.1))
  (fp_line (start 7 -20) (end 7 0) (layer F.Fab) (width 0.1))
  (fp_line (start 7 0) (end 6 0) (layer F.Fab) (width 0.1))
  (fp_line (start 5 -20) (end 6 -20) (layer F.Fab) (width 0.1))
  (fp_line (start 6 -20) (end 6 0) (layer F.Fab) (width 0.1))
  (fp_line (start 6 0) (end 5 0) (layer F.Fab) (width 0.1))
  (fp_line (start 3 -20) (end 5 -20) (layer F.Fab) (width 0.1))
  (fp_line (start 5 -20) (end 5 0) (layer F.Fab) (width 0.1))
  (fp_line (start 5 0) (end 3 0) (layer F.Fab) (width 0.1))
  (fp_line (start -3.5 6) (end 23.5 6) (layer F.Fab) (width 0.1))
  (fp_line (start 23.5 6) (end 23.5 -26) (layer F.Fab) (width 0.1))
  (fp_line (start 23.5 -26) (end -3.5 -26) (layer F.Fab) (width 0.1))
  (fp_line (start -3.5 -26) (end -3.5 6) (layer F.Fab) (width 0.1))
  (fp_line (start -3.75 -26.25) (end 23.75 -26.25) (layer F.CrtYd) (width 0.05))
  (fp_line (start -3.75 -26.25) (end -3.75 6.25) (layer F.CrtYd) (width 0.05))
  (fp_line (start 23.75 6.25) (end 23.75 -26.25) (layer F.CrtYd) (width 0.05))
  (fp_line (start 23.75 6.25) (end -3.75 6.25) (layer F.CrtYd) (width 0.05))
  (fp_line (start -3.62 -26.12) (end 23.62 -26.12) (layer F.SilkS) (width 0.12))
  (fp_line (start -3.62 -26.12) (end -3.62 6.12) (layer F.SilkS) (width 0.12))
  (fp_line (start 23.62 6.12) (end 23.62 -26.12) (layer F.SilkS) (width 0.12))
  (fp_line (start 23.62 6.12) (end -3.62 6.12) (layer F.SilkS) (width 0.12))
  (pad 1 thru_hole circle (at 0 0) (size 3 3) (drill 1.5) (layers *.Cu *.Mask))
  (pad 2 thru_hole circle (at 0 -5) (size 3 3) (drill 1.5) (layers *.Cu *.Mask))
  (pad 3 thru_hole circle (at 0 -10) (size 3 3) (drill 1.5) (layers *.Cu *.Mask))
  (pad 4 thru_hole circle (at 0 -15) (size 3 3) (drill 1.5) (layers *.Cu *.Mask))
  (pad 5 thru_hole circle (at 0 -20) (size 3 3) (drill 1.5) (layers *.Cu *.Mask))
  (pad 6 thru_hole circle (at 20 -20) (size 3 3) (drill 1.5) (layers *.Cu *.Mask))
  (pad 7 thru_hole circle (at 20 -15) (size 3 3) (drill 1.5) (layers *.Cu *.Mask))
  (pad 8 thru_hole circle (at 20 -10) (size 3 3) (drill 1.5) (layers *.Cu *.Mask))
  (pad 9 thru_hole circle (at 20 -5) (size 3 3) (drill 1.5) (layers *.Cu *.Mask))
  (pad 10 thru_hole circle (at 20 0) (size 3 3) (drill 1.5) (layers *.Cu *.Mask))
  (model ${KIPRJMOD}/kicad_libs_k/models_k.3d/Transformer_THT_k.3dshapes/Transformer_CHK_EI30-2VA_2xSec_k.wrl
    (at (xyz 0 0 0))
    (scale (xyz 1 1 1))
    (rotate (xyz 0 0 0))
  )
)
