(module Potentiometer_Bourns_3214G_Horizontal (layer F.Cu) (tedit 5A3D7171)
  (descr "Potentiometer, horizontal, Bourns 3214G, https://www.bourns.com/docs/Product-Datasheets/3214.pdf")
  (tags "Potentiometer horizontal Bourns 3214G")
  (attr smd)
  (fp_text reference REF** (at 0 -3.65) (layer F.SilkS)
    (effects (font (size 1 1) (thickness 0.15)))
  )
  (fp_text value Potentiometer_Bourns_3214G_Horizontal (at 0 3.65) (layer F.Fab)
    (effects (font (size 1 1) (thickness 0.15)))
  )
  (fp_line (start -2.3 -2.4) (end -2.3 2.4) (layer F.Fab) (width 0.1))
  (fp_line (start -2.3 2.4) (end 2.3 2.4) (layer F.Fab) (width 0.1))
  (fp_line (start 2.3 2.4) (end 2.3 -2.4) (layer F.Fab) (width 0.1))
  (fp_line (start 2.3 -2.4) (end -2.3 -2.4) (layer F.Fab) (width 0.1))
  (fp_line (start -2.3 -2.02) (end -2.3 -0.24) (layer F.Fab) (width 0.1))
  (fp_line (start -2.3 -0.24) (end -2.3 -0.24) (layer F.Fab) (width 0.1))
  (fp_line (start -2.3 -0.24) (end -2.3 -2.02) (layer F.Fab) (width 0.1))
  (fp_line (start -2.3 -2.02) (end -2.3 -2.02) (layer F.Fab) (width 0.1))
  (fp_line (start -2.3 -1.13) (end -2.3 -1.13) (layer F.Fab) (width 0.1))
  (fp_line (start -2.42 -2.52) (end 2.42 -2.52) (layer F.SilkS) (width 0.12))
  (fp_line (start -2.42 2.52) (end 2.42 2.52) (layer F.SilkS) (width 0.12))
  (fp_line (start -2.42 -2.52) (end -2.42 -1.24) (layer F.SilkS) (width 0.12))
  (fp_line (start -2.42 1.24) (end -2.42 2.52) (layer F.SilkS) (width 0.12))
  (fp_line (start 2.42 -2.52) (end 2.42 -2.04) (layer F.SilkS) (width 0.12))
  (fp_line (start 2.42 -0.26) (end 2.42 0.26) (layer F.SilkS) (width 0.12))
  (fp_line (start 2.42 2.04) (end 2.42 2.52) (layer F.SilkS) (width 0.12))
  (fp_line (start -2.42 -2.14) (end -2.42 -2.14) (layer F.SilkS) (width 0.12))
  (fp_line (start -2.42 -2.14) (end -2.42 -1.24) (layer F.SilkS) (width 0.12))
  (fp_line (start -2.42 -2.14) (end -2.42 -1.24) (layer F.SilkS) (width 0.12))
  (fp_line (start -3.5 -2.65) (end -3.5 2.65) (layer F.CrtYd) (width 0.05))
  (fp_line (start -3.5 2.65) (end 3.5 2.65) (layer F.CrtYd) (width 0.05))
  (fp_line (start 3.5 2.65) (end 3.5 -2.65) (layer F.CrtYd) (width 0.05))
  (fp_line (start 3.5 -2.65) (end -3.5 -2.65) (layer F.CrtYd) (width 0.05))
  (pad 1 smd rect (at 2.6 -1.15) (size 1.3 1.3) (layers F.Cu F.Paste F.Mask))
  (pad 2 smd rect (at -2.6 0) (size 1.3 2) (layers F.Cu F.Paste F.Mask))
  (pad 3 smd rect (at 2.6 1.15) (size 1.3 1.3) (layers F.Cu F.Paste F.Mask))
  (fp_text user %R (at -0 0) (layer F.Fab)
    (effects (font (size 1 1) (thickness 0.15)))
  )
  (model ${KIPRJMOD}/kicad_libs_k/models_k.3d/Potentiometer_SMD_k.3dshapes/Potentiometer_Bourns_3214G_Horizontal_k.wrl
    (at (xyz 0 0 0))
    (scale (xyz 1 1 1))
    (rotate (xyz 0 0 0))
  )
)