(module Potentiometer_Bourns_3224X_Vertical (layer F.Cu) (tedit 5A3D7171)
  (descr "Potentiometer, vertical, Bourns 3224X, https://www.bourns.com/docs/Product-Datasheets/3224.pdf")
  (tags "Potentiometer vertical Bourns 3224X")
  (attr smd)
  (fp_text reference REF** (at -0.1 -4.75) (layer F.SilkS)
    (effects (font (size 1 1) (thickness 0.15)))
  )
  (fp_text value Potentiometer_Bourns_3224X_Vertical (at -0.1 4.75) (layer F.Fab)
    (effects (font (size 1 1) (thickness 0.15)))
  )
  (fp_circle (center -1.3 0.65) (end -0.55 0.65) (layer F.Fab) (width 0.1))
  (fp_line (start -2.5 -1.75) (end -2.5 1.75) (layer F.Fab) (width 0.1))
  (fp_line (start -2.5 1.75) (end 2.3 1.75) (layer F.Fab) (width 0.1))
  (fp_line (start 2.3 1.75) (end 2.3 -1.75) (layer F.Fab) (width 0.1))
  (fp_line (start 2.3 -1.75) (end -2.5 -1.75) (layer F.Fab) (width 0.1))
  (fp_line (start -1.3 1.393) (end -1.299 -0.092) (layer F.Fab) (width 0.1))
  (fp_line (start -1.3 1.393) (end -1.299 -0.092) (layer F.Fab) (width 0.1))
  (fp_line (start 2.04 -1.87) (end 2.42 -1.87) (layer F.SilkS) (width 0.12))
  (fp_line (start -2.62 -1.87) (end -2.039 -1.87) (layer F.SilkS) (width 0.12))
  (fp_line (start -0.26 -1.87) (end 0.26 -1.87) (layer F.SilkS) (width 0.12))
  (fp_line (start -2.62 1.87) (end -1.24 1.87) (layer F.SilkS) (width 0.12))
  (fp_line (start 1.24 1.87) (end 2.42 1.87) (layer F.SilkS) (width 0.12))
  (fp_line (start -2.62 -1.87) (end -2.62 1.87) (layer F.SilkS) (width 0.12))
  (fp_line (start 2.42 -1.87) (end 2.42 1.87) (layer F.SilkS) (width 0.12))
  (fp_line (start -2.75 -3.75) (end -2.75 3.75) (layer F.CrtYd) (width 0.05))
  (fp_line (start -2.75 3.75) (end 2.55 3.75) (layer F.CrtYd) (width 0.05))
  (fp_line (start 2.55 3.75) (end 2.55 -3.75) (layer F.CrtYd) (width 0.05))
  (fp_line (start 2.55 -3.75) (end -2.75 -3.75) (layer F.CrtYd) (width 0.05))
  (pad 1 smd rect (at 1.15 -2.55) (size 1.3 1.9) (layers F.Cu F.Paste F.Mask))
  (pad 2 smd rect (at 0 2.55) (size 2 1.9) (layers F.Cu F.Paste F.Mask))
  (pad 3 smd rect (at -1.15 -2.55) (size 1.3 1.9) (layers F.Cu F.Paste F.Mask))
  (fp_text user %R (at 0.5 0) (layer F.Fab)
    (effects (font (size 0.6 0.6) (thickness 0.15)))
  )
  (model ${KIPRJMOD}/kicad_libs_k/models_k.3d/Potentiometer_SMD_k.3dshapes/Potentiometer_Bourns_3224X_Vertical_k.wrl
    (at (xyz 0 0 0))
    (scale (xyz 1 1 1))
    (rotate (xyz 0 0 0))
  )
)