(module WE-XTAL_rev19c-WE-XTAL_HC49_4H (layer F.Cu) (tedit 200000)
  (descr "WE-XTAL QUARTZ CRYSTAL")
  (tags "WE-XTAL QUARTZ CRYSTAL")
  (attr virtual)
  (fp_text reference >NAME (at 0 -3.7338) (layer F.SilkS)
    (effects (font (size 1.27 1.27) (thickness 0.1016)))
  )
  (fp_text value >VALUE (at 0.40894 3.76428) (layer F.SilkS)
    (effects (font (size 1.27 1.27) (thickness 0.1016)))
  )
  (fp_line (start -3.175 -2.3495) (end 3.175 -2.3495) (layer Dwgs.User) (width 0.09906))
  (fp_line (start 3.19786 2.3495) (end -3.19786 2.3495) (layer Dwgs.User) (width 0.09906))
  (fp_line (start -3.19786 -1.84404) (end 3.19786 -1.84404) (layer Dwgs.User) (width 0.09906))
  (fp_line (start 3.19786 1.84404) (end -3.19786 1.84404) (layer Dwgs.User) (width 0.09906))
  (fp_line (start -3.29946 -2.44856) (end 3.06832 -2.44856) (layer F.SilkS) (width 0.19812))
  (fp_line (start 3.06832 -2.44856) (end 3.29946 -2.44856) (layer F.SilkS) (width 0.19812))
  (fp_line (start 3.29946 2.44856) (end -3.06832 2.44856) (layer F.SilkS) (width 0.19812))
  (fp_line (start -3.06832 2.44856) (end -3.29946 2.44856) (layer F.SilkS) (width 0.19812))
  (fp_poly (pts (xy -5.82422 -2.64922) (xy 5.82422 -2.64922) (xy 5.82422 2.64922) (xy -5.82422 2.64922)
    (xy -5.82422 -2.64922)) (layer Dwgs.User) (width 0.09906))
  (fp_arc (start -3.18516 0) (end -3.19786 2.3495) (angle 180) (layer Dwgs.User) (width 0.09906))
  (fp_arc (start 3.18516 0) (end 3.175 -2.3495) (angle 180) (layer Dwgs.User) (width 0.09906))
  (fp_arc (start -3.15468 -0.00254) (end -3.13944 1.83896) (angle 180) (layer Dwgs.User) (width 0.09906))
  (fp_arc (start 3.13436 -0.00254) (end 3.08864 -1.84912) (angle 180) (layer Dwgs.User) (width 0.09906))
  (fp_arc (start -3.19278 0) (end -3.06832 2.44856) (angle 180) (layer F.SilkS) (width 0.19812))
  (fp_arc (start 3.19786 0) (end 3.06832 -2.44856) (angle 180) (layer F.SilkS) (width 0.19812))
  (pad 1 thru_hole circle (at -2.4384 0) (size 1.2065 1.2065) (drill 0.6985) (layers *.Cu *.Paste *.Mask))
  (pad 2 thru_hole circle (at 2.4384 0) (size 1.2065 1.2065) (drill 0.6985) (layers *.Cu *.Paste *.Mask))
)
