(module WE-XTAL_rev19c-WE-XTAL_CFPX-180 (layer F.Cu) (tedit 200000)
  (descr "WE-XTAL QUARTZ CRYSTAL")
  (tags "WE-XTAL QUARTZ CRYSTAL")
  (attr smd)
  (fp_text reference >NAME (at 0 -2.9337) (layer F.SilkS)
    (effects (font (size 1.27 1.27) (thickness 0.1016)))
  )
  (fp_text value >VALUE (at 0.40894 2.96418) (layer F.SilkS)
    (effects (font (size 1.27 1.27) (thickness 0.1016)))
  )
  (fp_line (start -1.69926 -1.34874) (end 1.69926 -1.34874) (layer Dwgs.User) (width 0.09906))
  (fp_line (start 1.69926 -1.34874) (end 1.69926 1.34874) (layer Dwgs.User) (width 0.09906))
  (fp_line (start 1.69926 1.34874) (end -1.69926 1.34874) (layer Dwgs.User) (width 0.09906))
  (fp_line (start -1.69926 1.34874) (end -1.69926 -1.34874) (layer Dwgs.User) (width 0.09906))
  (fp_line (start -0.04826 -1.4478) (end 0.04826 -1.4478) (layer F.SilkS) (width 0.19812))
  (fp_line (start -0.04826 1.4478) (end 0.04826 1.4478) (layer F.SilkS) (width 0.19812))
  (fp_poly (pts (xy -1.99898 -1.5494) (xy 1.99898 -1.5494) (xy 1.99898 1.5494) (xy -1.99898 1.5494)
    (xy -1.99898 -1.5494)) (layer Dwgs.User) (width 0.09906))
  (fp_circle (center -2.19964 1.69926) (end -2.19964 1.6002) (layer F.SilkS) (width 0.19812))
  (pad 1 smd rect (at -1.09982 0.79756) (size 1.39954 1.14808) (layers F.Cu F.Paste F.Mask))
  (pad 2 smd rect (at 1.09982 0.79756) (size 1.39954 1.14808) (layers F.Cu F.Paste F.Mask))
  (pad 3 smd rect (at 1.09982 -0.79756) (size 1.39954 1.14808) (layers F.Cu F.Paste F.Mask))
  (pad 4 smd rect (at -1.09982 -0.79756) (size 1.39954 1.14808) (layers F.Cu F.Paste F.Mask))
)
