(module WE-XTAL_rev19c-WE-XTAL_CFPX-104 (layer F.Cu) (tedit 200000)
  (descr "WE-XTAL QUARTZ CRYSTAL")
  (tags "WE-XTAL QUARTZ CRYSTAL")
  (attr smd)
  (fp_text reference >NAME (at 0 -3.23342) (layer F.SilkS)
    (effects (font (size 1.27 1.27) (thickness 0.1016)))
  )
  (fp_text value >VALUE (at 0.40894 3.2639) (layer F.SilkS)
    (effects (font (size 1.27 1.27) (thickness 0.1016)))
  )
  (fp_line (start -2.49936 -1.59766) (end 2.49936 -1.59766) (layer Dwgs.User) (width 0.09906))
  (fp_line (start 2.49936 -1.59766) (end 2.49936 1.59766) (layer Dwgs.User) (width 0.09906))
  (fp_line (start 2.49936 1.59766) (end -2.49936 1.59766) (layer Dwgs.User) (width 0.09906))
  (fp_line (start -2.49936 1.59766) (end -2.49936 -1.59766) (layer Dwgs.User) (width 0.09906))
  (fp_line (start -0.6985 -1.69926) (end 0.6985 -1.69926) (layer F.SilkS) (width 0.19812))
  (fp_line (start -0.6985 1.69926) (end 0.6985 1.69926) (layer F.SilkS) (width 0.19812))
  (fp_line (start -2.59842 -0.04826) (end -2.59842 0.04826) (layer F.SilkS) (width 0.19812))
  (fp_line (start 2.59842 -0.04826) (end 2.59842 0.04826) (layer F.SilkS) (width 0.19812))
  (fp_poly (pts (xy -2.89814 -2.04978) (xy 2.89814 -2.04978) (xy 2.89814 2.04978) (xy -2.89814 2.04978)
    (xy -2.89814 -2.04978)) (layer Dwgs.User) (width 0.09906))
  (fp_circle (center -3.0988 2.09804) (end -3.0988 1.99898) (layer F.SilkS) (width 0.19812))
  (pad 1 smd rect (at -1.89992 1.14808) (size 1.59766 1.39954) (layers F.Cu F.Paste F.Mask))
  (pad 2 smd rect (at 1.89992 1.14808) (size 1.59766 1.39954) (layers F.Cu F.Paste F.Mask))
  (pad 3 smd rect (at 1.89992 -1.14808) (size 1.59766 1.39954) (layers F.Cu F.Paste F.Mask))
  (pad 4 smd rect (at -1.89992 -1.14808) (size 1.59766 1.39954) (layers F.Cu F.Paste F.Mask))
)
