(module WE-XTAL_rev19c-WE-XTAL_CFPX-218 (layer F.Cu) (tedit 200000)
  (descr "WE-XTAL QUARTZ CRYSTAL")
  (tags "WE-XTAL QUARTZ CRYSTAL")
  (attr smd)
  (fp_text reference >NAME (at 0 -2.63398) (layer F.SilkS)
    (effects (font (size 1.27 1.27) (thickness 0.1016)))
  )
  (fp_text value >VALUE (at 0.40894 2.36474) (layer F.SilkS)
    (effects (font (size 1.27 1.27) (thickness 0.1016)))
  )
  (fp_line (start -1.24968 -0.99822) (end 1.24968 -0.99822) (layer Dwgs.User) (width 0.09906))
  (fp_line (start 1.24968 -0.99822) (end 1.24968 0.99822) (layer Dwgs.User) (width 0.09906))
  (fp_line (start 1.24968 0.99822) (end -1.24968 0.99822) (layer Dwgs.User) (width 0.09906))
  (fp_line (start -1.24968 0.99822) (end -1.24968 -0.99822) (layer Dwgs.User) (width 0.09906))
  (fp_poly (pts (xy -1.5494 -1.29794) (xy 1.5494 -1.29794) (xy 1.5494 1.29794) (xy -1.5494 1.29794)
    (xy -1.5494 -1.29794)) (layer Dwgs.User) (width 0.09906))
  (fp_circle (center -1.69926 1.29794) (end -1.69926 1.19888) (layer F.SilkS) (width 0.19812))
  (pad 1 smd rect (at -0.82296 0.61214) (size 0.99822 0.89916) (layers F.Cu F.Paste F.Mask))
  (pad 2 smd rect (at 0.82296 0.61214) (size 0.99822 0.89916) (layers F.Cu F.Paste F.Mask))
  (pad 3 smd rect (at 0.82296 -0.61214) (size 0.99822 0.89916) (layers F.Cu F.Paste F.Mask))
  (pad 4 smd rect (at -0.82296 -0.61214) (size 0.99822 0.89916) (layers F.Cu F.Paste F.Mask))
)
