(module CP_EIA-3528-21_Kemet-B_Pad1.63x2.40mm_HandSolder (layer F.Cu) (tedit 5A1ED0F1)
  (descr "Tantalum Capacitor SMD Kemet-B (3528-21 Metric), IPC_7351 nominal, (Body size from: http://www.kemet.com/Lists/ProductCatalog/Attachments/253/KEM_TC101_STD.pdf), generated with kicad-footprint-generator")
  (tags "capacitor tantalum")
  (attr smd)
  (fp_text reference REF** (at 0 -2.35) (layer F.SilkS)
    (effects (font (size 1 1) (thickness 0.15)))
  )
  (fp_text value CP_EIA-3528-21_Kemet-B_Pad1.63x2.40mm_HandSolder (at 0 2.35) (layer F.Fab)
    (effects (font (size 1 1) (thickness 0.15)))
  )
  (fp_line (start 1.75 -1.4) (end -1.05 -1.4) (layer F.Fab) (width 0.1))
  (fp_line (start -1.05 -1.4) (end -1.75 -0.7) (layer F.Fab) (width 0.1))
  (fp_line (start -1.75 -0.7) (end -1.75 1.4) (layer F.Fab) (width 0.1))
  (fp_line (start -1.75 1.4) (end 1.75 1.4) (layer F.Fab) (width 0.1))
  (fp_line (start 1.75 1.4) (end 1.75 -1.4) (layer F.Fab) (width 0.1))
  (fp_line (start 1.75 -1.66) (end -2.645 -1.66) (layer F.SilkS) (width 0.12))
  (fp_line (start -2.645 -1.66) (end -2.645 1.66) (layer F.SilkS) (width 0.12))
  (fp_line (start -2.645 1.66) (end 1.75 1.66) (layer F.SilkS) (width 0.12))
  (fp_line (start -2.64 1.65) (end -2.64 -1.65) (layer F.CrtYd) (width 0.05))
  (fp_line (start -2.64 -1.65) (end 2.64 -1.65) (layer F.CrtYd) (width 0.05))
  (fp_line (start 2.64 -1.65) (end 2.64 1.65) (layer F.CrtYd) (width 0.05))
  (fp_line (start 2.64 1.65) (end -2.64 1.65) (layer F.CrtYd) (width 0.05))
  (pad 1 smd rect (at -1.5675 0) (size 1.635 2.4) (layers F.Cu F.Mask F.Paste))
  (pad 2 smd rect (at 1.5675 0) (size 1.635 2.4) (layers F.Cu F.Mask F.Paste))
  (fp_text user %R (at 0 0) (layer F.Fab)
    (effects (font (size 0.88 0.88) (thickness 0.13)))
  )
  (model ${KIPRJMOD}/kicad_libs_k/models_k.3d/Capacitor_Tantalum_SMD_k.3dshapes/CP_EIA-3528-21_Kemet-B_k.wrl
    (at (xyz 0 0 0))
    (scale (xyz 1 1 1))
    (rotate (xyz 0 0 0))
  )
)