(module CP_EIA-7361-38_AVX-V_Pad2.18x3.30mm_HandSolder (layer F.Cu) (tedit 5B301BBE)
  (descr "Tantalum Capacitor SMD AVX-V (7361-38 Metric), IPC_7351 nominal, (Body size from: http://datasheets.avx.com/NOS.pdf), generated with kicad-footprint-generator")
  (tags "capacitor tantalum")
  (attr smd)
  (fp_text reference REF** (at 0 -4) (layer F.SilkS)
    (effects (font (size 1 1) (thickness 0.15)))
  )
  (fp_text value CP_EIA-7361-38_AVX-V_Pad2.18x3.30mm_HandSolder (at 0 4) (layer F.Fab)
    (effects (font (size 1 1) (thickness 0.15)))
  )
  (fp_line (start 3.65 -3.05) (end -2.65 -3.05) (layer F.Fab) (width 0.1))
  (fp_line (start -2.65 -3.05) (end -3.65 -2.05) (layer F.Fab) (width 0.1))
  (fp_line (start -3.65 -2.05) (end -3.65 3.05) (layer F.Fab) (width 0.1))
  (fp_line (start -3.65 3.05) (end 3.65 3.05) (layer F.Fab) (width 0.1))
  (fp_line (start 3.65 3.05) (end 3.65 -3.05) (layer F.Fab) (width 0.1))
  (fp_line (start 3.65 -3.16) (end -4.535 -3.16) (layer F.SilkS) (width 0.12))
  (fp_line (start -4.535 -3.16) (end -4.535 3.16) (layer F.SilkS) (width 0.12))
  (fp_line (start -4.535 3.16) (end 3.65 3.16) (layer F.SilkS) (width 0.12))
  (fp_line (start -4.52 3.3) (end -4.52 -3.3) (layer F.CrtYd) (width 0.05))
  (fp_line (start -4.52 -3.3) (end 4.52 -3.3) (layer F.CrtYd) (width 0.05))
  (fp_line (start 4.52 -3.3) (end 4.52 3.3) (layer F.CrtYd) (width 0.05))
  (fp_line (start 4.52 3.3) (end -4.52 3.3) (layer F.CrtYd) (width 0.05))
  (pad 1 smd roundrect (at -3.1875 0) (size 2.175 3.3) (layers F.Cu F.Mask F.Paste) (roundrect_rratio 0.114943))
  (pad 2 smd roundrect (at 3.1875 0) (size 2.175 3.3) (layers F.Cu F.Mask F.Paste) (roundrect_rratio 0.114943))
  (fp_text user %R (at 0 0) (layer F.Fab)
    (effects (font (size 1 1) (thickness 0.15)))
  )
  (model ${KIPRJMOD}/kicad_libs_k/models_k.3d/Capacitor_Tantalum_SMD_k.3dshapes/CP_EIA-7361-38_AVX-V_k.wrl
    (at (xyz 0 0 0))
    (scale (xyz 1 1 1))
    (rotate (xyz 0 0 0))
  )
)