(module CP_EIA-6032-20_AVX-F_Pad2.25x2.35mm_HandSolder (layer F.Cu) (tedit 5B301BBE)
  (descr "Tantalum Capacitor SMD AVX-F (6032-20 Metric), IPC_7351 nominal, (Body size from: http://www.kemet.com/Lists/ProductCatalog/Attachments/253/KEM_TC101_STD.pdf), generated with kicad-footprint-generator")
  (tags "capacitor tantalum")
  (attr smd)
  (fp_text reference REF** (at 0 -2.55) (layer F.SilkS)
    (effects (font (size 1 1) (thickness 0.15)))
  )
  (fp_text value CP_EIA-6032-20_AVX-F_Pad2.25x2.35mm_HandSolder (at 0 2.55) (layer F.Fab)
    (effects (font (size 1 1) (thickness 0.15)))
  )
  (fp_line (start 3 -1.6) (end -2.2 -1.6) (layer F.Fab) (width 0.1))
  (fp_line (start -2.2 -1.6) (end -3 -0.8) (layer F.Fab) (width 0.1))
  (fp_line (start -3 -0.8) (end -3 1.6) (layer F.Fab) (width 0.1))
  (fp_line (start -3 1.6) (end 3 1.6) (layer F.Fab) (width 0.1))
  (fp_line (start 3 1.6) (end 3 -1.6) (layer F.Fab) (width 0.1))
  (fp_line (start 3 -1.71) (end -3.935 -1.71) (layer F.SilkS) (width 0.12))
  (fp_line (start -3.935 -1.71) (end -3.935 1.71) (layer F.SilkS) (width 0.12))
  (fp_line (start -3.935 1.71) (end 3 1.71) (layer F.SilkS) (width 0.12))
  (fp_line (start -3.92 1.85) (end -3.92 -1.85) (layer F.CrtYd) (width 0.05))
  (fp_line (start -3.92 -1.85) (end 3.92 -1.85) (layer F.CrtYd) (width 0.05))
  (fp_line (start 3.92 -1.85) (end 3.92 1.85) (layer F.CrtYd) (width 0.05))
  (fp_line (start 3.92 1.85) (end -3.92 1.85) (layer F.CrtYd) (width 0.05))
  (pad 1 smd roundrect (at -2.55 0) (size 2.25 2.35) (layers F.Cu F.Mask F.Paste) (roundrect_rratio 0.111111))
  (pad 2 smd roundrect (at 2.55 0) (size 2.25 2.35) (layers F.Cu F.Mask F.Paste) (roundrect_rratio 0.111111))
  (fp_text user %R (at 0 0) (layer F.Fab)
    (effects (font (size 1 1) (thickness 0.15)))
  )
  (model ${KIPRJMOD}/kicad_libs_k/models_k.3d/Capacitor_Tantalum_SMD_k.3dshapes/CP_EIA-6032-20_AVX-F_k.wrl
    (at (xyz 0 0 0))
    (scale (xyz 1 1 1))
    (rotate (xyz 0 0 0))
  )
)