(module CP_EIA-1608-10_AVX-L (layer F.Cu) (tedit 5B301BBE)
  (descr "Tantalum Capacitor SMD AVX-L (1608-10 Metric), IPC_7351 nominal, (Body size from: https://www.vishay.com/docs/48064/_t58_vmn_pt0471_1601.pdf), generated with kicad-footprint-generator")
  (tags "capacitor tantalum")
  (attr smd)
  (fp_text reference REF** (at 0 -1.48) (layer F.SilkS)
    (effects (font (size 1 1) (thickness 0.15)))
  )
  (fp_text value CP_EIA-1608-10_AVX-L (at 0 1.48) (layer F.Fab)
    (effects (font (size 1 1) (thickness 0.15)))
  )
  (fp_line (start 0.8 -0.425) (end -0.5 -0.425) (layer F.Fab) (width 0.1))
  (fp_line (start -0.5 -0.425) (end -0.8 -0.125) (layer F.Fab) (width 0.1))
  (fp_line (start -0.8 -0.125) (end -0.8 0.425) (layer F.Fab) (width 0.1))
  (fp_line (start -0.8 0.425) (end 0.8 0.425) (layer F.Fab) (width 0.1))
  (fp_line (start 0.8 0.425) (end 0.8 -0.425) (layer F.Fab) (width 0.1))
  (fp_line (start 0.8 -0.785) (end -1.51 -0.785) (layer F.SilkS) (width 0.12))
  (fp_line (start -1.51 -0.785) (end -1.51 0.785) (layer F.SilkS) (width 0.12))
  (fp_line (start -1.51 0.785) (end 0.8 0.785) (layer F.SilkS) (width 0.12))
  (fp_line (start -1.5 0.78) (end -1.5 -0.78) (layer F.CrtYd) (width 0.05))
  (fp_line (start -1.5 -0.78) (end 1.5 -0.78) (layer F.CrtYd) (width 0.05))
  (fp_line (start 1.5 -0.78) (end 1.5 0.78) (layer F.CrtYd) (width 0.05))
  (fp_line (start 1.5 0.78) (end -1.5 0.78) (layer F.CrtYd) (width 0.05))
  (pad 1 smd roundrect (at -0.7125 0) (size 1.075 1.05) (layers F.Cu F.Mask F.Paste) (roundrect_rratio 0.238095))
  (pad 2 smd roundrect (at 0.7125 0) (size 1.075 1.05) (layers F.Cu F.Mask F.Paste) (roundrect_rratio 0.238095))
  (fp_text user %R (at 0 0) (layer F.Fab)
    (effects (font (size 0.4 0.4) (thickness 0.06)))
  )
  (model ${KIPRJMOD}/kicad_libs_k/models_k.3d/Capacitor_Tantalum_SMD_k.3dshapes/CP_EIA-1608-10_AVX-L_k.wrl
    (at (xyz 0 0 0))
    (scale (xyz 1 1 1))
    (rotate (xyz 0 0 0))
  )
)