(module ST_WLCSP-49_Die438 (layer F.Cu) (tedit 5AE11EAD)
  (descr "WLCSP-49, 7x7 raster, 3.89x3.74mm package, pitch 0.5mm; see section 7.5 of http://www.st.com/resource/en/datasheet/stm32f303r8.pdf")
  (tags "BGA 49 0.5")
  (attr smd)
  (fp_text reference REF** (at 0 -2.87) (layer F.SilkS)
    (effects (font (size 1 1) (thickness 0.15)))
  )
  (fp_text value ST_WLCSP-49_Die438 (at 0 2.87) (layer F.Fab)
    (effects (font (size 1 1) (thickness 0.15)))
  )
  (fp_line (start 1.945 1.87) (end -1.945 1.87) (layer F.Fab) (width 0.1))
  (fp_line (start -1.945 1.87) (end -1.945 -0.935) (layer F.Fab) (width 0.1))
  (fp_line (start -1.945 -0.935) (end -1.01 -1.87) (layer F.Fab) (width 0.1))
  (fp_line (start -1.01 -1.87) (end 1.945 -1.87) (layer F.Fab) (width 0.1))
  (fp_line (start 1.945 -1.87) (end 1.945 1.87) (layer F.Fab) (width 0.1))
  (fp_line (start -2.95 -2.87) (end -2.95 2.87) (layer F.CrtYd) (width 0.05))
  (fp_line (start -2.95 2.87) (end 2.95 2.87) (layer F.CrtYd) (width 0.05))
  (fp_line (start 2.95 2.87) (end 2.95 -2.87) (layer F.CrtYd) (width 0.05))
  (fp_line (start 2.95 -2.87) (end -2.95 -2.87) (layer F.CrtYd) (width 0.05))
  (fp_line (start -1.135 -1.995) (end 2.07 -1.995) (layer F.SilkS) (width 0.12))
  (fp_line (start 2.07 -1.995) (end 2.07 1.995) (layer F.SilkS) (width 0.12))
  (fp_line (start 2.07 1.995) (end -2.07 1.995) (layer F.SilkS) (width 0.12))
  (fp_line (start -2.07 1.995) (end -2.07 -1.06) (layer F.SilkS) (width 0.12))
  (pad A1 smd circle (at -1.5 -1.5) (size 0.29 0.29) (layers F.Cu F.Mask F.Paste)
    (solder_paste_margin_ratio 0.034483))
  (pad A2 smd circle (at -1 -1.5) (size 0.29 0.29) (layers F.Cu F.Mask F.Paste)
    (solder_paste_margin_ratio 0.034483))
  (pad A3 smd circle (at -0.5 -1.5) (size 0.29 0.29) (layers F.Cu F.Mask F.Paste)
    (solder_paste_margin_ratio 0.034483))
  (pad A4 smd circle (at 0 -1.5) (size 0.29 0.29) (layers F.Cu F.Mask F.Paste)
    (solder_paste_margin_ratio 0.034483))
  (pad A5 smd circle (at 0.5 -1.5) (size 0.29 0.29) (layers F.Cu F.Mask F.Paste)
    (solder_paste_margin_ratio 0.034483))
  (pad A6 smd circle (at 1 -1.5) (size 0.29 0.29) (layers F.Cu F.Mask F.Paste)
    (solder_paste_margin_ratio 0.034483))
  (pad A7 smd circle (at 1.5 -1.5) (size 0.29 0.29) (layers F.Cu F.Mask F.Paste)
    (solder_paste_margin_ratio 0.034483))
  (pad B1 smd circle (at -1.5 -1) (size 0.29 0.29) (layers F.Cu F.Mask F.Paste)
    (solder_paste_margin_ratio 0.034483))
  (pad B2 smd circle (at -1 -1) (size 0.29 0.29) (layers F.Cu F.Mask F.Paste)
    (solder_paste_margin_ratio 0.034483))
  (pad B3 smd circle (at -0.5 -1) (size 0.29 0.29) (layers F.Cu F.Mask F.Paste)
    (solder_paste_margin_ratio 0.034483))
  (pad B4 smd circle (at 0 -1) (size 0.29 0.29) (layers F.Cu F.Mask F.Paste)
    (solder_paste_margin_ratio 0.034483))
  (pad B5 smd circle (at 0.5 -1) (size 0.29 0.29) (layers F.Cu F.Mask F.Paste)
    (solder_paste_margin_ratio 0.034483))
  (pad B6 smd circle (at 1 -1) (size 0.29 0.29) (layers F.Cu F.Mask F.Paste)
    (solder_paste_margin_ratio 0.034483))
  (pad B7 smd circle (at 1.5 -1) (size 0.29 0.29) (layers F.Cu F.Mask F.Paste)
    (solder_paste_margin_ratio 0.034483))
  (pad C1 smd circle (at -1.5 -0.5) (size 0.29 0.29) (layers F.Cu F.Mask F.Paste)
    (solder_paste_margin_ratio 0.034483))
  (pad C2 smd circle (at -1 -0.5) (size 0.29 0.29) (layers F.Cu F.Mask F.Paste)
    (solder_paste_margin_ratio 0.034483))
  (pad C3 smd circle (at -0.5 -0.5) (size 0.29 0.29) (layers F.Cu F.Mask F.Paste)
    (solder_paste_margin_ratio 0.034483))
  (pad C4 smd circle (at 0 -0.5) (size 0.29 0.29) (layers F.Cu F.Mask F.Paste)
    (solder_paste_margin_ratio 0.034483))
  (pad C5 smd circle (at 0.5 -0.5) (size 0.29 0.29) (layers F.Cu F.Mask F.Paste)
    (solder_paste_margin_ratio 0.034483))
  (pad C6 smd circle (at 1 -0.5) (size 0.29 0.29) (layers F.Cu F.Mask F.Paste)
    (solder_paste_margin_ratio 0.034483))
  (pad C7 smd circle (at 1.5 -0.5) (size 0.29 0.29) (layers F.Cu F.Mask F.Paste)
    (solder_paste_margin_ratio 0.034483))
  (pad D1 smd circle (at -1.5 0) (size 0.29 0.29) (layers F.Cu F.Mask F.Paste)
    (solder_paste_margin_ratio 0.034483))
  (pad D2 smd circle (at -1 0) (size 0.29 0.29) (layers F.Cu F.Mask F.Paste)
    (solder_paste_margin_ratio 0.034483))
  (pad D3 smd circle (at -0.5 0) (size 0.29 0.29) (layers F.Cu F.Mask F.Paste)
    (solder_paste_margin_ratio 0.034483))
  (pad D4 smd circle (at 0 0) (size 0.29 0.29) (layers F.Cu F.Mask F.Paste)
    (solder_paste_margin_ratio 0.034483))
  (pad D5 smd circle (at 0.5 0) (size 0.29 0.29) (layers F.Cu F.Mask F.Paste)
    (solder_paste_margin_ratio 0.034483))
  (pad D6 smd circle (at 1 0) (size 0.29 0.29) (layers F.Cu F.Mask F.Paste)
    (solder_paste_margin_ratio 0.034483))
  (pad D7 smd circle (at 1.5 0) (size 0.29 0.29) (layers F.Cu F.Mask F.Paste)
    (solder_paste_margin_ratio 0.034483))
  (pad E1 smd circle (at -1.5 0.5) (size 0.29 0.29) (layers F.Cu F.Mask F.Paste)
    (solder_paste_margin_ratio 0.034483))
  (pad E2 smd circle (at -1 0.5) (size 0.29 0.29) (layers F.Cu F.Mask F.Paste)
    (solder_paste_margin_ratio 0.034483))
  (pad E3 smd circle (at -0.5 0.5) (size 0.29 0.29) (layers F.Cu F.Mask F.Paste)
    (solder_paste_margin_ratio 0.034483))
  (pad E4 smd circle (at 0 0.5) (size 0.29 0.29) (layers F.Cu F.Mask F.Paste)
    (solder_paste_margin_ratio 0.034483))
  (pad E5 smd circle (at 0.5 0.5) (size 0.29 0.29) (layers F.Cu F.Mask F.Paste)
    (solder_paste_margin_ratio 0.034483))
  (pad E6 smd circle (at 1 0.5) (size 0.29 0.29) (layers F.Cu F.Mask F.Paste)
    (solder_paste_margin_ratio 0.034483))
  (pad E7 smd circle (at 1.5 0.5) (size 0.29 0.29) (layers F.Cu F.Mask F.Paste)
    (solder_paste_margin_ratio 0.034483))
  (pad F1 smd circle (at -1.5 1) (size 0.29 0.29) (layers F.Cu F.Mask F.Paste)
    (solder_paste_margin_ratio 0.034483))
  (pad F2 smd circle (at -1 1) (size 0.29 0.29) (layers F.Cu F.Mask F.Paste)
    (solder_paste_margin_ratio 0.034483))
  (pad F3 smd circle (at -0.5 1) (size 0.29 0.29) (layers F.Cu F.Mask F.Paste)
    (solder_paste_margin_ratio 0.034483))
  (pad F4 smd circle (at 0 1) (size 0.29 0.29) (layers F.Cu F.Mask F.Paste)
    (solder_paste_margin_ratio 0.034483))
  (pad F5 smd circle (at 0.5 1) (size 0.29 0.29) (layers F.Cu F.Mask F.Paste)
    (solder_paste_margin_ratio 0.034483))
  (pad F6 smd circle (at 1 1) (size 0.29 0.29) (layers F.Cu F.Mask F.Paste)
    (solder_paste_margin_ratio 0.034483))
  (pad F7 smd circle (at 1.5 1) (size 0.29 0.29) (layers F.Cu F.Mask F.Paste)
    (solder_paste_margin_ratio 0.034483))
  (pad G1 smd circle (at -1.5 1.5) (size 0.29 0.29) (layers F.Cu F.Mask F.Paste)
    (solder_paste_margin_ratio 0.034483))
  (pad G2 smd circle (at -1 1.5) (size 0.29 0.29) (layers F.Cu F.Mask F.Paste)
    (solder_paste_margin_ratio 0.034483))
  (pad G3 smd circle (at -0.5 1.5) (size 0.29 0.29) (layers F.Cu F.Mask F.Paste)
    (solder_paste_margin_ratio 0.034483))
  (pad G4 smd circle (at 0 1.5) (size 0.29 0.29) (layers F.Cu F.Mask F.Paste)
    (solder_paste_margin_ratio 0.034483))
  (pad G5 smd circle (at 0.5 1.5) (size 0.29 0.29) (layers F.Cu F.Mask F.Paste)
    (solder_paste_margin_ratio 0.034483))
  (pad G6 smd circle (at 1 1.5) (size 0.29 0.29) (layers F.Cu F.Mask F.Paste)
    (solder_paste_margin_ratio 0.034483))
  (pad G7 smd circle (at 1.5 1.5) (size 0.29 0.29) (layers F.Cu F.Mask F.Paste)
    (solder_paste_margin_ratio 0.034483))
  (fp_text user %R (at 0 0) (layer F.Fab)
    (effects (font (size 0.9 0.9) (thickness 0.135)))
  )
  (model ${KIPRJMOD}/kicad_libs_k/models_k.3d/Package_CSP_k.3dshapes/ST_WLCSP-49_Die438_k.wrl
    (at (xyz 0 0 0))
    (scale (xyz 1 1 1))
    (rotate (xyz 0 0 0))
  )
)