(module ST_WLCSP-25_Die425 (layer F.Cu) (tedit 5AE11EAD)
  (descr "WLCSP-25, 5x5 raster, 2.097x2.493mm package, pitch 0.4mm; see section 7.6 of http://www.st.com/resource/en/datasheet/stm32l031f6.pdf")
  (tags "BGA 25 0.4")
  (attr smd)
  (fp_text reference REF** (at 0 -2.2465) (layer F.SilkS)
    (effects (font (size 1 1) (thickness 0.15)))
  )
  (fp_text value ST_WLCSP-25_Die425 (at 0 2.2465) (layer F.Fab)
    (effects (font (size 1 1) (thickness 0.15)))
  )
  (fp_line (start 1.0485 1.2465) (end -1.0485 1.2465) (layer F.Fab) (width 0.1))
  (fp_line (start -1.0485 1.2465) (end -1.0485 -0.72225) (layer F.Fab) (width 0.1))
  (fp_line (start -1.0485 -0.72225) (end -0.52425 -1.2465) (layer F.Fab) (width 0.1))
  (fp_line (start -0.52425 -1.2465) (end 1.0485 -1.2465) (layer F.Fab) (width 0.1))
  (fp_line (start 1.0485 -1.2465) (end 1.0485 1.2465) (layer F.Fab) (width 0.1))
  (fp_line (start -2.05 -2.25) (end -2.05 2.25) (layer F.CrtYd) (width 0.05))
  (fp_line (start -2.05 2.25) (end 2.05 2.25) (layer F.CrtYd) (width 0.05))
  (fp_line (start 2.05 2.25) (end 2.05 -2.25) (layer F.CrtYd) (width 0.05))
  (fp_line (start 2.05 -2.25) (end -2.05 -2.25) (layer F.CrtYd) (width 0.05))
  (fp_line (start -0.64925 -1.3715) (end 1.1735 -1.3715) (layer F.SilkS) (width 0.12))
  (fp_line (start 1.1735 -1.3715) (end 1.1735 1.3715) (layer F.SilkS) (width 0.12))
  (fp_line (start 1.1735 1.3715) (end -1.1735 1.3715) (layer F.SilkS) (width 0.12))
  (fp_line (start -1.1735 1.3715) (end -1.1735 -0.84725) (layer F.SilkS) (width 0.12))
  (pad A1 smd circle (at -0.8 -0.8) (size 0.22 0.22) (layers F.Cu F.Mask F.Paste))
  (pad A2 smd circle (at -0.4 -0.8) (size 0.22 0.22) (layers F.Cu F.Mask F.Paste))
  (pad A3 smd circle (at 0 -0.8) (size 0.22 0.22) (layers F.Cu F.Mask F.Paste))
  (pad A4 smd circle (at 0.4 -0.8) (size 0.22 0.22) (layers F.Cu F.Mask F.Paste))
  (pad A5 smd circle (at 0.8 -0.8) (size 0.22 0.22) (layers F.Cu F.Mask F.Paste))
  (pad B1 smd circle (at -0.8 -0.4) (size 0.22 0.22) (layers F.Cu F.Mask F.Paste))
  (pad B2 smd circle (at -0.4 -0.4) (size 0.22 0.22) (layers F.Cu F.Mask F.Paste))
  (pad B3 smd circle (at 0 -0.4) (size 0.22 0.22) (layers F.Cu F.Mask F.Paste))
  (pad B4 smd circle (at 0.4 -0.4) (size 0.22 0.22) (layers F.Cu F.Mask F.Paste))
  (pad B5 smd circle (at 0.8 -0.4) (size 0.22 0.22) (layers F.Cu F.Mask F.Paste))
  (pad C1 smd circle (at -0.8 0) (size 0.22 0.22) (layers F.Cu F.Mask F.Paste))
  (pad C2 smd circle (at -0.4 0) (size 0.22 0.22) (layers F.Cu F.Mask F.Paste))
  (pad C3 smd circle (at 0 0) (size 0.22 0.22) (layers F.Cu F.Mask F.Paste))
  (pad C4 smd circle (at 0.4 0) (size 0.22 0.22) (layers F.Cu F.Mask F.Paste))
  (pad C5 smd circle (at 0.8 0) (size 0.22 0.22) (layers F.Cu F.Mask F.Paste))
  (pad D1 smd circle (at -0.8 0.4) (size 0.22 0.22) (layers F.Cu F.Mask F.Paste))
  (pad D2 smd circle (at -0.4 0.4) (size 0.22 0.22) (layers F.Cu F.Mask F.Paste))
  (pad D3 smd circle (at 0 0.4) (size 0.22 0.22) (layers F.Cu F.Mask F.Paste))
  (pad D4 smd circle (at 0.4 0.4) (size 0.22 0.22) (layers F.Cu F.Mask F.Paste))
  (pad D5 smd circle (at 0.8 0.4) (size 0.22 0.22) (layers F.Cu F.Mask F.Paste))
  (pad E1 smd circle (at -0.8 0.8) (size 0.22 0.22) (layers F.Cu F.Mask F.Paste))
  (pad E2 smd circle (at -0.4 0.8) (size 0.22 0.22) (layers F.Cu F.Mask F.Paste))
  (pad E3 smd circle (at 0 0.8) (size 0.22 0.22) (layers F.Cu F.Mask F.Paste))
  (pad E4 smd circle (at 0.4 0.8) (size 0.22 0.22) (layers F.Cu F.Mask F.Paste))
  (pad E5 smd circle (at 0.8 0.8) (size 0.22 0.22) (layers F.Cu F.Mask F.Paste))
  (fp_text user %R (at 0 0) (layer F.Fab)
    (effects (font (size 0.49 0.49) (thickness 0.0735)))
  )
  (model ${KIPRJMOD}/kicad_libs_k/models_k.3d/Package_CSP_k.3dshapes/ST_WLCSP-25_Die425_k.wrl
    (at (xyz 0 0 0))
    (scale (xyz 1 1 1))
    (rotate (xyz 0 0 0))
  )
)