(module WLCSP-6_1.4x1.0mm_P0.4mm (layer F.Cu) (tedit 5A02EFF5)
  (descr "6pin Pitch 0.4mm")
  (tags "6pin Pitch 0.4mm WLCSP")
  (attr smd)
  (fp_text reference REF** (at 0 -1.7) (layer F.SilkS)
    (effects (font (size 1 1) (thickness 0.15)))
  )
  (fp_text value WLCSP-6_1.4x1.0mm_P0.4mm (at 0 1.8) (layer F.Fab)
    (effects (font (size 1 1) (thickness 0.15)))
  )
  (fp_text user %R (at 0 -1.7) (layer F.Fab)
    (effects (font (size 1 1) (thickness 0.15)))
  )
  (fp_line (start -0.68 -0.1) (end -0.3 -0.48) (layer F.Fab) (width 0.1))
  (fp_circle (center -1 -0.8) (end -0.9 -0.8) (layer F.SilkS) (width 0.12))
  (fp_line (start 0.95 0.75) (end -0.95 0.75) (layer F.CrtYd) (width 0.05))
  (fp_line (start 0.95 -0.75) (end 0.95 0.75) (layer F.CrtYd) (width 0.05))
  (fp_line (start -0.95 -0.75) (end 0.95 -0.75) (layer F.CrtYd) (width 0.05))
  (fp_line (start -0.95 0.75) (end -0.95 -0.75) (layer F.CrtYd) (width 0.05))
  (fp_line (start 0.78 0.58) (end -0.78 0.58) (layer F.SilkS) (width 0.12))
  (fp_line (start 0.78 -0.58) (end 0.78 0.58) (layer F.SilkS) (width 0.12))
  (fp_line (start -0.78 -0.58) (end 0.78 -0.58) (layer F.SilkS) (width 0.12))
  (fp_line (start -0.78 0.58) (end -0.78 -0.58) (layer F.SilkS) (width 0.12))
  (fp_line (start 0.68 0.48) (end -0.68 0.48) (layer F.Fab) (width 0.1))
  (fp_line (start 0.68 -0.48) (end 0.68 0.48) (layer F.Fab) (width 0.1))
  (fp_line (start -0.3 -0.48) (end 0.68 -0.48) (layer F.Fab) (width 0.1))
  (fp_line (start -0.68 0.48) (end -0.68 -0.1) (layer F.Fab) (width 0.1))
  (pad A2 smd circle (at -0.4 0.2 90) (size 0.25 0.25) (layers F.Cu F.Paste F.Mask)
    (solder_mask_margin 0.1))
  (pad A1 smd circle (at -0.4 -0.2 90) (size 0.25 0.25) (layers F.Cu F.Paste F.Mask)
    (solder_mask_margin 0.1))
  (pad B2 smd circle (at 0 0.2 90) (size 0.25 0.25) (layers F.Cu F.Paste F.Mask)
    (solder_mask_margin 0.1))
  (pad B1 smd circle (at 0 -0.2 90) (size 0.25 0.25) (layers F.Cu F.Paste F.Mask)
    (solder_mask_margin 0.1))
  (pad C2 smd circle (at 0.4 0.2 90) (size 0.25 0.25) (layers F.Cu F.Paste F.Mask)
    (solder_mask_margin 0.1))
  (pad C1 smd circle (at 0.4 -0.2 90) (size 0.25 0.25) (layers F.Cu F.Paste F.Mask)
    (solder_mask_margin 0.1))
  (model ${KIPRJMOD}/kicad_libs_k/models_k.3d/Package_CSP_k.3dshapes/WLCSP-6_1.4x1.0mm_P0.4mm_k.wrl
    (at (xyz 0 0 0))
    (scale (xyz 1 1 1))
    (rotate (xyz 0 0 0))
  )
)
