(module Buzzer_15x7.5RM7.6 (layer F.Cu) (tedit 5A030281)
  (descr "Generic Buzzer, D15mm height 7.5mm with RM7.6mm")
  (tags buzzer)
  (fp_text reference REF** (at 3.81 -8.89) (layer F.SilkS)
    (effects (font (size 1 1) (thickness 0.15)))
  )
  (fp_text value Buzzer_15x7.5RM7.6 (at 3.81 8.89) (layer F.Fab)
    (effects (font (size 1 1) (thickness 0.15)))
  )
  (fp_text user + (at -0.01 -2.54) (layer F.Fab)
    (effects (font (size 1 1) (thickness 0.15)))
  )
  (fp_text user + (at -0.01 -2.54) (layer F.SilkS)
    (effects (font (size 1 1) (thickness 0.15)))
  )
  (fp_text user %R (at 3.8 -4) (layer F.Fab)
    (effects (font (size 1 1) (thickness 0.15)))
  )
  (fp_circle (center 3.8 0) (end 11.55 0) (layer F.CrtYd) (width 0.05))
  (fp_circle (center 3.8 0) (end 11.3 0) (layer F.Fab) (width 0.1))
  (fp_circle (center 3.8 0) (end 4.8 0) (layer F.Fab) (width 0.1))
  (fp_circle (center 3.8 0) (end 11.4 0) (layer F.SilkS) (width 0.12))
  (pad 1 thru_hole rect (at 0 0) (size 2 2) (drill 1) (layers *.Cu *.Mask))
  (pad 2 thru_hole circle (at 7.6 0) (size 2 2) (drill 1) (layers *.Cu *.Mask))
  (model ${KIPRJMOD}/kicad_libs_k/models_k.3d/Buzzer_Beeper_k.3dshapes/Buzzer_15x7.5RM7.6_k.wrl
    (at (xyz 0 0 0))
    (scale (xyz 1 1 1))
    (rotate (xyz 0 0 0))
  )
)
