(module MagneticBuzzer_ProSignal_ABT-410-RC (layer F.Cu) (tedit 5A030281)
  (descr "Buzzer, Elektromagnetic Beeper, Summer, 1,5V-DC,")
  (tags "Pro Signal ABT-410-RC ")
  (fp_text reference REF** (at 3.25 -7) (layer F.SilkS)
    (effects (font (size 1 1) (thickness 0.15)))
  )
  (fp_text value MagneticBuzzer_ProSignal_ABT-410-RC (at 3.25 7) (layer F.Fab)
    (effects (font (size 1 1) (thickness 0.15)))
  )
  (fp_text user + (at 0 -1.8) (layer F.Fab)
    (effects (font (size 1 1) (thickness 0.15)))
  )
  (fp_circle (center 3.25 0) (end 9.5 0) (layer F.CrtYd) (width 0.05))
  (fp_circle (center 3.25 0) (end 9.35 0) (layer F.SilkS) (width 0.12))
  (fp_text user + (at 0 -1.8) (layer F.SilkS)
    (effects (font (size 1 1) (thickness 0.15)))
  )
  (fp_text user %R (at 3.25 -7) (layer F.Fab)
    (effects (font (size 1 1) (thickness 0.15)))
  )
  (fp_circle (center 3.25 0) (end 4.4 0) (layer F.Fab) (width 0.1))
  (fp_circle (center 3.25 0) (end 9.25 0) (layer F.Fab) (width 0.1))
  (pad 1 thru_hole rect (at 0 0) (size 1.6 1.6) (drill 1) (layers *.Cu *.Mask))
  (pad 2 thru_hole circle (at 6.5 0) (size 1.6 1.6) (drill 1) (layers *.Cu *.Mask))
  (model ${KIPRJMOD}/kicad_libs_k/models_k.3d/Buzzer_Beeper_k.3dshapes/MagneticBuzzer_ProSignal_ABT-410-RC_k.wrl
    (at (xyz 0 0 0))
    (scale (xyz 1 1 1))
    (rotate (xyz 0 0 0))
  )
)
