(module MagneticBuzzer_CUI_CST-931RP-A (layer F.Cu) (tedit 5AAE92D3)
  (descr "CST-931RP-A, http://www.cui.com/product/resource/cst-931rp-a.pdf")
  (tags CST-931RP-A)
  (fp_text reference REF** (at 0 7.5) (layer F.SilkS)
    (effects (font (size 1 1) (thickness 0.15)))
  )
  (fp_text value MagneticBuzzer_CUI_CST-931RP-A (at 0 9) (layer F.Fab)
    (effects (font (size 1 1) (thickness 0.15)))
  )
  (fp_arc (start 0 2) (end 2.75 -1.88) (angle 289.2) (layer F.CrtYd) (width 0.05))
  (fp_line (start -2.75 -1.88) (end -2.75 -4.25) (layer F.CrtYd) (width 0.05))
  (fp_line (start -2.75 -4.25) (end 2.75 -4.25) (layer F.CrtYd) (width 0.05))
  (fp_line (start 2.75 -4.25) (end 2.75 -1.88) (layer F.CrtYd) (width 0.05))
  (fp_circle (center 0 2) (end 4.62 2) (layer F.SilkS) (width 0.12))
  (fp_arc (start 0 2) (end 2.5 -1.74) (angle 292.4) (layer F.Fab) (width 0.1))
  (fp_line (start -2.5 -4) (end -2.5 -1.74) (layer F.Fab) (width 0.1))
  (fp_line (start 2.5 -4) (end 2.5 -1.74) (layer F.Fab) (width 0.1))
  (fp_line (start -2.5 -4) (end 2.5 -4) (layer F.Fab) (width 0.1))
  (fp_text user %R (at 0 2) (layer F.Fab)
    (effects (font (size 1 1) (thickness 0.15)))
  )
  (fp_text user + (at -1.5 -0.1) (layer F.Fab)
    (effects (font (size 1 1) (thickness 0.15)))
  )
  (fp_text user + (at -3.3 -2.18) (layer F.SilkS)
    (effects (font (size 1 1) (thickness 0.15)))
  )
  (pad 1 thru_hole rect (at 0 0) (size 1.6 1.6) (drill 0.9) (layers *.Cu *.Mask))
  (pad 2 thru_hole circle (at 0 4) (size 1.6 1.6) (drill 0.9) (layers *.Cu *.Mask))
  (model ${KIPRJMOD}/kicad_libs_k/models_k.3d/Buzzer_Beeper_k.3dshapes/MagneticBuzzer_CUI_CST-931RP-A_k.wrl
    (at (xyz 0 0 0))
    (scale (xyz 1 1 1))
    (rotate (xyz 0 0 0))
  )
)
