(module Heatsink_Aavid-TV5G_TO220_Horizontal (layer F.Cu) (tedit 5A1FFA20)
  (descr http://www.aavid.eu/products/standard/tv5g)
  (tags "Heatsink TV5G TO-220 Horizontal ")
  (fp_text reference REF** (at 0 -7.5) (layer F.SilkS)
    (effects (font (size 1 1) (thickness 0.15)))
  )
  (fp_text value Heatsink_Aavid-TV5G_TO220_Horizontal (at -0.27 14.12) (layer F.Fab)
    (effects (font (size 1 1) (thickness 0.15)))
  )
  (fp_text user %R (at 0 -4) (layer F.Fab)
    (effects (font (size 1 1) (thickness 0.15)))
  )
  (fp_line (start -9.6 12.65) (end 9.6 12.65) (layer F.Fab) (width 0.1))
  (fp_line (start 9.6 -6.35) (end -9.6 -6.35) (layer F.Fab) (width 0.1))
  (fp_line (start 7.4 -5.5376) (end 10.2 -1.6376) (layer F.Fab) (width 0.1))
  (fp_line (start 10.2 -1.6376) (end 11.39 -2.525) (layer F.Fab) (width 0.1))
  (fp_line (start 11.39 -2.525) (end 8.61 -6.34) (layer F.Fab) (width 0.1))
  (fp_line (start 8.55 -6.33) (end 7.4 -5.5376) (layer F.Fab) (width 0.1))
  (fp_line (start 8.5 -1.6376) (end 11.4 2.3624) (layer F.Fab) (width 0.1))
  (fp_line (start 11.39 2.375) (end 10.25 3.2124) (layer F.Fab) (width 0.12))
  (fp_line (start 10.25 3.2124) (end 7.35 -0.7876) (layer F.Fab) (width 0.1))
  (fp_line (start 7.35 -0.7876) (end 8.5 -1.6376) (layer F.Fab) (width 0.1))
  (fp_line (start 8.515 3.125) (end 11.4 7.0124) (layer F.Fab) (width 0.1))
  (fp_line (start 11.4 7.0124) (end 10.25 7.9124) (layer F.Fab) (width 0.1))
  (fp_line (start 10.25 7.9124) (end 7.35 3.9624) (layer F.Fab) (width 0.1))
  (fp_line (start 7.35 3.9624) (end 8.5 3.1124) (layer F.Fab) (width 0.1))
  (fp_line (start 10.2 12.6624) (end 11.4 11.7624) (layer F.Fab) (width 0.1))
  (fp_line (start 11.4 11.7624) (end 8.5 7.8624) (layer F.Fab) (width 0.1))
  (fp_line (start 8.5 7.8624) (end 7.35 8.7624) (layer F.Fab) (width 0.1))
  (fp_line (start 7.35 8.7624) (end 10.2 12.6624) (layer F.Fab) (width 0.1))
  (fp_line (start -8.4 -6.3376) (end -11.4 -2.7876) (layer F.Fab) (width 0.1))
  (fp_line (start -11.4 -2.7876) (end -10.285 -1.8) (layer F.Fab) (width 0.1))
  (fp_line (start -10.285 -1.8) (end -7.4 -5.2876) (layer F.Fab) (width 0.1))
  (fp_line (start -8.35 -6.2876) (end -7.3 -5.3876) (layer F.Fab) (width 0.1))
  (fp_line (start -7.3 -5.3876) (end -7.4 -5.2876) (layer F.Fab) (width 0.1))
  (fp_line (start -11.4 1.9624) (end -8.4 -1.5876) (layer F.Fab) (width 0.1))
  (fp_line (start -11.4 1.9624) (end -10.35 3.0124) (layer F.Fab) (width 0.1))
  (fp_line (start -10.35 3.0124) (end -7.3 -0.6376) (layer F.Fab) (width 0.1))
  (fp_line (start -7.3 -0.6376) (end -8.4 -1.5876) (layer F.Fab) (width 0.1))
  (fp_line (start -11.4 6.7124) (end -8.35 3.1124) (layer F.Fab) (width 0.1))
  (fp_line (start -8.35 3.1124) (end -7.25 4.1124) (layer F.Fab) (width 0.1))
  (fp_line (start -7.25 4.1124) (end -10.3 7.7124) (layer F.Fab) (width 0.1))
  (fp_line (start -10.3 7.7124) (end -11.4 6.7124) (layer F.Fab) (width 0.1))
  (fp_line (start -11.4 11.4124) (end -8.35 7.8624) (layer F.Fab) (width 0.1))
  (fp_line (start -8.35 7.8624) (end -7.25 8.8124) (layer F.Fab) (width 0.1))
  (fp_line (start -7.25 8.8124) (end -10.26 12.4) (layer F.Fab) (width 0.1))
  (fp_line (start -11.4 11.4124) (end -10.285 12.425) (layer F.Fab) (width 0.1))
  (fp_line (start -9.6 -6.35) (end -9.6 -4.95) (layer F.Fab) (width 0.1))
  (fp_line (start -9.6 -2.63) (end -9.6 -0.18) (layer F.Fab) (width 0.1))
  (fp_line (start -9.6 2.13) (end -9.6 4.56) (layer F.Fab) (width 0.1))
  (fp_line (start -9.6 6.88) (end -9.6 9.3) (layer F.Fab) (width 0.1))
  (fp_line (start -9.6 11.61) (end -9.6 12.65) (layer F.Fab) (width 0.1))
  (fp_line (start -8.1 -6.3376) (end -8.1 -6.07) (layer F.Fab) (width 0.1))
  (fp_line (start -8.1 -4.44) (end -8.1 -1.35) (layer F.Fab) (width 0.1))
  (fp_line (start -8.1 0.34) (end -8.1 3.33) (layer F.Fab) (width 0.1))
  (fp_line (start -8.1 5.13) (end -8.1 8.08) (layer F.Fab) (width 0.1))
  (fp_line (start -8.1 9.86) (end -8.1 12.65) (layer F.Fab) (width 0.1))
  (fp_line (start 8.1 -6.35) (end 8.1 -6.03) (layer F.Fab) (width 0.1))
  (fp_line (start 9.6 -6.3376) (end 9.6 -4.98) (layer F.Fab) (width 0.1))
  (fp_line (start 8.1 -4.5376) (end 8.1 -1.3876) (layer F.Fab) (width 0.1))
  (fp_line (start 9.6 -2.4376) (end 9.6 -0.1376) (layer F.Fab) (width 0.1))
  (fp_line (start 8.1 0.2624) (end 8.1 3.4124) (layer F.Fab) (width 0.1))
  (fp_line (start 9.6 2.3124) (end 9.6 4.5624) (layer F.Fab) (width 0.1))
  (fp_line (start 8.1 5.0124) (end 8.1 8.1624) (layer F.Fab) (width 0.1))
  (fp_line (start 9.6 7.0624) (end 9.6 9.3124) (layer F.Fab) (width 0.1))
  (fp_line (start 9.6 11.8624) (end 9.6 12.6124) (layer F.Fab) (width 0.1))
  (fp_line (start 8.1 9.8124) (end 8.1 12.6124) (layer F.Fab) (width 0.1))
  (fp_line (start 11.65 12.9) (end 11.65 -6.6) (layer F.CrtYd) (width 0.05))
  (fp_line (start 11.65 -6.6) (end -11.65 -6.6) (layer F.CrtYd) (width 0.05))
  (fp_line (start -11.65 -6.6) (end -11.65 12.9) (layer F.CrtYd) (width 0.05))
  (fp_line (start -9.69 -6.45) (end 9.69 -6.45) (layer F.SilkS) (width 0.12))
  (fp_line (start 9.71 -6.45) (end 9.71 -4.9) (layer F.SilkS) (width 0.12))
  (fp_line (start 9.69 -4.9) (end 11.44 -2.5) (layer F.SilkS) (width 0.12))
  (fp_line (start 11.44 -2.5) (end 10.19 -1.55) (layer F.SilkS) (width 0.12))
  (fp_line (start 10.19 -1.55) (end 9.69 -2.25) (layer F.SilkS) (width 0.12))
  (fp_line (start 9.69 -2.25) (end 9.69 -0.15) (layer F.SilkS) (width 0.12))
  (fp_line (start 9.69 -0.15) (end 11.49 2.35) (layer F.SilkS) (width 0.12))
  (fp_line (start 11.54 2.4) (end 10.24 3.35) (layer F.SilkS) (width 0.12))
  (fp_line (start 10.24 3.35) (end 9.69 2.6) (layer F.SilkS) (width 0.12))
  (fp_line (start 9.69 2.6) (end 9.69 4.55) (layer F.SilkS) (width 0.12))
  (fp_line (start 9.69 4.55) (end 11.49 7) (layer F.SilkS) (width 0.12))
  (fp_line (start 11.49 7) (end 10.24 8) (layer F.SilkS) (width 0.12))
  (fp_line (start 10.24 8) (end 9.69 7.3) (layer F.SilkS) (width 0.12))
  (fp_line (start 9.69 7.3) (end 9.69 9.3) (layer F.SilkS) (width 0.12))
  (fp_line (start 9.69 9.3) (end 11.49 11.75) (layer F.SilkS) (width 0.12))
  (fp_line (start 11.49 11.75) (end 10.19 12.75) (layer F.SilkS) (width 0.12))
  (fp_line (start 10.19 12.75) (end 9.71 12.1) (layer F.SilkS) (width 0.12))
  (fp_line (start 9.71 12.1) (end 9.71 12.7) (layer F.SilkS) (width 0.12))
  (fp_line (start 9.71 12.7) (end -9.71 12.7) (layer F.SilkS) (width 0.12))
  (fp_line (start -9.71 12.7) (end -9.71 11.9) (layer F.SilkS) (width 0.12))
  (fp_line (start -9.71 11.9) (end -10.26 12.55) (layer F.SilkS) (width 0.12))
  (fp_line (start -10.26 12.55) (end -11.51 11.4) (layer F.SilkS) (width 0.12))
  (fp_line (start -11.51 11.4) (end -9.71 9.32) (layer F.SilkS) (width 0.12))
  (fp_line (start -9.71 9.32) (end -9.71 7.15) (layer F.SilkS) (width 0.12))
  (fp_line (start -9.71 7.14) (end -10.26 7.8) (layer F.SilkS) (width 0.12))
  (fp_line (start -10.26 7.8) (end -11.51 6.7) (layer F.SilkS) (width 0.12))
  (fp_line (start -11.51 6.7) (end -9.71 4.55) (layer F.SilkS) (width 0.12))
  (fp_line (start -9.71 4.54) (end -9.71 2.39) (layer F.SilkS) (width 0.12))
  (fp_line (start -9.71 2.39) (end -10.36 3.15) (layer F.SilkS) (width 0.12))
  (fp_line (start -10.36 3.15) (end -11.51 2) (layer F.SilkS) (width 0.12))
  (fp_line (start -11.51 2) (end -9.71 -0.18) (layer F.SilkS) (width 0.12))
  (fp_line (start -9.71 -0.19) (end -9.71 -2.35) (layer F.SilkS) (width 0.12))
  (fp_line (start -9.71 -2.36) (end -10.26 -1.7) (layer F.SilkS) (width 0.12))
  (fp_line (start -10.26 -1.7) (end -11.51 -2.8) (layer F.SilkS) (width 0.12))
  (fp_line (start -11.51 -2.8) (end -9.7 -4.91) (layer F.SilkS) (width 0.12))
  (fp_line (start -9.71 -4.94) (end -9.71 -6.45) (layer F.SilkS) (width 0.12))
  (fp_line (start -11.65 12.9) (end 11.65 12.9) (layer F.CrtYd) (width 0.05))
  (fp_circle (center 0.09 0) (end 2.09 0.1) (layer F.Fab) (width 0.1))
  (fp_circle (center 0.09 0) (end 2.29 -0.1) (layer F.SilkS) (width 0.12))
  (model ${KIPRJMOD}/kicad_libs_k/models_k.3d/Heatsink_k.3dshapes/Heatsink_Aavid-TV5G_TO220_Horizontal_k.wrl
    (at (xyz 0 0 0))
    (scale (xyz 1 1 1))
    (rotate (xyz 0 0 0))
  )
)
