(module Heatsink_SheetType_50x7mm_2Fixations (layer F.Cu) (tedit 5A1FFA20)
  (descr "Heatsink, Sheet type, 50x7mm, 2 fixations (solder),")
  (tags "Heatsink sheet")
  (solder_mask_margin 0.2)
  (fp_text reference REF** (at 0 -8) (layer F.SilkS)
    (effects (font (size 1 1) (thickness 0.15)))
  )
  (fp_text value Heatsink_SheetType_50x7mm_2Fixations (at 1.27 5.08) (layer F.Fab)
    (effects (font (size 1 1) (thickness 0.15)))
  )
  (fp_text user M3 (at 14.605 -4.953) (layer F.SilkS)
    (effects (font (size 1 1) (thickness 0.15)))
  )
  (fp_text user M3 (at -14.605 -4.826) (layer F.SilkS)
    (effects (font (size 1 1) (thickness 0.15)))
  )
  (fp_text user %R (at 0 0) (layer F.Fab)
    (effects (font (size 1 1) (thickness 0.15)))
  )
  (fp_line (start -21.65 2.6) (end 21.6 2.6) (layer F.SilkS) (width 0.12))
  (fp_line (start -25.4 2.6) (end -23.55 2.6) (layer F.SilkS) (width 0.12))
  (fp_line (start 25.4 2.6) (end 23.55 2.6) (layer F.SilkS) (width 0.12))
  (fp_line (start -10.033 0) (end -19.558 0) (layer F.SilkS) (width 0.15))
  (fp_line (start -2.1 0) (end -5.9 0) (layer F.SilkS) (width 0.15))
  (fp_line (start 5.9 0) (end 2.1 0) (layer F.SilkS) (width 0.15))
  (fp_line (start 13.97 0) (end 9.906 0) (layer F.SilkS) (width 0.15))
  (fp_line (start 13.97 0) (end 19.431 0) (layer F.SilkS) (width 0.15))
  (fp_line (start -5.9 -7.1) (end -10.1 -7.1) (layer F.SilkS) (width 0.15))
  (fp_line (start 2.1 -7.1) (end -2.1 -7.1) (layer F.SilkS) (width 0.15))
  (fp_line (start -11.05 -3.35) (end -11.049 0) (layer F.SilkS) (width 0.15))
  (fp_line (start -14.1 -3.35) (end -14.097 0) (layer F.SilkS) (width 0.15))
  (fp_line (start -10.1 -7.1) (end -10.1 0) (layer F.SilkS) (width 0.15))
  (fp_line (start -5.9 -7.1) (end -5.9 0) (layer F.SilkS) (width 0.15))
  (fp_line (start -2.1 -7.1) (end -2.1 0) (layer F.SilkS) (width 0.15))
  (fp_line (start 9.85 -7.1) (end 5.9 -7.1) (layer F.SilkS) (width 0.15))
  (fp_line (start 9.85 -7.1) (end 9.85 0) (layer F.SilkS) (width 0.15))
  (fp_line (start 5.9 -7.1) (end 5.9 0) (layer F.SilkS) (width 0.15))
  (fp_line (start 2.1 -7.1) (end 2.1 0) (layer F.SilkS) (width 0.15))
  (fp_line (start 11.05 -3.35) (end 11.05 0) (layer F.SilkS) (width 0.15))
  (fp_line (start -12.573 0.508) (end -12.573 1.651) (layer F.SilkS) (width 0.15))
  (fp_line (start -12.573 -1.524) (end -12.573 -0.381) (layer F.SilkS) (width 0.15))
  (fp_line (start -12.573 -3.937) (end -12.573 -2.54) (layer F.SilkS) (width 0.15))
  (fp_line (start -12.573 -5.461) (end -12.573 -4.445) (layer F.SilkS) (width 0.15))
  (fp_line (start -12.573 -7.747) (end -12.573 -6.477) (layer F.SilkS) (width 0.15))
  (fp_line (start -12.573 -9.017) (end -12.573 -8.382) (layer F.SilkS) (width 0.15))
  (fp_line (start 12.573 1.651) (end 12.573 2.667) (layer F.SilkS) (width 0.15))
  (fp_line (start 12.573 -0.762) (end 12.573 0.889) (layer F.SilkS) (width 0.15))
  (fp_line (start 12.573 -2.667) (end 12.573 -1.651) (layer F.SilkS) (width 0.15))
  (fp_line (start 12.573 -4.953) (end 12.573 -3.81) (layer F.SilkS) (width 0.15))
  (fp_line (start 12.573 -7.112) (end 12.573 -6.096) (layer F.SilkS) (width 0.15))
  (fp_line (start 12.573 -8.89) (end 12.573 -8.001) (layer F.SilkS) (width 0.15))
  (fp_line (start 13.95 -3.35) (end 13.95 0) (layer F.SilkS) (width 0.15))
  (fp_line (start 25.4 2.6) (end 25.4 -3.35) (layer F.SilkS) (width 0.15))
  (fp_line (start 25.4 -3.35) (end -25.4 -3.35) (layer F.SilkS) (width 0.15))
  (fp_line (start -25.4 -3.35) (end -25.4 2.6) (layer F.SilkS) (width 0.15))
  (fp_line (start -25.5 -7.25) (end 25.5 -7.25) (layer F.CrtYd) (width 0.05))
  (fp_line (start -25.5 -7.25) (end -25.5 2.75) (layer F.CrtYd) (width 0.05))
  (fp_line (start 25.5 2.75) (end 25.5 -7.25) (layer F.CrtYd) (width 0.05))
  (fp_line (start 25.5 2.75) (end -25.5 2.75) (layer F.CrtYd) (width 0.05))
  (fp_line (start 25.25 -3.25) (end 9.75 -3.25) (layer F.Fab) (width 0.1))
  (fp_line (start 9.75 -3.25) (end 9.75 -7) (layer F.Fab) (width 0.1))
  (fp_line (start 9.75 -7) (end 6 -7) (layer F.Fab) (width 0.1))
  (fp_line (start 6 -7) (end 6 -3.25) (layer F.Fab) (width 0.1))
  (fp_line (start 6 -3.25) (end 2 -3.25) (layer F.Fab) (width 0.1))
  (fp_line (start 2 -3.25) (end 2 -6.75) (layer F.Fab) (width 0.1))
  (fp_line (start 2 -6.75) (end 2 -7) (layer F.Fab) (width 0.1))
  (fp_line (start 2 -7) (end -2 -7) (layer F.Fab) (width 0.1))
  (fp_line (start -2 -7) (end -2 -3.25) (layer F.Fab) (width 0.1))
  (fp_line (start -2 -3.25) (end -6 -3.25) (layer F.Fab) (width 0.1))
  (fp_line (start -6 -3.25) (end -6 -7) (layer F.Fab) (width 0.1))
  (fp_line (start -6 -7) (end -10 -7) (layer F.Fab) (width 0.1))
  (fp_line (start -10 -7) (end -10 -3.25) (layer F.Fab) (width 0.1))
  (fp_line (start -10 -3.25) (end -25.25 -3.25) (layer F.Fab) (width 0.1))
  (fp_line (start -25.25 -3.25) (end -25.25 2.5) (layer F.Fab) (width 0.1))
  (fp_line (start -25.25 2.5) (end 25.25 2.5) (layer F.Fab) (width 0.1))
  (fp_line (start 25.25 2.5) (end 25.25 -3.25) (layer F.Fab) (width 0.1))
  (pad 1 thru_hole circle (at 22.606 0) (size 5.00126 5.00126) (drill 2.49936) (layers *.Cu *.Mask))
  (pad 1 thru_hole circle (at -22.606 0) (size 5.00126 5.00126) (drill 2.49936) (layers *.Cu *.Mask))
  (model ${KIPRJMOD}/kicad_libs_k/models_k.3d/Heatsink_k.3dshapes/Heatsink_SheetType_50x7mm_2Fixations_k.wrl
    (at (xyz 0 0 0))
    (scale (xyz 1 1 1))
    (rotate (xyz 0 0 0))
  )
)
