(module Transformer_Mini-Circuits_CD541_H2.08mm (layer F.Cu) (tedit 5A365E23)
  (descr https://ww2.minicircuits.com/case_style/CD541.pdf)
  (tags "RF Transformer")
  (attr smd)
  (fp_text reference REF** (at 0 -4.826) (layer F.SilkS)
    (effects (font (size 1 1) (thickness 0.15)))
  )
  (fp_text value Transformer_Mini-Circuits_CD541_H2.08mm (at 0 5.08) (layer F.Fab)
    (effects (font (size 1 1) (thickness 0.15)))
  )
  (fp_line (start 2.794 -3.937) (end 2.794 3.937) (layer F.Fab) (width 0.1))
  (fp_line (start 2.794 3.937) (end -2.794 3.937) (layer F.Fab) (width 0.1))
  (fp_line (start -2.794 3.937) (end -2.794 -2.937) (layer F.Fab) (width 0.1))
  (fp_line (start -1.794 -3.937) (end 2.794 -3.937) (layer F.Fab) (width 0.1))
  (fp_line (start -1.794 -3.937) (end -2.794 -2.937) (layer F.Fab) (width 0.1))
  (fp_line (start 2.921 -3.556) (end 2.921 -4.064) (layer F.SilkS) (width 0.12))
  (fp_line (start 2.921 -4.064) (end -2.921 -4.064) (layer F.SilkS) (width 0.12))
  (fp_line (start -2.921 -4.064) (end -2.921 -3.556) (layer F.SilkS) (width 0.12))
  (fp_line (start -2.921 -3.556) (end -3.81 -3.556) (layer F.SilkS) (width 0.12))
  (fp_line (start -2.921 3.556) (end -2.921 4.064) (layer F.SilkS) (width 0.12))
  (fp_line (start -2.921 4.064) (end 2.921 4.064) (layer F.SilkS) (width 0.12))
  (fp_line (start 2.921 4.064) (end 2.921 3.556) (layer F.SilkS) (width 0.12))
  (fp_text user %R (at 0 0 90) (layer F.Fab)
    (effects (font (size 1 1) (thickness 0.15)))
  )
  (fp_line (start -4.06 4.32) (end -4.06 -4.32) (layer F.CrtYd) (width 0.05))
  (fp_line (start 4.06 4.32) (end 4.06 -4.32) (layer F.CrtYd) (width 0.05))
  (fp_line (start 4.06 4.32) (end -4.06 4.32) (layer F.CrtYd) (width 0.05))
  (fp_line (start 4.06 -4.32) (end -4.06 -4.32) (layer F.CrtYd) (width 0.05))
  (pad 1 smd rect (at -2.54 -2.54) (size 2.54 1.65) (layers F.Cu F.Paste F.Mask))
  (pad 2 smd rect (at -2.54 0) (size 2.54 1.65) (layers F.Cu F.Paste F.Mask))
  (pad 3 smd rect (at -2.54 2.54) (size 2.54 1.65) (layers F.Cu F.Paste F.Mask))
  (pad 4 smd rect (at 2.54 2.54) (size 2.54 1.65) (layers F.Cu F.Paste F.Mask))
  (pad 5 smd rect (at 2.54 0) (size 2.54 1.65) (layers F.Cu F.Paste F.Mask))
  (pad 6 smd rect (at 2.54 -2.54) (size 2.54 1.65) (layers F.Cu F.Paste F.Mask))
  (model ${KIPRJMOD}/kicad_libs_k/models_k.3d/Transformer_SMD_k.3dshapes/Transformer_Mini-Circuits_CD541_H2.08mm_k.wrl
    (at (xyz 0 0 0))
    (scale (xyz 1 1 1))
    (rotate (xyz 0 0 0))
  )
)
