(module Transformer_NF_ETAL_P3181_HandSoldering (layer F.Cu) (tedit 5A030813)
  (descr "NF-Transformer, ETAL, P3181, SMD, Hand Soldering,")
  (tags "NF-Transformer ETAL P3181 SMD Hand Soldering ")
  (attr smd)
  (fp_text reference REF** (at 0 -5.5) (layer F.SilkS)
    (effects (font (size 1 1) (thickness 0.15)))
  )
  (fp_text value Transformer_NF_ETAL_P3181_HandSoldering (at 0.1 5.55) (layer F.Fab)
    (effects (font (size 1 1) (thickness 0.15)))
  )
  (fp_text user %R (at 0 0) (layer F.Fab)
    (effects (font (size 1 1) (thickness 0.15)))
  )
  (fp_line (start -4 -4.45) (end -4 4.45) (layer F.Fab) (width 0.1))
  (fp_line (start -6.45 -4.45) (end -6.45 4.45) (layer F.Fab) (width 0.1))
  (fp_line (start -6.45 4.45) (end 6.45 4.45) (layer F.Fab) (width 0.1))
  (fp_line (start 6.45 4.45) (end 6.45 -4.45) (layer F.Fab) (width 0.1))
  (fp_line (start 6.45 -4.45) (end -6.45 -4.45) (layer F.Fab) (width 0.1))
  (fp_line (start -4.02 -4) (end -6.42 -4) (layer F.SilkS) (width 0.12))
  (fp_line (start -4 4.5) (end -4 4) (layer F.SilkS) (width 0.12))
  (fp_line (start -4 -1) (end -4 1) (layer F.SilkS) (width 0.12))
  (fp_line (start -4 -4.5) (end -4 -4) (layer F.SilkS) (width 0.12))
  (fp_line (start -6.5 -1.2) (end -6.5 1.2) (layer F.SilkS) (width 0.12))
  (fp_line (start -6.5 -4.5) (end -6.5 -3.8) (layer F.SilkS) (width 0.12))
  (fp_line (start -6.5 3.8) (end -6.5 4.5) (layer F.SilkS) (width 0.12))
  (fp_line (start 6.5 3.8) (end 6.5 4.5) (layer F.SilkS) (width 0.12))
  (fp_line (start 6.5 -4.5) (end 6.5 -3.8) (layer F.SilkS) (width 0.12))
  (fp_line (start 6.5 -4.5) (end -6.5 -4.5) (layer F.SilkS) (width 0.12))
  (fp_line (start -6.5 4.5) (end 6.5 4.5) (layer F.SilkS) (width 0.12))
  (fp_line (start -8.09 -4.75) (end 8.09 -4.75) (layer F.CrtYd) (width 0.05))
  (fp_line (start -8.09 -4.75) (end -8.09 4.75) (layer F.CrtYd) (width 0.05))
  (fp_line (start 8.09 4.75) (end 8.09 -4.75) (layer F.CrtYd) (width 0.05))
  (fp_line (start 8.09 4.75) (end -8.09 4.75) (layer F.CrtYd) (width 0.05))
  (pad 7 smd oval (at -2 0 90) (size 3.5 1.5) (layers F.Cu F.Paste F.Mask))
  (pad 1 smd rect (at -6.09 -2.54) (size 3.5 1.5) (layers F.Cu F.Paste F.Mask))
  (pad 2 smd rect (at -6.09 2.54) (size 3.5 1.5) (layers F.Cu F.Paste F.Mask))
  (pad 3 smd rect (at 6.09 2.54) (size 3.5 1.5) (layers F.Cu F.Paste F.Mask))
  (pad 4 smd rect (at 6.09 0) (size 3.5 1.5) (layers F.Cu F.Paste F.Mask))
  (pad 5 smd rect (at 6.09 -2.54) (size 3.5 1.5) (layers F.Cu F.Paste F.Mask))
  (pad 7 smd oval (at 2 0 90) (size 3.5 1.5) (layers F.Cu F.Paste F.Mask))
  (model ${KIPRJMOD}/kicad_libs_k/models_k.3d/Transformer_SMD_k.3dshapes/Transformer_NF_ETAL_P3181_HandSoldering_k.wrl
    (at (xyz 0 0 0))
    (scale (xyz 1 1 1))
    (rotate (xyz 0 0 0))
  )
)
