(module WR-TBL_Pluggable_Connector_rev20a-691322310013 (layer F.Cu) (tedit 200000)
  (descr "WR-TBL SERIE 322 - 3.81 MM HORIZONTAL PCB HEADER")
  (tags "WR-TBL SERIE 322 - 3.81 MM HORIZONTAL PCB HEADER")
  (attr virtual)
  (fp_text reference >NAME (at 0 -2.63398) (layer F.SilkS)
    (effects (font (size 1.27 1.27) (thickness 0.1016)))
  )
  (fp_text value >VALUE (at 0.30988 9.36498) (layer F.SilkS)
    (effects (font (size 1.27 1.27) (thickness 0.1016)))
  )
  (fp_line (start -25.35936 7.99846) (end 25.35936 7.99846) (layer Dwgs.User) (width 0.09906))
  (fp_line (start 25.35936 7.99846) (end 25.35936 -1.19888) (layer Dwgs.User) (width 0.09906))
  (fp_line (start 25.35936 -1.19888) (end -25.35936 -1.19888) (layer Dwgs.User) (width 0.09906))
  (fp_line (start -25.35936 -1.19888) (end -25.35936 7.99846) (layer Dwgs.User) (width 0.09906))
  (fp_line (start 23.45436 -1.29794) (end 25.45842 -1.29794) (layer F.SilkS) (width 0.19812))
  (fp_line (start 25.45842 -1.29794) (end 25.45842 8.09752) (layer F.SilkS) (width 0.19812))
  (fp_line (start 25.45842 8.09752) (end -25.45842 8.09752) (layer F.SilkS) (width 0.19812))
  (fp_line (start -25.45842 8.09752) (end -25.45842 -1.29794) (layer F.SilkS) (width 0.19812))
  (fp_line (start -25.45842 -1.29794) (end -23.45436 -1.29794) (layer F.SilkS) (width 0.19812))
  (fp_line (start -22.35454 -1.29794) (end -19.55292 -1.29794) (layer F.SilkS) (width 0.19812))
  (fp_line (start -18.54454 -1.29794) (end -15.74292 -1.29794) (layer F.SilkS) (width 0.19812))
  (fp_line (start -14.73454 -1.29794) (end -11.93292 -1.29794) (layer F.SilkS) (width 0.19812))
  (fp_line (start -10.92454 -1.29794) (end -8.12292 -1.29794) (layer F.SilkS) (width 0.19812))
  (fp_line (start -7.11454 -1.29794) (end -4.31292 -1.29794) (layer F.SilkS) (width 0.19812))
  (fp_line (start -3.30454 -1.29794) (end -0.50292 -1.29794) (layer F.SilkS) (width 0.19812))
  (fp_line (start 0.50292 -1.29794) (end 3.30454 -1.29794) (layer F.SilkS) (width 0.19812))
  (fp_line (start 4.31292 -1.29794) (end 7.11454 -1.29794) (layer F.SilkS) (width 0.19812))
  (fp_line (start 8.12292 -1.29794) (end 10.92454 -1.29794) (layer F.SilkS) (width 0.19812))
  (fp_line (start 11.93292 -1.29794) (end 14.73454 -1.29794) (layer F.SilkS) (width 0.19812))
  (fp_line (start 15.74292 -1.29794) (end 18.54454 -1.29794) (layer F.SilkS) (width 0.19812))
  (fp_line (start 19.55292 -1.29794) (end 22.35454 -1.29794) (layer F.SilkS) (width 0.19812))
  (fp_poly (pts (xy -25.65908 -1.4986) (xy 25.65908 -1.4986) (xy 25.65908 8.29818) (xy -25.65908 8.29818)
    (xy -25.65908 -1.4986)) (layer Dwgs.User) (width 0.09906))
  (fp_circle (center -24.25446 1.19888) (end -24.25446 1.09982) (layer F.SilkS) (width 0.39878))
  (pad 1 thru_hole circle (at -22.86 0) (size 2.09804 2.09804) (drill 1.39954) (layers *.Cu *.Paste *.Mask))
  (pad 2 thru_hole circle (at -19.05 0) (size 2.09804 2.09804) (drill 1.39954) (layers *.Cu *.Paste *.Mask))
  (pad 3 thru_hole circle (at -15.24 0) (size 2.09804 2.09804) (drill 1.39954) (layers *.Cu *.Paste *.Mask))
  (pad 4 thru_hole circle (at -11.43 0) (size 2.09804 2.09804) (drill 1.39954) (layers *.Cu *.Paste *.Mask))
  (pad 5 thru_hole circle (at -7.62 0) (size 2.09804 2.09804) (drill 1.39954) (layers *.Cu *.Paste *.Mask))
  (pad 6 thru_hole circle (at -3.81 0) (size 2.09804 2.09804) (drill 1.39954) (layers *.Cu *.Paste *.Mask))
  (pad 7 thru_hole circle (at 0 0) (size 2.09804 2.09804) (drill 1.39954) (layers *.Cu *.Paste *.Mask))
  (pad 8 thru_hole circle (at 3.81 0) (size 2.09804 2.09804) (drill 1.39954) (layers *.Cu *.Paste *.Mask))
  (pad 9 thru_hole circle (at 7.62 0) (size 2.09804 2.09804) (drill 1.39954) (layers *.Cu *.Paste *.Mask))
  (pad 10 thru_hole circle (at 11.43 0) (size 2.09804 2.09804) (drill 1.39954) (layers *.Cu *.Paste *.Mask))
  (pad 11 thru_hole circle (at 15.24 0) (size 2.09804 2.09804) (drill 1.39954) (layers *.Cu *.Paste *.Mask))
  (pad 12 thru_hole circle (at 19.05 0) (size 2.09804 2.09804) (drill 1.39954) (layers *.Cu *.Paste *.Mask))
  (pad 13 thru_hole circle (at 22.86 0) (size 2.09804 2.09804) (drill 1.39954) (layers *.Cu *.Paste *.Mask))
)
