(module WR-TBL_Pluggable_Connector_rev20a-691330300006 (layer F.Cu) (tedit 200000)
  (descr "WR-TBL SERIE 3303 - 3.81 MM DOUBLE LEVEL VERTICAL MALE PCB HEADER WITH FLANGES & NUT TYPE")
  (tags "WR-TBL SERIE 3303 - 3.81 MM DOUBLE LEVEL VERTICAL MALE PCB HEADER WITH FLANGES & NUT TYPE")
  (attr virtual)
  (fp_text reference >NAME (at 0 -11.83386) (layer F.SilkS)
    (effects (font (size 1.27 1.27) (thickness 0.1016)))
  )
  (fp_text value >VALUE (at 0.30988 13.86332) (layer F.SilkS)
    (effects (font (size 1.27 1.27) (thickness 0.1016)))
  )
  (fp_line (start -10.9093 -10.2997) (end 10.9093 -10.2997) (layer Dwgs.User) (width 0.09906))
  (fp_line (start 10.9093 -10.2997) (end 10.9093 12.39774) (layer Dwgs.User) (width 0.09906))
  (fp_line (start 10.9093 12.39774) (end -10.9093 12.39774) (layer Dwgs.User) (width 0.09906))
  (fp_line (start -10.9093 12.39774) (end -10.9093 -10.2997) (layer Dwgs.User) (width 0.09906))
  (fp_line (start -11.00836 -10.39876) (end 11.00836 -10.39876) (layer F.SilkS) (width 0.19812))
  (fp_line (start 11.00836 -10.39876) (end 11.00836 12.49934) (layer F.SilkS) (width 0.19812))
  (fp_line (start 11.00836 12.49934) (end -11.00836 12.49934) (layer F.SilkS) (width 0.19812))
  (fp_line (start -11.00836 12.49934) (end -11.00836 -10.39876) (layer F.SilkS) (width 0.19812))
  (fp_poly (pts (xy -11.20902 -10.59942) (xy 11.20902 -10.59942) (xy 11.20902 12.7) (xy -11.20902 12.7)
    (xy -11.20902 -10.59942)) (layer Dwgs.User) (width 0.09906))
  (fp_circle (center -5.70484 8.79856) (end -5.70484 8.60044) (layer F.SilkS) (width 0.39878))
  (pad 1 thru_hole circle (at -3.81 7.49808) (size 2.09804 2.09804) (drill 1.39954) (layers *.Cu *.Paste *.Mask))
  (pad 2 thru_hole circle (at 0 7.49808) (size 2.09804 2.09804) (drill 1.39954) (layers *.Cu *.Paste *.Mask))
  (pad 3 thru_hole circle (at 3.81 7.49808) (size 2.09804 2.09804) (drill 1.39954) (layers *.Cu *.Paste *.Mask))
  (pad 4 thru_hole circle (at -3.81 -7.49808) (size 2.09804 2.09804) (drill 1.39954) (layers *.Cu *.Paste *.Mask))
  (pad 5 thru_hole circle (at 0 -7.49808) (size 2.09804 2.09804) (drill 1.39954) (layers *.Cu *.Paste *.Mask))
  (pad 6 thru_hole circle (at 3.81 -7.49808) (size 2.09804 2.09804) (drill 1.39954) (layers *.Cu *.Paste *.Mask))
)
