(module WR-TBL_Pluggable_Connector_rev20a-691357310008B (layer F.Cu) (tedit 200000)
  (descr "WR-TBL SERIE 357B - 3.81 MM DOUBLE LEVEL VERTICAL MALE PCB HEADER WITH FLANGES")
  (tags "WR-TBL SERIE 357B - 3.81 MM DOUBLE LEVEL VERTICAL MALE PCB HEADER WITH FLANGES")
  (attr virtual)
  (fp_text reference >NAME (at 0 -9.13384) (layer F.SilkS)
    (effects (font (size 1.27 1.27) (thickness 0.1016)))
  )
  (fp_text value >VALUE (at 0.30988 15.86484) (layer F.SilkS)
    (effects (font (size 1.27 1.27) (thickness 0.1016)))
  )
  (fp_line (start -12.91336 -7.54888) (end -12.91336 14.34846) (layer Dwgs.User) (width 0.09906))
  (fp_line (start -12.91336 14.34846) (end 12.91336 14.34846) (layer Dwgs.User) (width 0.09906))
  (fp_line (start 12.91336 14.34846) (end 12.91336 -7.54888) (layer Dwgs.User) (width 0.09906))
  (fp_line (start 12.91336 -7.54888) (end -12.91336 -7.54888) (layer Dwgs.User) (width 0.09906))
  (fp_line (start 6.40842 -7.64794) (end 13.01496 -7.64794) (layer F.SilkS) (width 0.19812))
  (fp_line (start 13.01496 -7.64794) (end 13.01496 14.44752) (layer F.SilkS) (width 0.19812))
  (fp_line (start 13.01496 14.44752) (end -13.01496 14.44752) (layer F.SilkS) (width 0.19812))
  (fp_line (start -13.01496 14.44752) (end -13.01496 -7.64794) (layer F.SilkS) (width 0.19812))
  (fp_line (start -13.01496 -7.64794) (end -6.20776 -7.64794) (layer F.SilkS) (width 0.19812))
  (fp_line (start -5.20954 -7.64794) (end -2.40792 -7.64794) (layer F.SilkS) (width 0.19812))
  (fp_line (start -1.39954 -7.64794) (end 1.39954 -7.64794) (layer F.SilkS) (width 0.19812))
  (fp_line (start 2.40792 -7.64794) (end 5.20954 -7.64794) (layer F.SilkS) (width 0.19812))
  (fp_poly (pts (xy -13.21308 -7.8486) (xy 13.21308 -7.8486) (xy 13.21308 14.64818) (xy -13.21308 14.64818)
    (xy -13.21308 -7.8486)) (layer Dwgs.User) (width 0.09906))
  (fp_circle (center -7.7089 7.8994) (end -7.7089 7.70128) (layer F.SilkS) (width 0.39878))
  (pad 1 thru_hole circle (at -5.715 6.35) (size 2.09804 2.09804) (drill 1.39954) (layers *.Cu *.Paste *.Mask))
  (pad 2 thru_hole circle (at -1.905 6.35) (size 2.09804 2.09804) (drill 1.39954) (layers *.Cu *.Paste *.Mask))
  (pad 3 thru_hole circle (at 1.905 6.35) (size 2.09804 2.09804) (drill 1.39954) (layers *.Cu *.Paste *.Mask))
  (pad 4 thru_hole circle (at 5.715 6.35) (size 2.09804 2.09804) (drill 1.39954) (layers *.Cu *.Paste *.Mask))
  (pad 5 thru_hole circle (at -5.715 -6.35) (size 2.09804 2.09804) (drill 1.39954) (layers *.Cu *.Paste *.Mask))
  (pad 6 thru_hole circle (at -1.905 -6.35) (size 2.09804 2.09804) (drill 1.39954) (layers *.Cu *.Paste *.Mask))
  (pad 7 thru_hole circle (at 1.905 -6.35) (size 2.09804 2.09804) (drill 1.39954) (layers *.Cu *.Paste *.Mask))
  (pad 8 thru_hole circle (at 5.715 -6.35) (size 2.09804 2.09804) (drill 1.39954) (layers *.Cu *.Paste *.Mask))
)
