(module WR-TBL_Pluggable_Connector_rev20a-691305340002 (layer F.Cu) (tedit 200000)
  (descr "WR-TBL SERIE 3053 - 3.81 MM HORIZONTAL PCB HEADER")
  (tags "WR-TBL SERIE 3053 - 3.81 MM HORIZONTAL PCB HEADER")
  (attr virtual)
  (fp_text reference >NAME (at 0 -2.83464) (layer F.SilkS)
    (effects (font (size 1.27 1.27) (thickness 0.1016)))
  )
  (fp_text value >VALUE (at 0.30988 9.36498) (layer F.SilkS)
    (effects (font (size 1.27 1.27) (thickness 0.1016)))
  )
  (fp_line (start -4.40944 -1.39954) (end 4.40944 -1.39954) (layer Dwgs.User) (width 0.09906))
  (fp_line (start 4.40944 -1.39954) (end 4.40944 4.99872) (layer Dwgs.User) (width 0.09906))
  (fp_line (start -4.40944 4.99872) (end -4.40944 -1.39954) (layer Dwgs.User) (width 0.09906))
  (fp_line (start 4.40944 4.99872) (end 5.55752 4.99872) (layer Dwgs.User) (width 0.09906))
  (fp_line (start 5.55752 4.99872) (end 5.55752 5.64896) (layer Dwgs.User) (width 0.09906))
  (fp_line (start 5.55752 5.64896) (end 4.40944 7.7978) (layer Dwgs.User) (width 0.09906))
  (fp_line (start 4.40944 7.7978) (end -4.40944 7.7978) (layer Dwgs.User) (width 0.09906))
  (fp_line (start -4.40944 7.7978) (end -5.55752 5.64896) (layer Dwgs.User) (width 0.09906))
  (fp_line (start -5.55752 5.64896) (end -5.55752 4.99872) (layer Dwgs.User) (width 0.09906))
  (fp_line (start -5.55752 4.99872) (end -4.40944 4.99872) (layer Dwgs.User) (width 0.09906))
  (fp_line (start -4.5085 4.89966) (end -4.5085 -1.4986) (layer F.SilkS) (width 0.19812))
  (fp_line (start -4.5085 -1.4986) (end 4.5085 -1.4986) (layer F.SilkS) (width 0.19812))
  (fp_line (start 4.5085 -1.4986) (end 4.5085 4.89966) (layer F.SilkS) (width 0.19812))
  (fp_line (start 4.5085 4.89966) (end 5.65912 4.89966) (layer F.SilkS) (width 0.19812))
  (fp_line (start 5.65912 4.89966) (end 5.65912 5.69976) (layer F.SilkS) (width 0.19812))
  (fp_line (start 5.65912 5.69976) (end 4.5085 7.8994) (layer F.SilkS) (width 0.19812))
  (fp_line (start 4.5085 7.8994) (end -4.5085 7.8994) (layer F.SilkS) (width 0.19812))
  (fp_line (start -4.5085 7.8994) (end -5.65912 5.69976) (layer F.SilkS) (width 0.19812))
  (fp_line (start -5.65912 5.69976) (end -5.65912 4.89966) (layer F.SilkS) (width 0.19812))
  (fp_line (start -5.65912 4.89966) (end -4.5085 4.89966) (layer F.SilkS) (width 0.19812))
  (fp_poly (pts (xy -5.85978 -1.69926) (xy 5.85978 -1.69926) (xy 5.85978 8.09752) (xy -5.85978 8.09752)
    (xy -5.85978 -1.69926)) (layer Dwgs.User) (width 0.09906))
  (fp_circle (center -2.89814 1.4986) (end -2.89814 1.39954) (layer F.SilkS) (width 0.39878))
  (pad 1 thru_hole circle (at -1.905 0) (size 2.09804 2.09804) (drill 1.39954) (layers *.Cu *.Paste *.Mask))
  (pad 2 thru_hole circle (at 1.905 0) (size 2.09804 2.09804) (drill 1.39954) (layers *.Cu *.Paste *.Mask))
)
