(module WR-TBL_Pluggable_Connector_rev20a-691325110005 (layer F.Cu) (tedit 200000)
  (descr "WR-TBL SERIE 3251 - 3.50 MM HORIZONTAL PCB HEADER WITH FLANGES")
  (tags "WR-TBL SERIE 3251 - 3.50 MM HORIZONTAL PCB HEADER WITH FLANGES")
  (attr virtual)
  (fp_text reference >NAME (at 0 -2.63398) (layer F.SilkS)
    (effects (font (size 1.27 1.27) (thickness 0.1016)))
  )
  (fp_text value >VALUE (at 0.30988 9.36498) (layer F.SilkS)
    (effects (font (size 1.27 1.27) (thickness 0.1016)))
  )
  (fp_line (start -13.89888 7.99846) (end 13.89888 7.99846) (layer Dwgs.User) (width 0.09906))
  (fp_line (start 13.89888 7.99846) (end 13.89888 -1.19888) (layer Dwgs.User) (width 0.09906))
  (fp_line (start 13.89888 -1.19888) (end -13.89888 -1.19888) (layer Dwgs.User) (width 0.09906))
  (fp_line (start -13.89888 -1.19888) (end -13.89888 7.99846) (layer Dwgs.User) (width 0.09906))
  (fp_line (start 7.54888 -1.29794) (end 13.99794 -1.29794) (layer F.SilkS) (width 0.19812))
  (fp_line (start 13.99794 -1.29794) (end 13.99794 8.09752) (layer F.SilkS) (width 0.19812))
  (fp_line (start 13.99794 8.09752) (end -13.99794 8.09752) (layer F.SilkS) (width 0.19812))
  (fp_line (start -13.99794 8.09752) (end -13.99794 -1.29794) (layer F.SilkS) (width 0.19812))
  (fp_line (start -13.99794 -1.29794) (end -7.44982 -1.29794) (layer F.SilkS) (width 0.19812))
  (fp_line (start -6.44906 -1.29794) (end -3.9497 -1.29794) (layer F.SilkS) (width 0.19812))
  (fp_line (start -2.94894 -1.29794) (end -0.44958 -1.29794) (layer F.SilkS) (width 0.19812))
  (fp_line (start 0.54864 -1.29794) (end 3.048 -1.29794) (layer F.SilkS) (width 0.19812))
  (fp_line (start 4.04876 -1.29794) (end 6.54812 -1.29794) (layer F.SilkS) (width 0.19812))
  (fp_poly (pts (xy -14.1986 -1.4986) (xy 14.1986 -1.4986) (xy 14.1986 8.29818) (xy -14.1986 8.29818)
    (xy -14.1986 -1.4986)) (layer Dwgs.User) (width 0.09906))
  (fp_circle (center -8.74776 1.19888) (end -8.74776 1.09982) (layer F.SilkS) (width 0.39878))
  (pad 1 thru_hole circle (at -6.9977 0) (size 2.09804 2.09804) (drill 1.39954) (layers *.Cu *.Paste *.Mask))
  (pad 2 thru_hole circle (at -3.49758 0) (size 2.09804 2.09804) (drill 1.39954) (layers *.Cu *.Paste *.Mask))
  (pad 3 thru_hole circle (at 0 0) (size 2.09804 2.09804) (drill 1.39954) (layers *.Cu *.Paste *.Mask))
  (pad 4 thru_hole circle (at 3.49758 0) (size 2.09804 2.09804) (drill 1.39954) (layers *.Cu *.Paste *.Mask))
  (pad 5 thru_hole circle (at 6.9977 0) (size 2.09804 2.09804) (drill 1.39954) (layers *.Cu *.Paste *.Mask))
)
