(module WR-TBL_Pluggable_Connector_rev20a-691322310012 (layer F.Cu) (tedit 200000)
  (descr "WR-TBL SERIE 322 - 3.81 MM HORIZONTAL PCB HEADER")
  (tags "WR-TBL SERIE 322 - 3.81 MM HORIZONTAL PCB HEADER")
  (attr virtual)
  (fp_text reference >NAME (at 0 -2.63398) (layer F.SilkS)
    (effects (font (size 1.27 1.27) (thickness 0.1016)))
  )
  (fp_text value >VALUE (at 0.30988 9.36498) (layer F.SilkS)
    (effects (font (size 1.27 1.27) (thickness 0.1016)))
  )
  (fp_line (start -23.45436 7.99846) (end 23.45436 7.99846) (layer Dwgs.User) (width 0.09906))
  (fp_line (start 23.45436 7.99846) (end 23.45436 -1.19888) (layer Dwgs.User) (width 0.09906))
  (fp_line (start 23.45436 -1.19888) (end -23.45436 -1.19888) (layer Dwgs.User) (width 0.09906))
  (fp_line (start -23.45436 -1.19888) (end -23.45436 7.99846) (layer Dwgs.User) (width 0.09906))
  (fp_line (start 21.54936 -1.29794) (end 23.55342 -1.29794) (layer F.SilkS) (width 0.19812))
  (fp_line (start 23.55342 -1.29794) (end 23.55342 8.09752) (layer F.SilkS) (width 0.19812))
  (fp_line (start 23.55342 8.09752) (end -23.55342 8.09752) (layer F.SilkS) (width 0.19812))
  (fp_line (start -23.55342 8.09752) (end -23.55342 -1.29794) (layer F.SilkS) (width 0.19812))
  (fp_line (start -23.55342 -1.29794) (end -21.54936 -1.29794) (layer F.SilkS) (width 0.19812))
  (fp_line (start -20.44954 -1.29794) (end -17.64792 -1.29794) (layer F.SilkS) (width 0.19812))
  (fp_line (start -16.63954 -1.29794) (end -13.83792 -1.29794) (layer F.SilkS) (width 0.19812))
  (fp_line (start -12.82954 -1.29794) (end -10.02792 -1.29794) (layer F.SilkS) (width 0.19812))
  (fp_line (start -9.01954 -1.29794) (end -6.21792 -1.29794) (layer F.SilkS) (width 0.19812))
  (fp_line (start -5.20954 -1.29794) (end -2.40792 -1.29794) (layer F.SilkS) (width 0.19812))
  (fp_line (start -1.39954 -1.29794) (end 1.39954 -1.29794) (layer F.SilkS) (width 0.19812))
  (fp_line (start 2.40792 -1.29794) (end 5.20954 -1.29794) (layer F.SilkS) (width 0.19812))
  (fp_line (start 6.21792 -1.29794) (end 9.01954 -1.29794) (layer F.SilkS) (width 0.19812))
  (fp_line (start 10.02792 -1.29794) (end 12.82954 -1.29794) (layer F.SilkS) (width 0.19812))
  (fp_line (start 13.83792 -1.29794) (end 16.63954 -1.29794) (layer F.SilkS) (width 0.19812))
  (fp_line (start 17.64792 -1.29794) (end 20.44954 -1.29794) (layer F.SilkS) (width 0.19812))
  (fp_poly (pts (xy -23.75408 -1.4986) (xy 23.75408 -1.4986) (xy 23.75408 8.29818) (xy -23.75408 8.29818)
    (xy -23.75408 -1.4986)) (layer Dwgs.User) (width 0.09906))
  (fp_circle (center -22.34946 1.19888) (end -22.34946 1.09982) (layer F.SilkS) (width 0.39878))
  (pad 1 thru_hole circle (at -20.955 0) (size 2.09804 2.09804) (drill 1.39954) (layers *.Cu *.Paste *.Mask))
  (pad 2 thru_hole circle (at -17.145 0) (size 2.09804 2.09804) (drill 1.39954) (layers *.Cu *.Paste *.Mask))
  (pad 3 thru_hole circle (at -13.335 0) (size 2.09804 2.09804) (drill 1.39954) (layers *.Cu *.Paste *.Mask))
  (pad 4 thru_hole circle (at -9.525 0) (size 2.09804 2.09804) (drill 1.39954) (layers *.Cu *.Paste *.Mask))
  (pad 5 thru_hole circle (at -5.715 0) (size 2.09804 2.09804) (drill 1.39954) (layers *.Cu *.Paste *.Mask))
  (pad 6 thru_hole circle (at -1.905 0) (size 2.09804 2.09804) (drill 1.39954) (layers *.Cu *.Paste *.Mask))
  (pad 7 thru_hole circle (at 1.905 0) (size 2.09804 2.09804) (drill 1.39954) (layers *.Cu *.Paste *.Mask))
  (pad 8 thru_hole circle (at 5.715 0) (size 2.09804 2.09804) (drill 1.39954) (layers *.Cu *.Paste *.Mask))
  (pad 9 thru_hole circle (at 9.525 0) (size 2.09804 2.09804) (drill 1.39954) (layers *.Cu *.Paste *.Mask))
  (pad 10 thru_hole circle (at 13.335 0) (size 2.09804 2.09804) (drill 1.39954) (layers *.Cu *.Paste *.Mask))
  (pad 11 thru_hole circle (at 17.145 0) (size 2.09804 2.09804) (drill 1.39954) (layers *.Cu *.Paste *.Mask))
  (pad 12 thru_hole circle (at 20.955 0) (size 2.09804 2.09804) (drill 1.39954) (layers *.Cu *.Paste *.Mask))
)
