(module WR-TBL_Pluggable_Connector_rev20a-691313510017 (layer F.Cu) (tedit 200000)
  (descr "WR-TBL SERIE 313 - 5.08 MM CLOSE HORIZONTAL PCB HEADER")
  (tags "WR-TBL SERIE 313 - 5.08 MM CLOSE HORIZONTAL PCB HEADER")
  (attr virtual)
  (fp_text reference >NAME (at 0 -3.63474) (layer F.SilkS)
    (effects (font (size 1.27 1.27) (thickness 0.1016)))
  )
  (fp_text value >VALUE (at 0.30988 11.36396) (layer F.SilkS)
    (effects (font (size 1.27 1.27) (thickness 0.1016)))
  )
  (fp_line (start 44.17822 -1.99898) (end -44.17822 -1.99898) (layer Dwgs.User) (width 0.09906))
  (fp_line (start -44.17822 -1.99898) (end -44.17822 9.99998) (layer Dwgs.User) (width 0.09906))
  (fp_line (start -44.17822 9.99998) (end 44.17822 9.99998) (layer Dwgs.User) (width 0.09906))
  (fp_line (start 44.17822 9.99998) (end 44.17822 -1.99898) (layer Dwgs.User) (width 0.09906))
  (fp_line (start -44.27982 -2.09804) (end 44.27982 -2.09804) (layer F.SilkS) (width 0.19812))
  (fp_line (start 44.27982 -2.09804) (end 44.27982 10.09904) (layer F.SilkS) (width 0.19812))
  (fp_line (start 44.27982 10.09904) (end -44.27982 10.09904) (layer F.SilkS) (width 0.19812))
  (fp_line (start -44.27982 10.09904) (end -44.27982 -2.09804) (layer F.SilkS) (width 0.19812))
  (fp_poly (pts (xy -44.47794 -2.2987) (xy 44.47794 -2.2987) (xy 44.47794 10.2997) (xy -44.47794 10.2997)
    (xy -44.47794 -2.2987)) (layer Dwgs.User) (width 0.09906))
  (fp_circle (center -42.69994 -0.89916) (end -42.69994 -1.09728) (layer F.SilkS) (width 0.39878))
  (pad 1 thru_hole circle (at -40.64 0) (size 2.39776 2.39776) (drill 1.59766) (layers *.Cu *.Paste *.Mask))
  (pad 2 thru_hole circle (at -35.56 0) (size 2.39776 2.39776) (drill 1.59766) (layers *.Cu *.Paste *.Mask))
  (pad 3 thru_hole circle (at -30.48 0) (size 2.39776 2.39776) (drill 1.59766) (layers *.Cu *.Paste *.Mask))
  (pad 4 thru_hole circle (at -25.4 0) (size 2.39776 2.39776) (drill 1.59766) (layers *.Cu *.Paste *.Mask))
  (pad 5 thru_hole circle (at -20.32 0) (size 2.39776 2.39776) (drill 1.59766) (layers *.Cu *.Paste *.Mask))
  (pad 6 thru_hole circle (at -15.24 0) (size 2.39776 2.39776) (drill 1.59766) (layers *.Cu *.Paste *.Mask))
  (pad 7 thru_hole circle (at -10.16 0) (size 2.39776 2.39776) (drill 1.59766) (layers *.Cu *.Paste *.Mask))
  (pad 8 thru_hole circle (at -5.08 0) (size 2.39776 2.39776) (drill 1.59766) (layers *.Cu *.Paste *.Mask))
  (pad 9 thru_hole circle (at 0 0) (size 2.39776 2.39776) (drill 1.59766) (layers *.Cu *.Paste *.Mask))
  (pad 10 thru_hole circle (at 5.08 0) (size 2.39776 2.39776) (drill 1.59766) (layers *.Cu *.Paste *.Mask))
  (pad 11 thru_hole circle (at 10.16 0) (size 2.39776 2.39776) (drill 1.59766) (layers *.Cu *.Paste *.Mask))
  (pad 12 thru_hole circle (at 15.24 0) (size 2.39776 2.39776) (drill 1.59766) (layers *.Cu *.Paste *.Mask))
  (pad 13 thru_hole circle (at 20.32 0) (size 2.39776 2.39776) (drill 1.59766) (layers *.Cu *.Paste *.Mask))
  (pad 14 thru_hole circle (at 25.4 0) (size 2.39776 2.39776) (drill 1.59766) (layers *.Cu *.Paste *.Mask))
  (pad 15 thru_hole circle (at 30.48 0) (size 2.39776 2.39776) (drill 1.59766) (layers *.Cu *.Paste *.Mask))
  (pad 16 thru_hole circle (at 35.56 0) (size 2.39776 2.39776) (drill 1.59766) (layers *.Cu *.Paste *.Mask))
  (pad 17 thru_hole circle (at 40.64 0) (size 2.39776 2.39776) (drill 1.59766) (layers *.Cu *.Paste *.Mask))
)
