(module WR-TBL_Pluggable_Connector_rev20a-691322110006 (layer F.Cu) (tedit 200000)
  (descr "WR-TBL SERIE 3221 - 3.50 MM HORIZONTAL PCB HEADER")
  (tags "WR-TBL SERIE 3221 - 3.50 MM HORIZONTAL PCB HEADER")
  (attr virtual)
  (fp_text reference >NAME (at 0 -2.63398) (layer F.SilkS)
    (effects (font (size 1.27 1.27) (thickness 0.1016)))
  )
  (fp_text value >VALUE (at 0.30988 9.36498) (layer F.SilkS)
    (effects (font (size 1.27 1.27) (thickness 0.1016)))
  )
  (fp_line (start 11.19886 -1.19888) (end -11.19886 -1.19888) (layer Dwgs.User) (width 0.09906))
  (fp_line (start -11.19886 -1.19888) (end -11.19886 7.99846) (layer Dwgs.User) (width 0.09906))
  (fp_line (start -11.19886 7.99846) (end 11.19886 7.99846) (layer Dwgs.User) (width 0.09906))
  (fp_line (start 11.19886 7.99846) (end 11.19886 -1.19888) (layer Dwgs.User) (width 0.09906))
  (fp_line (start 9.29894 -1.29794) (end 11.29792 -1.29794) (layer F.SilkS) (width 0.19812))
  (fp_line (start 11.29792 -1.29794) (end 11.29792 8.09752) (layer F.SilkS) (width 0.19812))
  (fp_line (start 11.29792 8.09752) (end -11.29792 8.09752) (layer F.SilkS) (width 0.19812))
  (fp_line (start -11.29792 8.09752) (end -11.29792 -1.29794) (layer F.SilkS) (width 0.19812))
  (fp_line (start -11.29792 -1.29794) (end -9.29894 -1.29794) (layer F.SilkS) (width 0.19812))
  (fp_line (start -8.19912 -1.29794) (end -5.79882 -1.29794) (layer F.SilkS) (width 0.19812))
  (fp_line (start -4.699 -1.29794) (end -2.2987 -1.29794) (layer F.SilkS) (width 0.19812))
  (fp_line (start -1.19888 -1.29794) (end 1.19888 -1.29794) (layer F.SilkS) (width 0.19812))
  (fp_line (start 2.2987 -1.29794) (end 4.699 -1.29794) (layer F.SilkS) (width 0.19812))
  (fp_line (start 5.79882 -1.29794) (end 8.19912 -1.29794) (layer F.SilkS) (width 0.19812))
  (fp_poly (pts (xy -11.49858 -1.4986) (xy 11.49858 -1.4986) (xy 11.49858 8.29818) (xy -11.49858 8.29818)
    (xy -11.49858 -1.4986)) (layer Dwgs.User) (width 0.09906))
  (fp_circle (center -10.09904 1.59766) (end -10.09904 1.4986) (layer F.SilkS) (width 0.39878))
  (pad 1 thru_hole circle (at -8.74776 0) (size 2.09804 2.09804) (drill 1.39954) (layers *.Cu *.Paste *.Mask))
  (pad 2 thru_hole circle (at -5.24764 0) (size 2.09804 2.09804) (drill 1.39954) (layers *.Cu *.Paste *.Mask))
  (pad 3 thru_hole circle (at -1.74752 0) (size 2.09804 2.09804) (drill 1.39954) (layers *.Cu *.Paste *.Mask))
  (pad 4 thru_hole circle (at 1.74752 0) (size 2.09804 2.09804) (drill 1.39954) (layers *.Cu *.Paste *.Mask))
  (pad 5 thru_hole circle (at 5.24764 0) (size 2.09804 2.09804) (drill 1.39954) (layers *.Cu *.Paste *.Mask))
  (pad 6 thru_hole circle (at 8.74776 0) (size 2.09804 2.09804) (drill 1.39954) (layers *.Cu *.Paste *.Mask))
)
