(module WR-TBL_Pluggable_Connector_rev20a-691382030002 (layer F.Cu) (tedit 200000)
  (descr "WR-TBL SERIE 382 - 2.50 MM VERTICAL PCB HEADER WITH FLANGES")
  (tags "WR-TBL SERIE 382 - 2.50 MM VERTICAL PCB HEADER WITH FLANGES")
  (attr virtual)
  (fp_text reference >NAME (at 0 -5.63372) (layer F.SilkS)
    (effects (font (size 1.27 1.27) (thickness 0.1016)))
  )
  (fp_text value >VALUE (at 0.30988 5.36448) (layer F.SilkS)
    (effects (font (size 1.27 1.27) (thickness 0.1016)))
  )
  (fp_line (start -8.49884 3.8989) (end -8.49884 -4.19862) (layer Dwgs.User) (width 0.09906))
  (fp_line (start -8.49884 -4.19862) (end 8.49884 -4.19862) (layer Dwgs.User) (width 0.09906))
  (fp_line (start 8.49884 -4.19862) (end 8.49884 3.8989) (layer Dwgs.User) (width 0.09906))
  (fp_line (start 8.49884 3.8989) (end -8.49884 3.8989) (layer Dwgs.User) (width 0.09906))
  (fp_line (start -8.5979 -4.29768) (end 8.5979 -4.29768) (layer F.SilkS) (width 0.19812))
  (fp_line (start 8.5979 -4.29768) (end 8.5979 3.99796) (layer F.SilkS) (width 0.19812))
  (fp_line (start 8.5979 3.99796) (end -8.5979 3.99796) (layer F.SilkS) (width 0.19812))
  (fp_line (start -8.5979 3.99796) (end -8.5979 -4.29768) (layer F.SilkS) (width 0.19812))
  (fp_poly (pts (xy -8.79856 -4.49834) (xy 8.79856 -4.49834) (xy 8.79856 4.19862) (xy -8.79856 4.19862)
    (xy -8.79856 -4.49834)) (layer Dwgs.User) (width 0.09906))
  (fp_circle (center -3.19786 -1.29794) (end -3.19786 -1.397) (layer F.SilkS) (width 0.39878))
  (pad 1 thru_hole circle (at -1.24968 0) (size 2.09804 2.09804) (drill 1.39954) (layers *.Cu *.Paste *.Mask))
  (pad 2 thru_hole circle (at 1.24968 0) (size 2.09804 2.09804) (drill 1.39954) (layers *.Cu *.Paste *.Mask))
)
