(module WR-TBL_Pluggable_Connector_rev20a-691312710003 (layer F.Cu) (tedit 200000)
  (descr "WR-TBL SERIE 3127 - 5.00 MM OPEN HORIZONTAL PCB HEADER")
  (tags "WR-TBL SERIE 3127 - 5.00 MM OPEN HORIZONTAL PCB HEADER")
  (attr virtual)
  (fp_text reference >NAME (at 0 -3.63474) (layer F.SilkS)
    (effects (font (size 1.27 1.27) (thickness 0.1016)))
  )
  (fp_text value >VALUE (at 0.30988 11.36396) (layer F.SilkS)
    (effects (font (size 1.27 1.27) (thickness 0.1016)))
  )
  (fp_line (start 7.49808 -1.99898) (end -7.49808 -1.99898) (layer Dwgs.User) (width 0.09906))
  (fp_line (start -7.49808 -1.99898) (end -7.49808 9.99998) (layer Dwgs.User) (width 0.09906))
  (fp_line (start -7.49808 9.99998) (end 7.49808 9.99998) (layer Dwgs.User) (width 0.09906))
  (fp_line (start 7.49808 9.99998) (end 7.49808 -1.99898) (layer Dwgs.User) (width 0.09906))
  (fp_line (start -7.59968 -2.09804) (end 7.59968 -2.09804) (layer F.SilkS) (width 0.19812))
  (fp_line (start 7.59968 -2.09804) (end 7.59968 10.09904) (layer F.SilkS) (width 0.19812))
  (fp_line (start 7.59968 10.09904) (end -7.59968 10.09904) (layer F.SilkS) (width 0.19812))
  (fp_line (start -7.59968 10.09904) (end -7.59968 -2.09804) (layer F.SilkS) (width 0.19812))
  (fp_poly (pts (xy -7.7978 -2.2987) (xy 7.7978 -2.2987) (xy 7.7978 10.2997) (xy -7.7978 10.2997)
    (xy -7.7978 -2.2987)) (layer Dwgs.User) (width 0.09906))
  (fp_circle (center -6.69798 1.39954) (end -6.69798 1.30048) (layer F.SilkS) (width 0.39878))
  (pad 1 thru_hole circle (at -4.99872 0) (size 2.39776 2.39776) (drill 1.59766) (layers *.Cu *.Paste *.Mask))
  (pad 2 thru_hole circle (at 0 0) (size 2.39776 2.39776) (drill 1.59766) (layers *.Cu *.Paste *.Mask))
  (pad 3 thru_hole circle (at 4.99872 0) (size 2.39776 2.39776) (drill 1.59766) (layers *.Cu *.Paste *.Mask))
)
