(module WR-TBL_Pluggable_Connector_rev20a-691382010005 (layer F.Cu) (tedit 200000)
  (descr "WR-TBL SERIE 382 - 2.50 MM HORIZONTAL PCB HEADER")
  (tags "WR-TBL SERIE 382 - 2.50 MM HORIZONTAL PCB HEADER")
  (attr virtual)
  (fp_text reference >NAME (at 0 -2.63398) (layer F.SilkS)
    (effects (font (size 1.27 1.27) (thickness 0.1016)))
  )
  (fp_text value >VALUE (at 0.30988 10.3632) (layer F.SilkS)
    (effects (font (size 1.27 1.27) (thickness 0.1016)))
  )
  (fp_line (start -7.24916 8.99922) (end -7.24916 -1.09982) (layer Dwgs.User) (width 0.09906))
  (fp_line (start -7.24916 -1.09982) (end 7.24916 -1.09982) (layer Dwgs.User) (width 0.09906))
  (fp_line (start 7.24916 -1.09982) (end 7.24916 8.99922) (layer Dwgs.User) (width 0.09906))
  (fp_line (start 7.24916 8.99922) (end -7.24916 8.99922) (layer Dwgs.User) (width 0.09906))
  (fp_line (start 5.74802 -1.19888) (end 7.34822 -1.19888) (layer F.SilkS) (width 0.19812))
  (fp_line (start 7.34822 -1.19888) (end 7.34822 9.09828) (layer F.SilkS) (width 0.19812))
  (fp_line (start 7.34822 9.09828) (end -7.34822 9.09828) (layer F.SilkS) (width 0.19812))
  (fp_line (start -7.34822 9.09828) (end -7.34822 -1.19888) (layer F.SilkS) (width 0.19812))
  (fp_line (start -7.34822 -1.19888) (end -5.64896 -1.19888) (layer F.SilkS) (width 0.19812))
  (fp_line (start -4.24942 -1.19888) (end -3.24866 -1.19888) (layer F.SilkS) (width 0.19812))
  (fp_line (start -1.74752 -1.19888) (end -0.7493 -1.19888) (layer F.SilkS) (width 0.19812))
  (fp_line (start 0.7493 -1.19888) (end 1.74752 -1.19888) (layer F.SilkS) (width 0.19812))
  (fp_line (start 3.24866 -1.19888) (end 4.24942 -1.19888) (layer F.SilkS) (width 0.19812))
  (fp_poly (pts (xy -7.54888 -1.39954) (xy 7.54888 -1.39954) (xy 7.54888 9.29894) (xy -7.54888 9.29894)
    (xy -7.54888 -1.39954)) (layer Dwgs.User) (width 0.09906))
  (fp_circle (center -6.35 1.19888) (end -6.35 1.09982) (layer F.SilkS) (width 0.39878))
  (pad 1 thru_hole circle (at -4.99872 0) (size 2.09804 2.09804) (drill 1.39954) (layers *.Cu *.Paste *.Mask))
  (pad 2 thru_hole circle (at -2.49936 0) (size 2.09804 2.09804) (drill 1.39954) (layers *.Cu *.Paste *.Mask))
  (pad 3 thru_hole circle (at 0 0) (size 2.09804 2.09804) (drill 1.39954) (layers *.Cu *.Paste *.Mask))
  (pad 4 thru_hole circle (at 2.49936 0) (size 2.09804 2.09804) (drill 1.39954) (layers *.Cu *.Paste *.Mask))
  (pad 5 thru_hole circle (at 4.99872 0) (size 2.09804 2.09804) (drill 1.39954) (layers *.Cu *.Paste *.Mask))
)
