(module WR-TBL_Pluggable_Connector_rev20a-691701500009B (layer F.Cu) (tedit 200000)
  (descr "WR-TBL SERIE 7015B - 5.08 MM OPEN VERTICAL PCB HEADER THR TYPE")
  (tags "WR-TBL SERIE 7015B - 5.08 MM OPEN VERTICAL PCB HEADER THR TYPE")
  (attr virtual)
  (fp_text reference >NAME (at 0 -6.1341) (layer F.SilkS)
    (effects (font (size 1.27 1.27) (thickness 0.1016)))
  )
  (fp_text value >VALUE (at 0.30988 5.36448) (layer F.SilkS)
    (effects (font (size 1.27 1.27) (thickness 0.1016)))
  )
  (fp_line (start 22.65934 -4.59994) (end -22.65934 -4.59994) (layer Dwgs.User) (width 0.09906))
  (fp_line (start -22.65934 -4.59994) (end -22.65934 3.8989) (layer Dwgs.User) (width 0.09906))
  (fp_line (start -22.65934 3.8989) (end 22.65934 3.8989) (layer Dwgs.User) (width 0.09906))
  (fp_line (start 22.65934 3.8989) (end 22.65934 -4.59994) (layer Dwgs.User) (width 0.09906))
  (fp_line (start -22.7584 -4.699) (end 22.7584 -4.699) (layer F.SilkS) (width 0.19812))
  (fp_line (start 22.7584 -4.699) (end 22.7584 3.99796) (layer F.SilkS) (width 0.19812))
  (fp_line (start 22.7584 3.99796) (end -22.7584 3.99796) (layer F.SilkS) (width 0.19812))
  (fp_line (start -22.7584 3.99796) (end -22.7584 -4.699) (layer F.SilkS) (width 0.19812))
  (fp_poly (pts (xy -22.95906 -4.89966) (xy 22.95906 -4.89966) (xy 22.95906 4.19862) (xy -22.95906 4.19862)
    (xy -22.95906 -4.89966)) (layer Dwgs.User) (width 0.09906))
  (fp_circle (center -21.47824 -1.99898) (end -21.47824 -2.09804) (layer F.SilkS) (width 0.39878))
  (pad 1 thru_hole circle (at -20.32 0) (size 2.39776 2.39776) (drill 1.59766) (layers *.Cu *.Paste *.Mask))
  (pad 2 thru_hole circle (at -15.24 0) (size 2.39776 2.39776) (drill 1.59766) (layers *.Cu *.Paste *.Mask))
  (pad 3 thru_hole circle (at -10.16 0) (size 2.39776 2.39776) (drill 1.59766) (layers *.Cu *.Paste *.Mask))
  (pad 4 thru_hole circle (at -5.08 0) (size 2.39776 2.39776) (drill 1.59766) (layers *.Cu *.Paste *.Mask))
  (pad 5 thru_hole circle (at 0 0) (size 2.39776 2.39776) (drill 1.59766) (layers *.Cu *.Paste *.Mask))
  (pad 6 thru_hole circle (at 5.08 0) (size 2.39776 2.39776) (drill 1.59766) (layers *.Cu *.Paste *.Mask))
  (pad 7 thru_hole circle (at 10.16 0) (size 2.39776 2.39776) (drill 1.59766) (layers *.Cu *.Paste *.Mask))
  (pad 8 thru_hole circle (at 15.24 0) (size 2.39776 2.39776) (drill 1.59766) (layers *.Cu *.Paste *.Mask))
  (pad 9 thru_hole circle (at 20.32 0) (size 2.39776 2.39776) (drill 1.59766) (layers *.Cu *.Paste *.Mask))
)
