(module WR-TBL_Pluggable_Connector_rev20a-691311400103 (layer F.Cu) (tedit 200000)
  (descr "WR-TBL SERIE 3114 - 7.62 MM CLOSE VERTICAL PCB HEADER")
  (tags "WR-TBL SERIE 3114 - 7.62 MM CLOSE VERTICAL PCB HEADER")
  (attr virtual)
  (fp_text reference >NAME (at 0 -6.1341) (layer F.SilkS)
    (effects (font (size 1.27 1.27) (thickness 0.1016)))
  )
  (fp_text value >VALUE (at 0.30988 5.36448) (layer F.SilkS)
    (effects (font (size 1.27 1.27) (thickness 0.1016)))
  )
  (fp_line (start 11.43 -4.699) (end -11.43 -4.699) (layer Dwgs.User) (width 0.09906))
  (fp_line (start -11.43 -4.699) (end -11.43 3.79984) (layer Dwgs.User) (width 0.09906))
  (fp_line (start -11.43 3.79984) (end 11.43 3.79984) (layer Dwgs.User) (width 0.09906))
  (fp_line (start 11.43 3.79984) (end 11.43 -4.699) (layer Dwgs.User) (width 0.09906))
  (fp_line (start -11.52906 -4.79806) (end 11.52906 -4.79806) (layer F.SilkS) (width 0.19812))
  (fp_line (start 11.52906 -4.79806) (end 11.52906 3.8989) (layer F.SilkS) (width 0.19812))
  (fp_line (start 11.52906 3.8989) (end -11.52906 3.8989) (layer F.SilkS) (width 0.19812))
  (fp_line (start -11.52906 3.8989) (end -11.52906 -4.79806) (layer F.SilkS) (width 0.19812))
  (fp_poly (pts (xy -11.72972 -4.99872) (xy 11.72972 -4.99872) (xy 11.72972 4.09956) (xy -11.72972 4.09956)
    (xy -11.72972 -4.99872)) (layer Dwgs.User) (width 0.09906))
  (fp_circle (center -9.00938 -1.59766) (end -9.00938 -1.69672) (layer F.SilkS) (width 0.39878))
  (pad 1 thru_hole circle (at -7.62 0) (size 2.39776 2.39776) (drill 1.59766) (layers *.Cu *.Paste *.Mask))
  (pad 2 thru_hole circle (at 0 0) (size 2.39776 2.39776) (drill 1.59766) (layers *.Cu *.Paste *.Mask))
  (pad 3 thru_hole circle (at 7.62 0) (size 2.39776 2.39776) (drill 1.59766) (layers *.Cu *.Paste *.Mask))
)
