(module WR-TBL_Pluggable_Connector_rev20a-691305530009 (layer F.Cu) (tedit 200000)
  (descr "WR-TBL SERIE 3055 - 5,08 MM - PCB HEADER VERTICAL ENTRY WITH PLASTIC LATCHES")
  (tags "WR-TBL SERIE 3055 - 5,08 MM - PCB HEADER VERTICAL ENTRY WITH PLASTIC LATCHES")
  (attr virtual)
  (fp_text reference >NAME (at 0 -6.33476) (layer F.SilkS)
    (effects (font (size 1.27 1.27) (thickness 0.1016)))
  )
  (fp_text value >VALUE (at 0.30988 5.36448) (layer F.SilkS)
    (effects (font (size 1.27 1.27) (thickness 0.1016)))
  )
  (fp_line (start -23.85822 -4.79806) (end 23.85822 -4.79806) (layer Dwgs.User) (width 0.09906))
  (fp_line (start 23.85822 -4.79806) (end 23.85822 3.79984) (layer Dwgs.User) (width 0.09906))
  (fp_line (start 23.85822 3.79984) (end -23.85822 3.79984) (layer Dwgs.User) (width 0.09906))
  (fp_line (start -23.85822 3.79984) (end -23.85822 -4.79806) (layer Dwgs.User) (width 0.09906))
  (fp_line (start -23.87854 -1.14808) (end -25.25776 -1.14808) (layer Dwgs.User) (width 0.09906))
  (fp_line (start -25.25776 -1.14808) (end -25.25776 0.94996) (layer Dwgs.User) (width 0.09906))
  (fp_line (start -25.25776 0.94996) (end -23.87854 0.94996) (layer Dwgs.User) (width 0.09906))
  (fp_line (start 23.87854 0.94996) (end 25.25776 0.94996) (layer Dwgs.User) (width 0.09906))
  (fp_line (start 25.25776 0.94996) (end 25.25776 -1.14808) (layer Dwgs.User) (width 0.09906))
  (fp_line (start 25.25776 -1.14808) (end 23.87854 -1.14808) (layer Dwgs.User) (width 0.09906))
  (fp_line (start -25.35936 -1.24968) (end -23.95982 -1.24968) (layer F.SilkS) (width 0.19812))
  (fp_line (start -23.95982 -1.24968) (end -23.95982 -4.89966) (layer F.SilkS) (width 0.19812))
  (fp_line (start -23.95982 -4.89966) (end 23.95982 -4.89966) (layer F.SilkS) (width 0.19812))
  (fp_line (start 23.95982 -4.89966) (end 23.95982 -1.24968) (layer F.SilkS) (width 0.19812))
  (fp_line (start 23.95982 -1.24968) (end 25.35936 -1.24968) (layer F.SilkS) (width 0.19812))
  (fp_line (start 25.35936 -1.24968) (end 25.35936 1.04902) (layer F.SilkS) (width 0.19812))
  (fp_line (start 25.35936 1.04902) (end 23.95982 1.04902) (layer F.SilkS) (width 0.19812))
  (fp_line (start 23.95982 1.04902) (end 23.95982 3.8989) (layer F.SilkS) (width 0.19812))
  (fp_line (start 23.95982 3.8989) (end -23.95982 3.8989) (layer F.SilkS) (width 0.19812))
  (fp_line (start -23.95982 3.8989) (end -23.95982 1.04902) (layer F.SilkS) (width 0.19812))
  (fp_line (start -23.95982 1.04902) (end -25.35936 1.04902) (layer F.SilkS) (width 0.19812))
  (fp_line (start -25.35936 1.04902) (end -25.35936 -1.24968) (layer F.SilkS) (width 0.19812))
  (fp_poly (pts (xy 24.15794 -5.09778) (xy 24.15794 -1.4478) (xy 25.55748 -1.4478) (xy 25.55748 1.24968)
    (xy 24.15794 1.24968) (xy 24.15794 4.09956) (xy -24.15794 4.09956) (xy -24.15794 1.24968)
    (xy -25.55748 1.24968) (xy -25.55748 -1.4478) (xy -24.15794 -1.4478) (xy -24.15794 -5.09778)
    (xy 24.15794 -5.09778)) (layer Dwgs.User) (width 0.09906))
  (fp_circle (center -21.87956 -2.09804) (end -21.87956 -2.1971) (layer F.SilkS) (width 0.39878))
  (pad 1 thru_hole circle (at -20.32 0) (size 2.54762 2.54762) (drill 1.69926) (layers *.Cu *.Paste *.Mask))
  (pad 2 thru_hole circle (at -15.24 0) (size 2.54762 2.54762) (drill 1.69926) (layers *.Cu *.Paste *.Mask))
  (pad 3 thru_hole circle (at -10.16 0) (size 2.54762 2.54762) (drill 1.69926) (layers *.Cu *.Paste *.Mask))
  (pad 4 thru_hole circle (at -5.08 0) (size 2.54762 2.54762) (drill 1.69926) (layers *.Cu *.Paste *.Mask))
  (pad 5 thru_hole circle (at 0 0) (size 2.54762 2.54762) (drill 1.69926) (layers *.Cu *.Paste *.Mask))
  (pad 6 thru_hole circle (at 5.08 0) (size 2.54762 2.54762) (drill 1.69926) (layers *.Cu *.Paste *.Mask))
  (pad 7 thru_hole circle (at 10.16 0) (size 2.54762 2.54762) (drill 1.69926) (layers *.Cu *.Paste *.Mask))
  (pad 8 thru_hole circle (at 15.24 0) (size 2.54762 2.54762) (drill 1.69926) (layers *.Cu *.Paste *.Mask))
  (pad 9 thru_hole circle (at 20.32 0) (size 2.54762 2.54762) (drill 1.69926) (layers *.Cu *.Paste *.Mask))
)
