(module WR-TBL_Pluggable_Connector_rev20a-691371700005B (layer F.Cu) (tedit 200000)
  (descr "WR-TBL SERIE 371B - 5.00 MM VERTICAL MALE PCB HEADER")
  (tags "WR-TBL SERIE 371B - 5.00 MM VERTICAL MALE PCB HEADER")
  (attr virtual)
  (fp_text reference >NAME (at 0 -8.63346) (layer F.SilkS)
    (effects (font (size 1.27 1.27) (thickness 0.1016)))
  )
  (fp_text value >VALUE (at 0.30988 5.36448) (layer F.SilkS)
    (effects (font (size 1.27 1.27) (thickness 0.1016)))
  )
  (fp_line (start 14.1986 -4.59994) (end 8.49884 -4.59994) (layer Dwgs.User) (width 0.09906))
  (fp_line (start 4.99872 -4.59994) (end -6.49986 -4.59994) (layer Dwgs.User) (width 0.09906))
  (fp_line (start -9.99998 -4.59994) (end -14.1986 -4.59994) (layer Dwgs.User) (width 0.09906))
  (fp_line (start -14.1986 -4.59994) (end -14.1986 3.8989) (layer Dwgs.User) (width 0.09906))
  (fp_line (start -14.1986 3.8989) (end 14.1986 3.8989) (layer Dwgs.User) (width 0.09906))
  (fp_line (start 14.1986 3.8989) (end 14.1986 -4.59994) (layer Dwgs.User) (width 0.09906))
  (fp_line (start -14.29766 -4.699) (end -10.09904 -4.699) (layer F.SilkS) (width 0.19812))
  (fp_line (start -6.39826 -4.699) (end 4.89966 -4.699) (layer F.SilkS) (width 0.19812))
  (fp_line (start 8.5979 -4.699) (end 14.29766 -4.699) (layer F.SilkS) (width 0.19812))
  (fp_line (start 14.29766 -4.699) (end 14.29766 3.99796) (layer F.SilkS) (width 0.19812))
  (fp_line (start 14.29766 3.99796) (end -14.29766 3.99796) (layer F.SilkS) (width 0.19812))
  (fp_line (start -14.29766 -4.699) (end -14.29766 3.99796) (layer F.SilkS) (width 0.19812))
  (fp_line (start -9.99998 -4.59994) (end -9.99998 -7.29996) (layer Dwgs.User) (width 0.09906))
  (fp_line (start -9.99998 -7.29996) (end -6.49986 -7.29996) (layer Dwgs.User) (width 0.09906))
  (fp_line (start -6.49986 -7.29996) (end -6.49986 -4.59994) (layer Dwgs.User) (width 0.09906))
  (fp_line (start -10.09904 -4.699) (end -10.09904 -7.39902) (layer F.SilkS) (width 0.19812))
  (fp_line (start -10.09904 -7.39902) (end -6.39826 -7.39902) (layer F.SilkS) (width 0.19812))
  (fp_line (start -6.39826 -7.39902) (end -6.39826 -4.699) (layer F.SilkS) (width 0.19812))
  (fp_line (start 4.99872 -4.59994) (end 4.99872 -7.29996) (layer Dwgs.User) (width 0.09906))
  (fp_line (start 8.49884 -7.29996) (end 8.49884 -4.59994) (layer Dwgs.User) (width 0.09906))
  (fp_line (start 8.5979 -7.39902) (end 8.5979 -4.699) (layer F.SilkS) (width 0.19812))
  (fp_line (start 4.89966 -4.699) (end 4.89966 -7.39902) (layer F.SilkS) (width 0.19812))
  (fp_line (start 4.99872 -7.29996) (end 8.49884 -7.29996) (layer Dwgs.User) (width 0.09906))
  (fp_line (start 4.89966 -7.39902) (end 8.5979 -7.39902) (layer F.SilkS) (width 0.19812))
  (fp_poly (pts (xy -14.49832 -7.59968) (xy 14.49832 -7.59968) (xy 14.49832 4.19862) (xy -14.49832 4.19862)
    (xy -14.49832 -7.59968)) (layer Dwgs.User) (width 0.127))
  (fp_circle (center -12.19962 -1.89992) (end -12.19962 -1.99898) (layer F.SilkS) (width 0.39878))
  (pad 1 thru_hole circle (at -9.99998 0) (size 2.69748 2.69748) (drill 1.79832) (layers *.Cu *.Paste *.Mask))
  (pad 2 thru_hole circle (at -4.99872 0) (size 2.69748 2.69748) (drill 1.79832) (layers *.Cu *.Paste *.Mask))
  (pad 3 thru_hole circle (at 0 0) (size 2.69748 2.69748) (drill 1.79832) (layers *.Cu *.Paste *.Mask))
  (pad 4 thru_hole circle (at 4.99872 0) (size 2.69748 2.69748) (drill 1.79832) (layers *.Cu *.Paste *.Mask))
  (pad 5 thru_hole circle (at 9.99998 0) (size 2.69748 2.69748) (drill 1.79832) (layers *.Cu *.Paste *.Mask))
)
