(module WR-TBL_Pluggable_Connector_rev20a-691357300008B (layer F.Cu) (tedit 200000)
  (descr "WR-TBL SERIE 357B - 3.81 MM DOUBLE LEVEL VERTICAL MALE PCB HEADER WITH FLANGES")
  (tags "WR-TBL SERIE 357B - 3.81 MM DOUBLE LEVEL VERTICAL MALE PCB HEADER WITH FLANGES")
  (attr virtual)
  (fp_text reference >NAME (at 0 -13.13434) (layer F.SilkS)
    (effects (font (size 1.27 1.27) (thickness 0.1016)))
  )
  (fp_text value >VALUE (at 0.30988 12.36472) (layer F.SilkS)
    (effects (font (size 1.27 1.27) (thickness 0.1016)))
  )
  (fp_line (start -12.91336 -10.35812) (end -12.91336 10.61974) (layer Dwgs.User) (width 0.09906))
  (fp_line (start -12.91336 10.61974) (end 12.91336 10.61974) (layer Dwgs.User) (width 0.09906))
  (fp_line (start 12.91336 10.61974) (end 12.91336 -10.35812) (layer Dwgs.User) (width 0.09906))
  (fp_line (start -12.91336 -10.35812) (end -8.00862 -10.35812) (layer Dwgs.User) (width 0.09906))
  (fp_line (start -8.00862 -10.35812) (end -8.00862 -11.77798) (layer Dwgs.User) (width 0.09906))
  (fp_line (start -8.00862 -11.77798) (end 8.00862 -11.77798) (layer Dwgs.User) (width 0.09906))
  (fp_line (start 8.00862 -11.77798) (end 8.00862 -10.35812) (layer Dwgs.User) (width 0.09906))
  (fp_line (start 8.00862 -10.35812) (end 12.91336 -10.35812) (layer Dwgs.User) (width 0.09906))
  (fp_line (start -8.10768 -11.87958) (end 8.10768 -11.87958) (layer F.SilkS) (width 0.19812))
  (fp_line (start 8.10768 -11.87958) (end 8.10768 -10.45972) (layer F.SilkS) (width 0.19812))
  (fp_line (start 8.10768 -10.45972) (end 13.00988 -10.45972) (layer F.SilkS) (width 0.19812))
  (fp_line (start 13.00988 -10.45972) (end 13.01496 10.7188) (layer F.SilkS) (width 0.19812))
  (fp_line (start 13.01496 10.7188) (end -13.01496 10.7188) (layer F.SilkS) (width 0.19812))
  (fp_line (start -13.01496 10.7188) (end -13.01496 -10.45972) (layer F.SilkS) (width 0.19812))
  (fp_line (start -13.01496 -10.45972) (end -8.10768 -10.45972) (layer F.SilkS) (width 0.19812))
  (fp_line (start -8.10768 -10.45972) (end -8.10768 -11.87958) (layer F.SilkS) (width 0.19812))
  (fp_poly (pts (xy 13.21308 -12.0777) (xy 13.21308 10.91946) (xy -13.21308 10.91946) (xy -13.21308 -12.0777)
    (xy 13.21308 -12.0777)) (layer Dwgs.User) (width 0.09906))
  (fp_circle (center -7.20852 9.09828) (end -7.20852 8.90016) (layer F.SilkS) (width 0.39878))
  (pad 1 thru_hole circle (at -5.715 7.62) (size 2.09804 2.09804) (drill 1.39954) (layers *.Cu *.Paste *.Mask))
  (pad 2 thru_hole circle (at -1.905 7.62) (size 2.09804 2.09804) (drill 1.39954) (layers *.Cu *.Paste *.Mask))
  (pad 3 thru_hole circle (at 1.905 7.62) (size 2.09804 2.09804) (drill 1.39954) (layers *.Cu *.Paste *.Mask))
  (pad 4 thru_hole circle (at 5.715 7.62) (size 2.09804 2.09804) (drill 1.39954) (layers *.Cu *.Paste *.Mask))
  (pad 5 thru_hole circle (at -5.715 -7.62) (size 2.09804 2.09804) (drill 1.39954) (layers *.Cu *.Paste *.Mask))
  (pad 6 thru_hole circle (at -1.905 -7.62) (size 2.09804 2.09804) (drill 1.39954) (layers *.Cu *.Paste *.Mask))
  (pad 7 thru_hole circle (at 1.905 -7.62) (size 2.09804 2.09804) (drill 1.39954) (layers *.Cu *.Paste *.Mask))
  (pad 8 thru_hole circle (at 5.715 -7.62) (size 2.09804 2.09804) (drill 1.39954) (layers *.Cu *.Paste *.Mask))
)
