(module WR-TBL_Pluggable_Connector_rev20a-691305330008 (layer F.Cu) (tedit 200000)
  (descr "WR-TBL SERIE 3053 - 3.81 MM VERTICAL PCB HEADER")
  (tags "WR-TBL SERIE 3053 - 3.81 MM VERTICAL PCB HEADER")
  (attr virtual)
  (fp_text reference >NAME (at 0 -5.83438) (layer F.SilkS)
    (effects (font (size 1.27 1.27) (thickness 0.1016)))
  )
  (fp_text value >VALUE (at 0.5588 4.16306) (layer F.SilkS)
    (effects (font (size 1.27 1.27) (thickness 0.1016)))
  )
  (fp_line (start -15.83944 -4.39928) (end 15.83944 -4.39928) (layer Dwgs.User) (width 0.09906))
  (fp_line (start 15.83944 -4.39928) (end 15.83944 -0.94996) (layer Dwgs.User) (width 0.09906))
  (fp_line (start 15.83944 -0.94996) (end 16.98752 -0.94996) (layer Dwgs.User) (width 0.09906))
  (fp_line (start 16.98752 -0.94996) (end 16.98752 0.94996) (layer Dwgs.User) (width 0.09906))
  (fp_line (start 16.98752 0.94996) (end 15.83944 0.94996) (layer Dwgs.User) (width 0.09906))
  (fp_line (start 15.83944 0.94996) (end 15.83944 2.79908) (layer Dwgs.User) (width 0.09906))
  (fp_line (start 15.83944 2.79908) (end -15.83944 2.79908) (layer Dwgs.User) (width 0.09906))
  (fp_line (start -15.83944 2.79908) (end -15.83944 0.94996) (layer Dwgs.User) (width 0.09906))
  (fp_line (start -15.83944 0.94996) (end -16.98752 0.94996) (layer Dwgs.User) (width 0.09906))
  (fp_line (start -16.98752 0.94996) (end -16.98752 -0.94996) (layer Dwgs.User) (width 0.09906))
  (fp_line (start -16.98752 -0.94996) (end -15.83944 -0.94996) (layer Dwgs.User) (width 0.09906))
  (fp_line (start -15.83944 -0.94996) (end -15.83944 -4.39928) (layer Dwgs.User) (width 0.09906))
  (fp_line (start -15.9385 -4.49834) (end 15.9385 -4.49834) (layer F.SilkS) (width 0.19812))
  (fp_line (start 15.9385 -4.49834) (end 15.9385 -1.04902) (layer F.SilkS) (width 0.19812))
  (fp_line (start 15.9385 -1.04902) (end 17.08912 -1.04902) (layer F.SilkS) (width 0.19812))
  (fp_line (start 17.08912 -1.04902) (end 17.08912 1.04902) (layer F.SilkS) (width 0.19812))
  (fp_line (start 17.08912 1.04902) (end 15.9385 1.04902) (layer F.SilkS) (width 0.19812))
  (fp_line (start 15.9385 1.04902) (end 15.9385 2.89814) (layer F.SilkS) (width 0.19812))
  (fp_line (start 15.9385 2.89814) (end -15.9385 2.89814) (layer F.SilkS) (width 0.19812))
  (fp_line (start -15.9385 2.89814) (end -15.9385 1.04902) (layer F.SilkS) (width 0.19812))
  (fp_line (start -15.9385 1.04902) (end -17.08912 1.04902) (layer F.SilkS) (width 0.19812))
  (fp_line (start -17.08912 1.04902) (end -17.08912 -1.04902) (layer F.SilkS) (width 0.19812))
  (fp_line (start -17.08912 -1.04902) (end -15.9385 -1.04902) (layer F.SilkS) (width 0.19812))
  (fp_line (start -15.9385 -1.04902) (end -15.9385 -4.49834) (layer F.SilkS) (width 0.19812))
  (fp_poly (pts (xy -17.28978 -4.699) (xy 17.28978 -4.699) (xy 17.28978 3.0988) (xy -17.28978 3.0988)
    (xy -17.28978 -4.699)) (layer Dwgs.User) (width 0.09906))
  (fp_circle (center -14.32814 1.4986) (end -14.32814 1.39954) (layer F.SilkS) (width 0.39878))
  (pad 1 thru_hole circle (at -13.335 0) (size 2.09804 2.09804) (drill 1.39954) (layers *.Cu *.Paste *.Mask))
  (pad 2 thru_hole circle (at -9.525 0) (size 2.09804 2.09804) (drill 1.39954) (layers *.Cu *.Paste *.Mask))
  (pad 3 thru_hole circle (at -5.715 0) (size 2.09804 2.09804) (drill 1.39954) (layers *.Cu *.Paste *.Mask))
  (pad 4 thru_hole circle (at -1.905 0) (size 2.09804 2.09804) (drill 1.39954) (layers *.Cu *.Paste *.Mask))
  (pad 5 thru_hole circle (at 1.905 0) (size 2.09804 2.09804) (drill 1.39954) (layers *.Cu *.Paste *.Mask))
  (pad 6 thru_hole circle (at 5.715 0) (size 2.09804 2.09804) (drill 1.39954) (layers *.Cu *.Paste *.Mask))
  (pad 7 thru_hole circle (at 9.525 0) (size 2.09804 2.09804) (drill 1.39954) (layers *.Cu *.Paste *.Mask))
  (pad 8 thru_hole circle (at 13.335 0) (size 2.09804 2.09804) (drill 1.39954) (layers *.Cu *.Paste *.Mask))
)
