(module WR-TBL_Pluggable_Connector_rev20a-691308330006 (layer F.Cu) (tedit 200000)
  (descr "WR-TBL SERIE 3083 - 3.81 MM VERTICAL RESERVED PCB HEADER WITH FLANGES")
  (tags "WR-TBL SERIE 3083 - 3.81 MM VERTICAL RESERVED PCB HEADER WITH FLANGES")
  (attr virtual)
  (fp_text reference >NAME (at 0 -4.63296) (layer F.SilkS)
    (effects (font (size 1.27 1.27) (thickness 0.1016)))
  )
  (fp_text value >VALUE (at 0.30988 5.36448) (layer F.SilkS)
    (effects (font (size 1.27 1.27) (thickness 0.1016)))
  )
  (fp_line (start -16.6243 -3.10388) (end 16.6243 -3.10388) (layer Dwgs.User) (width 0.09906))
  (fp_line (start -16.6243 -3.10388) (end -16.6243 2.89306) (layer Dwgs.User) (width 0.09906))
  (fp_line (start 16.6243 -3.10388) (end 16.6243 2.89306) (layer Dwgs.User) (width 0.09906))
  (fp_line (start -16.6243 2.89306) (end -11.81862 2.89306) (layer Dwgs.User) (width 0.09906))
  (fp_line (start -11.81862 2.89306) (end -11.81862 3.69316) (layer Dwgs.User) (width 0.09906))
  (fp_line (start -11.81862 3.69316) (end 11.81862 3.69316) (layer Dwgs.User) (width 0.09906))
  (fp_line (start 11.81862 3.69316) (end 11.81862 2.89306) (layer Dwgs.User) (width 0.09906))
  (fp_line (start 11.81862 2.89306) (end 16.6243 2.89306) (layer Dwgs.User) (width 0.09906))
  (fp_line (start -16.72336 -3.20294) (end 16.72336 -3.20294) (layer F.SilkS) (width 0.19812))
  (fp_line (start 16.72336 -3.20294) (end 16.72336 2.99466) (layer F.SilkS) (width 0.19812))
  (fp_line (start 16.72336 2.99466) (end 11.91768 2.99466) (layer F.SilkS) (width 0.19812))
  (fp_line (start 11.91768 2.99466) (end 11.91768 3.79476) (layer F.SilkS) (width 0.19812))
  (fp_line (start 11.91768 3.79476) (end -11.91768 3.79476) (layer F.SilkS) (width 0.19812))
  (fp_line (start -11.91768 3.79476) (end -11.91768 2.99466) (layer F.SilkS) (width 0.19812))
  (fp_line (start -11.91768 2.99466) (end -16.72336 2.99466) (layer F.SilkS) (width 0.19812))
  (fp_line (start -16.72336 2.99466) (end -16.72336 -3.20294) (layer F.SilkS) (width 0.19812))
  (fp_poly (pts (xy -16.92402 -3.4036) (xy 16.92402 -3.4036) (xy 16.92402 3.99288) (xy -16.92402 3.99288)
    (xy -16.92402 -3.4036)) (layer Dwgs.User) (width 0.09906))
  (fp_circle (center -10.7188 -0.49784) (end -10.7188 -0.5969) (layer F.SilkS) (width 0.39878))
  (fp_text user 1 (at -9.41324 -0.00508) (layer Dwgs.User)
    (effects (font (size 0.8128 0.8128) (thickness 0.0762)))
  )
  (pad 1 thru_hole circle (at -9.525 -1.905) (size 1.79832 1.79832) (drill 1.19888) (layers *.Cu *.Paste *.Mask))
  (pad 2 thru_hole circle (at -5.715 -1.905) (size 1.79832 1.79832) (drill 1.19888) (layers *.Cu *.Paste *.Mask))
  (pad 3 thru_hole circle (at -1.905 -1.905) (size 1.79832 1.79832) (drill 1.19888) (layers *.Cu *.Paste *.Mask))
  (pad 4 thru_hole circle (at 1.905 -1.905) (size 1.79832 1.79832) (drill 1.19888) (layers *.Cu *.Paste *.Mask))
  (pad 5 thru_hole circle (at 5.715 -1.905) (size 1.79832 1.79832) (drill 1.19888) (layers *.Cu *.Paste *.Mask))
  (pad 6 thru_hole circle (at 9.525 -1.905) (size 1.79832 1.79832) (drill 1.19888) (layers *.Cu *.Paste *.Mask))
  (pad A1 thru_hole circle (at -9.525 1.905) (size 1.79832 1.79832) (drill 1.19888) (layers *.Cu *.Paste *.Mask))
  (pad A2 thru_hole circle (at -5.715 1.905) (size 1.79832 1.79832) (drill 1.19888) (layers *.Cu *.Paste *.Mask))
  (pad A3 thru_hole circle (at -1.905 1.905) (size 1.79832 1.79832) (drill 1.19888) (layers *.Cu *.Paste *.Mask))
  (pad A4 thru_hole circle (at 1.905 1.905) (size 1.79832 1.79832) (drill 1.19888) (layers *.Cu *.Paste *.Mask))
  (pad A5 thru_hole circle (at 5.715 1.905) (size 1.79832 1.79832) (drill 1.19888) (layers *.Cu *.Paste *.Mask))
  (pad A6 thru_hole circle (at 9.525 1.905) (size 1.79832 1.79832) (drill 1.19888) (layers *.Cu *.Paste *.Mask))
)
