(module WR-TBL_Pluggable_Connector_rev20a-691331510016 (layer F.Cu) (tedit 200000)
  (descr "WR-TBL SERIE 3315 - 5.08 MM DOUBLE LEVEL HORIZONTAL MALE PCB HEADER W. FLANGES")
  (tags "WR-TBL SERIE 3315 - 5.08 MM DOUBLE LEVEL HORIZONTAL MALE PCB HEADER W. FLANGES")
  (attr virtual)
  (fp_text reference >NAME (at 0 -8.63346) (layer F.SilkS)
    (effects (font (size 1.27 1.27) (thickness 0.1016)))
  )
  (fp_text value >VALUE (at 0.30988 16.36268) (layer F.SilkS)
    (effects (font (size 1.27 1.27) (thickness 0.1016)))
  )
  (fp_line (start -21.31822 -7.07898) (end 21.31822 -7.07898) (layer Dwgs.User) (width 0.09906))
  (fp_line (start 21.31822 -7.07898) (end 21.31822 14.91996) (layer Dwgs.User) (width 0.09906))
  (fp_line (start 21.31822 14.91996) (end -21.31822 14.91996) (layer Dwgs.User) (width 0.09906))
  (fp_line (start -21.31822 14.91996) (end -21.31822 -7.07898) (layer Dwgs.User) (width 0.09906))
  (fp_line (start -21.41982 -7.17804) (end 21.41982 -7.17804) (layer F.SilkS) (width 0.19812))
  (fp_line (start 21.41982 -7.17804) (end 21.41982 15.01902) (layer F.SilkS) (width 0.19812))
  (fp_line (start 21.41982 15.01902) (end -21.41982 15.01902) (layer F.SilkS) (width 0.19812))
  (fp_line (start -21.41982 15.01902) (end -21.41982 -7.17804) (layer F.SilkS) (width 0.19812))
  (fp_poly (pts (xy -21.61794 -7.3787) (xy 21.61794 -7.3787) (xy 21.61794 15.21968) (xy -21.61794 15.21968)
    (xy -21.61794 -7.3787)) (layer Dwgs.User) (width 0.09906))
  (fp_circle (center -19.63928 6.9977) (end -19.63928 6.79958) (layer F.SilkS) (width 0.39878))
  (pad 1 thru_hole circle (at -17.78 5.08) (size 2.39776 2.39776) (drill 1.59766) (layers *.Cu *.Paste *.Mask))
  (pad 2 thru_hole circle (at -12.7 5.08) (size 2.39776 2.39776) (drill 1.59766) (layers *.Cu *.Paste *.Mask))
  (pad 3 thru_hole circle (at -7.62 5.08) (size 2.39776 2.39776) (drill 1.59766) (layers *.Cu *.Paste *.Mask))
  (pad 4 thru_hole circle (at -2.54 5.08) (size 2.39776 2.39776) (drill 1.59766) (layers *.Cu *.Paste *.Mask))
  (pad 5 thru_hole circle (at 2.54 5.08) (size 2.39776 2.39776) (drill 1.59766) (layers *.Cu *.Paste *.Mask))
  (pad 6 thru_hole circle (at 7.62 5.08) (size 2.39776 2.39776) (drill 1.59766) (layers *.Cu *.Paste *.Mask))
  (pad 7 thru_hole circle (at 12.7 5.08) (size 2.39776 2.39776) (drill 1.59766) (layers *.Cu *.Paste *.Mask))
  (pad 8 thru_hole circle (at 17.78 5.08) (size 2.39776 2.39776) (drill 1.59766) (layers *.Cu *.Paste *.Mask))
  (pad 9 thru_hole circle (at -17.78 -5.08) (size 2.39776 2.39776) (drill 1.59766) (layers *.Cu *.Paste *.Mask))
  (pad 10 thru_hole circle (at -12.7 -5.08) (size 2.39776 2.39776) (drill 1.59766) (layers *.Cu *.Paste *.Mask))
  (pad 11 thru_hole circle (at -7.62 -5.08) (size 2.39776 2.39776) (drill 1.59766) (layers *.Cu *.Paste *.Mask))
  (pad 12 thru_hole circle (at -2.54 -5.08) (size 2.39776 2.39776) (drill 1.59766) (layers *.Cu *.Paste *.Mask))
  (pad 13 thru_hole circle (at 2.54 -5.08) (size 2.39776 2.39776) (drill 1.59766) (layers *.Cu *.Paste *.Mask))
  (pad 14 thru_hole circle (at 7.62 -5.08) (size 2.39776 2.39776) (drill 1.59766) (layers *.Cu *.Paste *.Mask))
  (pad 15 thru_hole circle (at 12.7 -5.08) (size 2.39776 2.39776) (drill 1.59766) (layers *.Cu *.Paste *.Mask))
  (pad 16 thru_hole circle (at 17.78 -5.08) (size 2.39776 2.39776) (drill 1.59766) (layers *.Cu *.Paste *.Mask))
)
