(module WR-TBL_Pluggable_Connector_rev20a-691318500012 (layer F.Cu) (tedit 200000)
  (descr "WR-TBL SERIE 3185 - 5.08 MM CLOSE VERTICAL PCB HEADER W. FLANGES")
  (tags "WR-TBL SERIE 3185 - 5.08 MM CLOSE VERTICAL PCB HEADER W. FLANGES")
  (attr virtual)
  (fp_text reference >NAME (at 0 -6.1341) (layer F.SilkS)
    (effects (font (size 1.27 1.27) (thickness 0.1016)))
  )
  (fp_text value >VALUE (at 0.30988 5.36448) (layer F.SilkS)
    (effects (font (size 1.27 1.27) (thickness 0.1016)))
  )
  (fp_line (start 35.56 -4.699) (end -35.56 -4.699) (layer Dwgs.User) (width 0.09906))
  (fp_line (start -35.56 -4.699) (end -35.56 3.79984) (layer Dwgs.User) (width 0.09906))
  (fp_line (start -35.56 3.79984) (end 35.56 3.79984) (layer Dwgs.User) (width 0.09906))
  (fp_line (start 35.56 3.79984) (end 35.56 -4.699) (layer Dwgs.User) (width 0.09906))
  (fp_line (start -35.65906 -4.79806) (end 35.65906 -4.79806) (layer F.SilkS) (width 0.19812))
  (fp_line (start 35.65906 -4.79806) (end 35.65906 3.8989) (layer F.SilkS) (width 0.19812))
  (fp_line (start 35.65906 3.8989) (end -35.65906 3.8989) (layer F.SilkS) (width 0.19812))
  (fp_line (start -35.65906 3.8989) (end -35.65906 -4.79806) (layer F.SilkS) (width 0.19812))
  (fp_poly (pts (xy -35.85972 -4.99872) (xy 35.85972 -4.99872) (xy 35.85972 4.09956) (xy -35.85972 4.09956)
    (xy -35.85972 -4.99872)) (layer Dwgs.User) (width 0.09906))
  (fp_circle (center -29.89834 -1.39954) (end -29.89834 -1.4986) (layer F.SilkS) (width 0.39878))
  (pad 1 thru_hole circle (at -27.94 0) (size 2.39776 2.39776) (drill 1.59766) (layers *.Cu *.Paste *.Mask))
  (pad 2 thru_hole circle (at -22.86 0) (size 2.39776 2.39776) (drill 1.59766) (layers *.Cu *.Paste *.Mask))
  (pad 3 thru_hole circle (at -17.78 0) (size 2.39776 2.39776) (drill 1.59766) (layers *.Cu *.Paste *.Mask))
  (pad 4 thru_hole circle (at -12.7 0) (size 2.39776 2.39776) (drill 1.59766) (layers *.Cu *.Paste *.Mask))
  (pad 5 thru_hole circle (at -7.62 0) (size 2.39776 2.39776) (drill 1.59766) (layers *.Cu *.Paste *.Mask))
  (pad 6 thru_hole circle (at -2.54 0) (size 2.39776 2.39776) (drill 1.59766) (layers *.Cu *.Paste *.Mask))
  (pad 7 thru_hole circle (at 2.54 0) (size 2.39776 2.39776) (drill 1.59766) (layers *.Cu *.Paste *.Mask))
  (pad 8 thru_hole circle (at 7.62 0) (size 2.39776 2.39776) (drill 1.59766) (layers *.Cu *.Paste *.Mask))
  (pad 9 thru_hole circle (at 12.7 0) (size 2.39776 2.39776) (drill 1.59766) (layers *.Cu *.Paste *.Mask))
  (pad 10 thru_hole circle (at 17.78 0) (size 2.39776 2.39776) (drill 1.59766) (layers *.Cu *.Paste *.Mask))
  (pad 11 thru_hole circle (at 22.86 0) (size 2.39776 2.39776) (drill 1.59766) (layers *.Cu *.Paste *.Mask))
  (pad 12 thru_hole circle (at 27.94 0) (size 2.39776 2.39776) (drill 1.59766) (layers *.Cu *.Paste *.Mask))
)
