(module WR-TBL_Pluggable_Connector_rev20a-691701340009B (layer F.Cu) (tedit 200000)
  (descr "WR-TBL SERIE 7013 - 3.81 MM HORIZONTAL PCB HEADER THR TYPE")
  (tags "WR-TBL SERIE 7013 - 3.81 MM HORIZONTAL PCB HEADER THR TYPE")
  (attr virtual)
  (fp_text reference >NAME (at 0 -2.63398) (layer F.SilkS)
    (effects (font (size 1.27 1.27) (thickness 0.1016)))
  )
  (fp_text value >VALUE (at 0.30988 9.36498) (layer F.SilkS)
    (effects (font (size 1.27 1.27) (thickness 0.1016)))
  )
  (fp_line (start 17.83842 -1.19888) (end -17.83842 -1.19888) (layer Dwgs.User) (width 0.09906))
  (fp_line (start -17.83842 -1.19888) (end -17.83842 7.99846) (layer Dwgs.User) (width 0.09906))
  (fp_line (start -17.83842 7.99846) (end 17.83842 7.99846) (layer Dwgs.User) (width 0.09906))
  (fp_line (start 17.83842 7.99846) (end 17.83842 -1.19888) (layer Dwgs.User) (width 0.09906))
  (fp_line (start -15.73276 -1.29794) (end -17.93748 -1.29794) (layer F.SilkS) (width 0.19812))
  (fp_line (start -17.93748 -1.29794) (end -17.93748 8.09752) (layer F.SilkS) (width 0.19812))
  (fp_line (start -17.93748 8.09752) (end 17.93748 8.09752) (layer F.SilkS) (width 0.19812))
  (fp_line (start 17.93748 8.09752) (end 17.93748 -1.29794) (layer F.SilkS) (width 0.19812))
  (fp_line (start 17.93748 -1.29794) (end 15.73276 -1.29794) (layer F.SilkS) (width 0.19812))
  (fp_line (start -14.73454 -1.29794) (end -11.93292 -1.29794) (layer F.SilkS) (width 0.19812))
  (fp_line (start -10.92454 -1.29794) (end -8.12292 -1.29794) (layer F.SilkS) (width 0.19812))
  (fp_line (start -7.11454 -1.29794) (end -4.31292 -1.29794) (layer F.SilkS) (width 0.19812))
  (fp_line (start -3.30454 -1.29794) (end -0.50292 -1.29794) (layer F.SilkS) (width 0.19812))
  (fp_line (start 0.50292 -1.29794) (end 3.30454 -1.29794) (layer F.SilkS) (width 0.19812))
  (fp_line (start 4.31292 -1.29794) (end 7.11454 -1.29794) (layer F.SilkS) (width 0.19812))
  (fp_line (start 8.12292 -1.29794) (end 10.92454 -1.29794) (layer F.SilkS) (width 0.19812))
  (fp_line (start 11.93292 -1.29794) (end 14.73454 -1.29794) (layer F.SilkS) (width 0.19812))
  (fp_poly (pts (xy -18.13814 -1.4986) (xy 18.13814 -1.4986) (xy 18.13814 8.29818) (xy -18.13814 8.29818)
    (xy -18.13814 -1.4986)) (layer Dwgs.User) (width 0.09906))
  (fp_circle (center -16.83258 1.4986) (end -16.83258 1.39954) (layer F.SilkS) (width 0.39878))
  (pad 1 thru_hole circle (at -15.24 0) (size 2.09804 2.09804) (drill 1.39954) (layers *.Cu *.Paste *.Mask))
  (pad 2 thru_hole circle (at -11.43 0) (size 2.09804 2.09804) (drill 1.39954) (layers *.Cu *.Paste *.Mask))
  (pad 3 thru_hole circle (at -7.62 0) (size 2.09804 2.09804) (drill 1.39954) (layers *.Cu *.Paste *.Mask))
  (pad 4 thru_hole circle (at -3.81 0) (size 2.09804 2.09804) (drill 1.39954) (layers *.Cu *.Paste *.Mask))
  (pad 5 thru_hole circle (at 0 0) (size 2.09804 2.09804) (drill 1.39954) (layers *.Cu *.Paste *.Mask))
  (pad 6 thru_hole circle (at 3.81 0) (size 2.09804 2.09804) (drill 1.39954) (layers *.Cu *.Paste *.Mask))
  (pad 7 thru_hole circle (at 7.62 0) (size 2.09804 2.09804) (drill 1.39954) (layers *.Cu *.Paste *.Mask))
  (pad 8 thru_hole circle (at 11.43 0) (size 2.09804 2.09804) (drill 1.39954) (layers *.Cu *.Paste *.Mask))
  (pad 9 thru_hole circle (at 15.24 0) (size 2.09804 2.09804) (drill 1.39954) (layers *.Cu *.Paste *.Mask))
)
