(module WR-TBL_Pluggable_Connector_rev20a-691305130006 (layer F.Cu) (tedit 200000)
  (descr "WR-TBL SERIE 3051 - 3.50 MM VERTICAL PCB HEADER")
  (tags "WR-TBL SERIE 3051 - 3.50 MM VERTICAL PCB HEADER")
  (attr virtual)
  (fp_text reference >NAME (at 0 -5.63372) (layer F.SilkS)
    (effects (font (size 1.27 1.27) (thickness 0.1016)))
  )
  (fp_text value >VALUE (at 0.30988 4.36372) (layer F.SilkS)
    (effects (font (size 1.27 1.27) (thickness 0.1016)))
  )
  (fp_line (start -12.24788 -4.39928) (end -12.24788 2.79908) (layer Dwgs.User) (width 0.09906))
  (fp_line (start -12.24788 2.79908) (end 12.24788 2.79908) (layer Dwgs.User) (width 0.09906))
  (fp_line (start 12.24788 2.79908) (end 12.24788 -4.39928) (layer Dwgs.User) (width 0.09906))
  (fp_line (start 12.24788 -4.39928) (end -12.24788 -4.39928) (layer Dwgs.User) (width 0.09906))
  (fp_line (start -12.34948 -4.49834) (end 12.34948 -4.49834) (layer F.SilkS) (width 0.19812))
  (fp_line (start 12.34948 -4.49834) (end 12.34948 2.89814) (layer F.SilkS) (width 0.19812))
  (fp_line (start 12.34948 2.89814) (end -12.34948 2.89814) (layer F.SilkS) (width 0.19812))
  (fp_line (start -12.34948 2.89814) (end -12.34948 -4.49834) (layer F.SilkS) (width 0.19812))
  (fp_poly (pts (xy -12.5476 -4.699) (xy 12.5476 -4.699) (xy 12.5476 3.0988) (xy -12.5476 3.0988)
    (xy -12.5476 -4.699)) (layer Dwgs.User) (width 0.09906))
  (fp_circle (center -10.39876 -1.79832) (end -10.39876 -1.89738) (layer F.SilkS) (width 0.39878))
  (pad 1 thru_hole circle (at -8.74776 0) (size 2.09804 2.09804) (drill 1.39954) (layers *.Cu *.Paste *.Mask))
  (pad 2 thru_hole circle (at -5.24764 0) (size 2.09804 2.09804) (drill 1.39954) (layers *.Cu *.Paste *.Mask))
  (pad 3 thru_hole circle (at -1.74752 0) (size 2.09804 2.09804) (drill 1.39954) (layers *.Cu *.Paste *.Mask))
  (pad 4 thru_hole circle (at 1.74752 0) (size 2.09804 2.09804) (drill 1.39954) (layers *.Cu *.Paste *.Mask))
  (pad 5 thru_hole circle (at 5.24764 0) (size 2.09804 2.09804) (drill 1.39954) (layers *.Cu *.Paste *.Mask))
  (pad 6 thru_hole circle (at 8.74776 0) (size 2.09804 2.09804) (drill 1.39954) (layers *.Cu *.Paste *.Mask))
)
