(module WR-TBL_Pluggable_Connector_rev20a-691356300010B (layer F.Cu) (tedit 200000)
  (descr "WR-TBL SERIE 356B - 3.81 MM DOUBLE LEVEL VERTICAL MALE PCB HEADER")
  (tags "WR-TBL SERIE 356B - 3.81 MM DOUBLE LEVEL VERTICAL MALE PCB HEADER")
  (attr virtual)
  (fp_text reference >NAME (at 0 -13.13434) (layer F.SilkS)
    (effects (font (size 1.27 1.27) (thickness 0.1016)))
  )
  (fp_text value >VALUE (at 0.30988 11.86434) (layer F.SilkS)
    (effects (font (size 1.27 1.27) (thickness 0.1016)))
  )
  (fp_line (start -9.9187 -11.77798) (end -9.9187 10.61974) (layer Dwgs.User) (width 0.09906))
  (fp_line (start -9.9187 10.61974) (end 9.9187 10.61974) (layer Dwgs.User) (width 0.09906))
  (fp_line (start 9.9187 10.61974) (end 9.9187 -11.77798) (layer Dwgs.User) (width 0.09906))
  (fp_line (start 9.9187 -11.77798) (end -9.9187 -11.77798) (layer Dwgs.User) (width 0.09906))
  (fp_line (start -10.01776 -11.87958) (end 10.01776 -11.87958) (layer F.SilkS) (width 0.19812))
  (fp_line (start 10.01776 -11.87958) (end 10.01776 10.7188) (layer F.SilkS) (width 0.19812))
  (fp_line (start 10.01776 10.7188) (end -10.01776 10.7188) (layer F.SilkS) (width 0.19812))
  (fp_line (start -10.01776 10.7188) (end -10.01776 -11.87958) (layer F.SilkS) (width 0.19812))
  (fp_poly (pts (xy -10.21842 -12.0777) (xy 10.21842 -12.0777) (xy 10.21842 10.91946) (xy -10.21842 10.91946)
    (xy -10.21842 -12.0777)) (layer Dwgs.User) (width 0.09906))
  (fp_circle (center -8.91286 8.99922) (end -8.91286 8.90016) (layer F.SilkS) (width 0.39878))
  (pad 1 thru_hole circle (at -7.62 7.62) (size 2.09804 2.09804) (drill 1.39954) (layers *.Cu *.Paste *.Mask))
  (pad 2 thru_hole circle (at -3.81 7.62) (size 2.09804 2.09804) (drill 1.39954) (layers *.Cu *.Paste *.Mask))
  (pad 3 thru_hole circle (at 0 7.62) (size 2.09804 2.09804) (drill 1.39954) (layers *.Cu *.Paste *.Mask))
  (pad 4 thru_hole circle (at 3.81 7.62) (size 2.09804 2.09804) (drill 1.39954) (layers *.Cu *.Paste *.Mask))
  (pad 5 thru_hole circle (at 7.62 7.62) (size 2.09804 2.09804) (drill 1.39954) (layers *.Cu *.Paste *.Mask))
  (pad 6 thru_hole circle (at -7.62 -7.62) (size 2.09804 2.09804) (drill 1.39954) (layers *.Cu *.Paste *.Mask))
  (pad 7 thru_hole circle (at -3.81 -7.62) (size 2.09804 2.09804) (drill 1.39954) (layers *.Cu *.Paste *.Mask))
  (pad 8 thru_hole circle (at 0 -7.62) (size 2.09804 2.09804) (drill 1.39954) (layers *.Cu *.Paste *.Mask))
  (pad 9 thru_hole circle (at 3.81 -7.62) (size 2.09804 2.09804) (drill 1.39954) (layers *.Cu *.Paste *.Mask))
  (pad 10 thru_hole circle (at 7.62 -7.62) (size 2.09804 2.09804) (drill 1.39954) (layers *.Cu *.Paste *.Mask))
)
