(module WR-TBL_Pluggable_Connector_rev20a-691320510008 (layer F.Cu) (tedit 200000)
  (descr "WR-TBL SERIE 3205 - 5.08 MM DOUBLE LEVEL HORIZONTAL MALE PCB HEADER WITH CLOSED FLANGES & NUT TYPE")
  (tags "WR-TBL SERIE 3205 - 5.08 MM DOUBLE LEVEL HORIZONTAL MALE PCB HEADER WITH CLOSED FLANGES & NUT TYPE")
  (attr virtual)
  (fp_text reference >NAME (at -0.99822 -13.63472) (layer F.SilkS)
    (effects (font (size 1.27 1.27) (thickness 0.1016)))
  )
  (fp_text value >VALUE (at -0.18796 11.36396) (layer F.SilkS)
    (effects (font (size 1.27 1.27) (thickness 0.1016)))
  )
  (fp_line (start -17.75968 -12.15898) (end 15.2781 -12.15898) (layer Dwgs.User) (width 0.09906))
  (fp_line (start 15.2781 -12.15898) (end 15.2781 9.83996) (layer Dwgs.User) (width 0.09906))
  (fp_line (start 15.2781 9.83996) (end -15.21968 9.83996) (layer Dwgs.User) (width 0.09906))
  (fp_line (start -15.21968 9.83996) (end -15.21968 -0.15748) (layer Dwgs.User) (width 0.09906))
  (fp_line (start -15.21968 -0.15748) (end -17.75968 -0.15748) (layer Dwgs.User) (width 0.09906))
  (fp_line (start -17.75968 -0.15748) (end -17.75968 -12.15898) (layer Dwgs.User) (width 0.09906))
  (fp_line (start -17.85874 -12.25804) (end 15.3797 -12.25804) (layer F.SilkS) (width 0.19812))
  (fp_line (start 15.3797 -12.25804) (end 15.3797 9.93902) (layer F.SilkS) (width 0.19812))
  (fp_line (start 15.3797 9.93902) (end -15.31874 9.93902) (layer F.SilkS) (width 0.19812))
  (fp_line (start -15.31874 9.93902) (end -15.31874 -0.05842) (layer F.SilkS) (width 0.19812))
  (fp_line (start -15.31874 -0.05842) (end -17.85874 -0.05842) (layer F.SilkS) (width 0.19812))
  (fp_line (start -17.85874 -0.05842) (end -17.85874 -12.25804) (layer F.SilkS) (width 0.19812))
  (fp_poly (pts (xy -18.0594 -12.4587) (xy 15.57782 -12.4587) (xy 15.57782 10.13968) (xy -18.0594 10.13968)
    (xy -18.0594 -12.4587)) (layer Dwgs.User) (width 0.09906))
  (fp_circle (center -9.1186 1.79832) (end -9.1186 1.6002) (layer F.SilkS) (width 0.39878))
  (fp_text user 2 (at -9.98474 -7.88416) (layer Dwgs.User)
    (effects (font (size 1.27 1.27) (thickness 0.1016)))
  )
  (fp_text user 1 (at -7.48284 -2.4638) (layer Dwgs.User)
    (effects (font (size 1.27 1.27) (thickness 0.1016)))
  )
  (fp_text user 7 (at 7.9248 -2.4638) (layer Dwgs.User)
    (effects (font (size 1.27 1.27) (thickness 0.1016)))
  )
  (fp_text user 8 (at 5.25272 -7.88416) (layer Dwgs.User)
    (effects (font (size 1.27 1.27) (thickness 0.1016)))
  )
  (pad 1 thru_hole circle (at -7.62 0) (size 2.39776 2.39776) (drill 1.59766) (layers *.Cu *.Paste *.Mask))
  (pad 2 thru_hole circle (at -10.16 -10.16) (size 2.39776 2.39776) (drill 1.59766) (layers *.Cu *.Paste *.Mask))
  (pad 3 thru_hole circle (at -2.54 0) (size 2.39776 2.39776) (drill 1.59766) (layers *.Cu *.Paste *.Mask))
  (pad 4 thru_hole circle (at -5.08 -10.16) (size 2.39776 2.39776) (drill 1.59766) (layers *.Cu *.Paste *.Mask))
  (pad 5 thru_hole circle (at 2.54 0) (size 2.39776 2.39776) (drill 1.59766) (layers *.Cu *.Paste *.Mask))
  (pad 6 thru_hole circle (at 0 -10.16) (size 2.39776 2.39776) (drill 1.59766) (layers *.Cu *.Paste *.Mask))
  (pad 7 thru_hole circle (at 7.62 0) (size 2.39776 2.39776) (drill 1.59766) (layers *.Cu *.Paste *.Mask))
  (pad 8 thru_hole circle (at 5.08 -10.16) (size 2.39776 2.39776) (drill 1.59766) (layers *.Cu *.Paste *.Mask))
)
