(module WR-TBL_Pluggable_Connector_rev20a-691356300006B (layer F.Cu) (tedit 200000)
  (descr "WR-TBL SERIE 356B - 3.81 MM DOUBLE LEVEL VERTICAL MALE PCB HEADER")
  (tags "WR-TBL SERIE 356B - 3.81 MM DOUBLE LEVEL VERTICAL MALE PCB HEADER")
  (attr virtual)
  (fp_text reference >NAME (at 0 -13.13434) (layer F.SilkS)
    (effects (font (size 1.27 1.27) (thickness 0.1016)))
  )
  (fp_text value >VALUE (at 0.30988 11.86434) (layer F.SilkS)
    (effects (font (size 1.27 1.27) (thickness 0.1016)))
  )
  (fp_line (start -6.1087 -11.77798) (end -6.1087 10.61974) (layer Dwgs.User) (width 0.09906))
  (fp_line (start -6.1087 10.61974) (end 6.1087 10.61974) (layer Dwgs.User) (width 0.09906))
  (fp_line (start 6.1087 10.61974) (end 6.1087 -11.77798) (layer Dwgs.User) (width 0.09906))
  (fp_line (start 6.1087 -11.77798) (end -6.1087 -11.77798) (layer Dwgs.User) (width 0.09906))
  (fp_line (start -6.20776 -11.87958) (end 6.20776 -11.87958) (layer F.SilkS) (width 0.19812))
  (fp_line (start 6.20776 -11.87958) (end 6.20776 10.7188) (layer F.SilkS) (width 0.19812))
  (fp_line (start 6.20776 10.7188) (end -6.20776 10.7188) (layer F.SilkS) (width 0.19812))
  (fp_line (start -6.20776 10.7188) (end -6.20776 -11.87958) (layer F.SilkS) (width 0.19812))
  (fp_poly (pts (xy -6.40842 -12.0777) (xy 6.40842 -12.0777) (xy 6.40842 10.91946) (xy -6.40842 10.91946)
    (xy -6.40842 -12.0777)) (layer Dwgs.User) (width 0.09906))
  (fp_circle (center -5.10286 8.99922) (end -5.10286 8.90016) (layer F.SilkS) (width 0.39878))
  (pad 1 thru_hole circle (at -3.81 7.62) (size 2.09804 2.09804) (drill 1.39954) (layers *.Cu *.Paste *.Mask))
  (pad 2 thru_hole circle (at 0 7.62) (size 2.09804 2.09804) (drill 1.39954) (layers *.Cu *.Paste *.Mask))
  (pad 3 thru_hole circle (at 3.81 7.62) (size 2.09804 2.09804) (drill 1.39954) (layers *.Cu *.Paste *.Mask))
  (pad 4 thru_hole circle (at -3.81 -7.62) (size 2.09804 2.09804) (drill 1.39954) (layers *.Cu *.Paste *.Mask))
  (pad 5 thru_hole circle (at 0 -7.62) (size 2.09804 2.09804) (drill 1.39954) (layers *.Cu *.Paste *.Mask))
  (pad 6 thru_hole circle (at 3.81 -7.62) (size 2.09804 2.09804) (drill 1.39954) (layers *.Cu *.Paste *.Mask))
)
