(module WR-TBL_Pluggable_Connector_rev20a-691308330007 (layer F.Cu) (tedit 200000)
  (descr "WR-TBL SERIE 3083 - 3.81 MM VERTICAL RESERVED PCB HEADER WITH FLANGES")
  (tags "WR-TBL SERIE 3083 - 3.81 MM VERTICAL RESERVED PCB HEADER WITH FLANGES")
  (attr virtual)
  (fp_text reference >NAME (at 0 -4.63296) (layer F.SilkS)
    (effects (font (size 1.27 1.27) (thickness 0.1016)))
  )
  (fp_text value >VALUE (at 0.30988 5.36448) (layer F.SilkS)
    (effects (font (size 1.27 1.27) (thickness 0.1016)))
  )
  (fp_line (start -18.5293 -3.10388) (end 18.5293 -3.10388) (layer Dwgs.User) (width 0.09906))
  (fp_line (start -18.5293 -3.10388) (end -18.5293 2.89306) (layer Dwgs.User) (width 0.09906))
  (fp_line (start 18.5293 -3.10388) (end 18.5293 2.89306) (layer Dwgs.User) (width 0.09906))
  (fp_line (start -18.5293 2.89306) (end -13.72362 2.89306) (layer Dwgs.User) (width 0.09906))
  (fp_line (start -13.72362 2.89306) (end -13.72362 3.69316) (layer Dwgs.User) (width 0.09906))
  (fp_line (start -13.72362 3.69316) (end 13.72362 3.69316) (layer Dwgs.User) (width 0.09906))
  (fp_line (start 13.72362 3.69316) (end 13.72362 2.89306) (layer Dwgs.User) (width 0.09906))
  (fp_line (start 13.72362 2.89306) (end 18.5293 2.89306) (layer Dwgs.User) (width 0.09906))
  (fp_line (start -18.62836 -3.20294) (end 18.62836 -3.20294) (layer F.SilkS) (width 0.19812))
  (fp_line (start 18.62836 -3.20294) (end 18.62836 2.99466) (layer F.SilkS) (width 0.19812))
  (fp_line (start 18.62836 2.99466) (end 13.82268 2.99466) (layer F.SilkS) (width 0.19812))
  (fp_line (start 13.82268 2.99466) (end 13.82268 3.79476) (layer F.SilkS) (width 0.19812))
  (fp_line (start 13.82268 3.79476) (end -13.82268 3.79476) (layer F.SilkS) (width 0.19812))
  (fp_line (start -13.82268 3.79476) (end -13.82268 2.99466) (layer F.SilkS) (width 0.19812))
  (fp_line (start -13.82268 2.99466) (end -18.62836 2.99466) (layer F.SilkS) (width 0.19812))
  (fp_line (start -18.62836 2.99466) (end -18.62836 -3.20294) (layer F.SilkS) (width 0.19812))
  (fp_poly (pts (xy -18.82902 -3.4036) (xy 18.82902 -3.4036) (xy 18.82902 3.99288) (xy -18.82902 3.99288)
    (xy -18.82902 -3.4036)) (layer Dwgs.User) (width 0.09906))
  (fp_circle (center -12.6238 -0.49784) (end -12.6238 -0.5969) (layer F.SilkS) (width 0.39878))
  (fp_text user 1 (at -11.31824 -0.00508) (layer Dwgs.User)
    (effects (font (size 0.8128 0.8128) (thickness 0.0762)))
  )
  (pad 1 thru_hole circle (at -11.43 -1.905) (size 1.79832 1.79832) (drill 1.19888) (layers *.Cu *.Paste *.Mask))
  (pad 2 thru_hole circle (at -7.62 -1.905) (size 1.79832 1.79832) (drill 1.19888) (layers *.Cu *.Paste *.Mask))
  (pad 3 thru_hole circle (at -3.81 -1.905) (size 1.79832 1.79832) (drill 1.19888) (layers *.Cu *.Paste *.Mask))
  (pad 4 thru_hole circle (at 0 -1.905) (size 1.79832 1.79832) (drill 1.19888) (layers *.Cu *.Paste *.Mask))
  (pad 5 thru_hole circle (at 3.81 -1.905) (size 1.79832 1.79832) (drill 1.19888) (layers *.Cu *.Paste *.Mask))
  (pad 6 thru_hole circle (at 7.62 -1.905) (size 1.79832 1.79832) (drill 1.19888) (layers *.Cu *.Paste *.Mask))
  (pad 7 thru_hole circle (at 11.43 -1.905) (size 1.79832 1.79832) (drill 1.19888) (layers *.Cu *.Paste *.Mask))
  (pad A1 thru_hole circle (at -11.43 1.905) (size 1.79832 1.79832) (drill 1.19888) (layers *.Cu *.Paste *.Mask))
  (pad A2 thru_hole circle (at -7.62 1.905) (size 1.79832 1.79832) (drill 1.19888) (layers *.Cu *.Paste *.Mask))
  (pad A3 thru_hole circle (at -3.81 1.905) (size 1.79832 1.79832) (drill 1.19888) (layers *.Cu *.Paste *.Mask))
  (pad A4 thru_hole circle (at 0 1.905) (size 1.79832 1.79832) (drill 1.19888) (layers *.Cu *.Paste *.Mask))
  (pad A5 thru_hole circle (at 3.81 1.905) (size 1.79832 1.79832) (drill 1.19888) (layers *.Cu *.Paste *.Mask))
  (pad A6 thru_hole circle (at 7.62 1.905) (size 1.79832 1.79832) (drill 1.19888) (layers *.Cu *.Paste *.Mask))
  (pad A7 thru_hole circle (at 11.43 1.905) (size 1.79832 1.79832) (drill 1.19888) (layers *.Cu *.Paste *.Mask))
)
