(module WR-TBL_Pluggable_Connector_rev20a-691317710003 (layer F.Cu) (tedit 200000)
  (descr "WR-TBL SERIE 3177 - 5.00 MM CLOSE HORIZONTAL PCB HEADER WITH FLANGES")
  (tags "WR-TBL SERIE 3177 - 5.00 MM CLOSE HORIZONTAL PCB HEADER WITH FLANGES")
  (attr virtual)
  (fp_text reference >NAME (at 0 -3.63474) (layer F.SilkS)
    (effects (font (size 1.27 1.27) (thickness 0.1016)))
  )
  (fp_text value >VALUE (at 0.30988 11.36396) (layer F.SilkS)
    (effects (font (size 1.27 1.27) (thickness 0.1016)))
  )
  (fp_line (start 12.49934 -1.99898) (end -12.49934 -1.99898) (layer Dwgs.User) (width 0.09906))
  (fp_line (start -12.49934 -1.99898) (end -12.49934 9.99998) (layer Dwgs.User) (width 0.09906))
  (fp_line (start -12.49934 9.99998) (end 12.49934 9.99998) (layer Dwgs.User) (width 0.09906))
  (fp_line (start 12.49934 9.99998) (end 12.49934 -1.99898) (layer Dwgs.User) (width 0.09906))
  (fp_line (start -12.5984 -2.09804) (end 12.5984 -2.09804) (layer F.SilkS) (width 0.19812))
  (fp_line (start 12.5984 -2.09804) (end 12.5984 10.09904) (layer F.SilkS) (width 0.19812))
  (fp_line (start 12.5984 10.09904) (end -12.5984 10.09904) (layer F.SilkS) (width 0.19812))
  (fp_line (start -12.5984 10.09904) (end -12.5984 -2.09804) (layer F.SilkS) (width 0.19812))
  (fp_poly (pts (xy -12.79906 -2.2987) (xy 12.79906 -2.2987) (xy 12.79906 10.2997) (xy -12.79906 10.2997)
    (xy -12.79906 -2.2987)) (layer Dwgs.User) (width 0.09906))
  (fp_circle (center -7.0993 1.29794) (end -7.0993 1.19888) (layer F.SilkS) (width 0.39878))
  (pad 1 thru_hole circle (at -4.99872 0) (size 2.39776 2.39776) (drill 1.59766) (layers *.Cu *.Paste *.Mask))
  (pad 2 thru_hole circle (at 0 0) (size 2.39776 2.39776) (drill 1.59766) (layers *.Cu *.Paste *.Mask))
  (pad 3 thru_hole circle (at 4.99872 0) (size 2.39776 2.39776) (drill 1.59766) (layers *.Cu *.Paste *.Mask))
)
