(module WR-TBL_Pluggable_Connector_rev20a-691309310008 (layer F.Cu) (tedit 200000)
  (descr "WR-TBL SERIE 3093 - 3.81 MM HORIZONTAL RESERVED PCB HEADER WITH FLANGES")
  (tags "WR-TBL SERIE 3093 - 3.81 MM HORIZONTAL RESERVED PCB HEADER WITH FLANGES")
  (attr virtual)
  (fp_text reference >NAME (at 0 -4.63296) (layer F.SilkS)
    (effects (font (size 1.27 1.27) (thickness 0.1016)))
  )
  (fp_text value >VALUE (at 0.30988 12.86256) (layer F.SilkS)
    (effects (font (size 1.27 1.27) (thickness 0.1016)))
  )
  (fp_line (start -15.6337 -3.16992) (end 15.6337 -3.16992) (layer Dwgs.User) (width 0.09906))
  (fp_line (start -15.6337 -3.16992) (end -15.6337 4.62788) (layer Dwgs.User) (width 0.09906))
  (fp_line (start 15.6337 -3.16992) (end 15.6337 4.62788) (layer Dwgs.User) (width 0.09906))
  (fp_line (start -14.73454 11.3284) (end 14.73454 11.3284) (layer Dwgs.User) (width 0.09906))
  (fp_line (start -14.73454 11.3284) (end -14.73454 4.62788) (layer Dwgs.User) (width 0.09906))
  (fp_line (start 14.73454 11.3284) (end 14.73454 4.62788) (layer Dwgs.User) (width 0.09906))
  (fp_line (start -15.6337 4.62788) (end -14.73454 4.62788) (layer Dwgs.User) (width 0.09906))
  (fp_line (start 14.73454 4.62788) (end 15.6337 4.62788) (layer Dwgs.User) (width 0.09906))
  (fp_line (start -15.73276 -3.26898) (end 15.73276 -3.26898) (layer F.SilkS) (width 0.19812))
  (fp_line (start 15.73276 -3.26898) (end 15.73276 4.72948) (layer F.SilkS) (width 0.19812))
  (fp_line (start 15.73276 4.72948) (end 14.8336 4.72948) (layer F.SilkS) (width 0.19812))
  (fp_line (start 14.8336 4.72948) (end 14.8336 11.43) (layer F.SilkS) (width 0.19812))
  (fp_line (start 14.8336 11.43) (end -14.8336 11.43) (layer F.SilkS) (width 0.19812))
  (fp_line (start -14.8336 11.43) (end -14.8336 4.72948) (layer F.SilkS) (width 0.19812))
  (fp_line (start -14.8336 4.72948) (end -15.73276 4.72948) (layer F.SilkS) (width 0.19812))
  (fp_line (start -15.73276 4.72948) (end -15.73276 -3.26898) (layer F.SilkS) (width 0.19812))
  (fp_poly (pts (xy -15.93342 -3.429) (xy 15.93342 -3.429) (xy 15.93342 4.9276) (xy 15.03426 4.9276)
    (xy 15.03426 11.62812) (xy -15.03426 11.62812) (xy -15.03426 4.9276) (xy -15.93342 4.9276)
    (xy -15.93342 -3.429)) (layer Dwgs.User) (width 0.09906))
  (fp_circle (center -14.92758 -0.89916) (end -14.92758 -0.99822) (layer F.SilkS) (width 0.39878))
  (fp_text user 1 (at -14.34338 -0.12446) (layer Dwgs.User)
    (effects (font (size 0.8128 0.8128) (thickness 0.0762)))
  )
  (pad 1 thru_hole circle (at -13.33754 -1.27) (size 1.79832 1.79832) (drill 1.19888) (layers *.Cu *.Paste *.Mask))
  (pad 2 thru_hole circle (at -9.52754 -1.27) (size 1.79832 1.79832) (drill 1.19888) (layers *.Cu *.Paste *.Mask))
  (pad 3 thru_hole circle (at -5.71754 -1.27) (size 1.79832 1.79832) (drill 1.19888) (layers *.Cu *.Paste *.Mask))
  (pad 4 thru_hole circle (at -1.90754 -1.27) (size 1.79832 1.79832) (drill 1.19888) (layers *.Cu *.Paste *.Mask))
  (pad 5 thru_hole circle (at 1.89992 -1.27) (size 1.79832 1.79832) (drill 1.19888) (layers *.Cu *.Paste *.Mask))
  (pad 6 thru_hole circle (at 5.70992 -1.27) (size 1.79832 1.79832) (drill 1.19888) (layers *.Cu *.Paste *.Mask))
  (pad 7 thru_hole circle (at 9.51992 -1.27) (size 1.79832 1.79832) (drill 1.19888) (layers *.Cu *.Paste *.Mask))
  (pad 8 thru_hole circle (at 13.32992 -1.27) (size 1.79832 1.79832) (drill 1.19888) (layers *.Cu *.Paste *.Mask))
  (pad A1 thru_hole circle (at -13.33754 1.27) (size 1.79832 1.79832) (drill 1.19888) (layers *.Cu *.Paste *.Mask))
  (pad A2 thru_hole circle (at -9.52754 1.27) (size 1.79832 1.79832) (drill 1.19888) (layers *.Cu *.Paste *.Mask))
  (pad A3 thru_hole circle (at -5.71754 1.27) (size 1.79832 1.79832) (drill 1.19888) (layers *.Cu *.Paste *.Mask))
  (pad A4 thru_hole circle (at -1.90754 1.27) (size 1.79832 1.79832) (drill 1.19888) (layers *.Cu *.Paste *.Mask))
  (pad A5 thru_hole circle (at 1.89992 1.27) (size 1.79832 1.79832) (drill 1.19888) (layers *.Cu *.Paste *.Mask))
  (pad A6 thru_hole circle (at 5.70992 1.27) (size 1.79832 1.79832) (drill 1.19888) (layers *.Cu *.Paste *.Mask))
  (pad A7 thru_hole circle (at 9.51992 1.27) (size 1.79832 1.79832) (drill 1.19888) (layers *.Cu *.Paste *.Mask))
  (pad A8 thru_hole circle (at 13.32992 1.27) (size 1.79832 1.79832) (drill 1.19888) (layers *.Cu *.Paste *.Mask))
)
