(module WR-TBL_Pluggable_Connector_rev20a-691309510002 (layer F.Cu) (tedit 200000)
  (descr "WR-TBL SERIE 3095 - 5.08 MM REVERSED GENDER HORIZONTAL PCB HEADER")
  (tags "WR-TBL SERIE 3095 - 5.08 MM REVERSED GENDER HORIZONTAL PCB HEADER")
  (attr virtual)
  (fp_text reference >NAME (at 0 -6.63448) (layer F.SilkS)
    (effects (font (size 1.27 1.27) (thickness 0.1016)))
  )
  (fp_text value >VALUE (at 0.30988 15.36446) (layer F.SilkS)
    (effects (font (size 1.27 1.27) (thickness 0.1016)))
  )
  (fp_line (start 6.03758 -5.23748) (end -6.03758 -5.23748) (layer Dwgs.User) (width 0.09906))
  (fp_line (start -6.03758 -5.23748) (end -6.03758 13.75918) (layer Dwgs.User) (width 0.09906))
  (fp_line (start -6.03758 13.75918) (end 6.03758 13.75918) (layer Dwgs.User) (width 0.09906))
  (fp_line (start 6.03758 13.75918) (end 6.03758 -5.23748) (layer Dwgs.User) (width 0.09906))
  (fp_line (start -6.13918 -5.33908) (end 6.13918 -5.33908) (layer F.SilkS) (width 0.19812))
  (fp_line (start 6.13918 -5.33908) (end 6.13918 13.85824) (layer F.SilkS) (width 0.19812))
  (fp_line (start 6.13918 13.85824) (end -6.13918 13.85824) (layer F.SilkS) (width 0.19812))
  (fp_line (start -6.13918 13.85824) (end -6.13918 -5.33908) (layer F.SilkS) (width 0.19812))
  (fp_poly (pts (xy -6.33984 -5.53974) (xy 6.33984 -5.53974) (xy 6.33984 14.0589) (xy -6.33984 14.0589)
    (xy -6.33984 -5.53974)) (layer Dwgs.User) (width 0.09906))
  (fp_circle (center -4.39928 -1.19888) (end -4.39928 -1.29794) (layer F.SilkS) (width 0.39878))
  (fp_text user 1 (at -2.39014 -0.20574) (layer Dwgs.User)
    (effects (font (size 1.016 1.016) (thickness 0.0762)))
  )
  (pad 1 thru_hole circle (at -2.54 -2.54) (size 2.09804 2.09804) (drill 1.39954) (layers *.Cu *.Paste *.Mask))
  (pad 2 thru_hole circle (at 2.54 -2.54) (size 2.09804 2.09804) (drill 1.39954) (layers *.Cu *.Paste *.Mask))
  (pad A1 thru_hole circle (at -2.54 2.54) (size 2.09804 2.09804) (drill 1.39954) (layers *.Cu *.Paste *.Mask))
  (pad A2 thru_hole circle (at 2.54 2.54) (size 2.09804 2.09804) (drill 1.39954) (layers *.Cu *.Paste *.Mask))
)
