(module WR-TBL_Pluggable_Connector_rev20a-691309310003 (layer F.Cu) (tedit 200000)
  (descr "WR-TBL SERIE 3093 - 3.81 MM HORIZONTAL RESERVED PCB HEADER WITH FLANGES")
  (tags "WR-TBL SERIE 3093 - 3.81 MM HORIZONTAL RESERVED PCB HEADER WITH FLANGES")
  (attr virtual)
  (fp_text reference >NAME (at 0 -4.63296) (layer F.SilkS)
    (effects (font (size 1.27 1.27) (thickness 0.1016)))
  )
  (fp_text value >VALUE (at 0.30988 12.86256) (layer F.SilkS)
    (effects (font (size 1.27 1.27) (thickness 0.1016)))
  )
  (fp_line (start -6.1087 -3.16992) (end 6.1087 -3.16992) (layer Dwgs.User) (width 0.09906))
  (fp_line (start -6.1087 -3.16992) (end -6.1087 4.62788) (layer Dwgs.User) (width 0.09906))
  (fp_line (start 6.1087 -3.16992) (end 6.1087 4.62788) (layer Dwgs.User) (width 0.09906))
  (fp_line (start -5.20954 11.3284) (end 5.20954 11.3284) (layer Dwgs.User) (width 0.09906))
  (fp_line (start -5.20954 11.3284) (end -5.20954 4.62788) (layer Dwgs.User) (width 0.09906))
  (fp_line (start 5.20954 11.3284) (end 5.20954 4.62788) (layer Dwgs.User) (width 0.09906))
  (fp_line (start -6.1087 4.62788) (end -5.20954 4.62788) (layer Dwgs.User) (width 0.09906))
  (fp_line (start 5.20954 4.62788) (end 6.1087 4.62788) (layer Dwgs.User) (width 0.09906))
  (fp_line (start -6.20776 -3.26898) (end 6.20776 -3.26898) (layer F.SilkS) (width 0.19812))
  (fp_line (start 6.20776 -3.26898) (end 6.20776 4.72948) (layer F.SilkS) (width 0.19812))
  (fp_line (start 6.20776 4.72948) (end 5.3086 4.72948) (layer F.SilkS) (width 0.19812))
  (fp_line (start 5.3086 4.72948) (end 5.3086 11.43) (layer F.SilkS) (width 0.19812))
  (fp_line (start 5.3086 11.43) (end -5.3086 11.43) (layer F.SilkS) (width 0.19812))
  (fp_line (start -5.3086 11.43) (end -5.3086 4.72948) (layer F.SilkS) (width 0.19812))
  (fp_line (start -5.3086 4.72948) (end -6.20776 4.72948) (layer F.SilkS) (width 0.19812))
  (fp_line (start -6.20776 4.72948) (end -6.20776 -3.26898) (layer F.SilkS) (width 0.19812))
  (fp_poly (pts (xy -6.40842 -3.429) (xy 6.40842 -3.429) (xy 6.40842 4.9276) (xy 5.50926 4.9276)
    (xy 5.50926 11.62812) (xy -5.50926 11.62812) (xy -5.50926 4.9276) (xy -6.40842 4.9276)
    (xy -6.40842 -3.429)) (layer Dwgs.User) (width 0.09906))
  (fp_circle (center -5.40258 -0.89916) (end -5.40258 -0.99822) (layer F.SilkS) (width 0.39878))
  (fp_text user 1 (at -4.81838 -0.12446) (layer Dwgs.User)
    (effects (font (size 0.8128 0.8128) (thickness 0.0762)))
  )
  (pad 1 thru_hole circle (at -3.81 -1.27) (size 1.79832 1.79832) (drill 1.19888) (layers *.Cu *.Paste *.Mask))
  (pad 2 thru_hole circle (at 0 -1.27) (size 1.79832 1.79832) (drill 1.19888) (layers *.Cu *.Paste *.Mask))
  (pad 3 thru_hole circle (at 3.81 -1.27) (size 1.79832 1.79832) (drill 1.19888) (layers *.Cu *.Paste *.Mask))
  (pad A1 thru_hole circle (at -3.81 1.27) (size 1.79832 1.79832) (drill 1.19888) (layers *.Cu *.Paste *.Mask))
  (pad A2 thru_hole circle (at 0 1.27) (size 1.79832 1.79832) (drill 1.19888) (layers *.Cu *.Paste *.Mask))
  (pad A3 thru_hole circle (at 3.81 1.27) (size 1.79832 1.79832) (drill 1.19888) (layers *.Cu *.Paste *.Mask))
)
