(module WR-TBL_Pluggable_Connector_rev20a-691335510006 (layer F.Cu) (tedit 200000)
  (descr "WR-TBL SERIE 3355 - 5.08 MM DOUBLE LEVEL MODULAR HORIZONTAL MALE PCB HEADER")
  (tags "WR-TBL SERIE 3355 - 5.08 MM DOUBLE LEVEL MODULAR HORIZONTAL MALE PCB HEADER")
  (attr virtual)
  (fp_text reference >NAME (at -1.4986 -13.63472) (layer F.SilkS)
    (effects (font (size 1.27 1.27) (thickness 0.1016)))
  )
  (fp_text value >VALUE (at -0.68834 11.36396) (layer F.SilkS)
    (effects (font (size 1.27 1.27) (thickness 0.1016)))
  )
  (fp_line (start -10.16 -12.15898) (end 6.7183 -12.15898) (layer Dwgs.User) (width 0.09906))
  (fp_line (start 6.7183 -12.15898) (end 6.7183 -2.159) (layer Dwgs.User) (width 0.09906))
  (fp_line (start 6.7183 -2.159) (end 7.62 -2.159) (layer Dwgs.User) (width 0.09906))
  (fp_line (start 7.62 -2.159) (end 7.62 9.83996) (layer Dwgs.User) (width 0.09906))
  (fp_line (start 7.62 9.83996) (end -7.62 9.83996) (layer Dwgs.User) (width 0.09906))
  (fp_line (start -7.62 9.83996) (end -7.62 -0.15748) (layer Dwgs.User) (width 0.09906))
  (fp_line (start -7.62 -0.15748) (end -10.16 -0.15748) (layer Dwgs.User) (width 0.09906))
  (fp_line (start -10.16 -0.15748) (end -10.16 -12.15898) (layer Dwgs.User) (width 0.09906))
  (fp_line (start -10.25906 -12.25804) (end 6.8199 -12.25804) (layer F.SilkS) (width 0.19812))
  (fp_line (start 6.8199 -12.25804) (end 6.8199 -2.25806) (layer F.SilkS) (width 0.19812))
  (fp_line (start 6.8199 -2.25806) (end 7.71906 -2.25806) (layer F.SilkS) (width 0.19812))
  (fp_line (start 7.71906 -2.25806) (end 7.71906 9.93902) (layer F.SilkS) (width 0.19812))
  (fp_line (start 7.71906 9.93902) (end -7.71906 9.93902) (layer F.SilkS) (width 0.19812))
  (fp_line (start -7.71906 9.93902) (end -7.71906 -0.05842) (layer F.SilkS) (width 0.19812))
  (fp_line (start -7.71906 -0.05842) (end -10.25906 -0.05842) (layer F.SilkS) (width 0.19812))
  (fp_line (start -10.25906 -0.05842) (end -10.25906 -12.25804) (layer F.SilkS) (width 0.19812))
  (fp_poly (pts (xy -10.45972 -12.4587) (xy 7.91972 -12.4587) (xy 7.91972 10.13968) (xy -10.45972 10.13968)
    (xy -10.45972 -12.4587)) (layer Dwgs.User) (width 0.09906))
  (fp_circle (center -6.63956 1.89992) (end -6.63956 1.7018) (layer F.SilkS) (width 0.39878))
  (fp_text user 2 (at -7.4041 -7.88416) (layer Dwgs.User)
    (effects (font (size 1.27 1.27) (thickness 0.1016)))
  )
  (fp_text user 1 (at -5.10286 -2.23266) (layer Dwgs.User)
    (effects (font (size 1.27 1.27) (thickness 0.1016)))
  )
  (fp_text user 5 (at 5.22478 -2.23266) (layer Dwgs.User)
    (effects (font (size 1.27 1.27) (thickness 0.1016)))
  )
  (fp_text user 6 (at 2.77368 -7.98322) (layer Dwgs.User)
    (effects (font (size 1.27 1.27) (thickness 0.1016)))
  )
  (pad 1 thru_hole circle (at -5.08 0) (size 2.39776 2.39776) (drill 1.59766) (layers *.Cu *.Paste *.Mask))
  (pad 2 thru_hole circle (at -7.62 -10.16) (size 2.39776 2.39776) (drill 1.59766) (layers *.Cu *.Paste *.Mask))
  (pad 3 thru_hole circle (at 0 0) (size 2.39776 2.39776) (drill 1.59766) (layers *.Cu *.Paste *.Mask))
  (pad 4 thru_hole circle (at -2.54 -10.16) (size 2.39776 2.39776) (drill 1.59766) (layers *.Cu *.Paste *.Mask))
  (pad 5 thru_hole circle (at 5.08 0) (size 2.39776 2.39776) (drill 1.59766) (layers *.Cu *.Paste *.Mask))
  (pad 6 thru_hole circle (at 2.54 -10.16) (size 2.39776 2.39776) (drill 1.59766) (layers *.Cu *.Paste *.Mask))
)
