(module WR-TBL_Pluggable_Connector_rev20a-691382000004 (layer F.Cu) (tedit 200000)
  (descr "WR-TBL SERIE 382 - 2.50 MM VERTICAL PCB HEADER")
  (tags "WR-TBL SERIE 382 - 2.50 MM VERTICAL PCB HEADER")
  (attr virtual)
  (fp_text reference >NAME (at 0 -5.63372) (layer F.SilkS)
    (effects (font (size 1.27 1.27) (thickness 0.1016)))
  )
  (fp_text value >VALUE (at 0.30988 5.36448) (layer F.SilkS)
    (effects (font (size 1.27 1.27) (thickness 0.1016)))
  )
  (fp_line (start -5.99948 3.8989) (end -5.99948 -4.19862) (layer Dwgs.User) (width 0.09906))
  (fp_line (start -5.99948 -4.19862) (end 5.99948 -4.19862) (layer Dwgs.User) (width 0.09906))
  (fp_line (start 5.99948 -4.19862) (end 5.99948 3.8989) (layer Dwgs.User) (width 0.09906))
  (fp_line (start 5.99948 3.8989) (end -5.99948 3.8989) (layer Dwgs.User) (width 0.09906))
  (fp_line (start -6.09854 -4.29768) (end 6.09854 -4.29768) (layer F.SilkS) (width 0.19812))
  (fp_line (start 6.09854 -4.29768) (end 6.09854 3.99796) (layer F.SilkS) (width 0.19812))
  (fp_line (start 6.09854 3.99796) (end -6.09854 3.99796) (layer F.SilkS) (width 0.19812))
  (fp_line (start -6.09854 3.99796) (end -6.09854 -4.29768) (layer F.SilkS) (width 0.19812))
  (fp_poly (pts (xy -6.2992 -4.49834) (xy 6.2992 -4.49834) (xy 6.2992 4.19862) (xy -6.2992 4.19862)
    (xy -6.2992 -4.49834)) (layer Dwgs.User) (width 0.09906))
  (fp_circle (center -5.09778 -1.69926) (end -5.09778 -1.79832) (layer F.SilkS) (width 0.39878))
  (pad 1 thru_hole circle (at -3.74904 0) (size 2.09804 2.09804) (drill 1.39954) (layers *.Cu *.Paste *.Mask))
  (pad 2 thru_hole circle (at -1.24968 0) (size 2.09804 2.09804) (drill 1.39954) (layers *.Cu *.Paste *.Mask))
  (pad 3 thru_hole circle (at 1.24968 0) (size 2.09804 2.09804) (drill 1.39954) (layers *.Cu *.Paste *.Mask))
  (pad 4 thru_hole circle (at 3.74904 0) (size 2.09804 2.09804) (drill 1.39954) (layers *.Cu *.Paste *.Mask))
)
