(module WR-TBL_Pluggable_Connector_rev20a-691357310010B (layer F.Cu) (tedit 200000)
  (descr "WR-TBL SERIE 357B - 3.81 MM DOUBLE LEVEL VERTICAL MALE PCB HEADER WITH FLANGES")
  (tags "WR-TBL SERIE 357B - 3.81 MM DOUBLE LEVEL VERTICAL MALE PCB HEADER WITH FLANGES")
  (attr virtual)
  (fp_text reference >NAME (at 0 -9.13384) (layer F.SilkS)
    (effects (font (size 1.27 1.27) (thickness 0.1016)))
  )
  (fp_text value >VALUE (at 0.30988 15.86484) (layer F.SilkS)
    (effects (font (size 1.27 1.27) (thickness 0.1016)))
  )
  (fp_line (start -14.81836 -7.54888) (end -14.81836 14.34846) (layer Dwgs.User) (width 0.09906))
  (fp_line (start -14.81836 14.34846) (end 14.81836 14.34846) (layer Dwgs.User) (width 0.09906))
  (fp_line (start 14.81836 14.34846) (end 14.81836 -7.54888) (layer Dwgs.User) (width 0.09906))
  (fp_line (start 14.81836 -7.54888) (end -14.81836 -7.54888) (layer Dwgs.User) (width 0.09906))
  (fp_line (start 8.31342 -7.64794) (end 14.91996 -7.64794) (layer F.SilkS) (width 0.19812))
  (fp_line (start 14.91996 -7.64794) (end 14.91996 14.44752) (layer F.SilkS) (width 0.19812))
  (fp_line (start 14.91996 14.44752) (end -14.91996 14.44752) (layer F.SilkS) (width 0.19812))
  (fp_line (start -14.91996 14.44752) (end -14.91996 -7.64794) (layer F.SilkS) (width 0.19812))
  (fp_line (start -14.91996 -7.64794) (end -8.11276 -7.64794) (layer F.SilkS) (width 0.19812))
  (fp_line (start -7.11454 -7.64794) (end -4.31292 -7.64794) (layer F.SilkS) (width 0.19812))
  (fp_line (start -3.30454 -7.64794) (end -0.50292 -7.64794) (layer F.SilkS) (width 0.19812))
  (fp_line (start 0.50292 -7.64794) (end 3.30454 -7.64794) (layer F.SilkS) (width 0.19812))
  (fp_line (start 4.31292 -7.64794) (end 7.11454 -7.64794) (layer F.SilkS) (width 0.19812))
  (fp_poly (pts (xy -15.11808 -7.8486) (xy 15.11808 -7.8486) (xy 15.11808 14.64818) (xy -15.11808 14.64818)
    (xy -15.11808 -7.8486)) (layer Dwgs.User) (width 0.09906))
  (fp_circle (center -9.6139 7.8994) (end -9.6139 7.70128) (layer F.SilkS) (width 0.39878))
  (pad 1 thru_hole circle (at -7.62 6.35) (size 2.09804 2.09804) (drill 1.39954) (layers *.Cu *.Paste *.Mask))
  (pad 2 thru_hole circle (at -3.81 6.35) (size 2.09804 2.09804) (drill 1.39954) (layers *.Cu *.Paste *.Mask))
  (pad 3 thru_hole circle (at 0 6.35) (size 2.09804 2.09804) (drill 1.39954) (layers *.Cu *.Paste *.Mask))
  (pad 4 thru_hole circle (at 3.81 6.35) (size 2.09804 2.09804) (drill 1.39954) (layers *.Cu *.Paste *.Mask))
  (pad 5 thru_hole circle (at 7.62 6.35) (size 2.09804 2.09804) (drill 1.39954) (layers *.Cu *.Paste *.Mask))
  (pad 6 thru_hole circle (at -7.62 -6.35) (size 2.09804 2.09804) (drill 1.39954) (layers *.Cu *.Paste *.Mask))
  (pad 7 thru_hole circle (at -3.81 -6.35) (size 2.09804 2.09804) (drill 1.39954) (layers *.Cu *.Paste *.Mask))
  (pad 8 thru_hole circle (at 0 -6.35) (size 2.09804 2.09804) (drill 1.39954) (layers *.Cu *.Paste *.Mask))
  (pad 9 thru_hole circle (at 3.81 -6.35) (size 2.09804 2.09804) (drill 1.39954) (layers *.Cu *.Paste *.Mask))
  (pad 10 thru_hole circle (at 7.62 -6.35) (size 2.09804 2.09804) (drill 1.39954) (layers *.Cu *.Paste *.Mask))
)
