(module WR-TBL_Pluggable_Connector_rev20a-691386700008 (layer F.Cu) (tedit 200000)
  (descr "WR-TBL SERIE 386 - 5.00 MM MALE PCB HEADER-HORIZONTAL/VERTICAL HEADER DIVISIBLE")
  (tags "WR-TBL SERIE 386 - 5.00 MM MALE PCB HEADER-HORIZONTAL/VERTICAL HEADER DIVISIBLE")
  (attr virtual)
  (fp_text reference >NAME (at 0 -7.13486) (layer F.SilkS)
    (effects (font (size 1.27 1.27) (thickness 0.1016)))
  )
  (fp_text value >VALUE (at 0.30988 6.3627) (layer F.SilkS)
    (effects (font (size 1.27 1.27) (thickness 0.1016)))
  )
  (fp_line (start -19.99996 4.99872) (end -19.99996 -5.4991) (layer Dwgs.User) (width 0.09906))
  (fp_line (start -19.99996 -5.4991) (end 19.99996 -5.4991) (layer Dwgs.User) (width 0.09906))
  (fp_line (start 19.99996 -5.4991) (end 19.99996 4.99872) (layer Dwgs.User) (width 0.09906))
  (fp_line (start 19.99996 4.99872) (end -19.99996 4.99872) (layer Dwgs.User) (width 0.09906))
  (fp_line (start -20.09902 -5.59816) (end 20.09902 -5.59816) (layer F.SilkS) (width 0.19812))
  (fp_line (start 20.09902 -5.59816) (end 20.09902 5.09778) (layer F.SilkS) (width 0.19812))
  (fp_line (start 20.09902 5.09778) (end -20.09902 5.09778) (layer F.SilkS) (width 0.19812))
  (fp_line (start -20.09902 5.09778) (end -20.09902 -5.59816) (layer F.SilkS) (width 0.19812))
  (fp_poly (pts (xy -20.29968 -5.79882) (xy 20.29968 -5.79882) (xy 20.29968 5.29844) (xy -20.29968 5.29844)
    (xy -20.29968 -5.79882)) (layer Dwgs.User) (width 0.09906))
  (fp_circle (center -18.69948 -2.09804) (end -18.69948 -2.1971) (layer F.SilkS) (width 0.39878))
  (pad 1 thru_hole circle (at -17.49806 0) (size 1.94818 1.94818) (drill 1.29794) (layers *.Cu *.Paste *.Mask))
  (pad 2 thru_hole circle (at -12.49934 0) (size 1.94818 1.94818) (drill 1.29794) (layers *.Cu *.Paste *.Mask))
  (pad 3 thru_hole circle (at -7.49808 0) (size 1.94818 1.94818) (drill 1.29794) (layers *.Cu *.Paste *.Mask))
  (pad 4 thru_hole circle (at -2.49936 0) (size 1.94818 1.94818) (drill 1.29794) (layers *.Cu *.Paste *.Mask))
  (pad 5 thru_hole circle (at 2.49936 0) (size 1.94818 1.94818) (drill 1.29794) (layers *.Cu *.Paste *.Mask))
  (pad 6 thru_hole circle (at 7.49808 0) (size 1.94818 1.94818) (drill 1.29794) (layers *.Cu *.Paste *.Mask))
  (pad 7 thru_hole circle (at 12.49934 0) (size 1.94818 1.94818) (drill 1.29794) (layers *.Cu *.Paste *.Mask))
  (pad 8 thru_hole circle (at 17.49806 0) (size 1.94818 1.94818) (drill 1.29794) (layers *.Cu *.Paste *.Mask))
)
