(module WR-TBL_Pluggable_Connector_rev20a-691322310022 (layer F.Cu) (tedit 200000)
  (descr "WR-TBL SERIE 322 - 3.81 MM HORIZONTAL PCB HEADER")
  (tags "WR-TBL SERIE 322 - 3.81 MM HORIZONTAL PCB HEADER")
  (attr virtual)
  (fp_text reference >NAME (at 0 -2.63398) (layer F.SilkS)
    (effects (font (size 1.27 1.27) (thickness 0.1016)))
  )
  (fp_text value >VALUE (at 0.30988 9.36498) (layer F.SilkS)
    (effects (font (size 1.27 1.27) (thickness 0.1016)))
  )
  (fp_line (start -42.50436 7.99846) (end 42.50436 7.99846) (layer Dwgs.User) (width 0.09906))
  (fp_line (start 42.50436 7.99846) (end 42.50436 -1.19888) (layer Dwgs.User) (width 0.09906))
  (fp_line (start 42.50436 -1.19888) (end -42.50436 -1.19888) (layer Dwgs.User) (width 0.09906))
  (fp_line (start -42.50436 -1.19888) (end -42.50436 7.99846) (layer Dwgs.User) (width 0.09906))
  (fp_line (start 40.59936 -1.29794) (end 42.60342 -1.29794) (layer F.SilkS) (width 0.19812))
  (fp_line (start 42.60342 -1.29794) (end 42.60342 8.09752) (layer F.SilkS) (width 0.19812))
  (fp_line (start 42.60342 8.09752) (end -42.60342 8.09752) (layer F.SilkS) (width 0.19812))
  (fp_line (start -42.60342 8.09752) (end -42.60342 -1.29794) (layer F.SilkS) (width 0.19812))
  (fp_line (start -42.60342 -1.29794) (end -40.59936 -1.29794) (layer F.SilkS) (width 0.19812))
  (fp_line (start -39.49954 -1.29794) (end -36.69792 -1.29794) (layer F.SilkS) (width 0.19812))
  (fp_line (start -35.68954 -1.29794) (end -32.88792 -1.29794) (layer F.SilkS) (width 0.19812))
  (fp_line (start -31.87954 -1.29794) (end -29.07792 -1.29794) (layer F.SilkS) (width 0.19812))
  (fp_line (start -28.06954 -1.29794) (end -25.26792 -1.29794) (layer F.SilkS) (width 0.19812))
  (fp_line (start -24.25954 -1.29794) (end -21.45792 -1.29794) (layer F.SilkS) (width 0.19812))
  (fp_line (start -20.44954 -1.29794) (end -17.64792 -1.29794) (layer F.SilkS) (width 0.19812))
  (fp_line (start -16.63954 -1.29794) (end -13.83792 -1.29794) (layer F.SilkS) (width 0.19812))
  (fp_line (start -12.82954 -1.29794) (end -10.02792 -1.29794) (layer F.SilkS) (width 0.19812))
  (fp_line (start -9.01954 -1.29794) (end -6.21792 -1.29794) (layer F.SilkS) (width 0.19812))
  (fp_line (start -5.20954 -1.29794) (end -2.40792 -1.29794) (layer F.SilkS) (width 0.19812))
  (fp_line (start -1.39954 -1.29794) (end 1.39954 -1.29794) (layer F.SilkS) (width 0.19812))
  (fp_line (start 2.40792 -1.29794) (end 5.20954 -1.29794) (layer F.SilkS) (width 0.19812))
  (fp_line (start 6.21792 -1.29794) (end 9.01954 -1.29794) (layer F.SilkS) (width 0.19812))
  (fp_line (start 10.02792 -1.29794) (end 12.82954 -1.29794) (layer F.SilkS) (width 0.19812))
  (fp_line (start 13.83792 -1.29794) (end 16.63954 -1.29794) (layer F.SilkS) (width 0.19812))
  (fp_line (start 17.64792 -1.29794) (end 20.44954 -1.29794) (layer F.SilkS) (width 0.19812))
  (fp_line (start 21.45792 -1.29794) (end 24.25954 -1.29794) (layer F.SilkS) (width 0.19812))
  (fp_line (start 25.26792 -1.29794) (end 28.06954 -1.29794) (layer F.SilkS) (width 0.19812))
  (fp_line (start 29.07792 -1.29794) (end 31.87954 -1.29794) (layer F.SilkS) (width 0.19812))
  (fp_line (start 32.88792 -1.29794) (end 35.68954 -1.29794) (layer F.SilkS) (width 0.19812))
  (fp_line (start 36.69792 -1.29794) (end 39.49954 -1.29794) (layer F.SilkS) (width 0.19812))
  (fp_poly (pts (xy -42.80408 -1.4986) (xy 42.80408 -1.4986) (xy 42.80408 8.29818) (xy -42.80408 8.29818)
    (xy -42.80408 -1.4986)) (layer Dwgs.User) (width 0.09906))
  (fp_circle (center -41.39946 1.19888) (end -41.39946 1.09982) (layer F.SilkS) (width 0.39878))
  (pad 1 thru_hole circle (at -40.005 0) (size 2.09804 2.09804) (drill 1.39954) (layers *.Cu *.Paste *.Mask))
  (pad 2 thru_hole circle (at -36.195 0) (size 2.09804 2.09804) (drill 1.39954) (layers *.Cu *.Paste *.Mask))
  (pad 3 thru_hole circle (at -32.385 0) (size 2.09804 2.09804) (drill 1.39954) (layers *.Cu *.Paste *.Mask))
  (pad 4 thru_hole circle (at -28.575 0) (size 2.09804 2.09804) (drill 1.39954) (layers *.Cu *.Paste *.Mask))
  (pad 5 thru_hole circle (at -24.765 0) (size 2.09804 2.09804) (drill 1.39954) (layers *.Cu *.Paste *.Mask))
  (pad 6 thru_hole circle (at -20.955 0) (size 2.09804 2.09804) (drill 1.39954) (layers *.Cu *.Paste *.Mask))
  (pad 7 thru_hole circle (at -17.145 0) (size 2.09804 2.09804) (drill 1.39954) (layers *.Cu *.Paste *.Mask))
  (pad 8 thru_hole circle (at -13.335 0) (size 2.09804 2.09804) (drill 1.39954) (layers *.Cu *.Paste *.Mask))
  (pad 9 thru_hole circle (at -9.525 0) (size 2.09804 2.09804) (drill 1.39954) (layers *.Cu *.Paste *.Mask))
  (pad 10 thru_hole circle (at -5.715 0) (size 2.09804 2.09804) (drill 1.39954) (layers *.Cu *.Paste *.Mask))
  (pad 11 thru_hole circle (at -1.905 0) (size 2.09804 2.09804) (drill 1.39954) (layers *.Cu *.Paste *.Mask))
  (pad 12 thru_hole circle (at 1.905 0) (size 2.09804 2.09804) (drill 1.39954) (layers *.Cu *.Paste *.Mask))
  (pad 13 thru_hole circle (at 5.715 0) (size 2.09804 2.09804) (drill 1.39954) (layers *.Cu *.Paste *.Mask))
  (pad 14 thru_hole circle (at 9.525 0) (size 2.09804 2.09804) (drill 1.39954) (layers *.Cu *.Paste *.Mask))
  (pad 15 thru_hole circle (at 13.335 0) (size 2.09804 2.09804) (drill 1.39954) (layers *.Cu *.Paste *.Mask))
  (pad 16 thru_hole circle (at 17.145 0) (size 2.09804 2.09804) (drill 1.39954) (layers *.Cu *.Paste *.Mask))
  (pad 17 thru_hole circle (at 20.955 0) (size 2.09804 2.09804) (drill 1.39954) (layers *.Cu *.Paste *.Mask))
  (pad 18 thru_hole circle (at 24.765 0) (size 2.09804 2.09804) (drill 1.39954) (layers *.Cu *.Paste *.Mask))
  (pad 19 thru_hole circle (at 28.575 0) (size 2.09804 2.09804) (drill 1.39954) (layers *.Cu *.Paste *.Mask))
  (pad 20 thru_hole circle (at 32.385 0) (size 2.09804 2.09804) (drill 1.39954) (layers *.Cu *.Paste *.Mask))
  (pad 21 thru_hole circle (at 36.195 0) (size 2.09804 2.09804) (drill 1.39954) (layers *.Cu *.Paste *.Mask))
  (pad 22 thru_hole circle (at 40.005 0) (size 2.09804 2.09804) (drill 1.39954) (layers *.Cu *.Paste *.Mask))
)
