(module WR-TBL_Pluggable_Connector_rev20a-691305330003 (layer F.Cu) (tedit 200000)
  (descr "WR-TBL SERIE 3053 - 3.81 MM VERTICAL PCB HEADER")
  (tags "WR-TBL SERIE 3053 - 3.81 MM VERTICAL PCB HEADER")
  (attr virtual)
  (fp_text reference >NAME (at 0 -5.83438) (layer F.SilkS)
    (effects (font (size 1.27 1.27) (thickness 0.1016)))
  )
  (fp_text value >VALUE (at 0.5588 4.16306) (layer F.SilkS)
    (effects (font (size 1.27 1.27) (thickness 0.1016)))
  )
  (fp_line (start -6.31444 -4.39928) (end 6.31444 -4.39928) (layer Dwgs.User) (width 0.09906))
  (fp_line (start 6.31444 -4.39928) (end 6.31444 -0.94996) (layer Dwgs.User) (width 0.09906))
  (fp_line (start 6.31444 -0.94996) (end 7.46252 -0.94996) (layer Dwgs.User) (width 0.09906))
  (fp_line (start 7.46252 -0.94996) (end 7.46252 0.94996) (layer Dwgs.User) (width 0.09906))
  (fp_line (start 7.46252 0.94996) (end 6.31444 0.94996) (layer Dwgs.User) (width 0.09906))
  (fp_line (start 6.31444 0.94996) (end 6.31444 2.79908) (layer Dwgs.User) (width 0.09906))
  (fp_line (start 6.31444 2.79908) (end -6.31444 2.79908) (layer Dwgs.User) (width 0.09906))
  (fp_line (start -6.31444 2.79908) (end -6.31444 0.94996) (layer Dwgs.User) (width 0.09906))
  (fp_line (start -6.31444 0.94996) (end -7.46252 0.94996) (layer Dwgs.User) (width 0.09906))
  (fp_line (start -7.46252 0.94996) (end -7.46252 -0.94996) (layer Dwgs.User) (width 0.09906))
  (fp_line (start -7.46252 -0.94996) (end -6.31444 -0.94996) (layer Dwgs.User) (width 0.09906))
  (fp_line (start -6.31444 -0.94996) (end -6.31444 -4.39928) (layer Dwgs.User) (width 0.09906))
  (fp_line (start -6.4135 -4.49834) (end 6.4135 -4.49834) (layer F.SilkS) (width 0.19812))
  (fp_line (start 6.4135 -4.49834) (end 6.4135 -1.04902) (layer F.SilkS) (width 0.19812))
  (fp_line (start 6.4135 -1.04902) (end 7.56412 -1.04902) (layer F.SilkS) (width 0.19812))
  (fp_line (start 7.56412 -1.04902) (end 7.56412 1.04902) (layer F.SilkS) (width 0.19812))
  (fp_line (start 7.56412 1.04902) (end 6.4135 1.04902) (layer F.SilkS) (width 0.19812))
  (fp_line (start 6.4135 1.04902) (end 6.4135 2.89814) (layer F.SilkS) (width 0.19812))
  (fp_line (start 6.4135 2.89814) (end -6.4135 2.89814) (layer F.SilkS) (width 0.19812))
  (fp_line (start -6.4135 2.89814) (end -6.4135 1.04902) (layer F.SilkS) (width 0.19812))
  (fp_line (start -6.4135 1.04902) (end -7.56412 1.04902) (layer F.SilkS) (width 0.19812))
  (fp_line (start -7.56412 1.04902) (end -7.56412 -1.04902) (layer F.SilkS) (width 0.19812))
  (fp_line (start -7.56412 -1.04902) (end -6.4135 -1.04902) (layer F.SilkS) (width 0.19812))
  (fp_line (start -6.4135 -1.04902) (end -6.4135 -4.49834) (layer F.SilkS) (width 0.19812))
  (fp_poly (pts (xy -7.76478 -4.699) (xy 7.76478 -4.699) (xy 7.76478 3.0988) (xy -7.76478 3.0988)
    (xy -7.76478 -4.699)) (layer Dwgs.User) (width 0.09906))
  (fp_circle (center -4.80314 1.4986) (end -4.80314 1.39954) (layer F.SilkS) (width 0.39878))
  (pad 1 thru_hole circle (at -3.81 0) (size 2.09804 2.09804) (drill 1.39954) (layers *.Cu *.Paste *.Mask))
  (pad 2 thru_hole circle (at 0 0) (size 2.09804 2.09804) (drill 1.39954) (layers *.Cu *.Paste *.Mask))
  (pad 3 thru_hole circle (at 3.81 0) (size 2.09804 2.09804) (drill 1.39954) (layers *.Cu *.Paste *.Mask))
)
