(module WR-TBL_Pluggable_Connector_rev20a-691701500002B (layer F.Cu) (tedit 200000)
  (descr "WR-TBL SERIE 7015B - 5.08 MM OPEN VERTICAL PCB HEADER THR TYPE")
  (tags "WR-TBL SERIE 7015B - 5.08 MM OPEN VERTICAL PCB HEADER THR TYPE")
  (attr virtual)
  (fp_text reference >NAME (at 0 -6.1341) (layer F.SilkS)
    (effects (font (size 1.27 1.27) (thickness 0.1016)))
  )
  (fp_text value >VALUE (at 0.30988 5.36448) (layer F.SilkS)
    (effects (font (size 1.27 1.27) (thickness 0.1016)))
  )
  (fp_line (start 4.87934 -4.59994) (end -4.87934 -4.59994) (layer Dwgs.User) (width 0.09906))
  (fp_line (start -4.87934 -4.59994) (end -4.87934 3.8989) (layer Dwgs.User) (width 0.09906))
  (fp_line (start -4.87934 3.8989) (end 4.87934 3.8989) (layer Dwgs.User) (width 0.09906))
  (fp_line (start 4.87934 3.8989) (end 4.87934 -4.59994) (layer Dwgs.User) (width 0.09906))
  (fp_line (start -4.9784 -4.699) (end 4.9784 -4.699) (layer F.SilkS) (width 0.19812))
  (fp_line (start 4.9784 -4.699) (end 4.9784 3.99796) (layer F.SilkS) (width 0.19812))
  (fp_line (start 4.9784 3.99796) (end -4.9784 3.99796) (layer F.SilkS) (width 0.19812))
  (fp_line (start -4.9784 3.99796) (end -4.9784 -4.699) (layer F.SilkS) (width 0.19812))
  (fp_poly (pts (xy -5.17906 -4.89966) (xy 5.17906 -4.89966) (xy 5.17906 4.19862) (xy -5.17906 4.19862)
    (xy -5.17906 -4.89966)) (layer Dwgs.User) (width 0.09906))
  (fp_circle (center -3.69824 -1.99898) (end -3.69824 -2.09804) (layer F.SilkS) (width 0.39878))
  (pad 1 thru_hole circle (at -2.54 0) (size 2.39776 2.39776) (drill 1.59766) (layers *.Cu *.Paste *.Mask))
  (pad 2 thru_hole circle (at 2.54 0) (size 2.39776 2.39776) (drill 1.59766) (layers *.Cu *.Paste *.Mask))
)
