(module WR-TBL_Pluggable_Connector_rev20a-691325310005 (layer F.Cu) (tedit 200000)
  (descr "WR-TBL SERIE 3253 - 3.81 MM HORIZONTAL PCB HEADER WITH FLANGES")
  (tags "WR-TBL SERIE 3253 - 3.81 MM HORIZONTAL PCB HEADER WITH FLANGES")
  (attr virtual)
  (fp_text reference >NAME (at 0 -2.63398) (layer F.SilkS)
    (effects (font (size 1.27 1.27) (thickness 0.1016)))
  )
  (fp_text value >VALUE (at 0.30988 9.36498) (layer F.SilkS)
    (effects (font (size 1.27 1.27) (thickness 0.1016)))
  )
  (fp_line (start -14.7193 7.99846) (end 14.7193 7.99846) (layer Dwgs.User) (width 0.09906))
  (fp_line (start 14.7193 7.99846) (end 14.7193 -1.19888) (layer Dwgs.User) (width 0.09906))
  (fp_line (start 14.7193 -1.19888) (end -14.7193 -1.19888) (layer Dwgs.User) (width 0.09906))
  (fp_line (start -14.7193 -1.19888) (end -14.7193 7.99846) (layer Dwgs.User) (width 0.09906))
  (fp_line (start 8.21436 -1.29794) (end 14.81836 -1.29794) (layer F.SilkS) (width 0.19812))
  (fp_line (start 14.81836 -1.29794) (end 14.81836 8.09752) (layer F.SilkS) (width 0.19812))
  (fp_line (start 14.81836 8.09752) (end -14.81836 8.09752) (layer F.SilkS) (width 0.19812))
  (fp_line (start -14.81836 8.09752) (end -14.81836 -1.29794) (layer F.SilkS) (width 0.19812))
  (fp_line (start -14.81836 -1.29794) (end -8.21436 -1.29794) (layer F.SilkS) (width 0.19812))
  (fp_line (start -7.01294 -1.29794) (end -4.41452 -1.29794) (layer F.SilkS) (width 0.19812))
  (fp_line (start -3.20294 -1.29794) (end -0.60452 -1.29794) (layer F.SilkS) (width 0.19812))
  (fp_line (start 0.60452 -1.29794) (end 3.20294 -1.29794) (layer F.SilkS) (width 0.19812))
  (fp_line (start 4.41452 -1.29794) (end 7.01294 -1.29794) (layer F.SilkS) (width 0.19812))
  (fp_poly (pts (xy -15.01902 -1.4986) (xy 15.01902 -1.4986) (xy 15.01902 8.29818) (xy -15.01902 8.29818)
    (xy -15.01902 -1.4986)) (layer Dwgs.User) (width 0.09906))
  (fp_circle (center -9.51484 0.99822) (end -9.51484 0.89916) (layer F.SilkS) (width 0.39878))
  (pad 1 thru_hole circle (at -7.62 0) (size 2.09804 2.09804) (drill 1.39954) (layers *.Cu *.Paste *.Mask))
  (pad 2 thru_hole circle (at -3.81 0) (size 2.09804 2.09804) (drill 1.39954) (layers *.Cu *.Paste *.Mask))
  (pad 3 thru_hole circle (at 0 0) (size 2.09804 2.09804) (drill 1.39954) (layers *.Cu *.Paste *.Mask))
  (pad 4 thru_hole circle (at 3.81 0) (size 2.09804 2.09804) (drill 1.39954) (layers *.Cu *.Paste *.Mask))
  (pad 5 thru_hole circle (at 7.62 0) (size 2.09804 2.09804) (drill 1.39954) (layers *.Cu *.Paste *.Mask))
)
