(module WR-TBL_Pluggable_Connector_rev20a-691321300004 (layer F.Cu) (tedit 200000)
  (descr "WR-TBL SERIE 321 - 3.81 MM VERTICAL PCB HEADER")
  (tags "WR-TBL SERIE 321 - 3.81 MM VERTICAL PCB HEADER")
  (attr virtual)
  (fp_text reference >NAME (at 0 -5.63372) (layer F.SilkS)
    (effects (font (size 1.27 1.27) (thickness 0.1016)))
  )
  (fp_text value >VALUE (at 0.30988 4.36372) (layer F.SilkS)
    (effects (font (size 1.27 1.27) (thickness 0.1016)))
  )
  (fp_line (start 8.21436 -4.39928) (end -8.21436 -4.39928) (layer Dwgs.User) (width 0.09906))
  (fp_line (start -8.21436 -4.39928) (end -8.21436 2.79908) (layer Dwgs.User) (width 0.09906))
  (fp_line (start -8.21436 2.79908) (end 8.21436 2.79908) (layer Dwgs.User) (width 0.09906))
  (fp_line (start 8.21436 2.79908) (end 8.21436 -4.39928) (layer Dwgs.User) (width 0.09906))
  (fp_line (start -8.31342 -4.49834) (end 8.31342 -4.49834) (layer F.SilkS) (width 0.19812))
  (fp_line (start 8.31342 -4.49834) (end 8.31342 2.89814) (layer F.SilkS) (width 0.19812))
  (fp_line (start 8.31342 2.89814) (end -8.31342 2.89814) (layer F.SilkS) (width 0.19812))
  (fp_line (start -8.31342 2.89814) (end -8.31342 -4.49834) (layer F.SilkS) (width 0.19812))
  (fp_poly (pts (xy -8.51408 -4.699) (xy 8.51408 -4.699) (xy 8.51408 3.0988) (xy -8.51408 3.0988)
    (xy -8.51408 -4.699)) (layer Dwgs.User) (width 0.09906))
  (fp_circle (center -7.00786 -1.79832) (end -7.00786 -1.89738) (layer F.SilkS) (width 0.39878))
  (pad 1 thru_hole circle (at -5.715 0) (size 2.09804 2.09804) (drill 1.39954) (layers *.Cu *.Paste *.Mask))
  (pad 2 thru_hole circle (at -1.905 0) (size 2.09804 2.09804) (drill 1.39954) (layers *.Cu *.Paste *.Mask))
  (pad 3 thru_hole circle (at 1.905 0) (size 2.09804 2.09804) (drill 1.39954) (layers *.Cu *.Paste *.Mask))
  (pad 4 thru_hole circle (at 5.715 0) (size 2.09804 2.09804) (drill 1.39954) (layers *.Cu *.Paste *.Mask))
)
