(module WR-TBL_Pluggable_Connector_rev20a-691333500010 (layer F.Cu) (tedit 200000)
  (descr "WR-TBL SERIE 3335 - 5.08 MM DOUBLE LEVEL VERTICAL MALE PCB HEADER WITH FLANGES")
  (tags "WR-TBL SERIE 3335 - 5.08 MM DOUBLE LEVEL VERTICAL MALE PCB HEADER WITH FLANGES")
  (attr virtual)
  (fp_text reference >NAME (at 0 -16.13408) (layer F.SilkS)
    (effects (font (size 1.27 1.27) (thickness 0.1016)))
  )
  (fp_text value >VALUE (at 0.30988 15.36446) (layer F.SilkS)
    (effects (font (size 1.27 1.27) (thickness 0.1016)))
  )
  (fp_line (start -13.69822 -14.83868) (end 13.69822 -14.83868) (layer Dwgs.User) (width 0.09906))
  (fp_line (start 13.69822 -14.83868) (end 13.69822 13.95984) (layer Dwgs.User) (width 0.09906))
  (fp_line (start 13.69822 13.95984) (end -13.69822 13.95984) (layer Dwgs.User) (width 0.09906))
  (fp_line (start -13.69822 13.95984) (end -13.69822 -14.83868) (layer Dwgs.User) (width 0.09906))
  (fp_line (start -13.79982 -14.93774) (end 13.79982 -14.93774) (layer F.SilkS) (width 0.19812))
  (fp_line (start 13.79982 -14.93774) (end 13.79982 14.0589) (layer F.SilkS) (width 0.19812))
  (fp_line (start 13.79982 14.0589) (end -13.79982 14.0589) (layer F.SilkS) (width 0.19812))
  (fp_line (start -13.79982 14.0589) (end -13.79982 -14.93774) (layer F.SilkS) (width 0.19812))
  (fp_poly (pts (xy 13.99794 -15.1384) (xy 13.99794 14.25956) (xy -13.99794 14.25956) (xy -13.99794 -15.1384)
    (xy 13.99794 -15.1384)) (layer Dwgs.User) (width 0.09906))
  (fp_circle (center -11.61796 11.8999) (end -11.61796 11.70178) (layer F.SilkS) (width 0.39878))
  (pad 1 thru_hole circle (at -10.16 10.16) (size 2.39776 2.39776) (drill 1.59766) (layers *.Cu *.Paste *.Mask))
  (pad 2 thru_hole circle (at -5.08 10.16) (size 2.39776 2.39776) (drill 1.59766) (layers *.Cu *.Paste *.Mask))
  (pad 3 thru_hole circle (at 0 10.16) (size 2.39776 2.39776) (drill 1.59766) (layers *.Cu *.Paste *.Mask))
  (pad 4 thru_hole circle (at 5.08 10.16) (size 2.39776 2.39776) (drill 1.59766) (layers *.Cu *.Paste *.Mask))
  (pad 5 thru_hole circle (at 10.16 10.16) (size 2.39776 2.39776) (drill 1.59766) (layers *.Cu *.Paste *.Mask))
  (pad 6 thru_hole circle (at -10.16 -10.16) (size 2.39776 2.39776) (drill 1.59766) (layers *.Cu *.Paste *.Mask))
  (pad 7 thru_hole circle (at -5.08 -10.16) (size 2.39776 2.39776) (drill 1.59766) (layers *.Cu *.Paste *.Mask))
  (pad 8 thru_hole circle (at 0 -10.16) (size 2.39776 2.39776) (drill 1.59766) (layers *.Cu *.Paste *.Mask))
  (pad 9 thru_hole circle (at 5.08 -10.16) (size 2.39776 2.39776) (drill 1.59766) (layers *.Cu *.Paste *.Mask))
  (pad 10 thru_hole circle (at 10.16 -10.16) (size 2.39776 2.39776) (drill 1.59766) (layers *.Cu *.Paste *.Mask))
)
