(module WR-TBL_Pluggable_Connector_rev20a-691305330002 (layer F.Cu) (tedit 200000)
  (descr "WR-TBL SERIE 3053 - 3.81 MM VERTICAL PCB HEADER")
  (tags "WR-TBL SERIE 3053 - 3.81 MM VERTICAL PCB HEADER")
  (attr virtual)
  (fp_text reference >NAME (at 0 -5.83438) (layer F.SilkS)
    (effects (font (size 1.27 1.27) (thickness 0.1016)))
  )
  (fp_text value >VALUE (at 0.5588 4.16306) (layer F.SilkS)
    (effects (font (size 1.27 1.27) (thickness 0.1016)))
  )
  (fp_line (start -4.40944 -4.39928) (end 4.40944 -4.39928) (layer Dwgs.User) (width 0.09906))
  (fp_line (start 4.40944 -4.39928) (end 4.40944 -0.94996) (layer Dwgs.User) (width 0.09906))
  (fp_line (start 4.40944 -0.94996) (end 5.55752 -0.94996) (layer Dwgs.User) (width 0.09906))
  (fp_line (start 5.55752 -0.94996) (end 5.55752 0.94996) (layer Dwgs.User) (width 0.09906))
  (fp_line (start 5.55752 0.94996) (end 4.40944 0.94996) (layer Dwgs.User) (width 0.09906))
  (fp_line (start 4.40944 0.94996) (end 4.40944 2.79908) (layer Dwgs.User) (width 0.09906))
  (fp_line (start 4.40944 2.79908) (end -4.40944 2.79908) (layer Dwgs.User) (width 0.09906))
  (fp_line (start -4.40944 2.79908) (end -4.40944 0.94996) (layer Dwgs.User) (width 0.09906))
  (fp_line (start -4.40944 0.94996) (end -5.55752 0.94996) (layer Dwgs.User) (width 0.09906))
  (fp_line (start -5.55752 0.94996) (end -5.55752 -0.94996) (layer Dwgs.User) (width 0.09906))
  (fp_line (start -5.55752 -0.94996) (end -4.40944 -0.94996) (layer Dwgs.User) (width 0.09906))
  (fp_line (start -4.40944 -0.94996) (end -4.40944 -4.39928) (layer Dwgs.User) (width 0.09906))
  (fp_line (start -4.5085 -4.49834) (end 4.5085 -4.49834) (layer F.SilkS) (width 0.19812))
  (fp_line (start 4.5085 -4.49834) (end 4.5085 -1.04902) (layer F.SilkS) (width 0.19812))
  (fp_line (start 4.5085 -1.04902) (end 5.65912 -1.04902) (layer F.SilkS) (width 0.19812))
  (fp_line (start 5.65912 -1.04902) (end 5.65912 1.04902) (layer F.SilkS) (width 0.19812))
  (fp_line (start 5.65912 1.04902) (end 4.5085 1.04902) (layer F.SilkS) (width 0.19812))
  (fp_line (start 4.5085 1.04902) (end 4.5085 2.89814) (layer F.SilkS) (width 0.19812))
  (fp_line (start 4.5085 2.89814) (end -4.5085 2.89814) (layer F.SilkS) (width 0.19812))
  (fp_line (start -4.5085 2.89814) (end -4.5085 1.04902) (layer F.SilkS) (width 0.19812))
  (fp_line (start -4.5085 1.04902) (end -5.65912 1.04902) (layer F.SilkS) (width 0.19812))
  (fp_line (start -5.65912 1.04902) (end -5.65912 -1.04902) (layer F.SilkS) (width 0.19812))
  (fp_line (start -5.65912 -1.04902) (end -4.5085 -1.04902) (layer F.SilkS) (width 0.19812))
  (fp_line (start -4.5085 -1.04902) (end -4.5085 -4.49834) (layer F.SilkS) (width 0.19812))
  (fp_poly (pts (xy -5.85978 -4.699) (xy 5.85978 -4.699) (xy 5.85978 3.0988) (xy -5.85978 3.0988)
    (xy -5.85978 -4.699)) (layer Dwgs.User) (width 0.09906))
  (fp_circle (center -2.89814 1.4986) (end -2.89814 1.39954) (layer F.SilkS) (width 0.39878))
  (pad 1 thru_hole circle (at -1.905 0) (size 2.09804 2.09804) (drill 1.39954) (layers *.Cu *.Paste *.Mask))
  (pad 2 thru_hole circle (at 1.905 0) (size 2.09804 2.09804) (drill 1.39954) (layers *.Cu *.Paste *.Mask))
)
