(module WR-TBL_Pluggable_Connector_rev20a-691701520010B (layer F.Cu) (tedit 200000)
  (descr "WR-TBL SERIE 7015B - 5.08 MM CLOSE VERTICAL PCB HEADER THR TYPE W. FLANGES")
  (tags "WR-TBL SERIE 7015B - 5.08 MM CLOSE VERTICAL PCB HEADER THR TYPE W. FLANGES")
  (attr virtual)
  (fp_text reference >NAME (at 0 -6.1341) (layer F.SilkS)
    (effects (font (size 1.27 1.27) (thickness 0.1016)))
  )
  (fp_text value >VALUE (at 0.30988 5.36448) (layer F.SilkS)
    (effects (font (size 1.27 1.27) (thickness 0.1016)))
  )
  (fp_line (start -30.48 3.8989) (end 30.48 3.8989) (layer Dwgs.User) (width 0.09906))
  (fp_line (start 30.48 -4.59994) (end -30.48 -4.59994) (layer Dwgs.User) (width 0.09906))
  (fp_line (start -30.48 -4.59994) (end -30.48 3.8989) (layer Dwgs.User) (width 0.09906))
  (fp_line (start 30.48 3.8989) (end 30.48 -4.59994) (layer Dwgs.User) (width 0.09906))
  (fp_line (start -30.57906 -4.699) (end 30.57906 -4.699) (layer F.SilkS) (width 0.19812))
  (fp_line (start 30.57906 -4.699) (end 30.57906 3.99796) (layer F.SilkS) (width 0.19812))
  (fp_line (start 30.57906 3.99796) (end -30.57906 3.99796) (layer F.SilkS) (width 0.19812))
  (fp_line (start -30.57906 3.99796) (end -30.57906 -4.699) (layer F.SilkS) (width 0.19812))
  (fp_poly (pts (xy -30.77972 -4.89966) (xy 30.77972 -4.89966) (xy 30.77972 4.19862) (xy -30.77972 4.19862)
    (xy -30.77972 -4.89966)) (layer Dwgs.User) (width 0.09906))
  (fp_circle (center -24.41956 -1.59766) (end -24.41956 -1.69672) (layer F.SilkS) (width 0.39878))
  (pad 1 thru_hole circle (at -22.86 0) (size 2.39776 2.39776) (drill 1.59766) (layers *.Cu *.Paste *.Mask))
  (pad 2 thru_hole circle (at -17.78 0) (size 2.39776 2.39776) (drill 1.59766) (layers *.Cu *.Paste *.Mask))
  (pad 3 thru_hole circle (at -12.7 0) (size 2.39776 2.39776) (drill 1.59766) (layers *.Cu *.Paste *.Mask))
  (pad 4 thru_hole circle (at -7.62 0) (size 2.39776 2.39776) (drill 1.59766) (layers *.Cu *.Paste *.Mask))
  (pad 5 thru_hole circle (at -2.54 0) (size 2.39776 2.39776) (drill 1.59766) (layers *.Cu *.Paste *.Mask))
  (pad 6 thru_hole circle (at 2.54 0) (size 2.39776 2.39776) (drill 1.59766) (layers *.Cu *.Paste *.Mask))
  (pad 7 thru_hole circle (at 7.62 0) (size 2.39776 2.39776) (drill 1.59766) (layers *.Cu *.Paste *.Mask))
  (pad 8 thru_hole circle (at 12.7 0) (size 2.39776 2.39776) (drill 1.59766) (layers *.Cu *.Paste *.Mask))
  (pad 9 thru_hole circle (at 17.78 0) (size 2.39776 2.39776) (drill 1.59766) (layers *.Cu *.Paste *.Mask))
  (pad 10 thru_hole circle (at 22.86 0) (size 2.39776 2.39776) (drill 1.59766) (layers *.Cu *.Paste *.Mask))
)
