(module WR-TBL_Pluggable_Connector_rev20a-691321300013 (layer F.Cu) (tedit 200000)
  (descr "WR-TBL SERIE 321 - 3.81 MM VERTICAL PCB HEADER")
  (tags "WR-TBL SERIE 321 - 3.81 MM VERTICAL PCB HEADER")
  (attr virtual)
  (fp_text reference >NAME (at -1.905 -5.63372) (layer F.SilkS)
    (effects (font (size 1.27 1.27) (thickness 0.1016)))
  )
  (fp_text value >VALUE (at -1.59258 4.36372) (layer F.SilkS)
    (effects (font (size 1.27 1.27) (thickness 0.1016)))
  )
  (fp_line (start 25.35936 -4.39928) (end -25.35936 -4.39928) (layer Dwgs.User) (width 0.09906))
  (fp_line (start -25.35936 -4.39928) (end -25.35936 2.79908) (layer Dwgs.User) (width 0.09906))
  (fp_line (start -25.35936 2.79908) (end 25.35936 2.79908) (layer Dwgs.User) (width 0.09906))
  (fp_line (start 25.35936 2.79908) (end 25.35936 -4.39928) (layer Dwgs.User) (width 0.09906))
  (fp_line (start -25.45842 -4.49834) (end 25.45842 -4.49834) (layer F.SilkS) (width 0.19812))
  (fp_line (start 25.45842 -4.49834) (end 25.45842 2.89814) (layer F.SilkS) (width 0.19812))
  (fp_line (start 25.45842 2.89814) (end -25.45842 2.89814) (layer F.SilkS) (width 0.19812))
  (fp_line (start -25.45842 2.89814) (end -25.45842 -4.49834) (layer F.SilkS) (width 0.19812))
  (fp_poly (pts (xy -25.65908 -4.699) (xy 25.65908 -4.699) (xy 25.65908 3.0988) (xy -25.65908 3.0988)
    (xy -25.65908 -4.699)) (layer Dwgs.User) (width 0.09906))
  (fp_circle (center -24.15286 -1.79832) (end -24.15286 -1.89738) (layer F.SilkS) (width 0.39878))
  (pad 1 thru_hole circle (at -22.86 0) (size 2.09804 2.09804) (drill 1.39954) (layers *.Cu *.Paste *.Mask))
  (pad 2 thru_hole circle (at -19.05 0) (size 2.09804 2.09804) (drill 1.39954) (layers *.Cu *.Paste *.Mask))
  (pad 3 thru_hole circle (at -15.24 0) (size 2.09804 2.09804) (drill 1.39954) (layers *.Cu *.Paste *.Mask))
  (pad 4 thru_hole circle (at -11.43 0) (size 2.09804 2.09804) (drill 1.39954) (layers *.Cu *.Paste *.Mask))
  (pad 5 thru_hole circle (at -7.62 0) (size 2.09804 2.09804) (drill 1.39954) (layers *.Cu *.Paste *.Mask))
  (pad 6 thru_hole circle (at -3.81 0) (size 2.09804 2.09804) (drill 1.39954) (layers *.Cu *.Paste *.Mask))
  (pad 7 thru_hole circle (at 0 0) (size 2.09804 2.09804) (drill 1.39954) (layers *.Cu *.Paste *.Mask))
  (pad 8 thru_hole circle (at 3.81 0) (size 2.09804 2.09804) (drill 1.39954) (layers *.Cu *.Paste *.Mask))
  (pad 9 thru_hole circle (at 7.62 0) (size 2.09804 2.09804) (drill 1.39954) (layers *.Cu *.Paste *.Mask))
  (pad 10 thru_hole circle (at 11.43 0) (size 2.09804 2.09804) (drill 1.39954) (layers *.Cu *.Paste *.Mask))
  (pad 11 thru_hole circle (at 15.24 0) (size 2.09804 2.09804) (drill 1.39954) (layers *.Cu *.Paste *.Mask))
  (pad 12 thru_hole circle (at 19.05 0) (size 2.09804 2.09804) (drill 1.39954) (layers *.Cu *.Paste *.Mask))
  (pad 13 thru_hole circle (at 22.86 0) (size 2.09804 2.09804) (drill 1.39954) (layers *.Cu *.Paste *.Mask))
)
