(module WR-TBL_Pluggable_Connector_rev20a-691701550002B (layer F.Cu) (tedit 200000)
  (descr "WR-TBL SERIE 7015B - 5.08 MM CLOSED HORIZONTAL PCB HEADER THR TYPE WITH FLANGES")
  (tags "WR-TBL SERIE 7015B - 5.08 MM CLOSED HORIZONTAL PCB HEADER THR TYPE WITH FLANGES")
  (attr virtual)
  (fp_text reference "" (at 0 0) (layer F.SilkS)
    (effects (font (size 1.27 1.27) (thickness 0.15)))
  )
  (fp_text value >VALUE (at 0.30988 11.36396) (layer F.SilkS)
    (effects (font (size 1.27 1.27) (thickness 0.1016)))
  )
  (fp_line (start 10.16 -2.09804) (end -10.16 -2.09804) (layer Dwgs.User) (width 0.09906))
  (fp_line (start -10.16 -2.09804) (end -10.16 9.89838) (layer Dwgs.User) (width 0.09906))
  (fp_line (start -10.16 9.89838) (end 10.16 9.89838) (layer Dwgs.User) (width 0.09906))
  (fp_line (start 10.16 9.89838) (end 10.16 -2.09804) (layer Dwgs.User) (width 0.09906))
  (fp_line (start -10.25906 -2.19964) (end 10.25906 -2.19964) (layer F.SilkS) (width 0.19812))
  (fp_line (start 10.25906 -2.19964) (end 10.25906 9.99998) (layer F.SilkS) (width 0.19812))
  (fp_line (start 10.25906 9.99998) (end -10.25906 9.99998) (layer F.SilkS) (width 0.19812))
  (fp_line (start -10.25906 9.99998) (end -10.25906 -2.19964) (layer F.SilkS) (width 0.19812))
  (fp_poly (pts (xy -10.45972 -2.39776) (xy 10.45972 -2.39776) (xy 10.45972 10.1981) (xy -10.45972 10.1981)
    (xy -10.45972 -2.39776)) (layer Dwgs.User) (width 0.09906))
  (fp_circle (center -4.99872 -1.09982) (end -4.99872 -1.19888) (layer F.SilkS) (width 0.39878))
  (fp_text user ">NAME " (at 0 -3.63474) (layer F.SilkS)
    (effects (font (size 1.27 1.27) (thickness 0.1016)))
  )
  (pad 1 thru_hole circle (at -2.54 0) (size 2.39776 2.39776) (drill 1.59766) (layers *.Cu *.Paste *.Mask))
  (pad 2 thru_hole circle (at 2.54 0) (size 2.39776 2.39776) (drill 1.59766) (layers *.Cu *.Paste *.Mask))
)
