(module WR-TBL_Pluggable_Connector_rev20a-691311500013 (layer F.Cu) (tedit 200000)
  (descr "WR-TBL SERIE 311 - 5.08 MM OPEN VERTICAL PCB HEADER")
  (tags "WR-TBL SERIE 311 - 5.08 MM OPEN VERTICAL PCB HEADER")
  (attr virtual)
  (fp_text reference >NAME (at 0 -5.13334) (layer F.SilkS)
    (effects (font (size 1.27 1.27) (thickness 0.1016)))
  )
  (fp_text value >VALUE (at 0.30988 6.3627) (layer F.SilkS)
    (effects (font (size 1.27 1.27) (thickness 0.1016)))
  )
  (fp_line (start 33.02 -3.79984) (end -33.02 -3.79984) (layer Dwgs.User) (width 0.09906))
  (fp_line (start -33.02 -3.79984) (end -33.02 4.699) (layer Dwgs.User) (width 0.09906))
  (fp_line (start -33.02 4.699) (end 33.02 4.699) (layer Dwgs.User) (width 0.09906))
  (fp_line (start 33.02 4.699) (end 33.02 -3.79984) (layer Dwgs.User) (width 0.09906))
  (fp_line (start -33.11906 -3.8989) (end 33.11906 -3.8989) (layer F.SilkS) (width 0.19812))
  (fp_line (start 33.11906 -3.8989) (end 33.11906 4.79806) (layer F.SilkS) (width 0.19812))
  (fp_line (start 33.11906 4.79806) (end -33.11906 4.79806) (layer F.SilkS) (width 0.19812))
  (fp_line (start -33.11906 4.79806) (end -33.11906 -3.8989) (layer F.SilkS) (width 0.19812))
  (fp_poly (pts (xy 33.31972 -4.09956) (xy 33.31972 4.99872) (xy -33.31972 4.99872) (xy -33.31972 -4.09956)
    (xy 33.31972 -4.09956)) (layer Dwgs.User) (width 0.09906))
  (fp_circle (center -31.73984 -1.79832) (end -31.73984 -1.89738) (layer F.SilkS) (width 0.39878))
  (pad 1 thru_hole circle (at -30.48 0) (size 2.39776 2.39776) (drill 1.59766) (layers *.Cu *.Paste *.Mask))
  (pad 2 thru_hole circle (at -25.4 0) (size 2.39776 2.39776) (drill 1.59766) (layers *.Cu *.Paste *.Mask))
  (pad 3 thru_hole circle (at -20.32 0) (size 2.39776 2.39776) (drill 1.59766) (layers *.Cu *.Paste *.Mask))
  (pad 4 thru_hole circle (at -15.24 0) (size 2.39776 2.39776) (drill 1.59766) (layers *.Cu *.Paste *.Mask))
  (pad 5 thru_hole circle (at -10.16 0) (size 2.39776 2.39776) (drill 1.59766) (layers *.Cu *.Paste *.Mask))
  (pad 6 thru_hole circle (at -5.08 0) (size 2.39776 2.39776) (drill 1.59766) (layers *.Cu *.Paste *.Mask))
  (pad 7 thru_hole circle (at 0 0) (size 2.39776 2.39776) (drill 1.59766) (layers *.Cu *.Paste *.Mask))
  (pad 8 thru_hole circle (at 5.08 0) (size 2.39776 2.39776) (drill 1.59766) (layers *.Cu *.Paste *.Mask))
  (pad 9 thru_hole circle (at 10.16 0) (size 2.39776 2.39776) (drill 1.59766) (layers *.Cu *.Paste *.Mask))
  (pad 10 thru_hole circle (at 15.24 0) (size 2.39776 2.39776) (drill 1.59766) (layers *.Cu *.Paste *.Mask))
  (pad 11 thru_hole circle (at 20.32 0) (size 2.39776 2.39776) (drill 1.59766) (layers *.Cu *.Paste *.Mask))
  (pad 12 thru_hole circle (at 25.4 0) (size 2.39776 2.39776) (drill 1.59766) (layers *.Cu *.Paste *.Mask))
  (pad 13 thru_hole circle (at 30.48 0) (size 2.39776 2.39776) (drill 1.59766) (layers *.Cu *.Paste *.Mask))
)
