(module WR-TBL_Pluggable_Connector_rev20a-691312510023 (layer F.Cu) (tedit 200000)
  (descr "WR-TBL SERIE 312 - 5.08 MM OPEN HORIZONTAL PCB HEADER")
  (tags "WR-TBL SERIE 312 - 5.08 MM OPEN HORIZONTAL PCB HEADER")
  (attr virtual)
  (fp_text reference >NAME (at 0 -3.63474) (layer F.SilkS)
    (effects (font (size 1.27 1.27) (thickness 0.1016)))
  )
  (fp_text value >VALUE (at 0.30988 11.36396) (layer F.SilkS)
    (effects (font (size 1.27 1.27) (thickness 0.1016)))
  )
  (fp_line (start 58.42 -1.99898) (end -58.42 -1.99898) (layer Dwgs.User) (width 0.09906))
  (fp_line (start -58.42 -1.99898) (end -58.42 9.99998) (layer Dwgs.User) (width 0.09906))
  (fp_line (start -58.42 9.99998) (end 58.42 9.99998) (layer Dwgs.User) (width 0.09906))
  (fp_line (start 58.42 9.99998) (end 58.42 -1.99898) (layer Dwgs.User) (width 0.09906))
  (fp_line (start -58.51906 -2.09804) (end 58.51906 -2.09804) (layer F.SilkS) (width 0.19812))
  (fp_line (start 58.51906 -2.09804) (end 58.51906 10.09904) (layer F.SilkS) (width 0.19812))
  (fp_line (start -58.51906 -2.09804) (end -58.51906 10.09904) (layer F.SilkS) (width 0.19812))
  (fp_line (start -58.51906 10.09904) (end 58.51906 10.09904) (layer F.SilkS) (width 0.19812))
  (fp_poly (pts (xy -58.71972 -2.2987) (xy 58.71972 -2.2987) (xy 58.71972 10.2997) (xy -58.71972 10.2997)
    (xy -58.71972 -2.2987)) (layer Dwgs.User) (width 0.09906))
  (fp_circle (center -57.63768 -1.29794) (end -57.63768 -1.397) (layer F.SilkS) (width 0.39878))
  (pad 1 thru_hole circle (at -55.88 0) (size 2.39776 2.39776) (drill 1.59766) (layers *.Cu *.Paste *.Mask))
  (pad 2 thru_hole circle (at -50.8 0) (size 2.39776 2.39776) (drill 1.59766) (layers *.Cu *.Paste *.Mask))
  (pad 3 thru_hole circle (at -45.72 0) (size 2.39776 2.39776) (drill 1.59766) (layers *.Cu *.Paste *.Mask))
  (pad 4 thru_hole circle (at -40.64 0) (size 2.39776 2.39776) (drill 1.59766) (layers *.Cu *.Paste *.Mask))
  (pad 5 thru_hole circle (at -35.56 0) (size 2.39776 2.39776) (drill 1.59766) (layers *.Cu *.Paste *.Mask))
  (pad 6 thru_hole circle (at -30.48 0) (size 2.39776 2.39776) (drill 1.59766) (layers *.Cu *.Paste *.Mask))
  (pad 7 thru_hole circle (at -25.4 0) (size 2.39776 2.39776) (drill 1.59766) (layers *.Cu *.Paste *.Mask))
  (pad 8 thru_hole circle (at -20.32 0) (size 2.39776 2.39776) (drill 1.59766) (layers *.Cu *.Paste *.Mask))
  (pad 9 thru_hole circle (at -15.24 0) (size 2.39776 2.39776) (drill 1.59766) (layers *.Cu *.Paste *.Mask))
  (pad 10 thru_hole circle (at -10.16 0) (size 2.39776 2.39776) (drill 1.59766) (layers *.Cu *.Paste *.Mask))
  (pad 11 thru_hole circle (at -5.08 0) (size 2.39776 2.39776) (drill 1.59766) (layers *.Cu *.Paste *.Mask))
  (pad 12 thru_hole circle (at 0 0) (size 2.39776 2.39776) (drill 1.59766) (layers *.Cu *.Paste *.Mask))
  (pad 13 thru_hole circle (at 5.08 0) (size 2.39776 2.39776) (drill 1.59766) (layers *.Cu *.Paste *.Mask))
  (pad 14 thru_hole circle (at 10.16 0) (size 2.39776 2.39776) (drill 1.59766) (layers *.Cu *.Paste *.Mask))
  (pad 15 thru_hole circle (at 15.24 0) (size 2.39776 2.39776) (drill 1.59766) (layers *.Cu *.Paste *.Mask))
  (pad 16 thru_hole circle (at 20.32 0) (size 2.39776 2.39776) (drill 1.59766) (layers *.Cu *.Paste *.Mask))
  (pad 17 thru_hole circle (at 25.4 0) (size 2.39776 2.39776) (drill 1.59766) (layers *.Cu *.Paste *.Mask))
  (pad 18 thru_hole circle (at 30.48 0) (size 2.39776 2.39776) (drill 1.59766) (layers *.Cu *.Paste *.Mask))
  (pad 19 thru_hole circle (at 35.56 0) (size 2.39776 2.39776) (drill 1.59766) (layers *.Cu *.Paste *.Mask))
  (pad 20 thru_hole circle (at 40.64 0) (size 2.39776 2.39776) (drill 1.59766) (layers *.Cu *.Paste *.Mask))
  (pad 21 thru_hole circle (at 45.72 0) (size 2.39776 2.39776) (drill 1.59766) (layers *.Cu *.Paste *.Mask))
  (pad 22 thru_hole circle (at 50.8 0) (size 2.39776 2.39776) (drill 1.59766) (layers *.Cu *.Paste *.Mask))
  (pad 23 thru_hole circle (at 55.88 0) (size 2.39776 2.39776) (drill 1.59766) (layers *.Cu *.Paste *.Mask))
)
