(module WR-TBL_Pluggable_Connector_rev20a-691327310008 (layer F.Cu) (tedit 200000)
  (descr "WR-TBL SERIE 3273 - 3.81 MM DOUBLE LEVEL HORIZONTAL MALE PCB HEADER WITH FLANGES")
  (tags "WR-TBL SERIE 3273 - 3.81 MM DOUBLE LEVEL HORIZONTAL MALE PCB HEADER WITH FLANGES")
  (attr virtual)
  (fp_text reference >NAME (at 0 -9.13384) (layer F.SilkS)
    (effects (font (size 1.27 1.27) (thickness 0.1016)))
  )
  (fp_text value >VALUE (at 0.30988 15.86484) (layer F.SilkS)
    (effects (font (size 1.27 1.27) (thickness 0.1016)))
  )
  (fp_line (start -8.21436 -7.64794) (end -8.21436 14.34846) (layer Dwgs.User) (width 0.09906))
  (fp_line (start -8.21436 14.34846) (end 8.21436 14.34846) (layer Dwgs.User) (width 0.09906))
  (fp_line (start 8.21436 14.34846) (end 8.21436 -7.64794) (layer Dwgs.User) (width 0.09906))
  (fp_line (start 8.21436 -7.64794) (end -8.21436 -7.64794) (layer Dwgs.User) (width 0.09906))
  (fp_line (start -8.31342 -7.74954) (end 8.31342 -7.74954) (layer F.SilkS) (width 0.19812))
  (fp_line (start 8.31342 -7.74954) (end 8.31342 14.44752) (layer F.SilkS) (width 0.19812))
  (fp_line (start 8.31342 14.44752) (end -8.31342 14.44752) (layer F.SilkS) (width 0.19812))
  (fp_line (start -8.31342 14.44752) (end -8.31342 -7.74954) (layer F.SilkS) (width 0.19812))
  (fp_poly (pts (xy -8.51408 -7.94766) (xy 8.51408 -7.94766) (xy 8.51408 14.64818) (xy -8.51408 14.64818)
    (xy -8.51408 -7.94766)) (layer Dwgs.User) (width 0.09906))
  (fp_circle (center -6.9088 7.99846) (end -6.9088 7.8994) (layer F.SilkS) (width 0.39878))
  (pad 1 thru_hole circle (at -5.715 6.35) (size 1.94818 1.94818) (drill 1.29794) (layers *.Cu *.Paste *.Mask))
  (pad 2 thru_hole circle (at -1.905 6.35) (size 1.94818 1.94818) (drill 1.29794) (layers *.Cu *.Paste *.Mask))
  (pad 3 thru_hole circle (at 1.905 6.35) (size 1.94818 1.94818) (drill 1.29794) (layers *.Cu *.Paste *.Mask))
  (pad 4 thru_hole circle (at 5.715 6.35) (size 1.94818 1.94818) (drill 1.29794) (layers *.Cu *.Paste *.Mask))
  (pad 5 thru_hole circle (at -5.715 -6.35) (size 1.94818 1.94818) (drill 1.29794) (layers *.Cu *.Paste *.Mask))
  (pad 6 thru_hole circle (at -1.905 -6.35) (size 1.94818 1.94818) (drill 1.29794) (layers *.Cu *.Paste *.Mask))
  (pad 7 thru_hole circle (at 1.905 -6.35) (size 1.94818 1.94818) (drill 1.29794) (layers *.Cu *.Paste *.Mask))
  (pad 8 thru_hole circle (at 5.715 -6.35) (size 1.94818 1.94818) (drill 1.29794) (layers *.Cu *.Paste *.Mask))
)
