(module WR-TBL_Pluggable_Connector_rev20a-691313510011 (layer F.Cu) (tedit 200000)
  (descr "WR-TBL SERIE 313 - 5.08 MM CLOSE HORIZONTAL PCB HEADER")
  (tags "WR-TBL SERIE 313 - 5.08 MM CLOSE HORIZONTAL PCB HEADER")
  (attr virtual)
  (fp_text reference >NAME (at 0 -3.63474) (layer F.SilkS)
    (effects (font (size 1.27 1.27) (thickness 0.1016)))
  )
  (fp_text value >VALUE (at 0.30988 11.36396) (layer F.SilkS)
    (effects (font (size 1.27 1.27) (thickness 0.1016)))
  )
  (fp_line (start 28.93822 -1.99898) (end -28.93822 -1.99898) (layer Dwgs.User) (width 0.09906))
  (fp_line (start -28.93822 -1.99898) (end -28.93822 9.99998) (layer Dwgs.User) (width 0.09906))
  (fp_line (start -28.93822 9.99998) (end 28.93822 9.99998) (layer Dwgs.User) (width 0.09906))
  (fp_line (start 28.93822 9.99998) (end 28.93822 -1.99898) (layer Dwgs.User) (width 0.09906))
  (fp_line (start -29.03982 -2.09804) (end 29.03982 -2.09804) (layer F.SilkS) (width 0.19812))
  (fp_line (start 29.03982 -2.09804) (end 29.03982 10.09904) (layer F.SilkS) (width 0.19812))
  (fp_line (start 29.03982 10.09904) (end -29.03982 10.09904) (layer F.SilkS) (width 0.19812))
  (fp_line (start -29.03982 10.09904) (end -29.03982 -2.09804) (layer F.SilkS) (width 0.19812))
  (fp_poly (pts (xy -29.23794 -2.2987) (xy 29.23794 -2.2987) (xy 29.23794 10.2997) (xy -29.23794 10.2997)
    (xy -29.23794 -2.2987)) (layer Dwgs.User) (width 0.09906))
  (fp_circle (center -27.45994 -0.89916) (end -27.45994 -1.09728) (layer F.SilkS) (width 0.39878))
  (pad 1 thru_hole circle (at -25.4 0) (size 2.39776 2.39776) (drill 1.59766) (layers *.Cu *.Paste *.Mask))
  (pad 2 thru_hole circle (at -20.32 0) (size 2.39776 2.39776) (drill 1.59766) (layers *.Cu *.Paste *.Mask))
  (pad 3 thru_hole circle (at -15.24 0) (size 2.39776 2.39776) (drill 1.59766) (layers *.Cu *.Paste *.Mask))
  (pad 4 thru_hole circle (at -10.16 0) (size 2.39776 2.39776) (drill 1.59766) (layers *.Cu *.Paste *.Mask))
  (pad 5 thru_hole circle (at -5.08 0) (size 2.39776 2.39776) (drill 1.59766) (layers *.Cu *.Paste *.Mask))
  (pad 6 thru_hole circle (at 0 0) (size 2.39776 2.39776) (drill 1.59766) (layers *.Cu *.Paste *.Mask))
  (pad 7 thru_hole circle (at 5.08 0) (size 2.39776 2.39776) (drill 1.59766) (layers *.Cu *.Paste *.Mask))
  (pad 8 thru_hole circle (at 10.16 0) (size 2.39776 2.39776) (drill 1.59766) (layers *.Cu *.Paste *.Mask))
  (pad 9 thru_hole circle (at 15.24 0) (size 2.39776 2.39776) (drill 1.59766) (layers *.Cu *.Paste *.Mask))
  (pad 10 thru_hole circle (at 20.32 0) (size 2.39776 2.39776) (drill 1.59766) (layers *.Cu *.Paste *.Mask))
  (pad 11 thru_hole circle (at 25.4 0) (size 2.39776 2.39776) (drill 1.59766) (layers *.Cu *.Paste *.Mask))
)
