(module WR-TBL_Pluggable_Connector_rev20a-691330300016 (layer F.Cu) (tedit 200000)
  (descr "WR-TBL SERIE 3303 - 3.81 MM DOUBLE LEVEL VERTICAL MALE PCB HEADER WITH FLANGES & NUT TYPE")
  (tags "WR-TBL SERIE 3303 - 3.81 MM DOUBLE LEVEL VERTICAL MALE PCB HEADER WITH FLANGES & NUT TYPE")
  (attr virtual)
  (fp_text reference >NAME (at 0 -11.83386) (layer F.SilkS)
    (effects (font (size 1.27 1.27) (thickness 0.1016)))
  )
  (fp_text value >VALUE (at 0.30988 13.86332) (layer F.SilkS)
    (effects (font (size 1.27 1.27) (thickness 0.1016)))
  )
  (fp_line (start -20.4343 -10.2997) (end 20.4343 -10.2997) (layer Dwgs.User) (width 0.09906))
  (fp_line (start 20.4343 -10.2997) (end 20.4343 12.39774) (layer Dwgs.User) (width 0.09906))
  (fp_line (start 20.4343 12.39774) (end -20.4343 12.39774) (layer Dwgs.User) (width 0.09906))
  (fp_line (start -20.4343 12.39774) (end -20.4343 -10.2997) (layer Dwgs.User) (width 0.09906))
  (fp_line (start -20.53336 -10.39876) (end 20.53336 -10.39876) (layer F.SilkS) (width 0.19812))
  (fp_line (start 20.53336 -10.39876) (end 20.53336 12.49934) (layer F.SilkS) (width 0.19812))
  (fp_line (start 20.53336 12.49934) (end -20.53336 12.49934) (layer F.SilkS) (width 0.19812))
  (fp_line (start -20.53336 12.49934) (end -20.53336 -10.39876) (layer F.SilkS) (width 0.19812))
  (fp_poly (pts (xy -20.73402 -10.59942) (xy 20.73402 -10.59942) (xy 20.73402 12.7) (xy -20.73402 12.7)
    (xy -20.73402 -10.59942)) (layer Dwgs.User) (width 0.09906))
  (fp_circle (center -15.22984 8.79856) (end -15.22984 8.60044) (layer F.SilkS) (width 0.39878))
  (pad 1 thru_hole circle (at -13.335 7.49808) (size 2.09804 2.09804) (drill 1.39954) (layers *.Cu *.Paste *.Mask))
  (pad 2 thru_hole circle (at -9.525 7.49808) (size 2.09804 2.09804) (drill 1.39954) (layers *.Cu *.Paste *.Mask))
  (pad 3 thru_hole circle (at -5.715 7.49808) (size 2.09804 2.09804) (drill 1.39954) (layers *.Cu *.Paste *.Mask))
  (pad 4 thru_hole circle (at -1.905 7.49808) (size 2.09804 2.09804) (drill 1.39954) (layers *.Cu *.Paste *.Mask))
  (pad 5 thru_hole circle (at 1.905 7.49808) (size 2.09804 2.09804) (drill 1.39954) (layers *.Cu *.Paste *.Mask))
  (pad 6 thru_hole circle (at 5.715 7.49808) (size 2.09804 2.09804) (drill 1.39954) (layers *.Cu *.Paste *.Mask))
  (pad 7 thru_hole circle (at 9.525 7.49808) (size 2.09804 2.09804) (drill 1.39954) (layers *.Cu *.Paste *.Mask))
  (pad 8 thru_hole circle (at 13.335 7.49808) (size 2.09804 2.09804) (drill 1.39954) (layers *.Cu *.Paste *.Mask))
  (pad 9 thru_hole circle (at -13.335 -7.49808) (size 2.09804 2.09804) (drill 1.39954) (layers *.Cu *.Paste *.Mask))
  (pad 10 thru_hole circle (at -9.525 -7.49808) (size 2.09804 2.09804) (drill 1.39954) (layers *.Cu *.Paste *.Mask))
  (pad 11 thru_hole circle (at -5.715 -7.49808) (size 2.09804 2.09804) (drill 1.39954) (layers *.Cu *.Paste *.Mask))
  (pad 12 thru_hole circle (at -1.905 -7.49808) (size 2.09804 2.09804) (drill 1.39954) (layers *.Cu *.Paste *.Mask))
  (pad 13 thru_hole circle (at 1.905 -7.49808) (size 2.09804 2.09804) (drill 1.39954) (layers *.Cu *.Paste *.Mask))
  (pad 14 thru_hole circle (at 5.715 -7.49808) (size 2.09804 2.09804) (drill 1.39954) (layers *.Cu *.Paste *.Mask))
  (pad 15 thru_hole circle (at 9.525 -7.49808) (size 2.09804 2.09804) (drill 1.39954) (layers *.Cu *.Paste *.Mask))
  (pad 16 thru_hole circle (at 13.335 -7.49808) (size 2.09804 2.09804) (drill 1.39954) (layers *.Cu *.Paste *.Mask))
)
