(module WR-TBL_Pluggable_Connector_rev20a-691328310006 (layer F.Cu) (tedit 200000)
  (descr "WR-TBL SERIE 3283 - 3.81 MM DOUBLE LEVEL HORIZONTAL MALE PCB HEADER WITH FLANGES & NUT TYPE")
  (tags "WR-TBL SERIE 3283 - 3.81 MM DOUBLE LEVEL HORIZONTAL MALE PCB HEADER WITH FLANGES & NUT TYPE")
  (attr virtual)
  (fp_text reference >NAME (at 0 -9.13384) (layer F.SilkS)
    (effects (font (size 1.27 1.27) (thickness 0.1016)))
  )
  (fp_text value >VALUE (at 0.30988 15.86484) (layer F.SilkS)
    (effects (font (size 1.27 1.27) (thickness 0.1016)))
  )
  (fp_line (start 10.9093 14.34846) (end 10.9093 -7.64794) (layer Dwgs.User) (width 0.09906))
  (fp_line (start 10.9093 -7.64794) (end -10.9093 -7.64794) (layer Dwgs.User) (width 0.09906))
  (fp_line (start -10.9093 -7.64794) (end -10.9093 14.34846) (layer Dwgs.User) (width 0.09906))
  (fp_line (start -10.9093 14.34846) (end 10.9093 14.34846) (layer Dwgs.User) (width 0.09906))
  (fp_line (start -11.00836 -7.74954) (end 11.00836 -7.74954) (layer F.SilkS) (width 0.19812))
  (fp_line (start 11.00836 -7.74954) (end 11.00836 14.44752) (layer F.SilkS) (width 0.19812))
  (fp_line (start 11.00836 14.44752) (end -11.00836 14.44752) (layer F.SilkS) (width 0.19812))
  (fp_line (start -11.00836 14.44752) (end -11.00836 -7.74954) (layer F.SilkS) (width 0.19812))
  (fp_poly (pts (xy -11.20902 -7.94766) (xy 11.20902 -7.94766) (xy 11.20902 14.64818) (xy -11.20902 14.64818)
    (xy -11.20902 -7.94766)) (layer Dwgs.User) (width 0.09906))
  (fp_circle (center -5.60324 7.99846) (end -5.60324 7.80034) (layer F.SilkS) (width 0.39878))
  (pad 1 thru_hole circle (at -3.81 6.35) (size 2.09804 2.09804) (drill 1.39954) (layers *.Cu *.Paste *.Mask))
  (pad 2 thru_hole circle (at 0 6.35) (size 2.09804 2.09804) (drill 1.39954) (layers *.Cu *.Paste *.Mask))
  (pad 3 thru_hole circle (at 3.81 6.35) (size 2.09804 2.09804) (drill 1.39954) (layers *.Cu *.Paste *.Mask))
  (pad 4 thru_hole circle (at -3.81 -6.35) (size 2.09804 2.09804) (drill 1.39954) (layers *.Cu *.Paste *.Mask))
  (pad 5 thru_hole circle (at 0 -6.35) (size 2.09804 2.09804) (drill 1.39954) (layers *.Cu *.Paste *.Mask))
  (pad 6 thru_hole circle (at 3.81 -6.35) (size 2.09804 2.09804) (drill 1.39954) (layers *.Cu *.Paste *.Mask))
)
