(module WR-TBL_Pluggable_Connector_rev20a-691307500002 (layer F.Cu) (tedit 200000)
  (descr "WR-TBL SERIE 3075 - 5.08 MM REVERSED GENDER VERTICAL PCB HEADER")
  (tags "WR-TBL SERIE 3075 - 5.08 MM REVERSED GENDER VERTICAL PCB HEADER")
  (attr virtual)
  (fp_text reference >NAME (at 0 -5.63372) (layer F.SilkS)
    (effects (font (size 1.27 1.27) (thickness 0.1016)))
  )
  (fp_text value >VALUE (at 0.30988 6.16458) (layer F.SilkS)
    (effects (font (size 1.27 1.27) (thickness 0.1016)))
  )
  (fp_line (start 6.03758 -3.93954) (end -6.03758 -3.93954) (layer Dwgs.User) (width 0.09906))
  (fp_line (start -6.03758 -3.93954) (end -6.03758 4.5593) (layer Dwgs.User) (width 0.09906))
  (fp_line (start -6.03758 4.5593) (end 6.03758 4.5593) (layer Dwgs.User) (width 0.09906))
  (fp_line (start 6.03758 4.5593) (end 6.03758 -3.93954) (layer Dwgs.User) (width 0.09906))
  (fp_line (start -6.13918 -4.0386) (end 6.13918 -4.0386) (layer F.SilkS) (width 0.19812))
  (fp_line (start 6.13918 -4.0386) (end 6.13918 4.65836) (layer F.SilkS) (width 0.19812))
  (fp_line (start 6.13918 4.65836) (end -6.13918 4.65836) (layer F.SilkS) (width 0.19812))
  (fp_line (start -6.13918 4.65836) (end -6.13918 -4.0386) (layer F.SilkS) (width 0.19812))
  (fp_poly (pts (xy -6.33984 -4.23926) (xy 6.33984 -4.23926) (xy 6.33984 4.85902) (xy -6.33984 4.85902)
    (xy -6.33984 -4.23926)) (layer Dwgs.User) (width 0.09906))
  (fp_circle (center -4.49834 -1.19888) (end -4.49834 -1.29794) (layer F.SilkS) (width 0.39878))
  (fp_text user 1 (at -2.49174 -0.10668) (layer Dwgs.User)
    (effects (font (size 1.016 1.016) (thickness 0.0762)))
  )
  (pad 1 thru_hole circle (at -2.54 -2.54) (size 2.09804 2.09804) (drill 1.39954) (layers *.Cu *.Paste *.Mask))
  (pad 2 thru_hole circle (at 2.54 -2.54) (size 2.09804 2.09804) (drill 1.39954) (layers *.Cu *.Paste *.Mask))
  (pad A1 thru_hole circle (at -2.54 2.54) (size 2.09804 2.09804) (drill 1.39954) (layers *.Cu *.Paste *.Mask))
  (pad A2 thru_hole circle (at 2.54 2.54) (size 2.09804 2.09804) (drill 1.39954) (layers *.Cu *.Paste *.Mask))
)
