(module WR-TBL_Pluggable_Connector_rev20a-691313410005 (layer F.Cu) (tedit 200000)
  (descr "WR-TBL SERIE 3134 - 7.62 MM CLOSE HORIZONTAL PCB HEADER")
  (tags "WR-TBL SERIE 3134 - 7.62 MM CLOSE HORIZONTAL PCB HEADER")
  (attr virtual)
  (fp_text reference >NAME (at 0 -3.63474) (layer F.SilkS)
    (effects (font (size 1.27 1.27) (thickness 0.1016)))
  )
  (fp_text value >VALUE (at 0.30988 11.36396) (layer F.SilkS)
    (effects (font (size 1.27 1.27) (thickness 0.1016)))
  )
  (fp_line (start -19.05 9.99998) (end 19.05 9.99998) (layer Dwgs.User) (width 0.09906))
  (fp_line (start 19.05 9.99998) (end 19.05 -1.99898) (layer Dwgs.User) (width 0.09906))
  (fp_line (start 19.05 -1.99898) (end -19.05 -1.99898) (layer Dwgs.User) (width 0.09906))
  (fp_line (start -19.05 -1.99898) (end -19.05 9.99998) (layer Dwgs.User) (width 0.09906))
  (fp_line (start -19.14906 -2.09804) (end 19.14906 -2.09804) (layer F.SilkS) (width 0.19812))
  (fp_line (start 19.14906 -2.09804) (end 19.14906 10.09904) (layer F.SilkS) (width 0.19812))
  (fp_line (start 19.14906 10.09904) (end -19.14906 10.09904) (layer F.SilkS) (width 0.19812))
  (fp_line (start -19.14906 10.09904) (end -19.14906 -2.09804) (layer F.SilkS) (width 0.19812))
  (fp_poly (pts (xy -19.34972 -2.2987) (xy 19.34972 -2.2987) (xy 19.34972 10.2997) (xy -19.34972 10.2997)
    (xy -19.34972 -2.2987)) (layer Dwgs.User) (width 0.09906))
  (fp_circle (center -17.02816 -1.19888) (end -17.02816 -1.29794) (layer F.SilkS) (width 0.39878))
  (pad 1 thru_hole circle (at -15.24 0) (size 2.39776 2.39776) (drill 1.59766) (layers *.Cu *.Paste *.Mask))
  (pad 2 thru_hole circle (at -7.62 0) (size 2.39776 2.39776) (drill 1.59766) (layers *.Cu *.Paste *.Mask))
  (pad 3 thru_hole circle (at 0 0) (size 2.39776 2.39776) (drill 1.59766) (layers *.Cu *.Paste *.Mask))
  (pad 4 thru_hole circle (at 7.62 0) (size 2.39776 2.39776) (drill 1.59766) (layers *.Cu *.Paste *.Mask))
  (pad 5 thru_hole circle (at 15.24 0) (size 2.39776 2.39776) (drill 1.59766) (layers *.Cu *.Paste *.Mask))
)
