(module WR-TBL_Pluggable_Connector_rev20a-691312510013 (layer F.Cu) (tedit 200000)
  (descr "WR-TBL SERIE 312 - 5.08 MM OPEN HORIZONTAL PCB HEADER")
  (tags "WR-TBL SERIE 312 - 5.08 MM OPEN HORIZONTAL PCB HEADER")
  (attr virtual)
  (fp_text reference >NAME (at 0 -3.63474) (layer F.SilkS)
    (effects (font (size 1.27 1.27) (thickness 0.1016)))
  )
  (fp_text value >VALUE (at 0.30988 11.36396) (layer F.SilkS)
    (effects (font (size 1.27 1.27) (thickness 0.1016)))
  )
  (fp_line (start 33.02 -1.99898) (end -33.02 -1.99898) (layer Dwgs.User) (width 0.09906))
  (fp_line (start -33.02 -1.99898) (end -33.02 9.99998) (layer Dwgs.User) (width 0.09906))
  (fp_line (start -33.02 9.99998) (end 33.02 9.99998) (layer Dwgs.User) (width 0.09906))
  (fp_line (start 33.02 9.99998) (end 33.02 -1.99898) (layer Dwgs.User) (width 0.09906))
  (fp_line (start -33.11906 -2.09804) (end 33.11906 -2.09804) (layer F.SilkS) (width 0.19812))
  (fp_line (start 33.11906 -2.09804) (end 33.11906 10.09904) (layer F.SilkS) (width 0.19812))
  (fp_line (start -33.11906 -2.09804) (end -33.11906 10.09904) (layer F.SilkS) (width 0.19812))
  (fp_line (start -33.11906 10.09904) (end 33.11906 10.09904) (layer F.SilkS) (width 0.19812))
  (fp_poly (pts (xy -33.31972 -2.2987) (xy 33.31972 -2.2987) (xy 33.31972 10.2997) (xy -33.31972 10.2997)
    (xy -33.31972 -2.2987)) (layer Dwgs.User) (width 0.09906))
  (fp_circle (center -32.23768 -1.29794) (end -32.23768 -1.397) (layer F.SilkS) (width 0.39878))
  (pad 1 thru_hole circle (at -30.48 0) (size 2.39776 2.39776) (drill 1.59766) (layers *.Cu *.Paste *.Mask))
  (pad 2 thru_hole circle (at -25.4 0) (size 2.39776 2.39776) (drill 1.59766) (layers *.Cu *.Paste *.Mask))
  (pad 3 thru_hole circle (at -20.32 0) (size 2.39776 2.39776) (drill 1.59766) (layers *.Cu *.Paste *.Mask))
  (pad 4 thru_hole circle (at -15.24 0) (size 2.39776 2.39776) (drill 1.59766) (layers *.Cu *.Paste *.Mask))
  (pad 5 thru_hole circle (at -10.16 0) (size 2.39776 2.39776) (drill 1.59766) (layers *.Cu *.Paste *.Mask))
  (pad 6 thru_hole circle (at -5.08 0) (size 2.39776 2.39776) (drill 1.59766) (layers *.Cu *.Paste *.Mask))
  (pad 7 thru_hole circle (at 0 0) (size 2.39776 2.39776) (drill 1.59766) (layers *.Cu *.Paste *.Mask))
  (pad 8 thru_hole circle (at 5.08 0) (size 2.39776 2.39776) (drill 1.59766) (layers *.Cu *.Paste *.Mask))
  (pad 9 thru_hole circle (at 10.16 0) (size 2.39776 2.39776) (drill 1.59766) (layers *.Cu *.Paste *.Mask))
  (pad 10 thru_hole circle (at 15.24 0) (size 2.39776 2.39776) (drill 1.59766) (layers *.Cu *.Paste *.Mask))
  (pad 11 thru_hole circle (at 20.32 0) (size 2.39776 2.39776) (drill 1.59766) (layers *.Cu *.Paste *.Mask))
  (pad 12 thru_hole circle (at 25.4 0) (size 2.39776 2.39776) (drill 1.59766) (layers *.Cu *.Paste *.Mask))
  (pad 13 thru_hole circle (at 30.48 0) (size 2.39776 2.39776) (drill 1.59766) (layers *.Cu *.Paste *.Mask))
)
