(module WR-TBL_Pluggable_Connector_rev20a-691305140003 (layer F.Cu) (tedit 200000)
  (descr "WR-TBL SERIE 3051 - 3.50 MM HORIZONTAL PCB HEADER")
  (tags "WR-TBL SERIE 3051 - 3.50 MM HORIZONTAL PCB HEADER")
  (attr virtual)
  (fp_text reference >NAME (at 0 -2.63398) (layer F.SilkS)
    (effects (font (size 1.27 1.27) (thickness 0.1016)))
  )
  (fp_text value >VALUE (at 0.30988 9.36498) (layer F.SilkS)
    (effects (font (size 1.27 1.27) (thickness 0.1016)))
  )
  (fp_line (start -6.9977 -1.39954) (end 6.9977 -1.39954) (layer Dwgs.User) (width 0.09906))
  (fp_line (start 6.9977 -1.39954) (end 6.9977 7.7978) (layer Dwgs.User) (width 0.09906))
  (fp_line (start 6.9977 7.7978) (end -6.9977 7.7978) (layer Dwgs.User) (width 0.09906))
  (fp_line (start -6.9977 7.7978) (end -6.9977 -1.39954) (layer Dwgs.User) (width 0.09906))
  (fp_line (start -7.0993 -1.4986) (end 7.0993 -1.4986) (layer F.SilkS) (width 0.19812))
  (fp_line (start 7.0993 -1.4986) (end 7.0993 7.8994) (layer F.SilkS) (width 0.19812))
  (fp_line (start 7.0993 7.8994) (end -7.0993 7.8994) (layer F.SilkS) (width 0.19812))
  (fp_line (start -7.0993 7.8994) (end -7.0993 -1.4986) (layer F.SilkS) (width 0.19812))
  (fp_poly (pts (xy -7.29996 -1.69926) (xy 7.29996 -1.69926) (xy 7.29996 8.09752) (xy -7.29996 8.09752)
    (xy -7.29996 -1.69926)) (layer Dwgs.User) (width 0.09906))
  (fp_circle (center -5.4483 1.19888) (end -5.4483 1.09982) (layer F.SilkS) (width 0.39878))
  (pad 1 thru_hole circle (at -3.49758 0) (size 2.09804 2.09804) (drill 1.39954) (layers *.Cu *.Paste *.Mask))
  (pad 2 thru_hole circle (at 0 0) (size 2.09804 2.09804) (drill 1.39954) (layers *.Cu *.Paste *.Mask))
  (pad 3 thru_hole circle (at 3.49758 0) (size 2.09804 2.09804) (drill 1.39954) (layers *.Cu *.Paste *.Mask))
)
