(module WR-TBL_Pluggable_Connector_rev20a-691311500017 (layer F.Cu) (tedit 200000)
  (descr "WR-TBL SERIE 311 - 5.08 MM OPEN VERTICAL PCB HEADER")
  (tags "WR-TBL SERIE 311 - 5.08 MM OPEN VERTICAL PCB HEADER")
  (attr virtual)
  (fp_text reference >NAME (at 0 -5.13334) (layer F.SilkS)
    (effects (font (size 1.27 1.27) (thickness 0.1016)))
  )
  (fp_text value >VALUE (at 0.30988 6.3627) (layer F.SilkS)
    (effects (font (size 1.27 1.27) (thickness 0.1016)))
  )
  (fp_line (start 43.18 -3.79984) (end -43.18 -3.79984) (layer Dwgs.User) (width 0.09906))
  (fp_line (start -43.18 -3.79984) (end -43.18 4.699) (layer Dwgs.User) (width 0.09906))
  (fp_line (start -43.18 4.699) (end 43.18 4.699) (layer Dwgs.User) (width 0.09906))
  (fp_line (start 43.18 4.699) (end 43.18 -3.79984) (layer Dwgs.User) (width 0.09906))
  (fp_line (start -43.27906 -3.8989) (end 43.27906 -3.8989) (layer F.SilkS) (width 0.19812))
  (fp_line (start 43.27906 -3.8989) (end 43.27906 4.79806) (layer F.SilkS) (width 0.19812))
  (fp_line (start 43.27906 4.79806) (end -43.27906 4.79806) (layer F.SilkS) (width 0.19812))
  (fp_line (start -43.27906 4.79806) (end -43.27906 -3.8989) (layer F.SilkS) (width 0.19812))
  (fp_poly (pts (xy 43.47972 -4.09956) (xy 43.47972 4.99872) (xy -43.47972 4.99872) (xy -43.47972 -4.09956)
    (xy 43.47972 -4.09956)) (layer Dwgs.User) (width 0.09906))
  (fp_circle (center -41.89984 -1.79832) (end -41.89984 -1.89738) (layer F.SilkS) (width 0.39878))
  (pad 1 thru_hole circle (at -40.64 0) (size 2.39776 2.39776) (drill 1.59766) (layers *.Cu *.Paste *.Mask))
  (pad 2 thru_hole circle (at -35.56 0) (size 2.39776 2.39776) (drill 1.59766) (layers *.Cu *.Paste *.Mask))
  (pad 3 thru_hole circle (at -30.48 0) (size 2.39776 2.39776) (drill 1.59766) (layers *.Cu *.Paste *.Mask))
  (pad 4 thru_hole circle (at -25.4 0) (size 2.39776 2.39776) (drill 1.59766) (layers *.Cu *.Paste *.Mask))
  (pad 5 thru_hole circle (at -20.32 0) (size 2.39776 2.39776) (drill 1.59766) (layers *.Cu *.Paste *.Mask))
  (pad 6 thru_hole circle (at -15.24 0) (size 2.39776 2.39776) (drill 1.59766) (layers *.Cu *.Paste *.Mask))
  (pad 7 thru_hole circle (at -10.16 0) (size 2.39776 2.39776) (drill 1.59766) (layers *.Cu *.Paste *.Mask))
  (pad 8 thru_hole circle (at -5.08 0) (size 2.39776 2.39776) (drill 1.59766) (layers *.Cu *.Paste *.Mask))
  (pad 9 thru_hole circle (at 0 0) (size 2.39776 2.39776) (drill 1.59766) (layers *.Cu *.Paste *.Mask))
  (pad 10 thru_hole circle (at 5.08 0) (size 2.39776 2.39776) (drill 1.59766) (layers *.Cu *.Paste *.Mask))
  (pad 11 thru_hole circle (at 10.16 0) (size 2.39776 2.39776) (drill 1.59766) (layers *.Cu *.Paste *.Mask))
  (pad 12 thru_hole circle (at 15.24 0) (size 2.39776 2.39776) (drill 1.59766) (layers *.Cu *.Paste *.Mask))
  (pad 13 thru_hole circle (at 20.32 0) (size 2.39776 2.39776) (drill 1.59766) (layers *.Cu *.Paste *.Mask))
  (pad 14 thru_hole circle (at 25.4 0) (size 2.39776 2.39776) (drill 1.59766) (layers *.Cu *.Paste *.Mask))
  (pad 15 thru_hole circle (at 30.48 0) (size 2.39776 2.39776) (drill 1.59766) (layers *.Cu *.Paste *.Mask))
  (pad 16 thru_hole circle (at 35.56 0) (size 2.39776 2.39776) (drill 1.59766) (layers *.Cu *.Paste *.Mask))
  (pad 17 thru_hole circle (at 40.64 0) (size 2.39776 2.39776) (drill 1.59766) (layers *.Cu *.Paste *.Mask))
)
