(module WR-TBL_Pluggable_Connector_rev20a-691311400008 (layer F.Cu) (tedit 200000)
  (descr "WR-TBL SERIE 3114 - 7.62 MM OPEN VERTICAL PCB HEADER")
  (tags "WR-TBL SERIE 3114 - 7.62 MM OPEN VERTICAL PCB HEADER")
  (attr virtual)
  (fp_text reference >NAME (at 0 -6.1341) (layer F.SilkS)
    (effects (font (size 1.27 1.27) (thickness 0.1016)))
  )
  (fp_text value >VALUE (at 0.30988 5.36448) (layer F.SilkS)
    (effects (font (size 1.27 1.27) (thickness 0.1016)))
  )
  (fp_line (start 29.56814 -4.699) (end -29.56814 -4.699) (layer Dwgs.User) (width 0.09906))
  (fp_line (start -29.56814 -4.699) (end -29.56814 3.79984) (layer Dwgs.User) (width 0.09906))
  (fp_line (start -29.56814 3.79984) (end 29.56814 3.79984) (layer Dwgs.User) (width 0.09906))
  (fp_line (start 29.56814 3.79984) (end 29.56814 -4.699) (layer Dwgs.User) (width 0.09906))
  (fp_line (start -29.66974 -4.79806) (end 29.66974 -4.79806) (layer F.SilkS) (width 0.19812))
  (fp_line (start 29.66974 -4.79806) (end 29.66974 3.8989) (layer F.SilkS) (width 0.19812))
  (fp_line (start 29.66974 3.8989) (end -29.66974 3.8989) (layer F.SilkS) (width 0.19812))
  (fp_line (start -29.66974 3.8989) (end -29.66974 -4.79806) (layer F.SilkS) (width 0.19812))
  (fp_poly (pts (xy -29.86786 -4.99872) (xy 29.86786 -4.99872) (xy 29.86786 4.09956) (xy -29.86786 4.09956)
    (xy -29.86786 -4.99872)) (layer Dwgs.User) (width 0.09906))
  (fp_circle (center -28.45816 -2.09804) (end -28.45816 -2.1971) (layer F.SilkS) (width 0.39878))
  (pad 1 thru_hole circle (at -26.67 0) (size 2.39776 2.39776) (drill 1.59766) (layers *.Cu *.Paste *.Mask))
  (pad 2 thru_hole circle (at -19.05 0) (size 2.39776 2.39776) (drill 1.59766) (layers *.Cu *.Paste *.Mask))
  (pad 3 thru_hole circle (at -11.43 0) (size 2.39776 2.39776) (drill 1.59766) (layers *.Cu *.Paste *.Mask))
  (pad 4 thru_hole circle (at -3.81 0) (size 2.39776 2.39776) (drill 1.59766) (layers *.Cu *.Paste *.Mask))
  (pad 5 thru_hole circle (at 3.81 0) (size 2.39776 2.39776) (drill 1.59766) (layers *.Cu *.Paste *.Mask))
  (pad 6 thru_hole circle (at 11.43 0) (size 2.39776 2.39776) (drill 1.59766) (layers *.Cu *.Paste *.Mask))
  (pad 7 thru_hole circle (at 19.05 0) (size 2.39776 2.39776) (drill 1.59766) (layers *.Cu *.Paste *.Mask))
  (pad 8 thru_hole circle (at 26.67 0) (size 2.39776 2.39776) (drill 1.59766) (layers *.Cu *.Paste *.Mask))
)
