(module WR-TBL_Pluggable_Connector_rev20a-691309410002 (layer F.Cu) (tedit 200000)
  (descr "WR-TBL SERIE 3094 - 7.62 MM REVERSED GENDER HORIZONTAL PCB HEADER")
  (tags "WR-TBL SERIE 3094 - 7.62 MM REVERSED GENDER HORIZONTAL PCB HEADER")
  (attr virtual)
  (fp_text reference >NAME (at 0 -6.63448) (layer F.SilkS)
    (effects (font (size 1.27 1.27) (thickness 0.1016)))
  )
  (fp_text value >VALUE (at 0.30988 15.36446) (layer F.SilkS)
    (effects (font (size 1.27 1.27) (thickness 0.1016)))
  )
  (fp_line (start 7.60984 -5.23748) (end -7.60984 -5.23748) (layer Dwgs.User) (width 0.09906))
  (fp_line (start -7.60984 -5.23748) (end -7.60984 13.75918) (layer Dwgs.User) (width 0.09906))
  (fp_line (start -7.60984 13.75918) (end 7.60984 13.75918) (layer Dwgs.User) (width 0.09906))
  (fp_line (start 7.60984 13.75918) (end 7.60984 -5.23748) (layer Dwgs.User) (width 0.09906))
  (fp_line (start -7.7089 -5.33908) (end 7.7089 -5.33908) (layer F.SilkS) (width 0.19812))
  (fp_line (start 7.7089 -5.33908) (end 7.7089 13.85824) (layer F.SilkS) (width 0.19812))
  (fp_line (start 7.7089 13.85824) (end -7.7089 13.85824) (layer F.SilkS) (width 0.19812))
  (fp_line (start -7.7089 13.85824) (end -7.7089 -5.33908) (layer F.SilkS) (width 0.19812))
  (fp_poly (pts (xy 7.90956 -5.53974) (xy 7.90956 14.0589) (xy -7.90956 14.0589) (xy -7.90956 -5.53974)
    (xy 7.90956 -5.53974)) (layer Dwgs.User) (width 0.09906))
  (fp_circle (center -5.3975 -4.19862) (end -5.3975 -4.39674) (layer F.SilkS) (width 0.39878))
  (fp_text user 1 (at -3.66268 -0.03302) (layer Dwgs.User)
    (effects (font (size 1.27 1.27) (thickness 0.1016)))
  )
  (pad 1 thru_hole circle (at -3.81 -2.54) (size 2.39776 2.39776) (drill 1.59766) (layers *.Cu *.Paste *.Mask))
  (pad 2 thru_hole circle (at 3.81 -2.54) (size 2.39776 2.39776) (drill 1.59766) (layers *.Cu *.Paste *.Mask))
  (pad A1 thru_hole circle (at -3.81 2.54) (size 2.39776 2.39776) (drill 1.59766) (layers *.Cu *.Paste *.Mask))
  (pad A2 thru_hole circle (at 3.81 2.54) (size 2.39776 2.39776) (drill 1.59766) (layers *.Cu *.Paste *.Mask))
)
