(module WR-TBL_Pluggable_Connector_rev20a-691338500012 (layer F.Cu) (tedit 200000)
  (descr "WR-TBL SERIE 3385 - 5.08 MM DOUBLE LEVEL VERTICAL MALE PCB HEADER")
  (tags "WR-TBL SERIE 3385 - 5.08 MM DOUBLE LEVEL VERTICAL MALE PCB HEADER")
  (attr virtual)
  (fp_text reference >NAME (at 0.53848 -13.13434) (layer F.SilkS)
    (effects (font (size 1.27 1.27) (thickness 0.1016)))
  )
  (fp_text value >VALUE (at -0.68834 13.6144) (layer F.SilkS)
    (effects (font (size 1.27 1.27) (thickness 0.1016)))
  )
  (fp_line (start -17.78 -11.41984) (end 13.49756 -11.41984) (layer Dwgs.User) (width 0.09906))
  (fp_line (start 13.49756 -11.41984) (end 13.49756 -3.36804) (layer Dwgs.User) (width 0.09906))
  (fp_line (start 13.49756 -3.36804) (end 15.24 -3.36804) (layer Dwgs.User) (width 0.09906))
  (fp_line (start 15.24 -3.36804) (end 15.24 12.27836) (layer Dwgs.User) (width 0.09906))
  (fp_line (start 15.24 12.27836) (end -15.24 12.27836) (layer Dwgs.User) (width 0.09906))
  (fp_line (start -15.24 12.27836) (end -15.24 2.19964) (layer Dwgs.User) (width 0.09906))
  (fp_line (start -15.24 0.99822) (end -15.24 -2.8194) (layer Dwgs.User) (width 0.09906))
  (fp_line (start -15.24 -2.8194) (end -17.78 -2.8194) (layer Dwgs.User) (width 0.09906))
  (fp_line (start -17.78 -2.8194) (end -17.78 -11.41984) (layer Dwgs.User) (width 0.09906))
  (fp_line (start -15.24 0.99822) (end -15.9893 0.7493) (layer Dwgs.User) (width 0.09906))
  (fp_line (start -15.9893 0.7493) (end -15.9893 2.44856) (layer Dwgs.User) (width 0.09906))
  (fp_line (start -15.9893 2.44856) (end -15.24 2.19964) (layer Dwgs.User) (width 0.09906))
  (fp_line (start -17.87906 -11.5189) (end 13.59916 -11.5189) (layer F.SilkS) (width 0.19812))
  (fp_line (start 13.59916 -11.5189) (end 13.59916 -3.46964) (layer F.SilkS) (width 0.19812))
  (fp_line (start 13.59916 -3.46964) (end 15.33906 -3.46964) (layer F.SilkS) (width 0.19812))
  (fp_line (start 15.33906 -3.46964) (end 15.33906 12.37996) (layer F.SilkS) (width 0.19812))
  (fp_line (start 15.33906 12.37996) (end -15.33906 12.37996) (layer F.SilkS) (width 0.19812))
  (fp_line (start -15.33906 12.37996) (end -15.33906 2.2987) (layer F.SilkS) (width 0.19812))
  (fp_line (start -15.33906 2.2987) (end -16.08836 2.5527) (layer F.SilkS) (width 0.19812))
  (fp_line (start -16.08836 2.5527) (end -16.08836 0.6477) (layer F.SilkS) (width 0.19812))
  (fp_line (start -16.08836 0.6477) (end -15.33906 0.89916) (layer F.SilkS) (width 0.19812))
  (fp_line (start -15.33906 0.89916) (end -15.33906 -2.7178) (layer F.SilkS) (width 0.19812))
  (fp_line (start -15.33906 -2.7178) (end -17.87906 -2.7178) (layer F.SilkS) (width 0.19812))
  (fp_line (start -17.87906 -2.7178) (end -17.87906 -11.5189) (layer F.SilkS) (width 0.19812))
  (fp_poly (pts (xy -18.0594 -11.69924) (xy 15.5575 -11.69924) (xy 15.5575 12.5984) (xy -18.0594 12.5984)
    (xy -18.0594 -11.69924)) (layer Dwgs.User) (width 0.09906))
  (fp_circle (center -14.45768 8.79856) (end -14.45768 8.6995) (layer F.SilkS) (width 0.39878))
  (fp_text user 2 (at -15.0241 -5.3848) (layer Dwgs.User)
    (effects (font (size 1.27 1.27) (thickness 0.1016)))
  )
  (fp_text user 1 (at -12.52474 5.11302) (layer Dwgs.User)
    (effects (font (size 1.27 1.27) (thickness 0.1016)))
  )
  (fp_text user 11 (at 13.26896 4.8641) (layer Dwgs.User)
    (effects (font (size 1.27 1.27) (thickness 0.1016)))
  )
  (fp_text user 12 (at 10.8077 -5.334) (layer Dwgs.User)
    (effects (font (size 1.27 1.27) (thickness 0.1016)))
  )
  (pad 1 thru_hole circle (at -12.7 7.62) (size 2.39776 2.39776) (drill 1.59766) (layers *.Cu *.Paste *.Mask))
  (pad 2 thru_hole circle (at -15.24 -7.62) (size 2.39776 2.39776) (drill 1.59766) (layers *.Cu *.Paste *.Mask))
  (pad 3 thru_hole circle (at -7.62 7.62) (size 2.39776 2.39776) (drill 1.59766) (layers *.Cu *.Paste *.Mask))
  (pad 4 thru_hole circle (at -10.16 -7.62) (size 2.39776 2.39776) (drill 1.59766) (layers *.Cu *.Paste *.Mask))
  (pad 5 thru_hole circle (at -2.54 7.62) (size 2.39776 2.39776) (drill 1.59766) (layers *.Cu *.Paste *.Mask))
  (pad 6 thru_hole circle (at -5.08 -7.62) (size 2.39776 2.39776) (drill 1.59766) (layers *.Cu *.Paste *.Mask))
  (pad 7 thru_hole circle (at 2.54 7.62) (size 2.39776 2.39776) (drill 1.59766) (layers *.Cu *.Paste *.Mask))
  (pad 8 thru_hole circle (at 0 -7.62) (size 2.39776 2.39776) (drill 1.59766) (layers *.Cu *.Paste *.Mask))
  (pad 9 thru_hole circle (at 7.62 7.62) (size 2.39776 2.39776) (drill 1.59766) (layers *.Cu *.Paste *.Mask))
  (pad 10 thru_hole circle (at 5.08 -7.62) (size 2.39776 2.39776) (drill 1.59766) (layers *.Cu *.Paste *.Mask))
  (pad 11 thru_hole circle (at 12.7 7.62) (size 2.39776 2.39776) (drill 1.59766) (layers *.Cu *.Paste *.Mask))
  (pad 12 thru_hole circle (at 10.16 -7.62) (size 2.39776 2.39776) (drill 1.59766) (layers *.Cu *.Paste *.Mask))
)
