(module WR-TBL_Pluggable_Connector_rev20a-691309510008 (layer F.Cu) (tedit 200000)
  (descr "WR-TBL SERIE 3095 - 5.08 MM REVERSED GENDER HORIZONTAL PCB HEADER")
  (tags "WR-TBL SERIE 3095 - 5.08 MM REVERSED GENDER HORIZONTAL PCB HEADER")
  (attr virtual)
  (fp_text reference >NAME (at 0 -6.63448) (layer F.SilkS)
    (effects (font (size 1.27 1.27) (thickness 0.1016)))
  )
  (fp_text value >VALUE (at 0.30988 15.36446) (layer F.SilkS)
    (effects (font (size 1.27 1.27) (thickness 0.1016)))
  )
  (fp_line (start 21.27758 -5.23748) (end -21.27758 -5.23748) (layer Dwgs.User) (width 0.09906))
  (fp_line (start -21.27758 -5.23748) (end -21.27758 13.75918) (layer Dwgs.User) (width 0.09906))
  (fp_line (start -21.27758 13.75918) (end 21.27758 13.75918) (layer Dwgs.User) (width 0.09906))
  (fp_line (start 21.27758 13.75918) (end 21.27758 -5.23748) (layer Dwgs.User) (width 0.09906))
  (fp_line (start -21.37918 -5.33908) (end 21.37918 -5.33908) (layer F.SilkS) (width 0.19812))
  (fp_line (start 21.37918 -5.33908) (end 21.37918 13.85824) (layer F.SilkS) (width 0.19812))
  (fp_line (start 21.37918 13.85824) (end -21.37918 13.85824) (layer F.SilkS) (width 0.19812))
  (fp_line (start -21.37918 13.85824) (end -21.37918 -5.33908) (layer F.SilkS) (width 0.19812))
  (fp_poly (pts (xy -21.57984 -5.53974) (xy 21.57984 -5.53974) (xy 21.57984 14.0589) (xy -21.57984 14.0589)
    (xy -21.57984 -5.53974)) (layer Dwgs.User) (width 0.09906))
  (fp_circle (center -19.63928 -1.19888) (end -19.63928 -1.29794) (layer F.SilkS) (width 0.39878))
  (fp_text user 1 (at -17.63014 -0.20574) (layer Dwgs.User)
    (effects (font (size 1.016 1.016) (thickness 0.0762)))
  )
  (pad 1 thru_hole circle (at -17.78 -2.54) (size 2.09804 2.09804) (drill 1.39954) (layers *.Cu *.Paste *.Mask))
  (pad 2 thru_hole circle (at -12.7 -2.54) (size 2.09804 2.09804) (drill 1.39954) (layers *.Cu *.Paste *.Mask))
  (pad 3 thru_hole circle (at -7.62 -2.54) (size 2.09804 2.09804) (drill 1.39954) (layers *.Cu *.Paste *.Mask))
  (pad 4 thru_hole circle (at -2.54 -2.54) (size 2.09804 2.09804) (drill 1.39954) (layers *.Cu *.Paste *.Mask))
  (pad 5 thru_hole circle (at 2.54 -2.54) (size 2.09804 2.09804) (drill 1.39954) (layers *.Cu *.Paste *.Mask))
  (pad 6 thru_hole circle (at 7.62 -2.54) (size 2.09804 2.09804) (drill 1.39954) (layers *.Cu *.Paste *.Mask))
  (pad 7 thru_hole circle (at 12.7 -2.54) (size 2.09804 2.09804) (drill 1.39954) (layers *.Cu *.Paste *.Mask))
  (pad 8 thru_hole circle (at 17.78 -2.54) (size 2.09804 2.09804) (drill 1.39954) (layers *.Cu *.Paste *.Mask))
  (pad A1 thru_hole circle (at -17.78 2.54) (size 2.09804 2.09804) (drill 1.39954) (layers *.Cu *.Paste *.Mask))
  (pad A2 thru_hole circle (at -12.7 2.54) (size 2.09804 2.09804) (drill 1.39954) (layers *.Cu *.Paste *.Mask))
  (pad A3 thru_hole circle (at -7.62 2.54) (size 2.09804 2.09804) (drill 1.39954) (layers *.Cu *.Paste *.Mask))
  (pad A4 thru_hole circle (at -2.54 2.54) (size 2.09804 2.09804) (drill 1.39954) (layers *.Cu *.Paste *.Mask))
  (pad A5 thru_hole circle (at 2.54 2.54) (size 2.09804 2.09804) (drill 1.39954) (layers *.Cu *.Paste *.Mask))
  (pad A6 thru_hole circle (at 7.62 2.54) (size 2.09804 2.09804) (drill 1.39954) (layers *.Cu *.Paste *.Mask))
  (pad A7 thru_hole circle (at 12.7 2.54) (size 2.09804 2.09804) (drill 1.39954) (layers *.Cu *.Paste *.Mask))
  (pad A8 thru_hole circle (at 17.78 2.54) (size 2.09804 2.09804) (drill 1.39954) (layers *.Cu *.Paste *.Mask))
)
