(module WR-TBL_Pluggable_Connector_rev20a-691305130003 (layer F.Cu) (tedit 200000)
  (descr "WR-TBL SERIE 3051 - 3.50 MM VERTICAL PCB HEADER")
  (tags "WR-TBL SERIE 3051 - 3.50 MM VERTICAL PCB HEADER")
  (attr virtual)
  (fp_text reference >NAME (at 0 -5.63372) (layer F.SilkS)
    (effects (font (size 1.27 1.27) (thickness 0.1016)))
  )
  (fp_text value >VALUE (at 0.30988 4.36372) (layer F.SilkS)
    (effects (font (size 1.27 1.27) (thickness 0.1016)))
  )
  (fp_line (start -6.9977 -4.39928) (end 6.9977 -4.39928) (layer Dwgs.User) (width 0.09906))
  (fp_line (start 6.9977 -4.39928) (end 6.9977 2.79908) (layer Dwgs.User) (width 0.09906))
  (fp_line (start 6.9977 2.79908) (end -6.9977 2.79908) (layer Dwgs.User) (width 0.09906))
  (fp_line (start -6.9977 2.79908) (end -6.9977 -4.39928) (layer Dwgs.User) (width 0.09906))
  (fp_line (start -7.0993 2.89814) (end 7.0993 2.89814) (layer F.SilkS) (width 0.19812))
  (fp_line (start 7.0993 2.89814) (end 7.0993 -4.49834) (layer F.SilkS) (width 0.19812))
  (fp_line (start 7.0993 -4.49834) (end -7.0993 -4.49834) (layer F.SilkS) (width 0.19812))
  (fp_line (start -7.0993 -4.49834) (end -7.0993 2.89814) (layer F.SilkS) (width 0.19812))
  (fp_poly (pts (xy -7.29996 -4.699) (xy 7.29996 -4.699) (xy 7.29996 3.0988) (xy -7.29996 3.0988)
    (xy -7.29996 -4.699)) (layer Dwgs.User) (width 0.09906))
  (fp_circle (center -5.14858 -1.79832) (end -5.14858 -1.89738) (layer F.SilkS) (width 0.39878))
  (pad 1 thru_hole circle (at -3.49758 0) (size 2.09804 2.09804) (drill 1.39954) (layers *.Cu *.Paste *.Mask))
  (pad 2 thru_hole circle (at 0 0) (size 2.09804 2.09804) (drill 1.39954) (layers *.Cu *.Paste *.Mask))
  (pad 3 thru_hole circle (at 3.49758 0) (size 2.09804 2.09804) (drill 1.39954) (layers *.Cu *.Paste *.Mask))
)
