(module WR-TBL_Pluggable_Connector_rev20a-691701340006B (layer F.Cu) (tedit 200000)
  (descr "WR-TBL SERIE 7013 - 3.81 MM HORIZONTAL PCB HEADER THR TYPE")
  (tags "WR-TBL SERIE 7013 - 3.81 MM HORIZONTAL PCB HEADER THR TYPE")
  (attr virtual)
  (fp_text reference >NAME (at 0 -2.63398) (layer F.SilkS)
    (effects (font (size 1.27 1.27) (thickness 0.1016)))
  )
  (fp_text value >VALUE (at 0.30988 9.36498) (layer F.SilkS)
    (effects (font (size 1.27 1.27) (thickness 0.1016)))
  )
  (fp_line (start 12.12342 -1.19888) (end -12.12342 -1.19888) (layer Dwgs.User) (width 0.09906))
  (fp_line (start -12.12342 -1.19888) (end -12.12342 7.99846) (layer Dwgs.User) (width 0.09906))
  (fp_line (start -12.12342 7.99846) (end 12.12342 7.99846) (layer Dwgs.User) (width 0.09906))
  (fp_line (start 12.12342 7.99846) (end 12.12342 -1.19888) (layer Dwgs.User) (width 0.09906))
  (fp_line (start -10.01776 -1.29794) (end -12.22248 -1.29794) (layer F.SilkS) (width 0.19812))
  (fp_line (start -12.22248 -1.29794) (end -12.22248 8.09752) (layer F.SilkS) (width 0.19812))
  (fp_line (start -12.22248 8.09752) (end 12.22248 8.09752) (layer F.SilkS) (width 0.19812))
  (fp_line (start 12.22248 8.09752) (end 12.22248 -1.29794) (layer F.SilkS) (width 0.19812))
  (fp_line (start 12.22248 -1.29794) (end 10.01776 -1.29794) (layer F.SilkS) (width 0.19812))
  (fp_line (start -9.01954 -1.29794) (end -6.21792 -1.29794) (layer F.SilkS) (width 0.19812))
  (fp_line (start -5.20954 -1.29794) (end -2.40792 -1.29794) (layer F.SilkS) (width 0.19812))
  (fp_line (start -1.39954 -1.29794) (end 1.39954 -1.29794) (layer F.SilkS) (width 0.19812))
  (fp_line (start 2.40792 -1.29794) (end 5.20954 -1.29794) (layer F.SilkS) (width 0.19812))
  (fp_line (start 6.21792 -1.29794) (end 9.01954 -1.29794) (layer F.SilkS) (width 0.19812))
  (fp_poly (pts (xy -12.42314 -1.4986) (xy 12.42314 -1.4986) (xy 12.42314 8.29818) (xy -12.42314 8.29818)
    (xy -12.42314 -1.4986)) (layer Dwgs.User) (width 0.09906))
  (fp_circle (center -11.11758 1.4986) (end -11.11758 1.39954) (layer F.SilkS) (width 0.39878))
  (pad 1 thru_hole circle (at -9.525 0) (size 2.09804 2.09804) (drill 1.39954) (layers *.Cu *.Paste *.Mask))
  (pad 2 thru_hole circle (at -5.715 0) (size 2.09804 2.09804) (drill 1.39954) (layers *.Cu *.Paste *.Mask))
  (pad 3 thru_hole circle (at -1.905 0) (size 2.09804 2.09804) (drill 1.39954) (layers *.Cu *.Paste *.Mask))
  (pad 4 thru_hole circle (at 1.905 0) (size 2.09804 2.09804) (drill 1.39954) (layers *.Cu *.Paste *.Mask))
  (pad 5 thru_hole circle (at 5.715 0) (size 2.09804 2.09804) (drill 1.39954) (layers *.Cu *.Paste *.Mask))
  (pad 6 thru_hole circle (at 9.525 0) (size 2.09804 2.09804) (drill 1.39954) (layers *.Cu *.Paste *.Mask))
)
