(module WR-TBL_Pluggable_Connector_rev20a-691314520122 (layer F.Cu) (tedit 200000)
  (descr "WR-TBL SERIE 314 - 5.08 MM CLOSE PCB HEADER")
  (tags "WR-TBL SERIE 314 - 5.08 MM CLOSE PCB HEADER")
  (attr virtual)
  (fp_text reference >NAME (at 0 -5.43306) (layer F.SilkS)
    (effects (font (size 1.27 1.27) (thickness 0.1016)))
  )
  (fp_text value >VALUE (at 0.30988 13.96492) (layer F.SilkS)
    (effects (font (size 1.27 1.27) (thickness 0.1016)))
  )
  (fp_line (start 56.5785 -3.8989) (end -56.5785 -3.8989) (layer Dwgs.User) (width 0.09906))
  (fp_line (start -56.5785 -3.8989) (end -56.5785 12.5984) (layer Dwgs.User) (width 0.09906))
  (fp_line (start -56.5785 12.5984) (end 56.5785 12.5984) (layer Dwgs.User) (width 0.09906))
  (fp_line (start 56.5785 12.5984) (end 56.5785 -3.8989) (layer Dwgs.User) (width 0.09906))
  (fp_line (start -56.67756 -3.99796) (end 56.67756 -3.99796) (layer F.SilkS) (width 0.19812))
  (fp_line (start 56.67756 -3.99796) (end 56.67756 12.7) (layer F.SilkS) (width 0.19812))
  (fp_line (start 56.67756 12.7) (end -56.67756 12.7) (layer F.SilkS) (width 0.19812))
  (fp_line (start -56.67756 12.7) (end -56.67756 -3.99796) (layer F.SilkS) (width 0.19812))
  (fp_poly (pts (xy -56.87822 -4.19862) (xy 56.87822 -4.19862) (xy 56.87822 12.89812) (xy -56.87822 12.89812)
    (xy -56.87822 -4.19862)) (layer Dwgs.User) (width 0.09906))
  (fp_circle (center -55.29834 -1.89992) (end -55.29834 -2.09804) (layer F.SilkS) (width 0.39878))
  (pad 1 thru_hole circle (at -53.34 0) (size 2.54762 2.54762) (drill 1.69926) (layers *.Cu *.Paste *.Mask))
  (pad 2 thru_hole circle (at -48.26 0) (size 2.54762 2.54762) (drill 1.69926) (layers *.Cu *.Paste *.Mask))
  (pad 3 thru_hole circle (at -43.18 0) (size 2.54762 2.54762) (drill 1.69926) (layers *.Cu *.Paste *.Mask))
  (pad 4 thru_hole circle (at -38.1 0) (size 2.54762 2.54762) (drill 1.69926) (layers *.Cu *.Paste *.Mask))
  (pad 5 thru_hole circle (at -33.02 0) (size 2.54762 2.54762) (drill 1.69926) (layers *.Cu *.Paste *.Mask))
  (pad 6 thru_hole circle (at -27.94 0) (size 2.54762 2.54762) (drill 1.69926) (layers *.Cu *.Paste *.Mask))
  (pad 7 thru_hole circle (at -22.86 0) (size 2.54762 2.54762) (drill 1.69926) (layers *.Cu *.Paste *.Mask))
  (pad 8 thru_hole circle (at -17.78 0) (size 2.54762 2.54762) (drill 1.69926) (layers *.Cu *.Paste *.Mask))
  (pad 9 thru_hole circle (at -12.7 0) (size 2.54762 2.54762) (drill 1.69926) (layers *.Cu *.Paste *.Mask))
  (pad 10 thru_hole circle (at -7.62 0) (size 2.54762 2.54762) (drill 1.69926) (layers *.Cu *.Paste *.Mask))
  (pad 11 thru_hole circle (at -2.54 0) (size 2.54762 2.54762) (drill 1.69926) (layers *.Cu *.Paste *.Mask))
  (pad 12 thru_hole circle (at 2.54 0) (size 2.54762 2.54762) (drill 1.69926) (layers *.Cu *.Paste *.Mask))
  (pad 13 thru_hole circle (at 7.62 0) (size 2.54762 2.54762) (drill 1.69926) (layers *.Cu *.Paste *.Mask))
  (pad 14 thru_hole circle (at 12.7 0) (size 2.54762 2.54762) (drill 1.69926) (layers *.Cu *.Paste *.Mask))
  (pad 15 thru_hole circle (at 17.78 0) (size 2.54762 2.54762) (drill 1.69926) (layers *.Cu *.Paste *.Mask))
  (pad 16 thru_hole circle (at 22.86 0) (size 2.54762 2.54762) (drill 1.69926) (layers *.Cu *.Paste *.Mask))
  (pad 17 thru_hole circle (at 27.94 0) (size 2.54762 2.54762) (drill 1.69926) (layers *.Cu *.Paste *.Mask))
  (pad 18 thru_hole circle (at 33.02 0) (size 2.54762 2.54762) (drill 1.69926) (layers *.Cu *.Paste *.Mask))
  (pad 19 thru_hole circle (at 38.1 0) (size 2.54762 2.54762) (drill 1.69926) (layers *.Cu *.Paste *.Mask))
  (pad 20 thru_hole circle (at 43.18 0) (size 2.54762 2.54762) (drill 1.69926) (layers *.Cu *.Paste *.Mask))
  (pad 21 thru_hole circle (at 48.26 0) (size 2.54762 2.54762) (drill 1.69926) (layers *.Cu *.Paste *.Mask))
  (pad 22 thru_hole circle (at 53.34 0) (size 2.54762 2.54762) (drill 1.69926) (layers *.Cu *.Paste *.Mask))
)
