(module WR-TBL_Pluggable_Connector_rev20a-691337500006 (layer F.Cu) (tedit 200000)
  (descr "WR-TBL SERIE 3375 - 5.08 MM DOUBLE LEVEL VERTICAL MALE PCB HEADER W. FLANGES & NUT TYPE")
  (tags "WR-TBL SERIE 3375 - 5.08 MM DOUBLE LEVEL VERTICAL MALE PCB HEADER W. FLANGES & NUT TYPE")
  (attr virtual)
  (fp_text reference >NAME (at -1.99898 -13.03274) (layer F.SilkS)
    (effects (font (size 1.27 1.27) (thickness 0.1016)))
  )
  (fp_text value >VALUE (at -0.18796 13.86332) (layer F.SilkS)
    (effects (font (size 1.27 1.27) (thickness 0.1016)))
  )
  (fp_line (start -15.24762 -11.41984) (end 10.9982 -11.41984) (layer Dwgs.User) (width 0.09906))
  (fp_line (start 10.9982 -11.41984) (end 10.9982 -3.36804) (layer Dwgs.User) (width 0.09906))
  (fp_line (start 10.9982 -3.36804) (end 12.70762 -3.36804) (layer Dwgs.User) (width 0.09906))
  (fp_line (start 12.70762 -3.36804) (end 12.71778 12.27836) (layer Dwgs.User) (width 0.09906))
  (fp_line (start 12.71778 12.27836) (end -12.71778 12.27836) (layer Dwgs.User) (width 0.09906))
  (fp_line (start -12.71778 12.27836) (end -12.71778 -2.8194) (layer Dwgs.User) (width 0.09906))
  (fp_line (start -12.71778 -2.8194) (end -15.24762 -2.8194) (layer Dwgs.User) (width 0.09906))
  (fp_line (start -15.24762 -2.8194) (end -15.24762 -11.41984) (layer Dwgs.User) (width 0.09906))
  (fp_line (start -15.34922 -11.5189) (end 11.0998 -11.5189) (layer F.SilkS) (width 0.19812))
  (fp_line (start 11.0998 -11.5189) (end 11.0998 -3.46964) (layer F.SilkS) (width 0.19812))
  (fp_line (start 11.0998 -3.46964) (end 12.80922 -3.46964) (layer F.SilkS) (width 0.19812))
  (fp_line (start 12.80922 -3.46964) (end 12.80922 12.37996) (layer F.SilkS) (width 0.19812))
  (fp_line (start 12.80922 12.37996) (end -12.81938 12.37996) (layer F.SilkS) (width 0.19812))
  (fp_line (start -12.81938 12.37996) (end -12.81938 -2.7178) (layer F.SilkS) (width 0.19812))
  (fp_line (start -12.81938 -2.7178) (end -15.34922 -2.7178) (layer F.SilkS) (width 0.19812))
  (fp_line (start -15.34922 -2.7178) (end -15.34922 -11.5189) (layer F.SilkS) (width 0.19812))
  (fp_poly (pts (xy -15.53972 -11.71956) (xy 13.00988 -11.71956) (xy 13.00988 12.57808) (xy -15.54988 12.57808)
    (xy -15.53972 -11.71956)) (layer Dwgs.User) (width 0.09906))
  (fp_circle (center -7.63778 9.59866) (end -7.63778 9.40054) (layer F.SilkS) (width 0.39878))
  (fp_text user 1 (at -5.0038 5.2832) (layer Dwgs.User)
    (effects (font (size 1.27 1.27) (thickness 0.1016)))
  )
  (fp_text user 5 (at 5.17398 5.18414) (layer Dwgs.User)
    (effects (font (size 1.27 1.27) (thickness 0.1016)))
  )
  (fp_text user 6 (at 2.87274 -5.21462) (layer Dwgs.User)
    (effects (font (size 1.27 1.27) (thickness 0.1016)))
  )
  (fp_text user 2 (at -7.4041 -5.21462) (layer Dwgs.User)
    (effects (font (size 1.27 1.27) (thickness 0.1016)))
  )
  (pad 1 thru_hole circle (at -5.08 7.62) (size 2.39776 2.39776) (drill 1.59766) (layers *.Cu *.Paste *.Mask))
  (pad 2 thru_hole circle (at -7.62 -7.62) (size 2.39776 2.39776) (drill 1.59766) (layers *.Cu *.Paste *.Mask))
  (pad 3 thru_hole circle (at 0 7.62) (size 2.39776 2.39776) (drill 1.59766) (layers *.Cu *.Paste *.Mask))
  (pad 4 thru_hole circle (at -2.54 -7.62) (size 2.39776 2.39776) (drill 1.59766) (layers *.Cu *.Paste *.Mask))
  (pad 5 thru_hole circle (at 5.08 7.62) (size 2.39776 2.39776) (drill 1.59766) (layers *.Cu *.Paste *.Mask))
  (pad 6 thru_hole circle (at 2.54 -7.62) (size 2.39776 2.39776) (drill 1.59766) (layers *.Cu *.Paste *.Mask))
)
