(module WR-TBL_Pluggable_Connector_rev20a-691701310008B (layer F.Cu) (tedit 200000)
  (descr "WR-TBL SERIE 7013B - 3.81 MM VERTICAL PCB HEADER THR TYPE")
  (tags "WR-TBL SERIE 7013B - 3.81 MM VERTICAL PCB HEADER THR TYPE")
  (attr virtual)
  (fp_text reference >NAME (at 0 -5.63372) (layer F.SilkS)
    (effects (font (size 1.27 1.27) (thickness 0.1016)))
  )
  (fp_text value >VALUE (at 0.30988 4.36372) (layer F.SilkS)
    (effects (font (size 1.27 1.27) (thickness 0.1016)))
  )
  (fp_line (start 15.93342 -4.29768) (end -15.93342 -4.29768) (layer Dwgs.User) (width 0.09906))
  (fp_line (start -15.93342 -4.29768) (end -15.93342 2.99974) (layer Dwgs.User) (width 0.09906))
  (fp_line (start -15.93342 2.99974) (end 15.93342 2.99974) (layer Dwgs.User) (width 0.09906))
  (fp_line (start 15.93342 2.99974) (end 15.93342 -4.29768) (layer Dwgs.User) (width 0.09906))
  (fp_line (start -16.03248 -4.39928) (end 16.03248 -4.39928) (layer F.SilkS) (width 0.19812))
  (fp_line (start 16.03248 -4.39928) (end 16.03248 3.0988) (layer F.SilkS) (width 0.19812))
  (fp_line (start 16.03248 3.0988) (end -16.03248 3.0988) (layer F.SilkS) (width 0.19812))
  (fp_line (start -16.03248 3.0988) (end -16.03248 -4.39928) (layer F.SilkS) (width 0.19812))
  (fp_poly (pts (xy -16.23314 -4.59994) (xy 16.23314 -4.59994) (xy 16.23314 3.29946) (xy -16.23314 3.29946)
    (xy -16.23314 -4.59994)) (layer Dwgs.User) (width 0.09906))
  (fp_circle (center -14.62786 -1.79832) (end -14.62786 -1.89738) (layer F.SilkS) (width 0.39878))
  (pad 1 thru_hole circle (at -13.335 0) (size 2.09804 2.09804) (drill 1.39954) (layers *.Cu *.Paste *.Mask))
  (pad 2 thru_hole circle (at -9.525 0) (size 2.09804 2.09804) (drill 1.39954) (layers *.Cu *.Paste *.Mask))
  (pad 3 thru_hole circle (at -5.715 0) (size 2.09804 2.09804) (drill 1.39954) (layers *.Cu *.Paste *.Mask))
  (pad 4 thru_hole circle (at -1.905 0) (size 2.09804 2.09804) (drill 1.39954) (layers *.Cu *.Paste *.Mask))
  (pad 5 thru_hole circle (at 1.905 0) (size 2.09804 2.09804) (drill 1.39954) (layers *.Cu *.Paste *.Mask))
  (pad 6 thru_hole circle (at 5.715 0) (size 2.09804 2.09804) (drill 1.39954) (layers *.Cu *.Paste *.Mask))
  (pad 7 thru_hole circle (at 9.525 0) (size 2.09804 2.09804) (drill 1.39954) (layers *.Cu *.Paste *.Mask))
  (pad 8 thru_hole circle (at 13.335 0) (size 2.09804 2.09804) (drill 1.39954) (layers *.Cu *.Paste *.Mask))
)
