(module WR-TBL_Pluggable_Connector_rev20a-691305540002 (layer F.Cu) (tedit 200000)
  (descr "WR-TBL SERIE 3055 - 5.08 MM - PCB HEADER HORIZONTAL ENTRY WITH PLASTIC LATCHES")
  (tags "WR-TBL SERIE 3055 - 5.08 MM - PCB HEADER HORIZONTAL ENTRY WITH PLASTIC LATCHES")
  (attr virtual)
  (fp_text reference >NAME (at 0 -3.63474) (layer F.SilkS)
    (effects (font (size 1.27 1.27) (thickness 0.1016)))
  )
  (fp_text value >VALUE (at 0.30988 11.56462) (layer F.SilkS)
    (effects (font (size 1.27 1.27) (thickness 0.1016)))
  )
  (fp_line (start -6.07822 -1.99898) (end 6.07822 -1.99898) (layer Dwgs.User) (width 0.09906))
  (fp_line (start 6.07822 -1.99898) (end 6.07822 9.99998) (layer Dwgs.User) (width 0.09906))
  (fp_line (start 6.07822 9.99998) (end -6.07822 9.99998) (layer Dwgs.User) (width 0.09906))
  (fp_line (start -6.07822 9.99998) (end -6.07822 7.39902) (layer Dwgs.User) (width 0.09906))
  (fp_line (start -6.07822 7.39902) (end -6.07822 -1.99898) (layer Dwgs.User) (width 0.09906))
  (fp_line (start -6.07822 9.99998) (end -7.47776 8.25754) (layer Dwgs.User) (width 0.09906))
  (fp_line (start -7.47776 8.25754) (end -7.47776 7.39902) (layer Dwgs.User) (width 0.09906))
  (fp_line (start -7.47776 7.39902) (end -6.07822 7.39902) (layer Dwgs.User) (width 0.09906))
  (fp_line (start 6.09854 9.99998) (end 7.47776 8.25754) (layer Dwgs.User) (width 0.09906))
  (fp_line (start 7.47776 8.25754) (end 7.47776 7.39902) (layer Dwgs.User) (width 0.09906))
  (fp_line (start 7.47776 7.39902) (end 6.09854 7.39902) (layer Dwgs.User) (width 0.09906))
  (fp_line (start -6.17982 -2.09804) (end 6.17982 -2.09804) (layer F.SilkS) (width 0.19812))
  (fp_line (start 6.17982 -2.09804) (end 6.17982 7.29996) (layer F.SilkS) (width 0.19812))
  (fp_line (start 6.17982 7.29996) (end 7.57936 7.29996) (layer F.SilkS) (width 0.19812))
  (fp_line (start 7.57936 7.29996) (end 7.57936 8.19912) (layer F.SilkS) (width 0.19812))
  (fp_line (start 7.57936 8.19912) (end 6.09854 10.09904) (layer F.SilkS) (width 0.19812))
  (fp_line (start 6.09854 10.09904) (end -6.09854 10.09904) (layer F.SilkS) (width 0.19812))
  (fp_line (start -6.09854 10.09904) (end -7.57936 8.29818) (layer F.SilkS) (width 0.19812))
  (fp_line (start -7.57936 8.29818) (end -7.57936 7.29996) (layer F.SilkS) (width 0.19812))
  (fp_line (start -7.57936 7.29996) (end -6.17982 7.29996) (layer F.SilkS) (width 0.19812))
  (fp_line (start -6.17982 7.29996) (end -6.17982 -2.09804) (layer F.SilkS) (width 0.19812))
  (fp_poly (pts (xy -6.37794 -2.2987) (xy 6.37794 -2.2987) (xy 6.37794 7.0993) (xy 7.77748 7.0993)
    (xy 7.77748 8.29818) (xy 6.1976 10.2997) (xy -6.1976 10.2997) (xy -7.77748 8.29818)
    (xy -7.77748 7.0993) (xy -6.37794 7.0993) (xy -6.37794 -2.2987)) (layer Dwgs.User) (width 0.09906))
  (fp_circle (center -4.89966 -1.39954) (end -4.89966 -1.4986) (layer F.SilkS) (width 0.39878))
  (pad 1 thru_hole circle (at -2.54 0) (size 2.54762 2.54762) (drill 1.69926) (layers *.Cu *.Paste *.Mask))
  (pad 2 thru_hole circle (at 2.54 0) (size 2.54762 2.54762) (drill 1.69926) (layers *.Cu *.Paste *.Mask))
)
