(module WR-TBL_Pluggable_Connector_rev20a-691334500016 (layer F.Cu) (tedit 200000)
  (descr "WR-TBL SERIE 3345 - 5.08 MM DOUBLE LEVEL VERTICAL MALE PCB HEADER W. FLANGES & NUT TYPE")
  (tags "WR-TBL SERIE 3345 - 5.08 MM DOUBLE LEVEL VERTICAL MALE PCB HEADER W. FLANGES & NUT TYPE")
  (attr virtual)
  (fp_text reference >NAME (at 0 -16.13408) (layer F.SilkS)
    (effects (font (size 1.27 1.27) (thickness 0.1016)))
  )
  (fp_text value >VALUE (at 0.30988 15.36446) (layer F.SilkS)
    (effects (font (size 1.27 1.27) (thickness 0.1016)))
  )
  (fp_line (start -25.4 -14.83868) (end 25.4 -14.83868) (layer Dwgs.User) (width 0.09906))
  (fp_line (start 25.4 -14.83868) (end 25.4 13.95984) (layer Dwgs.User) (width 0.09906))
  (fp_line (start 25.4 13.95984) (end -25.4 13.95984) (layer Dwgs.User) (width 0.09906))
  (fp_line (start -25.4 13.95984) (end -25.4 -14.83868) (layer Dwgs.User) (width 0.09906))
  (fp_line (start -25.49906 -14.93774) (end 25.49906 -14.93774) (layer F.SilkS) (width 0.19812))
  (fp_line (start 25.49906 -14.93774) (end 25.49906 14.0589) (layer F.SilkS) (width 0.19812))
  (fp_line (start 25.49906 14.0589) (end -25.49906 14.0589) (layer F.SilkS) (width 0.19812))
  (fp_line (start -25.49906 14.0589) (end -25.49906 -14.93774) (layer F.SilkS) (width 0.19812))
  (fp_poly (pts (xy 25.69972 -15.1384) (xy 25.69972 14.25956) (xy -25.69972 14.25956) (xy -25.69972 -15.1384)
    (xy 25.69972 -15.1384)) (layer Dwgs.User) (width 0.09906))
  (fp_circle (center -19.73834 11.69924) (end -19.73834 11.50112) (layer F.SilkS) (width 0.39878))
  (pad 1 thru_hole circle (at -17.78 10.16) (size 2.39776 2.39776) (drill 1.59766) (layers *.Cu *.Paste *.Mask))
  (pad 2 thru_hole circle (at -12.7 10.16) (size 2.39776 2.39776) (drill 1.59766) (layers *.Cu *.Paste *.Mask))
  (pad 3 thru_hole circle (at -7.62 10.16) (size 2.39776 2.39776) (drill 1.59766) (layers *.Cu *.Paste *.Mask))
  (pad 4 thru_hole circle (at -2.54 10.16) (size 2.39776 2.39776) (drill 1.59766) (layers *.Cu *.Paste *.Mask))
  (pad 5 thru_hole circle (at 2.54 10.16) (size 2.39776 2.39776) (drill 1.59766) (layers *.Cu *.Paste *.Mask))
  (pad 6 thru_hole circle (at 7.62 10.16) (size 2.39776 2.39776) (drill 1.59766) (layers *.Cu *.Paste *.Mask))
  (pad 7 thru_hole circle (at 12.7 10.16) (size 2.39776 2.39776) (drill 1.59766) (layers *.Cu *.Paste *.Mask))
  (pad 8 thru_hole circle (at 17.78 10.16) (size 2.39776 2.39776) (drill 1.59766) (layers *.Cu *.Paste *.Mask))
  (pad 9 thru_hole circle (at -17.78 -10.16) (size 2.39776 2.39776) (drill 1.59766) (layers *.Cu *.Paste *.Mask))
  (pad 10 thru_hole circle (at -12.7 -10.16) (size 2.39776 2.39776) (drill 1.59766) (layers *.Cu *.Paste *.Mask))
  (pad 11 thru_hole circle (at -7.62 -10.16) (size 2.39776 2.39776) (drill 1.59766) (layers *.Cu *.Paste *.Mask))
  (pad 12 thru_hole circle (at -2.54 -10.16) (size 2.39776 2.39776) (drill 1.59766) (layers *.Cu *.Paste *.Mask))
  (pad 13 thru_hole circle (at 2.54 -10.16) (size 2.39776 2.39776) (drill 1.59766) (layers *.Cu *.Paste *.Mask))
  (pad 14 thru_hole circle (at 7.62 -10.16) (size 2.39776 2.39776) (drill 1.59766) (layers *.Cu *.Paste *.Mask))
  (pad 15 thru_hole circle (at 12.7 -10.16) (size 2.39776 2.39776) (drill 1.59766) (layers *.Cu *.Paste *.Mask))
  (pad 16 thru_hole circle (at 17.78 -10.16) (size 2.39776 2.39776) (drill 1.59766) (layers *.Cu *.Paste *.Mask))
)
