(module WR-TBL_Pluggable_Connector_rev20a-691321300018 (layer F.Cu) (tedit 200000)
  (descr "WR-TBL SERIE 321 - 3.81 MM VERTICAL PCB HEADER")
  (tags "WR-TBL SERIE 321 - 3.81 MM VERTICAL PCB HEADER")
  (attr virtual)
  (fp_text reference >NAME (at 0 -5.63372) (layer F.SilkS)
    (effects (font (size 1.27 1.27) (thickness 0.1016)))
  )
  (fp_text value >VALUE (at 0.30988 4.36372) (layer F.SilkS)
    (effects (font (size 1.27 1.27) (thickness 0.1016)))
  )
  (fp_line (start 34.88436 -4.39928) (end -34.88436 -4.39928) (layer Dwgs.User) (width 0.09906))
  (fp_line (start -34.88436 -4.39928) (end -34.88436 2.79908) (layer Dwgs.User) (width 0.09906))
  (fp_line (start -34.88436 2.79908) (end 34.88436 2.79908) (layer Dwgs.User) (width 0.09906))
  (fp_line (start 34.88436 2.79908) (end 34.88436 -4.39928) (layer Dwgs.User) (width 0.09906))
  (fp_line (start -34.98342 -4.49834) (end 34.98342 -4.49834) (layer F.SilkS) (width 0.19812))
  (fp_line (start 34.98342 -4.49834) (end 34.98342 2.89814) (layer F.SilkS) (width 0.19812))
  (fp_line (start 34.98342 2.89814) (end -34.98342 2.89814) (layer F.SilkS) (width 0.19812))
  (fp_line (start -34.98342 2.89814) (end -34.98342 -4.49834) (layer F.SilkS) (width 0.19812))
  (fp_poly (pts (xy -35.18408 -4.699) (xy 35.18408 -4.699) (xy 35.18408 3.0988) (xy -35.18408 3.0988)
    (xy -35.18408 -4.699)) (layer Dwgs.User) (width 0.09906))
  (fp_circle (center -33.67786 -1.79832) (end -33.67786 -1.89738) (layer F.SilkS) (width 0.39878))
  (pad 1 thru_hole circle (at -32.385 0) (size 2.09804 2.09804) (drill 1.39954) (layers *.Cu *.Paste *.Mask))
  (pad 2 thru_hole circle (at -28.575 0) (size 2.09804 2.09804) (drill 1.39954) (layers *.Cu *.Paste *.Mask))
  (pad 3 thru_hole circle (at -24.765 0) (size 2.09804 2.09804) (drill 1.39954) (layers *.Cu *.Paste *.Mask))
  (pad 4 thru_hole circle (at -20.955 0) (size 2.09804 2.09804) (drill 1.39954) (layers *.Cu *.Paste *.Mask))
  (pad 5 thru_hole circle (at -17.145 0) (size 2.09804 2.09804) (drill 1.39954) (layers *.Cu *.Paste *.Mask))
  (pad 6 thru_hole circle (at -13.335 0) (size 2.09804 2.09804) (drill 1.39954) (layers *.Cu *.Paste *.Mask))
  (pad 7 thru_hole circle (at -9.525 0) (size 2.09804 2.09804) (drill 1.39954) (layers *.Cu *.Paste *.Mask))
  (pad 8 thru_hole circle (at -5.715 0) (size 2.09804 2.09804) (drill 1.39954) (layers *.Cu *.Paste *.Mask))
  (pad 9 thru_hole circle (at -1.905 0) (size 2.09804 2.09804) (drill 1.39954) (layers *.Cu *.Paste *.Mask))
  (pad 10 thru_hole circle (at 1.905 0) (size 2.09804 2.09804) (drill 1.39954) (layers *.Cu *.Paste *.Mask))
  (pad 11 thru_hole circle (at 5.715 0) (size 2.09804 2.09804) (drill 1.39954) (layers *.Cu *.Paste *.Mask))
  (pad 12 thru_hole circle (at 9.525 0) (size 2.09804 2.09804) (drill 1.39954) (layers *.Cu *.Paste *.Mask))
  (pad 13 thru_hole circle (at 13.335 0) (size 2.09804 2.09804) (drill 1.39954) (layers *.Cu *.Paste *.Mask))
  (pad 14 thru_hole circle (at 17.145 0) (size 2.09804 2.09804) (drill 1.39954) (layers *.Cu *.Paste *.Mask))
  (pad 15 thru_hole circle (at 20.955 0) (size 2.09804 2.09804) (drill 1.39954) (layers *.Cu *.Paste *.Mask))
  (pad 16 thru_hole circle (at 24.765 0) (size 2.09804 2.09804) (drill 1.39954) (layers *.Cu *.Paste *.Mask))
  (pad 17 thru_hole circle (at 28.575 0) (size 2.09804 2.09804) (drill 1.39954) (layers *.Cu *.Paste *.Mask))
  (pad 18 thru_hole circle (at 32.385 0) (size 2.09804 2.09804) (drill 1.39954) (layers *.Cu *.Paste *.Mask))
)
