(module WR-TBL_Pluggable_Connector_rev20a-691305530006 (layer F.Cu) (tedit 200000)
  (descr "WR-TBL SERIE 3055 - 5,08 MM - PCB HEADER VERTICAL ENTRY WITH PLASTIC LATCHES")
  (tags "WR-TBL SERIE 3055 - 5,08 MM - PCB HEADER VERTICAL ENTRY WITH PLASTIC LATCHES")
  (attr virtual)
  (fp_text reference >NAME (at 0 -5.83438) (layer F.SilkS)
    (effects (font (size 1.27 1.27) (thickness 0.1016)))
  )
  (fp_text value >VALUE (at 0.30988 5.86486) (layer F.SilkS)
    (effects (font (size 1.27 1.27) (thickness 0.1016)))
  )
  (fp_line (start -16.23822 -4.29768) (end 16.23822 -4.29768) (layer Dwgs.User) (width 0.09906))
  (fp_line (start 16.23822 -4.29768) (end 16.23822 4.29768) (layer Dwgs.User) (width 0.09906))
  (fp_line (start 16.23822 4.29768) (end -16.23822 4.29768) (layer Dwgs.User) (width 0.09906))
  (fp_line (start -16.23822 4.29768) (end -16.23822 -4.29768) (layer Dwgs.User) (width 0.09906))
  (fp_line (start -16.25854 -0.6477) (end -17.63776 -0.6477) (layer Dwgs.User) (width 0.09906))
  (fp_line (start -17.63776 -0.6477) (end -17.63776 1.4478) (layer Dwgs.User) (width 0.09906))
  (fp_line (start -17.63776 1.4478) (end -16.25854 1.4478) (layer Dwgs.User) (width 0.09906))
  (fp_line (start 16.25854 1.4478) (end 17.63776 1.4478) (layer Dwgs.User) (width 0.09906))
  (fp_line (start 17.63776 1.4478) (end 17.63776 -0.6477) (layer Dwgs.User) (width 0.09906))
  (fp_line (start 17.63776 -0.6477) (end 16.25854 -0.6477) (layer Dwgs.User) (width 0.09906))
  (fp_line (start -17.73936 -0.7493) (end -16.33982 -0.7493) (layer F.SilkS) (width 0.19812))
  (fp_line (start -16.33982 -0.7493) (end -16.33982 -4.39928) (layer F.SilkS) (width 0.19812))
  (fp_line (start -16.33982 -4.39928) (end 16.33982 -4.39928) (layer F.SilkS) (width 0.19812))
  (fp_line (start 16.33982 -4.39928) (end 16.33982 -0.7493) (layer F.SilkS) (width 0.19812))
  (fp_line (start 16.33982 -0.7493) (end 17.73936 -0.7493) (layer F.SilkS) (width 0.19812))
  (fp_line (start 17.73936 -0.7493) (end 17.73936 1.5494) (layer F.SilkS) (width 0.19812))
  (fp_line (start 17.73936 1.5494) (end 16.33982 1.5494) (layer F.SilkS) (width 0.19812))
  (fp_line (start 16.33982 1.5494) (end 16.33982 4.39928) (layer F.SilkS) (width 0.19812))
  (fp_line (start 16.33982 4.39928) (end -16.33982 4.39928) (layer F.SilkS) (width 0.19812))
  (fp_line (start -16.33982 4.39928) (end -16.33982 1.5494) (layer F.SilkS) (width 0.19812))
  (fp_line (start -16.33982 1.5494) (end -17.73936 1.5494) (layer F.SilkS) (width 0.19812))
  (fp_line (start -17.73936 1.5494) (end -17.73936 -0.7493) (layer F.SilkS) (width 0.19812))
  (fp_poly (pts (xy 16.53794 -4.59994) (xy 16.53794 -0.94996) (xy 17.93748 -0.94996) (xy 17.93748 1.74752)
    (xy 16.53794 1.74752) (xy 16.53794 4.59994) (xy -16.53794 4.59994) (xy -16.53794 1.74752)
    (xy -17.93748 1.74752) (xy -17.93748 -0.94996) (xy -16.53794 -0.94996) (xy -16.53794 -4.59994)
    (xy 16.53794 -4.59994)) (layer Dwgs.User) (width 0.09906))
  (fp_circle (center -14.25956 -1.59766) (end -14.25956 -1.69672) (layer F.SilkS) (width 0.39878))
  (pad 1 thru_hole circle (at -12.7 0.49784) (size 2.54762 2.54762) (drill 1.69926) (layers *.Cu *.Paste *.Mask))
  (pad 2 thru_hole circle (at -7.62 0.49784) (size 2.54762 2.54762) (drill 1.69926) (layers *.Cu *.Paste *.Mask))
  (pad 3 thru_hole circle (at -2.54 0.49784) (size 2.54762 2.54762) (drill 1.69926) (layers *.Cu *.Paste *.Mask))
  (pad 4 thru_hole circle (at 2.54 0.49784) (size 2.54762 2.54762) (drill 1.69926) (layers *.Cu *.Paste *.Mask))
  (pad 5 thru_hole circle (at 7.62 0.49784) (size 2.54762 2.54762) (drill 1.69926) (layers *.Cu *.Paste *.Mask))
  (pad 6 thru_hole circle (at 12.7 0.49784) (size 2.54762 2.54762) (drill 1.69926) (layers *.Cu *.Paste *.Mask))
)
