(module WR-TBL_Pluggable_Connector_rev20a-691336500008 (layer F.Cu) (tedit 200000)
  (descr "WR-TBL SERIE 3365 - 5.08 MM DOUBLE LEVEL VERTICAL HEADER WITH FLANGES")
  (tags "WR-TBL SERIE 3365 - 5.08 MM DOUBLE LEVEL VERTICAL HEADER WITH FLANGES")
  (attr virtual)
  (fp_text reference >NAME (at -0.99822 -13.01496) (layer F.SilkS)
    (effects (font (size 1.27 1.27) (thickness 0.1016)))
  )
  (fp_text value >VALUE (at -0.68834 13.72362) (layer F.SilkS)
    (effects (font (size 1.27 1.27) (thickness 0.1016)))
  )
  (fp_line (start -13.69822 -11.41984) (end 9.50976 -11.41984) (layer Dwgs.User) (width 0.09906))
  (fp_line (start 9.50976 -11.41984) (end 9.50976 -3.36804) (layer Dwgs.User) (width 0.09906))
  (fp_line (start 9.50976 -3.36804) (end 11.15822 -3.36804) (layer Dwgs.User) (width 0.09906))
  (fp_line (start 11.15822 -3.36804) (end 11.15822 12.27836) (layer Dwgs.User) (width 0.09906))
  (fp_line (start 11.15822 12.27836) (end -11.11758 12.27836) (layer Dwgs.User) (width 0.09906))
  (fp_line (start -11.11758 12.27836) (end -11.11758 -2.8194) (layer Dwgs.User) (width 0.09906))
  (fp_line (start -11.11758 -2.8194) (end -13.69822 -2.8194) (layer Dwgs.User) (width 0.09906))
  (fp_line (start -13.69822 -2.8194) (end -13.69822 -11.41984) (layer Dwgs.User) (width 0.09906))
  (fp_line (start -13.79982 -11.5189) (end 9.60882 -11.5189) (layer F.SilkS) (width 0.19812))
  (fp_line (start 9.60882 -11.5189) (end 9.60882 -3.46964) (layer F.SilkS) (width 0.19812))
  (fp_line (start 9.60882 -3.46964) (end 11.25982 -3.46964) (layer F.SilkS) (width 0.19812))
  (fp_line (start 11.25982 -3.46964) (end 11.25982 12.37996) (layer F.SilkS) (width 0.19812))
  (fp_line (start 11.25982 12.37996) (end -11.21918 12.37996) (layer F.SilkS) (width 0.19812))
  (fp_line (start -11.21918 12.37996) (end -11.21918 -2.7178) (layer F.SilkS) (width 0.19812))
  (fp_line (start -11.21918 -2.7178) (end -13.79982 -2.7178) (layer F.SilkS) (width 0.19812))
  (fp_line (start -13.79982 -2.7178) (end -13.79982 -11.5189) (layer F.SilkS) (width 0.19812))
  (fp_poly (pts (xy -13.99794 -11.71956) (xy 11.45794 -11.71956) (xy 11.45794 12.57808) (xy -13.99794 12.57808)
    (xy -13.99794 -11.71956)) (layer Dwgs.User) (width 0.09906))
  (fp_circle (center -9.07796 9.31926) (end -9.07796 9.2202) (layer F.SilkS) (width 0.39878))
  (fp_text user 1 (at -7.44474 5.26288) (layer Dwgs.User)
    (effects (font (size 1.27 1.27) (thickness 0.1016)))
  )
  (fp_text user 2 (at -9.8425 -5.13334) (layer Dwgs.User)
    (effects (font (size 1.27 1.27) (thickness 0.1016)))
  )
  (fp_text user 8 (at 5.21462 -5.13334) (layer Dwgs.User)
    (effects (font (size 1.27 1.27) (thickness 0.1016)))
  )
  (fp_text user 7 (at 8.0137 5.16382) (layer Dwgs.User)
    (effects (font (size 1.27 1.27) (thickness 0.1016)))
  )
  (pad 1 thru_hole circle (at -7.62 7.62) (size 2.39776 2.39776) (drill 1.59766) (layers *.Cu *.Paste *.Mask))
  (pad 2 thru_hole circle (at -10.16 -7.62) (size 2.39776 2.39776) (drill 1.59766) (layers *.Cu *.Paste *.Mask))
  (pad 3 thru_hole circle (at -2.54 7.62) (size 2.39776 2.39776) (drill 1.59766) (layers *.Cu *.Paste *.Mask))
  (pad 4 thru_hole circle (at -5.08 -7.62) (size 2.39776 2.39776) (drill 1.59766) (layers *.Cu *.Paste *.Mask))
  (pad 5 thru_hole circle (at 2.54 7.62) (size 2.39776 2.39776) (drill 1.59766) (layers *.Cu *.Paste *.Mask))
  (pad 6 thru_hole circle (at 0 -7.62) (size 2.39776 2.39776) (drill 1.59766) (layers *.Cu *.Paste *.Mask))
  (pad 7 thru_hole circle (at 7.62 7.62) (size 2.39776 2.39776) (drill 1.59766) (layers *.Cu *.Paste *.Mask))
  (pad 8 thru_hole circle (at 5.08 -7.62) (size 2.39776 2.39776) (drill 1.59766) (layers *.Cu *.Paste *.Mask))
)
