(module WR-TBL_Pluggable_Connector_rev20a-691318700002 (layer F.Cu) (tedit 200000)
  (descr "WR-TBL SERIE 3187 - 5.00 MM CLOSE VERTICAL PCB HEADER WITH FLANGES")
  (tags "WR-TBL SERIE 3187 - 5.00 MM CLOSE VERTICAL PCB HEADER WITH FLANGES")
  (attr virtual)
  (fp_text reference >NAME (at 0 -6.1341) (layer F.SilkS)
    (effects (font (size 1.27 1.27) (thickness 0.1016)))
  )
  (fp_text value >VALUE (at 0.30988 5.36448) (layer F.SilkS)
    (effects (font (size 1.27 1.27) (thickness 0.1016)))
  )
  (fp_line (start 9.99998 -4.699) (end -9.99998 -4.699) (layer Dwgs.User) (width 0.09906))
  (fp_line (start -9.99998 -4.699) (end -9.99998 3.79984) (layer Dwgs.User) (width 0.09906))
  (fp_line (start -9.99998 3.79984) (end 9.99998 3.79984) (layer Dwgs.User) (width 0.09906))
  (fp_line (start 9.99998 3.79984) (end 9.99998 -4.699) (layer Dwgs.User) (width 0.09906))
  (fp_line (start -10.09904 -4.79806) (end 10.09904 -4.79806) (layer F.SilkS) (width 0.19812))
  (fp_line (start 10.09904 -4.79806) (end 10.09904 3.8989) (layer F.SilkS) (width 0.19812))
  (fp_line (start 10.09904 3.8989) (end -10.09904 3.8989) (layer F.SilkS) (width 0.19812))
  (fp_line (start -10.09904 3.8989) (end -10.09904 -4.79806) (layer F.SilkS) (width 0.19812))
  (fp_poly (pts (xy -10.2997 -4.99872) (xy 10.2997 -4.99872) (xy 10.2997 4.09956) (xy -10.2997 4.09956)
    (xy -10.2997 -4.99872)) (layer Dwgs.User) (width 0.09906))
  (fp_circle (center -4.49834 -1.59766) (end -4.49834 -1.69672) (layer F.SilkS) (width 0.39878))
  (pad 1 thru_hole circle (at -2.49936 0) (size 2.39776 2.39776) (drill 1.59766) (layers *.Cu *.Paste *.Mask))
  (pad 2 thru_hole circle (at 2.49936 0) (size 2.39776 2.39776) (drill 1.59766) (layers *.Cu *.Paste *.Mask))
)
