(module WR-TBL_Pluggable_Connector_rev20a-691335510004 (layer F.Cu) (tedit 200000)
  (descr "WR-TBL SERIE 3355 - 5.08 MM DOUBLE LEVEL MODULAR HORIZONTAL MALE PCB HEADER")
  (tags "WR-TBL SERIE 3355 - 5.08 MM DOUBLE LEVEL MODULAR HORIZONTAL MALE PCB HEADER")
  (attr virtual)
  (fp_text reference >NAME (at -1.4986 -13.63472) (layer F.SilkS)
    (effects (font (size 1.27 1.27) (thickness 0.1016)))
  )
  (fp_text value >VALUE (at -0.68834 11.36396) (layer F.SilkS)
    (effects (font (size 1.27 1.27) (thickness 0.1016)))
  )
  (fp_line (start -7.62 -12.15898) (end 4.1783 -12.15898) (layer Dwgs.User) (width 0.09906))
  (fp_line (start 4.1783 -12.15898) (end 4.1783 -2.159) (layer Dwgs.User) (width 0.09906))
  (fp_line (start 4.1783 -2.159) (end 5.08 -2.159) (layer Dwgs.User) (width 0.09906))
  (fp_line (start 5.08 -2.159) (end 5.08 9.83996) (layer Dwgs.User) (width 0.09906))
  (fp_line (start 5.08 9.83996) (end -5.08 9.83996) (layer Dwgs.User) (width 0.09906))
  (fp_line (start -5.08 9.83996) (end -5.08 -0.15748) (layer Dwgs.User) (width 0.09906))
  (fp_line (start -5.08 -0.15748) (end -7.62 -0.15748) (layer Dwgs.User) (width 0.09906))
  (fp_line (start -7.62 -0.15748) (end -7.62 -12.15898) (layer Dwgs.User) (width 0.09906))
  (fp_line (start -7.71906 -12.25804) (end 4.2799 -12.25804) (layer F.SilkS) (width 0.19812))
  (fp_line (start 4.2799 -12.25804) (end 4.2799 -2.25806) (layer F.SilkS) (width 0.19812))
  (fp_line (start 4.2799 -2.25806) (end 5.17906 -2.25806) (layer F.SilkS) (width 0.19812))
  (fp_line (start 5.17906 -2.25806) (end 5.17906 9.93902) (layer F.SilkS) (width 0.19812))
  (fp_line (start 5.17906 9.93902) (end -5.17906 9.93902) (layer F.SilkS) (width 0.19812))
  (fp_line (start -5.17906 9.93902) (end -5.17906 -0.05842) (layer F.SilkS) (width 0.19812))
  (fp_line (start -5.17906 -0.05842) (end -7.71906 -0.05842) (layer F.SilkS) (width 0.19812))
  (fp_line (start -7.71906 -0.05842) (end -7.71906 -12.25804) (layer F.SilkS) (width 0.19812))
  (fp_poly (pts (xy -7.91972 -12.4587) (xy 5.37972 -12.4587) (xy 5.37972 10.13968) (xy -7.91972 10.13968)
    (xy -7.91972 -12.4587)) (layer Dwgs.User) (width 0.09906))
  (fp_circle (center -4.09956 1.89992) (end -4.09956 1.7018) (layer F.SilkS) (width 0.39878))
  (fp_text user 2 (at -4.8641 -7.88416) (layer Dwgs.User)
    (effects (font (size 1.27 1.27) (thickness 0.1016)))
  )
  (fp_text user 1 (at -2.56286 -2.23266) (layer Dwgs.User)
    (effects (font (size 1.27 1.27) (thickness 0.1016)))
  )
  (fp_text user 3 (at 2.68478 -2.23266) (layer Dwgs.User)
    (effects (font (size 1.27 1.27) (thickness 0.1016)))
  )
  (fp_text user 4 (at 0.23368 -7.98322) (layer Dwgs.User)
    (effects (font (size 1.27 1.27) (thickness 0.1016)))
  )
  (pad 1 thru_hole circle (at -2.54 0) (size 2.39776 2.39776) (drill 1.59766) (layers *.Cu *.Paste *.Mask))
  (pad 2 thru_hole circle (at -5.08 -10.16) (size 2.39776 2.39776) (drill 1.59766) (layers *.Cu *.Paste *.Mask))
  (pad 3 thru_hole circle (at 2.54 0) (size 2.39776 2.39776) (drill 1.59766) (layers *.Cu *.Paste *.Mask))
  (pad 4 thru_hole circle (at 0 -10.16) (size 2.39776 2.39776) (drill 1.59766) (layers *.Cu *.Paste *.Mask))
)
