(module WR-TBL_Pluggable_Connector_rev20a-691314520107 (layer F.Cu) (tedit 200000)
  (descr "WR-TBL SERIE 314 - 5.08 MM CLOSE PCB HEADER")
  (tags "WR-TBL SERIE 314 - 5.08 MM CLOSE PCB HEADER")
  (attr virtual)
  (fp_text reference >NAME (at 0 -5.43306) (layer F.SilkS)
    (effects (font (size 1.27 1.27) (thickness 0.1016)))
  )
  (fp_text value >VALUE (at 0.30988 13.96492) (layer F.SilkS)
    (effects (font (size 1.27 1.27) (thickness 0.1016)))
  )
  (fp_line (start 18.4785 -3.8989) (end -18.4785 -3.8989) (layer Dwgs.User) (width 0.09906))
  (fp_line (start -18.4785 -3.8989) (end -18.4785 12.5984) (layer Dwgs.User) (width 0.09906))
  (fp_line (start -18.4785 12.5984) (end 18.4785 12.5984) (layer Dwgs.User) (width 0.09906))
  (fp_line (start 18.4785 12.5984) (end 18.4785 -3.8989) (layer Dwgs.User) (width 0.09906))
  (fp_line (start -18.57756 -3.99796) (end 18.57756 -3.99796) (layer F.SilkS) (width 0.19812))
  (fp_line (start 18.57756 -3.99796) (end 18.57756 12.7) (layer F.SilkS) (width 0.19812))
  (fp_line (start 18.57756 12.7) (end -18.57756 12.7) (layer F.SilkS) (width 0.19812))
  (fp_line (start -18.57756 12.7) (end -18.57756 -3.99796) (layer F.SilkS) (width 0.19812))
  (fp_poly (pts (xy -18.77822 -4.19862) (xy 18.77822 -4.19862) (xy 18.77822 12.89812) (xy -18.77822 12.89812)
    (xy -18.77822 -4.19862)) (layer Dwgs.User) (width 0.09906))
  (fp_circle (center -17.19834 -1.89992) (end -17.19834 -2.09804) (layer F.SilkS) (width 0.39878))
  (pad 1 thru_hole circle (at -15.24 0) (size 2.54762 2.54762) (drill 1.69926) (layers *.Cu *.Paste *.Mask))
  (pad 2 thru_hole circle (at -10.16 0) (size 2.54762 2.54762) (drill 1.69926) (layers *.Cu *.Paste *.Mask))
  (pad 3 thru_hole circle (at -5.08 0) (size 2.54762 2.54762) (drill 1.69926) (layers *.Cu *.Paste *.Mask))
  (pad 4 thru_hole circle (at 0 0) (size 2.54762 2.54762) (drill 1.69926) (layers *.Cu *.Paste *.Mask))
  (pad 5 thru_hole circle (at 5.08 0) (size 2.54762 2.54762) (drill 1.69926) (layers *.Cu *.Paste *.Mask))
  (pad 6 thru_hole circle (at 10.16 0) (size 2.54762 2.54762) (drill 1.69926) (layers *.Cu *.Paste *.Mask))
  (pad 7 thru_hole circle (at 15.24 0) (size 2.54762 2.54762) (drill 1.69926) (layers *.Cu *.Paste *.Mask))
)
