(module WR-TBL_Pluggable_Connector_rev20a-691335510010 (layer F.Cu) (tedit 200000)
  (descr "WR-TBL SERIE 3355 - 5.08 MM DOUBLE LEVEL MODULAR HORIZONTAL MALE PCB HEADER")
  (tags "WR-TBL SERIE 3355 - 5.08 MM DOUBLE LEVEL MODULAR HORIZONTAL MALE PCB HEADER")
  (attr virtual)
  (fp_text reference >NAME (at -1.4986 -13.63472) (layer F.SilkS)
    (effects (font (size 1.27 1.27) (thickness 0.1016)))
  )
  (fp_text value >VALUE (at -0.68834 11.36396) (layer F.SilkS)
    (effects (font (size 1.27 1.27) (thickness 0.1016)))
  )
  (fp_line (start -15.24 -12.15898) (end 11.7983 -12.15898) (layer Dwgs.User) (width 0.09906))
  (fp_line (start 11.7983 -12.15898) (end 11.7983 -2.159) (layer Dwgs.User) (width 0.09906))
  (fp_line (start 11.7983 -2.159) (end 12.7 -2.159) (layer Dwgs.User) (width 0.09906))
  (fp_line (start 12.7 -2.159) (end 12.7 9.83996) (layer Dwgs.User) (width 0.09906))
  (fp_line (start 12.7 9.83996) (end -12.7 9.83996) (layer Dwgs.User) (width 0.09906))
  (fp_line (start -12.7 9.83996) (end -12.7 -0.15748) (layer Dwgs.User) (width 0.09906))
  (fp_line (start -12.7 -0.15748) (end -15.24 -0.15748) (layer Dwgs.User) (width 0.09906))
  (fp_line (start -15.24 -0.15748) (end -15.24 -12.15898) (layer Dwgs.User) (width 0.09906))
  (fp_line (start -15.33906 -12.25804) (end 11.8999 -12.25804) (layer F.SilkS) (width 0.19812))
  (fp_line (start 11.8999 -12.25804) (end 11.8999 -2.25806) (layer F.SilkS) (width 0.19812))
  (fp_line (start 11.8999 -2.25806) (end 12.79906 -2.25806) (layer F.SilkS) (width 0.19812))
  (fp_line (start 12.79906 -2.25806) (end 12.79906 9.93902) (layer F.SilkS) (width 0.19812))
  (fp_line (start 12.79906 9.93902) (end -12.79906 9.93902) (layer F.SilkS) (width 0.19812))
  (fp_line (start -12.79906 9.93902) (end -12.79906 -0.05842) (layer F.SilkS) (width 0.19812))
  (fp_line (start -12.79906 -0.05842) (end -15.33906 -0.05842) (layer F.SilkS) (width 0.19812))
  (fp_line (start -15.33906 -0.05842) (end -15.33906 -12.25804) (layer F.SilkS) (width 0.19812))
  (fp_poly (pts (xy -15.53972 -12.4587) (xy 12.99972 -12.4587) (xy 12.99972 10.13968) (xy -15.53972 10.13968)
    (xy -15.53972 -12.4587)) (layer Dwgs.User) (width 0.09906))
  (fp_circle (center -11.71956 1.89992) (end -11.71956 1.7018) (layer F.SilkS) (width 0.39878))
  (fp_text user 2 (at -12.4841 -7.88416) (layer Dwgs.User)
    (effects (font (size 1.27 1.27) (thickness 0.1016)))
  )
  (fp_text user 1 (at -10.18286 -2.23266) (layer Dwgs.User)
    (effects (font (size 1.27 1.27) (thickness 0.1016)))
  )
  (fp_text user 9 (at 10.30478 -2.23266) (layer Dwgs.User)
    (effects (font (size 1.27 1.27) (thickness 0.1016)))
  )
  (fp_text user 10 (at 8.2677 -7.98322) (layer Dwgs.User)
    (effects (font (size 1.27 1.27) (thickness 0.1016)))
  )
  (pad 1 thru_hole circle (at -10.16 0) (size 2.39776 2.39776) (drill 1.59766) (layers *.Cu *.Paste *.Mask))
  (pad 2 thru_hole circle (at -12.7 -10.16) (size 2.39776 2.39776) (drill 1.59766) (layers *.Cu *.Paste *.Mask))
  (pad 3 thru_hole circle (at -5.08 0) (size 2.39776 2.39776) (drill 1.59766) (layers *.Cu *.Paste *.Mask))
  (pad 4 thru_hole circle (at -7.62 -10.16) (size 2.39776 2.39776) (drill 1.59766) (layers *.Cu *.Paste *.Mask))
  (pad 5 thru_hole circle (at 0 0) (size 2.39776 2.39776) (drill 1.59766) (layers *.Cu *.Paste *.Mask))
  (pad 6 thru_hole circle (at -2.54 -10.16) (size 2.39776 2.39776) (drill 1.59766) (layers *.Cu *.Paste *.Mask))
  (pad 7 thru_hole circle (at 5.08 0) (size 2.39776 2.39776) (drill 1.59766) (layers *.Cu *.Paste *.Mask))
  (pad 8 thru_hole circle (at 2.54 -10.16) (size 2.39776 2.39776) (drill 1.59766) (layers *.Cu *.Paste *.Mask))
  (pad 9 thru_hole circle (at 10.16 0) (size 2.39776 2.39776) (drill 1.59766) (layers *.Cu *.Paste *.Mask))
  (pad 10 thru_hole circle (at 7.62 -10.16) (size 2.39776 2.39776) (drill 1.59766) (layers *.Cu *.Paste *.Mask))
)
