(module WR-TBL_Pluggable_Connector_rev20a-691325110012 (layer F.Cu) (tedit 200000)
  (descr "WR-TBL SERIE 3251 - 3.50 MM HORIZONTAL PCB HEADER WITH FLANGES")
  (tags "WR-TBL SERIE 3251 - 3.50 MM HORIZONTAL PCB HEADER WITH FLANGES")
  (attr virtual)
  (fp_text reference >NAME (at 0 -2.63398) (layer F.SilkS)
    (effects (font (size 1.27 1.27) (thickness 0.1016)))
  )
  (fp_text value >VALUE (at 0.30988 9.36498) (layer F.SilkS)
    (effects (font (size 1.27 1.27) (thickness 0.1016)))
  )
  (fp_line (start -26.1493 7.99846) (end 26.1493 7.99846) (layer Dwgs.User) (width 0.09906))
  (fp_line (start 26.1493 7.99846) (end 26.1493 -1.19888) (layer Dwgs.User) (width 0.09906))
  (fp_line (start 26.1493 -1.19888) (end -26.1493 -1.19888) (layer Dwgs.User) (width 0.09906))
  (fp_line (start -26.1493 -1.19888) (end -26.1493 7.99846) (layer Dwgs.User) (width 0.09906))
  (fp_line (start 19.7993 -1.29794) (end 26.24836 -1.29794) (layer F.SilkS) (width 0.19812))
  (fp_line (start 26.24836 -1.29794) (end 26.24836 8.09752) (layer F.SilkS) (width 0.19812))
  (fp_line (start 26.24836 8.09752) (end -26.24836 8.09752) (layer F.SilkS) (width 0.19812))
  (fp_line (start -26.24836 8.09752) (end -26.24836 -1.29794) (layer F.SilkS) (width 0.19812))
  (fp_line (start -26.24836 -1.29794) (end -19.6977 -1.29794) (layer F.SilkS) (width 0.19812))
  (fp_line (start -18.69948 -1.29794) (end -16.19758 -1.29794) (layer F.SilkS) (width 0.19812))
  (fp_line (start -15.19936 -1.29794) (end -12.7 -1.29794) (layer F.SilkS) (width 0.19812))
  (fp_line (start -11.69924 -1.29794) (end -9.19988 -1.29794) (layer F.SilkS) (width 0.19812))
  (fp_line (start -8.19912 -1.29794) (end -5.69976 -1.29794) (layer F.SilkS) (width 0.19812))
  (fp_line (start -4.699 -1.29794) (end -2.19964 -1.29794) (layer F.SilkS) (width 0.19812))
  (fp_line (start -1.19888 -1.29794) (end 1.29794 -1.29794) (layer F.SilkS) (width 0.19812))
  (fp_line (start 2.2987 -1.29794) (end 4.79806 -1.29794) (layer F.SilkS) (width 0.19812))
  (fp_line (start 5.79882 -1.29794) (end 8.29818 -1.29794) (layer F.SilkS) (width 0.19812))
  (fp_line (start 9.29894 -1.29794) (end 11.7983 -1.29794) (layer F.SilkS) (width 0.19812))
  (fp_line (start 12.79906 -1.29794) (end 15.29842 -1.29794) (layer F.SilkS) (width 0.19812))
  (fp_line (start 16.29918 -1.29794) (end 18.79854 -1.29794) (layer F.SilkS) (width 0.19812))
  (fp_poly (pts (xy -26.44902 -1.4986) (xy 26.44902 -1.4986) (xy 26.44902 8.29818) (xy -26.44902 8.29818)
    (xy -26.44902 -1.4986)) (layer Dwgs.User) (width 0.09906))
  (fp_circle (center -20.99818 1.19888) (end -20.99818 1.09982) (layer F.SilkS) (width 0.39878))
  (pad 1 thru_hole circle (at -19.24812 0) (size 2.09804 2.09804) (drill 1.39954) (layers *.Cu *.Paste *.Mask))
  (pad 2 thru_hole circle (at -15.748 0) (size 2.09804 2.09804) (drill 1.39954) (layers *.Cu *.Paste *.Mask))
  (pad 3 thru_hole circle (at -12.24788 0) (size 2.09804 2.09804) (drill 1.39954) (layers *.Cu *.Paste *.Mask))
  (pad 4 thru_hole circle (at -8.74776 0) (size 2.09804 2.09804) (drill 1.39954) (layers *.Cu *.Paste *.Mask))
  (pad 5 thru_hole circle (at -5.24764 0) (size 2.09804 2.09804) (drill 1.39954) (layers *.Cu *.Paste *.Mask))
  (pad 6 thru_hole circle (at -1.74752 0) (size 2.09804 2.09804) (drill 1.39954) (layers *.Cu *.Paste *.Mask))
  (pad 7 thru_hole circle (at 1.74752 0) (size 2.09804 2.09804) (drill 1.39954) (layers *.Cu *.Paste *.Mask))
  (pad 8 thru_hole circle (at 5.24764 0) (size 2.09804 2.09804) (drill 1.39954) (layers *.Cu *.Paste *.Mask))
  (pad 9 thru_hole circle (at 8.74776 0) (size 2.09804 2.09804) (drill 1.39954) (layers *.Cu *.Paste *.Mask))
  (pad 10 thru_hole circle (at 12.24788 0) (size 2.09804 2.09804) (drill 1.39954) (layers *.Cu *.Paste *.Mask))
  (pad 11 thru_hole circle (at 15.748 0) (size 2.09804 2.09804) (drill 1.39954) (layers *.Cu *.Paste *.Mask))
  (pad 12 thru_hole circle (at 19.24812 0) (size 2.09804 2.09804) (drill 1.39954) (layers *.Cu *.Paste *.Mask))
)
