(module WR-TBL_Pluggable_Connector_rev20a-691322110007 (layer F.Cu) (tedit 200000)
  (descr "WR-TBL SERIE 3221 - 3.50 MM HORIZONTAL PCB HEADER")
  (tags "WR-TBL SERIE 3221 - 3.50 MM HORIZONTAL PCB HEADER")
  (attr virtual)
  (fp_text reference >NAME (at 0 -2.63398) (layer F.SilkS)
    (effects (font (size 1.27 1.27) (thickness 0.1016)))
  )
  (fp_text value >VALUE (at 0.30988 9.36498) (layer F.SilkS)
    (effects (font (size 1.27 1.27) (thickness 0.1016)))
  )
  (fp_line (start 12.94892 -1.19888) (end -12.94892 -1.19888) (layer Dwgs.User) (width 0.09906))
  (fp_line (start -12.94892 -1.19888) (end -12.94892 7.99846) (layer Dwgs.User) (width 0.09906))
  (fp_line (start -12.94892 7.99846) (end 12.94892 7.99846) (layer Dwgs.User) (width 0.09906))
  (fp_line (start 12.94892 7.99846) (end 12.94892 -1.19888) (layer Dwgs.User) (width 0.09906))
  (fp_line (start 11.049 -1.29794) (end 13.04798 -1.29794) (layer F.SilkS) (width 0.19812))
  (fp_line (start 13.04798 -1.29794) (end 13.04798 8.09752) (layer F.SilkS) (width 0.19812))
  (fp_line (start 13.04798 8.09752) (end -13.04798 8.09752) (layer F.SilkS) (width 0.19812))
  (fp_line (start -13.04798 8.09752) (end -13.04798 -1.29794) (layer F.SilkS) (width 0.19812))
  (fp_line (start -13.04798 -1.29794) (end -11.049 -1.29794) (layer F.SilkS) (width 0.19812))
  (fp_line (start -9.94918 -1.29794) (end -7.54888 -1.29794) (layer F.SilkS) (width 0.19812))
  (fp_line (start -6.44906 -1.29794) (end -4.04876 -1.29794) (layer F.SilkS) (width 0.19812))
  (fp_line (start -2.94894 -1.29794) (end -0.54864 -1.29794) (layer F.SilkS) (width 0.19812))
  (fp_line (start 0.54864 -1.29794) (end 2.94894 -1.29794) (layer F.SilkS) (width 0.19812))
  (fp_line (start 4.04876 -1.29794) (end 6.44906 -1.29794) (layer F.SilkS) (width 0.19812))
  (fp_line (start 7.54888 -1.29794) (end 9.94918 -1.29794) (layer F.SilkS) (width 0.19812))
  (fp_poly (pts (xy -13.24864 -1.4986) (xy 13.24864 -1.4986) (xy 13.24864 8.29818) (xy -13.24864 8.29818)
    (xy -13.24864 -1.4986)) (layer Dwgs.User) (width 0.09906))
  (fp_circle (center -11.8491 1.59766) (end -11.8491 1.4986) (layer F.SilkS) (width 0.39878))
  (pad 1 thru_hole circle (at -10.49782 0) (size 2.09804 2.09804) (drill 1.39954) (layers *.Cu *.Paste *.Mask))
  (pad 2 thru_hole circle (at -6.9977 0) (size 2.09804 2.09804) (drill 1.39954) (layers *.Cu *.Paste *.Mask))
  (pad 3 thru_hole circle (at -3.49758 0) (size 2.09804 2.09804) (drill 1.39954) (layers *.Cu *.Paste *.Mask))
  (pad 4 thru_hole circle (at 0 0) (size 2.09804 2.09804) (drill 1.39954) (layers *.Cu *.Paste *.Mask))
  (pad 5 thru_hole circle (at 3.49758 0) (size 2.09804 2.09804) (drill 1.39954) (layers *.Cu *.Paste *.Mask))
  (pad 6 thru_hole circle (at 6.9977 0) (size 2.09804 2.09804) (drill 1.39954) (layers *.Cu *.Paste *.Mask))
  (pad 7 thru_hole circle (at 10.49782 0) (size 2.09804 2.09804) (drill 1.39954) (layers *.Cu *.Paste *.Mask))
)
