(module WR-TBL_Pluggable_Connector_rev20a-691382030007 (layer F.Cu) (tedit 200000)
  (descr "WR-TBL SERIE 382 - 2.50 MM VERTICAL PCB HEADER WITH FLANGES")
  (tags "WR-TBL SERIE 382 - 2.50 MM VERTICAL PCB HEADER WITH FLANGES")
  (attr virtual)
  (fp_text reference >NAME (at 0 -5.63372) (layer F.SilkS)
    (effects (font (size 1.27 1.27) (thickness 0.1016)))
  )
  (fp_text value >VALUE (at 0.30988 5.36448) (layer F.SilkS)
    (effects (font (size 1.27 1.27) (thickness 0.1016)))
  )
  (fp_line (start -14.74978 3.8989) (end -14.74978 -4.19862) (layer Dwgs.User) (width 0.09906))
  (fp_line (start -14.74978 -4.19862) (end 14.74978 -4.19862) (layer Dwgs.User) (width 0.09906))
  (fp_line (start 14.74978 -4.19862) (end 14.74978 3.8989) (layer Dwgs.User) (width 0.09906))
  (fp_line (start 14.74978 3.8989) (end -14.74978 3.8989) (layer Dwgs.User) (width 0.09906))
  (fp_line (start -14.84884 -4.29768) (end 14.84884 -4.29768) (layer F.SilkS) (width 0.19812))
  (fp_line (start 14.84884 -4.29768) (end 14.84884 3.99796) (layer F.SilkS) (width 0.19812))
  (fp_line (start 14.84884 3.99796) (end -14.84884 3.99796) (layer F.SilkS) (width 0.19812))
  (fp_line (start -14.84884 3.99796) (end -14.84884 -4.29768) (layer F.SilkS) (width 0.19812))
  (fp_poly (pts (xy -15.0495 -4.49834) (xy 15.0495 -4.49834) (xy 15.0495 4.19862) (xy -15.0495 4.19862)
    (xy -15.0495 -4.49834)) (layer Dwgs.User) (width 0.09906))
  (fp_circle (center -9.4488 -1.29794) (end -9.4488 -1.397) (layer F.SilkS) (width 0.39878))
  (pad 1 thru_hole circle (at -7.49808 0) (size 2.09804 2.09804) (drill 1.39954) (layers *.Cu *.Paste *.Mask))
  (pad 2 thru_hole circle (at -4.99872 0) (size 2.09804 2.09804) (drill 1.39954) (layers *.Cu *.Paste *.Mask))
  (pad 3 thru_hole circle (at -2.49936 0) (size 2.09804 2.09804) (drill 1.39954) (layers *.Cu *.Paste *.Mask))
  (pad 4 thru_hole circle (at 0 0) (size 2.09804 2.09804) (drill 1.39954) (layers *.Cu *.Paste *.Mask))
  (pad 5 thru_hole circle (at 2.49936 0) (size 2.09804 2.09804) (drill 1.39954) (layers *.Cu *.Paste *.Mask))
  (pad 6 thru_hole circle (at 4.99872 0) (size 2.09804 2.09804) (drill 1.39954) (layers *.Cu *.Paste *.Mask))
  (pad 7 thru_hole circle (at 7.49808 0) (size 2.09804 2.09804) (drill 1.39954) (layers *.Cu *.Paste *.Mask))
)
