(module WR-TBL_Pluggable_Connector_rev20a-691317410012 (layer F.Cu) (tedit 200000)
  (descr "WR-TBL SERIE 3174 - 7.62 MM CLOSE HORIZONTAL PCB HEADER")
  (tags "WR-TBL SERIE 3174 - 7.62 MM CLOSE HORIZONTAL PCB HEADER")
  (attr virtual)
  (fp_text reference >NAME (at 0 -3.63474) (layer F.SilkS)
    (effects (font (size 1.27 1.27) (thickness 0.1016)))
  )
  (fp_text value >VALUE (at 0.30988 11.36396) (layer F.SilkS)
    (effects (font (size 1.27 1.27) (thickness 0.1016)))
  )
  (fp_line (start -51.00828 9.99998) (end 51.00828 9.99998) (layer Dwgs.User) (width 0.09906))
  (fp_line (start 51.00828 9.99998) (end 51.00828 -1.99898) (layer Dwgs.User) (width 0.09906))
  (fp_line (start 51.00828 -1.99898) (end -51.00828 -1.99898) (layer Dwgs.User) (width 0.09906))
  (fp_line (start -51.00828 -1.99898) (end -51.00828 9.99998) (layer Dwgs.User) (width 0.09906))
  (fp_line (start -51.10988 -2.09804) (end 51.10988 -2.09804) (layer F.SilkS) (width 0.19812))
  (fp_line (start 51.10988 -2.09804) (end 51.10988 10.09904) (layer F.SilkS) (width 0.19812))
  (fp_line (start 51.10988 10.09904) (end -51.10988 10.09904) (layer F.SilkS) (width 0.19812))
  (fp_line (start -51.10988 10.09904) (end -51.10988 -2.09804) (layer F.SilkS) (width 0.19812))
  (fp_poly (pts (xy -51.308 -2.2987) (xy 51.308 -2.2987) (xy 51.308 10.2997) (xy -51.308 10.2997)
    (xy -51.308 -2.2987)) (layer Dwgs.User) (width 0.09906))
  (fp_circle (center -43.99788 -0.99822) (end -43.99788 -1.19634) (layer F.SilkS) (width 0.39878))
  (pad 1 thru_hole circle (at -41.91 0) (size 2.39776 2.39776) (drill 1.59766) (layers *.Cu *.Paste *.Mask))
  (pad 2 thru_hole circle (at -34.29 0) (size 2.39776 2.39776) (drill 1.59766) (layers *.Cu *.Paste *.Mask))
  (pad 3 thru_hole circle (at -26.67 0) (size 2.39776 2.39776) (drill 1.59766) (layers *.Cu *.Paste *.Mask))
  (pad 4 thru_hole circle (at -19.05 0) (size 2.39776 2.39776) (drill 1.59766) (layers *.Cu *.Paste *.Mask))
  (pad 5 thru_hole circle (at -11.43 0) (size 2.39776 2.39776) (drill 1.59766) (layers *.Cu *.Paste *.Mask))
  (pad 6 thru_hole circle (at -3.81 0) (size 2.39776 2.39776) (drill 1.59766) (layers *.Cu *.Paste *.Mask))
  (pad 7 thru_hole circle (at 3.81 0) (size 2.39776 2.39776) (drill 1.59766) (layers *.Cu *.Paste *.Mask))
  (pad 8 thru_hole circle (at 11.43 0) (size 2.39776 2.39776) (drill 1.59766) (layers *.Cu *.Paste *.Mask))
  (pad 9 thru_hole circle (at 19.05 0) (size 2.39776 2.39776) (drill 1.59766) (layers *.Cu *.Paste *.Mask))
  (pad 10 thru_hole circle (at 26.67 0) (size 2.39776 2.39776) (drill 1.59766) (layers *.Cu *.Paste *.Mask))
  (pad 11 thru_hole circle (at 34.29 0) (size 2.39776 2.39776) (drill 1.59766) (layers *.Cu *.Paste *.Mask))
  (pad 12 thru_hole circle (at 41.91 0) (size 2.39776 2.39776) (drill 1.59766) (layers *.Cu *.Paste *.Mask))
)
