(module WR-TBL_Pluggable_Connector_rev20a-691305340005 (layer F.Cu) (tedit 200000)
  (descr "WR-TBL SERIE 3053 - 3.81 MM HORIZONTAL PCB HEADER")
  (tags "WR-TBL SERIE 3053 - 3.81 MM HORIZONTAL PCB HEADER")
  (attr virtual)
  (fp_text reference >NAME (at 0 -2.83464) (layer F.SilkS)
    (effects (font (size 1.27 1.27) (thickness 0.1016)))
  )
  (fp_text value >VALUE (at 0.30988 9.36498) (layer F.SilkS)
    (effects (font (size 1.27 1.27) (thickness 0.1016)))
  )
  (fp_line (start -10.12444 -1.39954) (end 10.12444 -1.39954) (layer Dwgs.User) (width 0.09906))
  (fp_line (start 10.12444 -1.39954) (end 10.12444 4.99872) (layer Dwgs.User) (width 0.09906))
  (fp_line (start -10.12444 4.99872) (end -10.12444 -1.39954) (layer Dwgs.User) (width 0.09906))
  (fp_line (start 10.12444 4.99872) (end 11.27252 4.99872) (layer Dwgs.User) (width 0.09906))
  (fp_line (start 11.27252 4.99872) (end 11.27252 5.64896) (layer Dwgs.User) (width 0.09906))
  (fp_line (start 11.27252 5.64896) (end 10.12444 7.7978) (layer Dwgs.User) (width 0.09906))
  (fp_line (start 10.12444 7.7978) (end -10.12444 7.7978) (layer Dwgs.User) (width 0.09906))
  (fp_line (start -10.12444 7.7978) (end -11.27252 5.64896) (layer Dwgs.User) (width 0.09906))
  (fp_line (start -11.27252 5.64896) (end -11.27252 4.99872) (layer Dwgs.User) (width 0.09906))
  (fp_line (start -11.27252 4.99872) (end -10.12444 4.99872) (layer Dwgs.User) (width 0.09906))
  (fp_line (start -10.2235 4.89966) (end -10.2235 -1.4986) (layer F.SilkS) (width 0.19812))
  (fp_line (start -10.2235 -1.4986) (end 10.2235 -1.4986) (layer F.SilkS) (width 0.19812))
  (fp_line (start 10.2235 -1.4986) (end 10.2235 4.89966) (layer F.SilkS) (width 0.19812))
  (fp_line (start 10.2235 4.89966) (end 11.37412 4.89966) (layer F.SilkS) (width 0.19812))
  (fp_line (start 11.37412 4.89966) (end 11.37412 5.69976) (layer F.SilkS) (width 0.19812))
  (fp_line (start 11.37412 5.69976) (end 10.2235 7.8994) (layer F.SilkS) (width 0.19812))
  (fp_line (start 10.2235 7.8994) (end -10.2235 7.8994) (layer F.SilkS) (width 0.19812))
  (fp_line (start -10.2235 7.8994) (end -11.37412 5.69976) (layer F.SilkS) (width 0.19812))
  (fp_line (start -11.37412 5.69976) (end -11.37412 4.89966) (layer F.SilkS) (width 0.19812))
  (fp_line (start -11.37412 4.89966) (end -10.2235 4.89966) (layer F.SilkS) (width 0.19812))
  (fp_poly (pts (xy -11.57478 -1.69926) (xy 11.57478 -1.69926) (xy 11.57478 8.09752) (xy -11.57478 8.09752)
    (xy -11.57478 -1.69926)) (layer Dwgs.User) (width 0.09906))
  (fp_circle (center -8.61314 1.4986) (end -8.61314 1.39954) (layer F.SilkS) (width 0.39878))
  (pad 1 thru_hole circle (at -7.62 0) (size 2.09804 2.09804) (drill 1.39954) (layers *.Cu *.Paste *.Mask))
  (pad 2 thru_hole circle (at -3.81 0) (size 2.09804 2.09804) (drill 1.39954) (layers *.Cu *.Paste *.Mask))
  (pad 3 thru_hole circle (at 0 0) (size 2.09804 2.09804) (drill 1.39954) (layers *.Cu *.Paste *.Mask))
  (pad 4 thru_hole circle (at 3.81 0) (size 2.09804 2.09804) (drill 1.39954) (layers *.Cu *.Paste *.Mask))
  (pad 5 thru_hole circle (at 7.62 0) (size 2.09804 2.09804) (drill 1.39954) (layers *.Cu *.Paste *.Mask))
)
