(module WR-TBL_Pluggable_Connector_rev20a-691305140004 (layer F.Cu) (tedit 200000)
  (descr "WR-TBL SERIE 3051 - 3.50 MM HORIZONTAL PCB HEADER")
  (tags "WR-TBL SERIE 3051 - 3.50 MM HORIZONTAL PCB HEADER")
  (attr virtual)
  (fp_text reference >NAME (at 0 -2.63398) (layer F.SilkS)
    (effects (font (size 1.27 1.27) (thickness 0.1016)))
  )
  (fp_text value >VALUE (at 0.30988 9.36498) (layer F.SilkS)
    (effects (font (size 1.27 1.27) (thickness 0.1016)))
  )
  (fp_line (start -8.74776 -1.39954) (end 8.74776 -1.39954) (layer Dwgs.User) (width 0.09906))
  (fp_line (start 8.74776 -1.39954) (end 8.74776 7.7978) (layer Dwgs.User) (width 0.09906))
  (fp_line (start 8.74776 7.7978) (end -8.74776 7.7978) (layer Dwgs.User) (width 0.09906))
  (fp_line (start -8.74776 7.7978) (end -8.74776 -1.39954) (layer Dwgs.User) (width 0.09906))
  (fp_line (start -8.84936 -1.4986) (end 8.84936 -1.4986) (layer F.SilkS) (width 0.19812))
  (fp_line (start 8.84936 -1.4986) (end 8.84936 7.8994) (layer F.SilkS) (width 0.19812))
  (fp_line (start 8.84936 7.8994) (end -8.84936 7.8994) (layer F.SilkS) (width 0.19812))
  (fp_line (start -8.84936 7.8994) (end -8.84936 -1.4986) (layer F.SilkS) (width 0.19812))
  (fp_poly (pts (xy -9.04748 -1.69926) (xy 9.04748 -1.69926) (xy 9.04748 8.09752) (xy -9.04748 8.09752)
    (xy -9.04748 -1.69926)) (layer Dwgs.User) (width 0.09906))
  (fp_circle (center -7.19836 1.19888) (end -7.19836 1.09982) (layer F.SilkS) (width 0.39878))
  (pad 1 thru_hole circle (at -5.24764 0) (size 2.09804 2.09804) (drill 1.39954) (layers *.Cu *.Paste *.Mask))
  (pad 2 thru_hole circle (at -1.74752 0) (size 2.09804 2.09804) (drill 1.39954) (layers *.Cu *.Paste *.Mask))
  (pad 3 thru_hole circle (at 1.74752 0) (size 2.09804 2.09804) (drill 1.39954) (layers *.Cu *.Paste *.Mask))
  (pad 4 thru_hole circle (at 5.24764 0) (size 2.09804 2.09804) (drill 1.39954) (layers *.Cu *.Paste *.Mask))
)
