(module WR-TBL_Pluggable_Connector_rev20a-691313510018 (layer F.Cu) (tedit 200000)
  (descr "WR-TBL SERIE 313 - 5.08 MM CLOSE HORIZONTAL PCB HEADER")
  (tags "WR-TBL SERIE 313 - 5.08 MM CLOSE HORIZONTAL PCB HEADER")
  (attr virtual)
  (fp_text reference >NAME (at 0 -3.63474) (layer F.SilkS)
    (effects (font (size 1.27 1.27) (thickness 0.1016)))
  )
  (fp_text value >VALUE (at 0.30988 11.36396) (layer F.SilkS)
    (effects (font (size 1.27 1.27) (thickness 0.1016)))
  )
  (fp_line (start 46.71822 -1.99898) (end -46.71822 -1.99898) (layer Dwgs.User) (width 0.09906))
  (fp_line (start -46.71822 -1.99898) (end -46.71822 9.99998) (layer Dwgs.User) (width 0.09906))
  (fp_line (start -46.71822 9.99998) (end 46.71822 9.99998) (layer Dwgs.User) (width 0.09906))
  (fp_line (start 46.71822 9.99998) (end 46.71822 -1.99898) (layer Dwgs.User) (width 0.09906))
  (fp_line (start -46.81982 -2.09804) (end 46.81982 -2.09804) (layer F.SilkS) (width 0.19812))
  (fp_line (start 46.81982 -2.09804) (end 46.81982 10.09904) (layer F.SilkS) (width 0.19812))
  (fp_line (start 46.81982 10.09904) (end -46.81982 10.09904) (layer F.SilkS) (width 0.19812))
  (fp_line (start -46.81982 10.09904) (end -46.81982 -2.09804) (layer F.SilkS) (width 0.19812))
  (fp_poly (pts (xy -47.01794 -2.2987) (xy 47.01794 -2.2987) (xy 47.01794 10.2997) (xy -47.01794 10.2997)
    (xy -47.01794 -2.2987)) (layer Dwgs.User) (width 0.09906))
  (fp_circle (center -45.23994 -0.89916) (end -45.23994 -1.09728) (layer F.SilkS) (width 0.39878))
  (pad 1 thru_hole circle (at -43.18 0) (size 2.39776 2.39776) (drill 1.59766) (layers *.Cu *.Paste *.Mask))
  (pad 2 thru_hole circle (at -38.1 0) (size 2.39776 2.39776) (drill 1.59766) (layers *.Cu *.Paste *.Mask))
  (pad 3 thru_hole circle (at -33.02 0) (size 2.39776 2.39776) (drill 1.59766) (layers *.Cu *.Paste *.Mask))
  (pad 4 thru_hole circle (at -27.94 0) (size 2.39776 2.39776) (drill 1.59766) (layers *.Cu *.Paste *.Mask))
  (pad 5 thru_hole circle (at -22.86 0) (size 2.39776 2.39776) (drill 1.59766) (layers *.Cu *.Paste *.Mask))
  (pad 6 thru_hole circle (at -17.78 0) (size 2.39776 2.39776) (drill 1.59766) (layers *.Cu *.Paste *.Mask))
  (pad 7 thru_hole circle (at -12.7 0) (size 2.39776 2.39776) (drill 1.59766) (layers *.Cu *.Paste *.Mask))
  (pad 8 thru_hole circle (at -7.62 0) (size 2.39776 2.39776) (drill 1.59766) (layers *.Cu *.Paste *.Mask))
  (pad 9 thru_hole circle (at -2.54 0) (size 2.39776 2.39776) (drill 1.59766) (layers *.Cu *.Paste *.Mask))
  (pad 10 thru_hole circle (at 2.54 0) (size 2.39776 2.39776) (drill 1.59766) (layers *.Cu *.Paste *.Mask))
  (pad 11 thru_hole circle (at 7.62 0) (size 2.39776 2.39776) (drill 1.59766) (layers *.Cu *.Paste *.Mask))
  (pad 12 thru_hole circle (at 12.7 0) (size 2.39776 2.39776) (drill 1.59766) (layers *.Cu *.Paste *.Mask))
  (pad 13 thru_hole circle (at 17.78 0) (size 2.39776 2.39776) (drill 1.59766) (layers *.Cu *.Paste *.Mask))
  (pad 14 thru_hole circle (at 22.86 0) (size 2.39776 2.39776) (drill 1.59766) (layers *.Cu *.Paste *.Mask))
  (pad 15 thru_hole circle (at 27.94 0) (size 2.39776 2.39776) (drill 1.59766) (layers *.Cu *.Paste *.Mask))
  (pad 16 thru_hole circle (at 33.02 0) (size 2.39776 2.39776) (drill 1.59766) (layers *.Cu *.Paste *.Mask))
  (pad 17 thru_hole circle (at 38.1 0) (size 2.39776 2.39776) (drill 1.59766) (layers *.Cu *.Paste *.Mask))
  (pad 18 thru_hole circle (at 43.18 0) (size 2.39776 2.39776) (drill 1.59766) (layers *.Cu *.Paste *.Mask))
)
