(module WR-TBL_Pluggable_Connector_rev20a-691325310008 (layer F.Cu) (tedit 200000)
  (descr "WR-TBL SERIE 3253 - 3.81 MM HORIZONTAL PCB HEADER WITH FLANGES")
  (tags "WR-TBL SERIE 3253 - 3.81 MM HORIZONTAL PCB HEADER WITH FLANGES")
  (attr virtual)
  (fp_text reference >NAME (at 0 -2.63398) (layer F.SilkS)
    (effects (font (size 1.27 1.27) (thickness 0.1016)))
  )
  (fp_text value >VALUE (at 0.30988 9.36498) (layer F.SilkS)
    (effects (font (size 1.27 1.27) (thickness 0.1016)))
  )
  (fp_line (start -20.4343 7.99846) (end 20.4343 7.99846) (layer Dwgs.User) (width 0.09906))
  (fp_line (start 20.4343 7.99846) (end 20.4343 -1.19888) (layer Dwgs.User) (width 0.09906))
  (fp_line (start 20.4343 -1.19888) (end -20.4343 -1.19888) (layer Dwgs.User) (width 0.09906))
  (fp_line (start -20.4343 -1.19888) (end -20.4343 7.99846) (layer Dwgs.User) (width 0.09906))
  (fp_line (start 13.92936 -1.29794) (end 20.53336 -1.29794) (layer F.SilkS) (width 0.19812))
  (fp_line (start 20.53336 -1.29794) (end 20.53336 8.09752) (layer F.SilkS) (width 0.19812))
  (fp_line (start 20.53336 8.09752) (end -20.53336 8.09752) (layer F.SilkS) (width 0.19812))
  (fp_line (start -20.53336 8.09752) (end -20.53336 -1.29794) (layer F.SilkS) (width 0.19812))
  (fp_line (start -20.53336 -1.29794) (end -13.92936 -1.29794) (layer F.SilkS) (width 0.19812))
  (fp_line (start -12.72794 -1.29794) (end -10.12952 -1.29794) (layer F.SilkS) (width 0.19812))
  (fp_line (start -8.91794 -1.29794) (end -6.31952 -1.29794) (layer F.SilkS) (width 0.19812))
  (fp_line (start -5.10794 -1.29794) (end -2.50952 -1.29794) (layer F.SilkS) (width 0.19812))
  (fp_line (start -1.29794 -1.29794) (end 1.29794 -1.29794) (layer F.SilkS) (width 0.19812))
  (fp_line (start 2.50952 -1.29794) (end 5.10794 -1.29794) (layer F.SilkS) (width 0.19812))
  (fp_line (start 6.31952 -1.29794) (end 8.91794 -1.29794) (layer F.SilkS) (width 0.19812))
  (fp_line (start 10.12952 -1.29794) (end 12.72794 -1.29794) (layer F.SilkS) (width 0.19812))
  (fp_poly (pts (xy -20.73402 -1.4986) (xy 20.73402 -1.4986) (xy 20.73402 8.29818) (xy -20.73402 8.29818)
    (xy -20.73402 -1.4986)) (layer Dwgs.User) (width 0.09906))
  (fp_circle (center -15.22984 0.99822) (end -15.22984 0.89916) (layer F.SilkS) (width 0.39878))
  (pad 1 thru_hole circle (at -13.335 0) (size 2.09804 2.09804) (drill 1.39954) (layers *.Cu *.Paste *.Mask))
  (pad 2 thru_hole circle (at -9.525 0) (size 2.09804 2.09804) (drill 1.39954) (layers *.Cu *.Paste *.Mask))
  (pad 3 thru_hole circle (at -5.715 0) (size 2.09804 2.09804) (drill 1.39954) (layers *.Cu *.Paste *.Mask))
  (pad 4 thru_hole circle (at -1.905 0) (size 2.09804 2.09804) (drill 1.39954) (layers *.Cu *.Paste *.Mask))
  (pad 5 thru_hole circle (at 1.905 0) (size 2.09804 2.09804) (drill 1.39954) (layers *.Cu *.Paste *.Mask))
  (pad 6 thru_hole circle (at 5.715 0) (size 2.09804 2.09804) (drill 1.39954) (layers *.Cu *.Paste *.Mask))
  (pad 7 thru_hole circle (at 9.525 0) (size 2.09804 2.09804) (drill 1.39954) (layers *.Cu *.Paste *.Mask))
  (pad 8 thru_hole circle (at 13.335 0) (size 2.09804 2.09804) (drill 1.39954) (layers *.Cu *.Paste *.Mask))
)
