(module WR-TBL_Pluggable_Connector_rev20a-691312710004 (layer F.Cu) (tedit 200000)
  (descr "WR-TBL SERIE 3127 - 5.00 MM OPEN HORIZONTAL PCB HEADER")
  (tags "WR-TBL SERIE 3127 - 5.00 MM OPEN HORIZONTAL PCB HEADER")
  (attr virtual)
  (fp_text reference >NAME (at 0 -3.63474) (layer F.SilkS)
    (effects (font (size 1.27 1.27) (thickness 0.1016)))
  )
  (fp_text value >VALUE (at 0.30988 11.36396) (layer F.SilkS)
    (effects (font (size 1.27 1.27) (thickness 0.1016)))
  )
  (fp_line (start 9.99998 -1.99898) (end -9.99998 -1.99898) (layer Dwgs.User) (width 0.09906))
  (fp_line (start -9.99998 -1.99898) (end -9.99998 9.99998) (layer Dwgs.User) (width 0.09906))
  (fp_line (start -9.99998 9.99998) (end 9.99998 9.99998) (layer Dwgs.User) (width 0.09906))
  (fp_line (start 9.99998 9.99998) (end 9.99998 -1.99898) (layer Dwgs.User) (width 0.09906))
  (fp_line (start -10.09904 -2.09804) (end 10.09904 -2.09804) (layer F.SilkS) (width 0.19812))
  (fp_line (start 10.09904 -2.09804) (end 10.09904 10.09904) (layer F.SilkS) (width 0.19812))
  (fp_line (start 10.09904 10.09904) (end -10.09904 10.09904) (layer F.SilkS) (width 0.19812))
  (fp_line (start -10.09904 10.09904) (end -10.09904 -2.09804) (layer F.SilkS) (width 0.19812))
  (fp_poly (pts (xy -10.2997 -2.2987) (xy 10.2997 -2.2987) (xy 10.2997 10.2997) (xy -10.2997 10.2997)
    (xy -10.2997 -2.2987)) (layer Dwgs.User) (width 0.09906))
  (fp_circle (center -9.19988 1.39954) (end -9.19988 1.30048) (layer F.SilkS) (width 0.39878))
  (pad 1 thru_hole circle (at -7.49808 0) (size 2.39776 2.39776) (drill 1.59766) (layers *.Cu *.Paste *.Mask))
  (pad 2 thru_hole circle (at -2.49936 0) (size 2.39776 2.39776) (drill 1.59766) (layers *.Cu *.Paste *.Mask))
  (pad 3 thru_hole circle (at 2.49936 0) (size 2.39776 2.39776) (drill 1.59766) (layers *.Cu *.Paste *.Mask))
  (pad 4 thru_hole circle (at 7.49808 0) (size 2.39776 2.39776) (drill 1.59766) (layers *.Cu *.Paste *.Mask))
)
