(module WR-TBL_Pluggable_Connector_rev20a-691311700112 (layer F.Cu) (tedit 200000)
  (descr "WR-TBL SERIE 3117 - 5.00 MM CLOSE VERTICAL PCB HEADER")
  (tags "WR-TBL SERIE 3117 - 5.00 MM CLOSE VERTICAL PCB HEADER")
  (attr virtual)
  (fp_text reference >NAME (at 0 -6.1341) (layer F.SilkS)
    (effects (font (size 1.27 1.27) (thickness 0.1016)))
  )
  (fp_text value >VALUE (at 0.30988 5.36448) (layer F.SilkS)
    (effects (font (size 1.27 1.27) (thickness 0.1016)))
  )
  (fp_line (start 30.99816 -4.699) (end -30.99816 -4.699) (layer Dwgs.User) (width 0.09906))
  (fp_line (start -30.99816 -4.699) (end -30.99816 3.79984) (layer Dwgs.User) (width 0.09906))
  (fp_line (start -30.99816 3.79984) (end 30.99816 3.79984) (layer Dwgs.User) (width 0.09906))
  (fp_line (start 30.99816 3.79984) (end 30.99816 -4.699) (layer Dwgs.User) (width 0.09906))
  (fp_line (start -31.09976 -4.79806) (end 31.09976 -4.79806) (layer F.SilkS) (width 0.19812))
  (fp_line (start 31.09976 -4.79806) (end 31.09976 3.8989) (layer F.SilkS) (width 0.19812))
  (fp_line (start 31.09976 3.8989) (end -31.09976 3.8989) (layer F.SilkS) (width 0.19812))
  (fp_line (start -31.09976 3.8989) (end -31.09976 -4.79806) (layer F.SilkS) (width 0.19812))
  (fp_poly (pts (xy -31.29788 -4.99872) (xy 31.29788 -4.99872) (xy 31.29788 4.09956) (xy -31.29788 4.09956)
    (xy -31.29788 -4.99872)) (layer Dwgs.User) (width 0.127))
  (fp_circle (center -29.09824 -1.79832) (end -29.09824 -1.89738) (layer F.SilkS) (width 0.39878))
  (pad 1 thru_hole circle (at -27.49804 0) (size 2.39776 2.39776) (drill 1.59766) (layers *.Cu *.Paste *.Mask))
  (pad 2 thru_hole circle (at -22.49932 0) (size 2.39776 2.39776) (drill 1.59766) (layers *.Cu *.Paste *.Mask))
  (pad 3 thru_hole circle (at -17.49806 0) (size 2.39776 2.39776) (drill 1.59766) (layers *.Cu *.Paste *.Mask))
  (pad 4 thru_hole circle (at -12.49934 0) (size 2.39776 2.39776) (drill 1.59766) (layers *.Cu *.Paste *.Mask))
  (pad 5 thru_hole circle (at -7.49808 0) (size 2.39776 2.39776) (drill 1.59766) (layers *.Cu *.Paste *.Mask))
  (pad 6 thru_hole circle (at -2.49936 0) (size 2.39776 2.39776) (drill 1.59766) (layers *.Cu *.Paste *.Mask))
  (pad 7 thru_hole circle (at 2.49936 0) (size 2.39776 2.39776) (drill 1.59766) (layers *.Cu *.Paste *.Mask))
  (pad 8 thru_hole circle (at 7.49808 0) (size 2.39776 2.39776) (drill 1.59766) (layers *.Cu *.Paste *.Mask))
  (pad 9 thru_hole circle (at 12.49934 0) (size 2.39776 2.39776) (drill 1.59766) (layers *.Cu *.Paste *.Mask))
  (pad 10 thru_hole circle (at 17.49806 0) (size 2.39776 2.39776) (drill 1.59766) (layers *.Cu *.Paste *.Mask))
  (pad 11 thru_hole circle (at 22.49932 0) (size 2.39776 2.39776) (drill 1.59766) (layers *.Cu *.Paste *.Mask))
  (pad 12 thru_hole circle (at 27.49804 0) (size 2.39776 2.39776) (drill 1.59766) (layers *.Cu *.Paste *.Mask))
)
