(module WR-TBL_Pluggable_Connector_rev20a-691312710007 (layer F.Cu) (tedit 200000)
  (descr "WR-TBL SERIE 3127 - 5.00 MM OPEN HORIZONTAL PCB HEADER")
  (tags "WR-TBL SERIE 3127 - 5.00 MM OPEN HORIZONTAL PCB HEADER")
  (attr virtual)
  (fp_text reference >NAME (at 0 -3.63474) (layer F.SilkS)
    (effects (font (size 1.27 1.27) (thickness 0.1016)))
  )
  (fp_text value >VALUE (at 0.30988 11.36396) (layer F.SilkS)
    (effects (font (size 1.27 1.27) (thickness 0.1016)))
  )
  (fp_line (start 17.49806 -1.99898) (end -17.49806 -1.99898) (layer Dwgs.User) (width 0.09906))
  (fp_line (start -17.49806 -1.99898) (end -17.49806 9.99998) (layer Dwgs.User) (width 0.09906))
  (fp_line (start -17.49806 9.99998) (end 17.49806 9.99998) (layer Dwgs.User) (width 0.09906))
  (fp_line (start 17.49806 9.99998) (end 17.49806 -1.99898) (layer Dwgs.User) (width 0.09906))
  (fp_line (start -17.59966 -2.09804) (end 17.59966 -2.09804) (layer F.SilkS) (width 0.19812))
  (fp_line (start 17.59966 -2.09804) (end 17.59966 10.09904) (layer F.SilkS) (width 0.19812))
  (fp_line (start 17.59966 10.09904) (end -17.59966 10.09904) (layer F.SilkS) (width 0.19812))
  (fp_line (start -17.59966 10.09904) (end -17.59966 -2.09804) (layer F.SilkS) (width 0.19812))
  (fp_poly (pts (xy -17.79778 -2.2987) (xy 17.79778 -2.2987) (xy 17.79778 10.2997) (xy -17.79778 10.2997)
    (xy -17.79778 -2.2987)) (layer Dwgs.User) (width 0.09906))
  (fp_circle (center -16.69796 1.39954) (end -16.69796 1.30048) (layer F.SilkS) (width 0.39878))
  (pad 1 thru_hole circle (at -14.9987 0) (size 2.39776 2.39776) (drill 1.59766) (layers *.Cu *.Paste *.Mask))
  (pad 2 thru_hole circle (at -9.99998 0) (size 2.39776 2.39776) (drill 1.59766) (layers *.Cu *.Paste *.Mask))
  (pad 3 thru_hole circle (at -4.99872 0) (size 2.39776 2.39776) (drill 1.59766) (layers *.Cu *.Paste *.Mask))
  (pad 4 thru_hole circle (at 0 0) (size 2.39776 2.39776) (drill 1.59766) (layers *.Cu *.Paste *.Mask))
  (pad 5 thru_hole circle (at 4.99872 0) (size 2.39776 2.39776) (drill 1.59766) (layers *.Cu *.Paste *.Mask))
  (pad 6 thru_hole circle (at 9.99998 0) (size 2.39776 2.39776) (drill 1.59766) (layers *.Cu *.Paste *.Mask))
  (pad 7 thru_hole circle (at 14.9987 0) (size 2.39776 2.39776) (drill 1.59766) (layers *.Cu *.Paste *.Mask))
)
