(module WR-TBL_Pluggable_Connector_rev20a-691319510012 (layer F.Cu) (tedit 200000)
  (descr "WR-TBL SERIE 3195 - 5.08 MM DOUBLE LEVEL HORIZONTAL MALE PCB HEADER W. CLOSED FLANGES")
  (tags "WR-TBL SERIE 3195 - 5.08 MM DOUBLE LEVEL HORIZONTAL MALE PCB HEADER W. CLOSED FLANGES")
  (attr virtual)
  (fp_text reference >NAME (at -1.99898 -13.63472) (layer F.SilkS)
    (effects (font (size 1.27 1.27) (thickness 0.1016)))
  )
  (fp_text value >VALUE (at -0.68834 11.36396) (layer F.SilkS)
    (effects (font (size 1.27 1.27) (thickness 0.1016)))
  )
  (fp_line (start -18.77822 -0.15748) (end -18.77822 -12.15898) (layer Dwgs.User) (width 0.09906))
  (fp_line (start -18.77822 -12.15898) (end 15.33906 -12.15898) (layer Dwgs.User) (width 0.09906))
  (fp_line (start 16.23822 -2.159) (end 16.23822 9.83996) (layer Dwgs.User) (width 0.09906))
  (fp_line (start 16.23822 9.83996) (end -16.23822 9.83996) (layer Dwgs.User) (width 0.09906))
  (fp_line (start 15.33906 -12.15898) (end 15.33906 -2.159) (layer Dwgs.User) (width 0.09906))
  (fp_line (start 15.33906 -2.159) (end 16.23822 -2.159) (layer Dwgs.User) (width 0.09906))
  (fp_line (start -18.77822 -0.15748) (end -16.23822 -0.15748) (layer Dwgs.User) (width 0.09906))
  (fp_line (start -16.23822 -0.15748) (end -16.23822 9.83996) (layer Dwgs.User) (width 0.09906))
  (fp_line (start -18.87982 -12.25804) (end 15.43812 -12.25804) (layer F.SilkS) (width 0.19812))
  (fp_line (start 15.43812 -12.25804) (end 15.43812 -2.25806) (layer F.SilkS) (width 0.19812))
  (fp_line (start 15.43812 -2.25806) (end 16.33982 -2.25806) (layer F.SilkS) (width 0.19812))
  (fp_line (start 16.33982 -2.25806) (end 16.33982 9.93902) (layer F.SilkS) (width 0.19812))
  (fp_line (start 16.33982 9.93902) (end -16.33982 9.93902) (layer F.SilkS) (width 0.19812))
  (fp_line (start -16.33982 9.93902) (end -16.33982 -0.05842) (layer F.SilkS) (width 0.19812))
  (fp_line (start -16.33982 -0.05842) (end -18.87982 -0.05842) (layer F.SilkS) (width 0.19812))
  (fp_line (start -18.87982 -0.05842) (end -18.87982 -12.25804) (layer F.SilkS) (width 0.19812))
  (fp_poly (pts (xy -19.07794 -12.4587) (xy 16.53794 -12.4587) (xy 16.53794 10.13968) (xy -19.07794 10.13968)
    (xy -19.07794 -12.4587)) (layer Dwgs.User) (width 0.09906))
  (fp_circle (center -14.25956 1.79832) (end -14.25956 1.6002) (layer F.SilkS) (width 0.39878))
  (fp_text user 2 (at -14.94282 -7.88416) (layer Dwgs.User)
    (effects (font (size 1.27 1.27) (thickness 0.1016)))
  )
  (fp_text user 1 (at -12.74318 -2.33426) (layer Dwgs.User)
    (effects (font (size 1.27 1.27) (thickness 0.1016)))
  )
  (fp_text user 11 (at 13.26896 -2.33426) (layer Dwgs.User)
    (effects (font (size 1.27 1.27) (thickness 0.1016)))
  )
  (fp_text user 12 (at 10.8077 -7.88416) (layer Dwgs.User)
    (effects (font (size 1.27 1.27) (thickness 0.1016)))
  )
  (pad 1 thru_hole circle (at -12.7 0) (size 2.39776 2.39776) (drill 1.59766) (layers *.Cu *.Paste *.Mask))
  (pad 2 thru_hole circle (at -15.24 -10.16) (size 2.39776 2.39776) (drill 1.59766) (layers *.Cu *.Paste *.Mask))
  (pad 3 thru_hole circle (at -7.62 0) (size 2.39776 2.39776) (drill 1.59766) (layers *.Cu *.Paste *.Mask))
  (pad 4 thru_hole circle (at -10.16 -10.16) (size 2.39776 2.39776) (drill 1.59766) (layers *.Cu *.Paste *.Mask))
  (pad 5 thru_hole circle (at -2.54 0) (size 2.39776 2.39776) (drill 1.59766) (layers *.Cu *.Paste *.Mask))
  (pad 6 thru_hole circle (at -5.08 -10.16) (size 2.39776 2.39776) (drill 1.59766) (layers *.Cu *.Paste *.Mask))
  (pad 7 thru_hole circle (at 2.54 0) (size 2.39776 2.39776) (drill 1.59766) (layers *.Cu *.Paste *.Mask))
  (pad 8 thru_hole circle (at 0 -10.16) (size 2.39776 2.39776) (drill 1.59766) (layers *.Cu *.Paste *.Mask))
  (pad 9 thru_hole circle (at 7.62 0) (size 2.39776 2.39776) (drill 1.59766) (layers *.Cu *.Paste *.Mask))
  (pad 10 thru_hole circle (at 5.08 -10.16) (size 2.39776 2.39776) (drill 1.59766) (layers *.Cu *.Paste *.Mask))
  (pad 11 thru_hole circle (at 12.7 0) (size 2.39776 2.39776) (drill 1.59766) (layers *.Cu *.Paste *.Mask))
  (pad 12 thru_hole circle (at 10.16 -10.16) (size 2.39776 2.39776) (drill 1.59766) (layers *.Cu *.Paste *.Mask))
)
