(module WR-TBL_Pluggable_Connector_rev20a-691310340012 (layer F.Cu) (tedit 200000)
  (descr "WR-TBL SERIE 3103 - 3.81 MM HORIZONTAL PCB HEADER WITH FLANGES")
  (tags "WR-TBL SERIE 3103 - 3.81 MM HORIZONTAL PCB HEADER WITH FLANGES")
  (attr virtual)
  (fp_text reference >NAME (at 0 -4.63296) (layer F.SilkS)
    (effects (font (size 1.27 1.27) (thickness 0.1016)))
  )
  (fp_text value >VALUE (at 0.30988 12.86256) (layer F.SilkS)
    (effects (font (size 1.27 1.27) (thickness 0.1016)))
  )
  (fp_line (start -28.0543 -3.16992) (end 28.0543 -3.16992) (layer Dwgs.User) (width 0.09906))
  (fp_line (start -28.0543 -3.16992) (end -28.0543 4.62788) (layer Dwgs.User) (width 0.09906))
  (fp_line (start 28.0543 -3.16992) (end 28.0543 4.62788) (layer Dwgs.User) (width 0.09906))
  (fp_line (start -22.35454 4.62788) (end -22.35454 11.3284) (layer Dwgs.User) (width 0.09906))
  (fp_line (start -22.35454 11.3284) (end 22.35454 11.3284) (layer Dwgs.User) (width 0.09906))
  (fp_line (start 22.35454 4.62788) (end 22.35454 11.3284) (layer Dwgs.User) (width 0.09906))
  (fp_line (start -28.0543 4.62788) (end -22.35454 4.62788) (layer Dwgs.User) (width 0.09906))
  (fp_line (start 22.35454 4.62788) (end 28.0543 4.62788) (layer Dwgs.User) (width 0.09906))
  (fp_line (start -28.15336 -3.26898) (end 28.15336 -3.26898) (layer F.SilkS) (width 0.19812))
  (fp_line (start 28.15336 -3.26898) (end 28.15336 4.72948) (layer F.SilkS) (width 0.19812))
  (fp_line (start 28.15336 4.72948) (end 22.4536 4.72948) (layer F.SilkS) (width 0.19812))
  (fp_line (start 22.4536 4.72948) (end 22.4536 11.43) (layer F.SilkS) (width 0.19812))
  (fp_line (start 22.4536 11.43) (end -22.4536 11.43) (layer F.SilkS) (width 0.19812))
  (fp_line (start -22.4536 11.43) (end -22.4536 4.72948) (layer F.SilkS) (width 0.19812))
  (fp_line (start -22.4536 4.72948) (end -28.15336 4.72948) (layer F.SilkS) (width 0.19812))
  (fp_line (start -28.15336 4.72948) (end -28.15336 -3.26898) (layer F.SilkS) (width 0.19812))
  (fp_poly (pts (xy -28.35402 -3.46964) (xy 28.35402 -3.46964) (xy 28.35402 4.9276) (xy 22.65426 4.9276)
    (xy 22.65426 11.62812) (xy -22.65426 11.62812) (xy -22.65426 4.9276) (xy -28.35402 4.9276)
    (xy -28.35402 -3.46964)) (layer Dwgs.User) (width 0.09906))
  (fp_circle (center -22.74824 -1.79832) (end -22.74824 -1.89738) (layer F.SilkS) (width 0.39878))
  (fp_text user 1 (at -22.24278 -0.00508) (layer Dwgs.User)
    (effects (font (size 0.8128 0.8128) (thickness 0.0762)))
  )
  (pad 1 thru_hole circle (at -20.955 -1.27) (size 1.79832 1.79832) (drill 1.19888) (layers *.Cu *.Paste *.Mask))
  (pad 2 thru_hole circle (at -17.145 -1.27) (size 1.79832 1.79832) (drill 1.19888) (layers *.Cu *.Paste *.Mask))
  (pad 3 thru_hole circle (at -13.335 -1.27) (size 1.79832 1.79832) (drill 1.19888) (layers *.Cu *.Paste *.Mask))
  (pad 4 thru_hole circle (at -9.525 -1.27) (size 1.79832 1.79832) (drill 1.19888) (layers *.Cu *.Paste *.Mask))
  (pad 5 thru_hole circle (at -5.715 -1.27) (size 1.79832 1.79832) (drill 1.19888) (layers *.Cu *.Paste *.Mask))
  (pad 6 thru_hole circle (at -1.905 -1.27) (size 1.79832 1.79832) (drill 1.19888) (layers *.Cu *.Paste *.Mask))
  (pad 7 thru_hole circle (at 1.905 -1.27) (size 1.79832 1.79832) (drill 1.19888) (layers *.Cu *.Paste *.Mask))
  (pad 8 thru_hole circle (at 5.715 -1.27) (size 1.79832 1.79832) (drill 1.19888) (layers *.Cu *.Paste *.Mask))
  (pad 9 thru_hole circle (at 9.525 -1.27) (size 1.79832 1.79832) (drill 1.19888) (layers *.Cu *.Paste *.Mask))
  (pad 10 thru_hole circle (at 13.335 -1.27) (size 1.79832 1.79832) (drill 1.19888) (layers *.Cu *.Paste *.Mask))
  (pad 11 thru_hole circle (at 17.145 -1.27) (size 1.79832 1.79832) (drill 1.19888) (layers *.Cu *.Paste *.Mask))
  (pad 12 thru_hole circle (at 20.955 -1.27) (size 1.79832 1.79832) (drill 1.19888) (layers *.Cu *.Paste *.Mask))
  (pad A1 thru_hole circle (at -20.955 1.27) (size 1.79832 1.79832) (drill 1.19888) (layers *.Cu *.Paste *.Mask))
  (pad A2 thru_hole circle (at -17.145 1.27) (size 1.79832 1.79832) (drill 1.19888) (layers *.Cu *.Paste *.Mask))
  (pad A3 thru_hole circle (at -13.335 1.27) (size 1.79832 1.79832) (drill 1.19888) (layers *.Cu *.Paste *.Mask))
  (pad A4 thru_hole circle (at -9.525 1.27) (size 1.79832 1.79832) (drill 1.19888) (layers *.Cu *.Paste *.Mask))
  (pad A5 thru_hole circle (at -5.715 1.27) (size 1.79832 1.79832) (drill 1.19888) (layers *.Cu *.Paste *.Mask))
  (pad A6 thru_hole circle (at -1.905 1.27) (size 1.79832 1.79832) (drill 1.19888) (layers *.Cu *.Paste *.Mask))
  (pad A7 thru_hole circle (at 1.905 1.27) (size 1.79832 1.79832) (drill 1.19888) (layers *.Cu *.Paste *.Mask))
  (pad A8 thru_hole circle (at 5.715 1.27) (size 1.79832 1.79832) (drill 1.19888) (layers *.Cu *.Paste *.Mask))
  (pad A9 thru_hole circle (at 9.525 1.27) (size 1.79832 1.79832) (drill 1.19888) (layers *.Cu *.Paste *.Mask))
  (pad A10 thru_hole circle (at 13.335 1.27) (size 1.79832 1.79832) (drill 1.19888) (layers *.Cu *.Paste *.Mask))
  (pad A11 thru_hole circle (at 17.145 1.27) (size 1.79832 1.79832) (drill 1.19888) (layers *.Cu *.Paste *.Mask))
  (pad A12 thru_hole circle (at 20.955 1.27) (size 1.79832 1.79832) (drill 1.19888) (layers *.Cu *.Paste *.Mask))
)
