(module WR-TBL_Pluggable_Connector_rev20a-691701540007B (layer F.Cu) (tedit 200000)
  (descr "WR-TBL SERIE 7015B - 5.08 MM CLOSE HORIZONTAL PCB HEADER THR TYPE")
  (tags "WR-TBL SERIE 7015B - 5.08 MM CLOSE HORIZONTAL PCB HEADER THR TYPE")
  (attr virtual)
  (fp_text reference >NAME (at 0 -3.63474) (layer F.SilkS)
    (effects (font (size 1.27 1.27) (thickness 0.1016)))
  )
  (fp_text value >VALUE (at 0.30988 11.36396) (layer F.SilkS)
    (effects (font (size 1.27 1.27) (thickness 0.1016)))
  )
  (fp_line (start 19.17954 -2.09804) (end -19.17954 -2.09804) (layer Dwgs.User) (width 0.09906))
  (fp_line (start -19.17954 -2.09804) (end -19.17954 9.89838) (layer Dwgs.User) (width 0.09906))
  (fp_line (start -19.17954 9.89838) (end 19.17954 9.89838) (layer Dwgs.User) (width 0.09906))
  (fp_line (start 19.17954 9.89838) (end 19.17954 -2.09804) (layer Dwgs.User) (width 0.09906))
  (fp_line (start -19.2786 -2.19964) (end 19.2786 -2.19964) (layer F.SilkS) (width 0.19812))
  (fp_line (start 19.2786 -2.19964) (end 19.2786 9.99998) (layer F.SilkS) (width 0.19812))
  (fp_line (start 19.2786 9.99998) (end -19.2786 9.99998) (layer F.SilkS) (width 0.19812))
  (fp_line (start -19.2786 9.99998) (end -19.2786 -2.19964) (layer F.SilkS) (width 0.19812))
  (fp_poly (pts (xy -19.47926 -2.39776) (xy 19.47926 -2.39776) (xy 19.47926 10.1981) (xy -19.47926 10.1981)
    (xy -19.47926 -2.39776)) (layer Dwgs.User) (width 0.09906))
  (fp_circle (center -16.99768 -1.39954) (end -16.99768 -1.4986) (layer F.SilkS) (width 0.39878))
  (pad 1 thru_hole circle (at -15.24 0) (size 2.39776 2.39776) (drill 1.59766) (layers *.Cu *.Paste *.Mask))
  (pad 2 thru_hole circle (at -10.16 0) (size 2.39776 2.39776) (drill 1.59766) (layers *.Cu *.Paste *.Mask))
  (pad 3 thru_hole circle (at -5.08 0) (size 2.39776 2.39776) (drill 1.59766) (layers *.Cu *.Paste *.Mask))
  (pad 4 thru_hole circle (at 0 0) (size 2.39776 2.39776) (drill 1.59766) (layers *.Cu *.Paste *.Mask))
  (pad 5 thru_hole circle (at 5.08 0) (size 2.39776 2.39776) (drill 1.59766) (layers *.Cu *.Paste *.Mask))
  (pad 6 thru_hole circle (at 10.16 0) (size 2.39776 2.39776) (drill 1.59766) (layers *.Cu *.Paste *.Mask))
  (pad 7 thru_hole circle (at 15.24 0) (size 2.39776 2.39776) (drill 1.59766) (layers *.Cu *.Paste *.Mask))
)
