(module WR-TBL_Pluggable_Connector_rev20a-691311400007 (layer F.Cu) (tedit 200000)
  (descr "WR-TBL SERIE 3114 - 7.62 MM OPEN VERTICAL PCB HEADER")
  (tags "WR-TBL SERIE 3114 - 7.62 MM OPEN VERTICAL PCB HEADER")
  (attr virtual)
  (fp_text reference >NAME (at 0 -6.1341) (layer F.SilkS)
    (effects (font (size 1.27 1.27) (thickness 0.1016)))
  )
  (fp_text value >VALUE (at 0.30988 5.36448) (layer F.SilkS)
    (effects (font (size 1.27 1.27) (thickness 0.1016)))
  )
  (fp_line (start 25.75814 -4.699) (end -25.75814 -4.699) (layer Dwgs.User) (width 0.09906))
  (fp_line (start -25.75814 -4.699) (end -25.75814 3.79984) (layer Dwgs.User) (width 0.09906))
  (fp_line (start -25.75814 3.79984) (end 25.75814 3.79984) (layer Dwgs.User) (width 0.09906))
  (fp_line (start 25.75814 3.79984) (end 25.75814 -4.699) (layer Dwgs.User) (width 0.09906))
  (fp_line (start -25.85974 -4.79806) (end 25.85974 -4.79806) (layer F.SilkS) (width 0.19812))
  (fp_line (start 25.85974 -4.79806) (end 25.85974 3.8989) (layer F.SilkS) (width 0.19812))
  (fp_line (start 25.85974 3.8989) (end -25.85974 3.8989) (layer F.SilkS) (width 0.19812))
  (fp_line (start -25.85974 3.8989) (end -25.85974 -4.79806) (layer F.SilkS) (width 0.19812))
  (fp_poly (pts (xy -26.05786 -4.99872) (xy 26.05786 -4.99872) (xy 26.05786 4.09956) (xy -26.05786 4.09956)
    (xy -26.05786 -4.99872)) (layer Dwgs.User) (width 0.09906))
  (fp_circle (center -24.64816 -2.09804) (end -24.64816 -2.1971) (layer F.SilkS) (width 0.39878))
  (pad 1 thru_hole circle (at -22.86 0) (size 2.39776 2.39776) (drill 1.59766) (layers *.Cu *.Paste *.Mask))
  (pad 2 thru_hole circle (at -15.24 0) (size 2.39776 2.39776) (drill 1.59766) (layers *.Cu *.Paste *.Mask))
  (pad 3 thru_hole circle (at -7.62 0) (size 2.39776 2.39776) (drill 1.59766) (layers *.Cu *.Paste *.Mask))
  (pad 4 thru_hole circle (at 0 0) (size 2.39776 2.39776) (drill 1.59766) (layers *.Cu *.Paste *.Mask))
  (pad 5 thru_hole circle (at 7.62 0) (size 2.39776 2.39776) (drill 1.59766) (layers *.Cu *.Paste *.Mask))
  (pad 6 thru_hole circle (at 15.24 0) (size 2.39776 2.39776) (drill 1.59766) (layers *.Cu *.Paste *.Mask))
  (pad 7 thru_hole circle (at 22.86 0) (size 2.39776 2.39776) (drill 1.59766) (layers *.Cu *.Paste *.Mask))
)
