(module LED_D1.8mm_W1.8mm_H2.4mm_Horizontal_O1.27mm_Z1.6mm (layer F.Cu) (tedit 5880A863)
  (descr "LED, ,  diameter 1.8mm size 1.8x2.4mm^2 z-position of LED center 1.6mm, 2 pins")
  (tags "LED   diameter 1.8mm size 1.8x2.4mm^2 z-position of LED center 1.6mm 2 pins")
  (fp_text reference REF** (at 1.27 -1.96) (layer F.SilkS)
    (effects (font (size 1 1) (thickness 0.15)))
  )
  (fp_text value LED_D1.8mm_W1.8mm_H2.4mm_Horizontal_O1.27mm_Z1.6mm (at 1.27 5.33) (layer F.Fab)
    (effects (font (size 1 1) (thickness 0.15)))
  )
  (fp_line (start -0.38 1.27) (end -0.38 2.87) (layer F.Fab) (width 0.1))
  (fp_line (start -0.38 2.87) (end 2.92 2.87) (layer F.Fab) (width 0.1))
  (fp_line (start 2.92 2.87) (end 2.92 1.27) (layer F.Fab) (width 0.1))
  (fp_line (start 2.92 1.27) (end -0.38 1.27) (layer F.Fab) (width 0.1))
  (fp_line (start 0.37 2.87) (end 0.37 4.27) (layer F.Fab) (width 0.1))
  (fp_line (start 0.37 4.27) (end 2.17 4.27) (layer F.Fab) (width 0.1))
  (fp_line (start 2.17 4.27) (end 2.17 2.87) (layer F.Fab) (width 0.1))
  (fp_line (start 2.17 2.87) (end 0.37 2.87) (layer F.Fab) (width 0.1))
  (fp_line (start 0 0) (end 0 1.27) (layer F.Fab) (width 0.1))
  (fp_line (start 0 1.27) (end 0 1.27) (layer F.Fab) (width 0.1))
  (fp_line (start 0 1.27) (end 0 0) (layer F.Fab) (width 0.1))
  (fp_line (start 0 0) (end 0 0) (layer F.Fab) (width 0.1))
  (fp_line (start 2.54 0) (end 2.54 1.27) (layer F.Fab) (width 0.1))
  (fp_line (start 2.54 1.27) (end 2.54 1.27) (layer F.Fab) (width 0.1))
  (fp_line (start 2.54 1.27) (end 2.54 0) (layer F.Fab) (width 0.1))
  (fp_line (start 2.54 0) (end 2.54 0) (layer F.Fab) (width 0.1))
  (fp_line (start -0.44 1.21) (end -0.44 2.93) (layer F.SilkS) (width 0.12))
  (fp_line (start -0.44 2.93) (end 2.98 2.93) (layer F.SilkS) (width 0.12))
  (fp_line (start 2.98 2.93) (end 2.98 1.21) (layer F.SilkS) (width 0.12))
  (fp_line (start 2.98 1.21) (end -0.44 1.21) (layer F.SilkS) (width 0.12))
  (fp_line (start -0.32 1.21) (end -0.32 2.93) (layer F.SilkS) (width 0.12))
  (fp_line (start -0.2 1.21) (end -0.2 2.93) (layer F.SilkS) (width 0.12))
  (fp_line (start 0.31 2.93) (end 0.31 4.33) (layer F.SilkS) (width 0.12))
  (fp_line (start 0.31 4.33) (end 2.23 4.33) (layer F.SilkS) (width 0.12))
  (fp_line (start 2.23 4.33) (end 2.23 2.93) (layer F.SilkS) (width 0.12))
  (fp_line (start 2.23 2.93) (end 0.31 2.93) (layer F.SilkS) (width 0.12))
  (fp_line (start 0 1.08) (end 0 1.21) (layer F.SilkS) (width 0.12))
  (fp_line (start 0 1.21) (end 0 1.21) (layer F.SilkS) (width 0.12))
  (fp_line (start 0 1.21) (end 0 1.08) (layer F.SilkS) (width 0.12))
  (fp_line (start 0 1.08) (end 0 1.08) (layer F.SilkS) (width 0.12))
  (fp_line (start 2.54 1.08) (end 2.54 1.21) (layer F.SilkS) (width 0.12))
  (fp_line (start 2.54 1.21) (end 2.54 1.21) (layer F.SilkS) (width 0.12))
  (fp_line (start 2.54 1.21) (end 2.54 1.08) (layer F.SilkS) (width 0.12))
  (fp_line (start 2.54 1.08) (end 2.54 1.08) (layer F.SilkS) (width 0.12))
  (fp_line (start -1.25 -1.25) (end -1.25 4.6) (layer F.CrtYd) (width 0.05))
  (fp_line (start -1.25 4.6) (end 3.75 4.6) (layer F.CrtYd) (width 0.05))
  (fp_line (start 3.75 4.6) (end 3.75 -1.25) (layer F.CrtYd) (width 0.05))
  (fp_line (start 3.75 -1.25) (end -1.25 -1.25) (layer F.CrtYd) (width 0.05))
  (pad 1 thru_hole rect (at 0 0) (size 1.8 1.8) (drill 0.9) (layers *.Cu *.Mask))
  (pad 2 thru_hole circle (at 2.54 0) (size 1.8 1.8) (drill 0.9) (layers *.Cu *.Mask))
  (model ${KIPRJMOD}/kicad_libs_k/models_k.3d/LED_THT_k.3dshapes/LED_D1.8mm_W1.8mm_H2.4mm_Horizontal_O1.27mm_Z1.6mm_k.wrl
    (at (xyz 0 0 0))
    (scale (xyz 1 1 1))
    (rotate (xyz 0 0 0))
  )
)