(module LED_D3.0mm_Horizontal_O1.27mm_Z6.0mm (layer F.Cu) (tedit 5880A862)
  (descr "LED, diameter 3.0mm z-position of LED center 2.0mm, 2 pins, diameter 3.0mm z-position of LED center 2.0mm, 2 pins, diameter 3.0mm z-position of LED center 2.0mm, 2 pins, diameter 3.0mm z-position of LED center 6.0mm, 2 pins")
  (tags "LED diameter 3.0mm z-position of LED center 2.0mm 2 pins diameter 3.0mm z-position of LED center 2.0mm 2 pins diameter 3.0mm z-position of LED center 2.0mm 2 pins diameter 3.0mm z-position of LED center 6.0mm 2 pins")
  (fp_text reference REF** (at 1.27 -1.96) (layer F.SilkS)
    (effects (font (size 1 1) (thickness 0.15)))
  )
  (fp_text value LED_D3.0mm_Horizontal_O1.27mm_Z6.0mm (at 1.27 7.63) (layer F.Fab)
    (effects (font (size 1 1) (thickness 0.15)))
  )
  (fp_arc (start 1.27 5.07) (end -0.23 5.07) (angle -180.0) (layer F.Fab) (width 0.1))
  (fp_arc (start 1.27 5.07) (end -0.29 5.07) (angle -180.0) (layer F.SilkS) (width 0.12))
  (fp_line (start -0.23 1.27) (end -0.23 5.07) (layer F.Fab) (width 0.1))
  (fp_line (start 2.77 1.27) (end 2.77 5.07) (layer F.Fab) (width 0.1))
  (fp_line (start -0.23 1.27) (end 2.77 1.27) (layer F.Fab) (width 0.1))
  (fp_line (start 3.17 1.27) (end 3.17 2.27) (layer F.Fab) (width 0.1))
  (fp_line (start 3.17 2.27) (end 2.77 2.27) (layer F.Fab) (width 0.1))
  (fp_line (start 2.77 2.27) (end 2.77 1.27) (layer F.Fab) (width 0.1))
  (fp_line (start 2.77 1.27) (end 3.17 1.27) (layer F.Fab) (width 0.1))
  (fp_line (start 0 0) (end 0 1.27) (layer F.Fab) (width 0.1))
  (fp_line (start 0 1.27) (end 0 1.27) (layer F.Fab) (width 0.1))
  (fp_line (start 0 1.27) (end 0 0) (layer F.Fab) (width 0.1))
  (fp_line (start 0 0) (end 0 0) (layer F.Fab) (width 0.1))
  (fp_line (start 2.54 0) (end 2.54 1.27) (layer F.Fab) (width 0.1))
  (fp_line (start 2.54 1.27) (end 2.54 1.27) (layer F.Fab) (width 0.1))
  (fp_line (start 2.54 1.27) (end 2.54 0) (layer F.Fab) (width 0.1))
  (fp_line (start 2.54 0) (end 2.54 0) (layer F.Fab) (width 0.1))
  (fp_line (start -0.29 1.21) (end -0.29 5.07) (layer F.SilkS) (width 0.12))
  (fp_line (start 2.83 1.21) (end 2.83 5.07) (layer F.SilkS) (width 0.12))
  (fp_line (start -0.29 1.21) (end 2.83 1.21) (layer F.SilkS) (width 0.12))
  (fp_line (start 3.23 1.21) (end 3.23 2.33) (layer F.SilkS) (width 0.12))
  (fp_line (start 3.23 2.33) (end 2.83 2.33) (layer F.SilkS) (width 0.12))
  (fp_line (start 2.83 2.33) (end 2.83 1.21) (layer F.SilkS) (width 0.12))
  (fp_line (start 2.83 1.21) (end 3.23 1.21) (layer F.SilkS) (width 0.12))
  (fp_line (start 0 1.08) (end 0 1.21) (layer F.SilkS) (width 0.12))
  (fp_line (start 0 1.21) (end 0 1.21) (layer F.SilkS) (width 0.12))
  (fp_line (start 0 1.21) (end 0 1.08) (layer F.SilkS) (width 0.12))
  (fp_line (start 0 1.08) (end 0 1.08) (layer F.SilkS) (width 0.12))
  (fp_line (start 2.54 1.08) (end 2.54 1.21) (layer F.SilkS) (width 0.12))
  (fp_line (start 2.54 1.21) (end 2.54 1.21) (layer F.SilkS) (width 0.12))
  (fp_line (start 2.54 1.21) (end 2.54 1.08) (layer F.SilkS) (width 0.12))
  (fp_line (start 2.54 1.08) (end 2.54 1.08) (layer F.SilkS) (width 0.12))
  (fp_line (start -1.25 -1.25) (end -1.25 6.9) (layer F.CrtYd) (width 0.05))
  (fp_line (start -1.25 6.9) (end 3.75 6.9) (layer F.CrtYd) (width 0.05))
  (fp_line (start 3.75 6.9) (end 3.75 -1.25) (layer F.CrtYd) (width 0.05))
  (fp_line (start 3.75 -1.25) (end -1.25 -1.25) (layer F.CrtYd) (width 0.05))
  (pad 1 thru_hole rect (at 0 0) (size 1.8 1.8) (drill 0.9) (layers *.Cu *.Mask))
  (pad 2 thru_hole circle (at 2.54 0) (size 1.8 1.8) (drill 0.9) (layers *.Cu *.Mask))
  (model ${KIPRJMOD}/kicad_libs_k/models_k.3d/LED_THT_k.3dshapes/LED_D3.0mm_Horizontal_O1.27mm_Z6.0mm_k.wrl
    (at (xyz 0 0 0))
    (scale (xyz 1 1 1))
    (rotate (xyz 0 0 0))
  )
)