(module LED_D2.0mm_W4.8mm_H2.5mm_FlatTop (layer F.Cu) (tedit 5880A862)
  (descr "LED, Round, FlatTop,  Rectangular size 4.8x2.5mm^2 diameter 2.0mm, 2 pins, http://www.kingbright.com/attachments/file/psearch/000/00/00/L-13GD(Ver.11B).pdf")
  (tags "LED Round FlatTop  Rectangular size 4.8x2.5mm^2 diameter 2.0mm 2 pins")
  (fp_text reference REF** (at 1.27 -2.31) (layer F.SilkS)
    (effects (font (size 1 1) (thickness 0.15)))
  )
  (fp_text value LED_D2.0mm_W4.8mm_H2.5mm_FlatTop (at 1.27 2.31) (layer F.Fab)
    (effects (font (size 1 1) (thickness 0.15)))
  )
  (fp_circle (center 1.27 0) (end 2.27 0) (layer F.Fab) (width 0.1))
  (fp_line (start -1.13 -1.25) (end -1.13 1.25) (layer F.Fab) (width 0.1))
  (fp_line (start -1.13 1.25) (end 3.67 1.25) (layer F.Fab) (width 0.1))
  (fp_line (start 3.67 1.25) (end 3.67 -1.25) (layer F.Fab) (width 0.1))
  (fp_line (start 3.67 -1.25) (end -1.13 -1.25) (layer F.Fab) (width 0.1))
  (fp_line (start -1.19 -1.31) (end 3.73 -1.31) (layer F.SilkS) (width 0.12))
  (fp_line (start -1.19 1.31) (end 3.73 1.31) (layer F.SilkS) (width 0.12))
  (fp_line (start -1.19 -1.31) (end -1.19 1.31) (layer F.SilkS) (width 0.12))
  (fp_line (start 3.73 -1.31) (end 3.73 1.31) (layer F.SilkS) (width 0.12))
  (fp_line (start -1.07 -1.31) (end -1.07 -1.08) (layer F.SilkS) (width 0.12))
  (fp_line (start -1.07 1.08) (end -1.07 1.31) (layer F.SilkS) (width 0.12))
  (fp_line (start -0.95 -1.31) (end -0.95 -1.08) (layer F.SilkS) (width 0.12))
  (fp_line (start -0.95 1.08) (end -0.95 1.31) (layer F.SilkS) (width 0.12))
  (fp_line (start -1.45 -1.6) (end -1.45 1.6) (layer F.CrtYd) (width 0.05))
  (fp_line (start -1.45 1.6) (end 4 1.6) (layer F.CrtYd) (width 0.05))
  (fp_line (start 4 1.6) (end 4 -1.6) (layer F.CrtYd) (width 0.05))
  (fp_line (start 4 -1.6) (end -1.45 -1.6) (layer F.CrtYd) (width 0.05))
  (pad 1 thru_hole rect (at 0 0) (size 1.8 1.8) (drill 0.9) (layers *.Cu *.Mask))
  (pad 2 thru_hole circle (at 2.54 0) (size 1.8 1.8) (drill 0.9) (layers *.Cu *.Mask))
  (model ${KIPRJMOD}/kicad_libs_k/models_k.3d/LED_THT_k.3dshapes/LED_D2.0mm_W4.8mm_H2.5mm_FlatTop_k.wrl
    (at (xyz 0 0 0))
    (scale (xyz 1 1 1))
    (rotate (xyz 0 0 0))
  )
)