(module LED_D5.0mm_Horizontal_O1.27mm_Z3.0mm_Clear (layer F.Cu) (tedit 5A6C9E1C)
  (descr "LED, diameter 5.0mm z-position of LED center 3.0mm, 2 pins")
  (tags "LED diameter 5.0mm z-position of LED center 3.0mm 2 pins")
  (fp_text reference REF** (at 1.27 -1.96) (layer F.SilkS)
    (effects (font (size 1 1) (thickness 0.15)))
  )
  (fp_text value LED_D5.0mm_Horizontal_O1.27mm_Z3.0mm_Clear (at 1.27 10.93) (layer F.Fab)
    (effects (font (size 1 1) (thickness 0.15)))
  )
  (fp_text user %R (at 1.27 0) (layer F.Fab)
    (effects (font (size 1 1) (thickness 0.15)))
  )
  (fp_line (start -1.23 1.27) (end -1.23 7.37) (layer F.Fab) (width 0.1))
  (fp_line (start 3.77 1.27) (end 3.77 7.37) (layer F.Fab) (width 0.1))
  (fp_line (start -1.23 1.27) (end 3.77 1.27) (layer F.Fab) (width 0.1))
  (fp_line (start 4.17 1.27) (end 4.17 2.27) (layer F.Fab) (width 0.1))
  (fp_line (start 4.17 2.27) (end 3.77 2.27) (layer F.Fab) (width 0.1))
  (fp_line (start 3.77 2.27) (end 3.77 1.27) (layer F.Fab) (width 0.1))
  (fp_line (start 3.77 1.27) (end 4.17 1.27) (layer F.Fab) (width 0.1))
  (fp_line (start 0 0) (end 0 1.27) (layer F.Fab) (width 0.1))
  (fp_line (start 0 1.27) (end 0 1.27) (layer F.Fab) (width 0.1))
  (fp_line (start 0 1.27) (end 0 0) (layer F.Fab) (width 0.1))
  (fp_line (start 0 0) (end 0 0) (layer F.Fab) (width 0.1))
  (fp_line (start 2.54 0) (end 2.54 1.27) (layer F.Fab) (width 0.1))
  (fp_line (start 2.54 1.27) (end 2.54 1.27) (layer F.Fab) (width 0.1))
  (fp_line (start 2.54 1.27) (end 2.54 0) (layer F.Fab) (width 0.1))
  (fp_line (start 2.54 0) (end 2.54 0) (layer F.Fab) (width 0.1))
  (fp_line (start -1.29 1.21) (end -1.29 7.37) (layer F.SilkS) (width 0.12))
  (fp_line (start 3.83 1.21) (end 3.83 7.37) (layer F.SilkS) (width 0.12))
  (fp_line (start -1.29 1.21) (end 3.83 1.21) (layer F.SilkS) (width 0.12))
  (fp_line (start 4.23 1.21) (end 4.23 2.33) (layer F.SilkS) (width 0.12))
  (fp_line (start 4.23 2.33) (end 3.83 2.33) (layer F.SilkS) (width 0.12))
  (fp_line (start 3.83 2.33) (end 3.83 1.21) (layer F.SilkS) (width 0.12))
  (fp_line (start 3.83 1.21) (end 4.23 1.21) (layer F.SilkS) (width 0.12))
  (fp_line (start 0 1.08) (end 0 1.21) (layer F.SilkS) (width 0.12))
  (fp_line (start 0 1.21) (end 0 1.21) (layer F.SilkS) (width 0.12))
  (fp_line (start 0 1.21) (end 0 1.08) (layer F.SilkS) (width 0.12))
  (fp_line (start 0 1.08) (end 0 1.08) (layer F.SilkS) (width 0.12))
  (fp_line (start 2.54 1.08) (end 2.54 1.21) (layer F.SilkS) (width 0.12))
  (fp_line (start 2.54 1.21) (end 2.54 1.21) (layer F.SilkS) (width 0.12))
  (fp_line (start 2.54 1.21) (end 2.54 1.08) (layer F.SilkS) (width 0.12))
  (fp_line (start 2.54 1.08) (end 2.54 1.08) (layer F.SilkS) (width 0.12))
  (fp_line (start -1.95 -1.25) (end -1.95 10.2) (layer F.CrtYd) (width 0.05))
  (fp_line (start -1.95 10.2) (end 4.5 10.2) (layer F.CrtYd) (width 0.05))
  (fp_line (start 4.5 10.2) (end 4.5 -1.25) (layer F.CrtYd) (width 0.05))
  (fp_line (start 4.5 -1.25) (end -1.95 -1.25) (layer F.CrtYd) (width 0.05))
  (fp_arc (start 1.27 7.37) (end -1.23 7.37) (angle -180) (layer F.Fab) (width 0.1))
  (fp_arc (start 1.27 7.37) (end -1.29 7.37) (angle -180) (layer F.SilkS) (width 0.12))
  (pad 1 thru_hole rect (at 0 0) (size 1.8 1.8) (drill 0.9) (layers *.Cu *.Mask))
  (pad 2 thru_hole circle (at 2.54 0) (size 1.8 1.8) (drill 0.9) (layers *.Cu *.Mask))
  (model ${KIPRJMOD}/kicad_libs_k/models_k.3d/LED_THT_k.3dshapes/LED_D5.0mm_Horizontal_O1.27mm_Z3.0mm_Clear_k.wrl
    (at (xyz 0 0 0))
    (scale (xyz 1 1 1))
    (rotate (xyz 0 0 0))
  )
)
