(module LED_Rectangular_W5.0mm_H2.0mm_Horizontal_O1.27mm_Z5.0mm (layer F.Cu) (tedit 5880A863)
  (descr "LED_Rectangular, Rectangular,  Rectangular size 5.0x2.0mm^2 z-position of LED center 1.0mm, 2 pins,  Rectangular size 5.0x2.0mm^2 z-position of LED center 1.0mm, 2 pins,  Rectangular size 5.0x2.0mm^2 z-position of LED center 1.0mm, 2 pins,  Rectangular size 5.0x2.0mm^2 z-position of LED center 3.0mm, 2 pins,  Rectangular size 5.0x2.0mm^2 z-position of LED center 3.0mm, 2 pins,  Rectangular size 5.0x2.0mm^2 z-position of LED center 3.0mm, 2 pins,  Rectangular size 5.0x2.0mm^2 z-position of LED center 5.0mm, 2 pins")
  (tags "LED_Rectangular Rectangular  Rectangular size 5.0x2.0mm^2 z-position of LED center 1.0mm 2 pins  Rectangular size 5.0x2.0mm^2 z-position of LED center 1.0mm 2 pins  Rectangular size 5.0x2.0mm^2 z-position of LED center 1.0mm 2 pins  Rectangular size 5.0x2.0mm^2 z-position of LED center 3.0mm 2 pins  Rectangular size 5.0x2.0mm^2 z-position of LED center 3.0mm 2 pins  Rectangular size 5.0x2.0mm^2 z-position of LED center 3.0mm 2 pins  Rectangular size 5.0x2.0mm^2 z-position of LED center 5.0mm 2 pins")
  (fp_text reference REF** (at 1.27 -1.96) (layer F.SilkS)
    (effects (font (size 1 1) (thickness 0.15)))
  )
  (fp_text value LED_Rectangular_W5.0mm_H2.0mm_Horizontal_O1.27mm_Z5.0mm (at 1.27 12.03) (layer F.Fab)
    (effects (font (size 1 1) (thickness 0.15)))
  )
  (fp_line (start -1.23 1.27) (end -1.23 10.97) (layer F.Fab) (width 0.1))
  (fp_line (start -1.23 10.97) (end 3.77 10.97) (layer F.Fab) (width 0.1))
  (fp_line (start 3.77 10.97) (end 3.77 1.27) (layer F.Fab) (width 0.1))
  (fp_line (start 3.77 1.27) (end -1.23 1.27) (layer F.Fab) (width 0.1))
  (fp_line (start 0 0) (end 0 1.27) (layer F.Fab) (width 0.1))
  (fp_line (start 0 1.27) (end 0 1.27) (layer F.Fab) (width 0.1))
  (fp_line (start 0 1.27) (end 0 0) (layer F.Fab) (width 0.1))
  (fp_line (start 0 0) (end 0 0) (layer F.Fab) (width 0.1))
  (fp_line (start 2.54 0) (end 2.54 1.27) (layer F.Fab) (width 0.1))
  (fp_line (start 2.54 1.27) (end 2.54 1.27) (layer F.Fab) (width 0.1))
  (fp_line (start 2.54 1.27) (end 2.54 0) (layer F.Fab) (width 0.1))
  (fp_line (start 2.54 0) (end 2.54 0) (layer F.Fab) (width 0.1))
  (fp_line (start -1.29 1.21) (end -1.29 11.03) (layer F.SilkS) (width 0.12))
  (fp_line (start -1.29 11.03) (end 3.83 11.03) (layer F.SilkS) (width 0.12))
  (fp_line (start 3.83 11.03) (end 3.83 1.21) (layer F.SilkS) (width 0.12))
  (fp_line (start 3.83 1.21) (end -1.29 1.21) (layer F.SilkS) (width 0.12))
  (fp_line (start -1.17 1.21) (end -1.17 11.03) (layer F.SilkS) (width 0.12))
  (fp_line (start -1.05 1.21) (end -1.05 11.03) (layer F.SilkS) (width 0.12))
  (fp_line (start 0 1.08) (end 0 1.21) (layer F.SilkS) (width 0.12))
  (fp_line (start 0 1.21) (end 0 1.21) (layer F.SilkS) (width 0.12))
  (fp_line (start 0 1.21) (end 0 1.08) (layer F.SilkS) (width 0.12))
  (fp_line (start 0 1.08) (end 0 1.08) (layer F.SilkS) (width 0.12))
  (fp_line (start 2.54 1.08) (end 2.54 1.21) (layer F.SilkS) (width 0.12))
  (fp_line (start 2.54 1.21) (end 2.54 1.21) (layer F.SilkS) (width 0.12))
  (fp_line (start 2.54 1.21) (end 2.54 1.08) (layer F.SilkS) (width 0.12))
  (fp_line (start 2.54 1.08) (end 2.54 1.08) (layer F.SilkS) (width 0.12))
  (fp_line (start -1.55 -1.25) (end -1.55 11.3) (layer F.CrtYd) (width 0.05))
  (fp_line (start -1.55 11.3) (end 4.1 11.3) (layer F.CrtYd) (width 0.05))
  (fp_line (start 4.1 11.3) (end 4.1 -1.25) (layer F.CrtYd) (width 0.05))
  (fp_line (start 4.1 -1.25) (end -1.55 -1.25) (layer F.CrtYd) (width 0.05))
  (pad 1 thru_hole rect (at 0 0) (size 1.8 1.8) (drill 0.9) (layers *.Cu *.Mask))
  (pad 2 thru_hole circle (at 2.54 0) (size 1.8 1.8) (drill 0.9) (layers *.Cu *.Mask))
  (model ${KIPRJMOD}/kicad_libs_k/models_k.3d/LED_THT_k.3dshapes/LED_Rectangular_W5.0mm_H2.0mm_Horizontal_O1.27mm_Z5.0mm_k.wrl
    (at (xyz 0 0 0))
    (scale (xyz 1 1 1))
    (rotate (xyz 0 0 0))
  )
)