(module LED_Rectangular_W3.9mm_H1.9mm (layer F.Cu) (tedit 587A3A7B)
  (descr "LED_Rectangular, Rectangular,  Rectangular size 3.9x1.9mm^2, 2 pins, http://www.kingbright.com/attachments/file/psearch/000/00/00/L-144GDT(Ver.14B).pdf")
  (tags "LED_Rectangular Rectangular  Rectangular size 3.9x1.9mm^2 2 pins")
  (fp_text reference REF** (at 1.27 -2.01) (layer F.SilkS)
    (effects (font (size 1 1) (thickness 0.15)))
  )
  (fp_text value LED_Rectangular_W3.9mm_H1.9mm (at 1.27 2.01) (layer F.Fab)
    (effects (font (size 1 1) (thickness 0.15)))
  )
  (fp_line (start -0.68 -0.95) (end -0.68 0.95) (layer F.Fab) (width 0.1))
  (fp_line (start -0.68 0.95) (end 3.22 0.95) (layer F.Fab) (width 0.1))
  (fp_line (start 3.22 0.95) (end 3.22 -0.95) (layer F.Fab) (width 0.1))
  (fp_line (start 3.22 -0.95) (end -0.68 -0.95) (layer F.Fab) (width 0.1))
  (fp_line (start 1.08 -1.01) (end 1.811 -1.01) (layer F.SilkS) (width 0.12))
  (fp_line (start 3.27 -1.01) (end 3.28 -1.01) (layer F.SilkS) (width 0.12))
  (fp_line (start 1.08 1.01) (end 1.811 1.01) (layer F.SilkS) (width 0.12))
  (fp_line (start 3.27 1.01) (end 3.28 1.01) (layer F.SilkS) (width 0.12))
  (fp_line (start 3.28 -1.01) (end 3.28 -0.825) (layer F.SilkS) (width 0.12))
  (fp_line (start 3.28 0.825) (end 3.28 1.01) (layer F.SilkS) (width 0.12))
  (fp_line (start -1.15 -1.3) (end -1.15 1.3) (layer F.CrtYd) (width 0.05))
  (fp_line (start -1.15 1.3) (end 3.7 1.3) (layer F.CrtYd) (width 0.05))
  (fp_line (start 3.7 1.3) (end 3.7 -1.3) (layer F.CrtYd) (width 0.05))
  (fp_line (start 3.7 -1.3) (end -1.15 -1.3) (layer F.CrtYd) (width 0.05))
  (pad 1 thru_hole rect (at 0 0) (size 1.8 1.8) (drill 0.9) (layers *.Cu *.Mask))
  (pad 2 thru_hole circle (at 2.54 0) (size 1.8 1.8) (drill 0.9) (layers *.Cu *.Mask))
  (model ${KIPRJMOD}/kicad_libs_k/models_k.3d/LED_THT_k.3dshapes/LED_Rectangular_W3.9mm_H1.9mm_k.wrl
    (at (xyz 0 0 0))
    (scale (xyz 1 1 1))
    (rotate (xyz 0 0 0))
  )
)