(module LED_Rectangular_W5.0mm_H2.0mm_Horizontal_O6.35mm_Z3.0mm (layer F.Cu) (tedit 5880A863)
  (descr "LED_Rectangular, Rectangular,  Rectangular size 5.0x2.0mm^2 z-position of LED center 1.0mm, 2 pins,  Rectangular size 5.0x2.0mm^2 z-position of LED center 1.0mm, 2 pins,  Rectangular size 5.0x2.0mm^2 z-position of LED center 1.0mm, 2 pins,  Rectangular size 5.0x2.0mm^2 z-position of LED center 3.0mm, 2 pins,  Rectangular size 5.0x2.0mm^2 z-position of LED center 3.0mm, 2 pins,  Rectangular size 5.0x2.0mm^2 z-position of LED center 3.0mm, 2 pins")
  (tags "LED_Rectangular Rectangular  Rectangular size 5.0x2.0mm^2 z-position of LED center 1.0mm 2 pins  Rectangular size 5.0x2.0mm^2 z-position of LED center 1.0mm 2 pins  Rectangular size 5.0x2.0mm^2 z-position of LED center 1.0mm 2 pins  Rectangular size 5.0x2.0mm^2 z-position of LED center 3.0mm 2 pins  Rectangular size 5.0x2.0mm^2 z-position of LED center 3.0mm 2 pins  Rectangular size 5.0x2.0mm^2 z-position of LED center 3.0mm 2 pins")
  (fp_text reference REF** (at 1.27 -1.96) (layer F.SilkS)
    (effects (font (size 1 1) (thickness 0.15)))
  )
  (fp_text value LED_Rectangular_W5.0mm_H2.0mm_Horizontal_O6.35mm_Z3.0mm (at 1.27 17.11) (layer F.Fab)
    (effects (font (size 1 1) (thickness 0.15)))
  )
  (fp_line (start -1.23 6.35) (end -1.23 16.05) (layer F.Fab) (width 0.1))
  (fp_line (start -1.23 16.05) (end 3.77 16.05) (layer F.Fab) (width 0.1))
  (fp_line (start 3.77 16.05) (end 3.77 6.35) (layer F.Fab) (width 0.1))
  (fp_line (start 3.77 6.35) (end -1.23 6.35) (layer F.Fab) (width 0.1))
  (fp_line (start 0 0) (end 0 6.35) (layer F.Fab) (width 0.1))
  (fp_line (start 0 6.35) (end 0 6.35) (layer F.Fab) (width 0.1))
  (fp_line (start 0 6.35) (end 0 0) (layer F.Fab) (width 0.1))
  (fp_line (start 0 0) (end 0 0) (layer F.Fab) (width 0.1))
  (fp_line (start 2.54 0) (end 2.54 6.35) (layer F.Fab) (width 0.1))
  (fp_line (start 2.54 6.35) (end 2.54 6.35) (layer F.Fab) (width 0.1))
  (fp_line (start 2.54 6.35) (end 2.54 0) (layer F.Fab) (width 0.1))
  (fp_line (start 2.54 0) (end 2.54 0) (layer F.Fab) (width 0.1))
  (fp_line (start -1.29 6.29) (end -1.29 16.11) (layer F.SilkS) (width 0.12))
  (fp_line (start -1.29 16.11) (end 3.83 16.11) (layer F.SilkS) (width 0.12))
  (fp_line (start 3.83 16.11) (end 3.83 6.29) (layer F.SilkS) (width 0.12))
  (fp_line (start 3.83 6.29) (end -1.29 6.29) (layer F.SilkS) (width 0.12))
  (fp_line (start -1.17 6.29) (end -1.17 16.11) (layer F.SilkS) (width 0.12))
  (fp_line (start -1.05 6.29) (end -1.05 16.11) (layer F.SilkS) (width 0.12))
  (fp_line (start 0 1.08) (end 0 6.29) (layer F.SilkS) (width 0.12))
  (fp_line (start 0 6.29) (end 0 6.29) (layer F.SilkS) (width 0.12))
  (fp_line (start 0 6.29) (end 0 1.08) (layer F.SilkS) (width 0.12))
  (fp_line (start 0 1.08) (end 0 1.08) (layer F.SilkS) (width 0.12))
  (fp_line (start 2.54 1.08) (end 2.54 6.29) (layer F.SilkS) (width 0.12))
  (fp_line (start 2.54 6.29) (end 2.54 6.29) (layer F.SilkS) (width 0.12))
  (fp_line (start 2.54 6.29) (end 2.54 1.08) (layer F.SilkS) (width 0.12))
  (fp_line (start 2.54 1.08) (end 2.54 1.08) (layer F.SilkS) (width 0.12))
  (fp_line (start -1.55 -1.25) (end -1.55 16.4) (layer F.CrtYd) (width 0.05))
  (fp_line (start -1.55 16.4) (end 4.1 16.4) (layer F.CrtYd) (width 0.05))
  (fp_line (start 4.1 16.4) (end 4.1 -1.25) (layer F.CrtYd) (width 0.05))
  (fp_line (start 4.1 -1.25) (end -1.55 -1.25) (layer F.CrtYd) (width 0.05))
  (pad 1 thru_hole rect (at 0 0) (size 1.8 1.8) (drill 0.9) (layers *.Cu *.Mask))
  (pad 2 thru_hole circle (at 2.54 0) (size 1.8 1.8) (drill 0.9) (layers *.Cu *.Mask))
  (model ${KIPRJMOD}/kicad_libs_k/models_k.3d/LED_THT_k.3dshapes/LED_Rectangular_W5.0mm_H2.0mm_Horizontal_O6.35mm_Z3.0mm_k.wrl
    (at (xyz 0 0 0))
    (scale (xyz 1 1 1))
    (rotate (xyz 0 0 0))
  )
)