(module PinSocket_2x16_P2.00mm_Horizontal (layer F.Cu) (tedit 5A19A421)
  (descr "Through hole angled socket strip, 2x16, 2.00mm pitch, 6.35mm socket length, double cols (from Kicad 4.0.7), script generated")
  (tags "Through hole angled socket strip THT 2x16 2.00mm double row")
  (fp_text reference REF** (at -4.31 -2.5) (layer F.SilkS)
    (effects (font (size 1 1) (thickness 0.15)))
  )
  (fp_text value PinSocket_2x16_P2.00mm_Horizontal (at -4.31 32.5) (layer F.Fab)
    (effects (font (size 1 1) (thickness 0.15)))
  )
  (fp_line (start -9.62 -1) (end -3.97 -1) (layer F.Fab) (width 0.1))
  (fp_line (start -3.97 -1) (end -3.27 -0.3) (layer F.Fab) (width 0.1))
  (fp_line (start -3.27 -0.3) (end -3.27 31) (layer F.Fab) (width 0.1))
  (fp_line (start -3.27 31) (end -9.62 31) (layer F.Fab) (width 0.1))
  (fp_line (start -9.62 31) (end -9.62 -1) (layer F.Fab) (width 0.1))
  (fp_line (start 0 -0.3) (end -3.27 -0.3) (layer F.Fab) (width 0.1))
  (fp_line (start -3.27 0.3) (end 0 0.3) (layer F.Fab) (width 0.1))
  (fp_line (start 0 0.3) (end 0 -0.3) (layer F.Fab) (width 0.1))
  (fp_line (start 0 1.7) (end -3.27 1.7) (layer F.Fab) (width 0.1))
  (fp_line (start -3.27 2.3) (end 0 2.3) (layer F.Fab) (width 0.1))
  (fp_line (start 0 2.3) (end 0 1.7) (layer F.Fab) (width 0.1))
  (fp_line (start 0 3.7) (end -3.27 3.7) (layer F.Fab) (width 0.1))
  (fp_line (start -3.27 4.3) (end 0 4.3) (layer F.Fab) (width 0.1))
  (fp_line (start 0 4.3) (end 0 3.7) (layer F.Fab) (width 0.1))
  (fp_line (start 0 5.7) (end -3.27 5.7) (layer F.Fab) (width 0.1))
  (fp_line (start -3.27 6.3) (end 0 6.3) (layer F.Fab) (width 0.1))
  (fp_line (start 0 6.3) (end 0 5.7) (layer F.Fab) (width 0.1))
  (fp_line (start 0 7.7) (end -3.27 7.7) (layer F.Fab) (width 0.1))
  (fp_line (start -3.27 8.3) (end 0 8.3) (layer F.Fab) (width 0.1))
  (fp_line (start 0 8.3) (end 0 7.7) (layer F.Fab) (width 0.1))
  (fp_line (start 0 9.7) (end -3.27 9.7) (layer F.Fab) (width 0.1))
  (fp_line (start -3.27 10.3) (end 0 10.3) (layer F.Fab) (width 0.1))
  (fp_line (start 0 10.3) (end 0 9.7) (layer F.Fab) (width 0.1))
  (fp_line (start 0 11.7) (end -3.27 11.7) (layer F.Fab) (width 0.1))
  (fp_line (start -3.27 12.3) (end 0 12.3) (layer F.Fab) (width 0.1))
  (fp_line (start 0 12.3) (end 0 11.7) (layer F.Fab) (width 0.1))
  (fp_line (start 0 13.7) (end -3.27 13.7) (layer F.Fab) (width 0.1))
  (fp_line (start -3.27 14.3) (end 0 14.3) (layer F.Fab) (width 0.1))
  (fp_line (start 0 14.3) (end 0 13.7) (layer F.Fab) (width 0.1))
  (fp_line (start 0 15.7) (end -3.27 15.7) (layer F.Fab) (width 0.1))
  (fp_line (start -3.27 16.3) (end 0 16.3) (layer F.Fab) (width 0.1))
  (fp_line (start 0 16.3) (end 0 15.7) (layer F.Fab) (width 0.1))
  (fp_line (start 0 17.7) (end -3.27 17.7) (layer F.Fab) (width 0.1))
  (fp_line (start -3.27 18.3) (end 0 18.3) (layer F.Fab) (width 0.1))
  (fp_line (start 0 18.3) (end 0 17.7) (layer F.Fab) (width 0.1))
  (fp_line (start 0 19.7) (end -3.27 19.7) (layer F.Fab) (width 0.1))
  (fp_line (start -3.27 20.3) (end 0 20.3) (layer F.Fab) (width 0.1))
  (fp_line (start 0 20.3) (end 0 19.7) (layer F.Fab) (width 0.1))
  (fp_line (start 0 21.7) (end -3.27 21.7) (layer F.Fab) (width 0.1))
  (fp_line (start -3.27 22.3) (end 0 22.3) (layer F.Fab) (width 0.1))
  (fp_line (start 0 22.3) (end 0 21.7) (layer F.Fab) (width 0.1))
  (fp_line (start 0 23.7) (end -3.27 23.7) (layer F.Fab) (width 0.1))
  (fp_line (start -3.27 24.3) (end 0 24.3) (layer F.Fab) (width 0.1))
  (fp_line (start 0 24.3) (end 0 23.7) (layer F.Fab) (width 0.1))
  (fp_line (start 0 25.7) (end -3.27 25.7) (layer F.Fab) (width 0.1))
  (fp_line (start -3.27 26.3) (end 0 26.3) (layer F.Fab) (width 0.1))
  (fp_line (start 0 26.3) (end 0 25.7) (layer F.Fab) (width 0.1))
  (fp_line (start 0 27.7) (end -3.27 27.7) (layer F.Fab) (width 0.1))
  (fp_line (start -3.27 28.3) (end 0 28.3) (layer F.Fab) (width 0.1))
  (fp_line (start 0 28.3) (end 0 27.7) (layer F.Fab) (width 0.1))
  (fp_line (start 0 29.7) (end -3.27 29.7) (layer F.Fab) (width 0.1))
  (fp_line (start -3.27 30.3) (end 0 30.3) (layer F.Fab) (width 0.1))
  (fp_line (start 0 30.3) (end 0 29.7) (layer F.Fab) (width 0.1))
  (fp_line (start -9.68 -0.94) (end -3.21 -0.94) (layer F.SilkS) (width 0.12))
  (fp_line (start -9.68 -0.825882) (end -3.21 -0.825882) (layer F.SilkS) (width 0.12))
  (fp_line (start -9.68 -0.711764) (end -3.21 -0.711764) (layer F.SilkS) (width 0.12))
  (fp_line (start -9.68 -0.597646) (end -3.21 -0.597646) (layer F.SilkS) (width 0.12))
  (fp_line (start -9.68 -0.483528) (end -3.21 -0.483528) (layer F.SilkS) (width 0.12))
  (fp_line (start -9.68 -0.36941) (end -3.21 -0.36941) (layer F.SilkS) (width 0.12))
  (fp_line (start -9.68 -0.255292) (end -3.21 -0.255292) (layer F.SilkS) (width 0.12))
  (fp_line (start -9.68 -0.141174) (end -3.21 -0.141174) (layer F.SilkS) (width 0.12))
  (fp_line (start -9.68 -0.027056) (end -3.21 -0.027056) (layer F.SilkS) (width 0.12))
  (fp_line (start -9.68 0.087062) (end -3.21 0.087062) (layer F.SilkS) (width 0.12))
  (fp_line (start -9.68 0.20118) (end -3.21 0.20118) (layer F.SilkS) (width 0.12))
  (fp_line (start -9.68 0.315298) (end -3.21 0.315298) (layer F.SilkS) (width 0.12))
  (fp_line (start -9.68 0.429416) (end -3.21 0.429416) (layer F.SilkS) (width 0.12))
  (fp_line (start -9.68 0.543534) (end -3.21 0.543534) (layer F.SilkS) (width 0.12))
  (fp_line (start -9.68 0.657652) (end -3.21 0.657652) (layer F.SilkS) (width 0.12))
  (fp_line (start -9.68 0.77177) (end -3.21 0.77177) (layer F.SilkS) (width 0.12))
  (fp_line (start -9.68 0.885888) (end -3.21 0.885888) (layer F.SilkS) (width 0.12))
  (fp_line (start -3.21 -0.36) (end -2.862917 -0.36) (layer F.SilkS) (width 0.12))
  (fp_line (start -1.137083 -0.36) (end -0.935 -0.36) (layer F.SilkS) (width 0.12))
  (fp_line (start -3.21 0.36) (end -2.862917 0.36) (layer F.SilkS) (width 0.12))
  (fp_line (start -1.137083 0.36) (end -0.935 0.36) (layer F.SilkS) (width 0.12))
  (fp_line (start -3.21 1.64) (end -2.862917 1.64) (layer F.SilkS) (width 0.12))
  (fp_line (start -1.137083 1.64) (end -0.862917 1.64) (layer F.SilkS) (width 0.12))
  (fp_line (start -3.21 2.36) (end -2.862917 2.36) (layer F.SilkS) (width 0.12))
  (fp_line (start -1.137083 2.36) (end -0.862917 2.36) (layer F.SilkS) (width 0.12))
  (fp_line (start -3.21 3.64) (end -2.862917 3.64) (layer F.SilkS) (width 0.12))
  (fp_line (start -1.137083 3.64) (end -0.862917 3.64) (layer F.SilkS) (width 0.12))
  (fp_line (start -3.21 4.36) (end -2.862917 4.36) (layer F.SilkS) (width 0.12))
  (fp_line (start -1.137083 4.36) (end -0.862917 4.36) (layer F.SilkS) (width 0.12))
  (fp_line (start -3.21 5.64) (end -2.862917 5.64) (layer F.SilkS) (width 0.12))
  (fp_line (start -1.137083 5.64) (end -0.862917 5.64) (layer F.SilkS) (width 0.12))
  (fp_line (start -3.21 6.36) (end -2.862917 6.36) (layer F.SilkS) (width 0.12))
  (fp_line (start -1.137083 6.36) (end -0.862917 6.36) (layer F.SilkS) (width 0.12))
  (fp_line (start -3.21 7.64) (end -2.862917 7.64) (layer F.SilkS) (width 0.12))
  (fp_line (start -1.137083 7.64) (end -0.862917 7.64) (layer F.SilkS) (width 0.12))
  (fp_line (start -3.21 8.36) (end -2.862917 8.36) (layer F.SilkS) (width 0.12))
  (fp_line (start -1.137083 8.36) (end -0.862917 8.36) (layer F.SilkS) (width 0.12))
  (fp_line (start -3.21 9.64) (end -2.862917 9.64) (layer F.SilkS) (width 0.12))
  (fp_line (start -1.137083 9.64) (end -0.862917 9.64) (layer F.SilkS) (width 0.12))
  (fp_line (start -3.21 10.36) (end -2.862917 10.36) (layer F.SilkS) (width 0.12))
  (fp_line (start -1.137083 10.36) (end -0.862917 10.36) (layer F.SilkS) (width 0.12))
  (fp_line (start -3.21 11.64) (end -2.862917 11.64) (layer F.SilkS) (width 0.12))
  (fp_line (start -1.137083 11.64) (end -0.862917 11.64) (layer F.SilkS) (width 0.12))
  (fp_line (start -3.21 12.36) (end -2.862917 12.36) (layer F.SilkS) (width 0.12))
  (fp_line (start -1.137083 12.36) (end -0.862917 12.36) (layer F.SilkS) (width 0.12))
  (fp_line (start -3.21 13.64) (end -2.862917 13.64) (layer F.SilkS) (width 0.12))
  (fp_line (start -1.137083 13.64) (end -0.862917 13.64) (layer F.SilkS) (width 0.12))
  (fp_line (start -3.21 14.36) (end -2.862917 14.36) (layer F.SilkS) (width 0.12))
  (fp_line (start -1.137083 14.36) (end -0.862917 14.36) (layer F.SilkS) (width 0.12))
  (fp_line (start -3.21 15.64) (end -2.862917 15.64) (layer F.SilkS) (width 0.12))
  (fp_line (start -1.137083 15.64) (end -0.862917 15.64) (layer F.SilkS) (width 0.12))
  (fp_line (start -3.21 16.36) (end -2.862917 16.36) (layer F.SilkS) (width 0.12))
  (fp_line (start -1.137083 16.36) (end -0.862917 16.36) (layer F.SilkS) (width 0.12))
  (fp_line (start -3.21 17.64) (end -2.862917 17.64) (layer F.SilkS) (width 0.12))
  (fp_line (start -1.137083 17.64) (end -0.862917 17.64) (layer F.SilkS) (width 0.12))
  (fp_line (start -3.21 18.36) (end -2.862917 18.36) (layer F.SilkS) (width 0.12))
  (fp_line (start -1.137083 18.36) (end -0.862917 18.36) (layer F.SilkS) (width 0.12))
  (fp_line (start -3.21 19.64) (end -2.862917 19.64) (layer F.SilkS) (width 0.12))
  (fp_line (start -1.137083 19.64) (end -0.862917 19.64) (layer F.SilkS) (width 0.12))
  (fp_line (start -3.21 20.36) (end -2.862917 20.36) (layer F.SilkS) (width 0.12))
  (fp_line (start -1.137083 20.36) (end -0.862917 20.36) (layer F.SilkS) (width 0.12))
  (fp_line (start -3.21 21.64) (end -2.862917 21.64) (layer F.SilkS) (width 0.12))
  (fp_line (start -1.137083 21.64) (end -0.862917 21.64) (layer F.SilkS) (width 0.12))
  (fp_line (start -3.21 22.36) (end -2.862917 22.36) (layer F.SilkS) (width 0.12))
  (fp_line (start -1.137083 22.36) (end -0.862917 22.36) (layer F.SilkS) (width 0.12))
  (fp_line (start -3.21 23.64) (end -2.862917 23.64) (layer F.SilkS) (width 0.12))
  (fp_line (start -1.137083 23.64) (end -0.862917 23.64) (layer F.SilkS) (width 0.12))
  (fp_line (start -3.21 24.36) (end -2.862917 24.36) (layer F.SilkS) (width 0.12))
  (fp_line (start -1.137083 24.36) (end -0.862917 24.36) (layer F.SilkS) (width 0.12))
  (fp_line (start -3.21 25.64) (end -2.862917 25.64) (layer F.SilkS) (width 0.12))
  (fp_line (start -1.137083 25.64) (end -0.862917 25.64) (layer F.SilkS) (width 0.12))
  (fp_line (start -3.21 26.36) (end -2.862917 26.36) (layer F.SilkS) (width 0.12))
  (fp_line (start -1.137083 26.36) (end -0.862917 26.36) (layer F.SilkS) (width 0.12))
  (fp_line (start -3.21 27.64) (end -2.862917 27.64) (layer F.SilkS) (width 0.12))
  (fp_line (start -1.137083 27.64) (end -0.862917 27.64) (layer F.SilkS) (width 0.12))
  (fp_line (start -3.21 28.36) (end -2.862917 28.36) (layer F.SilkS) (width 0.12))
  (fp_line (start -1.137083 28.36) (end -0.862917 28.36) (layer F.SilkS) (width 0.12))
  (fp_line (start -3.21 29.64) (end -2.862917 29.64) (layer F.SilkS) (width 0.12))
  (fp_line (start -1.137083 29.64) (end -0.862917 29.64) (layer F.SilkS) (width 0.12))
  (fp_line (start -3.21 30.36) (end -2.862917 30.36) (layer F.SilkS) (width 0.12))
  (fp_line (start -1.137083 30.36) (end -0.862917 30.36) (layer F.SilkS) (width 0.12))
  (fp_line (start -9.68 1) (end -3.21 1) (layer F.SilkS) (width 0.12))
  (fp_line (start -9.68 3) (end -3.21 3) (layer F.SilkS) (width 0.12))
  (fp_line (start -9.68 5) (end -3.21 5) (layer F.SilkS) (width 0.12))
  (fp_line (start -9.68 7) (end -3.21 7) (layer F.SilkS) (width 0.12))
  (fp_line (start -9.68 9) (end -3.21 9) (layer F.SilkS) (width 0.12))
  (fp_line (start -9.68 11) (end -3.21 11) (layer F.SilkS) (width 0.12))
  (fp_line (start -9.68 13) (end -3.21 13) (layer F.SilkS) (width 0.12))
  (fp_line (start -9.68 15) (end -3.21 15) (layer F.SilkS) (width 0.12))
  (fp_line (start -9.68 17) (end -3.21 17) (layer F.SilkS) (width 0.12))
  (fp_line (start -9.68 19) (end -3.21 19) (layer F.SilkS) (width 0.12))
  (fp_line (start -9.68 21) (end -3.21 21) (layer F.SilkS) (width 0.12))
  (fp_line (start -9.68 23) (end -3.21 23) (layer F.SilkS) (width 0.12))
  (fp_line (start -9.68 25) (end -3.21 25) (layer F.SilkS) (width 0.12))
  (fp_line (start -9.68 27) (end -3.21 27) (layer F.SilkS) (width 0.12))
  (fp_line (start -9.68 29) (end -3.21 29) (layer F.SilkS) (width 0.12))
  (fp_line (start -9.68 -1.06) (end -3.21 -1.06) (layer F.SilkS) (width 0.12))
  (fp_line (start -3.21 -1.06) (end -3.21 31.06) (layer F.SilkS) (width 0.12))
  (fp_line (start -9.68 31.06) (end -3.21 31.06) (layer F.SilkS) (width 0.12))
  (fp_line (start -9.68 -1.06) (end -9.68 31.06) (layer F.SilkS) (width 0.12))
  (fp_line (start 0.935 -1.06) (end 0.935 0) (layer F.SilkS) (width 0.12))
  (fp_line (start 0 -1.06) (end 0.935 -1.06) (layer F.SilkS) (width 0.12))
  (fp_line (start 1.5 -1.5) (end -10.15 -1.5) (layer F.CrtYd) (width 0.05))
  (fp_line (start -10.15 -1.5) (end -10.15 31.5) (layer F.CrtYd) (width 0.05))
  (fp_line (start -10.15 31.5) (end 1.5 31.5) (layer F.CrtYd) (width 0.05))
  (fp_line (start 1.5 31.5) (end 1.5 -1.5) (layer F.CrtYd) (width 0.05))
  (pad 1 thru_hole rect (at 0 0) (size 1.35 1.35) (drill 0.8) (layers *.Cu *.Mask))
  (pad 2 thru_hole oval (at -2 0) (size 1.35 1.35) (drill 0.8) (layers *.Cu *.Mask))
  (pad 3 thru_hole oval (at 0 2) (size 1.35 1.35) (drill 0.8) (layers *.Cu *.Mask))
  (pad 4 thru_hole oval (at -2 2) (size 1.35 1.35) (drill 0.8) (layers *.Cu *.Mask))
  (pad 5 thru_hole oval (at 0 4) (size 1.35 1.35) (drill 0.8) (layers *.Cu *.Mask))
  (pad 6 thru_hole oval (at -2 4) (size 1.35 1.35) (drill 0.8) (layers *.Cu *.Mask))
  (pad 7 thru_hole oval (at 0 6) (size 1.35 1.35) (drill 0.8) (layers *.Cu *.Mask))
  (pad 8 thru_hole oval (at -2 6) (size 1.35 1.35) (drill 0.8) (layers *.Cu *.Mask))
  (pad 9 thru_hole oval (at 0 8) (size 1.35 1.35) (drill 0.8) (layers *.Cu *.Mask))
  (pad 10 thru_hole oval (at -2 8) (size 1.35 1.35) (drill 0.8) (layers *.Cu *.Mask))
  (pad 11 thru_hole oval (at 0 10) (size 1.35 1.35) (drill 0.8) (layers *.Cu *.Mask))
  (pad 12 thru_hole oval (at -2 10) (size 1.35 1.35) (drill 0.8) (layers *.Cu *.Mask))
  (pad 13 thru_hole oval (at 0 12) (size 1.35 1.35) (drill 0.8) (layers *.Cu *.Mask))
  (pad 14 thru_hole oval (at -2 12) (size 1.35 1.35) (drill 0.8) (layers *.Cu *.Mask))
  (pad 15 thru_hole oval (at 0 14) (size 1.35 1.35) (drill 0.8) (layers *.Cu *.Mask))
  (pad 16 thru_hole oval (at -2 14) (size 1.35 1.35) (drill 0.8) (layers *.Cu *.Mask))
  (pad 17 thru_hole oval (at 0 16) (size 1.35 1.35) (drill 0.8) (layers *.Cu *.Mask))
  (pad 18 thru_hole oval (at -2 16) (size 1.35 1.35) (drill 0.8) (layers *.Cu *.Mask))
  (pad 19 thru_hole oval (at 0 18) (size 1.35 1.35) (drill 0.8) (layers *.Cu *.Mask))
  (pad 20 thru_hole oval (at -2 18) (size 1.35 1.35) (drill 0.8) (layers *.Cu *.Mask))
  (pad 21 thru_hole oval (at 0 20) (size 1.35 1.35) (drill 0.8) (layers *.Cu *.Mask))
  (pad 22 thru_hole oval (at -2 20) (size 1.35 1.35) (drill 0.8) (layers *.Cu *.Mask))
  (pad 23 thru_hole oval (at 0 22) (size 1.35 1.35) (drill 0.8) (layers *.Cu *.Mask))
  (pad 24 thru_hole oval (at -2 22) (size 1.35 1.35) (drill 0.8) (layers *.Cu *.Mask))
  (pad 25 thru_hole oval (at 0 24) (size 1.35 1.35) (drill 0.8) (layers *.Cu *.Mask))
  (pad 26 thru_hole oval (at -2 24) (size 1.35 1.35) (drill 0.8) (layers *.Cu *.Mask))
  (pad 27 thru_hole oval (at 0 26) (size 1.35 1.35) (drill 0.8) (layers *.Cu *.Mask))
  (pad 28 thru_hole oval (at -2 26) (size 1.35 1.35) (drill 0.8) (layers *.Cu *.Mask))
  (pad 29 thru_hole oval (at 0 28) (size 1.35 1.35) (drill 0.8) (layers *.Cu *.Mask))
  (pad 30 thru_hole oval (at -2 28) (size 1.35 1.35) (drill 0.8) (layers *.Cu *.Mask))
  (pad 31 thru_hole oval (at 0 30) (size 1.35 1.35) (drill 0.8) (layers *.Cu *.Mask))
  (pad 32 thru_hole oval (at -2 30) (size 1.35 1.35) (drill 0.8) (layers *.Cu *.Mask))
  (fp_text user %R (at -6.445 15 90) (layer F.Fab)
    (effects (font (size 1 1) (thickness 0.15)))
  )
  (model ${KIPRJMOD}/kicad_libs_k/models_k.3d/Connector_PinSocket_2.00mm_k.3dshapes/PinSocket_2x16_P2.00mm_Horizontal_k.wrl
    (at (xyz 0 0 0))
    (scale (xyz 1 1 1))
    (rotate (xyz 0 0 0))
  )
)