(module PinSocket_2x28_P2.00mm_Vertical_SMD (layer F.Cu) (tedit 5A19A41B)
  (descr "surface-mounted straight socket strip, 2x28, 2.00mm pitch, double cols (from Kicad 4.0.7), script generated")
  (tags "Surface mounted socket strip SMD 2x28 2.00mm double row")
  (attr smd)
  (fp_text reference REF** (at 0 -29.5) (layer F.SilkS)
    (effects (font (size 1 1) (thickness 0.15)))
  )
  (fp_text value PinSocket_2x28_P2.00mm_Vertical_SMD (at 0 29.5) (layer F.Fab)
    (effects (font (size 1 1) (thickness 0.15)))
  )
  (fp_line (start -2.06 -28.06) (end 2.06 -28.06) (layer F.SilkS) (width 0.12))
  (fp_line (start 2.06 -28.06) (end 2.06 -27.76) (layer F.SilkS) (width 0.12))
  (fp_line (start 2.06 -26.24) (end 2.06 -25.76) (layer F.SilkS) (width 0.12))
  (fp_line (start 2.06 -24.24) (end 2.06 -23.76) (layer F.SilkS) (width 0.12))
  (fp_line (start 2.06 -22.24) (end 2.06 -21.76) (layer F.SilkS) (width 0.12))
  (fp_line (start 2.06 -20.24) (end 2.06 -19.76) (layer F.SilkS) (width 0.12))
  (fp_line (start 2.06 -18.24) (end 2.06 -17.76) (layer F.SilkS) (width 0.12))
  (fp_line (start 2.06 -16.24) (end 2.06 -15.76) (layer F.SilkS) (width 0.12))
  (fp_line (start 2.06 -14.24) (end 2.06 -13.76) (layer F.SilkS) (width 0.12))
  (fp_line (start 2.06 -12.24) (end 2.06 -11.76) (layer F.SilkS) (width 0.12))
  (fp_line (start 2.06 -10.24) (end 2.06 -9.76) (layer F.SilkS) (width 0.12))
  (fp_line (start 2.06 -8.24) (end 2.06 -7.76) (layer F.SilkS) (width 0.12))
  (fp_line (start 2.06 -6.24) (end 2.06 -5.76) (layer F.SilkS) (width 0.12))
  (fp_line (start 2.06 -4.24) (end 2.06 -3.76) (layer F.SilkS) (width 0.12))
  (fp_line (start 2.06 -2.24) (end 2.06 -1.76) (layer F.SilkS) (width 0.12))
  (fp_line (start 2.06 -0.24) (end 2.06 0.24) (layer F.SilkS) (width 0.12))
  (fp_line (start 2.06 1.76) (end 2.06 2.24) (layer F.SilkS) (width 0.12))
  (fp_line (start 2.06 3.76) (end 2.06 4.24) (layer F.SilkS) (width 0.12))
  (fp_line (start 2.06 5.76) (end 2.06 6.24) (layer F.SilkS) (width 0.12))
  (fp_line (start 2.06 7.76) (end 2.06 8.24) (layer F.SilkS) (width 0.12))
  (fp_line (start 2.06 9.76) (end 2.06 10.24) (layer F.SilkS) (width 0.12))
  (fp_line (start 2.06 11.76) (end 2.06 12.24) (layer F.SilkS) (width 0.12))
  (fp_line (start 2.06 13.76) (end 2.06 14.24) (layer F.SilkS) (width 0.12))
  (fp_line (start 2.06 15.76) (end 2.06 16.24) (layer F.SilkS) (width 0.12))
  (fp_line (start 2.06 17.76) (end 2.06 18.24) (layer F.SilkS) (width 0.12))
  (fp_line (start 2.06 19.76) (end 2.06 20.24) (layer F.SilkS) (width 0.12))
  (fp_line (start 2.06 21.76) (end 2.06 22.24) (layer F.SilkS) (width 0.12))
  (fp_line (start 2.06 23.76) (end 2.06 24.24) (layer F.SilkS) (width 0.12))
  (fp_line (start 2.06 25.76) (end 2.06 26.24) (layer F.SilkS) (width 0.12))
  (fp_line (start 2.06 27.76) (end 2.06 28.06) (layer F.SilkS) (width 0.12))
  (fp_line (start -2.06 28.06) (end 2.06 28.06) (layer F.SilkS) (width 0.12))
  (fp_line (start -2.06 -28.06) (end -2.06 -27.76) (layer F.SilkS) (width 0.12))
  (fp_line (start -2.06 -26.24) (end -2.06 -25.76) (layer F.SilkS) (width 0.12))
  (fp_line (start -2.06 -24.24) (end -2.06 -23.76) (layer F.SilkS) (width 0.12))
  (fp_line (start -2.06 -22.24) (end -2.06 -21.76) (layer F.SilkS) (width 0.12))
  (fp_line (start -2.06 -20.24) (end -2.06 -19.76) (layer F.SilkS) (width 0.12))
  (fp_line (start -2.06 -18.24) (end -2.06 -17.76) (layer F.SilkS) (width 0.12))
  (fp_line (start -2.06 -16.24) (end -2.06 -15.76) (layer F.SilkS) (width 0.12))
  (fp_line (start -2.06 -14.24) (end -2.06 -13.76) (layer F.SilkS) (width 0.12))
  (fp_line (start -2.06 -12.24) (end -2.06 -11.76) (layer F.SilkS) (width 0.12))
  (fp_line (start -2.06 -10.24) (end -2.06 -9.76) (layer F.SilkS) (width 0.12))
  (fp_line (start -2.06 -8.24) (end -2.06 -7.76) (layer F.SilkS) (width 0.12))
  (fp_line (start -2.06 -6.24) (end -2.06 -5.76) (layer F.SilkS) (width 0.12))
  (fp_line (start -2.06 -4.24) (end -2.06 -3.76) (layer F.SilkS) (width 0.12))
  (fp_line (start -2.06 -2.24) (end -2.06 -1.76) (layer F.SilkS) (width 0.12))
  (fp_line (start -2.06 -0.24) (end -2.06 0.24) (layer F.SilkS) (width 0.12))
  (fp_line (start -2.06 1.76) (end -2.06 2.24) (layer F.SilkS) (width 0.12))
  (fp_line (start -2.06 3.76) (end -2.06 4.24) (layer F.SilkS) (width 0.12))
  (fp_line (start -2.06 5.76) (end -2.06 6.24) (layer F.SilkS) (width 0.12))
  (fp_line (start -2.06 7.76) (end -2.06 8.24) (layer F.SilkS) (width 0.12))
  (fp_line (start -2.06 9.76) (end -2.06 10.24) (layer F.SilkS) (width 0.12))
  (fp_line (start -2.06 11.76) (end -2.06 12.24) (layer F.SilkS) (width 0.12))
  (fp_line (start -2.06 13.76) (end -2.06 14.24) (layer F.SilkS) (width 0.12))
  (fp_line (start -2.06 15.76) (end -2.06 16.24) (layer F.SilkS) (width 0.12))
  (fp_line (start -2.06 17.76) (end -2.06 18.24) (layer F.SilkS) (width 0.12))
  (fp_line (start -2.06 19.76) (end -2.06 20.24) (layer F.SilkS) (width 0.12))
  (fp_line (start -2.06 21.76) (end -2.06 22.24) (layer F.SilkS) (width 0.12))
  (fp_line (start -2.06 23.76) (end -2.06 24.24) (layer F.SilkS) (width 0.12))
  (fp_line (start -2.06 25.76) (end -2.06 26.24) (layer F.SilkS) (width 0.12))
  (fp_line (start -2.06 27.76) (end -2.06 28.06) (layer F.SilkS) (width 0.12))
  (fp_line (start 2.06 -27.76) (end 4.44 -27.76) (layer F.SilkS) (width 0.12))
  (fp_line (start -2 -28) (end 1 -28) (layer F.Fab) (width 0.1))
  (fp_line (start 1 -28) (end 2 -27) (layer F.Fab) (width 0.1))
  (fp_line (start 2 -27) (end 2 28) (layer F.Fab) (width 0.1))
  (fp_line (start 2 28) (end -2 28) (layer F.Fab) (width 0.1))
  (fp_line (start -2 28) (end -2 -28) (layer F.Fab) (width 0.1))
  (fp_line (start -3 -27.25) (end -2 -27.25) (layer F.Fab) (width 0.1))
  (fp_line (start -2 -26.75) (end -3 -26.75) (layer F.Fab) (width 0.1))
  (fp_line (start -3 -26.75) (end -3 -27.25) (layer F.Fab) (width 0.1))
  (fp_line (start 2 -27.25) (end 3 -27.25) (layer F.Fab) (width 0.1))
  (fp_line (start 3 -27.25) (end 3 -26.75) (layer F.Fab) (width 0.1))
  (fp_line (start 3 -26.75) (end 2 -26.75) (layer F.Fab) (width 0.1))
  (fp_line (start -3 -25.25) (end -2 -25.25) (layer F.Fab) (width 0.1))
  (fp_line (start -2 -24.75) (end -3 -24.75) (layer F.Fab) (width 0.1))
  (fp_line (start -3 -24.75) (end -3 -25.25) (layer F.Fab) (width 0.1))
  (fp_line (start 2 -25.25) (end 3 -25.25) (layer F.Fab) (width 0.1))
  (fp_line (start 3 -25.25) (end 3 -24.75) (layer F.Fab) (width 0.1))
  (fp_line (start 3 -24.75) (end 2 -24.75) (layer F.Fab) (width 0.1))
  (fp_line (start -3 -23.25) (end -2 -23.25) (layer F.Fab) (width 0.1))
  (fp_line (start -2 -22.75) (end -3 -22.75) (layer F.Fab) (width 0.1))
  (fp_line (start -3 -22.75) (end -3 -23.25) (layer F.Fab) (width 0.1))
  (fp_line (start 2 -23.25) (end 3 -23.25) (layer F.Fab) (width 0.1))
  (fp_line (start 3 -23.25) (end 3 -22.75) (layer F.Fab) (width 0.1))
  (fp_line (start 3 -22.75) (end 2 -22.75) (layer F.Fab) (width 0.1))
  (fp_line (start -3 -21.25) (end -2 -21.25) (layer F.Fab) (width 0.1))
  (fp_line (start -2 -20.75) (end -3 -20.75) (layer F.Fab) (width 0.1))
  (fp_line (start -3 -20.75) (end -3 -21.25) (layer F.Fab) (width 0.1))
  (fp_line (start 2 -21.25) (end 3 -21.25) (layer F.Fab) (width 0.1))
  (fp_line (start 3 -21.25) (end 3 -20.75) (layer F.Fab) (width 0.1))
  (fp_line (start 3 -20.75) (end 2 -20.75) (layer F.Fab) (width 0.1))
  (fp_line (start -3 -19.25) (end -2 -19.25) (layer F.Fab) (width 0.1))
  (fp_line (start -2 -18.75) (end -3 -18.75) (layer F.Fab) (width 0.1))
  (fp_line (start -3 -18.75) (end -3 -19.25) (layer F.Fab) (width 0.1))
  (fp_line (start 2 -19.25) (end 3 -19.25) (layer F.Fab) (width 0.1))
  (fp_line (start 3 -19.25) (end 3 -18.75) (layer F.Fab) (width 0.1))
  (fp_line (start 3 -18.75) (end 2 -18.75) (layer F.Fab) (width 0.1))
  (fp_line (start -3 -17.25) (end -2 -17.25) (layer F.Fab) (width 0.1))
  (fp_line (start -2 -16.75) (end -3 -16.75) (layer F.Fab) (width 0.1))
  (fp_line (start -3 -16.75) (end -3 -17.25) (layer F.Fab) (width 0.1))
  (fp_line (start 2 -17.25) (end 3 -17.25) (layer F.Fab) (width 0.1))
  (fp_line (start 3 -17.25) (end 3 -16.75) (layer F.Fab) (width 0.1))
  (fp_line (start 3 -16.75) (end 2 -16.75) (layer F.Fab) (width 0.1))
  (fp_line (start -3 -15.25) (end -2 -15.25) (layer F.Fab) (width 0.1))
  (fp_line (start -2 -14.75) (end -3 -14.75) (layer F.Fab) (width 0.1))
  (fp_line (start -3 -14.75) (end -3 -15.25) (layer F.Fab) (width 0.1))
  (fp_line (start 2 -15.25) (end 3 -15.25) (layer F.Fab) (width 0.1))
  (fp_line (start 3 -15.25) (end 3 -14.75) (layer F.Fab) (width 0.1))
  (fp_line (start 3 -14.75) (end 2 -14.75) (layer F.Fab) (width 0.1))
  (fp_line (start -3 -13.25) (end -2 -13.25) (layer F.Fab) (width 0.1))
  (fp_line (start -2 -12.75) (end -3 -12.75) (layer F.Fab) (width 0.1))
  (fp_line (start -3 -12.75) (end -3 -13.25) (layer F.Fab) (width 0.1))
  (fp_line (start 2 -13.25) (end 3 -13.25) (layer F.Fab) (width 0.1))
  (fp_line (start 3 -13.25) (end 3 -12.75) (layer F.Fab) (width 0.1))
  (fp_line (start 3 -12.75) (end 2 -12.75) (layer F.Fab) (width 0.1))
  (fp_line (start -3 -11.25) (end -2 -11.25) (layer F.Fab) (width 0.1))
  (fp_line (start -2 -10.75) (end -3 -10.75) (layer F.Fab) (width 0.1))
  (fp_line (start -3 -10.75) (end -3 -11.25) (layer F.Fab) (width 0.1))
  (fp_line (start 2 -11.25) (end 3 -11.25) (layer F.Fab) (width 0.1))
  (fp_line (start 3 -11.25) (end 3 -10.75) (layer F.Fab) (width 0.1))
  (fp_line (start 3 -10.75) (end 2 -10.75) (layer F.Fab) (width 0.1))
  (fp_line (start -3 -9.25) (end -2 -9.25) (layer F.Fab) (width 0.1))
  (fp_line (start -2 -8.75) (end -3 -8.75) (layer F.Fab) (width 0.1))
  (fp_line (start -3 -8.75) (end -3 -9.25) (layer F.Fab) (width 0.1))
  (fp_line (start 2 -9.25) (end 3 -9.25) (layer F.Fab) (width 0.1))
  (fp_line (start 3 -9.25) (end 3 -8.75) (layer F.Fab) (width 0.1))
  (fp_line (start 3 -8.75) (end 2 -8.75) (layer F.Fab) (width 0.1))
  (fp_line (start -3 -7.25) (end -2 -7.25) (layer F.Fab) (width 0.1))
  (fp_line (start -2 -6.75) (end -3 -6.75) (layer F.Fab) (width 0.1))
  (fp_line (start -3 -6.75) (end -3 -7.25) (layer F.Fab) (width 0.1))
  (fp_line (start 2 -7.25) (end 3 -7.25) (layer F.Fab) (width 0.1))
  (fp_line (start 3 -7.25) (end 3 -6.75) (layer F.Fab) (width 0.1))
  (fp_line (start 3 -6.75) (end 2 -6.75) (layer F.Fab) (width 0.1))
  (fp_line (start -3 -5.25) (end -2 -5.25) (layer F.Fab) (width 0.1))
  (fp_line (start -2 -4.75) (end -3 -4.75) (layer F.Fab) (width 0.1))
  (fp_line (start -3 -4.75) (end -3 -5.25) (layer F.Fab) (width 0.1))
  (fp_line (start 2 -5.25) (end 3 -5.25) (layer F.Fab) (width 0.1))
  (fp_line (start 3 -5.25) (end 3 -4.75) (layer F.Fab) (width 0.1))
  (fp_line (start 3 -4.75) (end 2 -4.75) (layer F.Fab) (width 0.1))
  (fp_line (start -3 -3.25) (end -2 -3.25) (layer F.Fab) (width 0.1))
  (fp_line (start -2 -2.75) (end -3 -2.75) (layer F.Fab) (width 0.1))
  (fp_line (start -3 -2.75) (end -3 -3.25) (layer F.Fab) (width 0.1))
  (fp_line (start 2 -3.25) (end 3 -3.25) (layer F.Fab) (width 0.1))
  (fp_line (start 3 -3.25) (end 3 -2.75) (layer F.Fab) (width 0.1))
  (fp_line (start 3 -2.75) (end 2 -2.75) (layer F.Fab) (width 0.1))
  (fp_line (start -3 -1.25) (end -2 -1.25) (layer F.Fab) (width 0.1))
  (fp_line (start -2 -0.75) (end -3 -0.75) (layer F.Fab) (width 0.1))
  (fp_line (start -3 -0.75) (end -3 -1.25) (layer F.Fab) (width 0.1))
  (fp_line (start 2 -1.25) (end 3 -1.25) (layer F.Fab) (width 0.1))
  (fp_line (start 3 -1.25) (end 3 -0.75) (layer F.Fab) (width 0.1))
  (fp_line (start 3 -0.75) (end 2 -0.75) (layer F.Fab) (width 0.1))
  (fp_line (start -3 0.75) (end -2 0.75) (layer F.Fab) (width 0.1))
  (fp_line (start -2 1.25) (end -3 1.25) (layer F.Fab) (width 0.1))
  (fp_line (start -3 1.25) (end -3 0.75) (layer F.Fab) (width 0.1))
  (fp_line (start 2 0.75) (end 3 0.75) (layer F.Fab) (width 0.1))
  (fp_line (start 3 0.75) (end 3 1.25) (layer F.Fab) (width 0.1))
  (fp_line (start 3 1.25) (end 2 1.25) (layer F.Fab) (width 0.1))
  (fp_line (start -3 2.75) (end -2 2.75) (layer F.Fab) (width 0.1))
  (fp_line (start -2 3.25) (end -3 3.25) (layer F.Fab) (width 0.1))
  (fp_line (start -3 3.25) (end -3 2.75) (layer F.Fab) (width 0.1))
  (fp_line (start 2 2.75) (end 3 2.75) (layer F.Fab) (width 0.1))
  (fp_line (start 3 2.75) (end 3 3.25) (layer F.Fab) (width 0.1))
  (fp_line (start 3 3.25) (end 2 3.25) (layer F.Fab) (width 0.1))
  (fp_line (start -3 4.75) (end -2 4.75) (layer F.Fab) (width 0.1))
  (fp_line (start -2 5.25) (end -3 5.25) (layer F.Fab) (width 0.1))
  (fp_line (start -3 5.25) (end -3 4.75) (layer F.Fab) (width 0.1))
  (fp_line (start 2 4.75) (end 3 4.75) (layer F.Fab) (width 0.1))
  (fp_line (start 3 4.75) (end 3 5.25) (layer F.Fab) (width 0.1))
  (fp_line (start 3 5.25) (end 2 5.25) (layer F.Fab) (width 0.1))
  (fp_line (start -3 6.75) (end -2 6.75) (layer F.Fab) (width 0.1))
  (fp_line (start -2 7.25) (end -3 7.25) (layer F.Fab) (width 0.1))
  (fp_line (start -3 7.25) (end -3 6.75) (layer F.Fab) (width 0.1))
  (fp_line (start 2 6.75) (end 3 6.75) (layer F.Fab) (width 0.1))
  (fp_line (start 3 6.75) (end 3 7.25) (layer F.Fab) (width 0.1))
  (fp_line (start 3 7.25) (end 2 7.25) (layer F.Fab) (width 0.1))
  (fp_line (start -3 8.75) (end -2 8.75) (layer F.Fab) (width 0.1))
  (fp_line (start -2 9.25) (end -3 9.25) (layer F.Fab) (width 0.1))
  (fp_line (start -3 9.25) (end -3 8.75) (layer F.Fab) (width 0.1))
  (fp_line (start 2 8.75) (end 3 8.75) (layer F.Fab) (width 0.1))
  (fp_line (start 3 8.75) (end 3 9.25) (layer F.Fab) (width 0.1))
  (fp_line (start 3 9.25) (end 2 9.25) (layer F.Fab) (width 0.1))
  (fp_line (start -3 10.75) (end -2 10.75) (layer F.Fab) (width 0.1))
  (fp_line (start -2 11.25) (end -3 11.25) (layer F.Fab) (width 0.1))
  (fp_line (start -3 11.25) (end -3 10.75) (layer F.Fab) (width 0.1))
  (fp_line (start 2 10.75) (end 3 10.75) (layer F.Fab) (width 0.1))
  (fp_line (start 3 10.75) (end 3 11.25) (layer F.Fab) (width 0.1))
  (fp_line (start 3 11.25) (end 2 11.25) (layer F.Fab) (width 0.1))
  (fp_line (start -3 12.75) (end -2 12.75) (layer F.Fab) (width 0.1))
  (fp_line (start -2 13.25) (end -3 13.25) (layer F.Fab) (width 0.1))
  (fp_line (start -3 13.25) (end -3 12.75) (layer F.Fab) (width 0.1))
  (fp_line (start 2 12.75) (end 3 12.75) (layer F.Fab) (width 0.1))
  (fp_line (start 3 12.75) (end 3 13.25) (layer F.Fab) (width 0.1))
  (fp_line (start 3 13.25) (end 2 13.25) (layer F.Fab) (width 0.1))
  (fp_line (start -3 14.75) (end -2 14.75) (layer F.Fab) (width 0.1))
  (fp_line (start -2 15.25) (end -3 15.25) (layer F.Fab) (width 0.1))
  (fp_line (start -3 15.25) (end -3 14.75) (layer F.Fab) (width 0.1))
  (fp_line (start 2 14.75) (end 3 14.75) (layer F.Fab) (width 0.1))
  (fp_line (start 3 14.75) (end 3 15.25) (layer F.Fab) (width 0.1))
  (fp_line (start 3 15.25) (end 2 15.25) (layer F.Fab) (width 0.1))
  (fp_line (start -3 16.75) (end -2 16.75) (layer F.Fab) (width 0.1))
  (fp_line (start -2 17.25) (end -3 17.25) (layer F.Fab) (width 0.1))
  (fp_line (start -3 17.25) (end -3 16.75) (layer F.Fab) (width 0.1))
  (fp_line (start 2 16.75) (end 3 16.75) (layer F.Fab) (width 0.1))
  (fp_line (start 3 16.75) (end 3 17.25) (layer F.Fab) (width 0.1))
  (fp_line (start 3 17.25) (end 2 17.25) (layer F.Fab) (width 0.1))
  (fp_line (start -3 18.75) (end -2 18.75) (layer F.Fab) (width 0.1))
  (fp_line (start -2 19.25) (end -3 19.25) (layer F.Fab) (width 0.1))
  (fp_line (start -3 19.25) (end -3 18.75) (layer F.Fab) (width 0.1))
  (fp_line (start 2 18.75) (end 3 18.75) (layer F.Fab) (width 0.1))
  (fp_line (start 3 18.75) (end 3 19.25) (layer F.Fab) (width 0.1))
  (fp_line (start 3 19.25) (end 2 19.25) (layer F.Fab) (width 0.1))
  (fp_line (start -3 20.75) (end -2 20.75) (layer F.Fab) (width 0.1))
  (fp_line (start -2 21.25) (end -3 21.25) (layer F.Fab) (width 0.1))
  (fp_line (start -3 21.25) (end -3 20.75) (layer F.Fab) (width 0.1))
  (fp_line (start 2 20.75) (end 3 20.75) (layer F.Fab) (width 0.1))
  (fp_line (start 3 20.75) (end 3 21.25) (layer F.Fab) (width 0.1))
  (fp_line (start 3 21.25) (end 2 21.25) (layer F.Fab) (width 0.1))
  (fp_line (start -3 22.75) (end -2 22.75) (layer F.Fab) (width 0.1))
  (fp_line (start -2 23.25) (end -3 23.25) (layer F.Fab) (width 0.1))
  (fp_line (start -3 23.25) (end -3 22.75) (layer F.Fab) (width 0.1))
  (fp_line (start 2 22.75) (end 3 22.75) (layer F.Fab) (width 0.1))
  (fp_line (start 3 22.75) (end 3 23.25) (layer F.Fab) (width 0.1))
  (fp_line (start 3 23.25) (end 2 23.25) (layer F.Fab) (width 0.1))
  (fp_line (start -3 24.75) (end -2 24.75) (layer F.Fab) (width 0.1))
  (fp_line (start -2 25.25) (end -3 25.25) (layer F.Fab) (width 0.1))
  (fp_line (start -3 25.25) (end -3 24.75) (layer F.Fab) (width 0.1))
  (fp_line (start 2 24.75) (end 3 24.75) (layer F.Fab) (width 0.1))
  (fp_line (start 3 24.75) (end 3 25.25) (layer F.Fab) (width 0.1))
  (fp_line (start 3 25.25) (end 2 25.25) (layer F.Fab) (width 0.1))
  (fp_line (start -3 26.75) (end -2 26.75) (layer F.Fab) (width 0.1))
  (fp_line (start -2 27.25) (end -3 27.25) (layer F.Fab) (width 0.1))
  (fp_line (start -3 27.25) (end -3 26.75) (layer F.Fab) (width 0.1))
  (fp_line (start 2 26.75) (end 3 26.75) (layer F.Fab) (width 0.1))
  (fp_line (start 3 26.75) (end 3 27.25) (layer F.Fab) (width 0.1))
  (fp_line (start 3 27.25) (end 2 27.25) (layer F.Fab) (width 0.1))
  (fp_line (start -5 -28.5) (end 5 -28.5) (layer F.CrtYd) (width 0.05))
  (fp_line (start 5 -28.5) (end 5 28.5) (layer F.CrtYd) (width 0.05))
  (fp_line (start 5 28.5) (end -5 28.5) (layer F.CrtYd) (width 0.05))
  (fp_line (start -5 28.5) (end -5 -28.5) (layer F.CrtYd) (width 0.05))
  (pad 1 smd rect (at 3.125 -27) (size 2.75 1) (layers F.Cu F.Mask F.Paste))
  (pad 2 smd rect (at -3.125 -27) (size 2.75 1) (layers F.Cu F.Mask F.Paste))
  (pad 3 smd rect (at 3.125 -25) (size 2.75 1) (layers F.Cu F.Mask F.Paste))
  (pad 4 smd rect (at -3.125 -25) (size 2.75 1) (layers F.Cu F.Mask F.Paste))
  (pad 5 smd rect (at 3.125 -23) (size 2.75 1) (layers F.Cu F.Mask F.Paste))
  (pad 6 smd rect (at -3.125 -23) (size 2.75 1) (layers F.Cu F.Mask F.Paste))
  (pad 7 smd rect (at 3.125 -21) (size 2.75 1) (layers F.Cu F.Mask F.Paste))
  (pad 8 smd rect (at -3.125 -21) (size 2.75 1) (layers F.Cu F.Mask F.Paste))
  (pad 9 smd rect (at 3.125 -19) (size 2.75 1) (layers F.Cu F.Mask F.Paste))
  (pad 10 smd rect (at -3.125 -19) (size 2.75 1) (layers F.Cu F.Mask F.Paste))
  (pad 11 smd rect (at 3.125 -17) (size 2.75 1) (layers F.Cu F.Mask F.Paste))
  (pad 12 smd rect (at -3.125 -17) (size 2.75 1) (layers F.Cu F.Mask F.Paste))
  (pad 13 smd rect (at 3.125 -15) (size 2.75 1) (layers F.Cu F.Mask F.Paste))
  (pad 14 smd rect (at -3.125 -15) (size 2.75 1) (layers F.Cu F.Mask F.Paste))
  (pad 15 smd rect (at 3.125 -13) (size 2.75 1) (layers F.Cu F.Mask F.Paste))
  (pad 16 smd rect (at -3.125 -13) (size 2.75 1) (layers F.Cu F.Mask F.Paste))
  (pad 17 smd rect (at 3.125 -11) (size 2.75 1) (layers F.Cu F.Mask F.Paste))
  (pad 18 smd rect (at -3.125 -11) (size 2.75 1) (layers F.Cu F.Mask F.Paste))
  (pad 19 smd rect (at 3.125 -9) (size 2.75 1) (layers F.Cu F.Mask F.Paste))
  (pad 20 smd rect (at -3.125 -9) (size 2.75 1) (layers F.Cu F.Mask F.Paste))
  (pad 21 smd rect (at 3.125 -7) (size 2.75 1) (layers F.Cu F.Mask F.Paste))
  (pad 22 smd rect (at -3.125 -7) (size 2.75 1) (layers F.Cu F.Mask F.Paste))
  (pad 23 smd rect (at 3.125 -5) (size 2.75 1) (layers F.Cu F.Mask F.Paste))
  (pad 24 smd rect (at -3.125 -5) (size 2.75 1) (layers F.Cu F.Mask F.Paste))
  (pad 25 smd rect (at 3.125 -3) (size 2.75 1) (layers F.Cu F.Mask F.Paste))
  (pad 26 smd rect (at -3.125 -3) (size 2.75 1) (layers F.Cu F.Mask F.Paste))
  (pad 27 smd rect (at 3.125 -1) (size 2.75 1) (layers F.Cu F.Mask F.Paste))
  (pad 28 smd rect (at -3.125 -1) (size 2.75 1) (layers F.Cu F.Mask F.Paste))
  (pad 29 smd rect (at 3.125 1) (size 2.75 1) (layers F.Cu F.Mask F.Paste))
  (pad 30 smd rect (at -3.125 1) (size 2.75 1) (layers F.Cu F.Mask F.Paste))
  (pad 31 smd rect (at 3.125 3) (size 2.75 1) (layers F.Cu F.Mask F.Paste))
  (pad 32 smd rect (at -3.125 3) (size 2.75 1) (layers F.Cu F.Mask F.Paste))
  (pad 33 smd rect (at 3.125 5) (size 2.75 1) (layers F.Cu F.Mask F.Paste))
  (pad 34 smd rect (at -3.125 5) (size 2.75 1) (layers F.Cu F.Mask F.Paste))
  (pad 35 smd rect (at 3.125 7) (size 2.75 1) (layers F.Cu F.Mask F.Paste))
  (pad 36 smd rect (at -3.125 7) (size 2.75 1) (layers F.Cu F.Mask F.Paste))
  (pad 37 smd rect (at 3.125 9) (size 2.75 1) (layers F.Cu F.Mask F.Paste))
  (pad 38 smd rect (at -3.125 9) (size 2.75 1) (layers F.Cu F.Mask F.Paste))
  (pad 39 smd rect (at 3.125 11) (size 2.75 1) (layers F.Cu F.Mask F.Paste))
  (pad 40 smd rect (at -3.125 11) (size 2.75 1) (layers F.Cu F.Mask F.Paste))
  (pad 41 smd rect (at 3.125 13) (size 2.75 1) (layers F.Cu F.Mask F.Paste))
  (pad 42 smd rect (at -3.125 13) (size 2.75 1) (layers F.Cu F.Mask F.Paste))
  (pad 43 smd rect (at 3.125 15) (size 2.75 1) (layers F.Cu F.Mask F.Paste))
  (pad 44 smd rect (at -3.125 15) (size 2.75 1) (layers F.Cu F.Mask F.Paste))
  (pad 45 smd rect (at 3.125 17) (size 2.75 1) (layers F.Cu F.Mask F.Paste))
  (pad 46 smd rect (at -3.125 17) (size 2.75 1) (layers F.Cu F.Mask F.Paste))
  (pad 47 smd rect (at 3.125 19) (size 2.75 1) (layers F.Cu F.Mask F.Paste))
  (pad 48 smd rect (at -3.125 19) (size 2.75 1) (layers F.Cu F.Mask F.Paste))
  (pad 49 smd rect (at 3.125 21) (size 2.75 1) (layers F.Cu F.Mask F.Paste))
  (pad 50 smd rect (at -3.125 21) (size 2.75 1) (layers F.Cu F.Mask F.Paste))
  (pad 51 smd rect (at 3.125 23) (size 2.75 1) (layers F.Cu F.Mask F.Paste))
  (pad 52 smd rect (at -3.125 23) (size 2.75 1) (layers F.Cu F.Mask F.Paste))
  (pad 53 smd rect (at 3.125 25) (size 2.75 1) (layers F.Cu F.Mask F.Paste))
  (pad 54 smd rect (at -3.125 25) (size 2.75 1) (layers F.Cu F.Mask F.Paste))
  (pad 55 smd rect (at 3.125 27) (size 2.75 1) (layers F.Cu F.Mask F.Paste))
  (pad 56 smd rect (at -3.125 27) (size 2.75 1) (layers F.Cu F.Mask F.Paste))
  (fp_text user %R (at 0 0 90) (layer F.Fab)
    (effects (font (size 1 1) (thickness 0.15)))
  )
  (model ${KIPRJMOD}/kicad_libs_k/models_k.3d/Connector_PinSocket_2.00mm_k.3dshapes/PinSocket_2x28_P2.00mm_Vertical_SMD_k.wrl
    (at (xyz 0 0 0))
    (scale (xyz 1 1 1))
    (rotate (xyz 0 0 0))
  )
)