(module PinSocket_2x12_P2.00mm_Vertical_SMD (layer F.Cu) (tedit 5A19A431)
  (descr "surface-mounted straight socket strip, 2x12, 2.00mm pitch, double cols (from Kicad 4.0.7), script generated")
  (tags "Surface mounted socket strip SMD 2x12 2.00mm double row")
  (attr smd)
  (fp_text reference REF** (at 0 -13.5) (layer F.SilkS)
    (effects (font (size 1 1) (thickness 0.15)))
  )
  (fp_text value PinSocket_2x12_P2.00mm_Vertical_SMD (at 0 13.5) (layer F.Fab)
    (effects (font (size 1 1) (thickness 0.15)))
  )
  (fp_line (start -2.06 -12.06) (end 2.06 -12.06) (layer F.SilkS) (width 0.12))
  (fp_line (start 2.06 -12.06) (end 2.06 -11.76) (layer F.SilkS) (width 0.12))
  (fp_line (start 2.06 -10.24) (end 2.06 -9.76) (layer F.SilkS) (width 0.12))
  (fp_line (start 2.06 -8.24) (end 2.06 -7.76) (layer F.SilkS) (width 0.12))
  (fp_line (start 2.06 -6.24) (end 2.06 -5.76) (layer F.SilkS) (width 0.12))
  (fp_line (start 2.06 -4.24) (end 2.06 -3.76) (layer F.SilkS) (width 0.12))
  (fp_line (start 2.06 -2.24) (end 2.06 -1.76) (layer F.SilkS) (width 0.12))
  (fp_line (start 2.06 -0.24) (end 2.06 0.24) (layer F.SilkS) (width 0.12))
  (fp_line (start 2.06 1.76) (end 2.06 2.24) (layer F.SilkS) (width 0.12))
  (fp_line (start 2.06 3.76) (end 2.06 4.24) (layer F.SilkS) (width 0.12))
  (fp_line (start 2.06 5.76) (end 2.06 6.24) (layer F.SilkS) (width 0.12))
  (fp_line (start 2.06 7.76) (end 2.06 8.24) (layer F.SilkS) (width 0.12))
  (fp_line (start 2.06 9.76) (end 2.06 10.24) (layer F.SilkS) (width 0.12))
  (fp_line (start 2.06 11.76) (end 2.06 12.06) (layer F.SilkS) (width 0.12))
  (fp_line (start -2.06 12.06) (end 2.06 12.06) (layer F.SilkS) (width 0.12))
  (fp_line (start -2.06 -12.06) (end -2.06 -11.76) (layer F.SilkS) (width 0.12))
  (fp_line (start -2.06 -10.24) (end -2.06 -9.76) (layer F.SilkS) (width 0.12))
  (fp_line (start -2.06 -8.24) (end -2.06 -7.76) (layer F.SilkS) (width 0.12))
  (fp_line (start -2.06 -6.24) (end -2.06 -5.76) (layer F.SilkS) (width 0.12))
  (fp_line (start -2.06 -4.24) (end -2.06 -3.76) (layer F.SilkS) (width 0.12))
  (fp_line (start -2.06 -2.24) (end -2.06 -1.76) (layer F.SilkS) (width 0.12))
  (fp_line (start -2.06 -0.24) (end -2.06 0.24) (layer F.SilkS) (width 0.12))
  (fp_line (start -2.06 1.76) (end -2.06 2.24) (layer F.SilkS) (width 0.12))
  (fp_line (start -2.06 3.76) (end -2.06 4.24) (layer F.SilkS) (width 0.12))
  (fp_line (start -2.06 5.76) (end -2.06 6.24) (layer F.SilkS) (width 0.12))
  (fp_line (start -2.06 7.76) (end -2.06 8.24) (layer F.SilkS) (width 0.12))
  (fp_line (start -2.06 9.76) (end -2.06 10.24) (layer F.SilkS) (width 0.12))
  (fp_line (start -2.06 11.76) (end -2.06 12.06) (layer F.SilkS) (width 0.12))
  (fp_line (start 2.06 -11.76) (end 4.44 -11.76) (layer F.SilkS) (width 0.12))
  (fp_line (start -2 -12) (end 1 -12) (layer F.Fab) (width 0.1))
  (fp_line (start 1 -12) (end 2 -11) (layer F.Fab) (width 0.1))
  (fp_line (start 2 -11) (end 2 12) (layer F.Fab) (width 0.1))
  (fp_line (start 2 12) (end -2 12) (layer F.Fab) (width 0.1))
  (fp_line (start -2 12) (end -2 -12) (layer F.Fab) (width 0.1))
  (fp_line (start -3 -11.25) (end -2 -11.25) (layer F.Fab) (width 0.1))
  (fp_line (start -2 -10.75) (end -3 -10.75) (layer F.Fab) (width 0.1))
  (fp_line (start -3 -10.75) (end -3 -11.25) (layer F.Fab) (width 0.1))
  (fp_line (start 2 -11.25) (end 3 -11.25) (layer F.Fab) (width 0.1))
  (fp_line (start 3 -11.25) (end 3 -10.75) (layer F.Fab) (width 0.1))
  (fp_line (start 3 -10.75) (end 2 -10.75) (layer F.Fab) (width 0.1))
  (fp_line (start -3 -9.25) (end -2 -9.25) (layer F.Fab) (width 0.1))
  (fp_line (start -2 -8.75) (end -3 -8.75) (layer F.Fab) (width 0.1))
  (fp_line (start -3 -8.75) (end -3 -9.25) (layer F.Fab) (width 0.1))
  (fp_line (start 2 -9.25) (end 3 -9.25) (layer F.Fab) (width 0.1))
  (fp_line (start 3 -9.25) (end 3 -8.75) (layer F.Fab) (width 0.1))
  (fp_line (start 3 -8.75) (end 2 -8.75) (layer F.Fab) (width 0.1))
  (fp_line (start -3 -7.25) (end -2 -7.25) (layer F.Fab) (width 0.1))
  (fp_line (start -2 -6.75) (end -3 -6.75) (layer F.Fab) (width 0.1))
  (fp_line (start -3 -6.75) (end -3 -7.25) (layer F.Fab) (width 0.1))
  (fp_line (start 2 -7.25) (end 3 -7.25) (layer F.Fab) (width 0.1))
  (fp_line (start 3 -7.25) (end 3 -6.75) (layer F.Fab) (width 0.1))
  (fp_line (start 3 -6.75) (end 2 -6.75) (layer F.Fab) (width 0.1))
  (fp_line (start -3 -5.25) (end -2 -5.25) (layer F.Fab) (width 0.1))
  (fp_line (start -2 -4.75) (end -3 -4.75) (layer F.Fab) (width 0.1))
  (fp_line (start -3 -4.75) (end -3 -5.25) (layer F.Fab) (width 0.1))
  (fp_line (start 2 -5.25) (end 3 -5.25) (layer F.Fab) (width 0.1))
  (fp_line (start 3 -5.25) (end 3 -4.75) (layer F.Fab) (width 0.1))
  (fp_line (start 3 -4.75) (end 2 -4.75) (layer F.Fab) (width 0.1))
  (fp_line (start -3 -3.25) (end -2 -3.25) (layer F.Fab) (width 0.1))
  (fp_line (start -2 -2.75) (end -3 -2.75) (layer F.Fab) (width 0.1))
  (fp_line (start -3 -2.75) (end -3 -3.25) (layer F.Fab) (width 0.1))
  (fp_line (start 2 -3.25) (end 3 -3.25) (layer F.Fab) (width 0.1))
  (fp_line (start 3 -3.25) (end 3 -2.75) (layer F.Fab) (width 0.1))
  (fp_line (start 3 -2.75) (end 2 -2.75) (layer F.Fab) (width 0.1))
  (fp_line (start -3 -1.25) (end -2 -1.25) (layer F.Fab) (width 0.1))
  (fp_line (start -2 -0.75) (end -3 -0.75) (layer F.Fab) (width 0.1))
  (fp_line (start -3 -0.75) (end -3 -1.25) (layer F.Fab) (width 0.1))
  (fp_line (start 2 -1.25) (end 3 -1.25) (layer F.Fab) (width 0.1))
  (fp_line (start 3 -1.25) (end 3 -0.75) (layer F.Fab) (width 0.1))
  (fp_line (start 3 -0.75) (end 2 -0.75) (layer F.Fab) (width 0.1))
  (fp_line (start -3 0.75) (end -2 0.75) (layer F.Fab) (width 0.1))
  (fp_line (start -2 1.25) (end -3 1.25) (layer F.Fab) (width 0.1))
  (fp_line (start -3 1.25) (end -3 0.75) (layer F.Fab) (width 0.1))
  (fp_line (start 2 0.75) (end 3 0.75) (layer F.Fab) (width 0.1))
  (fp_line (start 3 0.75) (end 3 1.25) (layer F.Fab) (width 0.1))
  (fp_line (start 3 1.25) (end 2 1.25) (layer F.Fab) (width 0.1))
  (fp_line (start -3 2.75) (end -2 2.75) (layer F.Fab) (width 0.1))
  (fp_line (start -2 3.25) (end -3 3.25) (layer F.Fab) (width 0.1))
  (fp_line (start -3 3.25) (end -3 2.75) (layer F.Fab) (width 0.1))
  (fp_line (start 2 2.75) (end 3 2.75) (layer F.Fab) (width 0.1))
  (fp_line (start 3 2.75) (end 3 3.25) (layer F.Fab) (width 0.1))
  (fp_line (start 3 3.25) (end 2 3.25) (layer F.Fab) (width 0.1))
  (fp_line (start -3 4.75) (end -2 4.75) (layer F.Fab) (width 0.1))
  (fp_line (start -2 5.25) (end -3 5.25) (layer F.Fab) (width 0.1))
  (fp_line (start -3 5.25) (end -3 4.75) (layer F.Fab) (width 0.1))
  (fp_line (start 2 4.75) (end 3 4.75) (layer F.Fab) (width 0.1))
  (fp_line (start 3 4.75) (end 3 5.25) (layer F.Fab) (width 0.1))
  (fp_line (start 3 5.25) (end 2 5.25) (layer F.Fab) (width 0.1))
  (fp_line (start -3 6.75) (end -2 6.75) (layer F.Fab) (width 0.1))
  (fp_line (start -2 7.25) (end -3 7.25) (layer F.Fab) (width 0.1))
  (fp_line (start -3 7.25) (end -3 6.75) (layer F.Fab) (width 0.1))
  (fp_line (start 2 6.75) (end 3 6.75) (layer F.Fab) (width 0.1))
  (fp_line (start 3 6.75) (end 3 7.25) (layer F.Fab) (width 0.1))
  (fp_line (start 3 7.25) (end 2 7.25) (layer F.Fab) (width 0.1))
  (fp_line (start -3 8.75) (end -2 8.75) (layer F.Fab) (width 0.1))
  (fp_line (start -2 9.25) (end -3 9.25) (layer F.Fab) (width 0.1))
  (fp_line (start -3 9.25) (end -3 8.75) (layer F.Fab) (width 0.1))
  (fp_line (start 2 8.75) (end 3 8.75) (layer F.Fab) (width 0.1))
  (fp_line (start 3 8.75) (end 3 9.25) (layer F.Fab) (width 0.1))
  (fp_line (start 3 9.25) (end 2 9.25) (layer F.Fab) (width 0.1))
  (fp_line (start -3 10.75) (end -2 10.75) (layer F.Fab) (width 0.1))
  (fp_line (start -2 11.25) (end -3 11.25) (layer F.Fab) (width 0.1))
  (fp_line (start -3 11.25) (end -3 10.75) (layer F.Fab) (width 0.1))
  (fp_line (start 2 10.75) (end 3 10.75) (layer F.Fab) (width 0.1))
  (fp_line (start 3 10.75) (end 3 11.25) (layer F.Fab) (width 0.1))
  (fp_line (start 3 11.25) (end 2 11.25) (layer F.Fab) (width 0.1))
  (fp_line (start -5 -12.5) (end 5 -12.5) (layer F.CrtYd) (width 0.05))
  (fp_line (start 5 -12.5) (end 5 12.5) (layer F.CrtYd) (width 0.05))
  (fp_line (start 5 12.5) (end -5 12.5) (layer F.CrtYd) (width 0.05))
  (fp_line (start -5 12.5) (end -5 -12.5) (layer F.CrtYd) (width 0.05))
  (pad 1 smd rect (at 3.125 -11) (size 2.75 1) (layers F.Cu F.Mask F.Paste))
  (pad 2 smd rect (at -3.125 -11) (size 2.75 1) (layers F.Cu F.Mask F.Paste))
  (pad 3 smd rect (at 3.125 -9) (size 2.75 1) (layers F.Cu F.Mask F.Paste))
  (pad 4 smd rect (at -3.125 -9) (size 2.75 1) (layers F.Cu F.Mask F.Paste))
  (pad 5 smd rect (at 3.125 -7) (size 2.75 1) (layers F.Cu F.Mask F.Paste))
  (pad 6 smd rect (at -3.125 -7) (size 2.75 1) (layers F.Cu F.Mask F.Paste))
  (pad 7 smd rect (at 3.125 -5) (size 2.75 1) (layers F.Cu F.Mask F.Paste))
  (pad 8 smd rect (at -3.125 -5) (size 2.75 1) (layers F.Cu F.Mask F.Paste))
  (pad 9 smd rect (at 3.125 -3) (size 2.75 1) (layers F.Cu F.Mask F.Paste))
  (pad 10 smd rect (at -3.125 -3) (size 2.75 1) (layers F.Cu F.Mask F.Paste))
  (pad 11 smd rect (at 3.125 -1) (size 2.75 1) (layers F.Cu F.Mask F.Paste))
  (pad 12 smd rect (at -3.125 -1) (size 2.75 1) (layers F.Cu F.Mask F.Paste))
  (pad 13 smd rect (at 3.125 1) (size 2.75 1) (layers F.Cu F.Mask F.Paste))
  (pad 14 smd rect (at -3.125 1) (size 2.75 1) (layers F.Cu F.Mask F.Paste))
  (pad 15 smd rect (at 3.125 3) (size 2.75 1) (layers F.Cu F.Mask F.Paste))
  (pad 16 smd rect (at -3.125 3) (size 2.75 1) (layers F.Cu F.Mask F.Paste))
  (pad 17 smd rect (at 3.125 5) (size 2.75 1) (layers F.Cu F.Mask F.Paste))
  (pad 18 smd rect (at -3.125 5) (size 2.75 1) (layers F.Cu F.Mask F.Paste))
  (pad 19 smd rect (at 3.125 7) (size 2.75 1) (layers F.Cu F.Mask F.Paste))
  (pad 20 smd rect (at -3.125 7) (size 2.75 1) (layers F.Cu F.Mask F.Paste))
  (pad 21 smd rect (at 3.125 9) (size 2.75 1) (layers F.Cu F.Mask F.Paste))
  (pad 22 smd rect (at -3.125 9) (size 2.75 1) (layers F.Cu F.Mask F.Paste))
  (pad 23 smd rect (at 3.125 11) (size 2.75 1) (layers F.Cu F.Mask F.Paste))
  (pad 24 smd rect (at -3.125 11) (size 2.75 1) (layers F.Cu F.Mask F.Paste))
  (fp_text user %R (at 0 0 90) (layer F.Fab)
    (effects (font (size 1 1) (thickness 0.15)))
  )
  (model ${KIPRJMOD}/kicad_libs_k/models_k.3d/Connector_PinSocket_2.00mm_k.3dshapes/PinSocket_2x12_P2.00mm_Vertical_SMD_k.wrl
    (at (xyz 0 0 0))
    (scale (xyz 1 1 1))
    (rotate (xyz 0 0 0))
  )
)