(module PinSocket_2x17_P2.00mm_Vertical_SMD (layer F.Cu) (tedit 5A19A42F)
  (descr "surface-mounted straight socket strip, 2x17, 2.00mm pitch, double cols (from Kicad 4.0.7), script generated")
  (tags "Surface mounted socket strip SMD 2x17 2.00mm double row")
  (attr smd)
  (fp_text reference REF** (at 0 -18.5) (layer F.SilkS)
    (effects (font (size 1 1) (thickness 0.15)))
  )
  (fp_text value PinSocket_2x17_P2.00mm_Vertical_SMD (at 0 18.5) (layer F.Fab)
    (effects (font (size 1 1) (thickness 0.15)))
  )
  (fp_line (start -2.06 -17.06) (end 2.06 -17.06) (layer F.SilkS) (width 0.12))
  (fp_line (start 2.06 -17.06) (end 2.06 -16.76) (layer F.SilkS) (width 0.12))
  (fp_line (start 2.06 -15.24) (end 2.06 -14.76) (layer F.SilkS) (width 0.12))
  (fp_line (start 2.06 -13.24) (end 2.06 -12.76) (layer F.SilkS) (width 0.12))
  (fp_line (start 2.06 -11.24) (end 2.06 -10.76) (layer F.SilkS) (width 0.12))
  (fp_line (start 2.06 -9.24) (end 2.06 -8.76) (layer F.SilkS) (width 0.12))
  (fp_line (start 2.06 -7.24) (end 2.06 -6.76) (layer F.SilkS) (width 0.12))
  (fp_line (start 2.06 -5.24) (end 2.06 -4.76) (layer F.SilkS) (width 0.12))
  (fp_line (start 2.06 -3.24) (end 2.06 -2.76) (layer F.SilkS) (width 0.12))
  (fp_line (start 2.06 -1.24) (end 2.06 -0.76) (layer F.SilkS) (width 0.12))
  (fp_line (start 2.06 0.76) (end 2.06 1.24) (layer F.SilkS) (width 0.12))
  (fp_line (start 2.06 2.76) (end 2.06 3.24) (layer F.SilkS) (width 0.12))
  (fp_line (start 2.06 4.76) (end 2.06 5.24) (layer F.SilkS) (width 0.12))
  (fp_line (start 2.06 6.76) (end 2.06 7.24) (layer F.SilkS) (width 0.12))
  (fp_line (start 2.06 8.76) (end 2.06 9.24) (layer F.SilkS) (width 0.12))
  (fp_line (start 2.06 10.76) (end 2.06 11.24) (layer F.SilkS) (width 0.12))
  (fp_line (start 2.06 12.76) (end 2.06 13.24) (layer F.SilkS) (width 0.12))
  (fp_line (start 2.06 14.76) (end 2.06 15.24) (layer F.SilkS) (width 0.12))
  (fp_line (start 2.06 16.76) (end 2.06 17.06) (layer F.SilkS) (width 0.12))
  (fp_line (start -2.06 17.06) (end 2.06 17.06) (layer F.SilkS) (width 0.12))
  (fp_line (start -2.06 -17.06) (end -2.06 -16.76) (layer F.SilkS) (width 0.12))
  (fp_line (start -2.06 -15.24) (end -2.06 -14.76) (layer F.SilkS) (width 0.12))
  (fp_line (start -2.06 -13.24) (end -2.06 -12.76) (layer F.SilkS) (width 0.12))
  (fp_line (start -2.06 -11.24) (end -2.06 -10.76) (layer F.SilkS) (width 0.12))
  (fp_line (start -2.06 -9.24) (end -2.06 -8.76) (layer F.SilkS) (width 0.12))
  (fp_line (start -2.06 -7.24) (end -2.06 -6.76) (layer F.SilkS) (width 0.12))
  (fp_line (start -2.06 -5.24) (end -2.06 -4.76) (layer F.SilkS) (width 0.12))
  (fp_line (start -2.06 -3.24) (end -2.06 -2.76) (layer F.SilkS) (width 0.12))
  (fp_line (start -2.06 -1.24) (end -2.06 -0.76) (layer F.SilkS) (width 0.12))
  (fp_line (start -2.06 0.76) (end -2.06 1.24) (layer F.SilkS) (width 0.12))
  (fp_line (start -2.06 2.76) (end -2.06 3.24) (layer F.SilkS) (width 0.12))
  (fp_line (start -2.06 4.76) (end -2.06 5.24) (layer F.SilkS) (width 0.12))
  (fp_line (start -2.06 6.76) (end -2.06 7.24) (layer F.SilkS) (width 0.12))
  (fp_line (start -2.06 8.76) (end -2.06 9.24) (layer F.SilkS) (width 0.12))
  (fp_line (start -2.06 10.76) (end -2.06 11.24) (layer F.SilkS) (width 0.12))
  (fp_line (start -2.06 12.76) (end -2.06 13.24) (layer F.SilkS) (width 0.12))
  (fp_line (start -2.06 14.76) (end -2.06 15.24) (layer F.SilkS) (width 0.12))
  (fp_line (start -2.06 16.76) (end -2.06 17.06) (layer F.SilkS) (width 0.12))
  (fp_line (start 2.06 -16.76) (end 4.44 -16.76) (layer F.SilkS) (width 0.12))
  (fp_line (start -2 -17) (end 1 -17) (layer F.Fab) (width 0.1))
  (fp_line (start 1 -17) (end 2 -16) (layer F.Fab) (width 0.1))
  (fp_line (start 2 -16) (end 2 17) (layer F.Fab) (width 0.1))
  (fp_line (start 2 17) (end -2 17) (layer F.Fab) (width 0.1))
  (fp_line (start -2 17) (end -2 -17) (layer F.Fab) (width 0.1))
  (fp_line (start -3 -16.25) (end -2 -16.25) (layer F.Fab) (width 0.1))
  (fp_line (start -2 -15.75) (end -3 -15.75) (layer F.Fab) (width 0.1))
  (fp_line (start -3 -15.75) (end -3 -16.25) (layer F.Fab) (width 0.1))
  (fp_line (start 2 -16.25) (end 3 -16.25) (layer F.Fab) (width 0.1))
  (fp_line (start 3 -16.25) (end 3 -15.75) (layer F.Fab) (width 0.1))
  (fp_line (start 3 -15.75) (end 2 -15.75) (layer F.Fab) (width 0.1))
  (fp_line (start -3 -14.25) (end -2 -14.25) (layer F.Fab) (width 0.1))
  (fp_line (start -2 -13.75) (end -3 -13.75) (layer F.Fab) (width 0.1))
  (fp_line (start -3 -13.75) (end -3 -14.25) (layer F.Fab) (width 0.1))
  (fp_line (start 2 -14.25) (end 3 -14.25) (layer F.Fab) (width 0.1))
  (fp_line (start 3 -14.25) (end 3 -13.75) (layer F.Fab) (width 0.1))
  (fp_line (start 3 -13.75) (end 2 -13.75) (layer F.Fab) (width 0.1))
  (fp_line (start -3 -12.25) (end -2 -12.25) (layer F.Fab) (width 0.1))
  (fp_line (start -2 -11.75) (end -3 -11.75) (layer F.Fab) (width 0.1))
  (fp_line (start -3 -11.75) (end -3 -12.25) (layer F.Fab) (width 0.1))
  (fp_line (start 2 -12.25) (end 3 -12.25) (layer F.Fab) (width 0.1))
  (fp_line (start 3 -12.25) (end 3 -11.75) (layer F.Fab) (width 0.1))
  (fp_line (start 3 -11.75) (end 2 -11.75) (layer F.Fab) (width 0.1))
  (fp_line (start -3 -10.25) (end -2 -10.25) (layer F.Fab) (width 0.1))
  (fp_line (start -2 -9.75) (end -3 -9.75) (layer F.Fab) (width 0.1))
  (fp_line (start -3 -9.75) (end -3 -10.25) (layer F.Fab) (width 0.1))
  (fp_line (start 2 -10.25) (end 3 -10.25) (layer F.Fab) (width 0.1))
  (fp_line (start 3 -10.25) (end 3 -9.75) (layer F.Fab) (width 0.1))
  (fp_line (start 3 -9.75) (end 2 -9.75) (layer F.Fab) (width 0.1))
  (fp_line (start -3 -8.25) (end -2 -8.25) (layer F.Fab) (width 0.1))
  (fp_line (start -2 -7.75) (end -3 -7.75) (layer F.Fab) (width 0.1))
  (fp_line (start -3 -7.75) (end -3 -8.25) (layer F.Fab) (width 0.1))
  (fp_line (start 2 -8.25) (end 3 -8.25) (layer F.Fab) (width 0.1))
  (fp_line (start 3 -8.25) (end 3 -7.75) (layer F.Fab) (width 0.1))
  (fp_line (start 3 -7.75) (end 2 -7.75) (layer F.Fab) (width 0.1))
  (fp_line (start -3 -6.25) (end -2 -6.25) (layer F.Fab) (width 0.1))
  (fp_line (start -2 -5.75) (end -3 -5.75) (layer F.Fab) (width 0.1))
  (fp_line (start -3 -5.75) (end -3 -6.25) (layer F.Fab) (width 0.1))
  (fp_line (start 2 -6.25) (end 3 -6.25) (layer F.Fab) (width 0.1))
  (fp_line (start 3 -6.25) (end 3 -5.75) (layer F.Fab) (width 0.1))
  (fp_line (start 3 -5.75) (end 2 -5.75) (layer F.Fab) (width 0.1))
  (fp_line (start -3 -4.25) (end -2 -4.25) (layer F.Fab) (width 0.1))
  (fp_line (start -2 -3.75) (end -3 -3.75) (layer F.Fab) (width 0.1))
  (fp_line (start -3 -3.75) (end -3 -4.25) (layer F.Fab) (width 0.1))
  (fp_line (start 2 -4.25) (end 3 -4.25) (layer F.Fab) (width 0.1))
  (fp_line (start 3 -4.25) (end 3 -3.75) (layer F.Fab) (width 0.1))
  (fp_line (start 3 -3.75) (end 2 -3.75) (layer F.Fab) (width 0.1))
  (fp_line (start -3 -2.25) (end -2 -2.25) (layer F.Fab) (width 0.1))
  (fp_line (start -2 -1.75) (end -3 -1.75) (layer F.Fab) (width 0.1))
  (fp_line (start -3 -1.75) (end -3 -2.25) (layer F.Fab) (width 0.1))
  (fp_line (start 2 -2.25) (end 3 -2.25) (layer F.Fab) (width 0.1))
  (fp_line (start 3 -2.25) (end 3 -1.75) (layer F.Fab) (width 0.1))
  (fp_line (start 3 -1.75) (end 2 -1.75) (layer F.Fab) (width 0.1))
  (fp_line (start -3 -0.25) (end -2 -0.25) (layer F.Fab) (width 0.1))
  (fp_line (start -2 0.25) (end -3 0.25) (layer F.Fab) (width 0.1))
  (fp_line (start -3 0.25) (end -3 -0.25) (layer F.Fab) (width 0.1))
  (fp_line (start 2 -0.25) (end 3 -0.25) (layer F.Fab) (width 0.1))
  (fp_line (start 3 -0.25) (end 3 0.25) (layer F.Fab) (width 0.1))
  (fp_line (start 3 0.25) (end 2 0.25) (layer F.Fab) (width 0.1))
  (fp_line (start -3 1.75) (end -2 1.75) (layer F.Fab) (width 0.1))
  (fp_line (start -2 2.25) (end -3 2.25) (layer F.Fab) (width 0.1))
  (fp_line (start -3 2.25) (end -3 1.75) (layer F.Fab) (width 0.1))
  (fp_line (start 2 1.75) (end 3 1.75) (layer F.Fab) (width 0.1))
  (fp_line (start 3 1.75) (end 3 2.25) (layer F.Fab) (width 0.1))
  (fp_line (start 3 2.25) (end 2 2.25) (layer F.Fab) (width 0.1))
  (fp_line (start -3 3.75) (end -2 3.75) (layer F.Fab) (width 0.1))
  (fp_line (start -2 4.25) (end -3 4.25) (layer F.Fab) (width 0.1))
  (fp_line (start -3 4.25) (end -3 3.75) (layer F.Fab) (width 0.1))
  (fp_line (start 2 3.75) (end 3 3.75) (layer F.Fab) (width 0.1))
  (fp_line (start 3 3.75) (end 3 4.25) (layer F.Fab) (width 0.1))
  (fp_line (start 3 4.25) (end 2 4.25) (layer F.Fab) (width 0.1))
  (fp_line (start -3 5.75) (end -2 5.75) (layer F.Fab) (width 0.1))
  (fp_line (start -2 6.25) (end -3 6.25) (layer F.Fab) (width 0.1))
  (fp_line (start -3 6.25) (end -3 5.75) (layer F.Fab) (width 0.1))
  (fp_line (start 2 5.75) (end 3 5.75) (layer F.Fab) (width 0.1))
  (fp_line (start 3 5.75) (end 3 6.25) (layer F.Fab) (width 0.1))
  (fp_line (start 3 6.25) (end 2 6.25) (layer F.Fab) (width 0.1))
  (fp_line (start -3 7.75) (end -2 7.75) (layer F.Fab) (width 0.1))
  (fp_line (start -2 8.25) (end -3 8.25) (layer F.Fab) (width 0.1))
  (fp_line (start -3 8.25) (end -3 7.75) (layer F.Fab) (width 0.1))
  (fp_line (start 2 7.75) (end 3 7.75) (layer F.Fab) (width 0.1))
  (fp_line (start 3 7.75) (end 3 8.25) (layer F.Fab) (width 0.1))
  (fp_line (start 3 8.25) (end 2 8.25) (layer F.Fab) (width 0.1))
  (fp_line (start -3 9.75) (end -2 9.75) (layer F.Fab) (width 0.1))
  (fp_line (start -2 10.25) (end -3 10.25) (layer F.Fab) (width 0.1))
  (fp_line (start -3 10.25) (end -3 9.75) (layer F.Fab) (width 0.1))
  (fp_line (start 2 9.75) (end 3 9.75) (layer F.Fab) (width 0.1))
  (fp_line (start 3 9.75) (end 3 10.25) (layer F.Fab) (width 0.1))
  (fp_line (start 3 10.25) (end 2 10.25) (layer F.Fab) (width 0.1))
  (fp_line (start -3 11.75) (end -2 11.75) (layer F.Fab) (width 0.1))
  (fp_line (start -2 12.25) (end -3 12.25) (layer F.Fab) (width 0.1))
  (fp_line (start -3 12.25) (end -3 11.75) (layer F.Fab) (width 0.1))
  (fp_line (start 2 11.75) (end 3 11.75) (layer F.Fab) (width 0.1))
  (fp_line (start 3 11.75) (end 3 12.25) (layer F.Fab) (width 0.1))
  (fp_line (start 3 12.25) (end 2 12.25) (layer F.Fab) (width 0.1))
  (fp_line (start -3 13.75) (end -2 13.75) (layer F.Fab) (width 0.1))
  (fp_line (start -2 14.25) (end -3 14.25) (layer F.Fab) (width 0.1))
  (fp_line (start -3 14.25) (end -3 13.75) (layer F.Fab) (width 0.1))
  (fp_line (start 2 13.75) (end 3 13.75) (layer F.Fab) (width 0.1))
  (fp_line (start 3 13.75) (end 3 14.25) (layer F.Fab) (width 0.1))
  (fp_line (start 3 14.25) (end 2 14.25) (layer F.Fab) (width 0.1))
  (fp_line (start -3 15.75) (end -2 15.75) (layer F.Fab) (width 0.1))
  (fp_line (start -2 16.25) (end -3 16.25) (layer F.Fab) (width 0.1))
  (fp_line (start -3 16.25) (end -3 15.75) (layer F.Fab) (width 0.1))
  (fp_line (start 2 15.75) (end 3 15.75) (layer F.Fab) (width 0.1))
  (fp_line (start 3 15.75) (end 3 16.25) (layer F.Fab) (width 0.1))
  (fp_line (start 3 16.25) (end 2 16.25) (layer F.Fab) (width 0.1))
  (fp_line (start -5 -17.5) (end 5 -17.5) (layer F.CrtYd) (width 0.05))
  (fp_line (start 5 -17.5) (end 5 17.5) (layer F.CrtYd) (width 0.05))
  (fp_line (start 5 17.5) (end -5 17.5) (layer F.CrtYd) (width 0.05))
  (fp_line (start -5 17.5) (end -5 -17.5) (layer F.CrtYd) (width 0.05))
  (pad 1 smd rect (at 3.125 -16) (size 2.75 1) (layers F.Cu F.Mask F.Paste))
  (pad 2 smd rect (at -3.125 -16) (size 2.75 1) (layers F.Cu F.Mask F.Paste))
  (pad 3 smd rect (at 3.125 -14) (size 2.75 1) (layers F.Cu F.Mask F.Paste))
  (pad 4 smd rect (at -3.125 -14) (size 2.75 1) (layers F.Cu F.Mask F.Paste))
  (pad 5 smd rect (at 3.125 -12) (size 2.75 1) (layers F.Cu F.Mask F.Paste))
  (pad 6 smd rect (at -3.125 -12) (size 2.75 1) (layers F.Cu F.Mask F.Paste))
  (pad 7 smd rect (at 3.125 -10) (size 2.75 1) (layers F.Cu F.Mask F.Paste))
  (pad 8 smd rect (at -3.125 -10) (size 2.75 1) (layers F.Cu F.Mask F.Paste))
  (pad 9 smd rect (at 3.125 -8) (size 2.75 1) (layers F.Cu F.Mask F.Paste))
  (pad 10 smd rect (at -3.125 -8) (size 2.75 1) (layers F.Cu F.Mask F.Paste))
  (pad 11 smd rect (at 3.125 -6) (size 2.75 1) (layers F.Cu F.Mask F.Paste))
  (pad 12 smd rect (at -3.125 -6) (size 2.75 1) (layers F.Cu F.Mask F.Paste))
  (pad 13 smd rect (at 3.125 -4) (size 2.75 1) (layers F.Cu F.Mask F.Paste))
  (pad 14 smd rect (at -3.125 -4) (size 2.75 1) (layers F.Cu F.Mask F.Paste))
  (pad 15 smd rect (at 3.125 -2) (size 2.75 1) (layers F.Cu F.Mask F.Paste))
  (pad 16 smd rect (at -3.125 -2) (size 2.75 1) (layers F.Cu F.Mask F.Paste))
  (pad 17 smd rect (at 3.125 0) (size 2.75 1) (layers F.Cu F.Mask F.Paste))
  (pad 18 smd rect (at -3.125 0) (size 2.75 1) (layers F.Cu F.Mask F.Paste))
  (pad 19 smd rect (at 3.125 2) (size 2.75 1) (layers F.Cu F.Mask F.Paste))
  (pad 20 smd rect (at -3.125 2) (size 2.75 1) (layers F.Cu F.Mask F.Paste))
  (pad 21 smd rect (at 3.125 4) (size 2.75 1) (layers F.Cu F.Mask F.Paste))
  (pad 22 smd rect (at -3.125 4) (size 2.75 1) (layers F.Cu F.Mask F.Paste))
  (pad 23 smd rect (at 3.125 6) (size 2.75 1) (layers F.Cu F.Mask F.Paste))
  (pad 24 smd rect (at -3.125 6) (size 2.75 1) (layers F.Cu F.Mask F.Paste))
  (pad 25 smd rect (at 3.125 8) (size 2.75 1) (layers F.Cu F.Mask F.Paste))
  (pad 26 smd rect (at -3.125 8) (size 2.75 1) (layers F.Cu F.Mask F.Paste))
  (pad 27 smd rect (at 3.125 10) (size 2.75 1) (layers F.Cu F.Mask F.Paste))
  (pad 28 smd rect (at -3.125 10) (size 2.75 1) (layers F.Cu F.Mask F.Paste))
  (pad 29 smd rect (at 3.125 12) (size 2.75 1) (layers F.Cu F.Mask F.Paste))
  (pad 30 smd rect (at -3.125 12) (size 2.75 1) (layers F.Cu F.Mask F.Paste))
  (pad 31 smd rect (at 3.125 14) (size 2.75 1) (layers F.Cu F.Mask F.Paste))
  (pad 32 smd rect (at -3.125 14) (size 2.75 1) (layers F.Cu F.Mask F.Paste))
  (pad 33 smd rect (at 3.125 16) (size 2.75 1) (layers F.Cu F.Mask F.Paste))
  (pad 34 smd rect (at -3.125 16) (size 2.75 1) (layers F.Cu F.Mask F.Paste))
  (fp_text user %R (at 0 0 90) (layer F.Fab)
    (effects (font (size 1 1) (thickness 0.15)))
  )
  (model ${KIPRJMOD}/kicad_libs_k/models_k.3d/Connector_PinSocket_2.00mm_k.3dshapes/PinSocket_2x17_P2.00mm_Vertical_SMD_k.wrl
    (at (xyz 0 0 0))
    (scale (xyz 1 1 1))
    (rotate (xyz 0 0 0))
  )
)