(module PinSocket_2x33_P2.00mm_Horizontal (layer F.Cu) (tedit 5A19A427)
  (descr "Through hole angled socket strip, 2x33, 2.00mm pitch, 6.35mm socket length, double cols (from Kicad 4.0.7), script generated")
  (tags "Through hole angled socket strip THT 2x33 2.00mm double row")
  (fp_text reference REF** (at -4.31 -2.5) (layer F.SilkS)
    (effects (font (size 1 1) (thickness 0.15)))
  )
  (fp_text value PinSocket_2x33_P2.00mm_Horizontal (at -4.31 66.5) (layer F.Fab)
    (effects (font (size 1 1) (thickness 0.15)))
  )
  (fp_line (start -9.62 -1) (end -3.97 -1) (layer F.Fab) (width 0.1))
  (fp_line (start -3.97 -1) (end -3.27 -0.3) (layer F.Fab) (width 0.1))
  (fp_line (start -3.27 -0.3) (end -3.27 65) (layer F.Fab) (width 0.1))
  (fp_line (start -3.27 65) (end -9.62 65) (layer F.Fab) (width 0.1))
  (fp_line (start -9.62 65) (end -9.62 -1) (layer F.Fab) (width 0.1))
  (fp_line (start 0 -0.3) (end -3.27 -0.3) (layer F.Fab) (width 0.1))
  (fp_line (start -3.27 0.3) (end 0 0.3) (layer F.Fab) (width 0.1))
  (fp_line (start 0 0.3) (end 0 -0.3) (layer F.Fab) (width 0.1))
  (fp_line (start 0 1.7) (end -3.27 1.7) (layer F.Fab) (width 0.1))
  (fp_line (start -3.27 2.3) (end 0 2.3) (layer F.Fab) (width 0.1))
  (fp_line (start 0 2.3) (end 0 1.7) (layer F.Fab) (width 0.1))
  (fp_line (start 0 3.7) (end -3.27 3.7) (layer F.Fab) (width 0.1))
  (fp_line (start -3.27 4.3) (end 0 4.3) (layer F.Fab) (width 0.1))
  (fp_line (start 0 4.3) (end 0 3.7) (layer F.Fab) (width 0.1))
  (fp_line (start 0 5.7) (end -3.27 5.7) (layer F.Fab) (width 0.1))
  (fp_line (start -3.27 6.3) (end 0 6.3) (layer F.Fab) (width 0.1))
  (fp_line (start 0 6.3) (end 0 5.7) (layer F.Fab) (width 0.1))
  (fp_line (start 0 7.7) (end -3.27 7.7) (layer F.Fab) (width 0.1))
  (fp_line (start -3.27 8.3) (end 0 8.3) (layer F.Fab) (width 0.1))
  (fp_line (start 0 8.3) (end 0 7.7) (layer F.Fab) (width 0.1))
  (fp_line (start 0 9.7) (end -3.27 9.7) (layer F.Fab) (width 0.1))
  (fp_line (start -3.27 10.3) (end 0 10.3) (layer F.Fab) (width 0.1))
  (fp_line (start 0 10.3) (end 0 9.7) (layer F.Fab) (width 0.1))
  (fp_line (start 0 11.7) (end -3.27 11.7) (layer F.Fab) (width 0.1))
  (fp_line (start -3.27 12.3) (end 0 12.3) (layer F.Fab) (width 0.1))
  (fp_line (start 0 12.3) (end 0 11.7) (layer F.Fab) (width 0.1))
  (fp_line (start 0 13.7) (end -3.27 13.7) (layer F.Fab) (width 0.1))
  (fp_line (start -3.27 14.3) (end 0 14.3) (layer F.Fab) (width 0.1))
  (fp_line (start 0 14.3) (end 0 13.7) (layer F.Fab) (width 0.1))
  (fp_line (start 0 15.7) (end -3.27 15.7) (layer F.Fab) (width 0.1))
  (fp_line (start -3.27 16.3) (end 0 16.3) (layer F.Fab) (width 0.1))
  (fp_line (start 0 16.3) (end 0 15.7) (layer F.Fab) (width 0.1))
  (fp_line (start 0 17.7) (end -3.27 17.7) (layer F.Fab) (width 0.1))
  (fp_line (start -3.27 18.3) (end 0 18.3) (layer F.Fab) (width 0.1))
  (fp_line (start 0 18.3) (end 0 17.7) (layer F.Fab) (width 0.1))
  (fp_line (start 0 19.7) (end -3.27 19.7) (layer F.Fab) (width 0.1))
  (fp_line (start -3.27 20.3) (end 0 20.3) (layer F.Fab) (width 0.1))
  (fp_line (start 0 20.3) (end 0 19.7) (layer F.Fab) (width 0.1))
  (fp_line (start 0 21.7) (end -3.27 21.7) (layer F.Fab) (width 0.1))
  (fp_line (start -3.27 22.3) (end 0 22.3) (layer F.Fab) (width 0.1))
  (fp_line (start 0 22.3) (end 0 21.7) (layer F.Fab) (width 0.1))
  (fp_line (start 0 23.7) (end -3.27 23.7) (layer F.Fab) (width 0.1))
  (fp_line (start -3.27 24.3) (end 0 24.3) (layer F.Fab) (width 0.1))
  (fp_line (start 0 24.3) (end 0 23.7) (layer F.Fab) (width 0.1))
  (fp_line (start 0 25.7) (end -3.27 25.7) (layer F.Fab) (width 0.1))
  (fp_line (start -3.27 26.3) (end 0 26.3) (layer F.Fab) (width 0.1))
  (fp_line (start 0 26.3) (end 0 25.7) (layer F.Fab) (width 0.1))
  (fp_line (start 0 27.7) (end -3.27 27.7) (layer F.Fab) (width 0.1))
  (fp_line (start -3.27 28.3) (end 0 28.3) (layer F.Fab) (width 0.1))
  (fp_line (start 0 28.3) (end 0 27.7) (layer F.Fab) (width 0.1))
  (fp_line (start 0 29.7) (end -3.27 29.7) (layer F.Fab) (width 0.1))
  (fp_line (start -3.27 30.3) (end 0 30.3) (layer F.Fab) (width 0.1))
  (fp_line (start 0 30.3) (end 0 29.7) (layer F.Fab) (width 0.1))
  (fp_line (start 0 31.7) (end -3.27 31.7) (layer F.Fab) (width 0.1))
  (fp_line (start -3.27 32.3) (end 0 32.3) (layer F.Fab) (width 0.1))
  (fp_line (start 0 32.3) (end 0 31.7) (layer F.Fab) (width 0.1))
  (fp_line (start 0 33.7) (end -3.27 33.7) (layer F.Fab) (width 0.1))
  (fp_line (start -3.27 34.3) (end 0 34.3) (layer F.Fab) (width 0.1))
  (fp_line (start 0 34.3) (end 0 33.7) (layer F.Fab) (width 0.1))
  (fp_line (start 0 35.7) (end -3.27 35.7) (layer F.Fab) (width 0.1))
  (fp_line (start -3.27 36.3) (end 0 36.3) (layer F.Fab) (width 0.1))
  (fp_line (start 0 36.3) (end 0 35.7) (layer F.Fab) (width 0.1))
  (fp_line (start 0 37.7) (end -3.27 37.7) (layer F.Fab) (width 0.1))
  (fp_line (start -3.27 38.3) (end 0 38.3) (layer F.Fab) (width 0.1))
  (fp_line (start 0 38.3) (end 0 37.7) (layer F.Fab) (width 0.1))
  (fp_line (start 0 39.7) (end -3.27 39.7) (layer F.Fab) (width 0.1))
  (fp_line (start -3.27 40.3) (end 0 40.3) (layer F.Fab) (width 0.1))
  (fp_line (start 0 40.3) (end 0 39.7) (layer F.Fab) (width 0.1))
  (fp_line (start 0 41.7) (end -3.27 41.7) (layer F.Fab) (width 0.1))
  (fp_line (start -3.27 42.3) (end 0 42.3) (layer F.Fab) (width 0.1))
  (fp_line (start 0 42.3) (end 0 41.7) (layer F.Fab) (width 0.1))
  (fp_line (start 0 43.7) (end -3.27 43.7) (layer F.Fab) (width 0.1))
  (fp_line (start -3.27 44.3) (end 0 44.3) (layer F.Fab) (width 0.1))
  (fp_line (start 0 44.3) (end 0 43.7) (layer F.Fab) (width 0.1))
  (fp_line (start 0 45.7) (end -3.27 45.7) (layer F.Fab) (width 0.1))
  (fp_line (start -3.27 46.3) (end 0 46.3) (layer F.Fab) (width 0.1))
  (fp_line (start 0 46.3) (end 0 45.7) (layer F.Fab) (width 0.1))
  (fp_line (start 0 47.7) (end -3.27 47.7) (layer F.Fab) (width 0.1))
  (fp_line (start -3.27 48.3) (end 0 48.3) (layer F.Fab) (width 0.1))
  (fp_line (start 0 48.3) (end 0 47.7) (layer F.Fab) (width 0.1))
  (fp_line (start 0 49.7) (end -3.27 49.7) (layer F.Fab) (width 0.1))
  (fp_line (start -3.27 50.3) (end 0 50.3) (layer F.Fab) (width 0.1))
  (fp_line (start 0 50.3) (end 0 49.7) (layer F.Fab) (width 0.1))
  (fp_line (start 0 51.7) (end -3.27 51.7) (layer F.Fab) (width 0.1))
  (fp_line (start -3.27 52.3) (end 0 52.3) (layer F.Fab) (width 0.1))
  (fp_line (start 0 52.3) (end 0 51.7) (layer F.Fab) (width 0.1))
  (fp_line (start 0 53.7) (end -3.27 53.7) (layer F.Fab) (width 0.1))
  (fp_line (start -3.27 54.3) (end 0 54.3) (layer F.Fab) (width 0.1))
  (fp_line (start 0 54.3) (end 0 53.7) (layer F.Fab) (width 0.1))
  (fp_line (start 0 55.7) (end -3.27 55.7) (layer F.Fab) (width 0.1))
  (fp_line (start -3.27 56.3) (end 0 56.3) (layer F.Fab) (width 0.1))
  (fp_line (start 0 56.3) (end 0 55.7) (layer F.Fab) (width 0.1))
  (fp_line (start 0 57.7) (end -3.27 57.7) (layer F.Fab) (width 0.1))
  (fp_line (start -3.27 58.3) (end 0 58.3) (layer F.Fab) (width 0.1))
  (fp_line (start 0 58.3) (end 0 57.7) (layer F.Fab) (width 0.1))
  (fp_line (start 0 59.7) (end -3.27 59.7) (layer F.Fab) (width 0.1))
  (fp_line (start -3.27 60.3) (end 0 60.3) (layer F.Fab) (width 0.1))
  (fp_line (start 0 60.3) (end 0 59.7) (layer F.Fab) (width 0.1))
  (fp_line (start 0 61.7) (end -3.27 61.7) (layer F.Fab) (width 0.1))
  (fp_line (start -3.27 62.3) (end 0 62.3) (layer F.Fab) (width 0.1))
  (fp_line (start 0 62.3) (end 0 61.7) (layer F.Fab) (width 0.1))
  (fp_line (start 0 63.7) (end -3.27 63.7) (layer F.Fab) (width 0.1))
  (fp_line (start -3.27 64.3) (end 0 64.3) (layer F.Fab) (width 0.1))
  (fp_line (start 0 64.3) (end 0 63.7) (layer F.Fab) (width 0.1))
  (fp_line (start -9.68 -0.94) (end -3.21 -0.94) (layer F.SilkS) (width 0.12))
  (fp_line (start -9.68 -0.825882) (end -3.21 -0.825882) (layer F.SilkS) (width 0.12))
  (fp_line (start -9.68 -0.711764) (end -3.21 -0.711764) (layer F.SilkS) (width 0.12))
  (fp_line (start -9.68 -0.597646) (end -3.21 -0.597646) (layer F.SilkS) (width 0.12))
  (fp_line (start -9.68 -0.483528) (end -3.21 -0.483528) (layer F.SilkS) (width 0.12))
  (fp_line (start -9.68 -0.36941) (end -3.21 -0.36941) (layer F.SilkS) (width 0.12))
  (fp_line (start -9.68 -0.255292) (end -3.21 -0.255292) (layer F.SilkS) (width 0.12))
  (fp_line (start -9.68 -0.141174) (end -3.21 -0.141174) (layer F.SilkS) (width 0.12))
  (fp_line (start -9.68 -0.027056) (end -3.21 -0.027056) (layer F.SilkS) (width 0.12))
  (fp_line (start -9.68 0.087062) (end -3.21 0.087062) (layer F.SilkS) (width 0.12))
  (fp_line (start -9.68 0.20118) (end -3.21 0.20118) (layer F.SilkS) (width 0.12))
  (fp_line (start -9.68 0.315298) (end -3.21 0.315298) (layer F.SilkS) (width 0.12))
  (fp_line (start -9.68 0.429416) (end -3.21 0.429416) (layer F.SilkS) (width 0.12))
  (fp_line (start -9.68 0.543534) (end -3.21 0.543534) (layer F.SilkS) (width 0.12))
  (fp_line (start -9.68 0.657652) (end -3.21 0.657652) (layer F.SilkS) (width 0.12))
  (fp_line (start -9.68 0.77177) (end -3.21 0.77177) (layer F.SilkS) (width 0.12))
  (fp_line (start -9.68 0.885888) (end -3.21 0.885888) (layer F.SilkS) (width 0.12))
  (fp_line (start -3.21 -0.36) (end -2.862917 -0.36) (layer F.SilkS) (width 0.12))
  (fp_line (start -1.137083 -0.36) (end -0.935 -0.36) (layer F.SilkS) (width 0.12))
  (fp_line (start -3.21 0.36) (end -2.862917 0.36) (layer F.SilkS) (width 0.12))
  (fp_line (start -1.137083 0.36) (end -0.935 0.36) (layer F.SilkS) (width 0.12))
  (fp_line (start -3.21 1.64) (end -2.862917 1.64) (layer F.SilkS) (width 0.12))
  (fp_line (start -1.137083 1.64) (end -0.862917 1.64) (layer F.SilkS) (width 0.12))
  (fp_line (start -3.21 2.36) (end -2.862917 2.36) (layer F.SilkS) (width 0.12))
  (fp_line (start -1.137083 2.36) (end -0.862917 2.36) (layer F.SilkS) (width 0.12))
  (fp_line (start -3.21 3.64) (end -2.862917 3.64) (layer F.SilkS) (width 0.12))
  (fp_line (start -1.137083 3.64) (end -0.862917 3.64) (layer F.SilkS) (width 0.12))
  (fp_line (start -3.21 4.36) (end -2.862917 4.36) (layer F.SilkS) (width 0.12))
  (fp_line (start -1.137083 4.36) (end -0.862917 4.36) (layer F.SilkS) (width 0.12))
  (fp_line (start -3.21 5.64) (end -2.862917 5.64) (layer F.SilkS) (width 0.12))
  (fp_line (start -1.137083 5.64) (end -0.862917 5.64) (layer F.SilkS) (width 0.12))
  (fp_line (start -3.21 6.36) (end -2.862917 6.36) (layer F.SilkS) (width 0.12))
  (fp_line (start -1.137083 6.36) (end -0.862917 6.36) (layer F.SilkS) (width 0.12))
  (fp_line (start -3.21 7.64) (end -2.862917 7.64) (layer F.SilkS) (width 0.12))
  (fp_line (start -1.137083 7.64) (end -0.862917 7.64) (layer F.SilkS) (width 0.12))
  (fp_line (start -3.21 8.36) (end -2.862917 8.36) (layer F.SilkS) (width 0.12))
  (fp_line (start -1.137083 8.36) (end -0.862917 8.36) (layer F.SilkS) (width 0.12))
  (fp_line (start -3.21 9.64) (end -2.862917 9.64) (layer F.SilkS) (width 0.12))
  (fp_line (start -1.137083 9.64) (end -0.862917 9.64) (layer F.SilkS) (width 0.12))
  (fp_line (start -3.21 10.36) (end -2.862917 10.36) (layer F.SilkS) (width 0.12))
  (fp_line (start -1.137083 10.36) (end -0.862917 10.36) (layer F.SilkS) (width 0.12))
  (fp_line (start -3.21 11.64) (end -2.862917 11.64) (layer F.SilkS) (width 0.12))
  (fp_line (start -1.137083 11.64) (end -0.862917 11.64) (layer F.SilkS) (width 0.12))
  (fp_line (start -3.21 12.36) (end -2.862917 12.36) (layer F.SilkS) (width 0.12))
  (fp_line (start -1.137083 12.36) (end -0.862917 12.36) (layer F.SilkS) (width 0.12))
  (fp_line (start -3.21 13.64) (end -2.862917 13.64) (layer F.SilkS) (width 0.12))
  (fp_line (start -1.137083 13.64) (end -0.862917 13.64) (layer F.SilkS) (width 0.12))
  (fp_line (start -3.21 14.36) (end -2.862917 14.36) (layer F.SilkS) (width 0.12))
  (fp_line (start -1.137083 14.36) (end -0.862917 14.36) (layer F.SilkS) (width 0.12))
  (fp_line (start -3.21 15.64) (end -2.862917 15.64) (layer F.SilkS) (width 0.12))
  (fp_line (start -1.137083 15.64) (end -0.862917 15.64) (layer F.SilkS) (width 0.12))
  (fp_line (start -3.21 16.36) (end -2.862917 16.36) (layer F.SilkS) (width 0.12))
  (fp_line (start -1.137083 16.36) (end -0.862917 16.36) (layer F.SilkS) (width 0.12))
  (fp_line (start -3.21 17.64) (end -2.862917 17.64) (layer F.SilkS) (width 0.12))
  (fp_line (start -1.137083 17.64) (end -0.862917 17.64) (layer F.SilkS) (width 0.12))
  (fp_line (start -3.21 18.36) (end -2.862917 18.36) (layer F.SilkS) (width 0.12))
  (fp_line (start -1.137083 18.36) (end -0.862917 18.36) (layer F.SilkS) (width 0.12))
  (fp_line (start -3.21 19.64) (end -2.862917 19.64) (layer F.SilkS) (width 0.12))
  (fp_line (start -1.137083 19.64) (end -0.862917 19.64) (layer F.SilkS) (width 0.12))
  (fp_line (start -3.21 20.36) (end -2.862917 20.36) (layer F.SilkS) (width 0.12))
  (fp_line (start -1.137083 20.36) (end -0.862917 20.36) (layer F.SilkS) (width 0.12))
  (fp_line (start -3.21 21.64) (end -2.862917 21.64) (layer F.SilkS) (width 0.12))
  (fp_line (start -1.137083 21.64) (end -0.862917 21.64) (layer F.SilkS) (width 0.12))
  (fp_line (start -3.21 22.36) (end -2.862917 22.36) (layer F.SilkS) (width 0.12))
  (fp_line (start -1.137083 22.36) (end -0.862917 22.36) (layer F.SilkS) (width 0.12))
  (fp_line (start -3.21 23.64) (end -2.862917 23.64) (layer F.SilkS) (width 0.12))
  (fp_line (start -1.137083 23.64) (end -0.862917 23.64) (layer F.SilkS) (width 0.12))
  (fp_line (start -3.21 24.36) (end -2.862917 24.36) (layer F.SilkS) (width 0.12))
  (fp_line (start -1.137083 24.36) (end -0.862917 24.36) (layer F.SilkS) (width 0.12))
  (fp_line (start -3.21 25.64) (end -2.862917 25.64) (layer F.SilkS) (width 0.12))
  (fp_line (start -1.137083 25.64) (end -0.862917 25.64) (layer F.SilkS) (width 0.12))
  (fp_line (start -3.21 26.36) (end -2.862917 26.36) (layer F.SilkS) (width 0.12))
  (fp_line (start -1.137083 26.36) (end -0.862917 26.36) (layer F.SilkS) (width 0.12))
  (fp_line (start -3.21 27.64) (end -2.862917 27.64) (layer F.SilkS) (width 0.12))
  (fp_line (start -1.137083 27.64) (end -0.862917 27.64) (layer F.SilkS) (width 0.12))
  (fp_line (start -3.21 28.36) (end -2.862917 28.36) (layer F.SilkS) (width 0.12))
  (fp_line (start -1.137083 28.36) (end -0.862917 28.36) (layer F.SilkS) (width 0.12))
  (fp_line (start -3.21 29.64) (end -2.862917 29.64) (layer F.SilkS) (width 0.12))
  (fp_line (start -1.137083 29.64) (end -0.862917 29.64) (layer F.SilkS) (width 0.12))
  (fp_line (start -3.21 30.36) (end -2.862917 30.36) (layer F.SilkS) (width 0.12))
  (fp_line (start -1.137083 30.36) (end -0.862917 30.36) (layer F.SilkS) (width 0.12))
  (fp_line (start -3.21 31.64) (end -2.862917 31.64) (layer F.SilkS) (width 0.12))
  (fp_line (start -1.137083 31.64) (end -0.862917 31.64) (layer F.SilkS) (width 0.12))
  (fp_line (start -3.21 32.36) (end -2.862917 32.36) (layer F.SilkS) (width 0.12))
  (fp_line (start -1.137083 32.36) (end -0.862917 32.36) (layer F.SilkS) (width 0.12))
  (fp_line (start -3.21 33.64) (end -2.862917 33.64) (layer F.SilkS) (width 0.12))
  (fp_line (start -1.137083 33.64) (end -0.862917 33.64) (layer F.SilkS) (width 0.12))
  (fp_line (start -3.21 34.36) (end -2.862917 34.36) (layer F.SilkS) (width 0.12))
  (fp_line (start -1.137083 34.36) (end -0.862917 34.36) (layer F.SilkS) (width 0.12))
  (fp_line (start -3.21 35.64) (end -2.862917 35.64) (layer F.SilkS) (width 0.12))
  (fp_line (start -1.137083 35.64) (end -0.862917 35.64) (layer F.SilkS) (width 0.12))
  (fp_line (start -3.21 36.36) (end -2.862917 36.36) (layer F.SilkS) (width 0.12))
  (fp_line (start -1.137083 36.36) (end -0.862917 36.36) (layer F.SilkS) (width 0.12))
  (fp_line (start -3.21 37.64) (end -2.862917 37.64) (layer F.SilkS) (width 0.12))
  (fp_line (start -1.137083 37.64) (end -0.862917 37.64) (layer F.SilkS) (width 0.12))
  (fp_line (start -3.21 38.36) (end -2.862917 38.36) (layer F.SilkS) (width 0.12))
  (fp_line (start -1.137083 38.36) (end -0.862917 38.36) (layer F.SilkS) (width 0.12))
  (fp_line (start -3.21 39.64) (end -2.862917 39.64) (layer F.SilkS) (width 0.12))
  (fp_line (start -1.137083 39.64) (end -0.862917 39.64) (layer F.SilkS) (width 0.12))
  (fp_line (start -3.21 40.36) (end -2.862917 40.36) (layer F.SilkS) (width 0.12))
  (fp_line (start -1.137083 40.36) (end -0.862917 40.36) (layer F.SilkS) (width 0.12))
  (fp_line (start -3.21 41.64) (end -2.862917 41.64) (layer F.SilkS) (width 0.12))
  (fp_line (start -1.137083 41.64) (end -0.862917 41.64) (layer F.SilkS) (width 0.12))
  (fp_line (start -3.21 42.36) (end -2.862917 42.36) (layer F.SilkS) (width 0.12))
  (fp_line (start -1.137083 42.36) (end -0.862917 42.36) (layer F.SilkS) (width 0.12))
  (fp_line (start -3.21 43.64) (end -2.862917 43.64) (layer F.SilkS) (width 0.12))
  (fp_line (start -1.137083 43.64) (end -0.862917 43.64) (layer F.SilkS) (width 0.12))
  (fp_line (start -3.21 44.36) (end -2.862917 44.36) (layer F.SilkS) (width 0.12))
  (fp_line (start -1.137083 44.36) (end -0.862917 44.36) (layer F.SilkS) (width 0.12))
  (fp_line (start -3.21 45.64) (end -2.862917 45.64) (layer F.SilkS) (width 0.12))
  (fp_line (start -1.137083 45.64) (end -0.862917 45.64) (layer F.SilkS) (width 0.12))
  (fp_line (start -3.21 46.36) (end -2.862917 46.36) (layer F.SilkS) (width 0.12))
  (fp_line (start -1.137083 46.36) (end -0.862917 46.36) (layer F.SilkS) (width 0.12))
  (fp_line (start -3.21 47.64) (end -2.862917 47.64) (layer F.SilkS) (width 0.12))
  (fp_line (start -1.137083 47.64) (end -0.862917 47.64) (layer F.SilkS) (width 0.12))
  (fp_line (start -3.21 48.36) (end -2.862917 48.36) (layer F.SilkS) (width 0.12))
  (fp_line (start -1.137083 48.36) (end -0.862917 48.36) (layer F.SilkS) (width 0.12))
  (fp_line (start -3.21 49.64) (end -2.862917 49.64) (layer F.SilkS) (width 0.12))
  (fp_line (start -1.137083 49.64) (end -0.862917 49.64) (layer F.SilkS) (width 0.12))
  (fp_line (start -3.21 50.36) (end -2.862917 50.36) (layer F.SilkS) (width 0.12))
  (fp_line (start -1.137083 50.36) (end -0.862917 50.36) (layer F.SilkS) (width 0.12))
  (fp_line (start -3.21 51.64) (end -2.862917 51.64) (layer F.SilkS) (width 0.12))
  (fp_line (start -1.137083 51.64) (end -0.862917 51.64) (layer F.SilkS) (width 0.12))
  (fp_line (start -3.21 52.36) (end -2.862917 52.36) (layer F.SilkS) (width 0.12))
  (fp_line (start -1.137083 52.36) (end -0.862917 52.36) (layer F.SilkS) (width 0.12))
  (fp_line (start -3.21 53.64) (end -2.862917 53.64) (layer F.SilkS) (width 0.12))
  (fp_line (start -1.137083 53.64) (end -0.862917 53.64) (layer F.SilkS) (width 0.12))
  (fp_line (start -3.21 54.36) (end -2.862917 54.36) (layer F.SilkS) (width 0.12))
  (fp_line (start -1.137083 54.36) (end -0.862917 54.36) (layer F.SilkS) (width 0.12))
  (fp_line (start -3.21 55.64) (end -2.862917 55.64) (layer F.SilkS) (width 0.12))
  (fp_line (start -1.137083 55.64) (end -0.862917 55.64) (layer F.SilkS) (width 0.12))
  (fp_line (start -3.21 56.36) (end -2.862917 56.36) (layer F.SilkS) (width 0.12))
  (fp_line (start -1.137083 56.36) (end -0.862917 56.36) (layer F.SilkS) (width 0.12))
  (fp_line (start -3.21 57.64) (end -2.862917 57.64) (layer F.SilkS) (width 0.12))
  (fp_line (start -1.137083 57.64) (end -0.862917 57.64) (layer F.SilkS) (width 0.12))
  (fp_line (start -3.21 58.36) (end -2.862917 58.36) (layer F.SilkS) (width 0.12))
  (fp_line (start -1.137083 58.36) (end -0.862917 58.36) (layer F.SilkS) (width 0.12))
  (fp_line (start -3.21 59.64) (end -2.862917 59.64) (layer F.SilkS) (width 0.12))
  (fp_line (start -1.137083 59.64) (end -0.862917 59.64) (layer F.SilkS) (width 0.12))
  (fp_line (start -3.21 60.36) (end -2.862917 60.36) (layer F.SilkS) (width 0.12))
  (fp_line (start -1.137083 60.36) (end -0.862917 60.36) (layer F.SilkS) (width 0.12))
  (fp_line (start -3.21 61.64) (end -2.862917 61.64) (layer F.SilkS) (width 0.12))
  (fp_line (start -1.137083 61.64) (end -0.862917 61.64) (layer F.SilkS) (width 0.12))
  (fp_line (start -3.21 62.36) (end -2.862917 62.36) (layer F.SilkS) (width 0.12))
  (fp_line (start -1.137083 62.36) (end -0.862917 62.36) (layer F.SilkS) (width 0.12))
  (fp_line (start -3.21 63.64) (end -2.862917 63.64) (layer F.SilkS) (width 0.12))
  (fp_line (start -1.137083 63.64) (end -0.862917 63.64) (layer F.SilkS) (width 0.12))
  (fp_line (start -3.21 64.36) (end -2.862917 64.36) (layer F.SilkS) (width 0.12))
  (fp_line (start -1.137083 64.36) (end -0.862917 64.36) (layer F.SilkS) (width 0.12))
  (fp_line (start -9.68 1) (end -3.21 1) (layer F.SilkS) (width 0.12))
  (fp_line (start -9.68 3) (end -3.21 3) (layer F.SilkS) (width 0.12))
  (fp_line (start -9.68 5) (end -3.21 5) (layer F.SilkS) (width 0.12))
  (fp_line (start -9.68 7) (end -3.21 7) (layer F.SilkS) (width 0.12))
  (fp_line (start -9.68 9) (end -3.21 9) (layer F.SilkS) (width 0.12))
  (fp_line (start -9.68 11) (end -3.21 11) (layer F.SilkS) (width 0.12))
  (fp_line (start -9.68 13) (end -3.21 13) (layer F.SilkS) (width 0.12))
  (fp_line (start -9.68 15) (end -3.21 15) (layer F.SilkS) (width 0.12))
  (fp_line (start -9.68 17) (end -3.21 17) (layer F.SilkS) (width 0.12))
  (fp_line (start -9.68 19) (end -3.21 19) (layer F.SilkS) (width 0.12))
  (fp_line (start -9.68 21) (end -3.21 21) (layer F.SilkS) (width 0.12))
  (fp_line (start -9.68 23) (end -3.21 23) (layer F.SilkS) (width 0.12))
  (fp_line (start -9.68 25) (end -3.21 25) (layer F.SilkS) (width 0.12))
  (fp_line (start -9.68 27) (end -3.21 27) (layer F.SilkS) (width 0.12))
  (fp_line (start -9.68 29) (end -3.21 29) (layer F.SilkS) (width 0.12))
  (fp_line (start -9.68 31) (end -3.21 31) (layer F.SilkS) (width 0.12))
  (fp_line (start -9.68 33) (end -3.21 33) (layer F.SilkS) (width 0.12))
  (fp_line (start -9.68 35) (end -3.21 35) (layer F.SilkS) (width 0.12))
  (fp_line (start -9.68 37) (end -3.21 37) (layer F.SilkS) (width 0.12))
  (fp_line (start -9.68 39) (end -3.21 39) (layer F.SilkS) (width 0.12))
  (fp_line (start -9.68 41) (end -3.21 41) (layer F.SilkS) (width 0.12))
  (fp_line (start -9.68 43) (end -3.21 43) (layer F.SilkS) (width 0.12))
  (fp_line (start -9.68 45) (end -3.21 45) (layer F.SilkS) (width 0.12))
  (fp_line (start -9.68 47) (end -3.21 47) (layer F.SilkS) (width 0.12))
  (fp_line (start -9.68 49) (end -3.21 49) (layer F.SilkS) (width 0.12))
  (fp_line (start -9.68 51) (end -3.21 51) (layer F.SilkS) (width 0.12))
  (fp_line (start -9.68 53) (end -3.21 53) (layer F.SilkS) (width 0.12))
  (fp_line (start -9.68 55) (end -3.21 55) (layer F.SilkS) (width 0.12))
  (fp_line (start -9.68 57) (end -3.21 57) (layer F.SilkS) (width 0.12))
  (fp_line (start -9.68 59) (end -3.21 59) (layer F.SilkS) (width 0.12))
  (fp_line (start -9.68 61) (end -3.21 61) (layer F.SilkS) (width 0.12))
  (fp_line (start -9.68 63) (end -3.21 63) (layer F.SilkS) (width 0.12))
  (fp_line (start -9.68 -1.06) (end -3.21 -1.06) (layer F.SilkS) (width 0.12))
  (fp_line (start -3.21 -1.06) (end -3.21 65.06) (layer F.SilkS) (width 0.12))
  (fp_line (start -9.68 65.06) (end -3.21 65.06) (layer F.SilkS) (width 0.12))
  (fp_line (start -9.68 -1.06) (end -9.68 65.06) (layer F.SilkS) (width 0.12))
  (fp_line (start 0.935 -1.06) (end 0.935 0) (layer F.SilkS) (width 0.12))
  (fp_line (start 0 -1.06) (end 0.935 -1.06) (layer F.SilkS) (width 0.12))
  (fp_line (start 1.5 -1.5) (end -10.15 -1.5) (layer F.CrtYd) (width 0.05))
  (fp_line (start -10.15 -1.5) (end -10.15 65.5) (layer F.CrtYd) (width 0.05))
  (fp_line (start -10.15 65.5) (end 1.5 65.5) (layer F.CrtYd) (width 0.05))
  (fp_line (start 1.5 65.5) (end 1.5 -1.5) (layer F.CrtYd) (width 0.05))
  (pad 1 thru_hole rect (at 0 0) (size 1.35 1.35) (drill 0.8) (layers *.Cu *.Mask))
  (pad 2 thru_hole oval (at -2 0) (size 1.35 1.35) (drill 0.8) (layers *.Cu *.Mask))
  (pad 3 thru_hole oval (at 0 2) (size 1.35 1.35) (drill 0.8) (layers *.Cu *.Mask))
  (pad 4 thru_hole oval (at -2 2) (size 1.35 1.35) (drill 0.8) (layers *.Cu *.Mask))
  (pad 5 thru_hole oval (at 0 4) (size 1.35 1.35) (drill 0.8) (layers *.Cu *.Mask))
  (pad 6 thru_hole oval (at -2 4) (size 1.35 1.35) (drill 0.8) (layers *.Cu *.Mask))
  (pad 7 thru_hole oval (at 0 6) (size 1.35 1.35) (drill 0.8) (layers *.Cu *.Mask))
  (pad 8 thru_hole oval (at -2 6) (size 1.35 1.35) (drill 0.8) (layers *.Cu *.Mask))
  (pad 9 thru_hole oval (at 0 8) (size 1.35 1.35) (drill 0.8) (layers *.Cu *.Mask))
  (pad 10 thru_hole oval (at -2 8) (size 1.35 1.35) (drill 0.8) (layers *.Cu *.Mask))
  (pad 11 thru_hole oval (at 0 10) (size 1.35 1.35) (drill 0.8) (layers *.Cu *.Mask))
  (pad 12 thru_hole oval (at -2 10) (size 1.35 1.35) (drill 0.8) (layers *.Cu *.Mask))
  (pad 13 thru_hole oval (at 0 12) (size 1.35 1.35) (drill 0.8) (layers *.Cu *.Mask))
  (pad 14 thru_hole oval (at -2 12) (size 1.35 1.35) (drill 0.8) (layers *.Cu *.Mask))
  (pad 15 thru_hole oval (at 0 14) (size 1.35 1.35) (drill 0.8) (layers *.Cu *.Mask))
  (pad 16 thru_hole oval (at -2 14) (size 1.35 1.35) (drill 0.8) (layers *.Cu *.Mask))
  (pad 17 thru_hole oval (at 0 16) (size 1.35 1.35) (drill 0.8) (layers *.Cu *.Mask))
  (pad 18 thru_hole oval (at -2 16) (size 1.35 1.35) (drill 0.8) (layers *.Cu *.Mask))
  (pad 19 thru_hole oval (at 0 18) (size 1.35 1.35) (drill 0.8) (layers *.Cu *.Mask))
  (pad 20 thru_hole oval (at -2 18) (size 1.35 1.35) (drill 0.8) (layers *.Cu *.Mask))
  (pad 21 thru_hole oval (at 0 20) (size 1.35 1.35) (drill 0.8) (layers *.Cu *.Mask))
  (pad 22 thru_hole oval (at -2 20) (size 1.35 1.35) (drill 0.8) (layers *.Cu *.Mask))
  (pad 23 thru_hole oval (at 0 22) (size 1.35 1.35) (drill 0.8) (layers *.Cu *.Mask))
  (pad 24 thru_hole oval (at -2 22) (size 1.35 1.35) (drill 0.8) (layers *.Cu *.Mask))
  (pad 25 thru_hole oval (at 0 24) (size 1.35 1.35) (drill 0.8) (layers *.Cu *.Mask))
  (pad 26 thru_hole oval (at -2 24) (size 1.35 1.35) (drill 0.8) (layers *.Cu *.Mask))
  (pad 27 thru_hole oval (at 0 26) (size 1.35 1.35) (drill 0.8) (layers *.Cu *.Mask))
  (pad 28 thru_hole oval (at -2 26) (size 1.35 1.35) (drill 0.8) (layers *.Cu *.Mask))
  (pad 29 thru_hole oval (at 0 28) (size 1.35 1.35) (drill 0.8) (layers *.Cu *.Mask))
  (pad 30 thru_hole oval (at -2 28) (size 1.35 1.35) (drill 0.8) (layers *.Cu *.Mask))
  (pad 31 thru_hole oval (at 0 30) (size 1.35 1.35) (drill 0.8) (layers *.Cu *.Mask))
  (pad 32 thru_hole oval (at -2 30) (size 1.35 1.35) (drill 0.8) (layers *.Cu *.Mask))
  (pad 33 thru_hole oval (at 0 32) (size 1.35 1.35) (drill 0.8) (layers *.Cu *.Mask))
  (pad 34 thru_hole oval (at -2 32) (size 1.35 1.35) (drill 0.8) (layers *.Cu *.Mask))
  (pad 35 thru_hole oval (at 0 34) (size 1.35 1.35) (drill 0.8) (layers *.Cu *.Mask))
  (pad 36 thru_hole oval (at -2 34) (size 1.35 1.35) (drill 0.8) (layers *.Cu *.Mask))
  (pad 37 thru_hole oval (at 0 36) (size 1.35 1.35) (drill 0.8) (layers *.Cu *.Mask))
  (pad 38 thru_hole oval (at -2 36) (size 1.35 1.35) (drill 0.8) (layers *.Cu *.Mask))
  (pad 39 thru_hole oval (at 0 38) (size 1.35 1.35) (drill 0.8) (layers *.Cu *.Mask))
  (pad 40 thru_hole oval (at -2 38) (size 1.35 1.35) (drill 0.8) (layers *.Cu *.Mask))
  (pad 41 thru_hole oval (at 0 40) (size 1.35 1.35) (drill 0.8) (layers *.Cu *.Mask))
  (pad 42 thru_hole oval (at -2 40) (size 1.35 1.35) (drill 0.8) (layers *.Cu *.Mask))
  (pad 43 thru_hole oval (at 0 42) (size 1.35 1.35) (drill 0.8) (layers *.Cu *.Mask))
  (pad 44 thru_hole oval (at -2 42) (size 1.35 1.35) (drill 0.8) (layers *.Cu *.Mask))
  (pad 45 thru_hole oval (at 0 44) (size 1.35 1.35) (drill 0.8) (layers *.Cu *.Mask))
  (pad 46 thru_hole oval (at -2 44) (size 1.35 1.35) (drill 0.8) (layers *.Cu *.Mask))
  (pad 47 thru_hole oval (at 0 46) (size 1.35 1.35) (drill 0.8) (layers *.Cu *.Mask))
  (pad 48 thru_hole oval (at -2 46) (size 1.35 1.35) (drill 0.8) (layers *.Cu *.Mask))
  (pad 49 thru_hole oval (at 0 48) (size 1.35 1.35) (drill 0.8) (layers *.Cu *.Mask))
  (pad 50 thru_hole oval (at -2 48) (size 1.35 1.35) (drill 0.8) (layers *.Cu *.Mask))
  (pad 51 thru_hole oval (at 0 50) (size 1.35 1.35) (drill 0.8) (layers *.Cu *.Mask))
  (pad 52 thru_hole oval (at -2 50) (size 1.35 1.35) (drill 0.8) (layers *.Cu *.Mask))
  (pad 53 thru_hole oval (at 0 52) (size 1.35 1.35) (drill 0.8) (layers *.Cu *.Mask))
  (pad 54 thru_hole oval (at -2 52) (size 1.35 1.35) (drill 0.8) (layers *.Cu *.Mask))
  (pad 55 thru_hole oval (at 0 54) (size 1.35 1.35) (drill 0.8) (layers *.Cu *.Mask))
  (pad 56 thru_hole oval (at -2 54) (size 1.35 1.35) (drill 0.8) (layers *.Cu *.Mask))
  (pad 57 thru_hole oval (at 0 56) (size 1.35 1.35) (drill 0.8) (layers *.Cu *.Mask))
  (pad 58 thru_hole oval (at -2 56) (size 1.35 1.35) (drill 0.8) (layers *.Cu *.Mask))
  (pad 59 thru_hole oval (at 0 58) (size 1.35 1.35) (drill 0.8) (layers *.Cu *.Mask))
  (pad 60 thru_hole oval (at -2 58) (size 1.35 1.35) (drill 0.8) (layers *.Cu *.Mask))
  (pad 61 thru_hole oval (at 0 60) (size 1.35 1.35) (drill 0.8) (layers *.Cu *.Mask))
  (pad 62 thru_hole oval (at -2 60) (size 1.35 1.35) (drill 0.8) (layers *.Cu *.Mask))
  (pad 63 thru_hole oval (at 0 62) (size 1.35 1.35) (drill 0.8) (layers *.Cu *.Mask))
  (pad 64 thru_hole oval (at -2 62) (size 1.35 1.35) (drill 0.8) (layers *.Cu *.Mask))
  (pad 65 thru_hole oval (at 0 64) (size 1.35 1.35) (drill 0.8) (layers *.Cu *.Mask))
  (pad 66 thru_hole oval (at -2 64) (size 1.35 1.35) (drill 0.8) (layers *.Cu *.Mask))
  (fp_text user %R (at -6.445 32 90) (layer F.Fab)
    (effects (font (size 1 1) (thickness 0.15)))
  )
  (model ${KIPRJMOD}/kicad_libs_k/models_k.3d/Connector_PinSocket_2.00mm_k.3dshapes/PinSocket_2x33_P2.00mm_Horizontal_k.wrl
    (at (xyz 0 0 0))
    (scale (xyz 1 1 1))
    (rotate (xyz 0 0 0))
  )
)