(module PinSocket_1x18_P2.00mm_Horizontal (layer F.Cu) (tedit 5A19A42F)
  (descr "Through hole angled socket strip, 1x18, 2.00mm pitch, 6.35mm socket length, single row (from Kicad 4.0.7), script generated")
  (tags "Through hole angled socket strip THT 1x18 2.00mm single row")
  (fp_text reference REF** (at -3.31 -2.5) (layer F.SilkS)
    (effects (font (size 1 1) (thickness 0.15)))
  )
  (fp_text value PinSocket_1x18_P2.00mm_Horizontal (at -3.31 36.5) (layer F.Fab)
    (effects (font (size 1 1) (thickness 0.15)))
  )
  (fp_line (start -7.62 -1) (end -1.97 -1) (layer F.Fab) (width 0.1))
  (fp_line (start -1.97 -1) (end -1.27 -0.3) (layer F.Fab) (width 0.1))
  (fp_line (start -1.27 -0.3) (end -1.27 35) (layer F.Fab) (width 0.1))
  (fp_line (start -1.27 35) (end -7.62 35) (layer F.Fab) (width 0.1))
  (fp_line (start -7.62 35) (end -7.62 -1) (layer F.Fab) (width 0.1))
  (fp_line (start 0 -0.3) (end -1.27 -0.3) (layer F.Fab) (width 0.1))
  (fp_line (start -1.27 0.3) (end 0 0.3) (layer F.Fab) (width 0.1))
  (fp_line (start 0 0.3) (end 0 -0.3) (layer F.Fab) (width 0.1))
  (fp_line (start 0 1.7) (end -1.27 1.7) (layer F.Fab) (width 0.1))
  (fp_line (start -1.27 2.3) (end 0 2.3) (layer F.Fab) (width 0.1))
  (fp_line (start 0 2.3) (end 0 1.7) (layer F.Fab) (width 0.1))
  (fp_line (start 0 3.7) (end -1.27 3.7) (layer F.Fab) (width 0.1))
  (fp_line (start -1.27 4.3) (end 0 4.3) (layer F.Fab) (width 0.1))
  (fp_line (start 0 4.3) (end 0 3.7) (layer F.Fab) (width 0.1))
  (fp_line (start 0 5.7) (end -1.27 5.7) (layer F.Fab) (width 0.1))
  (fp_line (start -1.27 6.3) (end 0 6.3) (layer F.Fab) (width 0.1))
  (fp_line (start 0 6.3) (end 0 5.7) (layer F.Fab) (width 0.1))
  (fp_line (start 0 7.7) (end -1.27 7.7) (layer F.Fab) (width 0.1))
  (fp_line (start -1.27 8.3) (end 0 8.3) (layer F.Fab) (width 0.1))
  (fp_line (start 0 8.3) (end 0 7.7) (layer F.Fab) (width 0.1))
  (fp_line (start 0 9.7) (end -1.27 9.7) (layer F.Fab) (width 0.1))
  (fp_line (start -1.27 10.3) (end 0 10.3) (layer F.Fab) (width 0.1))
  (fp_line (start 0 10.3) (end 0 9.7) (layer F.Fab) (width 0.1))
  (fp_line (start 0 11.7) (end -1.27 11.7) (layer F.Fab) (width 0.1))
  (fp_line (start -1.27 12.3) (end 0 12.3) (layer F.Fab) (width 0.1))
  (fp_line (start 0 12.3) (end 0 11.7) (layer F.Fab) (width 0.1))
  (fp_line (start 0 13.7) (end -1.27 13.7) (layer F.Fab) (width 0.1))
  (fp_line (start -1.27 14.3) (end 0 14.3) (layer F.Fab) (width 0.1))
  (fp_line (start 0 14.3) (end 0 13.7) (layer F.Fab) (width 0.1))
  (fp_line (start 0 15.7) (end -1.27 15.7) (layer F.Fab) (width 0.1))
  (fp_line (start -1.27 16.3) (end 0 16.3) (layer F.Fab) (width 0.1))
  (fp_line (start 0 16.3) (end 0 15.7) (layer F.Fab) (width 0.1))
  (fp_line (start 0 17.7) (end -1.27 17.7) (layer F.Fab) (width 0.1))
  (fp_line (start -1.27 18.3) (end 0 18.3) (layer F.Fab) (width 0.1))
  (fp_line (start 0 18.3) (end 0 17.7) (layer F.Fab) (width 0.1))
  (fp_line (start 0 19.7) (end -1.27 19.7) (layer F.Fab) (width 0.1))
  (fp_line (start -1.27 20.3) (end 0 20.3) (layer F.Fab) (width 0.1))
  (fp_line (start 0 20.3) (end 0 19.7) (layer F.Fab) (width 0.1))
  (fp_line (start 0 21.7) (end -1.27 21.7) (layer F.Fab) (width 0.1))
  (fp_line (start -1.27 22.3) (end 0 22.3) (layer F.Fab) (width 0.1))
  (fp_line (start 0 22.3) (end 0 21.7) (layer F.Fab) (width 0.1))
  (fp_line (start 0 23.7) (end -1.27 23.7) (layer F.Fab) (width 0.1))
  (fp_line (start -1.27 24.3) (end 0 24.3) (layer F.Fab) (width 0.1))
  (fp_line (start 0 24.3) (end 0 23.7) (layer F.Fab) (width 0.1))
  (fp_line (start 0 25.7) (end -1.27 25.7) (layer F.Fab) (width 0.1))
  (fp_line (start -1.27 26.3) (end 0 26.3) (layer F.Fab) (width 0.1))
  (fp_line (start 0 26.3) (end 0 25.7) (layer F.Fab) (width 0.1))
  (fp_line (start 0 27.7) (end -1.27 27.7) (layer F.Fab) (width 0.1))
  (fp_line (start -1.27 28.3) (end 0 28.3) (layer F.Fab) (width 0.1))
  (fp_line (start 0 28.3) (end 0 27.7) (layer F.Fab) (width 0.1))
  (fp_line (start 0 29.7) (end -1.27 29.7) (layer F.Fab) (width 0.1))
  (fp_line (start -1.27 30.3) (end 0 30.3) (layer F.Fab) (width 0.1))
  (fp_line (start 0 30.3) (end 0 29.7) (layer F.Fab) (width 0.1))
  (fp_line (start 0 31.7) (end -1.27 31.7) (layer F.Fab) (width 0.1))
  (fp_line (start -1.27 32.3) (end 0 32.3) (layer F.Fab) (width 0.1))
  (fp_line (start 0 32.3) (end 0 31.7) (layer F.Fab) (width 0.1))
  (fp_line (start 0 33.7) (end -1.27 33.7) (layer F.Fab) (width 0.1))
  (fp_line (start -1.27 34.3) (end 0 34.3) (layer F.Fab) (width 0.1))
  (fp_line (start 0 34.3) (end 0 33.7) (layer F.Fab) (width 0.1))
  (fp_line (start -7.68 -0.94) (end -1.21 -0.94) (layer F.SilkS) (width 0.12))
  (fp_line (start -7.68 -0.825882) (end -1.21 -0.825882) (layer F.SilkS) (width 0.12))
  (fp_line (start -7.68 -0.711764) (end -1.21 -0.711764) (layer F.SilkS) (width 0.12))
  (fp_line (start -7.68 -0.597646) (end -1.21 -0.597646) (layer F.SilkS) (width 0.12))
  (fp_line (start -7.68 -0.483528) (end -1.21 -0.483528) (layer F.SilkS) (width 0.12))
  (fp_line (start -7.68 -0.36941) (end -1.21 -0.36941) (layer F.SilkS) (width 0.12))
  (fp_line (start -7.68 -0.255292) (end -1.21 -0.255292) (layer F.SilkS) (width 0.12))
  (fp_line (start -7.68 -0.141174) (end -1.21 -0.141174) (layer F.SilkS) (width 0.12))
  (fp_line (start -7.68 -0.027056) (end -1.21 -0.027056) (layer F.SilkS) (width 0.12))
  (fp_line (start -7.68 0.087062) (end -1.21 0.087062) (layer F.SilkS) (width 0.12))
  (fp_line (start -7.68 0.20118) (end -1.21 0.20118) (layer F.SilkS) (width 0.12))
  (fp_line (start -7.68 0.315298) (end -1.21 0.315298) (layer F.SilkS) (width 0.12))
  (fp_line (start -7.68 0.429416) (end -1.21 0.429416) (layer F.SilkS) (width 0.12))
  (fp_line (start -7.68 0.543534) (end -1.21 0.543534) (layer F.SilkS) (width 0.12))
  (fp_line (start -7.68 0.657652) (end -1.21 0.657652) (layer F.SilkS) (width 0.12))
  (fp_line (start -7.68 0.77177) (end -1.21 0.77177) (layer F.SilkS) (width 0.12))
  (fp_line (start -7.68 0.885888) (end -1.21 0.885888) (layer F.SilkS) (width 0.12))
  (fp_line (start -1.21 -0.36) (end -0.935 -0.36) (layer F.SilkS) (width 0.12))
  (fp_line (start -1.21 0.36) (end -0.935 0.36) (layer F.SilkS) (width 0.12))
  (fp_line (start -1.21 1.64) (end -0.862917 1.64) (layer F.SilkS) (width 0.12))
  (fp_line (start -1.21 2.36) (end -0.862917 2.36) (layer F.SilkS) (width 0.12))
  (fp_line (start -1.21 3.64) (end -0.862917 3.64) (layer F.SilkS) (width 0.12))
  (fp_line (start -1.21 4.36) (end -0.862917 4.36) (layer F.SilkS) (width 0.12))
  (fp_line (start -1.21 5.64) (end -0.862917 5.64) (layer F.SilkS) (width 0.12))
  (fp_line (start -1.21 6.36) (end -0.862917 6.36) (layer F.SilkS) (width 0.12))
  (fp_line (start -1.21 7.64) (end -0.862917 7.64) (layer F.SilkS) (width 0.12))
  (fp_line (start -1.21 8.36) (end -0.862917 8.36) (layer F.SilkS) (width 0.12))
  (fp_line (start -1.21 9.64) (end -0.862917 9.64) (layer F.SilkS) (width 0.12))
  (fp_line (start -1.21 10.36) (end -0.862917 10.36) (layer F.SilkS) (width 0.12))
  (fp_line (start -1.21 11.64) (end -0.862917 11.64) (layer F.SilkS) (width 0.12))
  (fp_line (start -1.21 12.36) (end -0.862917 12.36) (layer F.SilkS) (width 0.12))
  (fp_line (start -1.21 13.64) (end -0.862917 13.64) (layer F.SilkS) (width 0.12))
  (fp_line (start -1.21 14.36) (end -0.862917 14.36) (layer F.SilkS) (width 0.12))
  (fp_line (start -1.21 15.64) (end -0.862917 15.64) (layer F.SilkS) (width 0.12))
  (fp_line (start -1.21 16.36) (end -0.862917 16.36) (layer F.SilkS) (width 0.12))
  (fp_line (start -1.21 17.64) (end -0.862917 17.64) (layer F.SilkS) (width 0.12))
  (fp_line (start -1.21 18.36) (end -0.862917 18.36) (layer F.SilkS) (width 0.12))
  (fp_line (start -1.21 19.64) (end -0.862917 19.64) (layer F.SilkS) (width 0.12))
  (fp_line (start -1.21 20.36) (end -0.862917 20.36) (layer F.SilkS) (width 0.12))
  (fp_line (start -1.21 21.64) (end -0.862917 21.64) (layer F.SilkS) (width 0.12))
  (fp_line (start -1.21 22.36) (end -0.862917 22.36) (layer F.SilkS) (width 0.12))
  (fp_line (start -1.21 23.64) (end -0.862917 23.64) (layer F.SilkS) (width 0.12))
  (fp_line (start -1.21 24.36) (end -0.862917 24.36) (layer F.SilkS) (width 0.12))
  (fp_line (start -1.21 25.64) (end -0.862917 25.64) (layer F.SilkS) (width 0.12))
  (fp_line (start -1.21 26.36) (end -0.862917 26.36) (layer F.SilkS) (width 0.12))
  (fp_line (start -1.21 27.64) (end -0.862917 27.64) (layer F.SilkS) (width 0.12))
  (fp_line (start -1.21 28.36) (end -0.862917 28.36) (layer F.SilkS) (width 0.12))
  (fp_line (start -1.21 29.64) (end -0.862917 29.64) (layer F.SilkS) (width 0.12))
  (fp_line (start -1.21 30.36) (end -0.862917 30.36) (layer F.SilkS) (width 0.12))
  (fp_line (start -1.21 31.64) (end -0.862917 31.64) (layer F.SilkS) (width 0.12))
  (fp_line (start -1.21 32.36) (end -0.862917 32.36) (layer F.SilkS) (width 0.12))
  (fp_line (start -1.21 33.64) (end -0.862917 33.64) (layer F.SilkS) (width 0.12))
  (fp_line (start -1.21 34.36) (end -0.862917 34.36) (layer F.SilkS) (width 0.12))
  (fp_line (start -7.68 1) (end -1.21 1) (layer F.SilkS) (width 0.12))
  (fp_line (start -7.68 3) (end -1.21 3) (layer F.SilkS) (width 0.12))
  (fp_line (start -7.68 5) (end -1.21 5) (layer F.SilkS) (width 0.12))
  (fp_line (start -7.68 7) (end -1.21 7) (layer F.SilkS) (width 0.12))
  (fp_line (start -7.68 9) (end -1.21 9) (layer F.SilkS) (width 0.12))
  (fp_line (start -7.68 11) (end -1.21 11) (layer F.SilkS) (width 0.12))
  (fp_line (start -7.68 13) (end -1.21 13) (layer F.SilkS) (width 0.12))
  (fp_line (start -7.68 15) (end -1.21 15) (layer F.SilkS) (width 0.12))
  (fp_line (start -7.68 17) (end -1.21 17) (layer F.SilkS) (width 0.12))
  (fp_line (start -7.68 19) (end -1.21 19) (layer F.SilkS) (width 0.12))
  (fp_line (start -7.68 21) (end -1.21 21) (layer F.SilkS) (width 0.12))
  (fp_line (start -7.68 23) (end -1.21 23) (layer F.SilkS) (width 0.12))
  (fp_line (start -7.68 25) (end -1.21 25) (layer F.SilkS) (width 0.12))
  (fp_line (start -7.68 27) (end -1.21 27) (layer F.SilkS) (width 0.12))
  (fp_line (start -7.68 29) (end -1.21 29) (layer F.SilkS) (width 0.12))
  (fp_line (start -7.68 31) (end -1.21 31) (layer F.SilkS) (width 0.12))
  (fp_line (start -7.68 33) (end -1.21 33) (layer F.SilkS) (width 0.12))
  (fp_line (start -7.68 -1.06) (end -1.21 -1.06) (layer F.SilkS) (width 0.12))
  (fp_line (start -1.21 -1.06) (end -1.21 35.06) (layer F.SilkS) (width 0.12))
  (fp_line (start -7.68 35.06) (end -1.21 35.06) (layer F.SilkS) (width 0.12))
  (fp_line (start -7.68 -1.06) (end -7.68 35.06) (layer F.SilkS) (width 0.12))
  (fp_line (start 0.935 -1.06) (end 0.935 0) (layer F.SilkS) (width 0.12))
  (fp_line (start 0 -1.06) (end 0.935 -1.06) (layer F.SilkS) (width 0.12))
  (fp_line (start 1.5 -1.5) (end -8.15 -1.5) (layer F.CrtYd) (width 0.05))
  (fp_line (start -8.15 -1.5) (end -8.15 35.5) (layer F.CrtYd) (width 0.05))
  (fp_line (start -8.15 35.5) (end 1.5 35.5) (layer F.CrtYd) (width 0.05))
  (fp_line (start 1.5 35.5) (end 1.5 -1.5) (layer F.CrtYd) (width 0.05))
  (pad 1 thru_hole rect (at 0 0) (size 1.35 1.35) (drill 0.8) (layers *.Cu *.Mask))
  (pad 2 thru_hole oval (at 0 2) (size 1.35 1.35) (drill 0.8) (layers *.Cu *.Mask))
  (pad 3 thru_hole oval (at 0 4) (size 1.35 1.35) (drill 0.8) (layers *.Cu *.Mask))
  (pad 4 thru_hole oval (at 0 6) (size 1.35 1.35) (drill 0.8) (layers *.Cu *.Mask))
  (pad 5 thru_hole oval (at 0 8) (size 1.35 1.35) (drill 0.8) (layers *.Cu *.Mask))
  (pad 6 thru_hole oval (at 0 10) (size 1.35 1.35) (drill 0.8) (layers *.Cu *.Mask))
  (pad 7 thru_hole oval (at 0 12) (size 1.35 1.35) (drill 0.8) (layers *.Cu *.Mask))
  (pad 8 thru_hole oval (at 0 14) (size 1.35 1.35) (drill 0.8) (layers *.Cu *.Mask))
  (pad 9 thru_hole oval (at 0 16) (size 1.35 1.35) (drill 0.8) (layers *.Cu *.Mask))
  (pad 10 thru_hole oval (at 0 18) (size 1.35 1.35) (drill 0.8) (layers *.Cu *.Mask))
  (pad 11 thru_hole oval (at 0 20) (size 1.35 1.35) (drill 0.8) (layers *.Cu *.Mask))
  (pad 12 thru_hole oval (at 0 22) (size 1.35 1.35) (drill 0.8) (layers *.Cu *.Mask))
  (pad 13 thru_hole oval (at 0 24) (size 1.35 1.35) (drill 0.8) (layers *.Cu *.Mask))
  (pad 14 thru_hole oval (at 0 26) (size 1.35 1.35) (drill 0.8) (layers *.Cu *.Mask))
  (pad 15 thru_hole oval (at 0 28) (size 1.35 1.35) (drill 0.8) (layers *.Cu *.Mask))
  (pad 16 thru_hole oval (at 0 30) (size 1.35 1.35) (drill 0.8) (layers *.Cu *.Mask))
  (pad 17 thru_hole oval (at 0 32) (size 1.35 1.35) (drill 0.8) (layers *.Cu *.Mask))
  (pad 18 thru_hole oval (at 0 34) (size 1.35 1.35) (drill 0.8) (layers *.Cu *.Mask))
  (fp_text user %R (at -4.445 17 90) (layer F.Fab)
    (effects (font (size 1 1) (thickness 0.15)))
  )
  (model ${KIPRJMOD}/kicad_libs_k/models_k.3d/Connector_PinSocket_2.00mm_k.3dshapes/PinSocket_1x18_P2.00mm_Horizontal_k.wrl
    (at (xyz 0 0 0))
    (scale (xyz 1 1 1))
    (rotate (xyz 0 0 0))
  )
)