(module PinSocket_1x02_P2.00mm_Horizontal (layer F.Cu) (tedit 5A19A426)
  (descr "Through hole angled socket strip, 1x02, 2.00mm pitch, 6.35mm socket length, single row (from Kicad 4.0.7), script generated")
  (tags "Through hole angled socket strip THT 1x02 2.00mm single row")
  (fp_text reference REF** (at -3.31 -2.5) (layer F.SilkS)
    (effects (font (size 1 1) (thickness 0.15)))
  )
  (fp_text value PinSocket_1x02_P2.00mm_Horizontal (at -3.31 4.5) (layer F.Fab)
    (effects (font (size 1 1) (thickness 0.15)))
  )
  (fp_line (start -7.62 -1) (end -1.97 -1) (layer F.Fab) (width 0.1))
  (fp_line (start -1.97 -1) (end -1.27 -0.3) (layer F.Fab) (width 0.1))
  (fp_line (start -1.27 -0.3) (end -1.27 3) (layer F.Fab) (width 0.1))
  (fp_line (start -1.27 3) (end -7.62 3) (layer F.Fab) (width 0.1))
  (fp_line (start -7.62 3) (end -7.62 -1) (layer F.Fab) (width 0.1))
  (fp_line (start 0 -0.3) (end -1.27 -0.3) (layer F.Fab) (width 0.1))
  (fp_line (start -1.27 0.3) (end 0 0.3) (layer F.Fab) (width 0.1))
  (fp_line (start 0 0.3) (end 0 -0.3) (layer F.Fab) (width 0.1))
  (fp_line (start 0 1.7) (end -1.27 1.7) (layer F.Fab) (width 0.1))
  (fp_line (start -1.27 2.3) (end 0 2.3) (layer F.Fab) (width 0.1))
  (fp_line (start 0 2.3) (end 0 1.7) (layer F.Fab) (width 0.1))
  (fp_line (start -7.68 -0.94) (end -1.21 -0.94) (layer F.SilkS) (width 0.12))
  (fp_line (start -7.68 -0.825882) (end -1.21 -0.825882) (layer F.SilkS) (width 0.12))
  (fp_line (start -7.68 -0.711764) (end -1.21 -0.711764) (layer F.SilkS) (width 0.12))
  (fp_line (start -7.68 -0.597646) (end -1.21 -0.597646) (layer F.SilkS) (width 0.12))
  (fp_line (start -7.68 -0.483528) (end -1.21 -0.483528) (layer F.SilkS) (width 0.12))
  (fp_line (start -7.68 -0.36941) (end -1.21 -0.36941) (layer F.SilkS) (width 0.12))
  (fp_line (start -7.68 -0.255292) (end -1.21 -0.255292) (layer F.SilkS) (width 0.12))
  (fp_line (start -7.68 -0.141174) (end -1.21 -0.141174) (layer F.SilkS) (width 0.12))
  (fp_line (start -7.68 -0.027056) (end -1.21 -0.027056) (layer F.SilkS) (width 0.12))
  (fp_line (start -7.68 0.087062) (end -1.21 0.087062) (layer F.SilkS) (width 0.12))
  (fp_line (start -7.68 0.20118) (end -1.21 0.20118) (layer F.SilkS) (width 0.12))
  (fp_line (start -7.68 0.315298) (end -1.21 0.315298) (layer F.SilkS) (width 0.12))
  (fp_line (start -7.68 0.429416) (end -1.21 0.429416) (layer F.SilkS) (width 0.12))
  (fp_line (start -7.68 0.543534) (end -1.21 0.543534) (layer F.SilkS) (width 0.12))
  (fp_line (start -7.68 0.657652) (end -1.21 0.657652) (layer F.SilkS) (width 0.12))
  (fp_line (start -7.68 0.77177) (end -1.21 0.77177) (layer F.SilkS) (width 0.12))
  (fp_line (start -7.68 0.885888) (end -1.21 0.885888) (layer F.SilkS) (width 0.12))
  (fp_line (start -1.21 -0.36) (end -0.935 -0.36) (layer F.SilkS) (width 0.12))
  (fp_line (start -1.21 0.36) (end -0.935 0.36) (layer F.SilkS) (width 0.12))
  (fp_line (start -1.21 1.64) (end -0.862917 1.64) (layer F.SilkS) (width 0.12))
  (fp_line (start -1.21 2.36) (end -0.862917 2.36) (layer F.SilkS) (width 0.12))
  (fp_line (start -7.68 1) (end -1.21 1) (layer F.SilkS) (width 0.12))
  (fp_line (start -7.68 -1.06) (end -1.21 -1.06) (layer F.SilkS) (width 0.12))
  (fp_line (start -1.21 -1.06) (end -1.21 3.06) (layer F.SilkS) (width 0.12))
  (fp_line (start -7.68 3.06) (end -1.21 3.06) (layer F.SilkS) (width 0.12))
  (fp_line (start -7.68 -1.06) (end -7.68 3.06) (layer F.SilkS) (width 0.12))
  (fp_line (start 0.935 -1.06) (end 0.935 0) (layer F.SilkS) (width 0.12))
  (fp_line (start 0 -1.06) (end 0.935 -1.06) (layer F.SilkS) (width 0.12))
  (fp_line (start 1.5 -1.5) (end -8.15 -1.5) (layer F.CrtYd) (width 0.05))
  (fp_line (start -8.15 -1.5) (end -8.15 3.5) (layer F.CrtYd) (width 0.05))
  (fp_line (start -8.15 3.5) (end 1.5 3.5) (layer F.CrtYd) (width 0.05))
  (fp_line (start 1.5 3.5) (end 1.5 -1.5) (layer F.CrtYd) (width 0.05))
  (pad 1 thru_hole rect (at 0 0) (size 1.35 1.35) (drill 0.8) (layers *.Cu *.Mask))
  (pad 2 thru_hole oval (at 0 2) (size 1.35 1.35) (drill 0.8) (layers *.Cu *.Mask))
  (fp_text user %R (at -4.445 1) (layer F.Fab)
    (effects (font (size 1 1) (thickness 0.15)))
  )
  (model ${KIPRJMOD}/kicad_libs_k/models_k.3d/Connector_PinSocket_2.00mm_k.3dshapes/PinSocket_1x02_P2.00mm_Horizontal_k.wrl
    (at (xyz 0 0 0))
    (scale (xyz 1 1 1))
    (rotate (xyz 0 0 0))
  )
)