(module PinSocket_1x24_P2.00mm_Vertical (layer F.Cu) (tedit 5A19A41D)
  (descr "Through hole straight socket strip, 1x24, 2.00mm pitch, single row (from Kicad 4.0.7), script generated")
  (tags "Through hole socket strip THT 1x24 2.00mm single row")
  (fp_text reference REF** (at 0 -2.5) (layer F.SilkS)
    (effects (font (size 1 1) (thickness 0.15)))
  )
  (fp_text value PinSocket_1x24_P2.00mm_Vertical (at 0 48.5) (layer F.Fab)
    (effects (font (size 1 1) (thickness 0.15)))
  )
  (fp_line (start -1 -1) (end 0.5 -1) (layer F.Fab) (width 0.1))
  (fp_line (start 0.5 -1) (end 1 -0.5) (layer F.Fab) (width 0.1))
  (fp_line (start 1 -0.5) (end 1 47) (layer F.Fab) (width 0.1))
  (fp_line (start 1 47) (end -1 47) (layer F.Fab) (width 0.1))
  (fp_line (start -1 47) (end -1 -1) (layer F.Fab) (width 0.1))
  (fp_line (start -1.06 1) (end 1.06 1) (layer F.SilkS) (width 0.12))
  (fp_line (start -1.06 1) (end -1.06 47.06) (layer F.SilkS) (width 0.12))
  (fp_line (start -1.06 47.06) (end 1.06 47.06) (layer F.SilkS) (width 0.12))
  (fp_line (start 1.06 1) (end 1.06 47.06) (layer F.SilkS) (width 0.12))
  (fp_line (start 1.06 -1.06) (end 1.06 0) (layer F.SilkS) (width 0.12))
  (fp_line (start 0 -1.06) (end 1.06 -1.06) (layer F.SilkS) (width 0.12))
  (fp_line (start -1.5 -1.5) (end 1.5 -1.5) (layer F.CrtYd) (width 0.05))
  (fp_line (start 1.5 -1.5) (end 1.5 47.5) (layer F.CrtYd) (width 0.05))
  (fp_line (start 1.5 47.5) (end -1.5 47.5) (layer F.CrtYd) (width 0.05))
  (fp_line (start -1.5 47.5) (end -1.5 -1.5) (layer F.CrtYd) (width 0.05))
  (pad 1 thru_hole rect (at 0 0) (size 1.35 1.35) (drill 0.8) (layers *.Cu *.Mask))
  (pad 2 thru_hole oval (at 0 2) (size 1.35 1.35) (drill 0.8) (layers *.Cu *.Mask))
  (pad 3 thru_hole oval (at 0 4) (size 1.35 1.35) (drill 0.8) (layers *.Cu *.Mask))
  (pad 4 thru_hole oval (at 0 6) (size 1.35 1.35) (drill 0.8) (layers *.Cu *.Mask))
  (pad 5 thru_hole oval (at 0 8) (size 1.35 1.35) (drill 0.8) (layers *.Cu *.Mask))
  (pad 6 thru_hole oval (at 0 10) (size 1.35 1.35) (drill 0.8) (layers *.Cu *.Mask))
  (pad 7 thru_hole oval (at 0 12) (size 1.35 1.35) (drill 0.8) (layers *.Cu *.Mask))
  (pad 8 thru_hole oval (at 0 14) (size 1.35 1.35) (drill 0.8) (layers *.Cu *.Mask))
  (pad 9 thru_hole oval (at 0 16) (size 1.35 1.35) (drill 0.8) (layers *.Cu *.Mask))
  (pad 10 thru_hole oval (at 0 18) (size 1.35 1.35) (drill 0.8) (layers *.Cu *.Mask))
  (pad 11 thru_hole oval (at 0 20) (size 1.35 1.35) (drill 0.8) (layers *.Cu *.Mask))
  (pad 12 thru_hole oval (at 0 22) (size 1.35 1.35) (drill 0.8) (layers *.Cu *.Mask))
  (pad 13 thru_hole oval (at 0 24) (size 1.35 1.35) (drill 0.8) (layers *.Cu *.Mask))
  (pad 14 thru_hole oval (at 0 26) (size 1.35 1.35) (drill 0.8) (layers *.Cu *.Mask))
  (pad 15 thru_hole oval (at 0 28) (size 1.35 1.35) (drill 0.8) (layers *.Cu *.Mask))
  (pad 16 thru_hole oval (at 0 30) (size 1.35 1.35) (drill 0.8) (layers *.Cu *.Mask))
  (pad 17 thru_hole oval (at 0 32) (size 1.35 1.35) (drill 0.8) (layers *.Cu *.Mask))
  (pad 18 thru_hole oval (at 0 34) (size 1.35 1.35) (drill 0.8) (layers *.Cu *.Mask))
  (pad 19 thru_hole oval (at 0 36) (size 1.35 1.35) (drill 0.8) (layers *.Cu *.Mask))
  (pad 20 thru_hole oval (at 0 38) (size 1.35 1.35) (drill 0.8) (layers *.Cu *.Mask))
  (pad 21 thru_hole oval (at 0 40) (size 1.35 1.35) (drill 0.8) (layers *.Cu *.Mask))
  (pad 22 thru_hole oval (at 0 42) (size 1.35 1.35) (drill 0.8) (layers *.Cu *.Mask))
  (pad 23 thru_hole oval (at 0 44) (size 1.35 1.35) (drill 0.8) (layers *.Cu *.Mask))
  (pad 24 thru_hole oval (at 0 46) (size 1.35 1.35) (drill 0.8) (layers *.Cu *.Mask))
  (fp_text user %R (at 0 23 90) (layer F.Fab)
    (effects (font (size 1 1) (thickness 0.15)))
  )
  (model ${KIPRJMOD}/kicad_libs_k/models_k.3d/Connector_PinSocket_2.00mm_k.3dshapes/PinSocket_1x24_P2.00mm_Vertical_k.wrl
    (at (xyz 0 0 0))
    (scale (xyz 1 1 1))
    (rotate (xyz 0 0 0))
  )
)