(module DirectFET_MN (layer F.Cu) (tedit 5A0AAFC5)
  (descr "DirectFET MN https://www.infineon.com/dgdl/irf6646pbf.pdf?fileId=5546d462533600a4015355ec5f071a55")
  (tags "DirectFET MN Mosfet Infenion")
  (attr smd)
  (fp_text reference REF** (at 0 -3.5) (layer F.SilkS)
    (effects (font (size 1 1) (thickness 0.15)))
  )
  (fp_text value DirectFET_MN (at 0 3.5) (layer F.Fab)
    (effects (font (size 1 1) (thickness 0.15)))
  )
  (fp_text user %R (at 0 0) (layer F.Fab)
    (effects (font (size 1 1) (thickness 0.15)))
  )
  (fp_line (start -2.65 -2.35) (end -2.55 -2.45) (layer F.Fab) (width 0.1))
  (fp_line (start 2.55 -2.45) (end 2.65 -2.35) (layer F.Fab) (width 0.1))
  (fp_line (start -2.65 2.35) (end -2.55 2.45) (layer F.Fab) (width 0.1))
  (fp_line (start 2.65 2.35) (end 2.55 2.45) (layer F.Fab) (width 0.1))
  (fp_line (start 3.9 2.7) (end 3.9 -2.7) (layer F.CrtYd) (width 0.05))
  (fp_line (start -3.9 2.7) (end 3.9 2.7) (layer F.CrtYd) (width 0.05))
  (fp_line (start -3.9 -2.7) (end -3.9 2.7) (layer F.CrtYd) (width 0.05))
  (fp_line (start 3.9 -2.7) (end -3.9 -2.7) (layer F.CrtYd) (width 0.05))
  (fp_line (start -2.7 2.5) (end -2.8 2.4) (layer F.SilkS) (width 0.12))
  (fp_line (start 2.7 2.5) (end -2.7 2.5) (layer F.SilkS) (width 0.12))
  (fp_line (start 2.8 2.4) (end 2.7 2.5) (layer F.SilkS) (width 0.12))
  (fp_line (start 2.7 -2.5) (end 2.8 -2.4) (layer F.SilkS) (width 0.12))
  (fp_line (start -2.7 -2.5) (end 2.7 -2.5) (layer F.SilkS) (width 0.12))
  (fp_line (start -2.8 -2.4) (end -2.7 -2.5) (layer F.SilkS) (width 0.12))
  (fp_line (start -3.5 -2.4) (end -2.8 -2.4) (layer F.SilkS) (width 0.12))
  (fp_line (start -2.65 1.95) (end -2.65 2.35) (layer F.Fab) (width 0.1))
  (fp_line (start -3.15 1.95) (end -2.65 1.95) (layer F.Fab) (width 0.1))
  (fp_line (start 2.65 1.95) (end 2.65 2.35) (layer F.Fab) (width 0.1))
  (fp_line (start 3.15 1.95) (end 2.65 1.95) (layer F.Fab) (width 0.1))
  (fp_line (start 2.65 -1.95) (end 3.15 -1.95) (layer F.Fab) (width 0.1))
  (fp_line (start 2.65 -2.35) (end 2.65 -1.95) (layer F.Fab) (width 0.1))
  (fp_line (start -2.65 -1.95) (end -2.65 -2.35) (layer F.Fab) (width 0.1))
  (fp_line (start -3.15 -1.95) (end -2.65 -1.95) (layer F.Fab) (width 0.1))
  (fp_line (start -3.15 1.95) (end -3.15 -1.95) (layer F.Fab) (width 0.1))
  (fp_line (start 3.15 -1.95) (end 3.15 1.95) (layer F.Fab) (width 0.1))
  (fp_line (start -2.55 2.45) (end 2.55 2.45) (layer F.Fab) (width 0.1))
  (fp_line (start 2.55 -2.45) (end -2.55 -2.45) (layer F.Fab) (width 0.1))
  (pad 2 smd rect (at -1.125 0) (size 0.85 0.95) (layers F.Cu F.Paste F.Mask))
  (pad 1 smd rect (at -3.2 -1.175) (size 0.9 1.85) (layers F.Cu F.Paste F.Mask))
  (pad 1 smd rect (at -3.2 1.175) (size 0.9 1.85) (layers F.Cu F.Paste F.Mask))
  (pad 1 smd rect (at 3.2 -1.175) (size 0.9 1.85) (layers F.Cu F.Paste F.Mask))
  (pad 1 smd rect (at 3.2 1.175) (size 0.9 1.85) (layers F.Cu F.Paste F.Mask))
  (pad 3 smd rect (at 0.695 -0.7) (size 1.45 0.95) (layers F.Cu F.Paste F.Mask))
  (pad 3 smd rect (at 0.695 0.7) (size 1.45 0.95) (layers F.Cu F.Paste F.Mask))
  (model ${KIPRJMOD}/kicad_libs_k/models_k.3d/Package_DirectFET_k.3dshapes/DirectFET_MN_k.wrl
    (at (xyz 0 0 0))
    (scale (xyz 1 1 1))
    (rotate (xyz 0 0 0))
  )
)
