(module DirectFET_SQ (layer F.Cu) (tedit 5A0AAFC5)
  (descr "DirectFET SQ https://www.infineon.com/dgdl/irf8327spbf.pdf?fileId=5546d462533600a40153560d40c41d65")
  (tags "DirectFET SQ Infenion Mosfet")
  (attr smd)
  (fp_text reference REF** (at 0 -3) (layer F.SilkS)
    (effects (font (size 1 1) (thickness 0.15)))
  )
  (fp_text value DirectFET_SQ (at 0 3) (layer F.Fab)
    (effects (font (size 1 1) (thickness 0.15)))
  )
  (fp_text user %R (at 0 0) (layer F.Fab)
    (effects (font (size 1 1) (thickness 0.15)))
  )
  (fp_line (start -3.15 2.175) (end 3.15 2.18) (layer F.CrtYd) (width 0.05))
  (fp_line (start 3.15 -2.175) (end 3.15 2.18) (layer F.CrtYd) (width 0.05))
  (fp_line (start -2.06 -1.71) (end -2.06 -1.8) (layer F.SilkS) (width 0.12))
  (fp_line (start -2.84 -1.71) (end -2.06 -1.71) (layer F.SilkS) (width 0.12))
  (fp_line (start -2 1.75) (end -1.825 1.925) (layer F.Fab) (width 0.1))
  (fp_line (start 1.825 1.925) (end 2 1.75) (layer F.Fab) (width 0.1))
  (fp_line (start 1.825 -1.925) (end 2 -1.75) (layer F.Fab) (width 0.1))
  (fp_line (start -2.06 -1.8) (end -1.88 -1.98) (layer F.SilkS) (width 0.12))
  (fp_line (start -1.825 -1.925) (end 1.825 -1.925) (layer F.Fab) (width 0.1))
  (fp_line (start -2 -1.4) (end -2 -1.75) (layer F.Fab) (width 0.1))
  (fp_line (start -2.4 1.4) (end -2 1.4) (layer F.Fab) (width 0.1))
  (fp_line (start 2.4 1.4) (end 2.4 -1.4) (layer F.Fab) (width 0.1))
  (fp_line (start -2.4 1.4) (end -2.4 -1.4) (layer F.Fab) (width 0.1))
  (fp_line (start -2.4 -1.4) (end -2 -1.4) (layer F.Fab) (width 0.1))
  (fp_line (start 2.4 -1.4) (end 2 -1.4) (layer F.Fab) (width 0.1))
  (fp_line (start 2.4 1.4) (end 2 1.4) (layer F.Fab) (width 0.1))
  (fp_line (start -2 1.4) (end -2 1.75) (layer F.Fab) (width 0.1))
  (fp_line (start 2 -1.4) (end 2 -1.75) (layer F.Fab) (width 0.1))
  (fp_line (start 2 1.4) (end 2 1.75) (layer F.Fab) (width 0.1))
  (fp_line (start -1.825 1.925) (end 1.825 1.925) (layer F.Fab) (width 0.1))
  (fp_line (start -2 -1.75) (end -1.825 -1.925) (layer F.Fab) (width 0.1))
  (fp_line (start -1.88 -1.98) (end 1.88 -1.98) (layer F.SilkS) (width 0.12))
  (fp_line (start 2.06 -1.8) (end 1.88 -1.98) (layer F.SilkS) (width 0.12))
  (fp_line (start 2.06 -1.71) (end 2.06 -1.8) (layer F.SilkS) (width 0.12))
  (fp_line (start -2.06 1.71) (end -2.06 1.8) (layer F.SilkS) (width 0.12))
  (fp_line (start -2.06 1.8) (end -1.88 1.98) (layer F.SilkS) (width 0.12))
  (fp_line (start -1.88 1.98) (end 1.88 1.98) (layer F.SilkS) (width 0.12))
  (fp_line (start 2.06 1.8) (end 1.88 1.98) (layer F.SilkS) (width 0.12))
  (fp_line (start 2.06 1.71) (end 2.06 1.8) (layer F.SilkS) (width 0.12))
  (fp_line (start -3.15 -2.175) (end 3.15 -2.18) (layer F.CrtYd) (width 0.05))
  (fp_line (start -3.15 -2.175) (end -3.15 2.18) (layer F.CrtYd) (width 0.05))
  (pad 2 smd rect (at -0.8 0) (size 0.55 0.85) (layers F.Cu F.Paste F.Mask))
  (pad 3 smd rect (at 0.5 0) (size 0.95 0.85) (layers F.Cu F.Paste F.Mask))
  (pad 1 smd rect (at -2.45 -0.825) (size 0.90 1.24) (layers F.Cu F.Paste F.Mask))
  (pad 1 smd rect (at -2.45 0.825) (size 0.90 1.24) (layers F.Cu F.Paste F.Mask))
  (pad 1 smd rect (at 2.45 -0.825) (size 0.90 1.24) (layers F.Cu F.Paste F.Mask))
  (pad 1 smd rect (at 2.45 0.825) (size 0.90 1.24) (layers F.Cu F.Paste F.Mask))
  (model ${KIPRJMOD}/kicad_libs_k/models_k.3d/Package_DirectFET_k.3dshapes/DirectFET_SQ_k.wrl
    (at (xyz 0 0 0))
    (scale (xyz 1 1 1))
    (rotate (xyz 0 0 0))
  )
)
