(module BGA-324_15.0x15.0mm_Layout18x18_P0.8mm_Ball0.5mm_Pad0.4mm_NSMD (layer F.Cu) (tedit 5A2E6F3E)
  (descr "Altera U324, https://www.altera.com/content/dam/altera-www/global/en_US/pdfs/literature/packaging/04r00474-02.pdf")
  (tags "Altera UBGA U324 BGA-324")
  (attr smd)
  (fp_text reference REF** (at 0 -8.5) (layer F.SilkS)
    (effects (font (size 1 1) (thickness 0.15)))
  )
  (fp_text value BGA-324_15.0x15.0mm_Layout18x18_P0.8mm_Ball0.5mm_Pad0.4mm_NSMD (at 0 8.5) (layer F.Fab)
    (effects (font (size 1 1) (thickness 0.15)))
  )
  (fp_text user %R (at 0 0) (layer F.Fab)
    (effects (font (size 1 1) (thickness 0.15)))
  )
  (fp_line (start -6.7 -7.5) (end -7.5 -6.7) (layer F.Fab) (width 0.15))
  (fp_line (start -7.5 -6.7) (end -7.5 7.5) (layer F.Fab) (width 0.15))
  (fp_line (start -7.5 7.5) (end 7.5 7.5) (layer F.Fab) (width 0.15))
  (fp_line (start 7.5 7.5) (end 7.5 -7.5) (layer F.Fab) (width 0.15))
  (fp_line (start 7.5 -7.5) (end -6.7 -7.5) (layer F.Fab) (width 0.15))
  (fp_line (start 3.9 -7.65) (end 7.65 -7.65) (layer F.SilkS) (width 0.15))
  (fp_line (start 7.65 -7.65) (end 7.65 -3.9) (layer F.SilkS) (width 0.15))
  (fp_line (start 3.9 -7.65) (end 7.65 -7.65) (layer F.SilkS) (width 0.15))
  (fp_line (start 7.65 -7.65) (end 7.65 -3.9) (layer F.SilkS) (width 0.15))
  (fp_line (start 3.9 7.65) (end 7.65 7.65) (layer F.SilkS) (width 0.15))
  (fp_line (start 7.65 7.65) (end 7.65 3.9) (layer F.SilkS) (width 0.15))
  (fp_line (start 3.9 -7.65) (end 7.65 -7.65) (layer F.SilkS) (width 0.15))
  (fp_line (start 7.65 -7.65) (end 7.65 -3.9) (layer F.SilkS) (width 0.15))
  (fp_line (start -3.9 7.65) (end -7.65 7.65) (layer F.SilkS) (width 0.15))
  (fp_line (start -7.65 7.65) (end -7.65 3.9) (layer F.SilkS) (width 0.15))
  (fp_line (start -3.9 -7.65) (end -6.7 -7.65) (layer F.SilkS) (width 0.15))
  (fp_line (start -6.7 -7.65) (end -7.65 -6.7) (layer F.SilkS) (width 0.15))
  (fp_line (start -7.65 -6.7) (end -7.65 -3.9) (layer F.SilkS) (width 0.15))
  (fp_line (start -7.75 -7.75) (end 7.75 -7.75) (layer F.CrtYd) (width 0.05))
  (fp_line (start 7.75 -7.75) (end 7.75 7.75) (layer F.CrtYd) (width 0.05))
  (fp_line (start 7.75 7.75) (end -7.75 7.75) (layer F.CrtYd) (width 0.05))
  (fp_line (start -7.75 7.75) (end -7.75 -7.75) (layer F.CrtYd) (width 0.05))
  (pad A1 smd circle (at -6.8 -6.8) (size 0.4 0.4) (layers F.Cu F.Paste F.Mask))
  (pad B1 smd circle (at -6.8 -6) (size 0.4 0.4) (layers F.Cu F.Paste F.Mask))
  (pad C1 smd circle (at -6.8 -5.2) (size 0.4 0.4) (layers F.Cu F.Paste F.Mask))
  (pad D1 smd circle (at -6.8 -4.4) (size 0.4 0.4) (layers F.Cu F.Paste F.Mask))
  (pad E1 smd circle (at -6.8 -3.6) (size 0.4 0.4) (layers F.Cu F.Paste F.Mask))
  (pad F1 smd circle (at -6.8 -2.8) (size 0.4 0.4) (layers F.Cu F.Paste F.Mask))
  (pad G1 smd circle (at -6.8 -2) (size 0.4 0.4) (layers F.Cu F.Paste F.Mask))
  (pad H1 smd circle (at -6.8 -1.2) (size 0.4 0.4) (layers F.Cu F.Paste F.Mask))
  (pad J1 smd circle (at -6.8 -0.4) (size 0.4 0.4) (layers F.Cu F.Paste F.Mask))
  (pad K1 smd circle (at -6.8 0.4) (size 0.4 0.4) (layers F.Cu F.Paste F.Mask))
  (pad L1 smd circle (at -6.8 1.2) (size 0.4 0.4) (layers F.Cu F.Paste F.Mask))
  (pad M1 smd circle (at -6.8 2) (size 0.4 0.4) (layers F.Cu F.Paste F.Mask))
  (pad N1 smd circle (at -6.8 2.8) (size 0.4 0.4) (layers F.Cu F.Paste F.Mask))
  (pad P1 smd circle (at -6.8 3.6) (size 0.4 0.4) (layers F.Cu F.Paste F.Mask))
  (pad R1 smd circle (at -6.8 4.4) (size 0.4 0.4) (layers F.Cu F.Paste F.Mask))
  (pad T1 smd circle (at -6.8 5.2) (size 0.4 0.4) (layers F.Cu F.Paste F.Mask))
  (pad U1 smd circle (at -6.8 6) (size 0.4 0.4) (layers F.Cu F.Paste F.Mask))
  (pad V1 smd circle (at -6.8 6.8) (size 0.4 0.4) (layers F.Cu F.Paste F.Mask))
  (pad A2 smd circle (at -6 -6.8) (size 0.4 0.4) (layers F.Cu F.Paste F.Mask))
  (pad B2 smd circle (at -6 -6) (size 0.4 0.4) (layers F.Cu F.Paste F.Mask))
  (pad C2 smd circle (at -6 -5.2) (size 0.4 0.4) (layers F.Cu F.Paste F.Mask))
  (pad D2 smd circle (at -6 -4.4) (size 0.4 0.4) (layers F.Cu F.Paste F.Mask))
  (pad E2 smd circle (at -6 -3.6) (size 0.4 0.4) (layers F.Cu F.Paste F.Mask))
  (pad F2 smd circle (at -6 -2.8) (size 0.4 0.4) (layers F.Cu F.Paste F.Mask))
  (pad G2 smd circle (at -6 -2) (size 0.4 0.4) (layers F.Cu F.Paste F.Mask))
  (pad H2 smd circle (at -6 -1.2) (size 0.4 0.4) (layers F.Cu F.Paste F.Mask))
  (pad J2 smd circle (at -6 -0.4) (size 0.4 0.4) (layers F.Cu F.Paste F.Mask))
  (pad K2 smd circle (at -6 0.4) (size 0.4 0.4) (layers F.Cu F.Paste F.Mask))
  (pad L2 smd circle (at -6 1.2) (size 0.4 0.4) (layers F.Cu F.Paste F.Mask))
  (pad M2 smd circle (at -6 2) (size 0.4 0.4) (layers F.Cu F.Paste F.Mask))
  (pad N2 smd circle (at -6 2.8) (size 0.4 0.4) (layers F.Cu F.Paste F.Mask))
  (pad P2 smd circle (at -6 3.6) (size 0.4 0.4) (layers F.Cu F.Paste F.Mask))
  (pad R2 smd circle (at -6 4.4) (size 0.4 0.4) (layers F.Cu F.Paste F.Mask))
  (pad T2 smd circle (at -6 5.2) (size 0.4 0.4) (layers F.Cu F.Paste F.Mask))
  (pad U2 smd circle (at -6 6) (size 0.4 0.4) (layers F.Cu F.Paste F.Mask))
  (pad V2 smd circle (at -6 6.8) (size 0.4 0.4) (layers F.Cu F.Paste F.Mask))
  (pad A3 smd circle (at -5.2 -6.8) (size 0.4 0.4) (layers F.Cu F.Paste F.Mask))
  (pad B3 smd circle (at -5.2 -6) (size 0.4 0.4) (layers F.Cu F.Paste F.Mask))
  (pad C3 smd circle (at -5.2 -5.2) (size 0.4 0.4) (layers F.Cu F.Paste F.Mask))
  (pad D3 smd circle (at -5.2 -4.4) (size 0.4 0.4) (layers F.Cu F.Paste F.Mask))
  (pad E3 smd circle (at -5.2 -3.6) (size 0.4 0.4) (layers F.Cu F.Paste F.Mask))
  (pad F3 smd circle (at -5.2 -2.8) (size 0.4 0.4) (layers F.Cu F.Paste F.Mask))
  (pad G3 smd circle (at -5.2 -2) (size 0.4 0.4) (layers F.Cu F.Paste F.Mask))
  (pad H3 smd circle (at -5.2 -1.2) (size 0.4 0.4) (layers F.Cu F.Paste F.Mask))
  (pad J3 smd circle (at -5.2 -0.4) (size 0.4 0.4) (layers F.Cu F.Paste F.Mask))
  (pad K3 smd circle (at -5.2 0.4) (size 0.4 0.4) (layers F.Cu F.Paste F.Mask))
  (pad L3 smd circle (at -5.2 1.2) (size 0.4 0.4) (layers F.Cu F.Paste F.Mask))
  (pad M3 smd circle (at -5.2 2) (size 0.4 0.4) (layers F.Cu F.Paste F.Mask))
  (pad N3 smd circle (at -5.2 2.8) (size 0.4 0.4) (layers F.Cu F.Paste F.Mask))
  (pad P3 smd circle (at -5.2 3.6) (size 0.4 0.4) (layers F.Cu F.Paste F.Mask))
  (pad R3 smd circle (at -5.2 4.4) (size 0.4 0.4) (layers F.Cu F.Paste F.Mask))
  (pad T3 smd circle (at -5.2 5.2) (size 0.4 0.4) (layers F.Cu F.Paste F.Mask))
  (pad U3 smd circle (at -5.2 6) (size 0.4 0.4) (layers F.Cu F.Paste F.Mask))
  (pad V3 smd circle (at -5.2 6.8) (size 0.4 0.4) (layers F.Cu F.Paste F.Mask))
  (pad A4 smd circle (at -4.4 -6.8) (size 0.4 0.4) (layers F.Cu F.Paste F.Mask))
  (pad B4 smd circle (at -4.4 -6) (size 0.4 0.4) (layers F.Cu F.Paste F.Mask))
  (pad C4 smd circle (at -4.4 -5.2) (size 0.4 0.4) (layers F.Cu F.Paste F.Mask))
  (pad D4 smd circle (at -4.4 -4.4) (size 0.4 0.4) (layers F.Cu F.Paste F.Mask))
  (pad E4 smd circle (at -4.4 -3.6) (size 0.4 0.4) (layers F.Cu F.Paste F.Mask))
  (pad F4 smd circle (at -4.4 -2.8) (size 0.4 0.4) (layers F.Cu F.Paste F.Mask))
  (pad G4 smd circle (at -4.4 -2) (size 0.4 0.4) (layers F.Cu F.Paste F.Mask))
  (pad H4 smd circle (at -4.4 -1.2) (size 0.4 0.4) (layers F.Cu F.Paste F.Mask))
  (pad J4 smd circle (at -4.4 -0.4) (size 0.4 0.4) (layers F.Cu F.Paste F.Mask))
  (pad K4 smd circle (at -4.4 0.4) (size 0.4 0.4) (layers F.Cu F.Paste F.Mask))
  (pad L4 smd circle (at -4.4 1.2) (size 0.4 0.4) (layers F.Cu F.Paste F.Mask))
  (pad M4 smd circle (at -4.4 2) (size 0.4 0.4) (layers F.Cu F.Paste F.Mask))
  (pad N4 smd circle (at -4.4 2.8) (size 0.4 0.4) (layers F.Cu F.Paste F.Mask))
  (pad P4 smd circle (at -4.4 3.6) (size 0.4 0.4) (layers F.Cu F.Paste F.Mask))
  (pad R4 smd circle (at -4.4 4.4) (size 0.4 0.4) (layers F.Cu F.Paste F.Mask))
  (pad T4 smd circle (at -4.4 5.2) (size 0.4 0.4) (layers F.Cu F.Paste F.Mask))
  (pad U4 smd circle (at -4.4 6) (size 0.4 0.4) (layers F.Cu F.Paste F.Mask))
  (pad V4 smd circle (at -4.4 6.8) (size 0.4 0.4) (layers F.Cu F.Paste F.Mask))
  (pad A5 smd circle (at -3.6 -6.8) (size 0.4 0.4) (layers F.Cu F.Paste F.Mask))
  (pad B5 smd circle (at -3.6 -6) (size 0.4 0.4) (layers F.Cu F.Paste F.Mask))
  (pad C5 smd circle (at -3.6 -5.2) (size 0.4 0.4) (layers F.Cu F.Paste F.Mask))
  (pad D5 smd circle (at -3.6 -4.4) (size 0.4 0.4) (layers F.Cu F.Paste F.Mask))
  (pad E5 smd circle (at -3.6 -3.6) (size 0.4 0.4) (layers F.Cu F.Paste F.Mask))
  (pad F5 smd circle (at -3.6 -2.8) (size 0.4 0.4) (layers F.Cu F.Paste F.Mask))
  (pad G5 smd circle (at -3.6 -2) (size 0.4 0.4) (layers F.Cu F.Paste F.Mask))
  (pad H5 smd circle (at -3.6 -1.2) (size 0.4 0.4) (layers F.Cu F.Paste F.Mask))
  (pad J5 smd circle (at -3.6 -0.4) (size 0.4 0.4) (layers F.Cu F.Paste F.Mask))
  (pad K5 smd circle (at -3.6 0.4) (size 0.4 0.4) (layers F.Cu F.Paste F.Mask))
  (pad L5 smd circle (at -3.6 1.2) (size 0.4 0.4) (layers F.Cu F.Paste F.Mask))
  (pad M5 smd circle (at -3.6 2) (size 0.4 0.4) (layers F.Cu F.Paste F.Mask))
  (pad N5 smd circle (at -3.6 2.8) (size 0.4 0.4) (layers F.Cu F.Paste F.Mask))
  (pad P5 smd circle (at -3.6 3.6) (size 0.4 0.4) (layers F.Cu F.Paste F.Mask))
  (pad R5 smd circle (at -3.6 4.4) (size 0.4 0.4) (layers F.Cu F.Paste F.Mask))
  (pad T5 smd circle (at -3.6 5.2) (size 0.4 0.4) (layers F.Cu F.Paste F.Mask))
  (pad U5 smd circle (at -3.6 6) (size 0.4 0.4) (layers F.Cu F.Paste F.Mask))
  (pad V5 smd circle (at -3.6 6.8) (size 0.4 0.4) (layers F.Cu F.Paste F.Mask))
  (pad A6 smd circle (at -2.8 -6.8) (size 0.4 0.4) (layers F.Cu F.Paste F.Mask))
  (pad B6 smd circle (at -2.8 -6) (size 0.4 0.4) (layers F.Cu F.Paste F.Mask))
  (pad C6 smd circle (at -2.8 -5.2) (size 0.4 0.4) (layers F.Cu F.Paste F.Mask))
  (pad D6 smd circle (at -2.8 -4.4) (size 0.4 0.4) (layers F.Cu F.Paste F.Mask))
  (pad E6 smd circle (at -2.8 -3.6) (size 0.4 0.4) (layers F.Cu F.Paste F.Mask))
  (pad F6 smd circle (at -2.8 -2.8) (size 0.4 0.4) (layers F.Cu F.Paste F.Mask))
  (pad G6 smd circle (at -2.8 -2) (size 0.4 0.4) (layers F.Cu F.Paste F.Mask))
  (pad H6 smd circle (at -2.8 -1.2) (size 0.4 0.4) (layers F.Cu F.Paste F.Mask))
  (pad J6 smd circle (at -2.8 -0.4) (size 0.4 0.4) (layers F.Cu F.Paste F.Mask))
  (pad K6 smd circle (at -2.8 0.4) (size 0.4 0.4) (layers F.Cu F.Paste F.Mask))
  (pad L6 smd circle (at -2.8 1.2) (size 0.4 0.4) (layers F.Cu F.Paste F.Mask))
  (pad M6 smd circle (at -2.8 2) (size 0.4 0.4) (layers F.Cu F.Paste F.Mask))
  (pad N6 smd circle (at -2.8 2.8) (size 0.4 0.4) (layers F.Cu F.Paste F.Mask))
  (pad P6 smd circle (at -2.8 3.6) (size 0.4 0.4) (layers F.Cu F.Paste F.Mask))
  (pad R6 smd circle (at -2.8 4.4) (size 0.4 0.4) (layers F.Cu F.Paste F.Mask))
  (pad T6 smd circle (at -2.8 5.2) (size 0.4 0.4) (layers F.Cu F.Paste F.Mask))
  (pad U6 smd circle (at -2.8 6) (size 0.4 0.4) (layers F.Cu F.Paste F.Mask))
  (pad V6 smd circle (at -2.8 6.8) (size 0.4 0.4) (layers F.Cu F.Paste F.Mask))
  (pad A7 smd circle (at -2 -6.8) (size 0.4 0.4) (layers F.Cu F.Paste F.Mask))
  (pad B7 smd circle (at -2 -6) (size 0.4 0.4) (layers F.Cu F.Paste F.Mask))
  (pad C7 smd circle (at -2 -5.2) (size 0.4 0.4) (layers F.Cu F.Paste F.Mask))
  (pad D7 smd circle (at -2 -4.4) (size 0.4 0.4) (layers F.Cu F.Paste F.Mask))
  (pad E7 smd circle (at -2 -3.6) (size 0.4 0.4) (layers F.Cu F.Paste F.Mask))
  (pad F7 smd circle (at -2 -2.8) (size 0.4 0.4) (layers F.Cu F.Paste F.Mask))
  (pad G7 smd circle (at -2 -2) (size 0.4 0.4) (layers F.Cu F.Paste F.Mask))
  (pad H7 smd circle (at -2 -1.2) (size 0.4 0.4) (layers F.Cu F.Paste F.Mask))
  (pad J7 smd circle (at -2 -0.4) (size 0.4 0.4) (layers F.Cu F.Paste F.Mask))
  (pad K7 smd circle (at -2 0.4) (size 0.4 0.4) (layers F.Cu F.Paste F.Mask))
  (pad L7 smd circle (at -2 1.2) (size 0.4 0.4) (layers F.Cu F.Paste F.Mask))
  (pad M7 smd circle (at -2 2) (size 0.4 0.4) (layers F.Cu F.Paste F.Mask))
  (pad N7 smd circle (at -2 2.8) (size 0.4 0.4) (layers F.Cu F.Paste F.Mask))
  (pad P7 smd circle (at -2 3.6) (size 0.4 0.4) (layers F.Cu F.Paste F.Mask))
  (pad R7 smd circle (at -2 4.4) (size 0.4 0.4) (layers F.Cu F.Paste F.Mask))
  (pad T7 smd circle (at -2 5.2) (size 0.4 0.4) (layers F.Cu F.Paste F.Mask))
  (pad U7 smd circle (at -2 6) (size 0.4 0.4) (layers F.Cu F.Paste F.Mask))
  (pad V7 smd circle (at -2 6.8) (size 0.4 0.4) (layers F.Cu F.Paste F.Mask))
  (pad A8 smd circle (at -1.2 -6.8) (size 0.4 0.4) (layers F.Cu F.Paste F.Mask))
  (pad B8 smd circle (at -1.2 -6) (size 0.4 0.4) (layers F.Cu F.Paste F.Mask))
  (pad C8 smd circle (at -1.2 -5.2) (size 0.4 0.4) (layers F.Cu F.Paste F.Mask))
  (pad D8 smd circle (at -1.2 -4.4) (size 0.4 0.4) (layers F.Cu F.Paste F.Mask))
  (pad E8 smd circle (at -1.2 -3.6) (size 0.4 0.4) (layers F.Cu F.Paste F.Mask))
  (pad F8 smd circle (at -1.2 -2.8) (size 0.4 0.4) (layers F.Cu F.Paste F.Mask))
  (pad G8 smd circle (at -1.2 -2) (size 0.4 0.4) (layers F.Cu F.Paste F.Mask))
  (pad H8 smd circle (at -1.2 -1.2) (size 0.4 0.4) (layers F.Cu F.Paste F.Mask))
  (pad J8 smd circle (at -1.2 -0.4) (size 0.4 0.4) (layers F.Cu F.Paste F.Mask))
  (pad K8 smd circle (at -1.2 0.4) (size 0.4 0.4) (layers F.Cu F.Paste F.Mask))
  (pad L8 smd circle (at -1.2 1.2) (size 0.4 0.4) (layers F.Cu F.Paste F.Mask))
  (pad M8 smd circle (at -1.2 2) (size 0.4 0.4) (layers F.Cu F.Paste F.Mask))
  (pad N8 smd circle (at -1.2 2.8) (size 0.4 0.4) (layers F.Cu F.Paste F.Mask))
  (pad P8 smd circle (at -1.2 3.6) (size 0.4 0.4) (layers F.Cu F.Paste F.Mask))
  (pad R8 smd circle (at -1.2 4.4) (size 0.4 0.4) (layers F.Cu F.Paste F.Mask))
  (pad T8 smd circle (at -1.2 5.2) (size 0.4 0.4) (layers F.Cu F.Paste F.Mask))
  (pad U8 smd circle (at -1.2 6) (size 0.4 0.4) (layers F.Cu F.Paste F.Mask))
  (pad V8 smd circle (at -1.2 6.8) (size 0.4 0.4) (layers F.Cu F.Paste F.Mask))
  (pad A9 smd circle (at -0.4 -6.8) (size 0.4 0.4) (layers F.Cu F.Paste F.Mask))
  (pad B9 smd circle (at -0.4 -6) (size 0.4 0.4) (layers F.Cu F.Paste F.Mask))
  (pad C9 smd circle (at -0.4 -5.2) (size 0.4 0.4) (layers F.Cu F.Paste F.Mask))
  (pad D9 smd circle (at -0.4 -4.4) (size 0.4 0.4) (layers F.Cu F.Paste F.Mask))
  (pad E9 smd circle (at -0.4 -3.6) (size 0.4 0.4) (layers F.Cu F.Paste F.Mask))
  (pad F9 smd circle (at -0.4 -2.8) (size 0.4 0.4) (layers F.Cu F.Paste F.Mask))
  (pad G9 smd circle (at -0.4 -2) (size 0.4 0.4) (layers F.Cu F.Paste F.Mask))
  (pad H9 smd circle (at -0.4 -1.2) (size 0.4 0.4) (layers F.Cu F.Paste F.Mask))
  (pad J9 smd circle (at -0.4 -0.4) (size 0.4 0.4) (layers F.Cu F.Paste F.Mask))
  (pad K9 smd circle (at -0.4 0.4) (size 0.4 0.4) (layers F.Cu F.Paste F.Mask))
  (pad L9 smd circle (at -0.4 1.2) (size 0.4 0.4) (layers F.Cu F.Paste F.Mask))
  (pad M9 smd circle (at -0.4 2) (size 0.4 0.4) (layers F.Cu F.Paste F.Mask))
  (pad N9 smd circle (at -0.4 2.8) (size 0.4 0.4) (layers F.Cu F.Paste F.Mask))
  (pad P9 smd circle (at -0.4 3.6) (size 0.4 0.4) (layers F.Cu F.Paste F.Mask))
  (pad R9 smd circle (at -0.4 4.4) (size 0.4 0.4) (layers F.Cu F.Paste F.Mask))
  (pad T9 smd circle (at -0.4 5.2) (size 0.4 0.4) (layers F.Cu F.Paste F.Mask))
  (pad U9 smd circle (at -0.4 6) (size 0.4 0.4) (layers F.Cu F.Paste F.Mask))
  (pad V9 smd circle (at -0.4 6.8) (size 0.4 0.4) (layers F.Cu F.Paste F.Mask))
  (pad A10 smd circle (at 0.4 -6.8) (size 0.4 0.4) (layers F.Cu F.Paste F.Mask))
  (pad B10 smd circle (at 0.4 -6) (size 0.4 0.4) (layers F.Cu F.Paste F.Mask))
  (pad C10 smd circle (at 0.4 -5.2) (size 0.4 0.4) (layers F.Cu F.Paste F.Mask))
  (pad D10 smd circle (at 0.4 -4.4) (size 0.4 0.4) (layers F.Cu F.Paste F.Mask))
  (pad E10 smd circle (at 0.4 -3.6) (size 0.4 0.4) (layers F.Cu F.Paste F.Mask))
  (pad F10 smd circle (at 0.4 -2.8) (size 0.4 0.4) (layers F.Cu F.Paste F.Mask))
  (pad G10 smd circle (at 0.4 -2) (size 0.4 0.4) (layers F.Cu F.Paste F.Mask))
  (pad H10 smd circle (at 0.4 -1.2) (size 0.4 0.4) (layers F.Cu F.Paste F.Mask))
  (pad J10 smd circle (at 0.4 -0.4) (size 0.4 0.4) (layers F.Cu F.Paste F.Mask))
  (pad K10 smd circle (at 0.4 0.4) (size 0.4 0.4) (layers F.Cu F.Paste F.Mask))
  (pad L10 smd circle (at 0.4 1.2) (size 0.4 0.4) (layers F.Cu F.Paste F.Mask))
  (pad M10 smd circle (at 0.4 2) (size 0.4 0.4) (layers F.Cu F.Paste F.Mask))
  (pad N10 smd circle (at 0.4 2.8) (size 0.4 0.4) (layers F.Cu F.Paste F.Mask))
  (pad P10 smd circle (at 0.4 3.6) (size 0.4 0.4) (layers F.Cu F.Paste F.Mask))
  (pad R10 smd circle (at 0.4 4.4) (size 0.4 0.4) (layers F.Cu F.Paste F.Mask))
  (pad T10 smd circle (at 0.4 5.2) (size 0.4 0.4) (layers F.Cu F.Paste F.Mask))
  (pad U10 smd circle (at 0.4 6) (size 0.4 0.4) (layers F.Cu F.Paste F.Mask))
  (pad V10 smd circle (at 0.4 6.8) (size 0.4 0.4) (layers F.Cu F.Paste F.Mask))
  (pad A11 smd circle (at 1.2 -6.8) (size 0.4 0.4) (layers F.Cu F.Paste F.Mask))
  (pad B11 smd circle (at 1.2 -6) (size 0.4 0.4) (layers F.Cu F.Paste F.Mask))
  (pad C11 smd circle (at 1.2 -5.2) (size 0.4 0.4) (layers F.Cu F.Paste F.Mask))
  (pad D11 smd circle (at 1.2 -4.4) (size 0.4 0.4) (layers F.Cu F.Paste F.Mask))
  (pad E11 smd circle (at 1.2 -3.6) (size 0.4 0.4) (layers F.Cu F.Paste F.Mask))
  (pad F11 smd circle (at 1.2 -2.8) (size 0.4 0.4) (layers F.Cu F.Paste F.Mask))
  (pad G11 smd circle (at 1.2 -2) (size 0.4 0.4) (layers F.Cu F.Paste F.Mask))
  (pad H11 smd circle (at 1.2 -1.2) (size 0.4 0.4) (layers F.Cu F.Paste F.Mask))
  (pad J11 smd circle (at 1.2 -0.4) (size 0.4 0.4) (layers F.Cu F.Paste F.Mask))
  (pad K11 smd circle (at 1.2 0.4) (size 0.4 0.4) (layers F.Cu F.Paste F.Mask))
  (pad L11 smd circle (at 1.2 1.2) (size 0.4 0.4) (layers F.Cu F.Paste F.Mask))
  (pad M11 smd circle (at 1.2 2) (size 0.4 0.4) (layers F.Cu F.Paste F.Mask))
  (pad N11 smd circle (at 1.2 2.8) (size 0.4 0.4) (layers F.Cu F.Paste F.Mask))
  (pad P11 smd circle (at 1.2 3.6) (size 0.4 0.4) (layers F.Cu F.Paste F.Mask))
  (pad R11 smd circle (at 1.2 4.4) (size 0.4 0.4) (layers F.Cu F.Paste F.Mask))
  (pad T11 smd circle (at 1.2 5.2) (size 0.4 0.4) (layers F.Cu F.Paste F.Mask))
  (pad U11 smd circle (at 1.2 6) (size 0.4 0.4) (layers F.Cu F.Paste F.Mask))
  (pad V11 smd circle (at 1.2 6.8) (size 0.4 0.4) (layers F.Cu F.Paste F.Mask))
  (pad A12 smd circle (at 2 -6.8) (size 0.4 0.4) (layers F.Cu F.Paste F.Mask))
  (pad B12 smd circle (at 2 -6) (size 0.4 0.4) (layers F.Cu F.Paste F.Mask))
  (pad C12 smd circle (at 2 -5.2) (size 0.4 0.4) (layers F.Cu F.Paste F.Mask))
  (pad D12 smd circle (at 2 -4.4) (size 0.4 0.4) (layers F.Cu F.Paste F.Mask))
  (pad E12 smd circle (at 2 -3.6) (size 0.4 0.4) (layers F.Cu F.Paste F.Mask))
  (pad F12 smd circle (at 2 -2.8) (size 0.4 0.4) (layers F.Cu F.Paste F.Mask))
  (pad G12 smd circle (at 2 -2) (size 0.4 0.4) (layers F.Cu F.Paste F.Mask))
  (pad H12 smd circle (at 2 -1.2) (size 0.4 0.4) (layers F.Cu F.Paste F.Mask))
  (pad J12 smd circle (at 2 -0.4) (size 0.4 0.4) (layers F.Cu F.Paste F.Mask))
  (pad K12 smd circle (at 2 0.4) (size 0.4 0.4) (layers F.Cu F.Paste F.Mask))
  (pad L12 smd circle (at 2 1.2) (size 0.4 0.4) (layers F.Cu F.Paste F.Mask))
  (pad M12 smd circle (at 2 2) (size 0.4 0.4) (layers F.Cu F.Paste F.Mask))
  (pad N12 smd circle (at 2 2.8) (size 0.4 0.4) (layers F.Cu F.Paste F.Mask))
  (pad P12 smd circle (at 2 3.6) (size 0.4 0.4) (layers F.Cu F.Paste F.Mask))
  (pad R12 smd circle (at 2 4.4) (size 0.4 0.4) (layers F.Cu F.Paste F.Mask))
  (pad T12 smd circle (at 2 5.2) (size 0.4 0.4) (layers F.Cu F.Paste F.Mask))
  (pad U12 smd circle (at 2 6) (size 0.4 0.4) (layers F.Cu F.Paste F.Mask))
  (pad V12 smd circle (at 2 6.8) (size 0.4 0.4) (layers F.Cu F.Paste F.Mask))
  (pad A13 smd circle (at 2.8 -6.8) (size 0.4 0.4) (layers F.Cu F.Paste F.Mask))
  (pad B13 smd circle (at 2.8 -6) (size 0.4 0.4) (layers F.Cu F.Paste F.Mask))
  (pad C13 smd circle (at 2.8 -5.2) (size 0.4 0.4) (layers F.Cu F.Paste F.Mask))
  (pad D13 smd circle (at 2.8 -4.4) (size 0.4 0.4) (layers F.Cu F.Paste F.Mask))
  (pad E13 smd circle (at 2.8 -3.6) (size 0.4 0.4) (layers F.Cu F.Paste F.Mask))
  (pad F13 smd circle (at 2.8 -2.8) (size 0.4 0.4) (layers F.Cu F.Paste F.Mask))
  (pad G13 smd circle (at 2.8 -2) (size 0.4 0.4) (layers F.Cu F.Paste F.Mask))
  (pad H13 smd circle (at 2.8 -1.2) (size 0.4 0.4) (layers F.Cu F.Paste F.Mask))
  (pad J13 smd circle (at 2.8 -0.4) (size 0.4 0.4) (layers F.Cu F.Paste F.Mask))
  (pad K13 smd circle (at 2.8 0.4) (size 0.4 0.4) (layers F.Cu F.Paste F.Mask))
  (pad L13 smd circle (at 2.8 1.2) (size 0.4 0.4) (layers F.Cu F.Paste F.Mask))
  (pad M13 smd circle (at 2.8 2) (size 0.4 0.4) (layers F.Cu F.Paste F.Mask))
  (pad N13 smd circle (at 2.8 2.8) (size 0.4 0.4) (layers F.Cu F.Paste F.Mask))
  (pad P13 smd circle (at 2.8 3.6) (size 0.4 0.4) (layers F.Cu F.Paste F.Mask))
  (pad R13 smd circle (at 2.8 4.4) (size 0.4 0.4) (layers F.Cu F.Paste F.Mask))
  (pad T13 smd circle (at 2.8 5.2) (size 0.4 0.4) (layers F.Cu F.Paste F.Mask))
  (pad U13 smd circle (at 2.8 6) (size 0.4 0.4) (layers F.Cu F.Paste F.Mask))
  (pad V13 smd circle (at 2.8 6.8) (size 0.4 0.4) (layers F.Cu F.Paste F.Mask))
  (pad A14 smd circle (at 3.6 -6.8) (size 0.4 0.4) (layers F.Cu F.Paste F.Mask))
  (pad B14 smd circle (at 3.6 -6) (size 0.4 0.4) (layers F.Cu F.Paste F.Mask))
  (pad C14 smd circle (at 3.6 -5.2) (size 0.4 0.4) (layers F.Cu F.Paste F.Mask))
  (pad D14 smd circle (at 3.6 -4.4) (size 0.4 0.4) (layers F.Cu F.Paste F.Mask))
  (pad E14 smd circle (at 3.6 -3.6) (size 0.4 0.4) (layers F.Cu F.Paste F.Mask))
  (pad F14 smd circle (at 3.6 -2.8) (size 0.4 0.4) (layers F.Cu F.Paste F.Mask))
  (pad G14 smd circle (at 3.6 -2) (size 0.4 0.4) (layers F.Cu F.Paste F.Mask))
  (pad H14 smd circle (at 3.6 -1.2) (size 0.4 0.4) (layers F.Cu F.Paste F.Mask))
  (pad J14 smd circle (at 3.6 -0.4) (size 0.4 0.4) (layers F.Cu F.Paste F.Mask))
  (pad K14 smd circle (at 3.6 0.4) (size 0.4 0.4) (layers F.Cu F.Paste F.Mask))
  (pad L14 smd circle (at 3.6 1.2) (size 0.4 0.4) (layers F.Cu F.Paste F.Mask))
  (pad M14 smd circle (at 3.6 2) (size 0.4 0.4) (layers F.Cu F.Paste F.Mask))
  (pad N14 smd circle (at 3.6 2.8) (size 0.4 0.4) (layers F.Cu F.Paste F.Mask))
  (pad P14 smd circle (at 3.6 3.6) (size 0.4 0.4) (layers F.Cu F.Paste F.Mask))
  (pad R14 smd circle (at 3.6 4.4) (size 0.4 0.4) (layers F.Cu F.Paste F.Mask))
  (pad T14 smd circle (at 3.6 5.2) (size 0.4 0.4) (layers F.Cu F.Paste F.Mask))
  (pad U14 smd circle (at 3.6 6) (size 0.4 0.4) (layers F.Cu F.Paste F.Mask))
  (pad V14 smd circle (at 3.6 6.8) (size 0.4 0.4) (layers F.Cu F.Paste F.Mask))
  (pad A15 smd circle (at 4.4 -6.8) (size 0.4 0.4) (layers F.Cu F.Paste F.Mask))
  (pad B15 smd circle (at 4.4 -6) (size 0.4 0.4) (layers F.Cu F.Paste F.Mask))
  (pad C15 smd circle (at 4.4 -5.2) (size 0.4 0.4) (layers F.Cu F.Paste F.Mask))
  (pad D15 smd circle (at 4.4 -4.4) (size 0.4 0.4) (layers F.Cu F.Paste F.Mask))
  (pad E15 smd circle (at 4.4 -3.6) (size 0.4 0.4) (layers F.Cu F.Paste F.Mask))
  (pad F15 smd circle (at 4.4 -2.8) (size 0.4 0.4) (layers F.Cu F.Paste F.Mask))
  (pad G15 smd circle (at 4.4 -2) (size 0.4 0.4) (layers F.Cu F.Paste F.Mask))
  (pad H15 smd circle (at 4.4 -1.2) (size 0.4 0.4) (layers F.Cu F.Paste F.Mask))
  (pad J15 smd circle (at 4.4 -0.4) (size 0.4 0.4) (layers F.Cu F.Paste F.Mask))
  (pad K15 smd circle (at 4.4 0.4) (size 0.4 0.4) (layers F.Cu F.Paste F.Mask))
  (pad L15 smd circle (at 4.4 1.2) (size 0.4 0.4) (layers F.Cu F.Paste F.Mask))
  (pad M15 smd circle (at 4.4 2) (size 0.4 0.4) (layers F.Cu F.Paste F.Mask))
  (pad N15 smd circle (at 4.4 2.8) (size 0.4 0.4) (layers F.Cu F.Paste F.Mask))
  (pad P15 smd circle (at 4.4 3.6) (size 0.4 0.4) (layers F.Cu F.Paste F.Mask))
  (pad R15 smd circle (at 4.4 4.4) (size 0.4 0.4) (layers F.Cu F.Paste F.Mask))
  (pad T15 smd circle (at 4.4 5.2) (size 0.4 0.4) (layers F.Cu F.Paste F.Mask))
  (pad U15 smd circle (at 4.4 6) (size 0.4 0.4) (layers F.Cu F.Paste F.Mask))
  (pad V15 smd circle (at 4.4 6.8) (size 0.4 0.4) (layers F.Cu F.Paste F.Mask))
  (pad A16 smd circle (at 5.2 -6.8) (size 0.4 0.4) (layers F.Cu F.Paste F.Mask))
  (pad B16 smd circle (at 5.2 -6) (size 0.4 0.4) (layers F.Cu F.Paste F.Mask))
  (pad C16 smd circle (at 5.2 -5.2) (size 0.4 0.4) (layers F.Cu F.Paste F.Mask))
  (pad D16 smd circle (at 5.2 -4.4) (size 0.4 0.4) (layers F.Cu F.Paste F.Mask))
  (pad E16 smd circle (at 5.2 -3.6) (size 0.4 0.4) (layers F.Cu F.Paste F.Mask))
  (pad F16 smd circle (at 5.2 -2.8) (size 0.4 0.4) (layers F.Cu F.Paste F.Mask))
  (pad G16 smd circle (at 5.2 -2) (size 0.4 0.4) (layers F.Cu F.Paste F.Mask))
  (pad H16 smd circle (at 5.2 -1.2) (size 0.4 0.4) (layers F.Cu F.Paste F.Mask))
  (pad J16 smd circle (at 5.2 -0.4) (size 0.4 0.4) (layers F.Cu F.Paste F.Mask))
  (pad K16 smd circle (at 5.2 0.4) (size 0.4 0.4) (layers F.Cu F.Paste F.Mask))
  (pad L16 smd circle (at 5.2 1.2) (size 0.4 0.4) (layers F.Cu F.Paste F.Mask))
  (pad M16 smd circle (at 5.2 2) (size 0.4 0.4) (layers F.Cu F.Paste F.Mask))
  (pad N16 smd circle (at 5.2 2.8) (size 0.4 0.4) (layers F.Cu F.Paste F.Mask))
  (pad P16 smd circle (at 5.2 3.6) (size 0.4 0.4) (layers F.Cu F.Paste F.Mask))
  (pad R16 smd circle (at 5.2 4.4) (size 0.4 0.4) (layers F.Cu F.Paste F.Mask))
  (pad T16 smd circle (at 5.2 5.2) (size 0.4 0.4) (layers F.Cu F.Paste F.Mask))
  (pad U16 smd circle (at 5.2 6) (size 0.4 0.4) (layers F.Cu F.Paste F.Mask))
  (pad V16 smd circle (at 5.2 6.8) (size 0.4 0.4) (layers F.Cu F.Paste F.Mask))
  (pad A17 smd circle (at 6 -6.8) (size 0.4 0.4) (layers F.Cu F.Paste F.Mask))
  (pad B17 smd circle (at 6 -6) (size 0.4 0.4) (layers F.Cu F.Paste F.Mask))
  (pad C17 smd circle (at 6 -5.2) (size 0.4 0.4) (layers F.Cu F.Paste F.Mask))
  (pad D17 smd circle (at 6 -4.4) (size 0.4 0.4) (layers F.Cu F.Paste F.Mask))
  (pad E17 smd circle (at 6 -3.6) (size 0.4 0.4) (layers F.Cu F.Paste F.Mask))
  (pad F17 smd circle (at 6 -2.8) (size 0.4 0.4) (layers F.Cu F.Paste F.Mask))
  (pad G17 smd circle (at 6 -2) (size 0.4 0.4) (layers F.Cu F.Paste F.Mask))
  (pad H17 smd circle (at 6 -1.2) (size 0.4 0.4) (layers F.Cu F.Paste F.Mask))
  (pad J17 smd circle (at 6 -0.4) (size 0.4 0.4) (layers F.Cu F.Paste F.Mask))
  (pad K17 smd circle (at 6 0.4) (size 0.4 0.4) (layers F.Cu F.Paste F.Mask))
  (pad L17 smd circle (at 6 1.2) (size 0.4 0.4) (layers F.Cu F.Paste F.Mask))
  (pad M17 smd circle (at 6 2) (size 0.4 0.4) (layers F.Cu F.Paste F.Mask))
  (pad N17 smd circle (at 6 2.8) (size 0.4 0.4) (layers F.Cu F.Paste F.Mask))
  (pad P17 smd circle (at 6 3.6) (size 0.4 0.4) (layers F.Cu F.Paste F.Mask))
  (pad R17 smd circle (at 6 4.4) (size 0.4 0.4) (layers F.Cu F.Paste F.Mask))
  (pad T17 smd circle (at 6 5.2) (size 0.4 0.4) (layers F.Cu F.Paste F.Mask))
  (pad U17 smd circle (at 6 6) (size 0.4 0.4) (layers F.Cu F.Paste F.Mask))
  (pad V17 smd circle (at 6 6.8) (size 0.4 0.4) (layers F.Cu F.Paste F.Mask))
  (pad A18 smd circle (at 6.8 -6.8) (size 0.4 0.4) (layers F.Cu F.Paste F.Mask))
  (pad B18 smd circle (at 6.8 -6) (size 0.4 0.4) (layers F.Cu F.Paste F.Mask))
  (pad C18 smd circle (at 6.8 -5.2) (size 0.4 0.4) (layers F.Cu F.Paste F.Mask))
  (pad D18 smd circle (at 6.8 -4.4) (size 0.4 0.4) (layers F.Cu F.Paste F.Mask))
  (pad E18 smd circle (at 6.8 -3.6) (size 0.4 0.4) (layers F.Cu F.Paste F.Mask))
  (pad F18 smd circle (at 6.8 -2.8) (size 0.4 0.4) (layers F.Cu F.Paste F.Mask))
  (pad G18 smd circle (at 6.8 -2) (size 0.4 0.4) (layers F.Cu F.Paste F.Mask))
  (pad H18 smd circle (at 6.8 -1.2) (size 0.4 0.4) (layers F.Cu F.Paste F.Mask))
  (pad J18 smd circle (at 6.8 -0.4) (size 0.4 0.4) (layers F.Cu F.Paste F.Mask))
  (pad K18 smd circle (at 6.8 0.4) (size 0.4 0.4) (layers F.Cu F.Paste F.Mask))
  (pad L18 smd circle (at 6.8 1.2) (size 0.4 0.4) (layers F.Cu F.Paste F.Mask))
  (pad M18 smd circle (at 6.8 2) (size 0.4 0.4) (layers F.Cu F.Paste F.Mask))
  (pad N18 smd circle (at 6.8 2.8) (size 0.4 0.4) (layers F.Cu F.Paste F.Mask))
  (pad P18 smd circle (at 6.8 3.6) (size 0.4 0.4) (layers F.Cu F.Paste F.Mask))
  (pad R18 smd circle (at 6.8 4.4) (size 0.4 0.4) (layers F.Cu F.Paste F.Mask))
  (pad T18 smd circle (at 6.8 5.2) (size 0.4 0.4) (layers F.Cu F.Paste F.Mask))
  (pad U18 smd circle (at 6.8 6) (size 0.4 0.4) (layers F.Cu F.Paste F.Mask))
  (pad V18 smd circle (at 6.8 6.8) (size 0.4 0.4) (layers F.Cu F.Paste F.Mask))
  (model ${KIPRJMOD}/kicad_libs_k/models_k.3d/Package_BGA_k.3dshapes/BGA-324_15.0x15.0mm_Layout18x18_P0.8mm_Ball0.5mm_Pad0.4mm_NSMD_k.wrl
    (at (xyz 0 0 0))
    (scale (xyz 1 1 1))
    (rotate (xyz 0 0 0))
  )
)
