(module Texas_DSBGA-9_1.4715x1.4715mm_Layout3x3_P0.5mm (layer F.Cu) (tedit 5A0AA1EB)
  (descr "Texas Instruments, DSBGA, 1.4715x1.4715mm, 9 bump 3x3 array, NSMD pad definition (http://www.ti.com/lit/ds/symlink/lm4990.pdf, http://www.ti.com/lit/an/snva009ag/snva009ag.pdf)")
  (tags "Texas Instruments DSBGA BGA YZR0009")
  (solder_mask_margin 0.05)
  (attr smd)
  (fp_text reference REF** (at 0 -2) (layer F.SilkS)
    (effects (font (size 1 1) (thickness 0.15)))
  )
  (fp_text value Texas_DSBGA-9_1.4715x1.4715mm_Layout3x3_P0.5mm (at 0 2) (layer F.Fab)
    (effects (font (size 1 1) (thickness 0.15)))
  )
  (fp_text user %R (at 0 0) (layer F.Fab)
    (effects (font (size 0.3 0.3) (thickness 0.04)))
  )
  (fp_line (start -0.73575 -0.23575) (end -0.23575 -0.73575) (layer F.Fab) (width 0.1))
  (fp_line (start -1.74 -1.74) (end -1.74 1.74) (layer F.CrtYd) (width 0.05))
  (fp_line (start 1.74 -1.74) (end -1.74 -1.74) (layer F.CrtYd) (width 0.05))
  (fp_line (start 1.74 1.74) (end 1.74 -1.74) (layer F.CrtYd) (width 0.05))
  (fp_line (start -1.74 1.74) (end 1.74 1.74) (layer F.CrtYd) (width 0.05))
  (fp_line (start -0.85 -0.85) (end -0.85 0.85) (layer F.SilkS) (width 0.12))
  (fp_line (start -0.85 -0.85) (end 0.85 -0.85) (layer F.SilkS) (width 0.12))
  (fp_line (start 0.85 0.85) (end -0.85 0.85) (layer F.SilkS) (width 0.12))
  (fp_line (start -0.73575 -0.23575) (end -0.73575 0.73575) (layer F.Fab) (width 0.1))
  (fp_line (start 0.73575 -0.73575) (end -0.23575 -0.73575) (layer F.Fab) (width 0.1))
  (fp_line (start 0.73575 0.73575) (end 0.73575 -0.73575) (layer F.Fab) (width 0.1))
  (fp_line (start -0.73575 0.73575) (end 0.73575 0.73575) (layer F.Fab) (width 0.1))
  (fp_line (start 0.85 -0.85) (end 0.85 0.85) (layer F.SilkS) (width 0.12))
  (fp_line (start -0.075 -1.05) (end -1.05 -1.05) (layer F.SilkS) (width 0.12))
  (fp_line (start -1.05 -1.05) (end -1.05 -0.075) (layer F.SilkS) (width 0.12))
  (pad B3 smd circle (at 0.5 0) (size 0.165 0.165) (layers F.Cu F.Paste F.Mask))
  (pad B2 smd circle (at 0 0) (size 0.165 0.165) (layers F.Cu F.Mask))
  (pad C2 smd circle (at 0 0.5) (size 0.165 0.165) (layers F.Cu F.Mask))
  (pad C1 smd circle (at -0.5 0.5) (size 0.165 0.165) (layers F.Cu F.Mask))
  (pad C3 smd circle (at 0.5 0.5) (size 0.165 0.165) (layers F.Cu F.Mask))
  (pad A3 smd circle (at 0.5 -0.5) (size 0.165 0.165) (layers F.Cu F.Mask))
  (pad B1 smd circle (at -0.5 0) (size 0.165 0.165) (layers F.Cu F.Mask))
  (pad A1 smd circle (at -0.5 -0.5) (size 0.165 0.165) (layers F.Cu F.Mask))
  (pad A2 smd circle (at 0 -0.5) (size 0.165 0.165) (layers F.Cu F.Mask))
  (pad "" smd rect (at -0.5 -0.5) (size 0.3 0.3) (layers F.Paste))
  (pad "" smd rect (at 0 -0.5) (size 0.3 0.3) (layers F.Paste))
  (pad "" smd rect (at 0.5 -0.5) (size 0.3 0.3) (layers F.Paste))
  (pad "" smd rect (at -0.5 0) (size 0.3 0.3) (layers F.Paste))
  (pad "" smd rect (at 0.5 0) (size 0.3 0.3) (layers F.Paste))
  (pad "" smd rect (at -0.5 0.5) (size 0.3 0.3) (layers F.Paste))
  (pad "" smd rect (at 0 0.5) (size 0.3 0.3) (layers F.Paste))
  (pad "" smd rect (at 0.5 0.5) (size 0.3 0.3) (layers F.Paste))
  (pad "" smd rect (at 0 0) (size 0.3 0.3) (layers F.Paste))
  (model ${KIPRJMOD}/kicad_libs_k/models_k.3d/Package_BGA_k.3dshapes/Texas_DSBGA-9_1.4715x1.4715mm_Layout3x3_P0.5mm_k.wrl
    (at (xyz 0 0 0))
    (scale (xyz 1 1 1))
    (rotate (xyz 0 0 0))
  )
)
