(module Texas_DSBGA-8_0.9x1.9mm_Layout2x4_P0.5mm (layer F.Cu) (tedit 5A0AA1EB)
  (descr "Texas Instruments, DSBGA, 0.9x1.9mm, 8 bump 2x4 (perimeter) array, NSMD pad definition (http://www.ti.com/lit/ds/symlink/txb0102.pdf, http://www.ti.com/lit/an/snva009ag/snva009ag.pdf)")
  (tags "Texas Instruments DSBGA BGA YZP R-XBGA-N8")
  (solder_mask_margin 0.05)
  (attr smd)
  (fp_text reference REF** (at 0 -2) (layer F.SilkS)
    (effects (font (size 1 1) (thickness 0.15)))
  )
  (fp_text value Texas_DSBGA-8_0.9x1.9mm_Layout2x4_P0.5mm (at 0 2) (layer F.Fab)
    (effects (font (size 1 1) (thickness 0.15)))
  )
  (fp_text user %R (at 0 0 90) (layer F.Fab)
    (effects (font (size 0.4 0.4) (thickness 0.05)))
  )
  (fp_line (start -0.47 -0.8) (end -0.3 -0.97) (layer F.Fab) (width 0.1))
  (fp_line (start -1.47 -1.97) (end -1.47 1.97) (layer F.CrtYd) (width 0.05))
  (fp_line (start 1.47 -1.97) (end -1.47 -1.97) (layer F.CrtYd) (width 0.05))
  (fp_line (start 1.47 1.97) (end 1.47 -1.97) (layer F.CrtYd) (width 0.05))
  (fp_line (start -1.47 1.97) (end 1.47 1.97) (layer F.CrtYd) (width 0.05))
  (fp_line (start -0.55 -1.05) (end -0.55 1.05) (layer F.SilkS) (width 0.12))
  (fp_line (start 0.55 -1.05) (end -0.55 -1.05) (layer F.SilkS) (width 0.12))
  (fp_line (start -0.47 -0.8) (end -0.47 0.97) (layer F.Fab) (width 0.1))
  (fp_line (start 0.47 -0.97) (end -0.3 -0.97) (layer F.Fab) (width 0.1))
  (fp_line (start 0.47 0.97) (end 0.47 -0.97) (layer F.Fab) (width 0.1))
  (fp_line (start -0.47 0.97) (end 0.47 0.97) (layer F.Fab) (width 0.1))
  (fp_line (start 0.55 -1.05) (end 0.55 1.05) (layer F.SilkS) (width 0.12))
  (fp_line (start -0.55 1.05) (end 0.55 1.05) (layer F.SilkS) (width 0.12))
  (fp_line (start 0 -1.25) (end -0.75 -1.25) (layer F.SilkS) (width 0.12))
  (fp_line (start -0.75 -1.25) (end -0.75 -1.25) (layer F.SilkS) (width 0.12))
  (fp_line (start -0.75 -1.25) (end -0.75 -0.5) (layer F.SilkS) (width 0.12))
  (pad D2 smd circle (at 0.25 0.75) (size 0.265 0.265) (layers F.Cu F.Mask))
  (pad D1 smd circle (at -0.25 0.75) (size 0.265 0.265) (layers F.Cu F.Mask))
  (pad C1 smd circle (at -0.25 0.25) (size 0.265 0.265) (layers F.Cu F.Mask))
  (pad C2 smd circle (at 0.25 0.25) (size 0.265 0.265) (layers F.Cu F.Mask))
  (pad B2 smd circle (at 0.25 -0.25) (size 0.265 0.265) (layers F.Cu F.Mask))
  (pad B1 smd circle (at -0.25 -0.25) (size 0.265 0.265) (layers F.Cu F.Mask))
  (pad A1 smd circle (at -0.25 -0.75) (size 0.265 0.265) (layers F.Cu F.Mask))
  (pad A2 smd circle (at 0.25 -0.75) (size 0.265 0.265) (layers F.Cu F.Mask))
  (pad "" smd rect (at 0.25 0.75) (size 0.3 0.3) (layers F.Paste))
  (pad "" smd rect (at -0.25 0.75) (size 0.3 0.3) (layers F.Paste))
  (pad "" smd rect (at -0.25 0.25) (size 0.3 0.3) (layers F.Paste))
  (pad "" smd rect (at 0.25 0.25) (size 0.3 0.3) (layers F.Paste))
  (pad "" smd rect (at 0.25 -0.25) (size 0.3 0.3) (layers F.Paste))
  (pad "" smd rect (at -0.25 -0.25) (size 0.3 0.3) (layers F.Paste))
  (pad "" smd rect (at -0.25 -0.75) (size 0.3 0.3) (layers F.Paste))
  (pad "" smd rect (at 0.25 -0.75) (size 0.3 0.3) (layers F.Paste))
  (model ${KIPRJMOD}/kicad_libs_k/models_k.3d/Package_BGA_k.3dshapes/Texas_DSBGA-8_0.9x1.9mm_Layout2x4_P0.5mm_k.wrl
    (at (xyz 0 0 0))
    (scale (xyz 1 1 1))
    (rotate (xyz 0 0 0))
  )
)
