(module Texas_DSBGA-10_1.36x1.86mm_Layout3x4_P0.5mm (layer F.Cu) (tedit 5A7A2488)
  (descr "Texas Instruments, DSBGA, 1.36x1.86mm, 10 bump 3x4 (perimeter) array, NSMD pad definition (http://www.ti.com/lit/ds/symlink/txs0104e.pdf, http://www.ti.com/lit/an/snva009ag/snva009ag.pdf)")
  (tags "Texas Instruments DSBGA BGA")
  (solder_mask_margin 0.05)
  (attr smd)
  (fp_text reference REF** (at 0 -2) (layer F.SilkS)
    (effects (font (size 1 1) (thickness 0.15)))
  )
  (fp_text value Texas_DSBGA-10_1.36x1.86mm_Layout3x4_P0.5mm (at 0 2) (layer F.Fab)
    (effects (font (size 1 1) (thickness 0.15)))
  )
  (fp_text user %R (at 0 0 90) (layer F.Fab)
    (effects (font (size 0.3 0.3) (thickness 0.045)))
  )
  (fp_line (start -0.775 -1.025) (end -0.775 1.025) (layer F.SilkS) (width 0.12))
  (fp_line (start -0.775 -1.025) (end 0.765 -1.025) (layer F.SilkS) (width 0.12))
  (fp_line (start 0.775 1.025) (end 0.775 -1.025) (layer F.SilkS) (width 0.12))
  (fp_line (start -0.765 1.025) (end 0.775 1.025) (layer F.SilkS) (width 0.12))
  (fp_line (start -1.68 1.93) (end -1.68 -1.93) (layer F.CrtYd) (width 0.05))
  (fp_line (start -1.68 -1.93) (end 1.68 -1.93) (layer F.CrtYd) (width 0.05))
  (fp_line (start 1.68 -1.93) (end 1.68 1.93) (layer F.CrtYd) (width 0.05))
  (fp_line (start -1.68 1.93) (end 1.68 1.93) (layer F.CrtYd) (width 0.05))
  (fp_line (start -0.68 -0.4) (end -0.15 -0.93) (layer F.Fab) (width 0.1))
  (fp_line (start -0.68 0.93) (end -0.68 -0.4) (layer F.Fab) (width 0.1))
  (fp_line (start 0.68 0.93) (end 0.68 -0.93) (layer F.Fab) (width 0.1))
  (fp_line (start -0.68 0.93) (end 0.68 0.93) (layer F.Fab) (width 0.1))
  (fp_line (start 0.68 -0.93) (end -0.15 -0.93) (layer F.Fab) (width 0.1))
  (fp_line (start 0 -1.25) (end -1 -1.25) (layer F.SilkS) (width 0.12))
  (fp_line (start -1 -1.25) (end -1 -1.25) (layer F.SilkS) (width 0.12))
  (fp_line (start -1 -1.25) (end -1 -0.25) (layer F.SilkS) (width 0.12))
  (pad B1 smd circle (at -0.5 -0.25) (size 0.265 0.265) (layers F.Cu F.Mask))
  (pad A3 smd circle (at 0.5 -0.75) (size 0.265 0.265) (layers F.Cu F.Mask))
  (pad A2 smd circle (at 0 -0.75) (size 0.265 0.265) (layers F.Cu F.Mask))
  (pad A1 smd circle (at -0.5 -0.75) (size 0.265 0.265) (layers F.Cu F.Mask))
  (pad B3 smd circle (at 0.5 -0.25) (size 0.265 0.265) (layers F.Cu F.Mask))
  (pad C1 smd circle (at -0.5 0.25) (size 0.265 0.265) (layers F.Cu F.Mask))
  (pad C3 smd circle (at 0.5 0.25) (size 0.265 0.265) (layers F.Cu F.Mask))
  (pad D1 smd circle (at -0.5 0.75) (size 0.265 0.265) (layers F.Cu F.Mask))
  (pad D2 smd circle (at 0 0.75) (size 0.265 0.265) (layers F.Cu F.Mask))
  (pad D3 smd circle (at 0.5 0.75) (size 0.265 0.265) (layers F.Cu F.Mask))
  (pad "" smd rect (at -0.5 -0.25) (size 0.3 0.3) (layers F.Paste))
  (pad "" smd rect (at 0.5 -0.75) (size 0.3 0.3) (layers F.Paste))
  (pad "" smd rect (at 0 -0.75) (size 0.3 0.3) (layers F.Paste))
  (pad "" smd rect (at -0.5 -0.75) (size 0.3 0.3) (layers F.Paste))
  (pad "" smd rect (at 0.5 -0.25) (size 0.3 0.3) (layers F.Paste))
  (pad "" smd rect (at -0.5 0.25) (size 0.3 0.3) (layers F.Paste))
  (pad "" smd rect (at 0.5 0.25) (size 0.3 0.3) (layers F.Paste))
  (pad "" smd rect (at -0.5 0.75) (size 0.3 0.3) (layers F.Paste))
  (pad "" smd rect (at 0 0.75) (size 0.3 0.3) (layers F.Paste))
  (pad "" smd rect (at 0.5 0.75) (size 0.3 0.3) (layers F.Paste))
  (model ${KIPRJMOD}/kicad_libs_k/models_k.3d/Package_BGA_k.3dshapes/Texas_DSBGA-10_1.36x1.86mm_Layout3x4_P0.5mm_k.wrl
    (at (xyz 0 0 0))
    (scale (xyz 1 1 1))
    (rotate (xyz 0 0 0))
  )
)
