(module UFBGA-169_7x7mm_Layout13x13_P0.5mm (layer F.Cu) (tedit 5ADF9FCE)
  (descr "UFBGA-169, 13x13 raster, 7x7mm package, pitch 0.5mm; see section 7.6 of http://www.st.com/resource/en/datasheet/stm32f429ng.pdf")
  (tags "BGA 169 0.5")
  (attr smd)
  (fp_text reference REF** (at 0 -4.5) (layer F.SilkS)
    (effects (font (size 1 1) (thickness 0.15)))
  )
  (fp_text value UFBGA-169_7x7mm_Layout13x13_P0.5mm (at 0 4.5) (layer F.Fab)
    (effects (font (size 1 1) (thickness 0.15)))
  )
  (fp_line (start 3.5 3.5) (end -3.5 3.5) (layer F.Fab) (width 0.1))
  (fp_line (start -3.5 3.5) (end -3.5 -2.5) (layer F.Fab) (width 0.1))
  (fp_line (start -3.5 -2.5) (end -2.5 -3.5) (layer F.Fab) (width 0.1))
  (fp_line (start -2.5 -3.5) (end 3.5 -3.5) (layer F.Fab) (width 0.1))
  (fp_line (start 3.5 -3.5) (end 3.5 3.5) (layer F.Fab) (width 0.1))
  (fp_line (start -4.5 -4.5) (end -4.5 4.5) (layer F.CrtYd) (width 0.05))
  (fp_line (start -4.5 4.5) (end 4.5 4.5) (layer F.CrtYd) (width 0.05))
  (fp_line (start 4.5 4.5) (end 4.5 -4.5) (layer F.CrtYd) (width 0.05))
  (fp_line (start 4.5 -4.5) (end -4.5 -4.5) (layer F.CrtYd) (width 0.05))
  (fp_line (start -2.625 -3.625) (end 3.625 -3.625) (layer F.SilkS) (width 0.12))
  (fp_line (start 3.625 -3.625) (end 3.625 3.625) (layer F.SilkS) (width 0.12))
  (fp_line (start 3.625 3.625) (end -3.625 3.625) (layer F.SilkS) (width 0.12))
  (fp_line (start -3.625 3.625) (end -3.625 -2.625) (layer F.SilkS) (width 0.12))
  (pad A1 smd circle (at -3 -3) (size 0.27 0.27) (layers F.Cu F.Mask F.Paste))
  (pad A2 smd circle (at -2.5 -3) (size 0.27 0.27) (layers F.Cu F.Mask F.Paste))
  (pad A3 smd circle (at -2 -3) (size 0.27 0.27) (layers F.Cu F.Mask F.Paste))
  (pad A4 smd circle (at -1.5 -3) (size 0.27 0.27) (layers F.Cu F.Mask F.Paste))
  (pad A5 smd circle (at -1 -3) (size 0.27 0.27) (layers F.Cu F.Mask F.Paste))
  (pad A6 smd circle (at -0.5 -3) (size 0.27 0.27) (layers F.Cu F.Mask F.Paste))
  (pad A7 smd circle (at 0 -3) (size 0.27 0.27) (layers F.Cu F.Mask F.Paste))
  (pad A8 smd circle (at 0.5 -3) (size 0.27 0.27) (layers F.Cu F.Mask F.Paste))
  (pad A9 smd circle (at 1 -3) (size 0.27 0.27) (layers F.Cu F.Mask F.Paste))
  (pad A10 smd circle (at 1.5 -3) (size 0.27 0.27) (layers F.Cu F.Mask F.Paste))
  (pad A11 smd circle (at 2 -3) (size 0.27 0.27) (layers F.Cu F.Mask F.Paste))
  (pad A12 smd circle (at 2.5 -3) (size 0.27 0.27) (layers F.Cu F.Mask F.Paste))
  (pad A13 smd circle (at 3 -3) (size 0.27 0.27) (layers F.Cu F.Mask F.Paste))
  (pad B1 smd circle (at -3 -2.5) (size 0.27 0.27) (layers F.Cu F.Mask F.Paste))
  (pad B2 smd circle (at -2.5 -2.5) (size 0.27 0.27) (layers F.Cu F.Mask F.Paste))
  (pad B3 smd circle (at -2 -2.5) (size 0.27 0.27) (layers F.Cu F.Mask F.Paste))
  (pad B4 smd circle (at -1.5 -2.5) (size 0.27 0.27) (layers F.Cu F.Mask F.Paste))
  (pad B5 smd circle (at -1 -2.5) (size 0.27 0.27) (layers F.Cu F.Mask F.Paste))
  (pad B6 smd circle (at -0.5 -2.5) (size 0.27 0.27) (layers F.Cu F.Mask F.Paste))
  (pad B7 smd circle (at 0 -2.5) (size 0.27 0.27) (layers F.Cu F.Mask F.Paste))
  (pad B8 smd circle (at 0.5 -2.5) (size 0.27 0.27) (layers F.Cu F.Mask F.Paste))
  (pad B9 smd circle (at 1 -2.5) (size 0.27 0.27) (layers F.Cu F.Mask F.Paste))
  (pad B10 smd circle (at 1.5 -2.5) (size 0.27 0.27) (layers F.Cu F.Mask F.Paste))
  (pad B11 smd circle (at 2 -2.5) (size 0.27 0.27) (layers F.Cu F.Mask F.Paste))
  (pad B12 smd circle (at 2.5 -2.5) (size 0.27 0.27) (layers F.Cu F.Mask F.Paste))
  (pad B13 smd circle (at 3 -2.5) (size 0.27 0.27) (layers F.Cu F.Mask F.Paste))
  (pad C1 smd circle (at -3 -2) (size 0.27 0.27) (layers F.Cu F.Mask F.Paste))
  (pad C2 smd circle (at -2.5 -2) (size 0.27 0.27) (layers F.Cu F.Mask F.Paste))
  (pad C3 smd circle (at -2 -2) (size 0.27 0.27) (layers F.Cu F.Mask F.Paste))
  (pad C4 smd circle (at -1.5 -2) (size 0.27 0.27) (layers F.Cu F.Mask F.Paste))
  (pad C5 smd circle (at -1 -2) (size 0.27 0.27) (layers F.Cu F.Mask F.Paste))
  (pad C6 smd circle (at -0.5 -2) (size 0.27 0.27) (layers F.Cu F.Mask F.Paste))
  (pad C7 smd circle (at 0 -2) (size 0.27 0.27) (layers F.Cu F.Mask F.Paste))
  (pad C8 smd circle (at 0.5 -2) (size 0.27 0.27) (layers F.Cu F.Mask F.Paste))
  (pad C9 smd circle (at 1 -2) (size 0.27 0.27) (layers F.Cu F.Mask F.Paste))
  (pad C10 smd circle (at 1.5 -2) (size 0.27 0.27) (layers F.Cu F.Mask F.Paste))
  (pad C11 smd circle (at 2 -2) (size 0.27 0.27) (layers F.Cu F.Mask F.Paste))
  (pad C12 smd circle (at 2.5 -2) (size 0.27 0.27) (layers F.Cu F.Mask F.Paste))
  (pad C13 smd circle (at 3 -2) (size 0.27 0.27) (layers F.Cu F.Mask F.Paste))
  (pad D1 smd circle (at -3 -1.5) (size 0.27 0.27) (layers F.Cu F.Mask F.Paste))
  (pad D2 smd circle (at -2.5 -1.5) (size 0.27 0.27) (layers F.Cu F.Mask F.Paste))
  (pad D3 smd circle (at -2 -1.5) (size 0.27 0.27) (layers F.Cu F.Mask F.Paste))
  (pad D4 smd circle (at -1.5 -1.5) (size 0.27 0.27) (layers F.Cu F.Mask F.Paste))
  (pad D5 smd circle (at -1 -1.5) (size 0.27 0.27) (layers F.Cu F.Mask F.Paste))
  (pad D6 smd circle (at -0.5 -1.5) (size 0.27 0.27) (layers F.Cu F.Mask F.Paste))
  (pad D7 smd circle (at 0 -1.5) (size 0.27 0.27) (layers F.Cu F.Mask F.Paste))
  (pad D8 smd circle (at 0.5 -1.5) (size 0.27 0.27) (layers F.Cu F.Mask F.Paste))
  (pad D9 smd circle (at 1 -1.5) (size 0.27 0.27) (layers F.Cu F.Mask F.Paste))
  (pad D10 smd circle (at 1.5 -1.5) (size 0.27 0.27) (layers F.Cu F.Mask F.Paste))
  (pad D11 smd circle (at 2 -1.5) (size 0.27 0.27) (layers F.Cu F.Mask F.Paste))
  (pad D12 smd circle (at 2.5 -1.5) (size 0.27 0.27) (layers F.Cu F.Mask F.Paste))
  (pad D13 smd circle (at 3 -1.5) (size 0.27 0.27) (layers F.Cu F.Mask F.Paste))
  (pad E1 smd circle (at -3 -1) (size 0.27 0.27) (layers F.Cu F.Mask F.Paste))
  (pad E2 smd circle (at -2.5 -1) (size 0.27 0.27) (layers F.Cu F.Mask F.Paste))
  (pad E3 smd circle (at -2 -1) (size 0.27 0.27) (layers F.Cu F.Mask F.Paste))
  (pad E4 smd circle (at -1.5 -1) (size 0.27 0.27) (layers F.Cu F.Mask F.Paste))
  (pad E5 smd circle (at -1 -1) (size 0.27 0.27) (layers F.Cu F.Mask F.Paste))
  (pad E6 smd circle (at -0.5 -1) (size 0.27 0.27) (layers F.Cu F.Mask F.Paste))
  (pad E7 smd circle (at 0 -1) (size 0.27 0.27) (layers F.Cu F.Mask F.Paste))
  (pad E8 smd circle (at 0.5 -1) (size 0.27 0.27) (layers F.Cu F.Mask F.Paste))
  (pad E9 smd circle (at 1 -1) (size 0.27 0.27) (layers F.Cu F.Mask F.Paste))
  (pad E10 smd circle (at 1.5 -1) (size 0.27 0.27) (layers F.Cu F.Mask F.Paste))
  (pad E11 smd circle (at 2 -1) (size 0.27 0.27) (layers F.Cu F.Mask F.Paste))
  (pad E12 smd circle (at 2.5 -1) (size 0.27 0.27) (layers F.Cu F.Mask F.Paste))
  (pad E13 smd circle (at 3 -1) (size 0.27 0.27) (layers F.Cu F.Mask F.Paste))
  (pad F1 smd circle (at -3 -0.5) (size 0.27 0.27) (layers F.Cu F.Mask F.Paste))
  (pad F2 smd circle (at -2.5 -0.5) (size 0.27 0.27) (layers F.Cu F.Mask F.Paste))
  (pad F3 smd circle (at -2 -0.5) (size 0.27 0.27) (layers F.Cu F.Mask F.Paste))
  (pad F4 smd circle (at -1.5 -0.5) (size 0.27 0.27) (layers F.Cu F.Mask F.Paste))
  (pad F5 smd circle (at -1 -0.5) (size 0.27 0.27) (layers F.Cu F.Mask F.Paste))
  (pad F6 smd circle (at -0.5 -0.5) (size 0.27 0.27) (layers F.Cu F.Mask F.Paste))
  (pad F7 smd circle (at 0 -0.5) (size 0.27 0.27) (layers F.Cu F.Mask F.Paste))
  (pad F8 smd circle (at 0.5 -0.5) (size 0.27 0.27) (layers F.Cu F.Mask F.Paste))
  (pad F9 smd circle (at 1 -0.5) (size 0.27 0.27) (layers F.Cu F.Mask F.Paste))
  (pad F10 smd circle (at 1.5 -0.5) (size 0.27 0.27) (layers F.Cu F.Mask F.Paste))
  (pad F11 smd circle (at 2 -0.5) (size 0.27 0.27) (layers F.Cu F.Mask F.Paste))
  (pad F12 smd circle (at 2.5 -0.5) (size 0.27 0.27) (layers F.Cu F.Mask F.Paste))
  (pad F13 smd circle (at 3 -0.5) (size 0.27 0.27) (layers F.Cu F.Mask F.Paste))
  (pad G1 smd circle (at -3 0) (size 0.27 0.27) (layers F.Cu F.Mask F.Paste))
  (pad G2 smd circle (at -2.5 0) (size 0.27 0.27) (layers F.Cu F.Mask F.Paste))
  (pad G3 smd circle (at -2 0) (size 0.27 0.27) (layers F.Cu F.Mask F.Paste))
  (pad G4 smd circle (at -1.5 0) (size 0.27 0.27) (layers F.Cu F.Mask F.Paste))
  (pad G5 smd circle (at -1 0) (size 0.27 0.27) (layers F.Cu F.Mask F.Paste))
  (pad G6 smd circle (at -0.5 0) (size 0.27 0.27) (layers F.Cu F.Mask F.Paste))
  (pad G7 smd circle (at 0 0) (size 0.27 0.27) (layers F.Cu F.Mask F.Paste))
  (pad G8 smd circle (at 0.5 0) (size 0.27 0.27) (layers F.Cu F.Mask F.Paste))
  (pad G9 smd circle (at 1 0) (size 0.27 0.27) (layers F.Cu F.Mask F.Paste))
  (pad G10 smd circle (at 1.5 0) (size 0.27 0.27) (layers F.Cu F.Mask F.Paste))
  (pad G11 smd circle (at 2 0) (size 0.27 0.27) (layers F.Cu F.Mask F.Paste))
  (pad G12 smd circle (at 2.5 0) (size 0.27 0.27) (layers F.Cu F.Mask F.Paste))
  (pad G13 smd circle (at 3 0) (size 0.27 0.27) (layers F.Cu F.Mask F.Paste))
  (pad H1 smd circle (at -3 0.5) (size 0.27 0.27) (layers F.Cu F.Mask F.Paste))
  (pad H2 smd circle (at -2.5 0.5) (size 0.27 0.27) (layers F.Cu F.Mask F.Paste))
  (pad H3 smd circle (at -2 0.5) (size 0.27 0.27) (layers F.Cu F.Mask F.Paste))
  (pad H4 smd circle (at -1.5 0.5) (size 0.27 0.27) (layers F.Cu F.Mask F.Paste))
  (pad H5 smd circle (at -1 0.5) (size 0.27 0.27) (layers F.Cu F.Mask F.Paste))
  (pad H6 smd circle (at -0.5 0.5) (size 0.27 0.27) (layers F.Cu F.Mask F.Paste))
  (pad H7 smd circle (at 0 0.5) (size 0.27 0.27) (layers F.Cu F.Mask F.Paste))
  (pad H8 smd circle (at 0.5 0.5) (size 0.27 0.27) (layers F.Cu F.Mask F.Paste))
  (pad H9 smd circle (at 1 0.5) (size 0.27 0.27) (layers F.Cu F.Mask F.Paste))
  (pad H10 smd circle (at 1.5 0.5) (size 0.27 0.27) (layers F.Cu F.Mask F.Paste))
  (pad H11 smd circle (at 2 0.5) (size 0.27 0.27) (layers F.Cu F.Mask F.Paste))
  (pad H12 smd circle (at 2.5 0.5) (size 0.27 0.27) (layers F.Cu F.Mask F.Paste))
  (pad H13 smd circle (at 3 0.5) (size 0.27 0.27) (layers F.Cu F.Mask F.Paste))
  (pad J1 smd circle (at -3 1) (size 0.27 0.27) (layers F.Cu F.Mask F.Paste))
  (pad J2 smd circle (at -2.5 1) (size 0.27 0.27) (layers F.Cu F.Mask F.Paste))
  (pad J3 smd circle (at -2 1) (size 0.27 0.27) (layers F.Cu F.Mask F.Paste))
  (pad J4 smd circle (at -1.5 1) (size 0.27 0.27) (layers F.Cu F.Mask F.Paste))
  (pad J5 smd circle (at -1 1) (size 0.27 0.27) (layers F.Cu F.Mask F.Paste))
  (pad J6 smd circle (at -0.5 1) (size 0.27 0.27) (layers F.Cu F.Mask F.Paste))
  (pad J7 smd circle (at 0 1) (size 0.27 0.27) (layers F.Cu F.Mask F.Paste))
  (pad J8 smd circle (at 0.5 1) (size 0.27 0.27) (layers F.Cu F.Mask F.Paste))
  (pad J9 smd circle (at 1 1) (size 0.27 0.27) (layers F.Cu F.Mask F.Paste))
  (pad J10 smd circle (at 1.5 1) (size 0.27 0.27) (layers F.Cu F.Mask F.Paste))
  (pad J11 smd circle (at 2 1) (size 0.27 0.27) (layers F.Cu F.Mask F.Paste))
  (pad J12 smd circle (at 2.5 1) (size 0.27 0.27) (layers F.Cu F.Mask F.Paste))
  (pad J13 smd circle (at 3 1) (size 0.27 0.27) (layers F.Cu F.Mask F.Paste))
  (pad K1 smd circle (at -3 1.5) (size 0.27 0.27) (layers F.Cu F.Mask F.Paste))
  (pad K2 smd circle (at -2.5 1.5) (size 0.27 0.27) (layers F.Cu F.Mask F.Paste))
  (pad K3 smd circle (at -2 1.5) (size 0.27 0.27) (layers F.Cu F.Mask F.Paste))
  (pad K4 smd circle (at -1.5 1.5) (size 0.27 0.27) (layers F.Cu F.Mask F.Paste))
  (pad K5 smd circle (at -1 1.5) (size 0.27 0.27) (layers F.Cu F.Mask F.Paste))
  (pad K6 smd circle (at -0.5 1.5) (size 0.27 0.27) (layers F.Cu F.Mask F.Paste))
  (pad K7 smd circle (at 0 1.5) (size 0.27 0.27) (layers F.Cu F.Mask F.Paste))
  (pad K8 smd circle (at 0.5 1.5) (size 0.27 0.27) (layers F.Cu F.Mask F.Paste))
  (pad K9 smd circle (at 1 1.5) (size 0.27 0.27) (layers F.Cu F.Mask F.Paste))
  (pad K10 smd circle (at 1.5 1.5) (size 0.27 0.27) (layers F.Cu F.Mask F.Paste))
  (pad K11 smd circle (at 2 1.5) (size 0.27 0.27) (layers F.Cu F.Mask F.Paste))
  (pad K12 smd circle (at 2.5 1.5) (size 0.27 0.27) (layers F.Cu F.Mask F.Paste))
  (pad K13 smd circle (at 3 1.5) (size 0.27 0.27) (layers F.Cu F.Mask F.Paste))
  (pad L1 smd circle (at -3 2) (size 0.27 0.27) (layers F.Cu F.Mask F.Paste))
  (pad L2 smd circle (at -2.5 2) (size 0.27 0.27) (layers F.Cu F.Mask F.Paste))
  (pad L3 smd circle (at -2 2) (size 0.27 0.27) (layers F.Cu F.Mask F.Paste))
  (pad L4 smd circle (at -1.5 2) (size 0.27 0.27) (layers F.Cu F.Mask F.Paste))
  (pad L5 smd circle (at -1 2) (size 0.27 0.27) (layers F.Cu F.Mask F.Paste))
  (pad L6 smd circle (at -0.5 2) (size 0.27 0.27) (layers F.Cu F.Mask F.Paste))
  (pad L7 smd circle (at 0 2) (size 0.27 0.27) (layers F.Cu F.Mask F.Paste))
  (pad L8 smd circle (at 0.5 2) (size 0.27 0.27) (layers F.Cu F.Mask F.Paste))
  (pad L9 smd circle (at 1 2) (size 0.27 0.27) (layers F.Cu F.Mask F.Paste))
  (pad L10 smd circle (at 1.5 2) (size 0.27 0.27) (layers F.Cu F.Mask F.Paste))
  (pad L11 smd circle (at 2 2) (size 0.27 0.27) (layers F.Cu F.Mask F.Paste))
  (pad L12 smd circle (at 2.5 2) (size 0.27 0.27) (layers F.Cu F.Mask F.Paste))
  (pad L13 smd circle (at 3 2) (size 0.27 0.27) (layers F.Cu F.Mask F.Paste))
  (pad M1 smd circle (at -3 2.5) (size 0.27 0.27) (layers F.Cu F.Mask F.Paste))
  (pad M2 smd circle (at -2.5 2.5) (size 0.27 0.27) (layers F.Cu F.Mask F.Paste))
  (pad M3 smd circle (at -2 2.5) (size 0.27 0.27) (layers F.Cu F.Mask F.Paste))
  (pad M4 smd circle (at -1.5 2.5) (size 0.27 0.27) (layers F.Cu F.Mask F.Paste))
  (pad M5 smd circle (at -1 2.5) (size 0.27 0.27) (layers F.Cu F.Mask F.Paste))
  (pad M6 smd circle (at -0.5 2.5) (size 0.27 0.27) (layers F.Cu F.Mask F.Paste))
  (pad M7 smd circle (at 0 2.5) (size 0.27 0.27) (layers F.Cu F.Mask F.Paste))
  (pad M8 smd circle (at 0.5 2.5) (size 0.27 0.27) (layers F.Cu F.Mask F.Paste))
  (pad M9 smd circle (at 1 2.5) (size 0.27 0.27) (layers F.Cu F.Mask F.Paste))
  (pad M10 smd circle (at 1.5 2.5) (size 0.27 0.27) (layers F.Cu F.Mask F.Paste))
  (pad M11 smd circle (at 2 2.5) (size 0.27 0.27) (layers F.Cu F.Mask F.Paste))
  (pad M12 smd circle (at 2.5 2.5) (size 0.27 0.27) (layers F.Cu F.Mask F.Paste))
  (pad M13 smd circle (at 3 2.5) (size 0.27 0.27) (layers F.Cu F.Mask F.Paste))
  (pad N1 smd circle (at -3 3) (size 0.27 0.27) (layers F.Cu F.Mask F.Paste))
  (pad N2 smd circle (at -2.5 3) (size 0.27 0.27) (layers F.Cu F.Mask F.Paste))
  (pad N3 smd circle (at -2 3) (size 0.27 0.27) (layers F.Cu F.Mask F.Paste))
  (pad N4 smd circle (at -1.5 3) (size 0.27 0.27) (layers F.Cu F.Mask F.Paste))
  (pad N5 smd circle (at -1 3) (size 0.27 0.27) (layers F.Cu F.Mask F.Paste))
  (pad N6 smd circle (at -0.5 3) (size 0.27 0.27) (layers F.Cu F.Mask F.Paste))
  (pad N7 smd circle (at 0 3) (size 0.27 0.27) (layers F.Cu F.Mask F.Paste))
  (pad N8 smd circle (at 0.5 3) (size 0.27 0.27) (layers F.Cu F.Mask F.Paste))
  (pad N9 smd circle (at 1 3) (size 0.27 0.27) (layers F.Cu F.Mask F.Paste))
  (pad N10 smd circle (at 1.5 3) (size 0.27 0.27) (layers F.Cu F.Mask F.Paste))
  (pad N11 smd circle (at 2 3) (size 0.27 0.27) (layers F.Cu F.Mask F.Paste))
  (pad N12 smd circle (at 2.5 3) (size 0.27 0.27) (layers F.Cu F.Mask F.Paste))
  (pad N13 smd circle (at 3 3) (size 0.27 0.27) (layers F.Cu F.Mask F.Paste))
  (fp_text user %R (at 0 0) (layer F.Fab)
    (effects (font (size 1 1) (thickness 0.15)))
  )
  (model ${KIPRJMOD}/kicad_libs_k/models_k.3d/Package_BGA_k.3dshapes/UFBGA-169_7x7mm_Layout13x13_P0.5mm_k.wrl
    (at (xyz 0 0 0))
    (scale (xyz 1 1 1))
    (rotate (xyz 0 0 0))
  )
)