(module UFBGA-132_7x7mm_P0.5mm (layer F.Cu) (tedit 5A0CB273)
  (descr "UFBGA 132 Pins, 0.5mm Pitch, 0.3mm Ball, http://www.st.com/resource/en/datasheet/stm32l486qg.pdf")
  (tags "ufbga bga small-pitch")
  (solder_mask_margin 0.05)
  (attr smd)
  (fp_text reference REF** (at 0 -4.7) (layer F.SilkS)
    (effects (font (size 1 1) (thickness 0.15)))
  )
  (fp_text value UFBGA-132_7x7mm_P0.5mm (at -0.05 4.5) (layer F.Fab)
    (effects (font (size 1 1) (thickness 0.15)))
  )
  (fp_text user %R (at 0 0) (layer F.Fab)
    (effects (font (size 1 1) (thickness 0.15)))
  )
  (fp_line (start -3 -3.5) (end -3.5 -3) (layer F.Fab) (width 0.1))
  (fp_line (start -3.6 3.6) (end -3.6 -3.6) (layer F.SilkS) (width 0.12))
  (fp_line (start 3.6 3.6) (end -3.6 3.6) (layer F.SilkS) (width 0.12))
  (fp_line (start 3.6 -3.6) (end 3.6 3.6) (layer F.SilkS) (width 0.12))
  (fp_line (start -3.6 -3.6) (end 3.6 -3.6) (layer F.SilkS) (width 0.12))
  (fp_line (start -4.5 4.5) (end -4.5 -4.5) (layer F.CrtYd) (width 0.05))
  (fp_line (start 4.5 4.5) (end -4.5 4.5) (layer F.CrtYd) (width 0.05))
  (fp_line (start 4.5 -4.5) (end 4.5 4.5) (layer F.CrtYd) (width 0.05))
  (fp_line (start -4.5 -4.5) (end 4.5 -4.5) (layer F.CrtYd) (width 0.05))
  (fp_line (start -3.5 3.5) (end -3.5 -3) (layer F.Fab) (width 0.1))
  (fp_line (start 3.5 3.5) (end -3.5 3.5) (layer F.Fab) (width 0.1))
  (fp_line (start 3.5 -3.5) (end 3.5 3.5) (layer F.Fab) (width 0.1))
  (fp_line (start -3 -3.5) (end 3.5 -3.5) (layer F.Fab) (width 0.1))
  (fp_line (start -2.8 -3.8) (end -3.8 -3.8) (layer F.SilkS) (width 0.12))
  (fp_line (start -3.8 -2.8) (end -3.8 -3.8) (layer F.SilkS) (width 0.12))
  (pad A1 smd circle (at -2.75 -2.75) (size 0.3 0.3) (layers F.Cu F.Paste F.Mask))
  (pad B1 smd circle (at -2.75 -2.25) (size 0.3 0.3) (layers F.Cu F.Paste F.Mask))
  (pad C1 smd circle (at -2.75 -1.75) (size 0.3 0.3) (layers F.Cu F.Paste F.Mask))
  (pad D1 smd circle (at -2.75 -1.25) (size 0.3 0.3) (layers F.Cu F.Paste F.Mask))
  (pad E1 smd circle (at -2.75 -0.75) (size 0.3 0.3) (layers F.Cu F.Paste F.Mask))
  (pad F1 smd circle (at -2.75 -0.25) (size 0.3 0.3) (layers F.Cu F.Paste F.Mask))
  (pad G1 smd circle (at -2.75 0.25) (size 0.3 0.3) (layers F.Cu F.Paste F.Mask))
  (pad H1 smd circle (at -2.75 0.75) (size 0.3 0.3) (layers F.Cu F.Paste F.Mask))
  (pad J1 smd circle (at -2.75 1.25) (size 0.3 0.3) (layers F.Cu F.Paste F.Mask))
  (pad K1 smd circle (at -2.75 1.75) (size 0.3 0.3) (layers F.Cu F.Paste F.Mask))
  (pad L1 smd circle (at -2.75 2.25) (size 0.3 0.3) (layers F.Cu F.Paste F.Mask))
  (pad M1 smd circle (at -2.75 2.75) (size 0.3 0.3) (layers F.Cu F.Paste F.Mask))
  (pad A2 smd circle (at -2.25 -2.75) (size 0.3 0.3) (layers F.Cu F.Paste F.Mask))
  (pad B2 smd circle (at -2.25 -2.25) (size 0.3 0.3) (layers F.Cu F.Paste F.Mask))
  (pad C2 smd circle (at -2.25 -1.75) (size 0.3 0.3) (layers F.Cu F.Paste F.Mask))
  (pad D2 smd circle (at -2.25 -1.25) (size 0.3 0.3) (layers F.Cu F.Paste F.Mask))
  (pad E2 smd circle (at -2.25 -0.75) (size 0.3 0.3) (layers F.Cu F.Paste F.Mask))
  (pad F2 smd circle (at -2.25 -0.25) (size 0.3 0.3) (layers F.Cu F.Paste F.Mask))
  (pad G2 smd circle (at -2.25 0.25) (size 0.3 0.3) (layers F.Cu F.Paste F.Mask))
  (pad H2 smd circle (at -2.25 0.75) (size 0.3 0.3) (layers F.Cu F.Paste F.Mask))
  (pad J2 smd circle (at -2.25 1.25) (size 0.3 0.3) (layers F.Cu F.Paste F.Mask))
  (pad K2 smd circle (at -2.25 1.75) (size 0.3 0.3) (layers F.Cu F.Paste F.Mask))
  (pad L2 smd circle (at -2.25 2.25) (size 0.3 0.3) (layers F.Cu F.Paste F.Mask))
  (pad M2 smd circle (at -2.25 2.75) (size 0.3 0.3) (layers F.Cu F.Paste F.Mask))
  (pad A3 smd circle (at -1.75 -2.75) (size 0.3 0.3) (layers F.Cu F.Paste F.Mask))
  (pad B3 smd circle (at -1.75 -2.25) (size 0.3 0.3) (layers F.Cu F.Paste F.Mask))
  (pad C3 smd circle (at -1.75 -1.75) (size 0.3 0.3) (layers F.Cu F.Paste F.Mask))
  (pad D3 smd circle (at -1.75 -1.25) (size 0.3 0.3) (layers F.Cu F.Paste F.Mask))
  (pad E3 smd circle (at -1.75 -0.75) (size 0.3 0.3) (layers F.Cu F.Paste F.Mask))
  (pad F3 smd circle (at -1.75 -0.25) (size 0.3 0.3) (layers F.Cu F.Paste F.Mask))
  (pad G3 smd circle (at -1.75 0.25) (size 0.3 0.3) (layers F.Cu F.Paste F.Mask))
  (pad H3 smd circle (at -1.75 0.75) (size 0.3 0.3) (layers F.Cu F.Paste F.Mask))
  (pad J3 smd circle (at -1.75 1.25) (size 0.3 0.3) (layers F.Cu F.Paste F.Mask))
  (pad K3 smd circle (at -1.75 1.75) (size 0.3 0.3) (layers F.Cu F.Paste F.Mask))
  (pad L3 smd circle (at -1.75 2.25) (size 0.3 0.3) (layers F.Cu F.Paste F.Mask))
  (pad M3 smd circle (at -1.75 2.75) (size 0.3 0.3) (layers F.Cu F.Paste F.Mask))
  (pad A4 smd circle (at -1.25 -2.75) (size 0.3 0.3) (layers F.Cu F.Paste F.Mask))
  (pad B4 smd circle (at -1.25 -2.25) (size 0.3 0.3) (layers F.Cu F.Paste F.Mask))
  (pad C4 smd circle (at -1.25 -1.75) (size 0.3 0.3) (layers F.Cu F.Paste F.Mask))
  (pad D4 smd circle (at -1.25 -1.25) (size 0.3 0.3) (layers F.Cu F.Paste F.Mask))
  (pad E4 smd circle (at -1.25 -0.75) (size 0.3 0.3) (layers F.Cu F.Paste F.Mask))
  (pad F4 smd circle (at -1.25 -0.25) (size 0.3 0.3) (layers F.Cu F.Paste F.Mask))
  (pad G4 smd circle (at -1.25 0.25) (size 0.3 0.3) (layers F.Cu F.Paste F.Mask))
  (pad H4 smd circle (at -1.25 0.75) (size 0.3 0.3) (layers F.Cu F.Paste F.Mask))
  (pad J4 smd circle (at -1.25 1.25) (size 0.3 0.3) (layers F.Cu F.Paste F.Mask))
  (pad K4 smd circle (at -1.25 1.75) (size 0.3 0.3) (layers F.Cu F.Paste F.Mask))
  (pad L4 smd circle (at -1.25 2.25) (size 0.3 0.3) (layers F.Cu F.Paste F.Mask))
  (pad M4 smd circle (at -1.25 2.75) (size 0.3 0.3) (layers F.Cu F.Paste F.Mask))
  (pad A5 smd circle (at -0.75 -2.75) (size 0.3 0.3) (layers F.Cu F.Paste F.Mask))
  (pad B5 smd circle (at -0.75 -2.25) (size 0.3 0.3) (layers F.Cu F.Paste F.Mask))
  (pad C5 smd circle (at -0.75 -1.75) (size 0.3 0.3) (layers F.Cu F.Paste F.Mask))
  (pad D5 smd circle (at -0.75 -1.25) (size 0.3 0.3) (layers F.Cu F.Paste F.Mask))
  (pad J5 smd circle (at -0.75 1.25) (size 0.3 0.3) (layers F.Cu F.Paste F.Mask))
  (pad K5 smd circle (at -0.75 1.75) (size 0.3 0.3) (layers F.Cu F.Paste F.Mask))
  (pad L5 smd circle (at -0.75 2.25) (size 0.3 0.3) (layers F.Cu F.Paste F.Mask))
  (pad M5 smd circle (at -0.75 2.75) (size 0.3 0.3) (layers F.Cu F.Paste F.Mask))
  (pad A6 smd circle (at -0.25 -2.75) (size 0.3 0.3) (layers F.Cu F.Paste F.Mask))
  (pad B6 smd circle (at -0.25 -2.25) (size 0.3 0.3) (layers F.Cu F.Paste F.Mask))
  (pad C6 smd circle (at -0.25 -1.75) (size 0.3 0.3) (layers F.Cu F.Paste F.Mask))
  (pad D6 smd circle (at -0.25 -1.25) (size 0.3 0.3) (layers F.Cu F.Paste F.Mask))
  (pad F6 smd circle (at -0.25 -0.25) (size 0.3 0.3) (layers F.Cu F.Paste F.Mask))
  (pad G6 smd circle (at -0.25 0.25) (size 0.3 0.3) (layers F.Cu F.Paste F.Mask))
  (pad J6 smd circle (at -0.25 1.25) (size 0.3 0.3) (layers F.Cu F.Paste F.Mask))
  (pad K6 smd circle (at -0.25 1.75) (size 0.3 0.3) (layers F.Cu F.Paste F.Mask))
  (pad L6 smd circle (at -0.25 2.25) (size 0.3 0.3) (layers F.Cu F.Paste F.Mask))
  (pad M6 smd circle (at -0.25 2.75) (size 0.3 0.3) (layers F.Cu F.Paste F.Mask))
  (pad A7 smd circle (at 0.25 -2.75) (size 0.3 0.3) (layers F.Cu F.Paste F.Mask))
  (pad B7 smd circle (at 0.25 -2.25) (size 0.3 0.3) (layers F.Cu F.Paste F.Mask))
  (pad C7 smd circle (at 0.25 -1.75) (size 0.3 0.3) (layers F.Cu F.Paste F.Mask))
  (pad D7 smd circle (at 0.25 -1.25) (size 0.3 0.3) (layers F.Cu F.Paste F.Mask))
  (pad F7 smd circle (at 0.25 -0.25) (size 0.3 0.3) (layers F.Cu F.Paste F.Mask))
  (pad G7 smd circle (at 0.25 0.25) (size 0.3 0.3) (layers F.Cu F.Paste F.Mask))
  (pad J7 smd circle (at 0.25 1.25) (size 0.3 0.3) (layers F.Cu F.Paste F.Mask))
  (pad K7 smd circle (at 0.25 1.75) (size 0.3 0.3) (layers F.Cu F.Paste F.Mask))
  (pad L7 smd circle (at 0.25 2.25) (size 0.3 0.3) (layers F.Cu F.Paste F.Mask))
  (pad M7 smd circle (at 0.25 2.75) (size 0.3 0.3) (layers F.Cu F.Paste F.Mask))
  (pad A8 smd circle (at 0.75 -2.75) (size 0.3 0.3) (layers F.Cu F.Paste F.Mask))
  (pad B8 smd circle (at 0.75 -2.25) (size 0.3 0.3) (layers F.Cu F.Paste F.Mask))
  (pad C8 smd circle (at 0.75 -1.75) (size 0.3 0.3) (layers F.Cu F.Paste F.Mask))
  (pad D8 smd circle (at 0.75 -1.25) (size 0.3 0.3) (layers F.Cu F.Paste F.Mask))
  (pad J8 smd circle (at 0.75 1.25) (size 0.3 0.3) (layers F.Cu F.Paste F.Mask))
  (pad K8 smd circle (at 0.75 1.75) (size 0.3 0.3) (layers F.Cu F.Paste F.Mask))
  (pad L8 smd circle (at 0.75 2.25) (size 0.3 0.3) (layers F.Cu F.Paste F.Mask))
  (pad M8 smd circle (at 0.75 2.75) (size 0.3 0.3) (layers F.Cu F.Paste F.Mask))
  (pad A9 smd circle (at 1.25 -2.75) (size 0.3 0.3) (layers F.Cu F.Paste F.Mask))
  (pad B9 smd circle (at 1.25 -2.25) (size 0.3 0.3) (layers F.Cu F.Paste F.Mask))
  (pad C9 smd circle (at 1.25 -1.75) (size 0.3 0.3) (layers F.Cu F.Paste F.Mask))
  (pad D9 smd circle (at 1.25 -1.25) (size 0.3 0.3) (layers F.Cu F.Paste F.Mask))
  (pad E9 smd circle (at 1.25 -0.75) (size 0.3 0.3) (layers F.Cu F.Paste F.Mask))
  (pad F9 smd circle (at 1.25 -0.25) (size 0.3 0.3) (layers F.Cu F.Paste F.Mask))
  (pad G9 smd circle (at 1.25 0.25) (size 0.3 0.3) (layers F.Cu F.Paste F.Mask))
  (pad H9 smd circle (at 1.25 0.75) (size 0.3 0.3) (layers F.Cu F.Paste F.Mask))
  (pad J9 smd circle (at 1.25 1.25) (size 0.3 0.3) (layers F.Cu F.Paste F.Mask))
  (pad K9 smd circle (at 1.25 1.75) (size 0.3 0.3) (layers F.Cu F.Paste F.Mask))
  (pad L9 smd circle (at 1.25 2.25) (size 0.3 0.3) (layers F.Cu F.Paste F.Mask))
  (pad M9 smd circle (at 1.25 2.75) (size 0.3 0.3) (layers F.Cu F.Paste F.Mask))
  (pad A10 smd circle (at 1.75 -2.75) (size 0.3 0.3) (layers F.Cu F.Paste F.Mask))
  (pad B10 smd circle (at 1.75 -2.25) (size 0.3 0.3) (layers F.Cu F.Paste F.Mask))
  (pad C10 smd circle (at 1.75 -1.75) (size 0.3 0.3) (layers F.Cu F.Paste F.Mask))
  (pad D10 smd circle (at 1.75 -1.25) (size 0.3 0.3) (layers F.Cu F.Paste F.Mask))
  (pad E10 smd circle (at 1.75 -0.75) (size 0.3 0.3) (layers F.Cu F.Paste F.Mask))
  (pad F10 smd circle (at 1.75 -0.25) (size 0.3 0.3) (layers F.Cu F.Paste F.Mask))
  (pad G10 smd circle (at 1.75 0.25) (size 0.3 0.3) (layers F.Cu F.Paste F.Mask))
  (pad H10 smd circle (at 1.75 0.75) (size 0.3 0.3) (layers F.Cu F.Paste F.Mask))
  (pad J10 smd circle (at 1.75 1.25) (size 0.3 0.3) (layers F.Cu F.Paste F.Mask))
  (pad K10 smd circle (at 1.75 1.75) (size 0.3 0.3) (layers F.Cu F.Paste F.Mask))
  (pad L10 smd circle (at 1.75 2.25) (size 0.3 0.3) (layers F.Cu F.Paste F.Mask))
  (pad M10 smd circle (at 1.75 2.75) (size 0.3 0.3) (layers F.Cu F.Paste F.Mask))
  (pad A11 smd circle (at 2.25 -2.75) (size 0.3 0.3) (layers F.Cu F.Paste F.Mask))
  (pad B11 smd circle (at 2.25 -2.25) (size 0.3 0.3) (layers F.Cu F.Paste F.Mask))
  (pad C11 smd circle (at 2.25 -1.75) (size 0.3 0.3) (layers F.Cu F.Paste F.Mask))
  (pad D11 smd circle (at 2.25 -1.25) (size 0.3 0.3) (layers F.Cu F.Paste F.Mask))
  (pad E11 smd circle (at 2.25 -0.75) (size 0.3 0.3) (layers F.Cu F.Paste F.Mask))
  (pad F11 smd circle (at 2.25 -0.25) (size 0.3 0.3) (layers F.Cu F.Paste F.Mask))
  (pad G11 smd circle (at 2.25 0.25) (size 0.3 0.3) (layers F.Cu F.Paste F.Mask))
  (pad H11 smd circle (at 2.25 0.75) (size 0.3 0.3) (layers F.Cu F.Paste F.Mask))
  (pad J11 smd circle (at 2.25 1.25) (size 0.3 0.3) (layers F.Cu F.Paste F.Mask))
  (pad K11 smd circle (at 2.25 1.75) (size 0.3 0.3) (layers F.Cu F.Paste F.Mask))
  (pad L11 smd circle (at 2.25 2.25) (size 0.3 0.3) (layers F.Cu F.Paste F.Mask))
  (pad M11 smd circle (at 2.25 2.75) (size 0.3 0.3) (layers F.Cu F.Paste F.Mask))
  (pad A12 smd circle (at 2.75 -2.75) (size 0.3 0.3) (layers F.Cu F.Paste F.Mask))
  (pad B12 smd circle (at 2.75 -2.25) (size 0.3 0.3) (layers F.Cu F.Paste F.Mask))
  (pad C12 smd circle (at 2.75 -1.75) (size 0.3 0.3) (layers F.Cu F.Paste F.Mask))
  (pad D12 smd circle (at 2.75 -1.25) (size 0.3 0.3) (layers F.Cu F.Paste F.Mask))
  (pad E12 smd circle (at 2.75 -0.75) (size 0.3 0.3) (layers F.Cu F.Paste F.Mask))
  (pad F12 smd circle (at 2.75 -0.25) (size 0.3 0.3) (layers F.Cu F.Paste F.Mask))
  (pad G12 smd circle (at 2.75 0.25) (size 0.3 0.3) (layers F.Cu F.Paste F.Mask))
  (pad H12 smd circle (at 2.75 0.75) (size 0.3 0.3) (layers F.Cu F.Paste F.Mask))
  (pad J12 smd circle (at 2.75 1.25) (size 0.3 0.3) (layers F.Cu F.Paste F.Mask))
  (pad K12 smd circle (at 2.75 1.75) (size 0.3 0.3) (layers F.Cu F.Paste F.Mask))
  (pad L12 smd circle (at 2.75 2.25) (size 0.3 0.3) (layers F.Cu F.Paste F.Mask))
  (pad M12 smd circle (at 2.75 2.75) (size 0.3 0.3) (layers F.Cu F.Paste F.Mask))
  (model ${KIPRJMOD}/kicad_libs_k/models_k.3d/Package_BGA_k.3dshapes/UFBGA-132_7x7mm_P0.5mm_k.wrl
    (at (xyz 0 0 0))
    (scale (xyz 1 1 1))
    (rotate (xyz 0 0 0))
  )
)
