(module Pin_D1.3mm_L11.0mm_LooseFit (layer F.Cu) (tedit 5A1DC085)
  (descr "solder Pin_ diameter 1.3mm, hole diameter 1.5mm (loose fit), length 11.0mm")
  (tags "solder Pin_ loose fit")
  (fp_text reference REF** (at 0 2.55) (layer F.SilkS)
    (effects (font (size 1 1) (thickness 0.15)))
  )
  (fp_text value Pin_D1.3mm_L11.0mm_LooseFit (at 0 -2.05) (layer F.Fab)
    (effects (font (size 1 1) (thickness 0.15)))
  )
  (fp_text user %R (at 0 2.55) (layer F.Fab)
    (effects (font (size 1 1) (thickness 0.15)))
  )
  (fp_circle (center 0 0) (end 2 0) (layer F.CrtYd) (width 0.05))
  (fp_circle (center 0 0) (end 0.65 -0.05) (layer F.Fab) (width 0.12))
  (fp_circle (center 0 0) (end 1.25 -0.05) (layer F.Fab) (width 0.12))
  (fp_circle (center 0 0) (end 1.8 0.05) (layer F.SilkS) (width 0.12))
  (pad 1 thru_hole circle (at 0 0) (size 3 3) (drill 1.5) (layers *.Cu *.Mask))
  (model ${KIPRJMOD}/kicad_libs_k/models_k.3d/Connector_Pin_k.3dshapes/Pin_D1.3mm_L11.0mm_LooseFit_k.wrl
    (at (xyz 0 0 0))
    (scale (xyz 1 1 1))
    (rotate (xyz 0 0 0))
  )
)
