(module Pin_D1.3mm_L10.0mm_W3.5mm_Flat (layer F.Cu) (tedit 5A1DC085)
  (descr "solder Pin_ with flat with hole, hole diameter 1.3mm, length 10.0mm, width 3.5mm, e.g. Ettinger 13.13.865, https://katalog.ettinger.de/#p=434")
  (tags "solder Pin_ with flat fork")
  (fp_text reference REF** (at 0 2.25) (layer F.SilkS)
    (effects (font (size 1 1) (thickness 0.15)))
  )
  (fp_text value Pin_D1.3mm_L10.0mm_W3.5mm_Flat (at 0 -2.05) (layer F.Fab)
    (effects (font (size 1 1) (thickness 0.15)))
  )
  (fp_text user %R (at 0 2.25) (layer F.Fab)
    (effects (font (size 1 1) (thickness 0.15)))
  )
  (fp_line (start -1.85 -1.5) (end 1.85 -1.5) (layer F.SilkS) (width 0.12))
  (fp_line (start 1.85 -1.5) (end 1.85 1.5) (layer F.SilkS) (width 0.12))
  (fp_line (start 1.85 1.5) (end -1.85 1.5) (layer F.SilkS) (width 0.12))
  (fp_line (start -1.85 -1.5) (end -1.85 1.5) (layer F.SilkS) (width 0.12))
  (fp_line (start 1.75 -0.3) (end 1.75 0.3) (layer F.Fab) (width 0.12))
  (fp_line (start 1.75 0.3) (end -1.75 0.3) (layer F.Fab) (width 0.12))
  (fp_line (start -1.75 0.3) (end -1.75 -0.3) (layer F.Fab) (width 0.12))
  (fp_line (start -1.75 -0.3) (end 1.75 -0.3) (layer F.Fab) (width 0.12))
  (fp_line (start -2.25 -1.8) (end 2.25 -1.8) (layer F.CrtYd) (width 0.05))
  (fp_line (start -2.25 -1.8) (end -2.25 1.8) (layer F.CrtYd) (width 0.05))
  (fp_line (start 2.25 1.8) (end 2.25 -1.8) (layer F.CrtYd) (width 0.05))
  (fp_line (start 2.25 1.8) (end -2.25 1.8) (layer F.CrtYd) (width 0.05))
  (pad 1 thru_hole circle (at 0 0) (size 2.6 2.6) (drill 1.3) (layers *.Cu *.Mask))
  (model ${KIPRJMOD}/kicad_libs_k/models_k.3d/Connector_Pin_k.3dshapes/Pin_D1.3mm_L10.0mm_W3.5mm_Flat_k.wrl
    (at (xyz 0 0 0))
    (scale (xyz 1 1 1))
    (rotate (xyz 0 0 0))
  )
)
