(module Pin_D1.2mm_L11.3mm_W3.0mm_Flat (layer F.Cu) (tedit 5A1DC085)
  (descr "solder Pin_ with flat with hole, hole diameter 1.2mm, length 11.3mm, width 3.0mm")
  (tags "solder Pin_ with flat fork")
  (fp_text reference REF** (at 0 2.2) (layer F.SilkS)
    (effects (font (size 1 1) (thickness 0.15)))
  )
  (fp_text value Pin_D1.2mm_L11.3mm_W3.0mm_Flat (at 0 -2.05) (layer F.Fab)
    (effects (font (size 1 1) (thickness 0.15)))
  )
  (fp_text user %R (at 0 2.2) (layer F.Fab)
    (effects (font (size 1 1) (thickness 0.15)))
  )
  (fp_line (start -1.6 1.4) (end -1.6 -1.4) (layer F.SilkS) (width 0.12))
  (fp_line (start 1.6 -1.4) (end 1.6 1.4) (layer F.SilkS) (width 0.12))
  (fp_line (start -1.6 -1.4) (end 1.6 -1.4) (layer F.SilkS) (width 0.12))
  (fp_line (start 1.6 1.4) (end -1.6 1.4) (layer F.SilkS) (width 0.12))
  (fp_line (start -1.5 -0.25) (end 1.5 -0.25) (layer F.Fab) (width 0.12))
  (fp_line (start 1.5 -0.25) (end 1.5 0.25) (layer F.Fab) (width 0.12))
  (fp_line (start 1.5 0.25) (end -1.5 0.25) (layer F.Fab) (width 0.12))
  (fp_line (start -1.5 0.25) (end -1.5 -0.25) (layer F.Fab) (width 0.12))
  (fp_line (start -2 -1.7) (end 2 -1.7) (layer F.CrtYd) (width 0.05))
  (fp_line (start -2 -1.7) (end -2 1.7) (layer F.CrtYd) (width 0.05))
  (fp_line (start 2 1.7) (end 2 -1.7) (layer F.CrtYd) (width 0.05))
  (fp_line (start 2 1.7) (end -2 1.7) (layer F.CrtYd) (width 0.05))
  (pad 1 thru_hole circle (at 0 0) (size 2.4 2.4) (drill 1.2) (layers *.Cu *.Mask))
  (model ${KIPRJMOD}/kicad_libs_k/models_k.3d/Connector_Pin_k.3dshapes/Pin_D1.2mm_L11.3mm_W3.0mm_Flat_k.wrl
    (at (xyz 0 0 0))
    (scale (xyz 1 1 1))
    (rotate (xyz 0 0 0))
  )
)
