(module PQFP-132_24x24mm_P0.635mm (layer F.Cu) (tedit 5A02F146)
  (descr "PQFP, 132 pins, 24mm sq body, 0.635mm pitch (https://www.intel.com/content/dam/www/public/us/en/documents/packaging-databooks/packaging-chapter-02-databook.pdf, http://www.nxp.com/docs/en/application-note/AN4388.pdf)")
  (tags "PQFP 132")
  (attr smd)
  (fp_text reference REF** (at 0 -15.2) (layer F.SilkS)
    (effects (font (size 1 1) (thickness 0.15)))
  )
  (fp_text value PQFP-132_24x24mm_P0.635mm (at 0 1.5) (layer F.Fab)
    (effects (font (size 1 1) (thickness 0.15)))
  )
  (fp_line (start 12.12 -12.12) (end 12.12 -10.6) (layer F.SilkS) (width 0.12))
  (fp_line (start 10.6 -12.12) (end 12.12 -12.12) (layer F.SilkS) (width 0.12))
  (fp_line (start -11 -12) (end -12 -11) (layer F.Fab) (width 0.1))
  (fp_line (start -14.47 -14.47) (end -14.47 14.47) (layer F.CrtYd) (width 0.05))
  (fp_line (start 14.47 -14.47) (end -14.47 -14.47) (layer F.CrtYd) (width 0.05))
  (fp_text user %R (at 0 0) (layer F.Fab)
    (effects (font (size 1 1) (thickness 0.15)))
  )
  (fp_line (start -11 -12) (end 12 -12) (layer F.Fab) (width 0.1))
  (fp_line (start 12 -12) (end 12 12) (layer F.Fab) (width 0.1))
  (fp_line (start 12 12) (end -12 12) (layer F.Fab) (width 0.1))
  (fp_line (start -12 12) (end -12 -11) (layer F.Fab) (width 0.1))
  (fp_line (start 14.47 -14.47) (end 14.47 14.47) (layer F.CrtYd) (width 0.05))
  (fp_line (start 14.47 14.47) (end -14.47 14.47) (layer F.CrtYd) (width 0.05))
  (fp_line (start -10.6 -12.12) (end -12.12 -12.12) (layer F.SilkS) (width 0.12))
  (fp_line (start -12.12 -12.12) (end -12.12 -10.6) (layer F.SilkS) (width 0.12))
  (fp_line (start 10.6 12.12) (end 12.12 12.12) (layer F.SilkS) (width 0.12))
  (fp_line (start 12.12 12.12) (end 12.12 10.6) (layer F.SilkS) (width 0.12))
  (fp_line (start -12.12 12.12) (end -12.12 10.6) (layer F.SilkS) (width 0.12))
  (fp_line (start -10.6 12.12) (end -12.12 12.12) (layer F.SilkS) (width 0.12))
  (fp_line (start -14.1 -10.6) (end -12.12 -10.6) (layer F.SilkS) (width 0.12))
  (pad 1 smd rect (at -13.4 -10.16) (size 1.635 0.38) (layers F.Cu F.Paste F.Mask))
  (pad 2 smd rect (at -13.4 -9.525) (size 1.635 0.38) (layers F.Cu F.Paste F.Mask))
  (pad 3 smd rect (at -13.4 -8.89) (size 1.635 0.38) (layers F.Cu F.Paste F.Mask))
  (pad 4 smd rect (at -13.4 -8.255) (size 1.635 0.38) (layers F.Cu F.Paste F.Mask))
  (pad 5 smd rect (at -13.4 -7.62) (size 1.635 0.38) (layers F.Cu F.Paste F.Mask))
  (pad 6 smd rect (at -13.4 -6.985) (size 1.635 0.38) (layers F.Cu F.Paste F.Mask))
  (pad 7 smd rect (at -13.4 -6.35) (size 1.635 0.38) (layers F.Cu F.Paste F.Mask))
  (pad 8 smd rect (at -13.4 -5.715) (size 1.635 0.38) (layers F.Cu F.Paste F.Mask))
  (pad 9 smd rect (at -13.4 -5.08) (size 1.635 0.38) (layers F.Cu F.Paste F.Mask))
  (pad 10 smd rect (at -13.4 -4.445) (size 1.635 0.38) (layers F.Cu F.Paste F.Mask))
  (pad 11 smd rect (at -13.4 -3.81) (size 1.635 0.38) (layers F.Cu F.Paste F.Mask))
  (pad 12 smd rect (at -13.4 -3.175) (size 1.635 0.38) (layers F.Cu F.Paste F.Mask))
  (pad 13 smd rect (at -13.4 -2.54) (size 1.635 0.38) (layers F.Cu F.Paste F.Mask))
  (pad 14 smd rect (at -13.4 -1.905) (size 1.635 0.38) (layers F.Cu F.Paste F.Mask))
  (pad 15 smd rect (at -13.4 -1.27) (size 1.635 0.38) (layers F.Cu F.Paste F.Mask))
  (pad 16 smd rect (at -13.4 -0.635) (size 1.635 0.38) (layers F.Cu F.Paste F.Mask))
  (pad 17 smd rect (at -13.4 0) (size 1.635 0.38) (layers F.Cu F.Paste F.Mask))
  (pad 18 smd rect (at -13.4 0.635) (size 1.635 0.38) (layers F.Cu F.Paste F.Mask))
  (pad 19 smd rect (at -13.4 1.27) (size 1.635 0.38) (layers F.Cu F.Paste F.Mask))
  (pad 20 smd rect (at -13.4 1.905) (size 1.635 0.38) (layers F.Cu F.Paste F.Mask))
  (pad 21 smd rect (at -13.4 2.54) (size 1.635 0.38) (layers F.Cu F.Paste F.Mask))
  (pad 22 smd rect (at -13.4 3.175) (size 1.635 0.38) (layers F.Cu F.Paste F.Mask))
  (pad 23 smd rect (at -13.4 3.81) (size 1.635 0.38) (layers F.Cu F.Paste F.Mask))
  (pad 24 smd rect (at -13.4 4.445) (size 1.635 0.38) (layers F.Cu F.Paste F.Mask))
  (pad 25 smd rect (at -13.4 5.08) (size 1.635 0.38) (layers F.Cu F.Paste F.Mask))
  (pad 26 smd rect (at -13.4 5.715) (size 1.635 0.38) (layers F.Cu F.Paste F.Mask))
  (pad 27 smd rect (at -13.4 6.35) (size 1.635 0.38) (layers F.Cu F.Paste F.Mask))
  (pad 28 smd rect (at -13.4 6.985) (size 1.635 0.38) (layers F.Cu F.Paste F.Mask))
  (pad 29 smd rect (at -13.4 7.62) (size 1.635 0.38) (layers F.Cu F.Paste F.Mask))
  (pad 30 smd rect (at -13.4 8.255) (size 1.635 0.38) (layers F.Cu F.Paste F.Mask))
  (pad 31 smd rect (at -13.4 8.89) (size 1.635 0.38) (layers F.Cu F.Paste F.Mask))
  (pad 32 smd rect (at -13.4 9.525) (size 1.635 0.38) (layers F.Cu F.Paste F.Mask))
  (pad 33 smd rect (at -13.4 10.16) (size 1.635 0.38) (layers F.Cu F.Paste F.Mask))
  (pad 67 smd rect (at 13.4 10.16) (size 1.635 0.38) (layers F.Cu F.Paste F.Mask))
  (pad 68 smd rect (at 13.4 9.525) (size 1.635 0.38) (layers F.Cu F.Paste F.Mask))
  (pad 69 smd rect (at 13.4 8.89) (size 1.635 0.38) (layers F.Cu F.Paste F.Mask))
  (pad 70 smd rect (at 13.4 8.255) (size 1.635 0.38) (layers F.Cu F.Paste F.Mask))
  (pad 71 smd rect (at 13.4 7.62) (size 1.635 0.38) (layers F.Cu F.Paste F.Mask))
  (pad 72 smd rect (at 13.4 6.985) (size 1.635 0.38) (layers F.Cu F.Paste F.Mask))
  (pad 73 smd rect (at 13.4 6.35) (size 1.635 0.38) (layers F.Cu F.Paste F.Mask))
  (pad 74 smd rect (at 13.4 5.715) (size 1.635 0.38) (layers F.Cu F.Paste F.Mask))
  (pad 75 smd rect (at 13.4 5.08) (size 1.635 0.38) (layers F.Cu F.Paste F.Mask))
  (pad 76 smd rect (at 13.4 4.445) (size 1.635 0.38) (layers F.Cu F.Paste F.Mask))
  (pad 77 smd rect (at 13.4 3.81) (size 1.635 0.38) (layers F.Cu F.Paste F.Mask))
  (pad 78 smd rect (at 13.4 3.175) (size 1.635 0.38) (layers F.Cu F.Paste F.Mask))
  (pad 79 smd rect (at 13.4 2.54) (size 1.635 0.38) (layers F.Cu F.Paste F.Mask))
  (pad 80 smd rect (at 13.4 1.905) (size 1.635 0.38) (layers F.Cu F.Paste F.Mask))
  (pad 81 smd rect (at 13.4 1.27) (size 1.635 0.38) (layers F.Cu F.Paste F.Mask))
  (pad 82 smd rect (at 13.4 0.635) (size 1.635 0.38) (layers F.Cu F.Paste F.Mask))
  (pad 83 smd rect (at 13.4 0) (size 1.635 0.38) (layers F.Cu F.Paste F.Mask))
  (pad 84 smd rect (at 13.4 -0.635) (size 1.635 0.38) (layers F.Cu F.Paste F.Mask))
  (pad 85 smd rect (at 13.4 -1.27) (size 1.635 0.38) (layers F.Cu F.Paste F.Mask))
  (pad 86 smd rect (at 13.4 -1.905) (size 1.635 0.38) (layers F.Cu F.Paste F.Mask))
  (pad 87 smd rect (at 13.4 -2.54) (size 1.635 0.38) (layers F.Cu F.Paste F.Mask))
  (pad 88 smd rect (at 13.4 -3.175) (size 1.635 0.38) (layers F.Cu F.Paste F.Mask))
  (pad 89 smd rect (at 13.4 -3.81) (size 1.635 0.38) (layers F.Cu F.Paste F.Mask))
  (pad 90 smd rect (at 13.4 -4.445) (size 1.635 0.38) (layers F.Cu F.Paste F.Mask))
  (pad 91 smd rect (at 13.4 -5.08) (size 1.635 0.38) (layers F.Cu F.Paste F.Mask))
  (pad 92 smd rect (at 13.4 -5.715) (size 1.635 0.38) (layers F.Cu F.Paste F.Mask))
  (pad 93 smd rect (at 13.4 -6.35) (size 1.635 0.38) (layers F.Cu F.Paste F.Mask))
  (pad 94 smd rect (at 13.4 -6.985) (size 1.635 0.38) (layers F.Cu F.Paste F.Mask))
  (pad 95 smd rect (at 13.4 -7.62) (size 1.635 0.38) (layers F.Cu F.Paste F.Mask))
  (pad 96 smd rect (at 13.4 -8.255) (size 1.635 0.38) (layers F.Cu F.Paste F.Mask))
  (pad 97 smd rect (at 13.4 -8.89) (size 1.635 0.38) (layers F.Cu F.Paste F.Mask))
  (pad 98 smd rect (at 13.4 -9.525) (size 1.635 0.38) (layers F.Cu F.Paste F.Mask))
  (pad 99 smd rect (at 13.4 -10.16) (size 1.635 0.38) (layers F.Cu F.Paste F.Mask))
  (pad 34 smd rect (at -10.16 13.4) (size 0.38 1.635) (layers F.Cu F.Paste F.Mask))
  (pad 35 smd rect (at -9.525 13.4) (size 0.38 1.635) (layers F.Cu F.Paste F.Mask))
  (pad 36 smd rect (at -8.89 13.4) (size 0.38 1.635) (layers F.Cu F.Paste F.Mask))
  (pad 37 smd rect (at -8.255 13.4) (size 0.38 1.635) (layers F.Cu F.Paste F.Mask))
  (pad 38 smd rect (at -7.62 13.4) (size 0.38 1.635) (layers F.Cu F.Paste F.Mask))
  (pad 39 smd rect (at -6.985 13.4) (size 0.38 1.635) (layers F.Cu F.Paste F.Mask))
  (pad 40 smd rect (at -6.35 13.4) (size 0.38 1.635) (layers F.Cu F.Paste F.Mask))
  (pad 41 smd rect (at -5.715 13.4) (size 0.38 1.635) (layers F.Cu F.Paste F.Mask))
  (pad 42 smd rect (at -5.08 13.4) (size 0.38 1.635) (layers F.Cu F.Paste F.Mask))
  (pad 43 smd rect (at -4.445 13.4) (size 0.38 1.635) (layers F.Cu F.Paste F.Mask))
  (pad 44 smd rect (at -3.81 13.4) (size 0.38 1.635) (layers F.Cu F.Paste F.Mask))
  (pad 45 smd rect (at -3.175 13.4) (size 0.38 1.635) (layers F.Cu F.Paste F.Mask))
  (pad 46 smd rect (at -2.54 13.4) (size 0.38 1.635) (layers F.Cu F.Paste F.Mask))
  (pad 47 smd rect (at -1.905 13.4) (size 0.38 1.635) (layers F.Cu F.Paste F.Mask))
  (pad 48 smd rect (at -1.27 13.4) (size 0.38 1.635) (layers F.Cu F.Paste F.Mask))
  (pad 49 smd rect (at -0.635 13.4) (size 0.38 1.635) (layers F.Cu F.Paste F.Mask))
  (pad 50 smd rect (at 0 13.4) (size 0.38 1.635) (layers F.Cu F.Paste F.Mask))
  (pad 51 smd rect (at 0.635 13.4) (size 0.38 1.635) (layers F.Cu F.Paste F.Mask))
  (pad 52 smd rect (at 1.27 13.4) (size 0.38 1.635) (layers F.Cu F.Paste F.Mask))
  (pad 53 smd rect (at 1.905 13.4) (size 0.38 1.635) (layers F.Cu F.Paste F.Mask))
  (pad 54 smd rect (at 2.54 13.4) (size 0.38 1.635) (layers F.Cu F.Paste F.Mask))
  (pad 55 smd rect (at 3.175 13.4) (size 0.38 1.635) (layers F.Cu F.Paste F.Mask))
  (pad 56 smd rect (at 3.81 13.4) (size 0.38 1.635) (layers F.Cu F.Paste F.Mask))
  (pad 57 smd rect (at 4.445 13.4) (size 0.38 1.635) (layers F.Cu F.Paste F.Mask))
  (pad 58 smd rect (at 5.08 13.4) (size 0.38 1.635) (layers F.Cu F.Paste F.Mask))
  (pad 59 smd rect (at 5.715 13.4) (size 0.38 1.635) (layers F.Cu F.Paste F.Mask))
  (pad 60 smd rect (at 6.35 13.4) (size 0.38 1.635) (layers F.Cu F.Paste F.Mask))
  (pad 61 smd rect (at 6.985 13.4) (size 0.38 1.635) (layers F.Cu F.Paste F.Mask))
  (pad 62 smd rect (at 7.62 13.4) (size 0.38 1.635) (layers F.Cu F.Paste F.Mask))
  (pad 63 smd rect (at 8.255 13.4) (size 0.38 1.635) (layers F.Cu F.Paste F.Mask))
  (pad 64 smd rect (at 8.89 13.4) (size 0.38 1.635) (layers F.Cu F.Paste F.Mask))
  (pad 65 smd rect (at 9.525 13.4) (size 0.38 1.635) (layers F.Cu F.Paste F.Mask))
  (pad 66 smd rect (at 10.16 13.4) (size 0.38 1.635) (layers F.Cu F.Paste F.Mask))
  (pad 100 smd rect (at 10.16 -13.4) (size 0.38 1.635) (layers F.Cu F.Paste F.Mask))
  (pad 101 smd rect (at 9.525 -13.4) (size 0.38 1.635) (layers F.Cu F.Paste F.Mask))
  (pad 102 smd rect (at 8.89 -13.4) (size 0.38 1.635) (layers F.Cu F.Paste F.Mask))
  (pad 103 smd rect (at 8.255 -13.4) (size 0.38 1.635) (layers F.Cu F.Paste F.Mask))
  (pad 104 smd rect (at 7.62 -13.4) (size 0.38 1.635) (layers F.Cu F.Paste F.Mask))
  (pad 105 smd rect (at 6.985 -13.4) (size 0.38 1.635) (layers F.Cu F.Paste F.Mask))
  (pad 106 smd rect (at 6.35 -13.4) (size 0.38 1.635) (layers F.Cu F.Paste F.Mask))
  (pad 107 smd rect (at 5.715 -13.4) (size 0.38 1.635) (layers F.Cu F.Paste F.Mask))
  (pad 108 smd rect (at 5.08 -13.4) (size 0.38 1.635) (layers F.Cu F.Paste F.Mask))
  (pad 109 smd rect (at 4.445 -13.4) (size 0.38 1.635) (layers F.Cu F.Paste F.Mask))
  (pad 110 smd rect (at 3.81 -13.4) (size 0.38 1.635) (layers F.Cu F.Paste F.Mask))
  (pad 111 smd rect (at 3.175 -13.4) (size 0.38 1.635) (layers F.Cu F.Paste F.Mask))
  (pad 112 smd rect (at 2.54 -13.4) (size 0.38 1.635) (layers F.Cu F.Paste F.Mask))
  (pad 113 smd rect (at 1.905 -13.4) (size 0.38 1.635) (layers F.Cu F.Paste F.Mask))
  (pad 114 smd rect (at 1.27 -13.4) (size 0.38 1.635) (layers F.Cu F.Paste F.Mask))
  (pad 115 smd rect (at 0.635 -13.4) (size 0.38 1.635) (layers F.Cu F.Paste F.Mask))
  (pad 116 smd rect (at 0 -13.4) (size 0.38 1.635) (layers F.Cu F.Paste F.Mask))
  (pad 117 smd rect (at -0.635 -13.4) (size 0.38 1.635) (layers F.Cu F.Paste F.Mask))
  (pad 118 smd rect (at -1.27 -13.4) (size 0.38 1.635) (layers F.Cu F.Paste F.Mask))
  (pad 119 smd rect (at -1.905 -13.4) (size 0.38 1.635) (layers F.Cu F.Paste F.Mask))
  (pad 120 smd rect (at -2.54 -13.4) (size 0.38 1.635) (layers F.Cu F.Paste F.Mask))
  (pad 121 smd rect (at -3.175 -13.4) (size 0.38 1.635) (layers F.Cu F.Paste F.Mask))
  (pad 122 smd rect (at -3.81 -13.4) (size 0.38 1.635) (layers F.Cu F.Paste F.Mask))
  (pad 123 smd rect (at -4.445 -13.4) (size 0.38 1.635) (layers F.Cu F.Paste F.Mask))
  (pad 124 smd rect (at -5.08 -13.4) (size 0.38 1.635) (layers F.Cu F.Paste F.Mask))
  (pad 125 smd rect (at -5.715 -13.4) (size 0.38 1.635) (layers F.Cu F.Paste F.Mask))
  (pad 126 smd rect (at -6.35 -13.4) (size 0.38 1.635) (layers F.Cu F.Paste F.Mask))
  (pad 127 smd rect (at -6.985 -13.4) (size 0.38 1.635) (layers F.Cu F.Paste F.Mask))
  (pad 128 smd rect (at -7.62 -13.4) (size 0.38 1.635) (layers F.Cu F.Paste F.Mask))
  (pad 129 smd rect (at -8.255 -13.4) (size 0.38 1.635) (layers F.Cu F.Paste F.Mask))
  (pad 130 smd rect (at -8.89 -13.4) (size 0.38 1.635) (layers F.Cu F.Paste F.Mask))
  (pad 131 smd rect (at -9.525 -13.4) (size 0.38 1.635) (layers F.Cu F.Paste F.Mask))
  (pad 132 smd rect (at -10.16 -13.4) (size 0.38 1.635) (layers F.Cu F.Paste F.Mask))
  (model ${KIPRJMOD}/kicad_libs_k/models_k.3d/Package_QFP_k.3dshapes/PQFP-132_24x24mm_P0.635mm_k.wrl
    (at (xyz 0 0 0))
    (scale (xyz 1 1 1))
    (rotate (xyz 0 0 0))
  )
)
