(module VQFP-176_20x20mm_P0.4mm (layer F.Cu) (tedit 5ADFCA16)
  (descr "VQFP, 176 Pin (http://www.microsemi.com/index.php?option=com_docman&task=doc_download&gid=131095), generated with kicad-footprint-generator ipc_qfp_generator.py")
  (tags "VQFP QFP")
  (attr smd)
  (fp_text reference REF** (at 0 -12.35) (layer F.SilkS)
    (effects (font (size 1 1) (thickness 0.15)))
  )
  (fp_text value VQFP-176_20x20mm_P0.4mm (at 0 12.35) (layer F.Fab)
    (effects (font (size 1 1) (thickness 0.15)))
  )
  (fp_line (start -8.985 -10.11) (end -10.11 -10.11) (layer F.SilkS) (width 0.12))
  (fp_line (start -10.11 -10.11) (end -10.11 -8.985) (layer F.SilkS) (width 0.12))
  (fp_line (start 8.985 -10.11) (end 10.11 -10.11) (layer F.SilkS) (width 0.12))
  (fp_line (start 10.11 -10.11) (end 10.11 -8.985) (layer F.SilkS) (width 0.12))
  (fp_line (start 8.985 10.11) (end 10.11 10.11) (layer F.SilkS) (width 0.12))
  (fp_line (start 10.11 10.11) (end 10.11 8.985) (layer F.SilkS) (width 0.12))
  (fp_line (start -8.985 10.11) (end -10.11 10.11) (layer F.SilkS) (width 0.12))
  (fp_line (start -10.11 10.11) (end -10.11 8.985) (layer F.SilkS) (width 0.12))
  (fp_line (start -10.11 -8.985) (end -11.4 -8.985) (layer F.SilkS) (width 0.12))
  (fp_line (start -9 -10) (end 10 -10) (layer F.Fab) (width 0.1))
  (fp_line (start 10 -10) (end 10 10) (layer F.Fab) (width 0.1))
  (fp_line (start 10 10) (end -10 10) (layer F.Fab) (width 0.1))
  (fp_line (start -10 10) (end -10 -9) (layer F.Fab) (width 0.1))
  (fp_line (start -10 -9) (end -9 -10) (layer F.Fab) (width 0.1))
  (fp_line (start 0 -11.65) (end -8.98 -11.65) (layer F.CrtYd) (width 0.05))
  (fp_line (start -8.98 -11.65) (end -8.98 -10.25) (layer F.CrtYd) (width 0.05))
  (fp_line (start -8.98 -10.25) (end -10.25 -10.25) (layer F.CrtYd) (width 0.05))
  (fp_line (start -10.25 -10.25) (end -10.25 -8.98) (layer F.CrtYd) (width 0.05))
  (fp_line (start -10.25 -8.98) (end -11.65 -8.98) (layer F.CrtYd) (width 0.05))
  (fp_line (start -11.65 -8.98) (end -11.65 0) (layer F.CrtYd) (width 0.05))
  (fp_line (start 0 -11.65) (end 8.98 -11.65) (layer F.CrtYd) (width 0.05))
  (fp_line (start 8.98 -11.65) (end 8.98 -10.25) (layer F.CrtYd) (width 0.05))
  (fp_line (start 8.98 -10.25) (end 10.25 -10.25) (layer F.CrtYd) (width 0.05))
  (fp_line (start 10.25 -10.25) (end 10.25 -8.98) (layer F.CrtYd) (width 0.05))
  (fp_line (start 10.25 -8.98) (end 11.65 -8.98) (layer F.CrtYd) (width 0.05))
  (fp_line (start 11.65 -8.98) (end 11.65 0) (layer F.CrtYd) (width 0.05))
  (fp_line (start 0 11.65) (end 8.98 11.65) (layer F.CrtYd) (width 0.05))
  (fp_line (start 8.98 11.65) (end 8.98 10.25) (layer F.CrtYd) (width 0.05))
  (fp_line (start 8.98 10.25) (end 10.25 10.25) (layer F.CrtYd) (width 0.05))
  (fp_line (start 10.25 10.25) (end 10.25 8.98) (layer F.CrtYd) (width 0.05))
  (fp_line (start 10.25 8.98) (end 11.65 8.98) (layer F.CrtYd) (width 0.05))
  (fp_line (start 11.65 8.98) (end 11.65 0) (layer F.CrtYd) (width 0.05))
  (fp_line (start 0 11.65) (end -8.98 11.65) (layer F.CrtYd) (width 0.05))
  (fp_line (start -8.98 11.65) (end -8.98 10.25) (layer F.CrtYd) (width 0.05))
  (fp_line (start -8.98 10.25) (end -10.25 10.25) (layer F.CrtYd) (width 0.05))
  (fp_line (start -10.25 10.25) (end -10.25 8.98) (layer F.CrtYd) (width 0.05))
  (fp_line (start -10.25 8.98) (end -11.65 8.98) (layer F.CrtYd) (width 0.05))
  (fp_line (start -11.65 8.98) (end -11.65 0) (layer F.CrtYd) (width 0.05))
  (pad 1 smd rect (at -10.65 -8.6) (size 1.5 0.25) (layers F.Cu F.Mask F.Paste))
  (pad 2 smd rect (at -10.65 -8.2) (size 1.5 0.25) (layers F.Cu F.Mask F.Paste))
  (pad 3 smd rect (at -10.65 -7.8) (size 1.5 0.25) (layers F.Cu F.Mask F.Paste))
  (pad 4 smd rect (at -10.65 -7.4) (size 1.5 0.25) (layers F.Cu F.Mask F.Paste))
  (pad 5 smd rect (at -10.65 -7) (size 1.5 0.25) (layers F.Cu F.Mask F.Paste))
  (pad 6 smd rect (at -10.65 -6.6) (size 1.5 0.25) (layers F.Cu F.Mask F.Paste))
  (pad 7 smd rect (at -10.65 -6.2) (size 1.5 0.25) (layers F.Cu F.Mask F.Paste))
  (pad 8 smd rect (at -10.65 -5.8) (size 1.5 0.25) (layers F.Cu F.Mask F.Paste))
  (pad 9 smd rect (at -10.65 -5.4) (size 1.5 0.25) (layers F.Cu F.Mask F.Paste))
  (pad 10 smd rect (at -10.65 -5) (size 1.5 0.25) (layers F.Cu F.Mask F.Paste))
  (pad 11 smd rect (at -10.65 -4.6) (size 1.5 0.25) (layers F.Cu F.Mask F.Paste))
  (pad 12 smd rect (at -10.65 -4.2) (size 1.5 0.25) (layers F.Cu F.Mask F.Paste))
  (pad 13 smd rect (at -10.65 -3.8) (size 1.5 0.25) (layers F.Cu F.Mask F.Paste))
  (pad 14 smd rect (at -10.65 -3.4) (size 1.5 0.25) (layers F.Cu F.Mask F.Paste))
  (pad 15 smd rect (at -10.65 -3) (size 1.5 0.25) (layers F.Cu F.Mask F.Paste))
  (pad 16 smd rect (at -10.65 -2.6) (size 1.5 0.25) (layers F.Cu F.Mask F.Paste))
  (pad 17 smd rect (at -10.65 -2.2) (size 1.5 0.25) (layers F.Cu F.Mask F.Paste))
  (pad 18 smd rect (at -10.65 -1.8) (size 1.5 0.25) (layers F.Cu F.Mask F.Paste))
  (pad 19 smd rect (at -10.65 -1.4) (size 1.5 0.25) (layers F.Cu F.Mask F.Paste))
  (pad 20 smd rect (at -10.65 -1) (size 1.5 0.25) (layers F.Cu F.Mask F.Paste))
  (pad 21 smd rect (at -10.65 -0.6) (size 1.5 0.25) (layers F.Cu F.Mask F.Paste))
  (pad 22 smd rect (at -10.65 -0.2) (size 1.5 0.25) (layers F.Cu F.Mask F.Paste))
  (pad 23 smd rect (at -10.65 0.2) (size 1.5 0.25) (layers F.Cu F.Mask F.Paste))
  (pad 24 smd rect (at -10.65 0.6) (size 1.5 0.25) (layers F.Cu F.Mask F.Paste))
  (pad 25 smd rect (at -10.65 1) (size 1.5 0.25) (layers F.Cu F.Mask F.Paste))
  (pad 26 smd rect (at -10.65 1.4) (size 1.5 0.25) (layers F.Cu F.Mask F.Paste))
  (pad 27 smd rect (at -10.65 1.8) (size 1.5 0.25) (layers F.Cu F.Mask F.Paste))
  (pad 28 smd rect (at -10.65 2.2) (size 1.5 0.25) (layers F.Cu F.Mask F.Paste))
  (pad 29 smd rect (at -10.65 2.6) (size 1.5 0.25) (layers F.Cu F.Mask F.Paste))
  (pad 30 smd rect (at -10.65 3) (size 1.5 0.25) (layers F.Cu F.Mask F.Paste))
  (pad 31 smd rect (at -10.65 3.4) (size 1.5 0.25) (layers F.Cu F.Mask F.Paste))
  (pad 32 smd rect (at -10.65 3.8) (size 1.5 0.25) (layers F.Cu F.Mask F.Paste))
  (pad 33 smd rect (at -10.65 4.2) (size 1.5 0.25) (layers F.Cu F.Mask F.Paste))
  (pad 34 smd rect (at -10.65 4.6) (size 1.5 0.25) (layers F.Cu F.Mask F.Paste))
  (pad 35 smd rect (at -10.65 5) (size 1.5 0.25) (layers F.Cu F.Mask F.Paste))
  (pad 36 smd rect (at -10.65 5.4) (size 1.5 0.25) (layers F.Cu F.Mask F.Paste))
  (pad 37 smd rect (at -10.65 5.8) (size 1.5 0.25) (layers F.Cu F.Mask F.Paste))
  (pad 38 smd rect (at -10.65 6.2) (size 1.5 0.25) (layers F.Cu F.Mask F.Paste))
  (pad 39 smd rect (at -10.65 6.6) (size 1.5 0.25) (layers F.Cu F.Mask F.Paste))
  (pad 40 smd rect (at -10.65 7) (size 1.5 0.25) (layers F.Cu F.Mask F.Paste))
  (pad 41 smd rect (at -10.65 7.4) (size 1.5 0.25) (layers F.Cu F.Mask F.Paste))
  (pad 42 smd rect (at -10.65 7.8) (size 1.5 0.25) (layers F.Cu F.Mask F.Paste))
  (pad 43 smd rect (at -10.65 8.2) (size 1.5 0.25) (layers F.Cu F.Mask F.Paste))
  (pad 44 smd rect (at -10.65 8.6) (size 1.5 0.25) (layers F.Cu F.Mask F.Paste))
  (pad 45 smd rect (at -8.6 10.65) (size 0.25 1.5) (layers F.Cu F.Mask F.Paste))
  (pad 46 smd rect (at -8.2 10.65) (size 0.25 1.5) (layers F.Cu F.Mask F.Paste))
  (pad 47 smd rect (at -7.8 10.65) (size 0.25 1.5) (layers F.Cu F.Mask F.Paste))
  (pad 48 smd rect (at -7.4 10.65) (size 0.25 1.5) (layers F.Cu F.Mask F.Paste))
  (pad 49 smd rect (at -7 10.65) (size 0.25 1.5) (layers F.Cu F.Mask F.Paste))
  (pad 50 smd rect (at -6.6 10.65) (size 0.25 1.5) (layers F.Cu F.Mask F.Paste))
  (pad 51 smd rect (at -6.2 10.65) (size 0.25 1.5) (layers F.Cu F.Mask F.Paste))
  (pad 52 smd rect (at -5.8 10.65) (size 0.25 1.5) (layers F.Cu F.Mask F.Paste))
  (pad 53 smd rect (at -5.4 10.65) (size 0.25 1.5) (layers F.Cu F.Mask F.Paste))
  (pad 54 smd rect (at -5 10.65) (size 0.25 1.5) (layers F.Cu F.Mask F.Paste))
  (pad 55 smd rect (at -4.6 10.65) (size 0.25 1.5) (layers F.Cu F.Mask F.Paste))
  (pad 56 smd rect (at -4.2 10.65) (size 0.25 1.5) (layers F.Cu F.Mask F.Paste))
  (pad 57 smd rect (at -3.8 10.65) (size 0.25 1.5) (layers F.Cu F.Mask F.Paste))
  (pad 58 smd rect (at -3.4 10.65) (size 0.25 1.5) (layers F.Cu F.Mask F.Paste))
  (pad 59 smd rect (at -3 10.65) (size 0.25 1.5) (layers F.Cu F.Mask F.Paste))
  (pad 60 smd rect (at -2.6 10.65) (size 0.25 1.5) (layers F.Cu F.Mask F.Paste))
  (pad 61 smd rect (at -2.2 10.65) (size 0.25 1.5) (layers F.Cu F.Mask F.Paste))
  (pad 62 smd rect (at -1.8 10.65) (size 0.25 1.5) (layers F.Cu F.Mask F.Paste))
  (pad 63 smd rect (at -1.4 10.65) (size 0.25 1.5) (layers F.Cu F.Mask F.Paste))
  (pad 64 smd rect (at -1 10.65) (size 0.25 1.5) (layers F.Cu F.Mask F.Paste))
  (pad 65 smd rect (at -0.6 10.65) (size 0.25 1.5) (layers F.Cu F.Mask F.Paste))
  (pad 66 smd rect (at -0.2 10.65) (size 0.25 1.5) (layers F.Cu F.Mask F.Paste))
  (pad 67 smd rect (at 0.2 10.65) (size 0.25 1.5) (layers F.Cu F.Mask F.Paste))
  (pad 68 smd rect (at 0.6 10.65) (size 0.25 1.5) (layers F.Cu F.Mask F.Paste))
  (pad 69 smd rect (at 1 10.65) (size 0.25 1.5) (layers F.Cu F.Mask F.Paste))
  (pad 70 smd rect (at 1.4 10.65) (size 0.25 1.5) (layers F.Cu F.Mask F.Paste))
  (pad 71 smd rect (at 1.8 10.65) (size 0.25 1.5) (layers F.Cu F.Mask F.Paste))
  (pad 72 smd rect (at 2.2 10.65) (size 0.25 1.5) (layers F.Cu F.Mask F.Paste))
  (pad 73 smd rect (at 2.6 10.65) (size 0.25 1.5) (layers F.Cu F.Mask F.Paste))
  (pad 74 smd rect (at 3 10.65) (size 0.25 1.5) (layers F.Cu F.Mask F.Paste))
  (pad 75 smd rect (at 3.4 10.65) (size 0.25 1.5) (layers F.Cu F.Mask F.Paste))
  (pad 76 smd rect (at 3.8 10.65) (size 0.25 1.5) (layers F.Cu F.Mask F.Paste))
  (pad 77 smd rect (at 4.2 10.65) (size 0.25 1.5) (layers F.Cu F.Mask F.Paste))
  (pad 78 smd rect (at 4.6 10.65) (size 0.25 1.5) (layers F.Cu F.Mask F.Paste))
  (pad 79 smd rect (at 5 10.65) (size 0.25 1.5) (layers F.Cu F.Mask F.Paste))
  (pad 80 smd rect (at 5.4 10.65) (size 0.25 1.5) (layers F.Cu F.Mask F.Paste))
  (pad 81 smd rect (at 5.8 10.65) (size 0.25 1.5) (layers F.Cu F.Mask F.Paste))
  (pad 82 smd rect (at 6.2 10.65) (size 0.25 1.5) (layers F.Cu F.Mask F.Paste))
  (pad 83 smd rect (at 6.6 10.65) (size 0.25 1.5) (layers F.Cu F.Mask F.Paste))
  (pad 84 smd rect (at 7 10.65) (size 0.25 1.5) (layers F.Cu F.Mask F.Paste))
  (pad 85 smd rect (at 7.4 10.65) (size 0.25 1.5) (layers F.Cu F.Mask F.Paste))
  (pad 86 smd rect (at 7.8 10.65) (size 0.25 1.5) (layers F.Cu F.Mask F.Paste))
  (pad 87 smd rect (at 8.2 10.65) (size 0.25 1.5) (layers F.Cu F.Mask F.Paste))
  (pad 88 smd rect (at 8.6 10.65) (size 0.25 1.5) (layers F.Cu F.Mask F.Paste))
  (pad 89 smd rect (at 10.65 8.6) (size 1.5 0.25) (layers F.Cu F.Mask F.Paste))
  (pad 90 smd rect (at 10.65 8.2) (size 1.5 0.25) (layers F.Cu F.Mask F.Paste))
  (pad 91 smd rect (at 10.65 7.8) (size 1.5 0.25) (layers F.Cu F.Mask F.Paste))
  (pad 92 smd rect (at 10.65 7.4) (size 1.5 0.25) (layers F.Cu F.Mask F.Paste))
  (pad 93 smd rect (at 10.65 7) (size 1.5 0.25) (layers F.Cu F.Mask F.Paste))
  (pad 94 smd rect (at 10.65 6.6) (size 1.5 0.25) (layers F.Cu F.Mask F.Paste))
  (pad 95 smd rect (at 10.65 6.2) (size 1.5 0.25) (layers F.Cu F.Mask F.Paste))
  (pad 96 smd rect (at 10.65 5.8) (size 1.5 0.25) (layers F.Cu F.Mask F.Paste))
  (pad 97 smd rect (at 10.65 5.4) (size 1.5 0.25) (layers F.Cu F.Mask F.Paste))
  (pad 98 smd rect (at 10.65 5) (size 1.5 0.25) (layers F.Cu F.Mask F.Paste))
  (pad 99 smd rect (at 10.65 4.6) (size 1.5 0.25) (layers F.Cu F.Mask F.Paste))
  (pad 100 smd rect (at 10.65 4.2) (size 1.5 0.25) (layers F.Cu F.Mask F.Paste))
  (pad 101 smd rect (at 10.65 3.8) (size 1.5 0.25) (layers F.Cu F.Mask F.Paste))
  (pad 102 smd rect (at 10.65 3.4) (size 1.5 0.25) (layers F.Cu F.Mask F.Paste))
  (pad 103 smd rect (at 10.65 3) (size 1.5 0.25) (layers F.Cu F.Mask F.Paste))
  (pad 104 smd rect (at 10.65 2.6) (size 1.5 0.25) (layers F.Cu F.Mask F.Paste))
  (pad 105 smd rect (at 10.65 2.2) (size 1.5 0.25) (layers F.Cu F.Mask F.Paste))
  (pad 106 smd rect (at 10.65 1.8) (size 1.5 0.25) (layers F.Cu F.Mask F.Paste))
  (pad 107 smd rect (at 10.65 1.4) (size 1.5 0.25) (layers F.Cu F.Mask F.Paste))
  (pad 108 smd rect (at 10.65 1) (size 1.5 0.25) (layers F.Cu F.Mask F.Paste))
  (pad 109 smd rect (at 10.65 0.6) (size 1.5 0.25) (layers F.Cu F.Mask F.Paste))
  (pad 110 smd rect (at 10.65 0.2) (size 1.5 0.25) (layers F.Cu F.Mask F.Paste))
  (pad 111 smd rect (at 10.65 -0.2) (size 1.5 0.25) (layers F.Cu F.Mask F.Paste))
  (pad 112 smd rect (at 10.65 -0.6) (size 1.5 0.25) (layers F.Cu F.Mask F.Paste))
  (pad 113 smd rect (at 10.65 -1) (size 1.5 0.25) (layers F.Cu F.Mask F.Paste))
  (pad 114 smd rect (at 10.65 -1.4) (size 1.5 0.25) (layers F.Cu F.Mask F.Paste))
  (pad 115 smd rect (at 10.65 -1.8) (size 1.5 0.25) (layers F.Cu F.Mask F.Paste))
  (pad 116 smd rect (at 10.65 -2.2) (size 1.5 0.25) (layers F.Cu F.Mask F.Paste))
  (pad 117 smd rect (at 10.65 -2.6) (size 1.5 0.25) (layers F.Cu F.Mask F.Paste))
  (pad 118 smd rect (at 10.65 -3) (size 1.5 0.25) (layers F.Cu F.Mask F.Paste))
  (pad 119 smd rect (at 10.65 -3.4) (size 1.5 0.25) (layers F.Cu F.Mask F.Paste))
  (pad 120 smd rect (at 10.65 -3.8) (size 1.5 0.25) (layers F.Cu F.Mask F.Paste))
  (pad 121 smd rect (at 10.65 -4.2) (size 1.5 0.25) (layers F.Cu F.Mask F.Paste))
  (pad 122 smd rect (at 10.65 -4.6) (size 1.5 0.25) (layers F.Cu F.Mask F.Paste))
  (pad 123 smd rect (at 10.65 -5) (size 1.5 0.25) (layers F.Cu F.Mask F.Paste))
  (pad 124 smd rect (at 10.65 -5.4) (size 1.5 0.25) (layers F.Cu F.Mask F.Paste))
  (pad 125 smd rect (at 10.65 -5.8) (size 1.5 0.25) (layers F.Cu F.Mask F.Paste))
  (pad 126 smd rect (at 10.65 -6.2) (size 1.5 0.25) (layers F.Cu F.Mask F.Paste))
  (pad 127 smd rect (at 10.65 -6.6) (size 1.5 0.25) (layers F.Cu F.Mask F.Paste))
  (pad 128 smd rect (at 10.65 -7) (size 1.5 0.25) (layers F.Cu F.Mask F.Paste))
  (pad 129 smd rect (at 10.65 -7.4) (size 1.5 0.25) (layers F.Cu F.Mask F.Paste))
  (pad 130 smd rect (at 10.65 -7.8) (size 1.5 0.25) (layers F.Cu F.Mask F.Paste))
  (pad 131 smd rect (at 10.65 -8.2) (size 1.5 0.25) (layers F.Cu F.Mask F.Paste))
  (pad 132 smd rect (at 10.65 -8.6) (size 1.5 0.25) (layers F.Cu F.Mask F.Paste))
  (pad 133 smd rect (at 8.6 -10.65) (size 0.25 1.5) (layers F.Cu F.Mask F.Paste))
  (pad 134 smd rect (at 8.2 -10.65) (size 0.25 1.5) (layers F.Cu F.Mask F.Paste))
  (pad 135 smd rect (at 7.8 -10.65) (size 0.25 1.5) (layers F.Cu F.Mask F.Paste))
  (pad 136 smd rect (at 7.4 -10.65) (size 0.25 1.5) (layers F.Cu F.Mask F.Paste))
  (pad 137 smd rect (at 7 -10.65) (size 0.25 1.5) (layers F.Cu F.Mask F.Paste))
  (pad 138 smd rect (at 6.6 -10.65) (size 0.25 1.5) (layers F.Cu F.Mask F.Paste))
  (pad 139 smd rect (at 6.2 -10.65) (size 0.25 1.5) (layers F.Cu F.Mask F.Paste))
  (pad 140 smd rect (at 5.8 -10.65) (size 0.25 1.5) (layers F.Cu F.Mask F.Paste))
  (pad 141 smd rect (at 5.4 -10.65) (size 0.25 1.5) (layers F.Cu F.Mask F.Paste))
  (pad 142 smd rect (at 5 -10.65) (size 0.25 1.5) (layers F.Cu F.Mask F.Paste))
  (pad 143 smd rect (at 4.6 -10.65) (size 0.25 1.5) (layers F.Cu F.Mask F.Paste))
  (pad 144 smd rect (at 4.2 -10.65) (size 0.25 1.5) (layers F.Cu F.Mask F.Paste))
  (pad 145 smd rect (at 3.8 -10.65) (size 0.25 1.5) (layers F.Cu F.Mask F.Paste))
  (pad 146 smd rect (at 3.4 -10.65) (size 0.25 1.5) (layers F.Cu F.Mask F.Paste))
  (pad 147 smd rect (at 3 -10.65) (size 0.25 1.5) (layers F.Cu F.Mask F.Paste))
  (pad 148 smd rect (at 2.6 -10.65) (size 0.25 1.5) (layers F.Cu F.Mask F.Paste))
  (pad 149 smd rect (at 2.2 -10.65) (size 0.25 1.5) (layers F.Cu F.Mask F.Paste))
  (pad 150 smd rect (at 1.8 -10.65) (size 0.25 1.5) (layers F.Cu F.Mask F.Paste))
  (pad 151 smd rect (at 1.4 -10.65) (size 0.25 1.5) (layers F.Cu F.Mask F.Paste))
  (pad 152 smd rect (at 1 -10.65) (size 0.25 1.5) (layers F.Cu F.Mask F.Paste))
  (pad 153 smd rect (at 0.6 -10.65) (size 0.25 1.5) (layers F.Cu F.Mask F.Paste))
  (pad 154 smd rect (at 0.2 -10.65) (size 0.25 1.5) (layers F.Cu F.Mask F.Paste))
  (pad 155 smd rect (at -0.2 -10.65) (size 0.25 1.5) (layers F.Cu F.Mask F.Paste))
  (pad 156 smd rect (at -0.6 -10.65) (size 0.25 1.5) (layers F.Cu F.Mask F.Paste))
  (pad 157 smd rect (at -1 -10.65) (size 0.25 1.5) (layers F.Cu F.Mask F.Paste))
  (pad 158 smd rect (at -1.4 -10.65) (size 0.25 1.5) (layers F.Cu F.Mask F.Paste))
  (pad 159 smd rect (at -1.8 -10.65) (size 0.25 1.5) (layers F.Cu F.Mask F.Paste))
  (pad 160 smd rect (at -2.2 -10.65) (size 0.25 1.5) (layers F.Cu F.Mask F.Paste))
  (pad 161 smd rect (at -2.6 -10.65) (size 0.25 1.5) (layers F.Cu F.Mask F.Paste))
  (pad 162 smd rect (at -3 -10.65) (size 0.25 1.5) (layers F.Cu F.Mask F.Paste))
  (pad 163 smd rect (at -3.4 -10.65) (size 0.25 1.5) (layers F.Cu F.Mask F.Paste))
  (pad 164 smd rect (at -3.8 -10.65) (size 0.25 1.5) (layers F.Cu F.Mask F.Paste))
  (pad 165 smd rect (at -4.2 -10.65) (size 0.25 1.5) (layers F.Cu F.Mask F.Paste))
  (pad 166 smd rect (at -4.6 -10.65) (size 0.25 1.5) (layers F.Cu F.Mask F.Paste))
  (pad 167 smd rect (at -5 -10.65) (size 0.25 1.5) (layers F.Cu F.Mask F.Paste))
  (pad 168 smd rect (at -5.4 -10.65) (size 0.25 1.5) (layers F.Cu F.Mask F.Paste))
  (pad 169 smd rect (at -5.8 -10.65) (size 0.25 1.5) (layers F.Cu F.Mask F.Paste))
  (pad 170 smd rect (at -6.2 -10.65) (size 0.25 1.5) (layers F.Cu F.Mask F.Paste))
  (pad 171 smd rect (at -6.6 -10.65) (size 0.25 1.5) (layers F.Cu F.Mask F.Paste))
  (pad 172 smd rect (at -7 -10.65) (size 0.25 1.5) (layers F.Cu F.Mask F.Paste))
  (pad 173 smd rect (at -7.4 -10.65) (size 0.25 1.5) (layers F.Cu F.Mask F.Paste))
  (pad 174 smd rect (at -7.8 -10.65) (size 0.25 1.5) (layers F.Cu F.Mask F.Paste))
  (pad 175 smd rect (at -8.2 -10.65) (size 0.25 1.5) (layers F.Cu F.Mask F.Paste))
  (pad 176 smd rect (at -8.6 -10.65) (size 0.25 1.5) (layers F.Cu F.Mask F.Paste))
  (fp_text user %R (at 0 0) (layer F.Fab)
    (effects (font (size 1 1) (thickness 0.15)))
  )
  (model ${KIPRJMOD}/kicad_libs_k/models_k.3d/Package_QFP_k.3dshapes/VQFP-176_20x20mm_P0.4mm_k.wrl
    (at (xyz 0 0 0))
    (scale (xyz 1 1 1))
    (rotate (xyz 0 0 0))
  )
)