(module JAE_LY20-28P-DT1_2x14_P2.00mm_Vertical (layer F.Cu) (tedit 5A211704)
  (descr "Molex LY 20 series connector, LY20-28P-DT1, 14 Circuits (http://www.jae.com/z-en/pdf_download_exec.cfm?param=SJ103130.pdf), generated with kicad-footprint-generator")
  (tags "connector JAE  side entry")
  (fp_text reference REF** (at 1 -3) (layer F.SilkS)
    (effects (font (size 1 1) (thickness 0.15)))
  )
  (fp_text value JAE_LY20-28P-DT1_2x14_P2.00mm_Vertical (at 1 29) (layer F.Fab)
    (effects (font (size 1 1) (thickness 0.15)))
  )
  (fp_line (start -1.65 -1.8) (end -1.65 27.8) (layer F.Fab) (width 0.1))
  (fp_line (start -1.65 27.8) (end 3.65 27.8) (layer F.Fab) (width 0.1))
  (fp_line (start 3.65 27.8) (end 3.65 -1.8) (layer F.Fab) (width 0.1))
  (fp_line (start 3.65 -1.8) (end -1.65 -1.8) (layer F.Fab) (width 0.1))
  (fp_line (start -1.76 -1.91) (end -1.76 27.91) (layer F.SilkS) (width 0.12))
  (fp_line (start -1.76 27.91) (end 3.76 27.91) (layer F.SilkS) (width 0.12))
  (fp_line (start 3.76 27.91) (end 3.76 -1.91) (layer F.SilkS) (width 0.12))
  (fp_line (start 3.76 -1.91) (end -1.76 -1.91) (layer F.SilkS) (width 0.12))
  (fp_line (start 1.5 -1.91) (end 1.5 -1.3) (layer F.SilkS) (width 0.12))
  (fp_line (start 1.5 -1.3) (end -1.1 -1.3) (layer F.SilkS) (width 0.12))
  (fp_line (start -1.1 -1.3) (end -1.1 2.3) (layer F.SilkS) (width 0.12))
  (fp_line (start -1.1 2.3) (end -1.76 2.3) (layer F.SilkS) (width 0.12))
  (fp_line (start 1.5 27.91) (end 1.5 27.3) (layer F.SilkS) (width 0.12))
  (fp_line (start 1.5 27.3) (end -1.1 27.3) (layer F.SilkS) (width 0.12))
  (fp_line (start -1.1 27.3) (end -1.1 23.7) (layer F.SilkS) (width 0.12))
  (fp_line (start -1.1 23.7) (end -1.76 23.7) (layer F.SilkS) (width 0.12))
  (fp_line (start 3.76 2.3) (end 3.1 2.3) (layer F.SilkS) (width 0.12))
  (fp_line (start 3.76 23.7) (end 3.1 23.7) (layer F.SilkS) (width 0.12))
  (fp_line (start 2.5 -1.91) (end 2.5 -1.3) (layer F.SilkS) (width 0.12))
  (fp_line (start 2.5 -1.3) (end 3.1 -1.3) (layer F.SilkS) (width 0.12))
  (fp_line (start 3.1 -1.3) (end 3.1 4) (layer F.SilkS) (width 0.12))
  (fp_line (start 3.1 4) (end 3.76 4) (layer F.SilkS) (width 0.12))
  (fp_line (start 2.5 27.91) (end 2.5 27.3) (layer F.SilkS) (width 0.12))
  (fp_line (start 2.5 27.3) (end 3.1 27.3) (layer F.SilkS) (width 0.12))
  (fp_line (start 3.1 27.3) (end 3.1 22) (layer F.SilkS) (width 0.12))
  (fp_line (start 3.1 22) (end 3.76 22) (layer F.SilkS) (width 0.12))
  (fp_line (start 0.35 -2.21) (end -2.06 -2.21) (layer F.SilkS) (width 0.12))
  (fp_line (start -2.06 -2.21) (end -2.06 0.2) (layer F.SilkS) (width 0.12))
  (fp_line (start -1.65 0.5) (end -0.942893 0) (layer F.Fab) (width 0.1))
  (fp_line (start -0.942893 0) (end -1.65 -0.5) (layer F.Fab) (width 0.1))
  (fp_line (start -2.15 -2.3) (end -2.15 28.3) (layer F.CrtYd) (width 0.05))
  (fp_line (start -2.15 28.3) (end 4.15 28.3) (layer F.CrtYd) (width 0.05))
  (fp_line (start 4.15 28.3) (end 4.15 -2.3) (layer F.CrtYd) (width 0.05))
  (fp_line (start 4.15 -2.3) (end -2.15 -2.3) (layer F.CrtYd) (width 0.05))
  (pad a1 thru_hole circle (at 0 0) (size 1.2 1.2) (drill 0.8) (layers *.Cu *.Mask))
  (pad b1 thru_hole circle (at 2 0) (size 1.2 1.2) (drill 0.8) (layers *.Cu *.Mask))
  (pad a2 thru_hole circle (at 0 2) (size 1.2 1.2) (drill 0.8) (layers *.Cu *.Mask))
  (pad b2 thru_hole circle (at 2 2) (size 1.2 1.2) (drill 0.8) (layers *.Cu *.Mask))
  (pad a3 thru_hole circle (at 0 4) (size 1.2 1.2) (drill 0.8) (layers *.Cu *.Mask))
  (pad b3 thru_hole circle (at 2 4) (size 1.2 1.2) (drill 0.8) (layers *.Cu *.Mask))
  (pad a4 thru_hole circle (at 0 6) (size 1.2 1.2) (drill 0.8) (layers *.Cu *.Mask))
  (pad b4 thru_hole circle (at 2 6) (size 1.2 1.2) (drill 0.8) (layers *.Cu *.Mask))
  (pad a5 thru_hole circle (at 0 8) (size 1.2 1.2) (drill 0.8) (layers *.Cu *.Mask))
  (pad b5 thru_hole circle (at 2 8) (size 1.2 1.2) (drill 0.8) (layers *.Cu *.Mask))
  (pad a6 thru_hole circle (at 0 10) (size 1.2 1.2) (drill 0.8) (layers *.Cu *.Mask))
  (pad b6 thru_hole circle (at 2 10) (size 1.2 1.2) (drill 0.8) (layers *.Cu *.Mask))
  (pad a7 thru_hole circle (at 0 12) (size 1.2 1.2) (drill 0.8) (layers *.Cu *.Mask))
  (pad b7 thru_hole circle (at 2 12) (size 1.2 1.2) (drill 0.8) (layers *.Cu *.Mask))
  (pad a8 thru_hole circle (at 0 14) (size 1.2 1.2) (drill 0.8) (layers *.Cu *.Mask))
  (pad b8 thru_hole circle (at 2 14) (size 1.2 1.2) (drill 0.8) (layers *.Cu *.Mask))
  (pad a9 thru_hole circle (at 0 16) (size 1.2 1.2) (drill 0.8) (layers *.Cu *.Mask))
  (pad b9 thru_hole circle (at 2 16) (size 1.2 1.2) (drill 0.8) (layers *.Cu *.Mask))
  (pad a10 thru_hole circle (at 0 18) (size 1.2 1.2) (drill 0.8) (layers *.Cu *.Mask))
  (pad b10 thru_hole circle (at 2 18) (size 1.2 1.2) (drill 0.8) (layers *.Cu *.Mask))
  (pad a11 thru_hole circle (at 0 20) (size 1.2 1.2) (drill 0.8) (layers *.Cu *.Mask))
  (pad b11 thru_hole circle (at 2 20) (size 1.2 1.2) (drill 0.8) (layers *.Cu *.Mask))
  (pad a12 thru_hole circle (at 0 22) (size 1.2 1.2) (drill 0.8) (layers *.Cu *.Mask))
  (pad b12 thru_hole circle (at 2 22) (size 1.2 1.2) (drill 0.8) (layers *.Cu *.Mask))
  (pad a13 thru_hole circle (at 0 24) (size 1.2 1.2) (drill 0.8) (layers *.Cu *.Mask))
  (pad b13 thru_hole circle (at 2 24) (size 1.2 1.2) (drill 0.8) (layers *.Cu *.Mask))
  (pad a14 thru_hole circle (at 0 26) (size 1.2 1.2) (drill 0.8) (layers *.Cu *.Mask))
  (pad b14 thru_hole circle (at 2 26) (size 1.2 1.2) (drill 0.8) (layers *.Cu *.Mask))
  (fp_text user %R (at 2.95 13 90) (layer F.Fab)
    (effects (font (size 1 1) (thickness 0.15)))
  )
  (model ${KIPRJMOD}/kicad_libs_k/models_k.3d/Connector_JAE_k.3dshapes/JAE_LY20-28P-DT1_2x14_P2.00mm_Vertical_k.wrl
    (at (xyz 0 0 0))
    (scale (xyz 1 1 1))
    (rotate (xyz 0 0 0))
  )
)