(module JAE_LY20-38P-DLT1_2x19_P2.00mm_Horizontal (layer F.Cu) (tedit 5A212571)
  (descr "Molex LY 20 series connector, LY20-38P-DLT1, 19 Circuits (http://www.jae.com/z-en/pdf_download_exec.cfm?param=SJ038187.pdf), generated with kicad-footprint-generator")
  (tags "connector JAE  top entry")
  (fp_text reference REF** (at 3.2 -3) (layer F.SilkS)
    (effects (font (size 1 1) (thickness 0.15)))
  )
  (fp_text value JAE_LY20-38P-DLT1_2x19_P2.00mm_Horizontal (at 3.2 39) (layer F.Fab)
    (effects (font (size 1 1) (thickness 0.15)))
  )
  (fp_line (start -0.6 -1.8) (end -0.6 37.8) (layer F.Fab) (width 0.1))
  (fp_line (start -0.6 37.8) (end 7 37.8) (layer F.Fab) (width 0.1))
  (fp_line (start 7 37.8) (end 7 -1.8) (layer F.Fab) (width 0.1))
  (fp_line (start 7 -1.8) (end -0.6 -1.8) (layer F.Fab) (width 0.1))
  (fp_line (start -0.71 36.485283) (end -0.71 37.91) (layer F.SilkS) (width 0.12))
  (fp_line (start -0.71 37.91) (end 7.11 37.91) (layer F.SilkS) (width 0.12))
  (fp_line (start 7.11 37.91) (end 7.11 33.7) (layer F.SilkS) (width 0.12))
  (fp_line (start 7.11 33.7) (end 4.2 33.7) (layer F.SilkS) (width 0.12))
  (fp_line (start 4.2 33.7) (end 4.2 18) (layer F.SilkS) (width 0.12))
  (fp_line (start -0.71 -0.485283) (end -0.71 -1.91) (layer F.SilkS) (width 0.12))
  (fp_line (start -0.71 -1.91) (end 7.11 -1.91) (layer F.SilkS) (width 0.12))
  (fp_line (start 7.11 -1.91) (end 7.11 2.3) (layer F.SilkS) (width 0.12))
  (fp_line (start 7.11 2.3) (end 4.2 2.3) (layer F.SilkS) (width 0.12))
  (fp_line (start 4.2 2.3) (end 4.2 18) (layer F.SilkS) (width 0.12))
  (fp_line (start -0.71 0.485283) (end -0.71 1.514717) (layer F.SilkS) (width 0.12))
  (fp_line (start -0.71 2.485283) (end -0.71 3.514717) (layer F.SilkS) (width 0.12))
  (fp_line (start -0.71 4.485283) (end -0.71 5.514717) (layer F.SilkS) (width 0.12))
  (fp_line (start -0.71 6.485283) (end -0.71 7.514717) (layer F.SilkS) (width 0.12))
  (fp_line (start -0.71 8.485283) (end -0.71 9.514717) (layer F.SilkS) (width 0.12))
  (fp_line (start -0.71 10.485283) (end -0.71 11.514717) (layer F.SilkS) (width 0.12))
  (fp_line (start -0.71 12.485283) (end -0.71 13.514717) (layer F.SilkS) (width 0.12))
  (fp_line (start -0.71 14.485283) (end -0.71 15.514717) (layer F.SilkS) (width 0.12))
  (fp_line (start -0.71 16.485283) (end -0.71 17.514717) (layer F.SilkS) (width 0.12))
  (fp_line (start -0.71 18.485283) (end -0.71 19.514717) (layer F.SilkS) (width 0.12))
  (fp_line (start -0.71 20.485283) (end -0.71 21.514717) (layer F.SilkS) (width 0.12))
  (fp_line (start -0.71 22.485283) (end -0.71 23.514717) (layer F.SilkS) (width 0.12))
  (fp_line (start -0.71 24.485283) (end -0.71 25.514717) (layer F.SilkS) (width 0.12))
  (fp_line (start -0.71 26.485283) (end -0.71 27.514717) (layer F.SilkS) (width 0.12))
  (fp_line (start -0.71 28.485283) (end -0.71 29.514717) (layer F.SilkS) (width 0.12))
  (fp_line (start -0.71 30.485283) (end -0.71 31.514717) (layer F.SilkS) (width 0.12))
  (fp_line (start -0.71 32.485283) (end -0.71 33.514717) (layer F.SilkS) (width 0.12))
  (fp_line (start -0.71 34.485283) (end -0.71 35.514717) (layer F.SilkS) (width 0.12))
  (fp_line (start 6.2 33.7) (end 6.2 32.25) (layer F.SilkS) (width 0.12))
  (fp_line (start 6.2 2.3) (end 6.2 3.75) (layer F.SilkS) (width 0.12))
  (fp_line (start 4.2 3.75) (end 6.733333 3.75) (layer F.SilkS) (width 0.12))
  (fp_line (start 6.733333 3.75) (end 6.9 4) (layer F.SilkS) (width 0.12))
  (fp_line (start 6.9 4) (end 6.733333 4.25) (layer F.SilkS) (width 0.12))
  (fp_line (start 6.733333 4.25) (end 4.2 4.25) (layer F.SilkS) (width 0.12))
  (fp_line (start 4.2 5.75) (end 6.733333 5.75) (layer F.SilkS) (width 0.12))
  (fp_line (start 6.733333 5.75) (end 6.9 6) (layer F.SilkS) (width 0.12))
  (fp_line (start 6.9 6) (end 6.733333 6.25) (layer F.SilkS) (width 0.12))
  (fp_line (start 6.733333 6.25) (end 4.2 6.25) (layer F.SilkS) (width 0.12))
  (fp_line (start 4.2 7.75) (end 6.733333 7.75) (layer F.SilkS) (width 0.12))
  (fp_line (start 6.733333 7.75) (end 6.9 8) (layer F.SilkS) (width 0.12))
  (fp_line (start 6.9 8) (end 6.733333 8.25) (layer F.SilkS) (width 0.12))
  (fp_line (start 6.733333 8.25) (end 4.2 8.25) (layer F.SilkS) (width 0.12))
  (fp_line (start 4.2 9.75) (end 6.733333 9.75) (layer F.SilkS) (width 0.12))
  (fp_line (start 6.733333 9.75) (end 6.9 10) (layer F.SilkS) (width 0.12))
  (fp_line (start 6.9 10) (end 6.733333 10.25) (layer F.SilkS) (width 0.12))
  (fp_line (start 6.733333 10.25) (end 4.2 10.25) (layer F.SilkS) (width 0.12))
  (fp_line (start 4.2 11.75) (end 6.733333 11.75) (layer F.SilkS) (width 0.12))
  (fp_line (start 6.733333 11.75) (end 6.9 12) (layer F.SilkS) (width 0.12))
  (fp_line (start 6.9 12) (end 6.733333 12.25) (layer F.SilkS) (width 0.12))
  (fp_line (start 6.733333 12.25) (end 4.2 12.25) (layer F.SilkS) (width 0.12))
  (fp_line (start 4.2 13.75) (end 6.733333 13.75) (layer F.SilkS) (width 0.12))
  (fp_line (start 6.733333 13.75) (end 6.9 14) (layer F.SilkS) (width 0.12))
  (fp_line (start 6.9 14) (end 6.733333 14.25) (layer F.SilkS) (width 0.12))
  (fp_line (start 6.733333 14.25) (end 4.2 14.25) (layer F.SilkS) (width 0.12))
  (fp_line (start 4.2 15.75) (end 6.733333 15.75) (layer F.SilkS) (width 0.12))
  (fp_line (start 6.733333 15.75) (end 6.9 16) (layer F.SilkS) (width 0.12))
  (fp_line (start 6.9 16) (end 6.733333 16.25) (layer F.SilkS) (width 0.12))
  (fp_line (start 6.733333 16.25) (end 4.2 16.25) (layer F.SilkS) (width 0.12))
  (fp_line (start 4.2 17.75) (end 6.733333 17.75) (layer F.SilkS) (width 0.12))
  (fp_line (start 6.733333 17.75) (end 6.9 18) (layer F.SilkS) (width 0.12))
  (fp_line (start 6.9 18) (end 6.733333 18.25) (layer F.SilkS) (width 0.12))
  (fp_line (start 6.733333 18.25) (end 4.2 18.25) (layer F.SilkS) (width 0.12))
  (fp_line (start 4.2 19.75) (end 6.733333 19.75) (layer F.SilkS) (width 0.12))
  (fp_line (start 6.733333 19.75) (end 6.9 20) (layer F.SilkS) (width 0.12))
  (fp_line (start 6.9 20) (end 6.733333 20.25) (layer F.SilkS) (width 0.12))
  (fp_line (start 6.733333 20.25) (end 4.2 20.25) (layer F.SilkS) (width 0.12))
  (fp_line (start 4.2 21.75) (end 6.733333 21.75) (layer F.SilkS) (width 0.12))
  (fp_line (start 6.733333 21.75) (end 6.9 22) (layer F.SilkS) (width 0.12))
  (fp_line (start 6.9 22) (end 6.733333 22.25) (layer F.SilkS) (width 0.12))
  (fp_line (start 6.733333 22.25) (end 4.2 22.25) (layer F.SilkS) (width 0.12))
  (fp_line (start 4.2 23.75) (end 6.733333 23.75) (layer F.SilkS) (width 0.12))
  (fp_line (start 6.733333 23.75) (end 6.9 24) (layer F.SilkS) (width 0.12))
  (fp_line (start 6.9 24) (end 6.733333 24.25) (layer F.SilkS) (width 0.12))
  (fp_line (start 6.733333 24.25) (end 4.2 24.25) (layer F.SilkS) (width 0.12))
  (fp_line (start 4.2 25.75) (end 6.733333 25.75) (layer F.SilkS) (width 0.12))
  (fp_line (start 6.733333 25.75) (end 6.9 26) (layer F.SilkS) (width 0.12))
  (fp_line (start 6.9 26) (end 6.733333 26.25) (layer F.SilkS) (width 0.12))
  (fp_line (start 6.733333 26.25) (end 4.2 26.25) (layer F.SilkS) (width 0.12))
  (fp_line (start 4.2 27.75) (end 6.733333 27.75) (layer F.SilkS) (width 0.12))
  (fp_line (start 6.733333 27.75) (end 6.9 28) (layer F.SilkS) (width 0.12))
  (fp_line (start 6.9 28) (end 6.733333 28.25) (layer F.SilkS) (width 0.12))
  (fp_line (start 6.733333 28.25) (end 4.2 28.25) (layer F.SilkS) (width 0.12))
  (fp_line (start 4.2 29.75) (end 6.733333 29.75) (layer F.SilkS) (width 0.12))
  (fp_line (start 6.733333 29.75) (end 6.9 30) (layer F.SilkS) (width 0.12))
  (fp_line (start 6.9 30) (end 6.733333 30.25) (layer F.SilkS) (width 0.12))
  (fp_line (start 6.733333 30.25) (end 4.2 30.25) (layer F.SilkS) (width 0.12))
  (fp_line (start 4.2 31.75) (end 6.733333 31.75) (layer F.SilkS) (width 0.12))
  (fp_line (start 6.733333 31.75) (end 6.9 32) (layer F.SilkS) (width 0.12))
  (fp_line (start 6.9 32) (end 6.733333 32.25) (layer F.SilkS) (width 0.12))
  (fp_line (start 6.733333 32.25) (end 4.2 32.25) (layer F.SilkS) (width 0.12))
  (fp_line (start 1.4 -2.21) (end -1.01 -2.21) (layer F.SilkS) (width 0.12))
  (fp_line (start -1.01 -2.21) (end -1.01 0.2) (layer F.SilkS) (width 0.12))
  (fp_line (start -0.6 0.5) (end 0.107107 0) (layer F.Fab) (width 0.1))
  (fp_line (start 0.107107 0) (end -0.6 -0.5) (layer F.Fab) (width 0.1))
  (fp_line (start -1.1 -2.3) (end -1.1 38.3) (layer F.CrtYd) (width 0.05))
  (fp_line (start -1.1 38.3) (end 7.5 38.3) (layer F.CrtYd) (width 0.05))
  (fp_line (start 7.5 38.3) (end 7.5 -2.3) (layer F.CrtYd) (width 0.05))
  (fp_line (start 7.5 -2.3) (end -1.1 -2.3) (layer F.CrtYd) (width 0.05))
  (pad a1 thru_hole circle (at 0 0) (size 1.2 1.2) (drill 0.8) (layers *.Cu *.Mask))
  (pad b1 thru_hole circle (at 2 0) (size 1.2 1.2) (drill 0.8) (layers *.Cu *.Mask))
  (pad a2 thru_hole circle (at 0 2) (size 1.2 1.2) (drill 0.8) (layers *.Cu *.Mask))
  (pad b2 thru_hole circle (at 2 2) (size 1.2 1.2) (drill 0.8) (layers *.Cu *.Mask))
  (pad a3 thru_hole circle (at 0 4) (size 1.2 1.2) (drill 0.8) (layers *.Cu *.Mask))
  (pad b3 thru_hole circle (at 2 4) (size 1.2 1.2) (drill 0.8) (layers *.Cu *.Mask))
  (pad a4 thru_hole circle (at 0 6) (size 1.2 1.2) (drill 0.8) (layers *.Cu *.Mask))
  (pad b4 thru_hole circle (at 2 6) (size 1.2 1.2) (drill 0.8) (layers *.Cu *.Mask))
  (pad a5 thru_hole circle (at 0 8) (size 1.2 1.2) (drill 0.8) (layers *.Cu *.Mask))
  (pad b5 thru_hole circle (at 2 8) (size 1.2 1.2) (drill 0.8) (layers *.Cu *.Mask))
  (pad a6 thru_hole circle (at 0 10) (size 1.2 1.2) (drill 0.8) (layers *.Cu *.Mask))
  (pad b6 thru_hole circle (at 2 10) (size 1.2 1.2) (drill 0.8) (layers *.Cu *.Mask))
  (pad a7 thru_hole circle (at 0 12) (size 1.2 1.2) (drill 0.8) (layers *.Cu *.Mask))
  (pad b7 thru_hole circle (at 2 12) (size 1.2 1.2) (drill 0.8) (layers *.Cu *.Mask))
  (pad a8 thru_hole circle (at 0 14) (size 1.2 1.2) (drill 0.8) (layers *.Cu *.Mask))
  (pad b8 thru_hole circle (at 2 14) (size 1.2 1.2) (drill 0.8) (layers *.Cu *.Mask))
  (pad a9 thru_hole circle (at 0 16) (size 1.2 1.2) (drill 0.8) (layers *.Cu *.Mask))
  (pad b9 thru_hole circle (at 2 16) (size 1.2 1.2) (drill 0.8) (layers *.Cu *.Mask))
  (pad a10 thru_hole circle (at 0 18) (size 1.2 1.2) (drill 0.8) (layers *.Cu *.Mask))
  (pad b10 thru_hole circle (at 2 18) (size 1.2 1.2) (drill 0.8) (layers *.Cu *.Mask))
  (pad a11 thru_hole circle (at 0 20) (size 1.2 1.2) (drill 0.8) (layers *.Cu *.Mask))
  (pad b11 thru_hole circle (at 2 20) (size 1.2 1.2) (drill 0.8) (layers *.Cu *.Mask))
  (pad a12 thru_hole circle (at 0 22) (size 1.2 1.2) (drill 0.8) (layers *.Cu *.Mask))
  (pad b12 thru_hole circle (at 2 22) (size 1.2 1.2) (drill 0.8) (layers *.Cu *.Mask))
  (pad a13 thru_hole circle (at 0 24) (size 1.2 1.2) (drill 0.8) (layers *.Cu *.Mask))
  (pad b13 thru_hole circle (at 2 24) (size 1.2 1.2) (drill 0.8) (layers *.Cu *.Mask))
  (pad a14 thru_hole circle (at 0 26) (size 1.2 1.2) (drill 0.8) (layers *.Cu *.Mask))
  (pad b14 thru_hole circle (at 2 26) (size 1.2 1.2) (drill 0.8) (layers *.Cu *.Mask))
  (pad a15 thru_hole circle (at 0 28) (size 1.2 1.2) (drill 0.8) (layers *.Cu *.Mask))
  (pad b15 thru_hole circle (at 2 28) (size 1.2 1.2) (drill 0.8) (layers *.Cu *.Mask))
  (pad a16 thru_hole circle (at 0 30) (size 1.2 1.2) (drill 0.8) (layers *.Cu *.Mask))
  (pad b16 thru_hole circle (at 2 30) (size 1.2 1.2) (drill 0.8) (layers *.Cu *.Mask))
  (pad a17 thru_hole circle (at 0 32) (size 1.2 1.2) (drill 0.8) (layers *.Cu *.Mask))
  (pad b17 thru_hole circle (at 2 32) (size 1.2 1.2) (drill 0.8) (layers *.Cu *.Mask))
  (pad a18 thru_hole circle (at 0 34) (size 1.2 1.2) (drill 0.8) (layers *.Cu *.Mask))
  (pad b18 thru_hole circle (at 2 34) (size 1.2 1.2) (drill 0.8) (layers *.Cu *.Mask))
  (pad a19 thru_hole circle (at 0 36) (size 1.2 1.2) (drill 0.8) (layers *.Cu *.Mask))
  (pad b19 thru_hole circle (at 2 36) (size 1.2 1.2) (drill 0.8) (layers *.Cu *.Mask))
  (fp_text user %R (at 3.2 37.1) (layer F.Fab)
    (effects (font (size 1 1) (thickness 0.15)))
  )
  (model ${KIPRJMOD}/kicad_libs_k/models_k.3d/Connector_JAE_k.3dshapes/JAE_LY20-38P-DLT1_2x19_P2.00mm_Horizontal_k.wrl
    (at (xyz 0 0 0))
    (scale (xyz 1 1 1))
    (rotate (xyz 0 0 0))
  )
)