(module JAE_LY20-10P-DLT1_2x05_P2.00mm_Horizontal (layer F.Cu) (tedit 5A212570)
  (descr "Molex LY 20 series connector, LY20-10P-DLT1, 5 Circuits (http://www.jae.com/z-en/pdf_download_exec.cfm?param=SJ038187.pdf), generated with kicad-footprint-generator")
  (tags "connector JAE  top entry")
  (fp_text reference REF** (at 3.2 -3) (layer F.SilkS)
    (effects (font (size 1 1) (thickness 0.15)))
  )
  (fp_text value JAE_LY20-10P-DLT1_2x05_P2.00mm_Horizontal (at 3.2 11) (layer F.Fab)
    (effects (font (size 1 1) (thickness 0.15)))
  )
  (fp_line (start -0.6 -1.8) (end -0.6 9.8) (layer F.Fab) (width 0.1))
  (fp_line (start -0.6 9.8) (end 7 9.8) (layer F.Fab) (width 0.1))
  (fp_line (start 7 9.8) (end 7 -1.8) (layer F.Fab) (width 0.1))
  (fp_line (start 7 -1.8) (end -0.6 -1.8) (layer F.Fab) (width 0.1))
  (fp_line (start -0.71 8.485283) (end -0.71 9.91) (layer F.SilkS) (width 0.12))
  (fp_line (start -0.71 9.91) (end 7.11 9.91) (layer F.SilkS) (width 0.12))
  (fp_line (start 7.11 9.91) (end 7.11 5.7) (layer F.SilkS) (width 0.12))
  (fp_line (start 7.11 5.7) (end 4.2 5.7) (layer F.SilkS) (width 0.12))
  (fp_line (start 4.2 5.7) (end 4.2 4) (layer F.SilkS) (width 0.12))
  (fp_line (start -0.71 -0.485283) (end -0.71 -1.91) (layer F.SilkS) (width 0.12))
  (fp_line (start -0.71 -1.91) (end 7.11 -1.91) (layer F.SilkS) (width 0.12))
  (fp_line (start 7.11 -1.91) (end 7.11 2.3) (layer F.SilkS) (width 0.12))
  (fp_line (start 7.11 2.3) (end 4.2 2.3) (layer F.SilkS) (width 0.12))
  (fp_line (start 4.2 2.3) (end 4.2 4) (layer F.SilkS) (width 0.12))
  (fp_line (start -0.71 0.485283) (end -0.71 1.514717) (layer F.SilkS) (width 0.12))
  (fp_line (start -0.71 2.485283) (end -0.71 3.514717) (layer F.SilkS) (width 0.12))
  (fp_line (start -0.71 4.485283) (end -0.71 5.514717) (layer F.SilkS) (width 0.12))
  (fp_line (start -0.71 6.485283) (end -0.71 7.514717) (layer F.SilkS) (width 0.12))
  (fp_line (start 4.2 3.75) (end 6.733333 3.75) (layer F.SilkS) (width 0.12))
  (fp_line (start 6.733333 3.75) (end 6.9 4) (layer F.SilkS) (width 0.12))
  (fp_line (start 6.9 4) (end 6.733333 4.25) (layer F.SilkS) (width 0.12))
  (fp_line (start 6.733333 4.25) (end 4.2 4.25) (layer F.SilkS) (width 0.12))
  (fp_line (start 1.4 -2.21) (end -1.01 -2.21) (layer F.SilkS) (width 0.12))
  (fp_line (start -1.01 -2.21) (end -1.01 0.2) (layer F.SilkS) (width 0.12))
  (fp_line (start -0.6 0.5) (end 0.107107 0) (layer F.Fab) (width 0.1))
  (fp_line (start 0.107107 0) (end -0.6 -0.5) (layer F.Fab) (width 0.1))
  (fp_line (start -1.1 -2.3) (end -1.1 10.3) (layer F.CrtYd) (width 0.05))
  (fp_line (start -1.1 10.3) (end 7.5 10.3) (layer F.CrtYd) (width 0.05))
  (fp_line (start 7.5 10.3) (end 7.5 -2.3) (layer F.CrtYd) (width 0.05))
  (fp_line (start 7.5 -2.3) (end -1.1 -2.3) (layer F.CrtYd) (width 0.05))
  (pad a1 thru_hole circle (at 0 0) (size 1.2 1.2) (drill 0.8) (layers *.Cu *.Mask))
  (pad b1 thru_hole circle (at 2 0) (size 1.2 1.2) (drill 0.8) (layers *.Cu *.Mask))
  (pad a2 thru_hole circle (at 0 2) (size 1.2 1.2) (drill 0.8) (layers *.Cu *.Mask))
  (pad b2 thru_hole circle (at 2 2) (size 1.2 1.2) (drill 0.8) (layers *.Cu *.Mask))
  (pad a3 thru_hole circle (at 0 4) (size 1.2 1.2) (drill 0.8) (layers *.Cu *.Mask))
  (pad b3 thru_hole circle (at 2 4) (size 1.2 1.2) (drill 0.8) (layers *.Cu *.Mask))
  (pad a4 thru_hole circle (at 0 6) (size 1.2 1.2) (drill 0.8) (layers *.Cu *.Mask))
  (pad b4 thru_hole circle (at 2 6) (size 1.2 1.2) (drill 0.8) (layers *.Cu *.Mask))
  (pad a5 thru_hole circle (at 0 8) (size 1.2 1.2) (drill 0.8) (layers *.Cu *.Mask))
  (pad b5 thru_hole circle (at 2 8) (size 1.2 1.2) (drill 0.8) (layers *.Cu *.Mask))
  (fp_text user %R (at 3.2 9.1) (layer F.Fab)
    (effects (font (size 1 1) (thickness 0.15)))
  )
  (model ${KIPRJMOD}/kicad_libs_k/models_k.3d/Connector_JAE_k.3dshapes/JAE_LY20-10P-DLT1_2x05_P2.00mm_Horizontal_k.wrl
    (at (xyz 0 0 0))
    (scale (xyz 1 1 1))
    (rotate (xyz 0 0 0))
  )
)