(module WS-ROSV_rev19b-416131160808 (layer F.Cu) (tedit 200000)
  (descr "WS-DISV SMD VERSION FLAT ACTUATOR WITH TOP TAPE SEALED")
  (tags "WS-DISV SMD VERSION FLAT ACTUATOR WITH TOP TAPE SEALED")
  (attr smd)
  (fp_text reference >NAME (at 0.10414 -5.97408) (layer F.SilkS)
    (effects (font (size 1.27 1.27) (thickness 0.1016)))
  )
  (fp_text value >VALUE (at 0.36322 5.70484) (layer F.SilkS)
    (effects (font (size 1.27 1.27) (thickness 0.1016)))
  )
  (fp_line (start -5.6642 -2.89814) (end -5.6642 2.89814) (layer F.SilkS) (width 0.127))
  (fp_line (start 5.6642 -2.89814) (end 5.6642 2.89814) (layer F.SilkS) (width 0.127))
  (fp_line (start -5.6642 -2.89814) (end 5.6642 -2.89814) (layer F.SilkS) (width 0.127))
  (fp_line (start -5.6642 2.89814) (end 5.6642 2.89814) (layer F.SilkS) (width 0.127))
  (fp_poly (pts (xy -5.91312 -4.59994) (xy 5.91312 -4.59994) (xy 5.91312 4.59994) (xy -5.91312 4.59994)
    (xy -5.91312 -4.59994)) (layer Dwgs.User) (width 0.127))
  (fp_circle (center -5.19938 3.39852) (end -5.19938 3.35026) (layer F.SilkS) (width 0.19812))
  (fp_text user 1 (at -4.17322 1.5494) (layer Dwgs.User)
    (effects (font (size 1.27 1.27) (thickness 0.1016)))
  )
  (pad 1 smd rect (at -4.445 3.81) (size 0.75946 1.27) (layers F.Cu F.Paste F.Mask))
  (pad 2 smd rect (at -3.175 3.81) (size 0.75946 1.27) (layers F.Cu F.Paste F.Mask))
  (pad 3 smd rect (at -1.905 3.81) (size 0.75946 1.27) (layers F.Cu F.Paste F.Mask))
  (pad 4 smd rect (at -0.635 3.81) (size 0.75946 1.27) (layers F.Cu F.Paste F.Mask))
  (pad 5 smd rect (at 0.635 3.81) (size 0.75946 1.27) (layers F.Cu F.Paste F.Mask))
  (pad 6 smd rect (at 1.905 3.81) (size 0.75946 1.27) (layers F.Cu F.Paste F.Mask))
  (pad 7 smd rect (at 3.175 3.81) (size 0.75946 1.27) (layers F.Cu F.Paste F.Mask))
  (pad 8 smd rect (at 4.445 3.81) (size 0.75946 1.27) (layers F.Cu F.Paste F.Mask))
  (pad A1 smd rect (at -4.445 -3.81) (size 0.75946 1.27) (layers F.Cu F.Paste F.Mask))
  (pad A2 smd rect (at -3.175 -3.81) (size 0.75946 1.27) (layers F.Cu F.Paste F.Mask))
  (pad A3 smd rect (at -1.905 -3.81) (size 0.75946 1.27) (layers F.Cu F.Paste F.Mask))
  (pad A4 smd rect (at -0.635 -3.81) (size 0.75946 1.27) (layers F.Cu F.Paste F.Mask))
  (pad A5 smd rect (at 0.635 -3.81) (size 0.75946 1.27) (layers F.Cu F.Paste F.Mask))
  (pad A6 smd rect (at 1.905 -3.81) (size 0.75946 1.27) (layers F.Cu F.Paste F.Mask))
  (pad A7 smd rect (at 3.175 -3.81) (size 0.75946 1.27) (layers F.Cu F.Paste F.Mask))
  (pad A8 smd rect (at 4.445 -3.81) (size 0.75946 1.27) (layers F.Cu F.Paste F.Mask))
)
