(module WS-ROSV_rev19b-431481031816 (layer F.Cu) (tedit 200000)
  (descr "WS-TSW, 6X6MM WASHABLE TACT SWITCH WITH GROUND TERMINAL, SMD VERSION, 4 PINS")
  (tags "WS-TSW, 6X6MM WASHABLE TACT SWITCH WITH GROUND TERMINAL, SMD VERSION, 4 PINS")
  (attr smd)
  (fp_text reference >NAME (at -0.29972 -4.77266) (layer F.SilkS)
    (effects (font (size 1.27 1.27) (thickness 0.1016)))
  )
  (fp_text value >VALUE (at 0.80772 4.36372) (layer F.SilkS)
    (effects (font (size 1.27 1.27) (thickness 0.1016)))
  )
  (fp_line (start -3.0988 -3.0988) (end -3.0988 3.0988) (layer Dwgs.User) (width 0.127))
  (fp_line (start -3.0988 3.0988) (end 3.0988 3.0988) (layer F.SilkS) (width 0.127))
  (fp_line (start 3.0988 3.0988) (end 3.0988 -3.0988) (layer Dwgs.User) (width 0.127))
  (fp_line (start 3.0988 -3.0988) (end -3.0988 -3.0988) (layer F.SilkS) (width 0.127))
  (fp_line (start 3.0988 -1.39954) (end 3.0988 1.39954) (layer F.SilkS) (width 0.127))
  (fp_line (start -3.0988 -0.89916) (end -3.0988 -1.39954) (layer F.SilkS) (width 0.127))
  (fp_line (start -3.0988 1.39954) (end -3.0988 0.89916) (layer F.SilkS) (width 0.127))
  (fp_poly (pts (xy -4.79806 -3.34772) (xy 4.79806 -3.34772) (xy 4.79806 3.34772) (xy -4.79806 3.34772)
    (xy -4.79806 -3.34772)) (layer Dwgs.User) (width 0.127))
  (fp_circle (center 3.59918 3.29946) (end 3.59918 3.2512) (layer F.SilkS) (width 0.19812))
  (fp_text user 1 (at 1.93294 1.86436) (layer Dwgs.User)
    (effects (font (size 1.27 1.27) (thickness 0.1016)))
  )
  (fp_text user 2 (at -0.8636 1.86436) (layer Dwgs.User)
    (effects (font (size 1.27 1.27) (thickness 0.1016)))
  )
  (fp_text user 3 (at 1.73482 -2.1336) (layer Dwgs.User)
    (effects (font (size 1.27 1.27) (thickness 0.1016)))
  )
  (fp_text user 4 (at -1.06426 -2.1336) (layer Dwgs.User)
    (effects (font (size 1.27 1.27) (thickness 0.1016)))
  )
  (pad 1 smd rect (at 3.49758 2.2479) (size 1.99898 1.29794) (layers F.Cu F.Paste F.Mask))
  (pad 2 smd rect (at -3.49758 2.2479) (size 1.99898 1.29794) (layers F.Cu F.Paste F.Mask))
  (pad 3 smd rect (at 3.49758 -2.2479) (size 1.99898 1.29794) (layers F.Cu F.Paste F.Mask))
  (pad 4 smd rect (at -3.49758 -2.2479) (size 1.99898 1.29794) (layers F.Cu F.Paste F.Mask))
  (pad GND smd rect (at -3.74904 0) (size 1.4986 1.29794) (layers F.Cu F.Paste F.Mask))
)
