(module WS-ROSV_rev19b-418117270905 (layer F.Cu) (tedit 200000)
  (descr "WS-BS 2.54 MM COMPACT THT DIP SWITCH WITH RAISED ACTUATOR, 5 POLE")
  (tags "WS-BS 2.54 MM COMPACT THT DIP SWITCH WITH RAISED ACTUATOR, 5 POLE")
  (attr virtual)
  (fp_text reference >NAME (at 0.90424 -6.40334) (layer F.SilkS)
    (effects (font (size 1.27 1.27) (thickness 0.1016)))
  )
  (fp_text value >VALUE (at 0.53848 6.2992) (layer F.SilkS)
    (effects (font (size 1.27 1.27) (thickness 0.1016)))
  )
  (fp_line (start -6.84784 -4.79806) (end 6.84784 -4.79806) (layer F.SilkS) (width 0.127))
  (fp_line (start 6.84784 -4.79806) (end 6.84784 4.79806) (layer F.SilkS) (width 0.127))
  (fp_line (start 6.84784 4.79806) (end -6.84784 4.79806) (layer F.SilkS) (width 0.127))
  (fp_line (start -6.84784 4.79806) (end -6.84784 -4.79806) (layer F.SilkS) (width 0.127))
  (fp_poly (pts (xy -7.0993 -5.04952) (xy 7.0993 -5.04952) (xy 7.0993 5.04952) (xy -7.0993 5.04952)
    (xy -7.0993 -5.04952)) (layer Dwgs.User) (width 0.127))
  (fp_circle (center -6.09854 4.39928) (end -6.09854 4.35102) (layer F.SilkS) (width 0.19812))
  (fp_text user 1 (at -4.87934 2.00914) (layer Dwgs.User)
    (effects (font (size 1.27 1.27) (thickness 0.1016)))
  )
  (pad 1 thru_hole circle (at -5.08 3.81) (size 1.30556 1.30556) (drill 0.79756) (layers *.Cu *.Paste *.Mask))
  (pad 2 thru_hole circle (at -2.54 3.81) (size 1.30556 1.30556) (drill 0.79756) (layers *.Cu *.Paste *.Mask))
  (pad 3 thru_hole circle (at 0 3.81) (size 1.30556 1.30556) (drill 0.79756) (layers *.Cu *.Paste *.Mask))
  (pad 4 thru_hole circle (at 2.54 3.81) (size 1.30556 1.30556) (drill 0.79756) (layers *.Cu *.Paste *.Mask))
  (pad 5 thru_hole circle (at 5.08 3.81) (size 1.30556 1.30556) (drill 0.79756) (layers *.Cu *.Paste *.Mask))
  (pad A1 thru_hole circle (at -5.08 -3.81) (size 1.30556 1.30556) (drill 0.79756) (layers *.Cu *.Paste *.Mask))
  (pad A2 thru_hole circle (at -2.54 -3.81) (size 1.30556 1.30556) (drill 0.79756) (layers *.Cu *.Paste *.Mask))
  (pad A3 thru_hole circle (at 0 -3.81) (size 1.30556 1.30556) (drill 0.79756) (layers *.Cu *.Paste *.Mask))
  (pad A4 thru_hole circle (at 2.54 -3.81) (size 1.30556 1.30556) (drill 0.79756) (layers *.Cu *.Paste *.Mask))
  (pad A5 thru_hole circle (at 5.08 -3.81) (size 1.30556 1.30556) (drill 0.79756) (layers *.Cu *.Paste *.Mask))
)
