(module WS-ROSV_rev19b-418117270902 (layer F.Cu) (tedit 200000)
  (descr "WS-BS 2.54 MM COMPACT THT DIP SWITCH WITH RAISED ACTUATOR, 2 POLE")
  (tags "WS-BS 2.54 MM COMPACT THT DIP SWITCH WITH RAISED ACTUATOR, 2 POLE")
  (attr virtual)
  (fp_text reference >NAME (at -0.05842 -6.40334) (layer F.SilkS)
    (effects (font (size 1.27 1.27) (thickness 0.1016)))
  )
  (fp_text value >VALUE (at 0.44958 6.1976) (layer F.SilkS)
    (effects (font (size 1.27 1.27) (thickness 0.1016)))
  )
  (fp_line (start -3.03784 -4.79806) (end 3.03784 -4.79806) (layer F.SilkS) (width 0.127))
  (fp_line (start 3.03784 -4.79806) (end 3.03784 4.79806) (layer F.SilkS) (width 0.127))
  (fp_line (start 3.03784 4.79806) (end -3.03784 4.79806) (layer F.SilkS) (width 0.127))
  (fp_line (start -3.03784 4.79806) (end -3.03784 -4.79806) (layer F.SilkS) (width 0.127))
  (fp_poly (pts (xy -3.2893 -5.04952) (xy 3.2893 -5.04952) (xy 3.2893 5.08) (xy -3.2893 5.08)
    (xy -3.2893 -5.04952)) (layer Dwgs.User) (width 0.127))
  (fp_circle (center -2.39776 4.39928) (end -2.39776 4.35102) (layer F.SilkS) (width 0.19812))
  (fp_text user 1 (at -1.1684 1.90754) (layer Dwgs.User)
    (effects (font (size 1.27 1.27) (thickness 0.1016)))
  )
  (pad 1 thru_hole circle (at -1.27 3.81) (size 1.30556 1.30556) (drill 0.79756) (layers *.Cu *.Paste *.Mask))
  (pad 2 thru_hole circle (at 1.27 3.81) (size 1.30556 1.30556) (drill 0.79756) (layers *.Cu *.Paste *.Mask))
  (pad A1 thru_hole circle (at -1.27 -3.81) (size 1.30556 1.30556) (drill 0.79756) (layers *.Cu *.Paste *.Mask))
  (pad A2 thru_hole circle (at 1.27 -3.81) (size 1.30556 1.30556) (drill 0.79756) (layers *.Cu *.Paste *.Mask))
)
