(module WS-ROSV_rev19b-418127160908 (layer F.Cu) (tedit 200000)
  (descr WS-DITV)
  (tags WS-DITV)
  (attr virtual)
  (fp_text reference >NAME (at 0.96774 -6.40842) (layer F.SilkS)
    (effects (font (size 1.27 1.27) (thickness 0.1016)))
  )
  (fp_text value >VALUE (at 1.1049 6.03758) (layer F.SilkS)
    (effects (font (size 1.27 1.27) (thickness 0.1016)))
  )
  (fp_line (start -10.6299 -3.0988) (end 10.6299 -3.0988) (layer Dwgs.User) (width 0.127))
  (fp_line (start 10.6299 -3.0988) (end 10.6299 3.0988) (layer Dwgs.User) (width 0.127))
  (fp_line (start 10.6299 3.0988) (end -10.6299 3.0988) (layer Dwgs.User) (width 0.127))
  (fp_line (start -10.6299 3.0988) (end -10.6299 -3.0988) (layer Dwgs.User) (width 0.127))
  (fp_line (start -9.398 -3.0988) (end -10.6299 -3.0988) (layer F.SilkS) (width 0.127))
  (fp_line (start -10.6299 -3.0988) (end -10.6299 3.0988) (layer F.SilkS) (width 0.127))
  (fp_line (start -10.6299 3.0988) (end -9.37768 3.0988) (layer F.SilkS) (width 0.127))
  (fp_line (start 9.47928 -3.0988) (end 10.6299 -3.0988) (layer F.SilkS) (width 0.127))
  (fp_line (start 10.6299 -3.0988) (end 10.6299 3.0988) (layer F.SilkS) (width 0.127))
  (fp_line (start 10.6299 3.0988) (end 9.3599 3.0988) (layer F.SilkS) (width 0.127))
  (fp_line (start -8.34898 -3.0988) (end -6.84784 -3.0988) (layer F.SilkS) (width 0.127))
  (fp_line (start -5.84962 -3.0988) (end -4.34848 -3.0988) (layer F.SilkS) (width 0.127))
  (fp_line (start -8.34898 3.0988) (end -6.94944 3.0988) (layer F.SilkS) (width 0.127))
  (fp_line (start -5.74802 3.0988) (end -4.34848 3.0988) (layer F.SilkS) (width 0.127))
  (fp_line (start -3.30962 -3.0988) (end -1.80848 -3.0988) (layer F.SilkS) (width 0.127))
  (fp_line (start -0.76962 -3.0988) (end 0.72898 -3.0988) (layer F.SilkS) (width 0.127))
  (fp_line (start -3.20802 3.0988) (end -1.80848 3.0988) (layer F.SilkS) (width 0.127))
  (fp_line (start -0.66802 3.0988) (end 0.72898 3.0988) (layer F.SilkS) (width 0.127))
  (fp_line (start 1.76784 -3.0988) (end 3.26898 -3.0988) (layer F.SilkS) (width 0.127))
  (fp_line (start 1.86944 3.0988) (end 3.26898 3.0988) (layer F.SilkS) (width 0.127))
  (fp_line (start 4.30784 -3.0988) (end 5.80898 -3.0988) (layer F.SilkS) (width 0.127))
  (fp_line (start 4.40944 3.0988) (end 5.80898 3.0988) (layer F.SilkS) (width 0.127))
  (fp_line (start 6.84784 -3.0988) (end 8.34898 -3.0988) (layer F.SilkS) (width 0.127))
  (fp_line (start 6.94944 3.0988) (end 8.34898 3.0988) (layer F.SilkS) (width 0.127))
  (fp_poly (pts (xy -10.87882 -4.7498) (xy 10.87882 -4.7498) (xy 10.87882 4.99872) (xy -10.87882 4.99872)
    (xy -10.87882 -4.7498)) (layer Dwgs.User) (width 0.127))
  (fp_circle (center -10.39876 3.49758) (end -10.39876 3.44932) (layer F.SilkS) (width 0.19812))
  (fp_text user 1 (at -8.75284 1.6637) (layer Dwgs.User)
    (effects (font (size 1.27 1.27) (thickness 0.1016)))
  )
  (pad 1 thru_hole circle (at -8.89 3.81) (size 1.30556 1.30556) (drill 0.79756) (layers *.Cu *.Paste *.Mask))
  (pad 2 thru_hole circle (at -6.35 3.81) (size 1.30556 1.30556) (drill 0.79756) (layers *.Cu *.Paste *.Mask))
  (pad 3 thru_hole circle (at -3.81 3.81) (size 1.30556 1.30556) (drill 0.79756) (layers *.Cu *.Paste *.Mask))
  (pad 4 thru_hole circle (at -1.27 3.81) (size 1.30556 1.30556) (drill 0.79756) (layers *.Cu *.Paste *.Mask))
  (pad 5 thru_hole circle (at 1.27 3.81) (size 1.30556 1.30556) (drill 0.79756) (layers *.Cu *.Paste *.Mask))
  (pad 6 thru_hole circle (at 3.81 3.81) (size 1.30556 1.30556) (drill 0.79756) (layers *.Cu *.Paste *.Mask))
  (pad 7 thru_hole circle (at 6.35 3.81) (size 1.30556 1.30556) (drill 0.79756) (layers *.Cu *.Paste *.Mask))
  (pad 8 thru_hole circle (at 8.89 3.81) (size 1.30556 1.30556) (drill 0.79756) (layers *.Cu *.Paste *.Mask))
  (pad A1 thru_hole circle (at -8.89 -3.81) (size 1.30556 1.30556) (drill 0.79756) (layers *.Cu *.Paste *.Mask))
  (pad A2 thru_hole circle (at -6.35 -3.81) (size 1.30556 1.30556) (drill 0.79756) (layers *.Cu *.Paste *.Mask))
  (pad A3 thru_hole circle (at -3.81 -3.81) (size 1.30556 1.30556) (drill 0.79756) (layers *.Cu *.Paste *.Mask))
  (pad A4 thru_hole circle (at -1.27 -3.81) (size 1.30556 1.30556) (drill 0.79756) (layers *.Cu *.Paste *.Mask))
  (pad A5 thru_hole circle (at 1.27 -3.81) (size 1.30556 1.30556) (drill 0.79756) (layers *.Cu *.Paste *.Mask))
  (pad A6 thru_hole circle (at 3.81 -3.81) (size 1.30556 1.30556) (drill 0.79756) (layers *.Cu *.Paste *.Mask))
  (pad A7 thru_hole circle (at 6.35 -3.81) (size 1.30556 1.30556) (drill 0.79756) (layers *.Cu *.Paste *.Mask))
  (pad A8 thru_hole circle (at 8.89 -3.81) (size 1.30556 1.30556) (drill 0.79756) (layers *.Cu *.Paste *.Mask))
)
