(module WS-ROSV_rev19b-431151015826 (layer F.Cu) (tedit 200000)
  (descr "WS-TSS-5X5 MM SMD TACT SWITCH WITH GROUND TERMINAL, 4 PINS")
  (tags "WS-TSS-5X5 MM SMD TACT SWITCH WITH GROUND TERMINAL, 4 PINS")
  (attr smd)
  (fp_text reference >NAME (at -0.04318 -4.59232) (layer F.SilkS)
    (effects (font (size 1.27 1.27) (thickness 0.1016)))
  )
  (fp_text value >VALUE (at 0.66548 4.09956) (layer F.SilkS)
    (effects (font (size 1.27 1.27) (thickness 0.1016)))
  )
  (fp_line (start -2.49936 -2.49936) (end 2.49936 -2.49936) (layer Dwgs.User) (width 0.127))
  (fp_line (start 2.49936 -2.49936) (end 2.49936 2.49936) (layer Dwgs.User) (width 0.127))
  (fp_line (start 2.49936 2.49936) (end -2.49936 2.49936) (layer Dwgs.User) (width 0.127))
  (fp_line (start -2.49936 2.49936) (end -2.49936 -2.49936) (layer Dwgs.User) (width 0.127))
  (fp_line (start -0.7493 -2.49936) (end -2.13868 -2.49936) (layer F.SilkS) (width 0.127))
  (fp_line (start 0.67818 -2.49936) (end 2.16916 -2.49936) (layer F.SilkS) (width 0.127))
  (fp_line (start -2.49936 -1.04902) (end -2.49936 1.05918) (layer F.SilkS) (width 0.127))
  (fp_line (start 2.49936 -1.06934) (end 2.49936 1.04902) (layer F.SilkS) (width 0.127))
  (fp_line (start -2.18948 2.49936) (end -0.68834 2.49936) (layer F.SilkS) (width 0.127))
  (fp_line (start 2.18948 2.49936) (end 0.6985 2.49936) (layer F.SilkS) (width 0.127))
  (fp_poly (pts (xy -3.74904 -2.99974) (xy 3.74904 -2.99974) (xy 3.74904 2.99974) (xy -3.74904 2.99974)
    (xy -3.74904 -2.99974)) (layer Dwgs.User) (width 0.127))
  (fp_circle (center -2.79908 2.79908) (end -2.79908 2.75082) (layer F.SilkS) (width 0.19812))
  (fp_text user 1 (at -1.3335 1.38176) (layer Dwgs.User)
    (effects (font (size 0.8128 0.8128) (thickness 0.0762)))
  )
  (fp_text user 2 (at -1.2827 -1.86436) (layer Dwgs.User)
    (effects (font (size 0.8128 0.8128) (thickness 0.0762)))
  )
  (fp_text user 4 (at 1.86436 -1.86436) (layer Dwgs.User)
    (effects (font (size 0.8128 0.8128) (thickness 0.0762)))
  )
  (fp_text user 3 (at 1.86436 1.43256) (layer Dwgs.User)
    (effects (font (size 0.8128 0.8128) (thickness 0.0762)))
  )
  (pad 1 smd rect (at -2.99974 1.84912) (size 1.19888 1.09982) (layers F.Cu F.Paste F.Mask))
  (pad 2 smd rect (at -2.99974 -1.84912) (size 1.19888 1.09982) (layers F.Cu F.Paste F.Mask))
  (pad 3 smd rect (at 2.99974 1.84912) (size 1.19888 1.09982) (layers F.Cu F.Paste F.Mask))
  (pad 4 smd rect (at 2.99974 -1.84912) (size 1.19888 1.09982) (layers F.Cu F.Paste F.Mask))
  (pad GND@1 smd rect (at 0 2.52476) (size 0.99822 0.44958) (layers F.Cu F.Paste F.Mask))
  (pad GND@2 smd rect (at 0 -2.52476) (size 0.99822 0.44958) (layers F.Cu F.Paste F.Mask))
)
