(module WS-ROSV_rev19b-428427520911 (layer F.Cu) (tedit 200000)
  (descr "WS-RCT, 10*10MM ROTARY SWITCH, RIGHT ANGLE TYPE, THT, 10 POSITION, 2,54MM, 6 PINS, ROUND CROSS TYPE, IVORY, COMPLEMENT CODE,")
  (tags "WS-RCT, 10*10MM ROTARY SWITCH, RIGHT ANGLE TYPE, THT, 10 POSITION, 2,54MM, 6 PINS, ROUND CROSS TYPE, IVORY, COMPLEMENT CODE,")
  (attr virtual)
  (fp_text reference >NAME (at 0.50292 -3.83286) (layer F.SilkS)
    (effects (font (size 1.27 1.27) (thickness 0.1016)))
  )
  (fp_text value >VALUE (at 0.33782 9.40308) (layer F.SilkS)
    (effects (font (size 1.27 1.27) (thickness 0.1016)))
  )
  (fp_line (start -4.99872 8.06958) (end 4.99872 8.06958) (layer F.SilkS) (width 0.127))
  (fp_line (start 4.99872 8.06958) (end 4.99872 -1.72974) (layer F.SilkS) (width 0.127))
  (fp_line (start 4.99872 -1.72974) (end -4.99872 -1.72974) (layer Dwgs.User) (width 0.127))
  (fp_line (start -4.99872 -1.72974) (end -4.99872 8.06958) (layer F.SilkS) (width 0.127))
  (fp_line (start -3.73888 -1.72974) (end -4.99872 -1.72974) (layer F.SilkS) (width 0.127))
  (fp_line (start -1.70942 -1.72974) (end -0.86868 -1.72974) (layer F.SilkS) (width 0.127))
  (fp_line (start 0.84836 -1.72974) (end 1.6383 -1.72974) (layer F.SilkS) (width 0.127))
  (fp_line (start 3.4798 -1.72974) (end 4.99872 -1.72974) (layer F.SilkS) (width 0.127))
  (fp_poly (pts (xy -5.24764 -2.2987) (xy 5.24764 -2.2987) (xy 5.24764 8.3185) (xy -5.24764 8.3185)
    (xy -5.24764 -2.2987)) (layer Dwgs.User) (width 0.127))
  (fp_circle (center -4.09956 2.19964) (end -4.09956 2.15138) (layer F.SilkS) (width 0.19812))
  (fp_text user 1 (at -2.36474 3.36296) (layer Dwgs.User)
    (effects (font (size 1.27 1.27) (thickness 0.1016)))
  )
  (fp_text user C1 (at 0.26924 3.36296) (layer Dwgs.User)
    (effects (font (size 1.27 1.27) (thickness 0.1016)))
  )
  (fp_text user 4 (at 2.63398 3.36296) (layer Dwgs.User)
    (effects (font (size 1.27 1.27) (thickness 0.1016)))
  )
  (fp_text user 8 (at -4.064 -0.83312) (layer Dwgs.User)
    (effects (font (size 1.27 1.27) (thickness 0.1016)))
  )
  (fp_text user 2 (at 4.43484 -0.83312) (layer Dwgs.User)
    (effects (font (size 1.27 1.27) (thickness 0.1016)))
  )
  (pad 1 thru_hole circle (at -2.54 1.27) (size 1.50622 1.50622) (drill 0.99822) (layers *.Cu *.Paste *.Mask))
  (pad 2 thru_hole circle (at 2.54 -1.27) (size 1.50622 1.50622) (drill 0.99822) (layers *.Cu *.Paste *.Mask))
  (pad 4 thru_hole circle (at 2.54 1.27) (size 1.50622 1.50622) (drill 0.99822) (layers *.Cu *.Paste *.Mask))
  (pad 8 thru_hole circle (at -2.54 -1.27) (size 1.50622 1.50622) (drill 0.99822) (layers *.Cu *.Paste *.Mask))
  (pad C1 thru_hole circle (at 0 1.27) (size 1.50622 1.50622) (drill 0.99822) (layers *.Cu *.Paste *.Mask))
  (pad C2 thru_hole circle (at 0 -1.27) (size 1.50622 1.50622) (drill 0.99822) (layers *.Cu *.Paste *.Mask))
)
