(module WS-ROSV_rev19b-428547320917 (layer F.Cu) (tedit 200000)
  (descr "WS-RAT, 7X7 MM WASHABLE THT ROTARY SWITCH, 6 PINS, 16 POSITIONS, ROUND  ARROW TYPE, IVORY ACTUATOR, COMPLEMENT CODE")
  (tags "WS-RAT, 7X7 MM WASHABLE THT ROTARY SWITCH, 6 PINS, 16 POSITIONS, ROUND  ARROW TYPE, IVORY ACTUATOR, COMPLEMENT CODE")
  (attr virtual)
  (fp_text reference >NAME (at 0.36576 -5.36448) (layer F.SilkS)
    (effects (font (size 1.27 1.27) (thickness 0.1016)))
  )
  (fp_text value >VALUE (at 1.00076 4.87426) (layer F.SilkS)
    (effects (font (size 1.27 1.27) (thickness 0.1016)))
  )
  (fp_line (start -3.69824 3.69824) (end 3.69824 3.69824) (layer F.SilkS) (width 0.127))
  (fp_line (start 3.69824 3.69824) (end 3.69824 -3.69824) (layer Dwgs.User) (width 0.127))
  (fp_line (start 3.69824 -3.69824) (end -3.69824 -3.69824) (layer F.SilkS) (width 0.127))
  (fp_line (start -3.69824 -3.69824) (end -3.69824 3.69824) (layer Dwgs.User) (width 0.127))
  (fp_poly (pts (xy -4.99872 -3.8481) (xy 4.89966 -3.8481) (xy 4.89966 3.8481) (xy -4.99872 3.8481)
    (xy -4.99872 -3.8481)) (layer Dwgs.User) (width 0.127))
  (fp_circle (center -4.39928 -3.59918) (end -4.39928 -3.64744) (layer F.SilkS) (width 0.19812))
  (fp_text user 1 (at -1.6637 -2.63398) (layer Dwgs.User)
    (effects (font (size 1.27 1.27) (thickness 0.1016)))
  )
  (fp_text user 4 (at -1.6637 2.36474) (layer Dwgs.User)
    (effects (font (size 1.27 1.27) (thickness 0.1016)))
  )
  (fp_text user 2 (at 2.43332 2.36474) (layer Dwgs.User)
    (effects (font (size 1.27 1.27) (thickness 0.1016)))
  )
  (fp_text user 8 (at 2.43332 -2.63398) (layer Dwgs.User)
    (effects (font (size 1.27 1.27) (thickness 0.1016)))
  )
  (pad 1 thru_hole circle (at -3.81 -2.54) (size 1.30556 1.30556) (drill 0.79756) (layers *.Cu *.Paste *.Mask))
  (pad 2 thru_hole circle (at 3.81 2.54) (size 1.30556 1.30556) (drill 0.79756) (layers *.Cu *.Paste *.Mask))
  (pad 4 thru_hole circle (at -3.81 2.54) (size 1.30556 1.30556) (drill 0.79756) (layers *.Cu *.Paste *.Mask))
  (pad 8 thru_hole circle (at 3.81 -2.54) (size 1.30556 1.30556) (drill 0.79756) (layers *.Cu *.Paste *.Mask))
  (pad C1 thru_hole circle (at -3.81 0) (size 1.30556 1.30556) (drill 0.79756) (layers *.Cu *.Paste *.Mask))
  (pad C2 thru_hole circle (at 3.81 0) (size 1.30556 1.30556) (drill 0.79756) (layers *.Cu *.Paste *.Mask))
)
