(module WS-ROSV_rev19b-431256038736 (layer F.Cu) (tedit 200000)
  (descr "WS-TST, 6*6MM RIGHT ANGLE TACT SWITCH,THT, HEIGHT 3.85MM, 4 PINS, SALMON ACTUATOR, 360GF")
  (tags "WS-TST, 6*6MM RIGHT ANGLE TACT SWITCH,THT, HEIGHT 3.85MM, 4 PINS, SALMON ACTUATOR, 360GF")
  (attr virtual)
  (fp_text reference >NAME (at -0.19812 -4.30784) (layer F.SilkS)
    (effects (font (size 1.27 1.27) (thickness 0.1016)))
  )
  (fp_text value >VALUE (at 6.1087 4.9149) (layer F.SilkS)
    (effects (font (size 1.27 1.27) (thickness 0.1016)))
  )
  (fp_line (start -3.69824 -2.74828) (end 3.69824 -2.74828) (layer F.SilkS) (width 0.127))
  (fp_line (start 3.69824 -2.74828) (end 3.69824 3.79984) (layer Dwgs.User) (width 0.127))
  (fp_line (start -3.69824 3.79984) (end -3.69824 -2.74828) (layer Dwgs.User) (width 0.127))
  (fp_line (start -3.69824 3.79984) (end 3.69824 3.79984) (layer F.SilkS) (width 0.127))
  (fp_line (start -3.69824 -0.29972) (end -3.69824 3.79984) (layer F.SilkS) (width 0.127))
  (fp_line (start 3.69824 -0.29972) (end 3.69824 3.79984) (layer F.SilkS) (width 0.127))
  (fp_line (start -1.74752 3.79984) (end -1.74752 5.09778) (layer Dwgs.User) (width 0.127))
  (fp_line (start -1.74752 5.09778) (end 1.74752 5.09778) (layer Dwgs.User) (width 0.127))
  (fp_line (start 1.74752 5.09778) (end 1.74752 3.79984) (layer Dwgs.User) (width 0.127))
  (fp_line (start -3.69824 -2.74828) (end -3.69824 -2.22758) (layer F.SilkS) (width 0.127))
  (fp_line (start 3.69824 -2.74828) (end 3.69824 -2.2098) (layer F.SilkS) (width 0.127))
  (fp_poly (pts (xy -4.79806 -2.99974) (xy 4.79806 -2.99974) (xy 4.79806 4.04876) (xy -4.79806 4.04876)
    (xy -4.79806 -2.99974)) (layer Dwgs.User) (width 0.127))
  (fp_circle (center -4.19862 -2.49936) (end -4.19862 -2.54762) (layer F.SilkS) (width 0.19812))
  (fp_text user 1 (at -1.26492 -1.53416) (layer Dwgs.User)
    (effects (font (size 1.27 1.27) (thickness 0.1016)))
  )
  (fp_text user 2 (at -2.16408 2.86258) (layer Dwgs.User)
    (effects (font (size 1.27 1.27) (thickness 0.1016)))
  )
  (fp_text user 3 (at 2.53492 2.86258) (layer Dwgs.User)
    (effects (font (size 1.27 1.27) (thickness 0.1016)))
  )
  (fp_text user 4 (at 2.03454 -1.53416) (layer Dwgs.User)
    (effects (font (size 1.27 1.27) (thickness 0.1016)))
  )
  (fp_text user "pcb edge" (at 0.4445 3.78206) (layer Dwgs.User)
    (effects (font (size 0.254 0.254) (thickness 0.0254)))
  )
  (fp_text user "switch edge" (at 0.55626 4.78282) (layer Dwgs.User)
    (effects (font (size 0.254 0.254) (thickness 0.0254)))
  )
  (pad 1 thru_hole circle (at -3.49758 -1.24968) (size 1.50622 1.50622) (drill 0.99822) (layers *.Cu *.Paste *.Mask))
  (pad 2 thru_hole circle (at -2.2479 1.24968) (size 1.50622 1.50622) (drill 0.99822) (layers *.Cu *.Paste *.Mask))
  (pad 3 thru_hole circle (at 2.2479 1.24968) (size 1.50622 1.50622) (drill 0.99822) (layers *.Cu *.Paste *.Mask))
  (pad 4 thru_hole circle (at 3.49758 -1.24968) (size 1.50622 1.50622) (drill 0.99822) (layers *.Cu *.Paste *.Mask))
)
