(module WS-ROSV_rev19b-428427320917 (layer F.Cu) (tedit 200000)
  (descr "WS-RAT, 10*10MM ROTARY SWITCH, RIGHT ANGLE TYPE, THT, 16 POSITION, 2,54MM, 6 PINS, ROUND ARROW TYPE, IVORY, COMPLEMENT CODE,")
  (tags "WS-RAT, 10*10MM ROTARY SWITCH, RIGHT ANGLE TYPE, THT, 16 POSITION, 2,54MM, 6 PINS, ROUND ARROW TYPE, IVORY, COMPLEMENT CODE,")
  (attr virtual)
  (fp_text reference >NAME (at 0.01778 -3.7846) (layer F.SilkS)
    (effects (font (size 1.27 1.27) (thickness 0.1016)))
  )
  (fp_text value >VALUE (at 0.32766 9.55294) (layer F.SilkS)
    (effects (font (size 1.27 1.27) (thickness 0.1016)))
  )
  (fp_line (start -4.99872 8.06958) (end 4.99872 8.06958) (layer F.SilkS) (width 0.127))
  (fp_line (start 4.99872 8.06958) (end 4.99872 -1.72974) (layer F.SilkS) (width 0.127))
  (fp_line (start -4.99872 -1.72974) (end -4.99872 8.06958) (layer F.SilkS) (width 0.127))
  (fp_line (start -4.99872 -1.72974) (end -3.7084 -1.72974) (layer F.SilkS) (width 0.127))
  (fp_line (start 4.98856 -1.72974) (end 3.69824 -1.72974) (layer F.SilkS) (width 0.127))
  (fp_line (start -1.41986 -1.72974) (end -1.14808 -1.72974) (layer F.SilkS) (width 0.127))
  (fp_line (start 1.1176 -1.72974) (end 1.38938 -1.72974) (layer F.SilkS) (width 0.127))
  (fp_poly (pts (xy -5.24764 -2.2987) (xy 5.24764 -2.2987) (xy 5.24764 8.3185) (xy -5.24764 8.3185)
    (xy -5.24764 -2.2987)) (layer Dwgs.User) (width 0.127))
  (fp_circle (center -3.8989 1.99898) (end -3.8989 1.95072) (layer F.SilkS) (width 0.19812))
  (fp_text user 1 (at -2.36474 3.36296) (layer Dwgs.User)
    (effects (font (size 1.27 1.27) (thickness 0.1016)))
  )
  (fp_text user C1 (at 0.26924 3.36296) (layer Dwgs.User)
    (effects (font (size 1.27 1.27) (thickness 0.1016)))
  )
  (fp_text user 4 (at 2.63398 3.36296) (layer Dwgs.User)
    (effects (font (size 1.27 1.27) (thickness 0.1016)))
  )
  (fp_text user 8 (at -4.064 -0.73406) (layer Dwgs.User)
    (effects (font (size 1.27 1.27) (thickness 0.1016)))
  )
  (fp_text user 2 (at 4.43484 -0.73406) (layer Dwgs.User)
    (effects (font (size 1.27 1.27) (thickness 0.1016)))
  )
  (pad 1 thru_hole circle (at -2.54 1.27) (size 1.50622 1.50622) (drill 0.99822) (layers *.Cu *.Paste *.Mask))
  (pad 2 thru_hole circle (at 2.54 -1.27) (size 1.50622 1.50622) (drill 0.99822) (layers *.Cu *.Paste *.Mask))
  (pad 4 thru_hole circle (at 2.54 1.27) (size 1.50622 1.50622) (drill 0.99822) (layers *.Cu *.Paste *.Mask))
  (pad 8 thru_hole circle (at -2.54 -1.27) (size 1.50622 1.50622) (drill 0.99822) (layers *.Cu *.Paste *.Mask))
  (pad C1 thru_hole circle (at 0 1.27) (size 1.50622 1.50622) (drill 0.99822) (layers *.Cu *.Paste *.Mask))
  (pad C2 thru_hole circle (at 0 -1.27) (size 1.50622 1.50622) (drill 0.99822) (layers *.Cu *.Paste *.Mask))
)
