(module WS-ROSV_rev19b-450301014042 (layer F.Cu) (tedit 200000)
  (descr "WS-SHT, 10MM*2.5MM, SPDT, ON-ON, 2.54MM, STRAIGHT TYPE, THT, MINI SLIDE SWITCH, 3 PINS")
  (tags "WS-SHT, 10MM*2.5MM, SPDT, ON-ON, 2.54MM, STRAIGHT TYPE, THT, MINI SLIDE SWITCH, 3 PINS")
  (attr virtual)
  (fp_text reference >NAME (at -0.11176 -2.4892) (layer F.SilkS)
    (effects (font (size 0.8128 0.8128) (thickness 0.0762)))
  )
  (fp_text value >VALUE (at 0.3937 2.21488) (layer F.SilkS)
    (effects (font (size 0.8128 0.8128) (thickness 0.0762)))
  )
  (fp_line (start 4.99872 -1.24968) (end -4.99872 -1.24968) (layer F.SilkS) (width 0.127))
  (fp_line (start -4.99872 -1.24968) (end -4.99872 1.24968) (layer F.SilkS) (width 0.127))
  (fp_line (start -4.99872 1.24968) (end 4.99872 1.24968) (layer F.SilkS) (width 0.127))
  (fp_line (start 4.99872 1.24968) (end 4.99872 -1.24968) (layer F.SilkS) (width 0.127))
  (fp_poly (pts (xy -5.24764 -1.4986) (xy 5.24764 -1.4986) (xy 5.24764 1.4986) (xy -5.24764 1.4986)
    (xy -5.24764 -1.4986)) (layer Dwgs.User) (width 0.127))
  (fp_circle (center -0.6985 -0.89916) (end -0.6985 -0.94742) (layer F.SilkS) (width 0.19812))
  (fp_text user 1 (at 0.10414 -0.00254) (layer Dwgs.User)
    (effects (font (size 0.6096 0.6096) (thickness 0.0508)))
  )
  (fp_text user 3 (at 2.6035 -0.10414) (layer Dwgs.User)
    (effects (font (size 0.6096 0.6096) (thickness 0.0508)))
  )
  (fp_text user 2 (at -2.49428 -0.00254) (layer Dwgs.User)
    (effects (font (size 0.6096 0.6096) (thickness 0.0508)))
  )
  (pad 1 thru_hole circle (at 0 0) (size 1.30556 1.30556) (drill 0.79756) (layers *.Cu *.Paste *.Mask))
  (pad 2 thru_hole circle (at -2.54 0) (size 1.30556 1.30556) (drill 0.79756) (layers *.Cu *.Paste *.Mask))
  (pad 3 thru_hole circle (at 2.54 0) (size 1.30556 1.30556) (drill 0.79756) (layers *.Cu *.Paste *.Mask))
)
