(module WS-ROSV_rev19b-418117270903 (layer F.Cu) (tedit 200000)
  (descr "WS-BS 2.54 MM COMPACT THT DIP SWITCH WITH RAISED ACTUATOR, 3 POLE")
  (tags "WS-BS 2.54 MM COMPACT THT DIP SWITCH WITH RAISED ACTUATOR, 3 POLE")
  (attr virtual)
  (fp_text reference >NAME (at 0.14478 -6.50494) (layer F.SilkS)
    (effects (font (size 1.27 1.27) (thickness 0.1016)))
  )
  (fp_text value >VALUE (at 0.07874 6.1976) (layer F.SilkS)
    (effects (font (size 1.27 1.27) (thickness 0.1016)))
  )
  (fp_line (start -4.30784 -4.79806) (end 4.30784 -4.79806) (layer F.SilkS) (width 0.127))
  (fp_line (start 4.30784 -4.79806) (end 4.30784 4.79806) (layer F.SilkS) (width 0.127))
  (fp_line (start 4.30784 4.79806) (end -4.30784 4.79806) (layer F.SilkS) (width 0.127))
  (fp_line (start -4.30784 4.79806) (end -4.30784 -4.79806) (layer F.SilkS) (width 0.127))
  (fp_poly (pts (xy -4.5593 -5.04952) (xy 4.5593 -5.04952) (xy 4.5593 5.04952) (xy -4.5593 5.04952)
    (xy -4.5593 -5.04952)) (layer Dwgs.User) (width 0.127))
  (fp_circle (center -3.49758 4.39928) (end -3.49758 4.35102) (layer F.SilkS) (width 0.19812))
  (fp_text user 1 (at -2.23774 1.70942) (layer Dwgs.User)
    (effects (font (size 1.27 1.27) (thickness 0.1016)))
  )
  (pad 1 thru_hole circle (at -2.54 3.81) (size 1.30556 1.30556) (drill 0.79756) (layers *.Cu *.Paste *.Mask))
  (pad 2 thru_hole circle (at 0 3.81) (size 1.30556 1.30556) (drill 0.79756) (layers *.Cu *.Paste *.Mask))
  (pad 3 thru_hole circle (at 2.54 3.81) (size 1.30556 1.30556) (drill 0.79756) (layers *.Cu *.Paste *.Mask))
  (pad A1 thru_hole circle (at -2.54 -3.81) (size 1.30556 1.30556) (drill 0.79756) (layers *.Cu *.Paste *.Mask))
  (pad A2 thru_hole circle (at 0 -3.81) (size 1.30556 1.30556) (drill 0.79756) (layers *.Cu *.Paste *.Mask))
  (pad A3 thru_hole circle (at 2.54 -3.81) (size 1.30556 1.30556) (drill 0.79756) (layers *.Cu *.Paste *.Mask))
)
