(module WS-ROSV_rev19b-418127270904 (layer F.Cu) (tedit 200000)
  (descr WS-DITV)
  (tags WS-DITV)
  (attr virtual)
  (fp_text reference >NAME (at 0.36322 -6.91388) (layer F.SilkS)
    (effects (font (size 1.27 1.27) (thickness 0.1016)))
  )
  (fp_text value >VALUE (at 1.52908 6.20268) (layer F.SilkS)
    (effects (font (size 1.27 1.27) (thickness 0.1016)))
  )
  (fp_line (start -5.5499 -3.0988) (end 5.5499 -3.0988) (layer Dwgs.User) (width 0.127))
  (fp_line (start 5.5499 -3.0988) (end 5.5499 3.0988) (layer Dwgs.User) (width 0.127))
  (fp_line (start 5.5499 3.0988) (end -5.5499 3.0988) (layer Dwgs.User) (width 0.127))
  (fp_line (start -5.5499 3.0988) (end -5.5499 -3.0988) (layer Dwgs.User) (width 0.127))
  (fp_line (start -4.318 -3.0988) (end -5.5499 -3.0988) (layer F.SilkS) (width 0.127))
  (fp_line (start -5.5499 -3.0988) (end -5.5499 3.0988) (layer F.SilkS) (width 0.127))
  (fp_line (start -5.5499 3.0988) (end -4.29768 3.0988) (layer F.SilkS) (width 0.127))
  (fp_line (start 4.39928 -3.0988) (end 5.5499 -3.0988) (layer F.SilkS) (width 0.127))
  (fp_line (start 5.5499 -3.0988) (end 5.5499 3.0988) (layer F.SilkS) (width 0.127))
  (fp_line (start 5.5499 3.0988) (end 4.2799 3.0988) (layer F.SilkS) (width 0.127))
  (fp_line (start -3.26898 -3.0988) (end -1.76784 -3.0988) (layer F.SilkS) (width 0.127))
  (fp_line (start -0.76962 -3.0988) (end 0.72898 -3.0988) (layer F.SilkS) (width 0.127))
  (fp_line (start -3.26898 3.0988) (end -1.86944 3.0988) (layer F.SilkS) (width 0.127))
  (fp_line (start -0.66802 3.0988) (end 0.72898 3.0988) (layer F.SilkS) (width 0.127))
  (fp_line (start 1.80848 -3.0988) (end 3.30962 -3.0988) (layer F.SilkS) (width 0.127))
  (fp_line (start 1.86944 3.0988) (end 3.26898 3.0988) (layer F.SilkS) (width 0.127))
  (fp_poly (pts (xy 5.79882 -4.99872) (xy 5.79882 4.99872) (xy -5.79882 4.99872) (xy -5.79882 -4.99872)
    (xy 5.79882 -4.99872)) (layer Dwgs.User) (width 0.127))
  (fp_circle (center -5.19938 3.59918) (end -5.19938 3.55092) (layer F.SilkS) (width 0.19812))
  (fp_text user 1 (at -3.67284 1.86436) (layer Dwgs.User)
    (effects (font (size 1.27 1.27) (thickness 0.1016)))
  )
  (pad 1 thru_hole circle (at -3.81 3.81) (size 1.30556 1.30556) (drill 0.79756) (layers *.Cu *.Paste *.Mask))
  (pad 2 thru_hole circle (at -1.27 3.81) (size 1.30556 1.30556) (drill 0.79756) (layers *.Cu *.Paste *.Mask))
  (pad 3 thru_hole circle (at 1.27 3.81) (size 1.30556 1.30556) (drill 0.79756) (layers *.Cu *.Paste *.Mask))
  (pad 4 thru_hole circle (at 3.81 3.81) (size 1.30556 1.30556) (drill 0.79756) (layers *.Cu *.Paste *.Mask))
  (pad A1 thru_hole circle (at -3.81 -3.81) (size 1.30556 1.30556) (drill 0.79756) (layers *.Cu *.Paste *.Mask))
  (pad A2 thru_hole circle (at -1.27 -3.81) (size 1.30556 1.30556) (drill 0.79756) (layers *.Cu *.Paste *.Mask))
  (pad A3 thru_hole circle (at 1.27 -3.81) (size 1.30556 1.30556) (drill 0.79756) (layers *.Cu *.Paste *.Mask))
  (pad A4 thru_hole circle (at 3.81 -3.81) (size 1.30556 1.30556) (drill 0.79756) (layers *.Cu *.Paste *.Mask))
)
