(module WS-ROSV_rev19b-429427520910 (layer F.Cu) (tedit 200000)
  (descr "WS-RCT, 10*10MM ROTARY SWITCH, RIGHT ANGLE TYPE, THT, 10 POSITION, 5,08MM, 6 PINS, ROUND CROSS TYPE, DARK GREY, REAL CODE")
  (tags "WS-RCT, 10*10MM ROTARY SWITCH, RIGHT ANGLE TYPE, THT, 10 POSITION, 5,08MM, 6 PINS, ROUND CROSS TYPE, DARK GREY, REAL CODE")
  (attr virtual)
  (fp_text reference >NAME (at -0.12446 -5.37464) (layer F.SilkS)
    (effects (font (size 1.27 1.27) (thickness 0.1016)))
  )
  (fp_text value >VALUE (at 0.6096 10.76452) (layer F.SilkS)
    (effects (font (size 1.27 1.27) (thickness 0.1016)))
  )
  (fp_line (start -4.99872 -2.9591) (end 4.99872 -2.9591) (layer Dwgs.User) (width 0.127))
  (fp_line (start 4.99872 -2.9591) (end 4.99872 9.33958) (layer F.SilkS) (width 0.127))
  (fp_line (start 4.99872 9.33958) (end -4.99872 9.33958) (layer F.SilkS) (width 0.127))
  (fp_line (start -4.99872 9.33958) (end -4.99872 -2.9591) (layer F.SilkS) (width 0.127))
  (fp_line (start -3.66776 -2.9591) (end -4.99872 -2.9591) (layer F.SilkS) (width 0.127))
  (fp_line (start 4.99872 -2.9591) (end 3.6576 -2.9591) (layer F.SilkS) (width 0.127))
  (fp_poly (pts (xy -5.24764 -3.49758) (xy 5.24764 -3.49758) (xy 5.24764 9.5885) (xy -5.24764 9.5885)
    (xy -5.24764 -3.49758)) (layer Dwgs.User) (width 0.127))
  (fp_circle (center -4.09956 1.79832) (end -4.09956 1.75006) (layer F.SilkS) (width 0.19812))
  (fp_text user 1 (at -2.49936 4.49834) (layer Dwgs.User)
    (effects (font (size 0.99822 0.99822) (thickness 0.0762)))
  )
  (fp_text user C1 (at 0 4.49834) (layer Dwgs.User)
    (effects (font (size 0.99822 0.99822) (thickness 0.0762)))
  )
  (fp_text user 4 (at 2.49936 4.49834) (layer Dwgs.User)
    (effects (font (size 0.99822 0.99822) (thickness 0.0762)))
  )
  (fp_text user 2 (at 2.49936 -0.68834) (layer Dwgs.User)
    (effects (font (size 0.99822 0.99822) (thickness 0.0762)))
  )
  (fp_text user C2 (at 0 -0.68834) (layer Dwgs.User)
    (effects (font (size 0.99822 0.99822) (thickness 0.0762)))
  )
  (fp_text user 8 (at -2.49936 -0.68834) (layer Dwgs.User)
    (effects (font (size 0.99822 0.99822) (thickness 0.0762)))
  )
  (pad 1 thru_hole circle (at -2.54 2.54) (size 1.50622 1.50622) (drill 0.99822) (layers *.Cu *.Paste *.Mask))
  (pad 2 thru_hole circle (at 2.54 -2.54) (size 1.50622 1.50622) (drill 0.99822) (layers *.Cu *.Paste *.Mask))
  (pad 4 thru_hole circle (at 2.54 2.54) (size 1.50622 1.50622) (drill 0.99822) (layers *.Cu *.Paste *.Mask))
  (pad 8 thru_hole circle (at -2.54 -2.54) (size 1.50622 1.50622) (drill 0.99822) (layers *.Cu *.Paste *.Mask))
  (pad C1 thru_hole circle (at 0 2.54) (size 1.50622 1.50622) (drill 0.99822) (layers *.Cu *.Paste *.Mask))
  (pad C2 thru_hole circle (at 0 -2.54) (size 1.50622 1.50622) (drill 0.99822) (layers *.Cu *.Paste *.Mask))
)
