(module WS-ROSV_rev19b-444RD21025816 (layer F.Cu) (tedit 200000)
  (descr "WS-TLS 6,8*4,5MM TACT SWITCH WITH INTEGRATED LED, SMD VERSION, 6 PINS")
  (tags "WS-TLS 6,8*4,5MM TACT SWITCH WITH INTEGRATED LED, SMD VERSION, 6 PINS")
  (attr smd)
  (fp_text reference >NAME (at 0.17272 -4.17322) (layer F.SilkS)
    (effects (font (size 1.27 1.27) (thickness 0.1016)))
  )
  (fp_text value >VALUE (at 0.80772 3.86334) (layer F.SilkS)
    (effects (font (size 1.27 1.27) (thickness 0.1016)))
  )
  (fp_line (start -3.39852 -2.2479) (end 3.39852 -2.2479) (layer Dwgs.User) (width 0.127))
  (fp_line (start 3.39852 -2.2479) (end 3.39852 2.2479) (layer Dwgs.User) (width 0.127))
  (fp_line (start 3.39852 2.2479) (end -3.39852 2.2479) (layer Dwgs.User) (width 0.127))
  (fp_line (start -3.39852 2.2479) (end -3.39852 -2.2479) (layer Dwgs.User) (width 0.127))
  (fp_line (start -0.81788 -2.2479) (end 0.79756 -2.2479) (layer F.SilkS) (width 0.127))
  (fp_line (start 2.69748 -2.2479) (end 3.39852 -2.2479) (layer F.SilkS) (width 0.127))
  (fp_line (start 3.39852 -2.2479) (end 3.39852 -0.89916) (layer F.SilkS) (width 0.127))
  (fp_line (start -2.69748 -2.2479) (end -3.39852 -2.2479) (layer F.SilkS) (width 0.127))
  (fp_line (start -3.39852 -2.2479) (end -3.39852 -0.87884) (layer F.SilkS) (width 0.127))
  (fp_line (start -3.40868 0.95758) (end -3.39852 0.95758) (layer F.SilkS) (width 0.127))
  (fp_line (start -3.39852 0.95758) (end -3.39852 2.23774) (layer F.SilkS) (width 0.127))
  (fp_line (start -3.39852 2.23774) (end -2.73812 2.23774) (layer F.SilkS) (width 0.127))
  (fp_line (start -0.79756 2.2479) (end 0.73914 2.2479) (layer F.SilkS) (width 0.127))
  (fp_line (start 0.73914 2.2479) (end 0.73914 2.23774) (layer F.SilkS) (width 0.127))
  (fp_line (start 3.39852 0.889) (end 3.39852 2.2479) (layer F.SilkS) (width 0.127))
  (fp_line (start 3.39852 2.2479) (end 2.69748 2.2479) (layer F.SilkS) (width 0.127))
  (fp_poly (pts (xy -4.93776 -2.89814) (xy 4.93776 -2.89814) (xy 4.93776 2.89814) (xy -4.93776 2.89814)
    (xy -4.93776 -2.89814)) (layer Dwgs.User) (width 0.127))
  (fp_circle (center -3.69824 -1.09982) (end -3.69824 -1.14808) (layer F.SilkS) (width 0.19812))
  (fp_text user 1 (at -2.45364 0.19304) (layer Dwgs.User)
    (effects (font (size 0.6096 0.6096) (thickness 0.0508)))
  )
  (fp_text user 2 (at 2.76352 0.29464) (layer Dwgs.User)
    (effects (font (size 0.6096 0.6096) (thickness 0.0508)))
  )
  (fp_text user 3 (at -1.69418 -1.06426) (layer Dwgs.User)
    (effects (font (size 0.6096 0.6096) (thickness 0.0508)))
  )
  (fp_text user 4 (at -1.69418 0.95504) (layer Dwgs.User)
    (effects (font (size 0.6096 0.6096) (thickness 0.0508)))
  )
  (fp_text user 5 (at 1.90246 -1.06426) (layer Dwgs.User)
    (effects (font (size 0.6096 0.6096) (thickness 0.0508)))
  )
  (fp_text user 6 (at 1.90246 0.95504) (layer Dwgs.User)
    (effects (font (size 0.6096 0.6096) (thickness 0.0508)))
  )
  (pad 1 smd rect (at -3.8989 0) (size 1.4986 1.39954) (layers F.Cu F.Paste F.Mask))
  (pad 2 smd rect (at 3.8989 0) (size 1.4986 1.39954) (layers F.Cu F.Paste F.Mask))
  (pad 3 smd rect (at -1.74752 -2.19964) (size 1.4986 0.99822) (layers F.Cu F.Paste F.Mask))
  (pad 4 smd rect (at -1.74752 2.19964) (size 1.4986 0.99822) (layers F.Cu F.Paste F.Mask))
  (pad 5 smd rect (at 1.74752 -2.19964) (size 1.4986 0.99822) (layers F.Cu F.Paste F.Mask))
  (pad 6 smd rect (at 1.74752 2.19964) (size 1.4986 0.99822) (layers F.Cu F.Paste F.Mask))
)
