(module WS-ROSV_rev19b-430182080816 (layer F.Cu) (tedit 200000)
  (descr "WS-TSS-6X6 MM SMD TACT SWITCH,4 PINS")
  (tags "WS-TSS-6X6 MM SMD TACT SWITCH,4 PINS")
  (attr smd)
  (fp_text reference >NAME (at -0.04572 -4.6736) (layer F.SilkS)
    (effects (font (size 1.27 1.27) (thickness 0.1016)))
  )
  (fp_text value >VALUE (at 0.32766 4.34594) (layer F.SilkS)
    (effects (font (size 1.27 1.27) (thickness 0.1016)))
  )
  (fp_line (start -3.0988 3.0988) (end 3.0988 3.0988) (layer F.SilkS) (width 0.127))
  (fp_line (start 3.0988 -3.0988) (end -3.0988 -3.0988) (layer F.SilkS) (width 0.127))
  (fp_line (start -3.0988 1.29794) (end -3.0988 -1.29794) (layer F.SilkS) (width 0.127))
  (fp_line (start 3.0988 1.29794) (end 3.0988 -1.29794) (layer F.SilkS) (width 0.127))
  (fp_poly (pts (xy -4.9784 -3.34772) (xy 4.9784 -3.34772) (xy 4.9784 3.34772) (xy -4.9784 3.34772)
    (xy -4.9784 -3.34772)) (layer Dwgs.User) (width 0.127))
  (fp_circle (center -3.59918 -3.29946) (end -3.59918 -3.34772) (layer F.SilkS) (width 0.19812))
  (fp_text user 1 (at -1.70434 -2.13868) (layer Dwgs.User)
    (effects (font (size 1.27 1.27) (thickness 0.1016)))
  )
  (fp_text user 4 (at 2.54 1.8034) (layer Dwgs.User)
    (effects (font (size 1.27 1.27) (thickness 0.1016)))
  )
  (fp_text user 3 (at 2.59334 -2.13868) (layer Dwgs.User)
    (effects (font (size 1.27 1.27) (thickness 0.1016)))
  )
  (fp_text user 2 (at -1.75768 1.8034) (layer Dwgs.User)
    (effects (font (size 1.27 1.27) (thickness 0.1016)))
  )
  (pad 1 smd rect (at -3.97256 -2.2479) (size 1.5494 1.29794) (layers F.Cu F.Paste F.Mask))
  (pad 2 smd rect (at -3.97256 2.2479) (size 1.5494 1.29794) (layers F.Cu F.Paste F.Mask))
  (pad 3 smd rect (at 3.97256 -2.2479) (size 1.5494 1.29794) (layers F.Cu F.Paste F.Mask))
  (pad 4 smd rect (at 3.97256 2.2479) (size 1.5494 1.29794) (layers F.Cu F.Paste F.Mask))
)
