(module WS-ROSV_rev19b-4301X20438X6 (layer F.Cu) (tedit 200000)
  (attr smd)
  (fp_text reference >NAME (at 0.47498 -7.6327) (layer F.SilkS)
    (effects (font (size 1.27 1.27) (thickness 0.1016)))
  )
  (fp_text value >VALUE (at 1.70942 7.56412) (layer F.SilkS)
    (effects (font (size 1.27 1.27) (thickness 0.1016)))
  )
  (fp_line (start -5.99948 -5.99948) (end 5.99948 -5.99948) (layer F.SilkS) (width 0.127))
  (fp_line (start 5.99948 -5.99948) (end 5.99948 5.99948) (layer Dwgs.User) (width 0.127))
  (fp_line (start 5.99948 5.99948) (end -5.99948 5.99948) (layer F.SilkS) (width 0.127))
  (fp_line (start -5.99948 5.99948) (end -5.99948 -5.99948) (layer Dwgs.User) (width 0.127))
  (fp_line (start -5.99948 -3.67792) (end -5.99948 -5.99948) (layer F.SilkS) (width 0.127))
  (fp_line (start -5.99948 -1.33858) (end -5.99948 1.33858) (layer F.SilkS) (width 0.127))
  (fp_line (start -5.99948 3.68808) (end -5.99948 5.98932) (layer F.SilkS) (width 0.127))
  (fp_line (start 5.99948 -3.8481) (end 5.99948 -5.99948) (layer F.SilkS) (width 0.127))
  (fp_line (start 5.99948 -1.22936) (end 5.99948 1.3589) (layer F.SilkS) (width 0.127))
  (fp_line (start 5.99948 3.69824) (end 5.99948 5.99948) (layer F.SilkS) (width 0.127))
  (fp_poly (pts (xy -8.19912 -6.2484) (xy 8.19912 -6.2484) (xy 8.19912 6.2484) (xy -8.19912 6.2484)
    (xy -8.19912 -6.2484)) (layer Dwgs.User) (width 0.127))
  (fp_circle (center -6.59892 -3.8989) (end -6.59892 -3.94716) (layer F.SilkS) (width 0.19812))
  (fp_text user 1 (at -4.51358 -2.53492) (layer Dwgs.User)
    (effects (font (size 1.27 1.27) (thickness 0.1016)))
  )
  (fp_text user 2 (at 5.3848 -2.63398) (layer Dwgs.User)
    (effects (font (size 1.27 1.27) (thickness 0.1016)))
  )
  (fp_text user 3 (at -4.36372 2.4638) (layer Dwgs.User)
    (effects (font (size 1.27 1.27) (thickness 0.1016)))
  )
  (fp_text user 4 (at 5.2832 2.4638) (layer Dwgs.User)
    (effects (font (size 1.27 1.27) (thickness 0.1016)))
  )
  (pad 1 smd rect (at -6.9977 -2.49936) (size 1.99898 1.79832) (layers F.Cu F.Paste F.Mask))
  (pad 2 smd rect (at 6.9977 -2.49936) (size 1.99898 1.79832) (layers F.Cu F.Paste F.Mask))
  (pad 3 smd rect (at -6.9977 2.49936) (size 1.99898 1.79832) (layers F.Cu F.Paste F.Mask))
  (pad 4 smd rect (at 6.9977 2.49936) (size 1.99898 1.79832) (layers F.Cu F.Paste F.Mask))
)
