(module WS-ROSV_rev19b-4610X1442105 (layer F.Cu) (tedit 200000)
  (attr smd)
  (fp_text reference >NAME (at -4.01574 -0.1905 90) (layer F.SilkS)
    (effects (font (size 0.8128 0.8128) (thickness 0.0762)))
  )
  (fp_text value >VALUE (at -5.23494 -0.7366 90) (layer F.SilkS)
    (effects (font (size 0.8128 0.8128) (thickness 0.0762)))
  )
  (fp_line (start -2.94894 -1.99898) (end 2.74828 -1.99898) (layer Dwgs.User) (width 0.127))
  (fp_line (start 2.74828 -1.99898) (end 2.74828 1.99898) (layer F.SilkS) (width 0.127))
  (fp_line (start 2.74828 1.99898) (end -2.94894 1.99898) (layer Dwgs.User) (width 0.127))
  (fp_line (start -2.94894 1.99898) (end -2.94894 -1.99898) (layer F.SilkS) (width 0.127))
  (fp_line (start -1.8796 -1.99898) (end -2.94894 -1.99898) (layer F.SilkS) (width 0.127))
  (fp_line (start -0.12954 -1.99898) (end 1.23952 -1.99898) (layer F.SilkS) (width 0.127))
  (fp_line (start 2.61874 -1.99898) (end 2.74828 -1.99898) (layer F.SilkS) (width 0.127))
  (fp_line (start 2.61874 1.99898) (end 2.74828 1.99898) (layer F.SilkS) (width 0.127))
  (fp_line (start -0.15748 1.99898) (end 1.23952 1.99898) (layer F.SilkS) (width 0.127))
  (fp_line (start -1.89992 1.99898) (end -2.94894 1.99898) (layer F.SilkS) (width 0.127))
  (fp_line (start 2.74828 -0.59944) (end 4.63804 -0.59944) (layer Dwgs.User) (width 0.127))
  (fp_line (start 4.65836 0.59944) (end 2.74828 0.59944) (layer Dwgs.User) (width 0.127))
  (fp_poly (pts (xy 2.74828 -3.46964) (xy 2.74828 3.49758) (xy -3.19786 3.49758) (xy -3.19786 -3.46964)
    (xy 2.74828 -3.46964)) (layer Dwgs.User) (width 0.127))
  (fp_arc (start 4.6482 0) (end 4.63804 -0.59944) (angle 180) (layer Dwgs.User) (width 0.127))
  (fp_text user 1 (at 1.08458 -1.55448) (layer F.SilkS)
    (effects (font (size 0.6096 0.6096) (thickness 0.0508)))
  )
  (fp_text user 2 (at 1.0541 1.4732) (layer Dwgs.User)
    (effects (font (size 0.6096 0.6096) (thickness 0.0508)))
  )
  (fp_text user 3 (at -2.06502 1.42494) (layer Dwgs.User)
    (effects (font (size 0.6096 0.6096) (thickness 0.0508)))
  )
  (fp_text user 4 (at -2.12344 -1.55448) (layer Dwgs.User)
    (effects (font (size 0.6096 0.6096) (thickness 0.0508)))
  )
  (fp_text user "PCB EDGE" (at 2.34696 -0.21844 90) (layer Dwgs.User)
    (effects (font (size 0.3048 0.3048) (thickness 0.0254)))
  )
  (pad 1 smd rect (at 1.94818 -2.69748 90) (size 1.19888 0.99822) (layers F.Cu F.Paste F.Mask))
  (pad 2 smd rect (at 1.94818 2.69748 90) (size 1.19888 0.99822) (layers F.Cu F.Paste F.Mask))
  (pad 3 smd rect (at -0.99822 2.69748 90) (size 1.19888 1.29794) (layers F.Cu F.Paste F.Mask))
  (pad 4 smd rect (at -0.99822 -2.69748 90) (size 1.19888 1.29794) (layers F.Cu F.Paste F.Mask))
  (pad "" np_thru_hole circle (at -1.4986 0) (size 0.89916 0.89916) (drill 0.89916) (layers *.Cu *.Mask))
  (pad "" np_thru_hole circle (at 1.4986 0) (size 0.89916 0.89916) (drill 0.89916) (layers *.Cu *.Mask))
)
