(module WS-ROSV_rev19b-434353045816 (layer F.Cu) (tedit 200000)
  (descr "WS-TUS-3.5X4.7 MM SIDE PUSH J-BEND SMD TACT SWITCH, 4 PINS")
  (tags "WS-TUS-3.5X4.7 MM SIDE PUSH J-BEND SMD TACT SWITCH, 4 PINS")
  (attr smd)
  (fp_text reference >NAME (at -0.09398 -2.85496) (layer F.SilkS)
    (effects (font (size 0.8128 0.8128) (thickness 0.0762)))
  )
  (fp_text value >VALUE (at 4.2418 2.62128) (layer F.SilkS)
    (effects (font (size 0.8128 0.8128) (thickness 0.0762)))
  )
  (fp_line (start 2.3495 1.74752) (end 2.3495 -1.74752) (layer Dwgs.User) (width 0.127))
  (fp_line (start 2.3495 -1.74752) (end -2.3495 -1.74752) (layer F.SilkS) (width 0.127))
  (fp_line (start -2.3495 -1.74752) (end -2.3495 1.74752) (layer Dwgs.User) (width 0.127))
  (fp_line (start -1.29794 2.74828) (end 1.29794 2.74828) (layer Dwgs.User) (width 0.127))
  (fp_line (start 1.29794 2.74828) (end 1.29794 1.74752) (layer Dwgs.User) (width 0.127))
  (fp_line (start 2.3495 1.74752) (end -2.3495 1.74752) (layer F.SilkS) (width 0.127))
  (fp_line (start -1.29794 1.74752) (end -1.29794 2.74828) (layer Dwgs.User) (width 0.127))
  (fp_line (start -2.3495 -1.74752) (end -2.3495 -1.53924) (layer F.SilkS) (width 0.127))
  (fp_line (start 2.3495 -1.74752) (end 2.3495 -1.55956) (layer F.SilkS) (width 0.127))
  (fp_line (start -2.3495 0.15748) (end -2.3495 -0.14986) (layer F.SilkS) (width 0.127))
  (fp_line (start 2.3495 -0.14986) (end 2.3495 0.14986) (layer F.SilkS) (width 0.127))
  (fp_line (start 2.3495 1.53924) (end 2.3495 1.74752) (layer F.SilkS) (width 0.127))
  (fp_line (start -2.3495 1.53924) (end -2.3495 1.74752) (layer F.SilkS) (width 0.127))
  (fp_poly (pts (xy -3.1496 -1.99898) (xy 3.1496 -1.99898) (xy 3.1496 1.99898) (xy -3.1496 1.99898)
    (xy -3.1496 -1.99898)) (layer Dwgs.User) (width 0.127))
  (fp_circle (center 2.69748 -1.79832) (end 2.69748 -1.84658) (layer F.SilkS) (width 0.19812))
  (fp_text user 1 (at 1.70434 -0.90424) (layer Dwgs.User)
    (effects (font (size 0.6096 0.6096) (thickness 0.0508)))
  )
  (fp_text user 2 (at 1.70434 0.89408) (layer Dwgs.User)
    (effects (font (size 0.6096 0.6096) (thickness 0.0508)))
  )
  (fp_text user 3 (at -1.49352 -0.90424) (layer Dwgs.User)
    (effects (font (size 0.6096 0.6096) (thickness 0.0508)))
  )
  (fp_text user 4 (at -1.49352 0.89408) (layer Dwgs.User)
    (effects (font (size 0.6096 0.6096) (thickness 0.0508)))
  )
  (fp_text user "PCB EDGE" (at 0.11684 1.3462) (layer Dwgs.User)
    (effects (font (size 0.3048 0.3048) (thickness 0.0254)))
  )
  (fp_text user "SWITCH EDGE" (at 0.19558 2.47142) (layer Dwgs.User)
    (effects (font (size 0.254 0.254) (thickness 0.0254)))
  )
  (pad 1 smd rect (at 2.49936 -0.84836) (size 0.99822 0.99822) (layers F.Cu F.Paste F.Mask))
  (pad 2 smd rect (at 2.49936 0.84836) (size 0.99822 0.99822) (layers F.Cu F.Paste F.Mask))
  (pad 3 smd rect (at -2.49936 -0.84836) (size 0.99822 0.99822) (layers F.Cu F.Paste F.Mask))
  (pad 4 smd rect (at -2.49936 0.84836) (size 0.99822 0.99822) (layers F.Cu F.Paste F.Mask))
)
