(module "WS-ROSV_rev19b-471001264142(0._75-1_25)" (layer F.Cu) (tedit 200000)
  (descr "THE PANEL THICKNESS IS 0,75-1,25")
  (tags "THE PANEL THICKNESS IS 0,75-1,25")
  (attr virtual)
  (fp_text reference >NAME (at 0 -8.63346) (layer F.SilkS)
    (effects (font (size 1.27 1.27) (thickness 0.1016)))
  )
  (fp_text value >VALUE (at 0.80772 8.8646) (layer F.SilkS)
    (effects (font (size 1.27 1.27) (thickness 0.1016)))
  )
  (fp_line (start -10.49782 -7.49808) (end 10.49782 -7.49808) (layer F.SilkS) (width 0.19812))
  (fp_line (start 10.49782 -7.49808) (end 10.49782 7.49808) (layer F.SilkS) (width 0.19812))
  (fp_line (start 10.49782 7.49808) (end -10.49782 7.49808) (layer F.SilkS) (width 0.19812))
  (fp_line (start -10.49782 7.49808) (end -10.49782 -7.49808) (layer F.SilkS) (width 0.19812))
  (fp_poly (pts (xy -10.74928 -7.74954) (xy 10.74928 -7.74954) (xy 10.74928 7.74954) (xy -10.74928 7.74954)
    (xy -10.74928 -7.74954)) (layer Dwgs.User) (width 0.19812))
  (fp_poly (pts (xy -9.69772 -6.44906) (xy 9.69772 -6.44906) (xy 9.69772 6.44906) (xy -9.69772 6.44906)
    (xy -9.69772 -6.44906)) (layer Dwgs.User) (width 0.19812))
  (fp_text user "PCB Cutout Area" (at 2.77368 3.36296) (layer Dwgs.User)
    (effects (font (size 1.27 1.27) (thickness 0.1016)))
  )
  (pad 1 thru_hole circle (at 4.99872 0) (size 1.30556 1.30556) (drill 0.79756) (layers *.Cu *.Paste *.Mask))
  (pad 2 thru_hole circle (at -4.99872 0) (size 1.30556 1.30556) (drill 0.79756) (layers *.Cu *.Paste *.Mask))
)
