(module WS-ROSV_rev19b-418217270906A (layer F.Cu) (tedit 200000)
  (attr virtual)
  (fp_text reference >NAME (at 1.40462 -3.94462) (layer F.SilkS)
    (effects (font (size 1.27 1.27) (thickness 0.1016)))
  )
  (fp_text value >VALUE (at 2.03962 9.02462) (layer F.SilkS)
    (effects (font (size 1.27 1.27) (thickness 0.1016)))
  )
  (fp_line (start -8.11784 2.26822) (end 8.11784 2.26822) (layer F.SilkS) (width 0.127))
  (fp_line (start 8.11784 2.26822) (end 8.11784 2.30886) (layer F.SilkS) (width 0.127))
  (fp_line (start 8.11784 2.30886) (end 8.11784 7.5692) (layer F.SilkS) (width 0.127))
  (fp_line (start 8.11784 7.5692) (end -8.11784 7.5692) (layer F.SilkS) (width 0.127))
  (fp_line (start -8.11784 7.5692) (end -8.11784 2.26822) (layer F.SilkS) (width 0.127))
  (fp_line (start -8.14832 2.26822) (end -8.11784 2.26822) (layer F.SilkS) (width 0.127))
  (fp_line (start -8.11784 2.26822) (end -8.11784 -2.1082) (layer F.SilkS) (width 0.127))
  (fp_line (start -8.11784 -2.1082) (end 8.11784 -2.1082) (layer F.SilkS) (width 0.127))
  (fp_line (start 8.11784 -2.1082) (end 8.11784 2.26822) (layer F.SilkS) (width 0.127))
  (fp_poly (pts (xy -8.3693 -2.35966) (xy 8.3693 -2.35966) (xy 8.3693 7.81812) (xy -8.3693 7.81812)
    (xy -8.3693 -2.35966)) (layer Dwgs.User) (width 0.127))
  (fp_text user 1 (at -6.2738 3.29438) (layer Dwgs.User)
    (effects (font (size 1.27 1.27) (thickness 0.1016)))
  )
  (fp_text user 1 (at -6.2738 3.29438) (layer F.SilkS)
    (effects (font (size 1.27 1.27) (thickness 0.1016)))
  )
  (pad 1 thru_hole circle (at -6.35 1.27) (size 1.30556 1.30556) (drill 0.79756) (layers *.Cu *.Paste *.Mask))
  (pad 2 thru_hole circle (at -3.81 1.27) (size 1.30556 1.30556) (drill 0.79756) (layers *.Cu *.Paste *.Mask))
  (pad 3 thru_hole circle (at -1.27 1.27) (size 1.30556 1.30556) (drill 0.79756) (layers *.Cu *.Paste *.Mask))
  (pad 4 thru_hole circle (at 1.27 1.27) (size 1.30556 1.30556) (drill 0.79756) (layers *.Cu *.Paste *.Mask))
  (pad 5 thru_hole circle (at 3.81 1.27) (size 1.30556 1.30556) (drill 0.79756) (layers *.Cu *.Paste *.Mask))
  (pad 6 thru_hole circle (at 6.35 1.27) (size 1.30556 1.30556) (drill 0.79756) (layers *.Cu *.Paste *.Mask))
  (pad A1 thru_hole circle (at -6.35 -1.27) (size 1.30556 1.30556) (drill 0.79756) (layers *.Cu *.Paste *.Mask))
  (pad A2 thru_hole circle (at -3.81 -1.27) (size 1.30556 1.30556) (drill 0.79756) (layers *.Cu *.Paste *.Mask))
  (pad A3 thru_hole circle (at -1.27 -1.27) (size 1.30556 1.30556) (drill 0.79756) (layers *.Cu *.Paste *.Mask))
  (pad A4 thru_hole circle (at 1.27 -1.27) (size 1.30556 1.30556) (drill 0.79756) (layers *.Cu *.Paste *.Mask))
  (pad A5 thru_hole circle (at 3.81 -1.27) (size 1.30556 1.30556) (drill 0.79756) (layers *.Cu *.Paste *.Mask))
  (pad A6 thru_hole circle (at 6.35 -1.27) (size 1.30556 1.30556) (drill 0.79756) (layers *.Cu *.Paste *.Mask))
)
