(module WS-ROSV_rev19b-452404020202 (layer F.Cu) (tedit 200000)
  (attr virtual)
  (fp_text reference >NAME (at 5.64388 0.09906 270) (layer F.SilkS)
    (effects (font (size 0.8128 0.8128) (thickness 0.0762)))
  )
  (fp_text value >VALUE (at -5.60578 -0.8382 90) (layer F.SilkS)
    (effects (font (size 0.8128 0.8128) (thickness 0.0762)))
  )
  (fp_line (start -4.49834 -1.74752) (end 4.49834 -1.74752) (layer Dwgs.User) (width 0.127))
  (fp_line (start 4.49834 -1.74752) (end 4.49834 2.04978) (layer F.SilkS) (width 0.127))
  (fp_line (start 4.49834 2.04978) (end -4.49834 2.04978) (layer Dwgs.User) (width 0.127))
  (fp_line (start -4.49834 2.04978) (end -4.49834 -1.74752) (layer F.SilkS) (width 0.127))
  (fp_line (start -3.62966 -1.74752) (end -4.49834 -1.74752) (layer F.SilkS) (width 0.127))
  (fp_line (start 3.62966 -1.74752) (end 4.49834 -1.74752) (layer F.SilkS) (width 0.127))
  (fp_line (start -3.63982 2.04978) (end -4.49834 2.04978) (layer F.SilkS) (width 0.127))
  (fp_line (start 3.64998 2.04978) (end 4.49834 2.04978) (layer F.SilkS) (width 0.127))
  (fp_poly (pts (xy -4.7498 -2.74828) (xy 4.7498 -2.74828) (xy 4.7498 2.74828) (xy -4.7498 2.74828)
    (xy -4.7498 -2.74828)) (layer Dwgs.User) (width 0.127))
  (fp_circle (center 3.64998 -2.2479) (end 3.64998 -2.29616) (layer F.SilkS) (width 0.254))
  (pad 1 thru_hole circle (at 2.49936 -1.64846) (size 1.40716 1.40716) (drill 0.89916) (layers *.Cu *.Paste *.Mask))
  (pad 2 thru_hole circle (at 0 -1.64846) (size 1.40716 1.40716) (drill 0.89916) (layers *.Cu *.Paste *.Mask))
  (pad 3 thru_hole circle (at -2.49936 -1.64846) (size 1.40716 1.40716) (drill 0.89916) (layers *.Cu *.Paste *.Mask))
  (pad 4 thru_hole circle (at 2.49936 1.64846) (size 1.40716 1.40716) (drill 0.89916) (layers *.Cu *.Paste *.Mask))
  (pad 5 thru_hole circle (at 0 1.64846) (size 1.40716 1.40716) (drill 0.89916) (layers *.Cu *.Paste *.Mask))
  (pad 6 thru_hole circle (at -2.49936 1.64846) (size 1.40716 1.40716) (drill 0.89916) (layers *.Cu *.Paste *.Mask))
)
