(module WS-ROSV_rev19b-428527320908 (layer F.Cu) (tedit 200000)
  (descr "WS-RAT-10X10 MM WASHABLE THT ROTARY SWITCH,6 PINS,8 POSITIONS")
  (tags "WS-RAT-10X10 MM WASHABLE THT ROTARY SWITCH,6 PINS,8 POSITIONS")
  (attr virtual)
  (fp_text reference >NAME (at 0.3175 -6.69036) (layer F.SilkS)
    (effects (font (size 1.27 1.27) (thickness 0.1016)))
  )
  (fp_text value >VALUE (at 0.41656 6.4262) (layer F.SilkS)
    (effects (font (size 1.27 1.27) (thickness 0.1016)))
  )
  (fp_line (start 4.99872 4.99872) (end 4.99872 -4.99872) (layer F.SilkS) (width 0.127))
  (fp_line (start -4.99872 4.99872) (end 4.99872 4.99872) (layer F.SilkS) (width 0.127))
  (fp_line (start 4.99872 -4.99872) (end -4.99872 -4.99872) (layer F.SilkS) (width 0.127))
  (fp_line (start -4.99872 -4.99872) (end -4.99872 4.99872) (layer F.SilkS) (width 0.127))
  (fp_poly (pts (xy -5.24764 -5.24764) (xy 5.24764 -5.24764) (xy 5.24764 5.24764) (xy -5.24764 5.24764)
    (xy -5.24764 -5.24764)) (layer Dwgs.User) (width 0.127))
  (fp_circle (center -4.19862 4.29768) (end -4.19862 4.24942) (layer F.SilkS) (width 0.19812))
  (fp_text user 1 (at -2.4384 1.50876) (layer Dwgs.User)
    (effects (font (size 1.27 1.27) (thickness 0.1016)))
  )
  (fp_text user 4 (at 2.83972 1.50876) (layer Dwgs.User)
    (effects (font (size 1.27 1.27) (thickness 0.1016)))
  )
  (fp_text user 2 (at 3.13944 -1.70942) (layer Dwgs.User)
    (effects (font (size 1.27 1.27) (thickness 0.1016)))
  )
  (fp_text user 8 (at -2.63906 -1.83896) (layer Dwgs.User)
    (effects (font (size 1.27 1.27) (thickness 0.1016)))
  )
  (fp_text user C2 (at 0.26416 -1.83896) (layer Dwgs.User)
    (effects (font (size 1.27 1.27) (thickness 0.1016)))
  )
  (fp_text user C1 (at 0.23368 1.4097) (layer Dwgs.User)
    (effects (font (size 1.27 1.27) (thickness 0.1016)))
  )
  (pad 1 thru_hole circle (at -2.54 3.81) (size 1.50622 1.50622) (drill 0.99822) (layers *.Cu *.Paste *.Mask))
  (pad 2 thru_hole circle (at 2.54 -3.81) (size 1.50622 1.50622) (drill 0.99822) (layers *.Cu *.Paste *.Mask))
  (pad 4 thru_hole circle (at 2.54 3.81) (size 1.50622 1.50622) (drill 0.99822) (layers *.Cu *.Paste *.Mask))
  (pad 8 thru_hole circle (at -2.54 -3.81) (size 1.50622 1.50622) (drill 0.99822) (layers *.Cu *.Paste *.Mask))
  (pad C1 thru_hole circle (at 0 3.81) (size 1.50622 1.50622) (drill 0.99822) (layers *.Cu *.Paste *.Mask))
  (pad C2 thru_hole circle (at 0 -3.81) (size 1.50622 1.50622) (drill 0.99822) (layers *.Cu *.Paste *.Mask))
)
