(module HSOP-20-1EP_11.0x15.9mm_P1.27mm_SlugDown (layer F.Cu) (tedit 5A02F2D3)
  (descr "HSOP 11.0x15.9mm Pitch 1.27mm Slug Down (PowerSO-20) [JEDEC MO-166] (http://www.st.com/resource/en/datasheet/tda7266d.pdf, www.st.com/resource/en/application_note/cd00003801.pdf)")
  (tags "HSOP 11.0 x 15.9mm Pitch 1.27mm")
  (attr smd)
  (fp_text reference REF** (at 0 -9.8) (layer F.SilkS)
    (effects (font (size 1 1) (thickness 0.15)))
  )
  (fp_text value HSOP-20-1EP_11.0x15.9mm_P1.27mm_SlugDown (at 0 9.8) (layer F.Fab)
    (effects (font (size 1 1) (thickness 0.15)))
  )
  (fp_line (start 5.6 -8.05) (end 5.6 -6.3) (layer F.SilkS) (width 0.12))
  (fp_line (start 5.6 8.05) (end 5.6 6.3) (layer F.SilkS) (width 0.12))
  (fp_line (start -2.75 8.05) (end -5.6 8.05) (layer F.SilkS) (width 0.12))
  (fp_line (start -5.6 8.05) (end -5.6 6.3) (layer F.SilkS) (width 0.12))
  (fp_line (start 5.6 -8.05) (end 2.75 -8.05) (layer F.SilkS) (width 0.12))
  (fp_line (start -5.6 -8.05) (end -5.6 -6.3) (layer F.SilkS) (width 0.12))
  (fp_line (start -5.6 -6.3) (end -7.6 -6.3) (layer F.SilkS) (width 0.12))
  (fp_text user %R (at 0 0) (layer F.Fab)
    (effects (font (size 1 1) (thickness 0.15)))
  )
  (fp_line (start -5.5 7.95) (end 5.5 7.95) (layer F.Fab) (width 0.1))
  (fp_line (start 5.5 7.95) (end 5.5 -7.95) (layer F.Fab) (width 0.1))
  (fp_line (start 5.5 -7.95) (end -4.5 -7.95) (layer F.Fab) (width 0.1))
  (fp_line (start -4.5 -7.95) (end -5.5 -6.95) (layer F.Fab) (width 0.1))
  (fp_line (start -5.5 -6.95) (end -5.5 7.95) (layer F.Fab) (width 0.1))
  (fp_line (start -7.95 -9.1) (end 7.95 -9.1) (layer F.CrtYd) (width 0.05))
  (fp_line (start -7.95 -9.1) (end -7.95 9.1) (layer F.CrtYd) (width 0.05))
  (fp_line (start 7.95 9.1) (end 7.95 -9.1) (layer F.CrtYd) (width 0.05))
  (fp_line (start 7.95 9.1) (end -7.95 9.1) (layer F.CrtYd) (width 0.05))
  (fp_line (start -2.75 -8.05) (end -5.6 -8.05) (layer F.SilkS) (width 0.12))
  (fp_line (start 5.6 8.05) (end 2.75 8.05) (layer F.SilkS) (width 0.12))
  (pad 1 smd rect (at -6.85 -5.715) (size 1.7 0.7) (layers F.Cu F.Paste F.Mask))
  (pad 21 smd rect (at 0 0) (size 9.4 14.8) (layers F.Cu F.Paste F.Mask))
  (pad 2 smd rect (at -6.85 -4.445) (size 1.7 0.7) (layers F.Cu F.Paste F.Mask))
  (pad 3 smd rect (at -6.85 -3.175) (size 1.7 0.7) (layers F.Cu F.Paste F.Mask))
  (pad 4 smd rect (at -6.85 -1.905) (size 1.7 0.7) (layers F.Cu F.Paste F.Mask))
  (pad 5 smd rect (at -6.85 -0.635) (size 1.7 0.7) (layers F.Cu F.Paste F.Mask))
  (pad 6 smd rect (at -6.85 0.635) (size 1.7 0.7) (layers F.Cu F.Paste F.Mask))
  (pad 7 smd rect (at -6.85 1.905) (size 1.7 0.7) (layers F.Cu F.Paste F.Mask))
  (pad 8 smd rect (at -6.85 3.175) (size 1.7 0.7) (layers F.Cu F.Paste F.Mask))
  (pad 9 smd rect (at -6.85 4.445) (size 1.7 0.7) (layers F.Cu F.Paste F.Mask))
  (pad 10 smd rect (at -6.85 5.715) (size 1.7 0.7) (layers F.Cu F.Paste F.Mask))
  (pad 11 smd rect (at 6.85 5.715) (size 1.7 0.7) (layers F.Cu F.Paste F.Mask))
  (pad 12 smd rect (at 6.85 4.445) (size 1.7 0.7) (layers F.Cu F.Paste F.Mask))
  (pad 13 smd rect (at 6.85 3.175) (size 1.7 0.7) (layers F.Cu F.Paste F.Mask))
  (pad 14 smd rect (at 6.85 1.905) (size 1.7 0.7) (layers F.Cu F.Paste F.Mask))
  (pad 15 smd rect (at 6.85 0.635) (size 1.7 0.7) (layers F.Cu F.Paste F.Mask))
  (pad 16 smd rect (at 6.85 -0.635) (size 1.7 0.7) (layers F.Cu F.Paste F.Mask))
  (pad 17 smd rect (at 6.85 -1.905) (size 1.7 0.7) (layers F.Cu F.Paste F.Mask))
  (pad 18 smd rect (at 6.85 -3.175) (size 1.7 0.7) (layers F.Cu F.Paste F.Mask))
  (pad 19 smd rect (at 6.85 -4.445) (size 1.7 0.7) (layers F.Cu F.Paste F.Mask))
  (pad 20 smd rect (at 6.85 -5.715) (size 1.7 0.7) (layers F.Cu F.Paste F.Mask))
  (pad 21 smd rect (at 0 -8.125) (size 5 1.45) (layers F.Cu F.Paste F.Mask))
  (pad 21 smd rect (at 0 8.125) (size 5 1.45) (layers F.Cu F.Paste F.Mask))
  (model ${KIPRJMOD}/kicad_libs_k/models_k.3d/Package_SO_k.3dshapes/HSOP-20-1EP_11.0x15.9mm_P1.27mm_SlugDown_k.wrl
    (at (xyz 0 0 0))
    (scale (xyz 1 1 1))
    (rotate (xyz 0 0 0))
  )
)
