(module HSOP-36-1EP_11.0x15.9mm_P0.65mm_SlugUp (layer F.Cu) (tedit 5A02F25C)
  (descr "HSOP 11.0x15.9mm Pitch 0.65mm Slug Up (PowerSO-36) [JEDEC MO-166] (http://www.st.com/resource/en/datasheet/vn808cm-32-e.pdf, http://www.st.com/resource/en/application_note/cd00003801.pdf)")
  (tags "HSOP 11.0 x 15.9mm Pitch 0.65mm")
  (attr smd)
  (fp_text reference REF** (at 0 -8.9) (layer F.SilkS)
    (effects (font (size 1 1) (thickness 0.15)))
  )
  (fp_text value HSOP-36-1EP_11.0x15.9mm_P0.65mm_SlugUp (at 0 8.9) (layer F.Fab)
    (effects (font (size 1 1) (thickness 0.15)))
  )
  (fp_line (start 5.6 -8.05) (end 5.6 -6) (layer F.SilkS) (width 0.12))
  (fp_line (start 5.6 8.05) (end 5.6 6) (layer F.SilkS) (width 0.12))
  (fp_line (start 5.6 8.05) (end -5.6 8.05) (layer F.SilkS) (width 0.12))
  (fp_line (start -5.6 8.05) (end -5.6 6) (layer F.SilkS) (width 0.12))
  (fp_line (start -5.6 -8.05) (end -5.6 -6) (layer F.SilkS) (width 0.12))
  (fp_line (start -5.6 -6) (end -7.6 -6) (layer F.SilkS) (width 0.12))
  (fp_text user %R (at 0 0) (layer F.Fab)
    (effects (font (size 1 1) (thickness 0.15)))
  )
  (fp_line (start -5.5 7.95) (end 5.5 7.95) (layer F.Fab) (width 0.1))
  (fp_line (start 5.5 7.95) (end 5.5 -7.95) (layer F.Fab) (width 0.1))
  (fp_line (start 5.5 -7.95) (end -4.5 -7.95) (layer F.Fab) (width 0.1))
  (fp_line (start -4.5 -7.95) (end -5.5 -6.95) (layer F.Fab) (width 0.1))
  (fp_line (start -5.5 -6.95) (end -5.5 7.95) (layer F.Fab) (width 0.1))
  (fp_line (start -7.95 -8.2) (end 7.95 -8.2) (layer F.CrtYd) (width 0.05))
  (fp_line (start -7.95 -8.2) (end -7.95 8.2) (layer F.CrtYd) (width 0.05))
  (fp_line (start 7.95 8.2) (end 7.95 -8.2) (layer F.CrtYd) (width 0.05))
  (fp_line (start 7.95 8.2) (end -7.95 8.2) (layer F.CrtYd) (width 0.05))
  (fp_line (start 5.6 -8.05) (end -5.6 -8.05) (layer F.SilkS) (width 0.12))
  (pad 1 smd rect (at -6.85 -5.525) (size 1.7 0.38) (layers F.Cu F.Paste F.Mask))
  (pad 19 smd rect (at 6.85 5.525) (size 1.7 0.38) (layers F.Cu F.Paste F.Mask))
  (pad 2 smd rect (at -6.85 -4.875) (size 1.7 0.38) (layers F.Cu F.Paste F.Mask))
  (pad 3 smd rect (at -6.85 -4.225) (size 1.7 0.38) (layers F.Cu F.Paste F.Mask))
  (pad 4 smd rect (at -6.85 -3.575) (size 1.7 0.38) (layers F.Cu F.Paste F.Mask))
  (pad 5 smd rect (at -6.85 -2.925) (size 1.7 0.38) (layers F.Cu F.Paste F.Mask))
  (pad 6 smd rect (at -6.85 -2.275) (size 1.7 0.38) (layers F.Cu F.Paste F.Mask))
  (pad 7 smd rect (at -6.85 -1.625) (size 1.7 0.38) (layers F.Cu F.Paste F.Mask))
  (pad 8 smd rect (at -6.85 -0.975) (size 1.7 0.38) (layers F.Cu F.Paste F.Mask))
  (pad 9 smd rect (at -6.85 -0.325) (size 1.7 0.38) (layers F.Cu F.Paste F.Mask))
  (pad 10 smd rect (at -6.85 0.325) (size 1.7 0.38) (layers F.Cu F.Paste F.Mask))
  (pad 11 smd rect (at -6.85 0.975) (size 1.7 0.38) (layers F.Cu F.Paste F.Mask))
  (pad 12 smd rect (at -6.85 1.625) (size 1.7 0.38) (layers F.Cu F.Paste F.Mask))
  (pad 13 smd rect (at -6.85 2.275) (size 1.7 0.38) (layers F.Cu F.Paste F.Mask))
  (pad 14 smd rect (at -6.85 2.925) (size 1.7 0.38) (layers F.Cu F.Paste F.Mask))
  (pad 15 smd rect (at -6.85 3.575) (size 1.7 0.38) (layers F.Cu F.Paste F.Mask))
  (pad 16 smd rect (at -6.85 4.225) (size 1.7 0.38) (layers F.Cu F.Paste F.Mask))
  (pad 17 smd rect (at -6.85 4.875) (size 1.7 0.38) (layers F.Cu F.Paste F.Mask))
  (pad 18 smd rect (at -6.85 5.525) (size 1.7 0.38) (layers F.Cu F.Paste F.Mask))
  (pad 20 smd rect (at 6.85 4.875) (size 1.7 0.38) (layers F.Cu F.Paste F.Mask))
  (pad 21 smd rect (at 6.85 4.225) (size 1.7 0.38) (layers F.Cu F.Paste F.Mask))
  (pad 22 smd rect (at 6.85 3.575) (size 1.7 0.38) (layers F.Cu F.Paste F.Mask))
  (pad 23 smd rect (at 6.85 2.925) (size 1.7 0.38) (layers F.Cu F.Paste F.Mask))
  (pad 24 smd rect (at 6.85 2.275) (size 1.7 0.38) (layers F.Cu F.Paste F.Mask))
  (pad 25 smd rect (at 6.85 1.625) (size 1.7 0.38) (layers F.Cu F.Paste F.Mask))
  (pad 26 smd rect (at 6.85 0.975) (size 1.7 0.38) (layers F.Cu F.Paste F.Mask))
  (pad 27 smd rect (at 6.85 0.325) (size 1.7 0.38) (layers F.Cu F.Paste F.Mask))
  (pad 28 smd rect (at 6.85 -0.325) (size 1.7 0.38) (layers F.Cu F.Paste F.Mask))
  (pad 29 smd rect (at 6.85 -0.975) (size 1.7 0.38) (layers F.Cu F.Paste F.Mask))
  (pad 30 smd rect (at 6.85 -1.625) (size 1.7 0.38) (layers F.Cu F.Paste F.Mask))
  (pad 31 smd rect (at 6.85 -2.275) (size 1.7 0.38) (layers F.Cu F.Paste F.Mask))
  (pad 32 smd rect (at 6.85 -2.925) (size 1.7 0.38) (layers F.Cu F.Paste F.Mask))
  (pad 33 smd rect (at 6.85 -3.575) (size 1.7 0.38) (layers F.Cu F.Paste F.Mask))
  (pad 34 smd rect (at 6.85 -4.225) (size 1.7 0.38) (layers F.Cu F.Paste F.Mask))
  (pad 35 smd rect (at 6.85 -4.875) (size 1.7 0.38) (layers F.Cu F.Paste F.Mask))
  (pad 36 smd rect (at 6.85 -5.525) (size 1.7 0.38) (layers F.Cu F.Paste F.Mask))
  (model ${KIPRJMOD}/kicad_libs_k/models_k.3d/Package_SO_k.3dshapes/HSOP-36-1EP_11.0x15.9mm_P0.65mm_SlugUp_k.wrl
    (at (xyz 0 0 0))
    (scale (xyz 1 1 1))
    (rotate (xyz 0 0 0))
  )
)
