(module HTSSOP-28-1EP_4.4x9.7mm_P0.65mm_EP3.4x9.5mm_Mask2.4x6.17mm_ThermalVias (layer F.Cu) (tedit 5A671B3A)
  (descr "HTSSOP28: plastic thin shrink small outline package; 28 leads; body width 4.4 mm; thermal pad")
  (tags "TSSOP HTSSOP 0.65 thermal pad")
  (attr smd)
  (fp_text reference REF** (at 0 -5.9) (layer F.SilkS)
    (effects (font (size 1 1) (thickness 0.15)))
  )
  (fp_text value HTSSOP-28-1EP_4.4x9.7mm_P0.65mm_EP3.4x9.5mm_Mask2.4x6.17mm_ThermalVias (at 0 5.9) (layer F.Fab)
    (effects (font (size 1 1) (thickness 0.15)))
  )
  (fp_line (start -1.2 -4.85) (end 2.2 -4.85) (layer F.Fab) (width 0.15))
  (fp_line (start 2.2 -4.85) (end 2.2 4.85) (layer F.Fab) (width 0.15))
  (fp_line (start 2.2 4.9008) (end -2.2 4.9008) (layer F.Fab) (width 0.15))
  (fp_line (start -2.2 4.85) (end -2.2 -3.85) (layer F.Fab) (width 0.15))
  (fp_line (start -2.2 -3.85) (end -1.2 -4.85) (layer F.Fab) (width 0.15))
  (fp_line (start -3.65 -5.15) (end -3.65 5.15) (layer F.CrtYd) (width 0.05))
  (fp_line (start 3.65 -5.15) (end 3.65 5.15) (layer F.CrtYd) (width 0.05))
  (fp_line (start -3.65 -5.15) (end 3.65 -5.15) (layer F.CrtYd) (width 0.05))
  (fp_line (start -3.65 5.15) (end 3.65 5.15) (layer F.CrtYd) (width 0.05))
  (fp_line (start -2.325 -4.975) (end -2.325 -4.75) (layer F.SilkS) (width 0.15))
  (fp_line (start 2.325 -4.975) (end 2.325 -4.65) (layer F.SilkS) (width 0.15))
  (fp_line (start 2.325 5.0258) (end 2.325 4.7008) (layer F.SilkS) (width 0.15))
  (fp_line (start -2.325 5.0258) (end -2.325 4.7008) (layer F.SilkS) (width 0.15))
  (fp_line (start -2.325 -4.975) (end 2.325 -4.975) (layer F.SilkS) (width 0.15))
  (fp_line (start -2.325 5.0258) (end 2.325 5.0258) (layer F.SilkS) (width 0.15))
  (fp_line (start -2.325 -4.75) (end -3.4 -4.75) (layer F.SilkS) (width 0.15))
  (fp_text user %R (at 0 0) (layer F.Fab)
    (effects (font (size 0.8 0.8) (thickness 0.15)))
  )
  (pad 1 smd rect (at -2.85 -4.225) (size 1.1 0.4) (layers F.Cu F.Paste F.Mask))
  (pad 2 smd rect (at -2.85 -3.575) (size 1.1 0.4) (layers F.Cu F.Paste F.Mask))
  (pad 3 smd rect (at -2.85 -2.925) (size 1.1 0.4) (layers F.Cu F.Paste F.Mask))
  (pad 4 smd rect (at -2.85 -2.275) (size 1.1 0.4) (layers F.Cu F.Paste F.Mask))
  (pad 5 smd rect (at -2.85 -1.625) (size 1.1 0.4) (layers F.Cu F.Paste F.Mask))
  (pad 6 smd rect (at -2.85 -0.975) (size 1.1 0.4) (layers F.Cu F.Paste F.Mask))
  (pad 7 smd rect (at -2.85 -0.325) (size 1.1 0.4) (layers F.Cu F.Paste F.Mask))
  (pad 8 smd rect (at -2.85 0.325) (size 1.1 0.4) (layers F.Cu F.Paste F.Mask))
  (pad 9 smd rect (at -2.85 0.975) (size 1.1 0.4) (layers F.Cu F.Paste F.Mask))
  (pad 10 smd rect (at -2.85 1.625) (size 1.1 0.4) (layers F.Cu F.Paste F.Mask))
  (pad 11 smd rect (at -2.85 2.275) (size 1.1 0.4) (layers F.Cu F.Paste F.Mask))
  (pad 12 smd rect (at -2.85 2.925) (size 1.1 0.4) (layers F.Cu F.Paste F.Mask))
  (pad 13 smd rect (at -2.85 3.575) (size 1.1 0.4) (layers F.Cu F.Paste F.Mask))
  (pad 14 smd rect (at -2.85 4.225) (size 1.1 0.4) (layers F.Cu F.Paste F.Mask))
  (pad 15 smd rect (at 2.85 4.225) (size 1.1 0.4) (layers F.Cu F.Paste F.Mask))
  (pad 16 smd rect (at 2.85 3.575) (size 1.1 0.4) (layers F.Cu F.Paste F.Mask))
  (pad 17 smd rect (at 2.85 2.925) (size 1.1 0.4) (layers F.Cu F.Paste F.Mask))
  (pad 18 smd rect (at 2.85 2.275) (size 1.1 0.4) (layers F.Cu F.Paste F.Mask))
  (pad 19 smd rect (at 2.85 1.625) (size 1.1 0.4) (layers F.Cu F.Paste F.Mask))
  (pad 20 smd rect (at 2.85 0.975) (size 1.1 0.4) (layers F.Cu F.Paste F.Mask))
  (pad 21 smd rect (at 2.85 0.325) (size 1.1 0.4) (layers F.Cu F.Paste F.Mask))
  (pad 22 smd rect (at 2.85 -0.325) (size 1.1 0.4) (layers F.Cu F.Paste F.Mask))
  (pad 23 smd rect (at 2.85 -0.975) (size 1.1 0.4) (layers F.Cu F.Paste F.Mask))
  (pad 24 smd rect (at 2.85 -1.625) (size 1.1 0.4) (layers F.Cu F.Paste F.Mask))
  (pad 25 smd rect (at 2.85 -2.275) (size 1.1 0.4) (layers F.Cu F.Paste F.Mask))
  (pad 26 smd rect (at 2.85 -2.925) (size 1.1 0.4) (layers F.Cu F.Paste F.Mask))
  (pad 27 smd rect (at 2.85 -3.575) (size 1.1 0.4) (layers F.Cu F.Paste F.Mask))
  (pad 28 smd rect (at 2.85 -4.225) (size 1.1 0.4) (layers F.Cu F.Paste F.Mask))
  (pad 29 smd rect (at 0 0) (size 3.4 9.7) (layers F.Cu))
  (pad 29 thru_hole circle (at -1.3 -4.45) (size 0.6 0.6) (drill 0.3) (layers *.Cu))
  (pad 29 thru_hole circle (at 0 -4.45) (size 0.6 0.6) (drill 0.3) (layers *.Cu))
  (pad 29 thru_hole circle (at 1.3 -4.45) (size 0.6 0.6) (drill 0.3) (layers *.Cu))
  (pad 29 thru_hole circle (at 1.3 -2.67) (size 0.6 0.6) (drill 0.3) (layers *.Cu))
  (pad 29 thru_hole circle (at 0 -2.67) (size 0.6 0.6) (drill 0.3) (layers *.Cu))
  (pad 29 thru_hole circle (at -1.3 -2.67) (size 0.6 0.6) (drill 0.3) (layers *.Cu))
  (pad 29 thru_hole circle (at 1.3 -0.89) (size 0.6 0.6) (drill 0.3) (layers *.Cu))
  (pad 29 thru_hole circle (at 0 -0.89) (size 0.6 0.6) (drill 0.3) (layers *.Cu))
  (pad 29 thru_hole circle (at -1.3 -0.89) (size 0.6 0.6) (drill 0.3) (layers *.Cu))
  (pad 29 thru_hole circle (at 1.3 0.89) (size 0.6 0.6) (drill 0.3) (layers *.Cu))
  (pad 29 thru_hole circle (at 0 0.89) (size 0.6 0.6) (drill 0.3) (layers *.Cu))
  (pad 29 thru_hole circle (at -1.3 0.89) (size 0.6 0.6) (drill 0.3) (layers *.Cu))
  (pad 29 thru_hole circle (at 1.3 2.67) (size 0.6 0.6) (drill 0.3) (layers *.Cu))
  (pad 29 thru_hole circle (at 0 2.67) (size 0.6 0.6) (drill 0.3) (layers *.Cu))
  (pad 29 thru_hole circle (at -1.3 2.67) (size 0.6 0.6) (drill 0.3) (layers *.Cu))
  (pad 29 thru_hole circle (at 1.3 4.45) (size 0.6 0.6) (drill 0.3) (layers *.Cu))
  (pad 29 thru_hole circle (at 0 4.45) (size 0.6 0.6) (drill 0.3) (layers *.Cu))
  (pad 29 thru_hole circle (at -1.3 4.45) (size 0.6 0.6) (drill 0.3) (layers *.Cu))
  (pad "" smd rect (at 0 0) (size 2.4 6.17) (layers F.Mask))
  (pad "" smd rect (at -0.6 -1.78) (size 0.9 1.4) (layers F.Paste))
  (pad "" smd rect (at 0.6 -1.78) (size 0.9 1.4) (layers F.Paste))
  (pad "" smd rect (at 0.6 0) (size 0.9 1.4) (layers F.Paste))
  (pad "" smd rect (at -0.6 0) (size 0.9 1.4) (layers F.Paste))
  (pad "" smd rect (at 0.6 1.78) (size 0.9 1.4) (layers F.Paste))
  (pad "" smd rect (at -0.6 1.78) (size 0.9 1.4) (layers F.Paste))
  (pad 29 smd rect (at 0 0) (size 3.4 9.7) (layers B.Cu))
  (model ${KIPRJMOD}/kicad_libs_k/models_k.3d/Package_SO_k.3dshapes/HTSSOP-28-1EP_4.4x9.7mm_P0.65mm_EP3.4x9.5mm_k.wrl
    (at (xyz 0 0 0))
    (scale (xyz 1 1 1))
    (rotate (xyz 0 0 0))
  )
)
