(module HTSSOP-16-1EP_4.4x5mm_P0.65mm_EP3.4x5mm (layer F.Cu) (tedit 5A6710BF)
  (descr "16-Lead Plastic HTSSOP (4.4x5x1.2mm); Thermal pad; (http://www.ti.com/lit/ds/symlink/drv8833.pdf)")
  (tags "SSOP 0.65")
  (attr smd)
  (fp_text reference REF** (at 0 -3.55) (layer F.SilkS)
    (effects (font (size 1 1) (thickness 0.15)))
  )
  (fp_text value HTSSOP-16-1EP_4.4x5mm_P0.65mm_EP3.4x5mm (at 0 3.55) (layer F.Fab)
    (effects (font (size 1 1) (thickness 0.15)))
  )
  (fp_text user %R (at 0 0) (layer F.Fab)
    (effects (font (size 1 1) (thickness 0.15)))
  )
  (fp_line (start -1.2 -2.5) (end 2.2 -2.5) (layer F.Fab) (width 0.15))
  (fp_line (start 2.2 -2.5) (end 2.2 2.5) (layer F.Fab) (width 0.15))
  (fp_line (start 2.2 2.5) (end -2.2 2.5) (layer F.Fab) (width 0.15))
  (fp_line (start -2.2 2.5) (end -2.2 -1.5) (layer F.Fab) (width 0.15))
  (fp_line (start -2.2 -1.5) (end -1.2 -2.5) (layer F.Fab) (width 0.15))
  (fp_line (start -3.5 -2.9) (end -3.5 2.8) (layer F.CrtYd) (width 0.05))
  (fp_line (start 3.5 -2.9) (end 3.5 2.8) (layer F.CrtYd) (width 0.05))
  (fp_line (start -3.5 -2.9) (end 3.5 -2.9) (layer F.CrtYd) (width 0.05))
  (fp_line (start -3.5 2.8) (end 3.5 2.8) (layer F.CrtYd) (width 0.05))
  (fp_line (start -2.25 2.725) (end 2.25 2.725) (layer F.SilkS) (width 0.15))
  (fp_line (start -3.375 -2.825) (end 2.25 -2.825) (layer F.SilkS) (width 0.15))
  (pad 1 smd rect (at -2.775 -2.275) (size 1.05 0.45) (layers F.Cu F.Paste F.Mask))
  (pad 2 smd rect (at -2.775 -1.625) (size 1.05 0.45) (layers F.Cu F.Paste F.Mask))
  (pad 3 smd rect (at -2.775 -0.975) (size 1.05 0.45) (layers F.Cu F.Paste F.Mask))
  (pad 4 smd rect (at -2.775 -0.325) (size 1.05 0.45) (layers F.Cu F.Paste F.Mask))
  (pad 5 smd rect (at -2.775 0.325) (size 1.05 0.45) (layers F.Cu F.Paste F.Mask))
  (pad 6 smd rect (at -2.775 0.975) (size 1.05 0.45) (layers F.Cu F.Paste F.Mask))
  (pad 7 smd rect (at -2.775 1.625) (size 1.05 0.45) (layers F.Cu F.Paste F.Mask))
  (pad 8 smd rect (at -2.775 2.275) (size 1.05 0.45) (layers F.Cu F.Paste F.Mask))
  (pad 9 smd rect (at 2.775 2.275) (size 1.05 0.45) (layers F.Cu F.Paste F.Mask))
  (pad 10 smd rect (at 2.775 1.625) (size 1.05 0.45) (layers F.Cu F.Paste F.Mask))
  (pad 11 smd rect (at 2.775 0.975) (size 1.05 0.45) (layers F.Cu F.Paste F.Mask))
  (pad 12 smd rect (at 2.775 0.325) (size 1.05 0.45) (layers F.Cu F.Paste F.Mask))
  (pad 13 smd rect (at 2.775 -0.325) (size 1.05 0.45) (layers F.Cu F.Paste F.Mask))
  (pad 14 smd rect (at 2.775 -0.975) (size 1.05 0.45) (layers F.Cu F.Paste F.Mask))
  (pad 15 smd rect (at 2.775 -1.625) (size 1.05 0.45) (layers F.Cu F.Paste F.Mask))
  (pad 16 smd rect (at 2.775 -2.275) (size 1.05 0.45) (layers F.Cu F.Paste F.Mask))
  (pad 17 smd rect (at 0 0) (size 3.4 5) (layers F.Cu F.Mask))
  (pad "" smd rect (at -1.1334 -1.875) (size 0.88 1.05) (layers F.Paste))
  (pad "" smd rect (at 0 -1.875) (size 0.88 1.05) (layers F.Paste))
  (pad "" smd rect (at 1.1334 -1.875) (size 0.88 1.05) (layers F.Paste))
  (pad "" smd rect (at 1.1334 -0.625) (size 0.88 1.05) (layers F.Paste))
  (pad "" smd rect (at 0 -0.625) (size 0.88 1.05) (layers F.Paste))
  (pad "" smd rect (at -1.1334 -0.625) (size 0.88 1.05) (layers F.Paste))
  (pad "" smd rect (at 1.1334 0.625) (size 0.88 1.05) (layers F.Paste))
  (pad "" smd rect (at 0 0.625) (size 0.88 1.05) (layers F.Paste))
  (pad "" smd rect (at -1.1334 0.625) (size 0.88 1.05) (layers F.Paste))
  (pad "" smd rect (at 1.1334 1.875) (size 0.88 1.05) (layers F.Paste))
  (pad "" smd rect (at 0 1.875) (size 0.88 1.05) (layers F.Paste))
  (pad "" smd rect (at -1.1334 1.875) (size 0.88 1.05) (layers F.Paste))
  (model ${KIPRJMOD}/kicad_libs_k/models_k.3d/Package_SO_k.3dshapes/TSSOP-16-1EP_4.4x5mm_Pitch0.65mm_EP3.4x5mm_k.wrl
    (at (xyz 0 0 0))
    (scale (xyz 1 1 1))
    (rotate (xyz 0 0 0))
  )
)
