(module MSOP-10_3x3mm_P0.5mm (layer F.Cu) (tedit 5A02F25C)
  (descr "10-Lead Plastic Micro Small Outline Package (MS) [MSOP] (see Microchip Packaging Specification 00000049BS.pdf)")
  (tags "SSOP 0.5")
  (attr smd)
  (fp_text reference REF** (at 0 -2.6) (layer F.SilkS)
    (effects (font (size 1 1) (thickness 0.15)))
  )
  (fp_text value MSOP-10_3x3mm_P0.5mm (at 0 2.6) (layer F.Fab)
    (effects (font (size 1 1) (thickness 0.15)))
  )
  (fp_line (start -0.5 -1.5) (end 1.5 -1.5) (layer F.Fab) (width 0.15))
  (fp_line (start 1.5 -1.5) (end 1.5 1.5) (layer F.Fab) (width 0.15))
  (fp_line (start 1.5 1.5) (end -1.5 1.5) (layer F.Fab) (width 0.15))
  (fp_line (start -1.5 1.5) (end -1.5 -0.5) (layer F.Fab) (width 0.15))
  (fp_line (start -1.5 -0.5) (end -0.5 -1.5) (layer F.Fab) (width 0.15))
  (fp_line (start -3.15 -1.85) (end -3.15 1.85) (layer F.CrtYd) (width 0.05))
  (fp_line (start 3.15 -1.85) (end 3.15 1.85) (layer F.CrtYd) (width 0.05))
  (fp_line (start -3.15 -1.85) (end 3.15 -1.85) (layer F.CrtYd) (width 0.05))
  (fp_line (start -3.15 1.85) (end 3.15 1.85) (layer F.CrtYd) (width 0.05))
  (fp_line (start -1.675 -1.675) (end -1.675 -1.45) (layer F.SilkS) (width 0.15))
  (fp_line (start 1.675 -1.675) (end 1.675 -1.375) (layer F.SilkS) (width 0.15))
  (fp_line (start 1.675 1.675) (end 1.675 1.375) (layer F.SilkS) (width 0.15))
  (fp_line (start -1.675 1.675) (end -1.675 1.375) (layer F.SilkS) (width 0.15))
  (fp_line (start -1.675 -1.675) (end 1.675 -1.675) (layer F.SilkS) (width 0.15))
  (fp_line (start -1.675 1.675) (end 1.675 1.675) (layer F.SilkS) (width 0.15))
  (fp_line (start -1.675 -1.45) (end -2.9 -1.45) (layer F.SilkS) (width 0.15))
  (fp_text user %R (at 0 0) (layer F.Fab)
    (effects (font (size 0.6 0.6) (thickness 0.15)))
  )
  (pad 1 smd rect (at -2.2 -1) (size 1.4 0.3) (layers F.Cu F.Paste F.Mask))
  (pad 2 smd rect (at -2.2 -0.5) (size 1.4 0.3) (layers F.Cu F.Paste F.Mask))
  (pad 3 smd rect (at -2.2 0) (size 1.4 0.3) (layers F.Cu F.Paste F.Mask))
  (pad 4 smd rect (at -2.2 0.5) (size 1.4 0.3) (layers F.Cu F.Paste F.Mask))
  (pad 5 smd rect (at -2.2 1) (size 1.4 0.3) (layers F.Cu F.Paste F.Mask))
  (pad 6 smd rect (at 2.2 1) (size 1.4 0.3) (layers F.Cu F.Paste F.Mask))
  (pad 7 smd rect (at 2.2 0.5) (size 1.4 0.3) (layers F.Cu F.Paste F.Mask))
  (pad 8 smd rect (at 2.2 0) (size 1.4 0.3) (layers F.Cu F.Paste F.Mask))
  (pad 9 smd rect (at 2.2 -0.5) (size 1.4 0.3) (layers F.Cu F.Paste F.Mask))
  (pad 10 smd rect (at 2.2 -1) (size 1.4 0.3) (layers F.Cu F.Paste F.Mask))
  (model ${KIPRJMOD}/kicad_libs_k/models_k.3d/Package_SO_k.3dshapes/MSOP-10_3x3mm_P0.5mm_k.wrl
    (at (xyz 0 0 0))
    (scale (xyz 1 1 1))
    (rotate (xyz 0 0 0))
  )
)
