(module PowerIntegrations_SO-8 (layer F.Cu) (tedit 5A42316D)
  (descr "Power-Integrations variant of 8-Lead Plastic Small Outline (SN) - Narrow, 3.90 mm Body [SOIC], see https://ac-dc.power.com/sites/default/files/product-docs/senzero_family_datasheet.pdf")
  (tags "SOIC 1.27")
  (attr smd)
  (fp_text reference REF** (at 0 -3.5) (layer F.SilkS)
    (effects (font (size 1 1) (thickness 0.15)))
  )
  (fp_text value PowerIntegrations_SO-8 (at 0 3.5) (layer F.Fab)
    (effects (font (size 1 1) (thickness 0.15)))
  )
  (fp_text user %R (at 0 0) (layer F.Fab)
    (effects (font (size 1 1) (thickness 0.15)))
  )
  (fp_line (start -0.95 -2.45) (end 1.95 -2.45) (layer F.Fab) (width 0.1))
  (fp_line (start 1.95 -2.45) (end 1.95 2.45) (layer F.Fab) (width 0.1))
  (fp_line (start 1.95 2.45) (end -1.95 2.45) (layer F.Fab) (width 0.1))
  (fp_line (start -1.95 2.45) (end -1.95 -1.45) (layer F.Fab) (width 0.1))
  (fp_line (start -1.95 -1.45) (end -0.95 -2.45) (layer F.Fab) (width 0.1))
  (fp_line (start -2.075 -2.575) (end -2.075 -2.525) (layer F.SilkS) (width 0.15))
  (fp_line (start 2.075 -2.575) (end 2.075 -2.43) (layer F.SilkS) (width 0.15))
  (fp_line (start 2.075 2.575) (end 2.075 2.43) (layer F.SilkS) (width 0.15))
  (fp_line (start -2.075 2.575) (end -2.075 2.43) (layer F.SilkS) (width 0.15))
  (fp_line (start -2.075 -2.575) (end 2.075 -2.575) (layer F.SilkS) (width 0.15))
  (fp_line (start -2.075 2.575) (end 2.075 2.575) (layer F.SilkS) (width 0.15))
  (fp_line (start -2.075 -2.525) (end -3.475 -2.525) (layer F.SilkS) (width 0.15))
  (fp_line (start -3.98 -2.7) (end 3.97 -2.7) (layer F.CrtYd) (width 0.05))
  (fp_line (start -3.98 -2.7) (end -3.98 2.7) (layer F.CrtYd) (width 0.05))
  (fp_line (start 3.97 2.7) (end 3.97 -2.7) (layer F.CrtYd) (width 0.05))
  (fp_line (start 3.97 2.7) (end -3.98 2.7) (layer F.CrtYd) (width 0.05))
  (pad 1 smd rect (at -2.725 -1.905) (size 2 0.6) (layers F.Cu F.Paste F.Mask))
  (pad 2 smd rect (at -2.725 -0.635) (size 2 0.6) (layers F.Cu F.Paste F.Mask))
  (pad 3 smd rect (at -2.725 0.635) (size 2 0.6) (layers F.Cu F.Paste F.Mask))
  (pad 4 smd rect (at -2.725 1.905) (size 2 0.6) (layers F.Cu F.Paste F.Mask))
  (pad 5 smd rect (at 2.725 1.905) (size 2 0.6) (layers F.Cu F.Paste F.Mask))
  (pad 6 smd rect (at 2.725 0.635) (size 2 0.6) (layers F.Cu F.Paste F.Mask))
  (pad 7 smd rect (at 2.725 -0.635) (size 2 0.6) (layers F.Cu F.Paste F.Mask))
  (pad 8 smd rect (at 2.725 -1.905) (size 2 0.6) (layers F.Cu F.Paste F.Mask))
  (model ${KIPRJMOD}/kicad_libs_k/models_k.3d/Package_SO_k.3dshapes/PowerIntegrations_SO-8_k.wrl
    (at (xyz 0 0 0))
    (scale (xyz 1 1 1))
    (rotate (xyz 0 0 0))
  )
)
