(module PowerPAK_SO-8_Dual (layer F.Cu) (tedit 5A02F2D3)
  (descr "PowerPAK SO-8 Dual (https://www.vishay.com/docs/71655/powerpak.pdf, https://www.vishay.com/docs/72600/72600.pdf)")
  (tags "PowerPAK SO-8 Dual")
  (attr smd)
  (fp_text reference REF** (at 0 -3.5) (layer F.SilkS)
    (effects (font (size 1 1) (thickness 0.15)))
  )
  (fp_text value PowerPAK_SO-8_Dual (at 0 3.5) (layer F.Fab)
    (effects (font (size 1 1) (thickness 0.15)))
  )
  (fp_line (start -2.945 2.45) (end -2.945 -2.45) (layer F.Fab) (width 0.1))
  (fp_line (start 2.945 2.45) (end -2.945 2.45) (layer F.Fab) (width 0.1))
  (fp_line (start 2.945 -2.45) (end 2.945 2.45) (layer F.Fab) (width 0.1))
  (fp_line (start -2.945 -2.45) (end 2.945 -2.45) (layer F.Fab) (width 0.1))
  (fp_text user %R (at 0 0) (layer F.Fab)
    (effects (font (size 1 1) (thickness 0.15)))
  )
  (fp_line (start -3.55 -2.75) (end -3.55 2.75) (layer F.CrtYd) (width 0.05))
  (fp_line (start 3.55 -2.75) (end 3.55 2.75) (layer F.CrtYd) (width 0.05))
  (fp_line (start -3.55 -2.75) (end 3.55 -2.75) (layer F.CrtYd) (width 0.05))
  (fp_line (start -3.55 2.75) (end 3.55 2.75) (layer F.CrtYd) (width 0.05))
  (fp_line (start -3.4 -2.57) (end 2.945 -2.57) (layer F.SilkS) (width 0.12))
  (fp_line (start -2.945 2.57) (end 2.945 2.57) (layer F.SilkS) (width 0.12))
  (pad 1 smd rect (at -2.67 -1.905) (size 1.27 0.61) (layers F.Cu F.Paste F.Mask))
  (pad 2 smd rect (at -2.67 -0.635) (size 1.27 0.61) (layers F.Cu F.Paste F.Mask))
  (pad 3 smd rect (at -2.67 0.635) (size 1.27 0.61) (layers F.Cu F.Paste F.Mask))
  (pad 4 smd rect (at -2.67 1.905) (size 1.27 0.61) (layers F.Cu F.Paste F.Mask))
  (pad 6 smd rect (at 2.795 1.905) (size 1.02 0.61) (layers F.Cu F.Paste F.Mask))
  (pad 6 smd rect (at 2.795 0.635) (size 1.02 0.61) (layers F.Cu F.Paste F.Mask))
  (pad 5 smd rect (at 2.795 -0.635) (size 1.02 0.61) (layers F.Cu F.Paste F.Mask))
  (pad 5 smd rect (at 2.795 -1.905) (size 1.02 0.61) (layers F.Cu F.Paste F.Mask))
  (pad 5 smd rect (at 0.69 -1.13) (size 3.81 1.65) (layers F.Cu F.Paste F.Mask))
  (pad 6 smd rect (at 0.69 1.13) (size 3.81 1.65) (layers F.Cu F.Paste F.Mask))
  (model ${KIPRJMOD}/kicad_libs_k/models_k.3d/Package_SO_k.3dshapes/PowerPAK_SO-8_Dual_k.wrl
    (at (xyz 0 0 0))
    (scale (xyz 1 1 1))
    (rotate (xyz 0 0 0))
  )
)
