(module SO-4_4.4x2.3mm_P1.27mm (layer F.Cu) (tedit 5B1E4D3A)
  (descr "4-Lead Plastic Small Outline (SO), see http://datasheet.octopart.com/OPIA403BTRE-Optek-datasheet-5328560.pdf")
  (tags "SO SOIC 1.27")
  (attr smd)
  (fp_text reference REF** (at 0 -2.1) (layer F.SilkS)
    (effects (font (size 1 1) (thickness 0.15)))
  )
  (fp_text value SO-4_4.4x2.3mm_P1.27mm (at 0 2.3) (layer F.Fab)
    (effects (font (size 1 1) (thickness 0.15)))
  )
  (fp_line (start 4.4 1.45) (end -4.4 1.45) (layer F.CrtYd) (width 0.05))
  (fp_line (start 4.4 1.45) (end 4.4 -1.45) (layer F.CrtYd) (width 0.05))
  (fp_line (start -4.4 -1.45) (end -4.4 1.45) (layer F.CrtYd) (width 0.05))
  (fp_line (start -4.4 -1.45) (end 4.4 -1.45) (layer F.CrtYd) (width 0.05))
  (fp_line (start 2.4 -1.4) (end 2.4 -1.25) (layer F.SilkS) (width 0.12))
  (fp_line (start -2.4 -1.4) (end 2.4 -1.4) (layer F.SilkS) (width 0.12))
  (fp_line (start -2.4 -1.25) (end -2.4 -1.4) (layer F.SilkS) (width 0.12))
  (fp_line (start -2.4 1.4) (end -2.4 1.25) (layer F.SilkS) (width 0.12))
  (fp_line (start 2.4 1.4) (end -2.4 1.4) (layer F.SilkS) (width 0.12))
  (fp_line (start 2.4 1.25) (end 2.4 1.4) (layer F.SilkS) (width 0.12))
  (fp_line (start -2.4 -1.25) (end -4.1 -1.25) (layer F.SilkS) (width 0.12))
  (fp_line (start -2.2 -0.7) (end -2.2 1.2) (layer F.Fab) (width 0.12))
  (fp_line (start -1.7 -1.2) (end -2.2 -0.7) (layer F.Fab) (width 0.12))
  (fp_line (start 2.2 -1.2) (end -1.7 -1.2) (layer F.Fab) (width 0.12))
  (fp_line (start 2.2 1.2) (end 2.2 -1.2) (layer F.Fab) (width 0.12))
  (fp_line (start -2.2 1.2) (end 2.2 1.2) (layer F.Fab) (width 0.12))
  (fp_text user %R (at 0 -0.065) (layer F.Fab)
    (effects (font (size 1 1) (thickness 0.15)))
  )
  (pad 4 smd rect (at 3.15 -0.635) (size 2 0.64) (layers F.Cu F.Paste F.Mask))
  (pad 3 smd rect (at 3.15 0.635) (size 2 0.64) (layers F.Cu F.Paste F.Mask))
  (pad 2 smd rect (at -3.15 0.635) (size 2 0.64) (layers F.Cu F.Paste F.Mask))
  (pad 1 smd rect (at -3.15 -0.635) (size 2 0.64) (layers F.Cu F.Paste F.Mask))
  (model ${KIPRJMOD}/kicad_libs_k/models_k.3d/Package_SO_k.3dshapes/SO-4_4.4x2.3mm_P1.27mm_k.wrl
    (at (xyz 0 0 0))
    (scale (xyz 1 1 1))
    (rotate (xyz 0 0 0))
  )
)
