(module SO-4_7.6x3.6mm_P2.54mm (layer F.Cu) (tedit 5B1E4DA6)
  (descr "4-Lead Plastic Small Outline (SO) (http://www.everlight.com/file/ProductFile/201407061745083848.pdf)")
  (tags "SO SOIC 2.54")
  (attr smd)
  (fp_text reference REF** (at 0 -2.7) (layer F.SilkS)
    (effects (font (size 1 1) (thickness 0.15)))
  )
  (fp_text value SO-4_7.6x3.6mm_P2.54mm (at 0 2.8) (layer F.Fab)
    (effects (font (size 1 1) (thickness 0.15)))
  )
  (fp_line (start -4 -1.85) (end -5.7 -1.85) (layer F.SilkS) (width 0.12))
  (fp_text user %R (at 0 -0.065) (layer F.Fab)
    (effects (font (size 1 1) (thickness 0.15)))
  )
  (fp_line (start 4 1.85) (end 4 2) (layer F.SilkS) (width 0.12))
  (fp_line (start 4 2) (end -4 2) (layer F.SilkS) (width 0.12))
  (fp_line (start -4 2) (end -4 1.85) (layer F.SilkS) (width 0.12))
  (fp_line (start -4 -1.85) (end -4 -2) (layer F.SilkS) (width 0.12))
  (fp_line (start -4 -2) (end 4 -2) (layer F.SilkS) (width 0.12))
  (fp_line (start 4 -2) (end 4 -1.85) (layer F.SilkS) (width 0.12))
  (fp_line (start 3.8 -1.8) (end 3.8 1.8) (layer F.Fab) (width 0.12))
  (fp_line (start 3.8 1.8) (end -3.8 1.8) (layer F.Fab) (width 0.12))
  (fp_line (start -3.8 1.8) (end -3.8 -1) (layer F.Fab) (width 0.12))
  (fp_line (start -3.8 -1) (end -3 -1.8) (layer F.Fab) (width 0.12))
  (fp_line (start -3 -1.8) (end 3.8 -1.8) (layer F.Fab) (width 0.12))
  (fp_line (start -6 -2.05) (end 6 -2.05) (layer F.CrtYd) (width 0.05))
  (fp_line (start -6 -2.05) (end -6 2.05) (layer F.CrtYd) (width 0.05))
  (fp_line (start 6 2.05) (end 6 -2.05) (layer F.CrtYd) (width 0.05))
  (fp_line (start 6 2.05) (end -6 2.05) (layer F.CrtYd) (width 0.05))
  (pad 1 smd rect (at -4.75 -1.27) (size 2 0.64) (layers F.Cu F.Paste F.Mask))
  (pad 2 smd rect (at -4.75 1.27) (size 2 0.64) (layers F.Cu F.Paste F.Mask))
  (pad 3 smd rect (at 4.75 1.27) (size 2 0.64) (layers F.Cu F.Paste F.Mask))
  (pad 4 smd rect (at 4.75 -1.27) (size 2 0.64) (layers F.Cu F.Paste F.Mask))
  (model ${KIPRJMOD}/kicad_libs_k/models_k.3d/Package_SO_k.3dshapes/SO-4_7.6x3.6mm_P2.54mm_k.wrl
    (at (xyz 0 0 0))
    (scale (xyz 1 1 1))
    (rotate (xyz 0 0 0))
  )
)
