(module SOIC-16W_7.5x12.8mm_P1.27mm (layer F.Cu) (tedit 5A02F2D3)
  (descr "16-Lead Plastic Small Outline (SO) - Wide, 7.50 mm x 12.8 mm Body (http://www.analog.com/media/en/technical-documentation/data-sheets/ADuM6000.PDF)")
  (tags "SOIC 1.27")
  (attr smd)
  (fp_text reference REF** (at 0 -7.5) (layer F.SilkS)
    (effects (font (size 1 1) (thickness 0.15)))
  )
  (fp_text value SOIC-16W_7.5x12.8mm_P1.27mm (at 0 7.5) (layer F.Fab)
    (effects (font (size 1 1) (thickness 0.15)))
  )
  (fp_text user %R (at 0 0) (layer F.Fab)
    (effects (font (size 1 1) (thickness 0.15)))
  )
  (fp_line (start -2.75 -6.4) (end 3.75 -6.4) (layer F.Fab) (width 0.15))
  (fp_line (start 3.75 -6.4) (end 3.75 6.4) (layer F.Fab) (width 0.15))
  (fp_line (start 3.75 6.4) (end -3.75 6.4) (layer F.Fab) (width 0.15))
  (fp_line (start -3.75 6.4) (end -3.75 -5.4) (layer F.Fab) (width 0.15))
  (fp_line (start -3.75 -5.4) (end -2.75 -6.4) (layer F.Fab) (width 0.15))
  (fp_line (start -5.65 -6.75) (end -5.65 6.75) (layer F.CrtYd) (width 0.05))
  (fp_line (start 5.65 -6.75) (end 5.65 6.75) (layer F.CrtYd) (width 0.05))
  (fp_line (start -5.65 -6.75) (end 5.65 -6.75) (layer F.CrtYd) (width 0.05))
  (fp_line (start -5.65 6.75) (end 5.65 6.75) (layer F.CrtYd) (width 0.05))
  (fp_line (start -3.875 -6.575) (end -3.875 -5.05) (layer F.SilkS) (width 0.15))
  (fp_line (start 3.875 -6.575) (end 3.875 -4.97) (layer F.SilkS) (width 0.15))
  (fp_line (start 3.875 6.575) (end 3.875 4.97) (layer F.SilkS) (width 0.15))
  (fp_line (start -3.875 6.575) (end -3.875 4.97) (layer F.SilkS) (width 0.15))
  (fp_line (start -3.875 -6.575) (end 3.875 -6.575) (layer F.SilkS) (width 0.15))
  (fp_line (start -3.875 6.575) (end 3.875 6.575) (layer F.SilkS) (width 0.15))
  (fp_line (start -3.875 -5.05) (end -5.4 -5.05) (layer F.SilkS) (width 0.15))
  (pad 1 smd rect (at -4.65 -4.445) (size 1.5 0.6) (layers F.Cu F.Paste F.Mask))
  (pad 2 smd rect (at -4.65 -3.175) (size 1.5 0.6) (layers F.Cu F.Paste F.Mask))
  (pad 3 smd rect (at -4.65 -1.905) (size 1.5 0.6) (layers F.Cu F.Paste F.Mask))
  (pad 4 smd rect (at -4.65 -0.635) (size 1.5 0.6) (layers F.Cu F.Paste F.Mask))
  (pad 5 smd rect (at -4.65 0.635) (size 1.5 0.6) (layers F.Cu F.Paste F.Mask))
  (pad 6 smd rect (at -4.65 1.905) (size 1.5 0.6) (layers F.Cu F.Paste F.Mask))
  (pad 7 smd rect (at -4.65 3.175) (size 1.5 0.6) (layers F.Cu F.Paste F.Mask))
  (pad 8 smd rect (at -4.65 4.445) (size 1.5 0.6) (layers F.Cu F.Paste F.Mask))
  (pad 9 smd rect (at 4.65 4.445) (size 1.5 0.6) (layers F.Cu F.Paste F.Mask))
  (pad 10 smd rect (at 4.65 3.175) (size 1.5 0.6) (layers F.Cu F.Paste F.Mask))
  (pad 11 smd rect (at 4.65 1.905) (size 1.5 0.6) (layers F.Cu F.Paste F.Mask))
  (pad 12 smd rect (at 4.65 0.635) (size 1.5 0.6) (layers F.Cu F.Paste F.Mask))
  (pad 13 smd rect (at 4.65 -0.635) (size 1.5 0.6) (layers F.Cu F.Paste F.Mask))
  (pad 14 smd rect (at 4.65 -1.905) (size 1.5 0.6) (layers F.Cu F.Paste F.Mask))
  (pad 15 smd rect (at 4.65 -3.175) (size 1.5 0.6) (layers F.Cu F.Paste F.Mask))
  (pad 16 smd rect (at 4.65 -4.445) (size 1.5 0.6) (layers F.Cu F.Paste F.Mask))
  (model ${KIPRJMOD}/kicad_libs_k/models_k.3d/Package_SO_k.3dshapes/SOIC-16W_7.5x12.8mm_P1.27mm_k.wrl
    (at (xyz 0 0 0))
    (scale (xyz 1 1 1))
    (rotate (xyz 0 0 0))
  )
)
