(module SOIC-18W_7.5x11.6mm_P1.27mm (layer F.Cu) (tedit 5A02F2D3)
  (descr "18-Lead Plastic Small Outline (SO) - Wide, 7.50 mm Body [SOIC] (see Microchip Packaging Specification 00000049BS.pdf)")
  (tags "SOIC 1.27")
  (attr smd)
  (fp_text reference REF** (at 0 -6.875) (layer F.SilkS)
    (effects (font (size 1 1) (thickness 0.15)))
  )
  (fp_text value SOIC-18W_7.5x11.6mm_P1.27mm (at 0 6.875) (layer F.Fab)
    (effects (font (size 1 1) (thickness 0.15)))
  )
  (fp_text user %R (at 0 0) (layer F.Fab)
    (effects (font (size 1 1) (thickness 0.15)))
  )
  (fp_line (start -2.75 -5.8) (end 3.75 -5.8) (layer F.Fab) (width 0.15))
  (fp_line (start 3.75 -5.8) (end 3.75 5.8) (layer F.Fab) (width 0.15))
  (fp_line (start 3.75 5.8) (end -3.75 5.8) (layer F.Fab) (width 0.15))
  (fp_line (start -3.75 5.8) (end -3.75 -4.8) (layer F.Fab) (width 0.15))
  (fp_line (start -3.75 -4.8) (end -2.75 -5.8) (layer F.Fab) (width 0.15))
  (fp_line (start -5.95 -6.15) (end -5.95 6.15) (layer F.CrtYd) (width 0.05))
  (fp_line (start 5.95 -6.15) (end 5.95 6.15) (layer F.CrtYd) (width 0.05))
  (fp_line (start -5.95 -6.15) (end 5.95 -6.15) (layer F.CrtYd) (width 0.05))
  (fp_line (start -5.95 6.15) (end 5.95 6.15) (layer F.CrtYd) (width 0.05))
  (fp_line (start -3.875 -5.95) (end -3.875 -5.7) (layer F.SilkS) (width 0.15))
  (fp_line (start 3.875 -5.95) (end 3.875 -5.605) (layer F.SilkS) (width 0.15))
  (fp_line (start 3.875 5.95) (end 3.875 5.605) (layer F.SilkS) (width 0.15))
  (fp_line (start -3.875 5.95) (end -3.875 5.605) (layer F.SilkS) (width 0.15))
  (fp_line (start -3.875 -5.95) (end 3.875 -5.95) (layer F.SilkS) (width 0.15))
  (fp_line (start -3.875 5.95) (end 3.875 5.95) (layer F.SilkS) (width 0.15))
  (fp_line (start -3.875 -5.7) (end -5.7 -5.7) (layer F.SilkS) (width 0.15))
  (pad 1 smd rect (at -4.7 -5.08) (size 2 0.6) (layers F.Cu F.Paste F.Mask))
  (pad 2 smd rect (at -4.7 -3.81) (size 2 0.6) (layers F.Cu F.Paste F.Mask))
  (pad 3 smd rect (at -4.7 -2.54) (size 2 0.6) (layers F.Cu F.Paste F.Mask))
  (pad 4 smd rect (at -4.7 -1.27) (size 2 0.6) (layers F.Cu F.Paste F.Mask))
  (pad 5 smd rect (at -4.7 0) (size 2 0.6) (layers F.Cu F.Paste F.Mask))
  (pad 6 smd rect (at -4.7 1.27) (size 2 0.6) (layers F.Cu F.Paste F.Mask))
  (pad 7 smd rect (at -4.7 2.54) (size 2 0.6) (layers F.Cu F.Paste F.Mask))
  (pad 8 smd rect (at -4.7 3.81) (size 2 0.6) (layers F.Cu F.Paste F.Mask))
  (pad 9 smd rect (at -4.7 5.08) (size 2 0.6) (layers F.Cu F.Paste F.Mask))
  (pad 10 smd rect (at 4.7 5.08) (size 2 0.6) (layers F.Cu F.Paste F.Mask))
  (pad 11 smd rect (at 4.7 3.81) (size 2 0.6) (layers F.Cu F.Paste F.Mask))
  (pad 12 smd rect (at 4.7 2.54) (size 2 0.6) (layers F.Cu F.Paste F.Mask))
  (pad 13 smd rect (at 4.7 1.27) (size 2 0.6) (layers F.Cu F.Paste F.Mask))
  (pad 14 smd rect (at 4.7 0) (size 2 0.6) (layers F.Cu F.Paste F.Mask))
  (pad 15 smd rect (at 4.7 -1.27) (size 2 0.6) (layers F.Cu F.Paste F.Mask))
  (pad 16 smd rect (at 4.7 -2.54) (size 2 0.6) (layers F.Cu F.Paste F.Mask))
  (pad 17 smd rect (at 4.7 -3.81) (size 2 0.6) (layers F.Cu F.Paste F.Mask))
  (pad 18 smd rect (at 4.7 -5.08) (size 2 0.6) (layers F.Cu F.Paste F.Mask))
  (model ${KIPRJMOD}/kicad_libs_k/models_k.3d/Package_SO_k.3dshapes/SOIC-18W_7.5x11.6mm_P1.27mm_k.wrl
    (at (xyz 0 0 0))
    (scale (xyz 1 1 1))
    (rotate (xyz 0 0 0))
  )
)
