(module SOP-4_3.8x4.1mm_P2.54mm (layer F.Cu) (tedit 5A02F25C)
  (descr "Specialized footprint for IXYS CPC1017N solid state relay similar to SO-4 http://www.ixysic.com/home/pdfs.nsf/www/CPC1017N.pdf/$file/CPC1017N.pdf")
  (tags "SO SOIC 2.54")
  (attr smd)
  (fp_text reference REF** (at 0 -3.5) (layer F.SilkS)
    (effects (font (size 1 1) (thickness 0.15)))
  )
  (fp_text value SOP-4_3.8x4.1mm_P2.54mm (at 0 3.5) (layer F.Fab)
    (effects (font (size 1 1) (thickness 0.15)))
  )
  (fp_line (start -0.905 -2.0445) (end 1.905 -2.0445) (layer F.Fab) (width 0.1))
  (fp_text user %R (at 0 0) (layer F.Fab)
    (effects (font (size 0.8 0.8) (thickness 0.12)))
  )
  (fp_line (start 2 2.15) (end 2 1.8) (layer F.SilkS) (width 0.12))
  (fp_line (start -2 2.15) (end 2 2.15) (layer F.SilkS) (width 0.12))
  (fp_line (start -2 1.8) (end -2 2.15) (layer F.SilkS) (width 0.12))
  (fp_line (start -2 -1.8) (end -3.6 -1.8) (layer F.SilkS) (width 0.12))
  (fp_line (start 2 -2.15) (end 2 -1.8) (layer F.SilkS) (width 0.12))
  (fp_line (start -2 -2.15) (end 2 -2.15) (layer F.SilkS) (width 0.12))
  (fp_line (start -2 -1.8) (end -2 -2.15) (layer F.SilkS) (width 0.12))
  (fp_line (start -3.73 -2.3) (end 3.73 -2.3) (layer F.CrtYd) (width 0.05))
  (fp_line (start -3.73 2.3) (end -3.73 -2.3) (layer F.CrtYd) (width 0.05))
  (fp_line (start 3.73 2.3) (end -3.73 2.3) (layer F.CrtYd) (width 0.05))
  (fp_line (start 3.73 -2.3) (end 3.73 2.3) (layer F.CrtYd) (width 0.05))
  (fp_line (start -1.905 2.0445) (end 1.905 2.0445) (layer F.Fab) (width 0.1))
  (fp_line (start 1.905 2.0445) (end 1.905 -2.0445) (layer F.Fab) (width 0.1))
  (fp_line (start -1.905 2.0445) (end -1.905 -1.0445) (layer F.Fab) (width 0.1))
  (fp_line (start -2 0.75) (end -2 -0.75) (layer F.SilkS) (width 0.12))
  (fp_line (start 2 0.75) (end 2 -0.75) (layer F.SilkS) (width 0.12))
  (fp_line (start -1.905 -1.0445) (end -0.905 -2.0445) (layer F.Fab) (width 0.1))
  (pad 1 smd rect (at -2.75 -1.27) (size 1.45 0.55) (layers F.Cu F.Paste F.Mask))
  (pad 2 smd rect (at -2.75 1.27) (size 1.45 0.55) (layers F.Cu F.Paste F.Mask))
  (pad 3 smd rect (at 2.75 1.27) (size 1.45 0.55) (layers F.Cu F.Paste F.Mask))
  (pad 4 smd rect (at 2.75 -1.27) (size 1.45 0.55) (layers F.Cu F.Paste F.Mask))
  (model ${KIPRJMOD}/kicad_libs_k/models_k.3d/Package_SO_k.3dshapes/SOP-4_3.8x4.1mm_P2.54mm_k.wrl
    (at (xyz 0 0 0))
    (scale (xyz 1 1 1))
    (rotate (xyz 0 0 0))
  )
)
