(module SSO-6_6.8x4.6mm_P1.27mm_Clearance8mm (layer F.Cu) (tedit 5A02F2D3)
  (descr "8-Lead Plastic Stretched Small Outline (SSO/Stretched SO), see https://docs.broadcom.com/cs/Satellite?blobcol=urldata&blobheader=application%2Fpdf&blobheadername1=Content-Disposition&blobheadername2=Content-Type&blobheadername3=MDT-Type&blobheadervalue1=attachment%3Bfilename%3DIPD-Selection-Guide_AV00-0254EN_030617.pdf&blobheadervalue2=application%2Fx-download&blobheadervalue3=abinary%253B%2Bcharset%253DUTF-8&blobkey=id&blobnocache=true&blobtable=MungoBlobs&blobwhere=1430884105675&ssbinary=true")
  (tags "SSO Stretched SO SOIC 1.27")
  (attr smd)
  (fp_text reference REF** (at 0.1 -3.265) (layer F.SilkS)
    (effects (font (size 1 1) (thickness 0.15)))
  )
  (fp_text value SSO-6_6.8x4.6mm_P1.27mm_Clearance8mm (at 0.05 3.385) (layer F.Fab)
    (effects (font (size 1 1) (thickness 0.15)))
  )
  (fp_text user %R (at 0 -0.065) (layer F.Fab)
    (effects (font (size 1 1) (thickness 0.15)))
  )
  (fp_line (start -3.55 -1.8) (end -6.25 -1.8) (layer F.SilkS) (width 0.12))
  (fp_line (start -3.5 1.785) (end -3.5 2.435) (layer F.SilkS) (width 0.12))
  (fp_line (start 3.55 1.785) (end 3.55 2.435) (layer F.SilkS) (width 0.12))
  (fp_line (start 3.5 -2.465) (end 3.5 -1.815) (layer F.SilkS) (width 0.12))
  (fp_line (start 3.4 -2.315) (end 3.4 2.285) (layer F.Fab) (width 0.12))
  (fp_line (start 3.4 2.285) (end -3.4 2.285) (layer F.Fab) (width 0.12))
  (fp_line (start -3.4 2.285) (end -3.4 -1.265) (layer F.Fab) (width 0.12))
  (fp_line (start -3.5 2.435) (end 3.55 2.435) (layer F.SilkS) (width 0.12))
  (fp_line (start 3.5 -2.465) (end -3.55 -2.465) (layer F.SilkS) (width 0.12))
  (fp_line (start -3.55 -2.465) (end -3.55 -1.815) (layer F.SilkS) (width 0.12))
  (fp_line (start 3.4 -2.315) (end -2.3 -2.315) (layer F.Fab) (width 0.12))
  (fp_line (start -2.3 -2.315) (end -3.4 -1.215) (layer F.Fab) (width 0.12))
  (fp_line (start -6.57 -2.56) (end 6.57 -2.56) (layer F.CrtYd) (width 0.05))
  (fp_line (start -6.57 -2.56) (end -6.57 2.54) (layer F.CrtYd) (width 0.05))
  (fp_line (start 6.57 2.54) (end 6.57 -2.56) (layer F.CrtYd) (width 0.05))
  (fp_line (start 6.57 2.54) (end -6.57 2.54) (layer F.CrtYd) (width 0.05))
  (pad 1 smd rect (at -5.37 -1.27) (size 1.9 0.64) (layers F.Cu F.Paste F.Mask))
  (pad 2 smd rect (at -5.37 0) (size 1.9 0.64) (layers F.Cu F.Paste F.Mask))
  (pad 3 smd rect (at -5.37 1.27) (size 1.9 0.64) (layers F.Cu F.Paste F.Mask))
  (pad 4 smd rect (at 5.37 1.27) (size 1.9 0.64) (layers F.Cu F.Paste F.Mask))
  (pad 5 smd rect (at 5.37 0) (size 1.9 0.64) (layers F.Cu F.Paste F.Mask))
  (pad 6 smd rect (at 5.37 -1.27) (size 1.9 0.64) (layers F.Cu F.Paste F.Mask))
  (model ${KIPRJMOD}/kicad_libs_k/models_k.3d/Package_SO_k.3dshapes/SSO-6_6.8x4.6mm_P1.27mm_Clearance8mm_k.wrl
    (at (xyz 0 0 0))
    (scale (xyz 1 1 1))
    (rotate (xyz 0 0 0))
  )
)
