(module SSOP-16_4.4x5.2mm_P0.65mm (layer F.Cu) (tedit 5A02F25C)
  (descr "SSOP16: plastic shrink small outline package; 16 leads; body width 4.4 mm; (see NXP SSOP-TSSOP-VSO-REFLOW.pdf and sot369-1_po.pdf)")
  (tags "SSOP 0.65")
  (attr smd)
  (fp_text reference REF** (at 0 -3.65) (layer F.SilkS)
    (effects (font (size 1 1) (thickness 0.15)))
  )
  (fp_text value SSOP-16_4.4x5.2mm_P0.65mm (at 0 3.65) (layer F.Fab)
    (effects (font (size 1 1) (thickness 0.15)))
  )
  (fp_line (start -1.2 -2.6) (end 2.2 -2.6) (layer F.Fab) (width 0.15))
  (fp_line (start 2.2 -2.6) (end 2.2 2.6) (layer F.Fab) (width 0.15))
  (fp_line (start 2.2 2.6) (end -2.2 2.6) (layer F.Fab) (width 0.15))
  (fp_line (start -2.2 2.6) (end -2.2 -1.6) (layer F.Fab) (width 0.15))
  (fp_line (start -2.2 -1.6) (end -1.2 -2.6) (layer F.Fab) (width 0.15))
  (fp_line (start -3.65 -2.9) (end -3.65 2.9) (layer F.CrtYd) (width 0.05))
  (fp_line (start 3.65 -2.9) (end 3.65 2.9) (layer F.CrtYd) (width 0.05))
  (fp_line (start -3.65 -2.9) (end 3.65 -2.9) (layer F.CrtYd) (width 0.05))
  (fp_line (start -3.65 2.9) (end 3.65 2.9) (layer F.CrtYd) (width 0.05))
  (fp_line (start 2.3 -2.8) (end 2.3 -2.7) (layer F.SilkS) (width 0.15))
  (fp_line (start 2.325 2.725) (end 2.325 2.7) (layer F.SilkS) (width 0.15))
  (fp_line (start -2.325 2.725) (end -2.325 2.7) (layer F.SilkS) (width 0.15))
  (fp_line (start -3.4 -2.8) (end 2.3 -2.8) (layer F.SilkS) (width 0.15))
  (fp_line (start -2.325 2.725) (end 2.325 2.725) (layer F.SilkS) (width 0.15))
  (fp_text user %R (at 0 0) (layer F.Fab)
    (effects (font (size 0.8 0.8) (thickness 0.15)))
  )
  (pad 1 smd rect (at -2.9 -2.275) (size 1 0.4) (layers F.Cu F.Paste F.Mask))
  (pad 2 smd rect (at -2.9 -1.625) (size 1 0.4) (layers F.Cu F.Paste F.Mask))
  (pad 3 smd rect (at -2.9 -0.975) (size 1 0.4) (layers F.Cu F.Paste F.Mask))
  (pad 4 smd rect (at -2.9 -0.325) (size 1 0.4) (layers F.Cu F.Paste F.Mask))
  (pad 5 smd rect (at -2.9 0.325) (size 1 0.4) (layers F.Cu F.Paste F.Mask))
  (pad 6 smd rect (at -2.9 0.975) (size 1 0.4) (layers F.Cu F.Paste F.Mask))
  (pad 7 smd rect (at -2.9 1.625) (size 1 0.4) (layers F.Cu F.Paste F.Mask))
  (pad 8 smd rect (at -2.9 2.275) (size 1 0.4) (layers F.Cu F.Paste F.Mask))
  (pad 9 smd rect (at 2.9 2.275) (size 1 0.4) (layers F.Cu F.Paste F.Mask))
  (pad 10 smd rect (at 2.9 1.625) (size 1 0.4) (layers F.Cu F.Paste F.Mask))
  (pad 11 smd rect (at 2.9 0.975) (size 1 0.4) (layers F.Cu F.Paste F.Mask))
  (pad 12 smd rect (at 2.9 0.325) (size 1 0.4) (layers F.Cu F.Paste F.Mask))
  (pad 13 smd rect (at 2.9 -0.325) (size 1 0.4) (layers F.Cu F.Paste F.Mask))
  (pad 14 smd rect (at 2.9 -0.975) (size 1 0.4) (layers F.Cu F.Paste F.Mask))
  (pad 15 smd rect (at 2.9 -1.625) (size 1 0.4) (layers F.Cu F.Paste F.Mask))
  (pad 16 smd rect (at 2.9 -2.275) (size 1 0.4) (layers F.Cu F.Paste F.Mask))
  (model ${KIPRJMOD}/kicad_libs_k/models_k.3d/Package_SO_k.3dshapes/SSOP-16_4.4x5.2mm_P0.65mm_k.wrl
    (at (xyz 0 0 0))
    (scale (xyz 1 1 1))
    (rotate (xyz 0 0 0))
  )
)
