(module SSOP-10_3.9x4.9mm_P1.00mm (layer F.Cu) (tedit 5AB07CF5)
  (descr "10-Lead SSOP, 3.9 x 4.9mm body, 1.00mm pitch (http://www.st.com/resource/en/datasheet/viper01.pdf)")
  (tags "SSOP 3.9 4.9 1.00")
  (attr smd)
  (fp_text reference REF** (at 0 -3.5) (layer F.SilkS)
    (effects (font (size 1 1) (thickness 0.15)))
  )
  (fp_text value SSOP-10_3.9x4.9mm_P1.00mm (at 0 3.5) (layer F.Fab)
    (effects (font (size 1 1) (thickness 0.15)))
  )
  (fp_text user %R (at 0 0) (layer F.Fab)
    (effects (font (size 1 1) (thickness 0.15)))
  )
  (fp_line (start -0.95 -2.45) (end 1.95 -2.45) (layer F.Fab) (width 0.1))
  (fp_line (start 1.95 -2.45) (end 1.95 2.45) (layer F.Fab) (width 0.1))
  (fp_line (start 1.95 2.45) (end -1.95 2.45) (layer F.Fab) (width 0.1))
  (fp_line (start -1.95 2.45) (end -1.95 -1.45) (layer F.Fab) (width 0.1))
  (fp_line (start -1.95 -1.45) (end -0.95 -2.45) (layer F.Fab) (width 0.1))
  (fp_line (start -3.35 -2.7) (end -3.35 2.7) (layer F.CrtYd) (width 0.05))
  (fp_line (start 3.35 -2.7) (end 3.35 2.7) (layer F.CrtYd) (width 0.05))
  (fp_line (start -3.35 -2.7) (end 3.35 -2.7) (layer F.CrtYd) (width 0.05))
  (fp_line (start -3.35 2.7) (end 3.35 2.7) (layer F.CrtYd) (width 0.05))
  (fp_line (start -3 -2.57) (end 2.07 -2.57) (layer F.SilkS) (width 0.15))
  (fp_line (start -2.07 2.57) (end 2.07 2.57) (layer F.SilkS) (width 0.15))
  (pad 1 smd rect (at -2.55 -2) (size 1.1 0.51) (layers F.Cu F.Paste F.Mask))
  (pad 2 smd rect (at -2.55 -1) (size 1.1 0.51) (layers F.Cu F.Paste F.Mask))
  (pad 3 smd rect (at -2.55 0) (size 1.1 0.51) (layers F.Cu F.Paste F.Mask))
  (pad 4 smd rect (at -2.55 1) (size 1.1 0.51) (layers F.Cu F.Paste F.Mask))
  (pad 6 smd rect (at 2.55 2) (size 1.1 0.51) (layers F.Cu F.Paste F.Mask))
  (pad 7 smd rect (at 2.55 1) (size 1.1 0.51) (layers F.Cu F.Paste F.Mask))
  (pad 8 smd rect (at 2.55 0) (size 1.1 0.51) (layers F.Cu F.Paste F.Mask))
  (pad 5 smd rect (at -2.55 2) (size 1.1 0.51) (layers F.Cu F.Paste F.Mask))
  (pad 9 smd rect (at 2.55 -1) (size 1.1 0.51) (layers F.Cu F.Paste F.Mask))
  (pad 10 smd rect (at 2.55 -2) (size 1.1 0.51) (layers F.Cu F.Paste F.Mask))
  (model ${KIPRJMOD}/kicad_libs_k/models_k.3d/Package_SO_k.3dshapes/SSOP-10_3.9x4.9mm_P1.00mm_k.wrl
    (at (xyz 0 0 0))
    (scale (xyz 1 1 1))
    (rotate (xyz 0 0 0))
  )
)
