(module SSOP-18_4.4x6.5mm_P0.65mm (layer F.Cu) (tedit 5B1FF5C1)
  (descr "SSOP18: plastic shrink small outline package; 18 leads; body width 4.4 mm (http://toshiba.semicon-storage.com/info/docget.jsp?did=30523&prodName=TBD62783APG)")
  (tags "SSOP 0.65")
  (attr smd)
  (fp_text reference REF** (at 0 -4.2) (layer F.SilkS)
    (effects (font (size 1 1) (thickness 0.15)))
  )
  (fp_text value SSOP-18_4.4x6.5mm_P0.65mm (at 0 4.2) (layer F.Fab)
    (effects (font (size 1 1) (thickness 0.15)))
  )
  (fp_text user %R (at 0 0) (layer F.Fab)
    (effects (font (size 1 1) (thickness 0.15)))
  )
  (fp_line (start -3.45 3.5) (end -3.45 -3.5) (layer F.CrtYd) (width 0.05))
  (fp_line (start 3.45 3.5) (end -3.45 3.5) (layer F.CrtYd) (width 0.05))
  (fp_line (start 3.45 -3.5) (end 3.45 3.5) (layer F.CrtYd) (width 0.05))
  (fp_line (start -3.45 -3.5) (end 3.45 -3.5) (layer F.CrtYd) (width 0.05))
  (fp_line (start 2.31 3.36) (end 2.31 3.06) (layer F.SilkS) (width 0.12))
  (fp_line (start -2.31 3.36) (end 2.31 3.36) (layer F.SilkS) (width 0.12))
  (fp_line (start -2.31 3.06) (end -2.31 3.36) (layer F.SilkS) (width 0.12))
  (fp_line (start 2.31 -3.36) (end 2.31 -3.06) (layer F.SilkS) (width 0.12))
  (fp_line (start -2.31 -3.36) (end 2.31 -3.36) (layer F.SilkS) (width 0.12))
  (fp_line (start -2.31 -3.06) (end -2.31 -3.36) (layer F.SilkS) (width 0.12))
  (fp_line (start -3.2 -3.06) (end -2.31 -3.06) (layer F.SilkS) (width 0.12))
  (fp_line (start -2.2 -2.25) (end -1.2 -3.25) (layer F.Fab) (width 0.1))
  (fp_line (start -2.2 3.25) (end -2.2 -2.25) (layer F.Fab) (width 0.1))
  (fp_line (start 2.2 3.25) (end -2.2 3.25) (layer F.Fab) (width 0.1))
  (fp_line (start 2.2 -3.25) (end 2.2 3.25) (layer F.Fab) (width 0.1))
  (fp_line (start -1.2 -3.25) (end 2.2 -3.25) (layer F.Fab) (width 0.1))
  (pad 10 smd rect (at 2.7 2.6) (size 1 0.4) (layers F.Cu F.Paste F.Mask))
  (pad 11 smd rect (at 2.7 1.95) (size 1 0.4) (layers F.Cu F.Paste F.Mask))
  (pad 12 smd rect (at 2.7 1.3) (size 1 0.4) (layers F.Cu F.Paste F.Mask))
  (pad 13 smd rect (at 2.7 0.65) (size 1 0.4) (layers F.Cu F.Paste F.Mask))
  (pad 14 smd rect (at 2.7 0) (size 1 0.4) (layers F.Cu F.Paste F.Mask))
  (pad 15 smd rect (at 2.7 -0.65) (size 1 0.4) (layers F.Cu F.Paste F.Mask))
  (pad 16 smd rect (at 2.7 -1.3) (size 1 0.4) (layers F.Cu F.Paste F.Mask))
  (pad 17 smd rect (at 2.7 -1.95) (size 1 0.4) (layers F.Cu F.Paste F.Mask))
  (pad 18 smd rect (at 2.7 -2.6) (size 1 0.4) (layers F.Cu F.Paste F.Mask))
  (pad 9 smd rect (at -2.7 2.6) (size 1 0.4) (layers F.Cu F.Paste F.Mask))
  (pad 8 smd rect (at -2.7 1.95) (size 1 0.4) (layers F.Cu F.Paste F.Mask))
  (pad 7 smd rect (at -2.7 1.3) (size 1 0.4) (layers F.Cu F.Paste F.Mask))
  (pad 6 smd rect (at -2.7 0.65) (size 1 0.4) (layers F.Cu F.Paste F.Mask))
  (pad 5 smd rect (at -2.7 0) (size 1 0.4) (layers F.Cu F.Paste F.Mask))
  (pad 4 smd rect (at -2.7 -0.65) (size 1 0.4) (layers F.Cu F.Paste F.Mask))
  (pad 3 smd rect (at -2.7 -1.3) (size 1 0.4) (layers F.Cu F.Paste F.Mask))
  (pad 2 smd rect (at -2.7 -1.95) (size 1 0.4) (layers F.Cu F.Paste F.Mask))
  (pad 1 smd rect (at -2.7 -2.6) (size 1 0.4) (layers F.Cu F.Paste F.Mask))
  (model ${KIPRJMOD}/kicad_libs_k/models_k.3d/Package_SO_k.3dshapes/SSOP-18_4.4x6.5mm_P0.65mm_k.wrl
    (at (xyz 0 0 0))
    (scale (xyz 1 1 1))
    (rotate (xyz 0 0 0))
  )
)
