(module ST_PowerSSO-24_SlugDown (layer F.Cu) (tedit 5A02F25C)
  (descr "ST PowerSSO-24 1EP 7.5x10.3mm Pitch 0.8mm [JEDEC MO-271] (http://www.st.com/resource/en/datasheet/tda7266p.pdf, http://freedatasheets.com/downloads/Technical%20Note%20Powersso24%20TN0054.pdf)")
  (tags "ST PowerSSO-24 1EP 7.5x10.3mm Pitch 0.8mm")
  (attr smd)
  (fp_text reference REF** (at 0 -6.1) (layer F.SilkS)
    (effects (font (size 1 1) (thickness 0.15)))
  )
  (fp_text value ST_PowerSSO-24_SlugDown (at 0 6.1) (layer F.Fab)
    (effects (font (size 1 1) (thickness 0.15)))
  )
  (fp_line (start 3.75 -5.25) (end 3.85 -5.25) (layer F.SilkS) (width 0.12))
  (fp_line (start 3.85 -5.25) (end 3.85 -4.95) (layer F.SilkS) (width 0.12))
  (fp_line (start 3.75 5.25) (end 3.85 5.25) (layer F.SilkS) (width 0.12))
  (fp_line (start 3.85 5.25) (end 3.85 4.95) (layer F.SilkS) (width 0.12))
  (fp_line (start 3.85 5.25) (end -3.85 5.25) (layer F.SilkS) (width 0.12))
  (fp_line (start -3.85 5.25) (end -3.85 4.95) (layer F.SilkS) (width 0.12))
  (fp_line (start 3.85 -5.25) (end -3.85 -5.25) (layer F.SilkS) (width 0.12))
  (fp_line (start -3.75 -5.25) (end -3.85 -5.25) (layer F.SilkS) (width 0.12))
  (fp_line (start -3.85 -5.25) (end -3.85 -4.95) (layer F.SilkS) (width 0.12))
  (fp_line (start -3.85 -4.95) (end -5.55 -4.95) (layer F.SilkS) (width 0.12))
  (fp_text user %R (at 0 0) (layer F.Fab)
    (effects (font (size 1 1) (thickness 0.15)))
  )
  (fp_line (start -3.75 5.15) (end 3.75 5.15) (layer F.Fab) (width 0.1))
  (fp_line (start 3.75 5.15) (end 3.75 -5.15) (layer F.Fab) (width 0.1))
  (fp_line (start 3.75 -5.15) (end -2.75 -5.15) (layer F.Fab) (width 0.1))
  (fp_line (start -2.75 -5.15) (end -3.75 -4.15) (layer F.Fab) (width 0.1))
  (fp_line (start -3.75 -4.15) (end -3.75 5.15) (layer F.Fab) (width 0.1))
  (fp_line (start -6.04 -5.4) (end 6.04 -5.4) (layer F.CrtYd) (width 0.05))
  (fp_line (start -6.04 -5.4) (end -6.04 5.4) (layer F.CrtYd) (width 0.05))
  (fp_line (start 6.04 5.4) (end 6.04 -5.4) (layer F.CrtYd) (width 0.05))
  (fp_line (start 6.04 5.4) (end -6.04 5.4) (layer F.CrtYd) (width 0.05))
  (pad 1 smd rect (at -4.9325 -4.4) (size 1.7 0.6) (layers F.Cu F.Paste F.Mask))
  (pad 25 smd rect (at 0 0) (size 5.2 7.5) (layers F.Cu F.Paste F.Mask))
  (pad 2 smd rect (at -4.9325 -3.6) (size 1.7 0.6) (layers F.Cu F.Paste F.Mask))
  (pad 3 smd rect (at -4.9325 -2.8) (size 1.7 0.6) (layers F.Cu F.Paste F.Mask))
  (pad 4 smd rect (at -4.9325 -2) (size 1.7 0.6) (layers F.Cu F.Paste F.Mask))
  (pad 5 smd rect (at -4.9325 -1.2) (size 1.7 0.6) (layers F.Cu F.Paste F.Mask))
  (pad 6 smd rect (at -4.9325 -0.4) (size 1.7 0.6) (layers F.Cu F.Paste F.Mask))
  (pad 7 smd rect (at -4.9325 0.4) (size 1.7 0.6) (layers F.Cu F.Paste F.Mask))
  (pad 8 smd rect (at -4.9325 1.2) (size 1.7 0.6) (layers F.Cu F.Paste F.Mask))
  (pad 9 smd rect (at -4.9325 2) (size 1.7 0.6) (layers F.Cu F.Paste F.Mask))
  (pad 10 smd rect (at -4.9325 2.8) (size 1.7 0.6) (layers F.Cu F.Paste F.Mask))
  (pad 11 smd rect (at -4.9325 3.6) (size 1.7 0.6) (layers F.Cu F.Paste F.Mask))
  (pad 12 smd rect (at -4.9325 4.4) (size 1.7 0.6) (layers F.Cu F.Paste F.Mask))
  (pad 13 smd rect (at 4.9325 4.4) (size 1.7 0.6) (layers F.Cu F.Paste F.Mask))
  (pad 14 smd rect (at 4.9325 3.6) (size 1.7 0.6) (layers F.Cu F.Paste F.Mask))
  (pad 15 smd rect (at 4.9325 2.8) (size 1.7 0.6) (layers F.Cu F.Paste F.Mask))
  (pad 16 smd rect (at 4.9325 2) (size 1.7 0.6) (layers F.Cu F.Paste F.Mask))
  (pad 17 smd rect (at 4.9325 1.2) (size 1.7 0.6) (layers F.Cu F.Paste F.Mask))
  (pad 18 smd rect (at 4.9325 0.4) (size 1.7 0.6) (layers F.Cu F.Paste F.Mask))
  (pad 19 smd rect (at 4.9325 -0.4) (size 1.7 0.6) (layers F.Cu F.Paste F.Mask))
  (pad 20 smd rect (at 4.9325 -1.2) (size 1.7 0.6) (layers F.Cu F.Paste F.Mask))
  (pad 21 smd rect (at 4.9325 -2) (size 1.7 0.6) (layers F.Cu F.Paste F.Mask))
  (pad 22 smd rect (at 4.9325 -2.8) (size 1.7 0.6) (layers F.Cu F.Paste F.Mask))
  (pad 23 smd rect (at 4.9325 -3.6) (size 1.7 0.6) (layers F.Cu F.Paste F.Mask))
  (pad 24 smd rect (at 4.9325 -4.4) (size 1.7 0.6) (layers F.Cu F.Paste F.Mask))
  (model ${KIPRJMOD}/kicad_libs_k/models_k.3d/Package_SO_k.3dshapes/ST_PowerSSO-24_SlugDown_k.wrl
    (at (xyz 0 0 0))
    (scale (xyz 1 1 1))
    (rotate (xyz 0 0 0))
  )
)
