(module Texas_PWP0020A (layer F.Cu) (tedit 5AD6510F)
  (descr "20-Pin Thermally Enhanced Thin Shrink Small-Outline Package, Body 4.4x6.5x1.1mm, Pad 3.0x4.2mm, Texas Instruments (see http://www.ti.com/lit/ds/symlink/lm5118.pdf)")
  (tags "PWP HTSSOP 0.65mm")
  (attr smd)
  (fp_text reference REF** (at 0 -4.5) (layer F.SilkS)
    (effects (font (size 1 1) (thickness 0.15)))
  )
  (fp_text value Texas_PWP0020A (at 0 4.5) (layer F.Fab)
    (effects (font (size 1 1) (thickness 0.15)))
  )
  (fp_line (start 2.31 3.4) (end -2.31 3.4) (layer F.SilkS) (width 0.12))
  (fp_line (start 4.11 -3.5) (end -4.11 -3.5) (layer F.CrtYd) (width 0.05))
  (fp_line (start 4.11 3.5) (end 4.11 -3.5) (layer F.CrtYd) (width 0.05))
  (fp_line (start -4.11 3.5) (end 4.11 3.5) (layer F.CrtYd) (width 0.05))
  (fp_line (start -4.11 -3.5) (end -4.11 3.5) (layer F.CrtYd) (width 0.05))
  (fp_text user %R (at 0 0) (layer F.Fab)
    (effects (font (size 1 1) (thickness 0.15)))
  )
  (fp_line (start -1.2 -3.25) (end -2.2 -2.25) (layer F.Fab) (width 0.1))
  (fp_line (start 2.2 3.25) (end 2.2 -3.25) (layer F.Fab) (width 0.1))
  (fp_line (start -2.2 3.25) (end 2.2 3.25) (layer F.Fab) (width 0.1))
  (fp_line (start -2.2 -2.25) (end -2.2 3.25) (layer F.Fab) (width 0.1))
  (fp_line (start 2.2 -3.25) (end -1.2 -3.25) (layer F.Fab) (width 0.1))
  (fp_line (start 2.31 -3.4) (end -3.86 -3.4) (layer F.SilkS) (width 0.12))
  (pad 1 smd rect (at -2.97 -2.925) (size 1.78 0.42) (layers F.Cu F.Paste F.Mask))
  (pad 2 smd rect (at -2.97 -2.275) (size 1.78 0.42) (layers F.Cu F.Paste F.Mask))
  (pad 3 smd rect (at -2.97 -1.625) (size 1.78 0.42) (layers F.Cu F.Paste F.Mask))
  (pad 4 smd rect (at -2.97 -0.975) (size 1.78 0.42) (layers F.Cu F.Paste F.Mask))
  (pad 5 smd rect (at -2.97 -0.325) (size 1.78 0.42) (layers F.Cu F.Paste F.Mask))
  (pad 6 smd rect (at -2.97 0.325) (size 1.78 0.42) (layers F.Cu F.Paste F.Mask))
  (pad 7 smd rect (at -2.97 0.975) (size 1.78 0.42) (layers F.Cu F.Paste F.Mask))
  (pad 8 smd rect (at -2.97 1.625) (size 1.78 0.42) (layers F.Cu F.Paste F.Mask))
  (pad 9 smd rect (at -2.97 2.275) (size 1.78 0.42) (layers F.Cu F.Paste F.Mask))
  (pad 10 smd rect (at -2.97 2.925) (size 1.78 0.42) (layers F.Cu F.Paste F.Mask))
  (pad 11 smd rect (at 2.97 2.925) (size 1.78 0.42) (layers F.Cu F.Paste F.Mask))
  (pad 12 smd rect (at 2.97 2.275) (size 1.78 0.42) (layers F.Cu F.Paste F.Mask))
  (pad 13 smd rect (at 2.97 1.625) (size 1.78 0.42) (layers F.Cu F.Paste F.Mask))
  (pad 14 smd rect (at 2.97 0.975) (size 1.78 0.42) (layers F.Cu F.Paste F.Mask))
  (pad 15 smd rect (at 2.97 0.325) (size 1.78 0.42) (layers F.Cu F.Paste F.Mask))
  (pad 16 smd rect (at 2.97 -0.325) (size 1.78 0.42) (layers F.Cu F.Paste F.Mask))
  (pad 17 smd rect (at 2.97 -0.975) (size 1.78 0.42) (layers F.Cu F.Paste F.Mask))
  (pad 18 smd rect (at 2.97 -1.625) (size 1.78 0.42) (layers F.Cu F.Paste F.Mask))
  (pad 19 smd rect (at 2.97 -2.275) (size 1.78 0.42) (layers F.Cu F.Paste F.Mask))
  (pad 20 smd rect (at 2.97 -2.925) (size 1.78 0.42) (layers F.Cu F.Paste F.Mask))
  (pad 21 smd rect (at 0 0) (size 3 4.2) (layers F.Cu F.Mask))
  (pad "" smd rect (at -0.7125 -1.0125) (size 1.275 1.875) (layers F.Paste))
  (pad "" smd rect (at -0.7125 1.0125) (size 1.275 1.875) (layers F.Paste))
  (pad "" smd rect (at 0.7125 -1.0125) (size 1.275 1.875) (layers F.Paste))
  (pad "" smd rect (at 0.7125 1.0125) (size 1.275 1.875) (layers F.Paste))
  (model ${KIPRJMOD}/kicad_libs_k/models_k.3d/Package_SO_k.3dshapes/Texas_PWP0020A_k.wrl
    (at (xyz 0 0 0))
    (scale (xyz 1 1 1))
    (rotate (xyz 0 0 0))
  )
)
