(module VSSOP-8_2.4x2.1mm_P0.5mm (layer F.Cu) (tedit 5A02F25C)
  (descr http://www.ti.com/lit/ml/mpds050d/mpds050d.pdf)
  (tags "VSSOP DCU R-PDSO-G8 Pitch0.5mm")
  (attr smd)
  (fp_text reference REF** (at 0 -2.54) (layer F.SilkS)
    (effects (font (size 1 1) (thickness 0.15)))
  )
  (fp_text value VSSOP-8_2.4x2.1mm_P0.5mm (at 0 2.413) (layer F.Fab)
    (effects (font (size 1 1) (thickness 0.15)))
  )
  (fp_line (start -2.18 1.3) (end -2.18 -1.3) (layer F.CrtYd) (width 0.05))
  (fp_line (start 2.18 1.3) (end -2.18 1.3) (layer F.CrtYd) (width 0.05))
  (fp_line (start 2.18 -1.3) (end 2.18 1.3) (layer F.CrtYd) (width 0.05))
  (fp_line (start -2.18 -1.3) (end 2.18 -1.3) (layer F.CrtYd) (width 0.05))
  (fp_line (start -1.3 1.2) (end -1.3 1) (layer F.SilkS) (width 0.12))
  (fp_line (start -1.3 -1.1) (end -1.7 -1.1) (layer F.SilkS) (width 0.12))
  (fp_line (start -1.3 -1.2) (end -1.3 -1.1) (layer F.SilkS) (width 0.12))
  (fp_line (start 1.3 -1.2) (end -1.3 -1.2) (layer F.SilkS) (width 0.12))
  (fp_line (start 1.3 -1) (end 1.3 -1.2) (layer F.SilkS) (width 0.12))
  (fp_line (start 1.3 1.2) (end 1.3 1) (layer F.SilkS) (width 0.12))
  (fp_line (start -1.3 1.2) (end 1.3 1.2) (layer F.SilkS) (width 0.12))
  (fp_line (start -1.2 -0.7) (end -1.2 1.05) (layer F.Fab) (width 0.1))
  (fp_line (start -0.9 -1.05) (end -1.2 -0.7) (layer F.Fab) (width 0.1))
  (fp_line (start 1.2 -1.05) (end -0.9 -1.05) (layer F.Fab) (width 0.1))
  (fp_line (start 1.2 1.05) (end 1.2 -1.05) (layer F.Fab) (width 0.1))
  (fp_line (start -1.2 1.05) (end 1.2 1.05) (layer F.Fab) (width 0.1))
  (fp_text user %R (at 0 0) (layer F.Fab)
    (effects (font (size 0.5 0.5) (thickness 0.1)))
  )
  (pad 1 smd rect (at -1.55 -0.75) (size 0.75 0.25) (layers F.Cu F.Paste F.Mask))
  (pad 2 smd rect (at -1.55 -0.25) (size 0.75 0.25) (layers F.Cu F.Paste F.Mask))
  (pad 3 smd rect (at -1.55 0.25) (size 0.75 0.25) (layers F.Cu F.Paste F.Mask))
  (pad 4 smd rect (at -1.55 0.75) (size 0.75 0.25) (layers F.Cu F.Paste F.Mask))
  (pad 5 smd rect (at 1.55 0.75) (size 0.75 0.25) (layers F.Cu F.Paste F.Mask))
  (pad 6 smd rect (at 1.55 0.25) (size 0.75 0.25) (layers F.Cu F.Paste F.Mask))
  (pad 7 smd rect (at 1.55 -0.25) (size 0.75 0.25) (layers F.Cu F.Paste F.Mask))
  (pad 8 smd rect (at 1.55 -0.75) (size 0.75 0.25) (layers F.Cu F.Paste F.Mask))
  (model ${KIPRJMOD}/kicad_libs_k/models_k.3d/Package_SO_k.3dshapes/VSSOP-8_2.4x2.1mm_P0.5mm_k.wrl
    (at (xyz 0 0 0))
    (scale (xyz 1 1 1))
    (rotate (xyz 0 0 0))
  )
)
