(module VSSOP-8_3.0x3.0mm_P0.65mm (layer F.Cu) (tedit 5A02F25C)
  (descr "VSSOP-8 3.0 x 3.0, http://www.ti.com/lit/ds/symlink/lm75b.pdf")
  (tags "VSSOP-8 3.0 x 3.0")
  (attr smd)
  (fp_text reference REF** (at 0 -2.5) (layer F.SilkS)
    (effects (font (size 1 1) (thickness 0.15)))
  )
  (fp_text value VSSOP-8_3.0x3.0mm_P0.65mm (at 0.02 2.73) (layer F.Fab)
    (effects (font (size 1 1) (thickness 0.15)))
  )
  (fp_line (start -3.48 -1.75) (end 3.48 -1.75) (layer F.CrtYd) (width 0.05))
  (fp_line (start -3.48 1.75) (end -3.48 -1.75) (layer F.CrtYd) (width 0.05))
  (fp_line (start 3.48 1.75) (end -3.48 1.75) (layer F.CrtYd) (width 0.05))
  (fp_line (start 3.48 -1.75) (end 3.48 1.75) (layer F.CrtYd) (width 0.05))
  (fp_line (start 1 1.62) (end -1 1.62) (layer F.SilkS) (width 0.12))
  (fp_line (start 0 -1.62) (end -3 -1.62) (layer F.SilkS) (width 0.12))
  (fp_line (start -0.5 -1.5) (end -1.5 -0.5) (layer F.Fab) (width 0.1))
  (fp_line (start -0.5 -1.5) (end 1.5 -1.5) (layer F.Fab) (width 0.1))
  (fp_line (start -1.5 1.5) (end -1.5 -0.5) (layer F.Fab) (width 0.1))
  (fp_line (start 1.5 1.5) (end -1.5 1.5) (layer F.Fab) (width 0.1))
  (fp_line (start 1.5 -1.5) (end 1.5 1.5) (layer F.Fab) (width 0.1))
  (fp_text user %R (at 0 0) (layer F.Fab)
    (effects (font (size 0.5 0.5) (thickness 0.1)))
  )
  (pad 1 smd rect (at -2.2 -0.975 270) (size 0.45 1.45) (layers F.Cu F.Paste F.Mask))
  (pad 2 smd rect (at -2.2 -0.325 270) (size 0.45 1.45) (layers F.Cu F.Paste F.Mask))
  (pad 3 smd rect (at -2.2 0.325 270) (size 0.45 1.45) (layers F.Cu F.Paste F.Mask))
  (pad 4 smd rect (at -2.2 0.975 270) (size 0.45 1.45) (layers F.Cu F.Paste F.Mask))
  (pad 5 smd rect (at 2.2 0.975 270) (size 0.45 1.45) (layers F.Cu F.Paste F.Mask))
  (pad 6 smd rect (at 2.2 0.325 270) (size 0.45 1.45) (layers F.Cu F.Paste F.Mask))
  (pad 7 smd rect (at 2.2 -0.325 270) (size 0.45 1.45) (layers F.Cu F.Paste F.Mask))
  (pad 8 smd rect (at 2.2 -0.975 270) (size 0.45 1.45) (layers F.Cu F.Paste F.Mask))
  (model ${KIPRJMOD}/kicad_libs_k/models_k.3d/Package_SO_k.3dshapes/VSSOP-8_3.0x3.0mm_P0.65mm_k.wrl
    (at (xyz 0 0 0))
    (scale (xyz 1 1 1))
    (rotate (xyz 0 0 0))
  )
)
