(module TE_MATE-N-LOK_1-794374-x_1x01_P4.14mm_Horizontal (layer F.Cu) (tedit 5A292163)
  (descr "Molex Mini-Universal MATE-N-LOK, old mpn/engineering number: 1-794374-x, 1 Pins per row (http://www.te.com/commerce/DocumentDelivery/DDEController?Action=srchrtrv&DocNm=82181_SOFTSHELL_HIGH_DENSITY&DocType=CS&DocLang=EN), generated with kicad-footprint-generator")
  (tags "connector TE MATE-N-LOK top entry")
  (fp_text reference REF** (at 7.85 -4.06) (layer F.SilkS)
    (effects (font (size 1 1) (thickness 0.15)))
  )
  (fp_text value TE_MATE-N-LOK_1-794374-x_1x01_P4.14mm_Horizontal (at 7.85 4.06) (layer F.Fab)
    (effects (font (size 1 1) (thickness 0.15)))
  )
  (fp_line (start 1.5 -2.86) (end 1.5 2.86) (layer F.Fab) (width 0.1))
  (fp_line (start 1.5 2.86) (end 14.2 2.86) (layer F.Fab) (width 0.1))
  (fp_line (start 14.2 2.86) (end 14.2 -2.86) (layer F.Fab) (width 0.1))
  (fp_line (start 14.2 -2.86) (end 1.5 -2.86) (layer F.Fab) (width 0.1))
  (fp_line (start 1.39 -1.58) (end 1.39 -2.97) (layer F.SilkS) (width 0.12))
  (fp_line (start 1.39 -2.97) (end 14.31 -2.97) (layer F.SilkS) (width 0.12))
  (fp_line (start 14.31 -2.97) (end 14.31 2.97) (layer F.SilkS) (width 0.12))
  (fp_line (start 14.31 2.97) (end 1.39 2.97) (layer F.SilkS) (width 0.12))
  (fp_line (start 1.39 2.97) (end 1.39 1.58) (layer F.SilkS) (width 0.12))
  (fp_line (start 0 -1.78) (end -2.11 -1.78) (layer F.SilkS) (width 0.12))
  (fp_line (start -2.11 -1.78) (end -2.11 0) (layer F.SilkS) (width 0.12))
  (fp_line (start 0 -1.78) (end -2.11 -1.78) (layer F.Fab) (width 0.1))
  (fp_line (start -2.11 -1.78) (end -2.11 0) (layer F.Fab) (width 0.1))
  (fp_line (start -2.15 -3.36) (end -2.15 3.36) (layer F.CrtYd) (width 0.05))
  (fp_line (start -2.15 3.36) (end 14.7 3.36) (layer F.CrtYd) (width 0.05))
  (fp_line (start 14.7 3.36) (end 14.7 -3.36) (layer F.CrtYd) (width 0.05))
  (fp_line (start 14.7 -3.36) (end -2.15 -3.36) (layer F.CrtYd) (width 0.05))
  (pad 1 thru_hole rect (at 0 0) (size 3.3 2.64) (drill 1.4) (layers *.Cu *.Mask))
  (pad "" np_thru_hole circle (at 7.34 0) (size 3.86 3.86) (drill 3.86) (layers *.Cu *.Mask))
  (fp_text user %R (at 13.5 0 90) (layer F.Fab)
    (effects (font (size 1 1) (thickness 0.15)))
  )
  (model ${KIPRJMOD}/kicad_libs_k/models_k.3d/Connector_TE-Connectivity_k.3dshapes/TE_MATE-N-LOK_1-794374-x_1x01_P4.14mm_Horizontal_k.wrl
    (at (xyz 0 0 0))
    (scale (xyz 1 1 1))
    (rotate (xyz 0 0 0))
  )
)