(module TE_MATE-N-LOK_1-794072-x_2x12_P4.14mm_Vertical (layer F.Cu) (tedit 5A2930A5)
  (descr "Molex Mini-Universal MATE-N-LOK, old mpn/engineering number: 1-794072-x, 12 Pins per row (http://www.te.com/commerce/DocumentDelivery/DDEController?Action=srchrtrv&DocNm=82181_SOFTSHELL_HIGH_DENSITY&DocType=CS&DocLang=EN), generated with kicad-footprint-generator")
  (tags "connector TE MATE-N-LOK side entry")
  (fp_text reference REF** (at 2.07 -7.23) (layer F.SilkS)
    (effects (font (size 1 1) (thickness 0.15)))
  )
  (fp_text value TE_MATE-N-LOK_1-794072-x_2x12_P4.14mm_Vertical (at 2.07 52.77) (layer F.Fab)
    (effects (font (size 1 1) (thickness 0.15)))
  )
  (fp_arc (start 0 -4.44) (end 1.733977 -3.505) (angle -58.704676) (layer F.Fab) (width 0.1))
  (fp_arc (start 0 -4.44) (end -1.733977 -3.505) (angle 58.704676) (layer F.Fab) (width 0.1))
  (fp_arc (start 0 49.98) (end 1.733977 49.045) (angle 58.704676) (layer F.Fab) (width 0.1))
  (fp_arc (start 0 49.98) (end -1.733977 49.045) (angle -58.704676) (layer F.Fab) (width 0.1))
  (fp_line (start -2.845 -2.845) (end -2.845 48.385) (layer F.Fab) (width 0.1))
  (fp_line (start -2.845 48.385) (end 6.985 48.385) (layer F.Fab) (width 0.1))
  (fp_line (start 6.985 48.385) (end 6.985 -2.845) (layer F.Fab) (width 0.1))
  (fp_line (start 6.985 -2.845) (end -2.845 -2.845) (layer F.Fab) (width 0.1))
  (fp_line (start -1.103302 -2.955) (end -2.955 -2.955) (layer F.SilkS) (width 0.12))
  (fp_line (start -2.955 -2.955) (end -2.955 48.495) (layer F.SilkS) (width 0.12))
  (fp_line (start -2.955 48.495) (end -1.103302 48.495) (layer F.SilkS) (width 0.12))
  (fp_line (start 1.103302 -2.955) (end 7.095 -2.955) (layer F.SilkS) (width 0.12))
  (fp_line (start 7.095 -2.955) (end 7.095 48.495) (layer F.SilkS) (width 0.12))
  (fp_line (start 7.095 48.495) (end 1.103302 48.495) (layer F.SilkS) (width 0.12))
  (fp_line (start -2.845 21.27) (end -4.145 21.27) (layer F.Fab) (width 0.1))
  (fp_line (start -4.145 21.27) (end -4.145 24.27) (layer F.Fab) (width 0.1))
  (fp_line (start -4.145 24.27) (end -2.845 24.27) (layer F.Fab) (width 0.1))
  (fp_line (start -2.955 21.16) (end -4.255 21.16) (layer F.SilkS) (width 0.12))
  (fp_line (start -4.255 21.16) (end -4.255 24.38) (layer F.SilkS) (width 0.12))
  (fp_line (start -4.255 24.38) (end -2.955 24.38) (layer F.SilkS) (width 0.12))
  (fp_line (start 6.985 -2.845) (end 7.745 -2.845) (layer F.Fab) (width 0.1))
  (fp_line (start 7.745 -2.845) (end 7.745 -1.705) (layer F.Fab) (width 0.1))
  (fp_line (start 7.745 -1.705) (end 6.985 -1.705) (layer F.Fab) (width 0.1))
  (fp_line (start 7.095 -2.955) (end 7.855 -2.955) (layer F.SilkS) (width 0.12))
  (fp_line (start 7.855 -2.955) (end 7.855 -1.595) (layer F.SilkS) (width 0.12))
  (fp_line (start 7.855 -1.595) (end 7.095 -1.595) (layer F.SilkS) (width 0.12))
  (fp_line (start 6.985 1.5) (end 7.745 1.5) (layer F.Fab) (width 0.1))
  (fp_line (start 7.745 1.5) (end 7.745 2.64) (layer F.Fab) (width 0.1))
  (fp_line (start 7.745 2.64) (end 6.985 2.64) (layer F.Fab) (width 0.1))
  (fp_line (start 7.095 1.39) (end 7.855 1.39) (layer F.SilkS) (width 0.12))
  (fp_line (start 7.855 1.39) (end 7.855 2.75) (layer F.SilkS) (width 0.12))
  (fp_line (start 7.855 2.75) (end 7.095 2.75) (layer F.SilkS) (width 0.12))
  (fp_line (start 6.985 5.64) (end 7.745 5.64) (layer F.Fab) (width 0.1))
  (fp_line (start 7.745 5.64) (end 7.745 6.78) (layer F.Fab) (width 0.1))
  (fp_line (start 7.745 6.78) (end 6.985 6.78) (layer F.Fab) (width 0.1))
  (fp_line (start 7.095 5.53) (end 7.855 5.53) (layer F.SilkS) (width 0.12))
  (fp_line (start 7.855 5.53) (end 7.855 6.89) (layer F.SilkS) (width 0.12))
  (fp_line (start 7.855 6.89) (end 7.095 6.89) (layer F.SilkS) (width 0.12))
  (fp_line (start 6.985 9.78) (end 7.745 9.78) (layer F.Fab) (width 0.1))
  (fp_line (start 7.745 9.78) (end 7.745 10.92) (layer F.Fab) (width 0.1))
  (fp_line (start 7.745 10.92) (end 6.985 10.92) (layer F.Fab) (width 0.1))
  (fp_line (start 7.095 9.67) (end 7.855 9.67) (layer F.SilkS) (width 0.12))
  (fp_line (start 7.855 9.67) (end 7.855 11.03) (layer F.SilkS) (width 0.12))
  (fp_line (start 7.855 11.03) (end 7.095 11.03) (layer F.SilkS) (width 0.12))
  (fp_line (start 6.985 13.92) (end 7.745 13.92) (layer F.Fab) (width 0.1))
  (fp_line (start 7.745 13.92) (end 7.745 15.06) (layer F.Fab) (width 0.1))
  (fp_line (start 7.745 15.06) (end 6.985 15.06) (layer F.Fab) (width 0.1))
  (fp_line (start 7.095 13.81) (end 7.855 13.81) (layer F.SilkS) (width 0.12))
  (fp_line (start 7.855 13.81) (end 7.855 15.17) (layer F.SilkS) (width 0.12))
  (fp_line (start 7.855 15.17) (end 7.095 15.17) (layer F.SilkS) (width 0.12))
  (fp_line (start 6.985 18.06) (end 7.745 18.06) (layer F.Fab) (width 0.1))
  (fp_line (start 7.745 18.06) (end 7.745 19.2) (layer F.Fab) (width 0.1))
  (fp_line (start 7.745 19.2) (end 6.985 19.2) (layer F.Fab) (width 0.1))
  (fp_line (start 7.095 17.95) (end 7.855 17.95) (layer F.SilkS) (width 0.12))
  (fp_line (start 7.855 17.95) (end 7.855 19.31) (layer F.SilkS) (width 0.12))
  (fp_line (start 7.855 19.31) (end 7.095 19.31) (layer F.SilkS) (width 0.12))
  (fp_line (start 6.985 22.2) (end 7.745 22.2) (layer F.Fab) (width 0.1))
  (fp_line (start 7.745 22.2) (end 7.745 23.34) (layer F.Fab) (width 0.1))
  (fp_line (start 7.745 23.34) (end 6.985 23.34) (layer F.Fab) (width 0.1))
  (fp_line (start 7.095 22.09) (end 7.855 22.09) (layer F.SilkS) (width 0.12))
  (fp_line (start 7.855 22.09) (end 7.855 23.45) (layer F.SilkS) (width 0.12))
  (fp_line (start 7.855 23.45) (end 7.095 23.45) (layer F.SilkS) (width 0.12))
  (fp_line (start 6.985 26.34) (end 7.745 26.34) (layer F.Fab) (width 0.1))
  (fp_line (start 7.745 26.34) (end 7.745 27.48) (layer F.Fab) (width 0.1))
  (fp_line (start 7.745 27.48) (end 6.985 27.48) (layer F.Fab) (width 0.1))
  (fp_line (start 7.095 26.23) (end 7.855 26.23) (layer F.SilkS) (width 0.12))
  (fp_line (start 7.855 26.23) (end 7.855 27.59) (layer F.SilkS) (width 0.12))
  (fp_line (start 7.855 27.59) (end 7.095 27.59) (layer F.SilkS) (width 0.12))
  (fp_line (start 6.985 30.48) (end 7.745 30.48) (layer F.Fab) (width 0.1))
  (fp_line (start 7.745 30.48) (end 7.745 31.62) (layer F.Fab) (width 0.1))
  (fp_line (start 7.745 31.62) (end 6.985 31.62) (layer F.Fab) (width 0.1))
  (fp_line (start 7.095 30.37) (end 7.855 30.37) (layer F.SilkS) (width 0.12))
  (fp_line (start 7.855 30.37) (end 7.855 31.73) (layer F.SilkS) (width 0.12))
  (fp_line (start 7.855 31.73) (end 7.095 31.73) (layer F.SilkS) (width 0.12))
  (fp_line (start 6.985 34.62) (end 7.745 34.62) (layer F.Fab) (width 0.1))
  (fp_line (start 7.745 34.62) (end 7.745 35.76) (layer F.Fab) (width 0.1))
  (fp_line (start 7.745 35.76) (end 6.985 35.76) (layer F.Fab) (width 0.1))
  (fp_line (start 7.095 34.51) (end 7.855 34.51) (layer F.SilkS) (width 0.12))
  (fp_line (start 7.855 34.51) (end 7.855 35.87) (layer F.SilkS) (width 0.12))
  (fp_line (start 7.855 35.87) (end 7.095 35.87) (layer F.SilkS) (width 0.12))
  (fp_line (start 6.985 38.76) (end 7.745 38.76) (layer F.Fab) (width 0.1))
  (fp_line (start 7.745 38.76) (end 7.745 39.9) (layer F.Fab) (width 0.1))
  (fp_line (start 7.745 39.9) (end 6.985 39.9) (layer F.Fab) (width 0.1))
  (fp_line (start 7.095 38.65) (end 7.855 38.65) (layer F.SilkS) (width 0.12))
  (fp_line (start 7.855 38.65) (end 7.855 40.01) (layer F.SilkS) (width 0.12))
  (fp_line (start 7.855 40.01) (end 7.095 40.01) (layer F.SilkS) (width 0.12))
  (fp_line (start 6.985 42.9) (end 7.745 42.9) (layer F.Fab) (width 0.1))
  (fp_line (start 7.745 42.9) (end 7.745 44.04) (layer F.Fab) (width 0.1))
  (fp_line (start 7.745 44.04) (end 6.985 44.04) (layer F.Fab) (width 0.1))
  (fp_line (start 7.095 42.79) (end 7.855 42.79) (layer F.SilkS) (width 0.12))
  (fp_line (start 7.855 42.79) (end 7.855 44.15) (layer F.SilkS) (width 0.12))
  (fp_line (start 7.855 44.15) (end 7.095 44.15) (layer F.SilkS) (width 0.12))
  (fp_line (start 6.985 47.04) (end 7.745 47.04) (layer F.Fab) (width 0.1))
  (fp_line (start 7.745 47.04) (end 7.745 48.18) (layer F.Fab) (width 0.1))
  (fp_line (start 7.745 48.18) (end 6.985 48.18) (layer F.Fab) (width 0.1))
  (fp_line (start 7.095 46.93) (end 7.855 46.93) (layer F.SilkS) (width 0.12))
  (fp_line (start 7.855 46.93) (end 7.855 48.29) (layer F.SilkS) (width 0.12))
  (fp_line (start 7.855 48.29) (end 7.095 48.29) (layer F.SilkS) (width 0.12))
  (fp_line (start 0.8 -2.845) (end 0.8 -3.505) (layer F.Fab) (width 0.1))
  (fp_line (start -0.8 -2.845) (end -0.8 -3.505) (layer F.Fab) (width 0.1))
  (fp_line (start 1.733977 -3.505) (end -1.733977 -3.505) (layer F.Fab) (width 0.1))
  (fp_line (start 1.699672 -5.436) (end -1.699672 -5.436) (layer F.Fab) (width 0.1))
  (fp_line (start 0.8 48.385) (end 0.8 49.045) (layer F.Fab) (width 0.1))
  (fp_line (start -0.8 48.385) (end -0.8 49.045) (layer F.Fab) (width 0.1))
  (fp_line (start 1.733977 49.045) (end -1.733977 49.045) (layer F.Fab) (width 0.1))
  (fp_line (start 1.699672 50.976) (end -1.699672 50.976) (layer F.Fab) (width 0.1))
  (fp_line (start -1.42066 -3.255) (end -3.255 -3.255) (layer F.SilkS) (width 0.12))
  (fp_line (start -3.255 -3.255) (end -3.255 -0.345) (layer F.SilkS) (width 0.12))
  (fp_line (start -2.845 -1) (end -1.430786 0) (layer F.Fab) (width 0.1))
  (fp_line (start -1.430786 0) (end -2.845 1) (layer F.Fab) (width 0.1))
  (fp_line (start -4.65 -6.53) (end -4.65 52.07) (layer F.CrtYd) (width 0.05))
  (fp_line (start -4.65 52.07) (end 8.24 52.07) (layer F.CrtYd) (width 0.05))
  (fp_line (start 8.24 52.07) (end 8.24 -6.53) (layer F.CrtYd) (width 0.05))
  (fp_line (start 8.24 -6.53) (end -4.65 -6.53) (layer F.CrtYd) (width 0.05))
  (pad 1 thru_hole rect (at 0 0) (size 2.64 2.64) (drill 1.4) (layers *.Cu *.Mask))
  (pad 2 thru_hole circle (at 0 4.14) (size 2.64 2.64) (drill 1.4) (layers *.Cu *.Mask))
  (pad 3 thru_hole circle (at 0 8.28) (size 2.64 2.64) (drill 1.4) (layers *.Cu *.Mask))
  (pad 4 thru_hole circle (at 0 12.42) (size 2.64 2.64) (drill 1.4) (layers *.Cu *.Mask))
  (pad 5 thru_hole circle (at 0 16.56) (size 2.64 2.64) (drill 1.4) (layers *.Cu *.Mask))
  (pad 6 thru_hole circle (at 0 20.7) (size 2.64 2.64) (drill 1.4) (layers *.Cu *.Mask))
  (pad 7 thru_hole circle (at 0 24.84) (size 2.64 2.64) (drill 1.4) (layers *.Cu *.Mask))
  (pad 8 thru_hole circle (at 0 28.98) (size 2.64 2.64) (drill 1.4) (layers *.Cu *.Mask))
  (pad 9 thru_hole circle (at 0 33.12) (size 2.64 2.64) (drill 1.4) (layers *.Cu *.Mask))
  (pad 10 thru_hole circle (at 0 37.26) (size 2.64 2.64) (drill 1.4) (layers *.Cu *.Mask))
  (pad 11 thru_hole circle (at 0 41.4) (size 2.64 2.64) (drill 1.4) (layers *.Cu *.Mask))
  (pad 12 thru_hole circle (at 0 45.54) (size 2.64 2.64) (drill 1.4) (layers *.Cu *.Mask))
  (pad 13 thru_hole circle (at 4.14 0) (size 2.64 2.64) (drill 1.4) (layers *.Cu *.Mask))
  (pad 14 thru_hole circle (at 4.14 4.14) (size 2.64 2.64) (drill 1.4) (layers *.Cu *.Mask))
  (pad 15 thru_hole circle (at 4.14 8.28) (size 2.64 2.64) (drill 1.4) (layers *.Cu *.Mask))
  (pad 16 thru_hole circle (at 4.14 12.42) (size 2.64 2.64) (drill 1.4) (layers *.Cu *.Mask))
  (pad 17 thru_hole circle (at 4.14 16.56) (size 2.64 2.64) (drill 1.4) (layers *.Cu *.Mask))
  (pad 18 thru_hole circle (at 4.14 20.7) (size 2.64 2.64) (drill 1.4) (layers *.Cu *.Mask))
  (pad 19 thru_hole circle (at 4.14 24.84) (size 2.64 2.64) (drill 1.4) (layers *.Cu *.Mask))
  (pad 20 thru_hole circle (at 4.14 28.98) (size 2.64 2.64) (drill 1.4) (layers *.Cu *.Mask))
  (pad 21 thru_hole circle (at 4.14 33.12) (size 2.64 2.64) (drill 1.4) (layers *.Cu *.Mask))
  (pad 22 thru_hole circle (at 4.14 37.26) (size 2.64 2.64) (drill 1.4) (layers *.Cu *.Mask))
  (pad 23 thru_hole circle (at 4.14 41.4) (size 2.64 2.64) (drill 1.4) (layers *.Cu *.Mask))
  (pad 24 thru_hole circle (at 4.14 45.54) (size 2.64 2.64) (drill 1.4) (layers *.Cu *.Mask))
  (pad "" np_thru_hole circle (at 0 -4.44) (size 3.18 3.18) (drill 3.18) (layers *.Cu *.Mask))
  (pad "" np_thru_hole circle (at 0 49.98) (size 3.18 3.18) (drill 3.18) (layers *.Cu *.Mask))
  (fp_text user %R (at 6.28 22.77 90) (layer F.Fab)
    (effects (font (size 1 1) (thickness 0.15)))
  )
  (model ${KIPRJMOD}/kicad_libs_k/models_k.3d/Connector_TE-Connectivity_k.3dshapes/TE_MATE-N-LOK_1-794072-x_2x12_P4.14mm_Vertical_k.wrl
    (at (xyz 0 0 0))
    (scale (xyz 1 1 1))
    (rotate (xyz 0 0 0))
  )
)