(module TE_MATE-N-LOK_1-770970-x_2x04_P4.14mm_Horizontal (layer F.Cu) (tedit 5A292163)
  (descr "Molex Mini-Universal MATE-N-LOK, old mpn/engineering number: 1-770970-x, 4 Pins per row (http://www.te.com/commerce/DocumentDelivery/DDEController?Action=srchrtrv&DocNm=82181_SOFTSHELL_HIGH_DENSITY&DocType=CS&DocLang=EN), generated with kicad-footprint-generator")
  (tags "connector TE MATE-N-LOK top entry")
  (fp_text reference REF** (at 11.99 -4.06) (layer F.SilkS)
    (effects (font (size 1 1) (thickness 0.15)))
  )
  (fp_text value TE_MATE-N-LOK_1-770970-x_2x04_P4.14mm_Horizontal (at 11.99 16.48) (layer F.Fab)
    (effects (font (size 1 1) (thickness 0.15)))
  )
  (fp_line (start 5.64 -2.86) (end 5.64 15.28) (layer F.Fab) (width 0.1))
  (fp_line (start 5.64 15.28) (end 18.34 15.28) (layer F.Fab) (width 0.1))
  (fp_line (start 18.34 15.28) (end 18.34 -2.86) (layer F.Fab) (width 0.1))
  (fp_line (start 18.34 -2.86) (end 5.64 -2.86) (layer F.Fab) (width 0.1))
  (fp_line (start 5.53 -0.751199) (end 5.53 -2.97) (layer F.SilkS) (width 0.12))
  (fp_line (start 5.53 -2.97) (end 18.45 -2.97) (layer F.SilkS) (width 0.12))
  (fp_line (start 18.45 -2.97) (end 18.45 15.39) (layer F.SilkS) (width 0.12))
  (fp_line (start 18.45 15.39) (end 5.53 15.39) (layer F.SilkS) (width 0.12))
  (fp_line (start 5.53 15.39) (end 5.53 13.171199) (layer F.SilkS) (width 0.12))
  (fp_line (start 5.53 0.751199) (end 5.53 3.388801) (layer F.SilkS) (width 0.12))
  (fp_line (start 5.53 4.891199) (end 5.53 7.528801) (layer F.SilkS) (width 0.12))
  (fp_line (start 5.53 9.031199) (end 5.53 11.668801) (layer F.SilkS) (width 0.12))
  (fp_line (start 0 -1.78) (end -1.78 -1.78) (layer F.SilkS) (width 0.12))
  (fp_line (start -1.78 -1.78) (end -1.78 0) (layer F.SilkS) (width 0.12))
  (fp_line (start 0 -1.78) (end -1.78 -1.78) (layer F.Fab) (width 0.1))
  (fp_line (start -1.78 -1.78) (end -1.78 0) (layer F.Fab) (width 0.1))
  (fp_line (start -1.82 -3.36) (end -1.82 15.78) (layer F.CrtYd) (width 0.05))
  (fp_line (start -1.82 15.78) (end 18.84 15.78) (layer F.CrtYd) (width 0.05))
  (fp_line (start 18.84 15.78) (end 18.84 -3.36) (layer F.CrtYd) (width 0.05))
  (fp_line (start 18.84 -3.36) (end -1.82 -3.36) (layer F.CrtYd) (width 0.05))
  (pad 1 thru_hole rect (at 0 0) (size 2.64 2.64) (drill 1.4) (layers *.Cu *.Mask))
  (pad 2 thru_hole circle (at 0 4.14) (size 2.64 2.64) (drill 1.4) (layers *.Cu *.Mask))
  (pad 3 thru_hole circle (at 0 8.28) (size 2.64 2.64) (drill 1.4) (layers *.Cu *.Mask))
  (pad 4 thru_hole circle (at 0 12.42) (size 2.64 2.64) (drill 1.4) (layers *.Cu *.Mask))
  (pad 5 thru_hole circle (at 4.14 0) (size 2.64 2.64) (drill 1.4) (layers *.Cu *.Mask))
  (pad 6 thru_hole circle (at 4.14 4.14) (size 2.64 2.64) (drill 1.4) (layers *.Cu *.Mask))
  (pad 7 thru_hole circle (at 4.14 8.28) (size 2.64 2.64) (drill 1.4) (layers *.Cu *.Mask))
  (pad 8 thru_hole circle (at 4.14 12.42) (size 2.64 2.64) (drill 1.4) (layers *.Cu *.Mask))
  (pad "" np_thru_hole circle (at 11.48 6.21) (size 3.86 3.86) (drill 3.86) (layers *.Cu *.Mask))
  (fp_text user %R (at 17.64 6.21 90) (layer F.Fab)
    (effects (font (size 1 1) (thickness 0.15)))
  )
  (model ${KIPRJMOD}/kicad_libs_k/models_k.3d/Connector_TE-Connectivity_k.3dshapes/TE_MATE-N-LOK_1-770970-x_2x04_P4.14mm_Horizontal_k.wrl
    (at (xyz 0 0 0))
    (scale (xyz 1 1 1))
    (rotate (xyz 0 0 0))
  )
)