(module TE_MATE-N-LOK_1-770870-x_1x03_P4.14mm_Vertical (layer F.Cu) (tedit 5A2930A5)
  (descr "Molex Mini-Universal MATE-N-LOK, old mpn/engineering number: 1-770870-x, 3 Pins per row (http://www.te.com/commerce/DocumentDelivery/DDEController?Action=srchrtrv&DocNm=82181_SOFTSHELL_HIGH_DENSITY&DocType=CS&DocLang=EN), generated with kicad-footprint-generator")
  (tags "connector TE MATE-N-LOK side entry")
  (fp_text reference REF** (at 0 -5.34) (layer F.SilkS)
    (effects (font (size 1 1) (thickness 0.15)))
  )
  (fp_text value TE_MATE-N-LOK_1-770870-x_1x03_P4.14mm_Vertical (at 0 15.51) (layer F.Fab)
    (effects (font (size 1 1) (thickness 0.15)))
  )
  (fp_arc (start 0 12.72) (end 1.733977 11.785) (angle 58.704676) (layer F.Fab) (width 0.1))
  (fp_arc (start 0 12.72) (end -1.733977 11.785) (angle -58.704676) (layer F.Fab) (width 0.1))
  (fp_line (start -2.79 -2.845) (end -2.79 11.125) (layer F.Fab) (width 0.1))
  (fp_line (start -2.79 11.125) (end 2.79 11.125) (layer F.Fab) (width 0.1))
  (fp_line (start 2.79 11.125) (end 2.79 -2.845) (layer F.Fab) (width 0.1))
  (fp_line (start 2.79 -2.845) (end -2.79 -2.845) (layer F.Fab) (width 0.1))
  (fp_line (start 0 -2.955) (end -2.9 -2.955) (layer F.SilkS) (width 0.12))
  (fp_line (start -2.9 -2.955) (end -2.9 11.235) (layer F.SilkS) (width 0.12))
  (fp_line (start -2.9 11.235) (end -1.103302 11.235) (layer F.SilkS) (width 0.12))
  (fp_line (start 0 -2.955) (end 2.9 -2.955) (layer F.SilkS) (width 0.12))
  (fp_line (start 2.9 -2.955) (end 2.9 11.235) (layer F.SilkS) (width 0.12))
  (fp_line (start 2.9 11.235) (end 1.103302 11.235) (layer F.SilkS) (width 0.12))
  (fp_line (start -1.5 -2.845) (end -1.5 -4.145) (layer F.Fab) (width 0.1))
  (fp_line (start -1.5 -4.145) (end 1.5 -4.145) (layer F.Fab) (width 0.1))
  (fp_line (start 1.5 -4.145) (end 1.5 -2.845) (layer F.Fab) (width 0.1))
  (fp_line (start -1.61 -2.955) (end -1.61 -4.255) (layer F.SilkS) (width 0.12))
  (fp_line (start -1.61 -4.255) (end 1.61 -4.255) (layer F.SilkS) (width 0.12))
  (fp_line (start 1.61 -4.255) (end 1.61 -2.955) (layer F.SilkS) (width 0.12))
  (fp_line (start -2.79 -2.845) (end -3.55 -2.845) (layer F.Fab) (width 0.1))
  (fp_line (start -3.55 -2.845) (end -3.55 -1.705) (layer F.Fab) (width 0.1))
  (fp_line (start -3.55 -1.705) (end -2.79 -1.705) (layer F.Fab) (width 0.1))
  (fp_line (start -2.9 -2.955) (end -3.66 -2.955) (layer F.SilkS) (width 0.12))
  (fp_line (start -3.66 -2.955) (end -3.66 -1.595) (layer F.SilkS) (width 0.12))
  (fp_line (start -3.66 -1.595) (end -2.9 -1.595) (layer F.SilkS) (width 0.12))
  (fp_line (start -2.79 1.5) (end -3.55 1.5) (layer F.Fab) (width 0.1))
  (fp_line (start -3.55 1.5) (end -3.55 2.64) (layer F.Fab) (width 0.1))
  (fp_line (start -3.55 2.64) (end -2.79 2.64) (layer F.Fab) (width 0.1))
  (fp_line (start -2.9 1.39) (end -3.66 1.39) (layer F.SilkS) (width 0.12))
  (fp_line (start -3.66 1.39) (end -3.66 2.75) (layer F.SilkS) (width 0.12))
  (fp_line (start -3.66 2.75) (end -2.9 2.75) (layer F.SilkS) (width 0.12))
  (fp_line (start -2.79 5.64) (end -3.55 5.64) (layer F.Fab) (width 0.1))
  (fp_line (start -3.55 5.64) (end -3.55 6.78) (layer F.Fab) (width 0.1))
  (fp_line (start -3.55 6.78) (end -2.79 6.78) (layer F.Fab) (width 0.1))
  (fp_line (start -2.9 5.53) (end -3.66 5.53) (layer F.SilkS) (width 0.12))
  (fp_line (start -3.66 5.53) (end -3.66 6.89) (layer F.SilkS) (width 0.12))
  (fp_line (start -3.66 6.89) (end -2.9 6.89) (layer F.SilkS) (width 0.12))
  (fp_line (start -2.79 9.78) (end -3.55 9.78) (layer F.Fab) (width 0.1))
  (fp_line (start -3.55 9.78) (end -3.55 10.92) (layer F.Fab) (width 0.1))
  (fp_line (start -3.55 10.92) (end -2.79 10.92) (layer F.Fab) (width 0.1))
  (fp_line (start -2.9 9.67) (end -3.66 9.67) (layer F.SilkS) (width 0.12))
  (fp_line (start -3.66 9.67) (end -3.66 11.03) (layer F.SilkS) (width 0.12))
  (fp_line (start -3.66 11.03) (end -2.9 11.03) (layer F.SilkS) (width 0.12))
  (fp_line (start 0.8 11.125) (end 0.8 11.785) (layer F.Fab) (width 0.1))
  (fp_line (start -0.8 11.125) (end -0.8 11.785) (layer F.Fab) (width 0.1))
  (fp_line (start 1.733977 11.785) (end -1.733977 11.785) (layer F.Fab) (width 0.1))
  (fp_line (start 1.699672 13.716) (end -1.699672 13.716) (layer F.Fab) (width 0.1))
  (fp_line (start -3.2 0) (end -3.624264 0.3) (layer F.SilkS) (width 0.12))
  (fp_line (start -3.624264 0.3) (end -3.624264 -0.3) (layer F.SilkS) (width 0.12))
  (fp_line (start -3.624264 -0.3) (end -3.2 0) (layer F.SilkS) (width 0.12))
  (fp_line (start -2.79 -1) (end -1.375786 0) (layer F.Fab) (width 0.1))
  (fp_line (start -1.375786 0) (end -2.79 1) (layer F.Fab) (width 0.1))
  (fp_line (start -4.05 -4.64) (end -4.05 14.81) (layer F.CrtYd) (width 0.05))
  (fp_line (start -4.05 14.81) (end 3.29 14.81) (layer F.CrtYd) (width 0.05))
  (fp_line (start 3.29 14.81) (end 3.29 -4.64) (layer F.CrtYd) (width 0.05))
  (fp_line (start 3.29 -4.64) (end -4.05 -4.64) (layer F.CrtYd) (width 0.05))
  (pad 1 thru_hole rect (at 0 0) (size 3.3 2.64) (drill 1.4) (layers *.Cu *.Mask))
  (pad 2 thru_hole oval (at 0 4.14) (size 3.3 2.64) (drill 1.4) (layers *.Cu *.Mask))
  (pad 3 thru_hole oval (at 0 8.28) (size 3.3 2.64) (drill 1.4) (layers *.Cu *.Mask))
  (pad "" np_thru_hole circle (at 0 12.72) (size 3.18 3.18) (drill 3.18) (layers *.Cu *.Mask))
  (fp_text user %R (at 2.09 4.14 90) (layer F.Fab)
    (effects (font (size 1 1) (thickness 0.15)))
  )
  (model ${KIPRJMOD}/kicad_libs_k/models_k.3d/Connector_TE-Connectivity_k.3dshapes/TE_MATE-N-LOK_1-770870-x_1x03_P4.14mm_Vertical_k.wrl
    (at (xyz 0 0 0))
    (scale (xyz 1 1 1))
    (rotate (xyz 0 0 0))
  )
)