(module TE_MATE-N-LOK_1-770875-x_2x03_P4.14mm_Vertical (layer F.Cu) (tedit 5A2930A5)
  (descr "Molex Mini-Universal MATE-N-LOK, old mpn/engineering number: 1-770875-x, 3 Pins per row (http://www.te.com/commerce/DocumentDelivery/DDEController?Action=srchrtrv&DocNm=82181_SOFTSHELL_HIGH_DENSITY&DocType=CS&DocLang=EN), generated with kicad-footprint-generator")
  (tags "connector TE MATE-N-LOK side entry")
  (fp_text reference REF** (at 2.07 -7.23) (layer F.SilkS)
    (effects (font (size 1 1) (thickness 0.15)))
  )
  (fp_text value TE_MATE-N-LOK_1-770875-x_2x03_P4.14mm_Vertical (at 2.07 14.92) (layer F.Fab)
    (effects (font (size 1 1) (thickness 0.15)))
  )
  (fp_arc (start 0 -4.44) (end 1.733977 -3.505) (angle -58.704676) (layer F.Fab) (width 0.1))
  (fp_arc (start 0 -4.44) (end -1.733977 -3.505) (angle 58.704676) (layer F.Fab) (width 0.1))
  (fp_line (start -2.845 -2.845) (end -2.845 11.125) (layer F.Fab) (width 0.1))
  (fp_line (start -2.845 11.125) (end 6.985 11.125) (layer F.Fab) (width 0.1))
  (fp_line (start 6.985 11.125) (end 6.985 -2.845) (layer F.Fab) (width 0.1))
  (fp_line (start 6.985 -2.845) (end -2.845 -2.845) (layer F.Fab) (width 0.1))
  (fp_line (start -1.103302 -2.955) (end -2.955 -2.955) (layer F.SilkS) (width 0.12))
  (fp_line (start -2.955 -2.955) (end -2.955 11.235) (layer F.SilkS) (width 0.12))
  (fp_line (start -2.955 11.235) (end 0 11.235) (layer F.SilkS) (width 0.12))
  (fp_line (start 1.103302 -2.955) (end 7.095 -2.955) (layer F.SilkS) (width 0.12))
  (fp_line (start 7.095 -2.955) (end 7.095 11.235) (layer F.SilkS) (width 0.12))
  (fp_line (start 7.095 11.235) (end 0 11.235) (layer F.SilkS) (width 0.12))
  (fp_line (start -2.845 2.64) (end -4.145 2.64) (layer F.Fab) (width 0.1))
  (fp_line (start -4.145 2.64) (end -4.145 5.64) (layer F.Fab) (width 0.1))
  (fp_line (start -4.145 5.64) (end -2.845 5.64) (layer F.Fab) (width 0.1))
  (fp_line (start -2.955 2.53) (end -4.255 2.53) (layer F.SilkS) (width 0.12))
  (fp_line (start -4.255 2.53) (end -4.255 5.75) (layer F.SilkS) (width 0.12))
  (fp_line (start -4.255 5.75) (end -2.955 5.75) (layer F.SilkS) (width 0.12))
  (fp_line (start 6.985 -2.845) (end 7.745 -2.845) (layer F.Fab) (width 0.1))
  (fp_line (start 7.745 -2.845) (end 7.745 -1.705) (layer F.Fab) (width 0.1))
  (fp_line (start 7.745 -1.705) (end 6.985 -1.705) (layer F.Fab) (width 0.1))
  (fp_line (start 7.095 -2.955) (end 7.855 -2.955) (layer F.SilkS) (width 0.12))
  (fp_line (start 7.855 -2.955) (end 7.855 -1.595) (layer F.SilkS) (width 0.12))
  (fp_line (start 7.855 -1.595) (end 7.095 -1.595) (layer F.SilkS) (width 0.12))
  (fp_line (start 2.87 11.125) (end 2.87 13.716) (layer F.Fab) (width 0.1))
  (fp_line (start 2.87 13.716) (end 5.41 13.716) (layer F.Fab) (width 0.1))
  (fp_line (start 5.41 13.716) (end 5.41 11.125) (layer F.Fab) (width 0.1))
  (fp_line (start 2.76 11.235) (end 2.76 13.826) (layer F.SilkS) (width 0.12))
  (fp_line (start 2.76 13.826) (end 5.52 13.826) (layer F.SilkS) (width 0.12))
  (fp_line (start 5.52 13.826) (end 5.52 11.235) (layer F.SilkS) (width 0.12))
  (fp_line (start 6.985 1.5) (end 7.745 1.5) (layer F.Fab) (width 0.1))
  (fp_line (start 7.745 1.5) (end 7.745 2.64) (layer F.Fab) (width 0.1))
  (fp_line (start 7.745 2.64) (end 6.985 2.64) (layer F.Fab) (width 0.1))
  (fp_line (start 7.095 1.39) (end 7.855 1.39) (layer F.SilkS) (width 0.12))
  (fp_line (start 7.855 1.39) (end 7.855 2.75) (layer F.SilkS) (width 0.12))
  (fp_line (start 7.855 2.75) (end 7.095 2.75) (layer F.SilkS) (width 0.12))
  (fp_line (start 6.985 5.64) (end 7.745 5.64) (layer F.Fab) (width 0.1))
  (fp_line (start 7.745 5.64) (end 7.745 6.78) (layer F.Fab) (width 0.1))
  (fp_line (start 7.745 6.78) (end 6.985 6.78) (layer F.Fab) (width 0.1))
  (fp_line (start 7.095 5.53) (end 7.855 5.53) (layer F.SilkS) (width 0.12))
  (fp_line (start 7.855 5.53) (end 7.855 6.89) (layer F.SilkS) (width 0.12))
  (fp_line (start 7.855 6.89) (end 7.095 6.89) (layer F.SilkS) (width 0.12))
  (fp_line (start 6.985 9.78) (end 7.745 9.78) (layer F.Fab) (width 0.1))
  (fp_line (start 7.745 9.78) (end 7.745 10.92) (layer F.Fab) (width 0.1))
  (fp_line (start 7.745 10.92) (end 6.985 10.92) (layer F.Fab) (width 0.1))
  (fp_line (start 7.095 9.67) (end 7.855 9.67) (layer F.SilkS) (width 0.12))
  (fp_line (start 7.855 9.67) (end 7.855 11.03) (layer F.SilkS) (width 0.12))
  (fp_line (start 7.855 11.03) (end 7.095 11.03) (layer F.SilkS) (width 0.12))
  (fp_line (start 0.8 -2.845) (end 0.8 -3.505) (layer F.Fab) (width 0.1))
  (fp_line (start -0.8 -2.845) (end -0.8 -3.505) (layer F.Fab) (width 0.1))
  (fp_line (start 1.733977 -3.505) (end -1.733977 -3.505) (layer F.Fab) (width 0.1))
  (fp_line (start 1.699672 -5.436) (end -1.699672 -5.436) (layer F.Fab) (width 0.1))
  (fp_line (start -1.42066 -3.255) (end -3.255 -3.255) (layer F.SilkS) (width 0.12))
  (fp_line (start -3.255 -3.255) (end -3.255 -0.345) (layer F.SilkS) (width 0.12))
  (fp_line (start -2.845 -1) (end -1.430786 0) (layer F.Fab) (width 0.1))
  (fp_line (start -1.430786 0) (end -2.845 1) (layer F.Fab) (width 0.1))
  (fp_line (start -4.65 -6.53) (end -4.65 14.22) (layer F.CrtYd) (width 0.05))
  (fp_line (start -4.65 14.22) (end 8.24 14.22) (layer F.CrtYd) (width 0.05))
  (fp_line (start 8.24 14.22) (end 8.24 -6.53) (layer F.CrtYd) (width 0.05))
  (fp_line (start 8.24 -6.53) (end -4.65 -6.53) (layer F.CrtYd) (width 0.05))
  (pad 1 thru_hole rect (at 0 0) (size 2.64 2.64) (drill 1.4) (layers *.Cu *.Mask))
  (pad 2 thru_hole circle (at 0 4.14) (size 2.64 2.64) (drill 1.4) (layers *.Cu *.Mask))
  (pad 3 thru_hole circle (at 0 8.28) (size 2.64 2.64) (drill 1.4) (layers *.Cu *.Mask))
  (pad 4 thru_hole circle (at 4.14 0) (size 2.64 2.64) (drill 1.4) (layers *.Cu *.Mask))
  (pad 5 thru_hole circle (at 4.14 4.14) (size 2.64 2.64) (drill 1.4) (layers *.Cu *.Mask))
  (pad 6 thru_hole circle (at 4.14 8.28) (size 2.64 2.64) (drill 1.4) (layers *.Cu *.Mask))
  (pad "" np_thru_hole circle (at 0 -4.44) (size 3.18 3.18) (drill 3.18) (layers *.Cu *.Mask))
  (fp_text user %R (at 6.28 4.14 90) (layer F.Fab)
    (effects (font (size 1 1) (thickness 0.15)))
  )
  (model ${KIPRJMOD}/kicad_libs_k/models_k.3d/Connector_TE-Connectivity_k.3dshapes/TE_MATE-N-LOK_1-770875-x_2x03_P4.14mm_Vertical_k.wrl
    (at (xyz 0 0 0))
    (scale (xyz 1 1 1))
    (rotate (xyz 0 0 0))
  )
)