(module LOGO (layer F.Cu)
  (at 0 0)
 (fp_text reference "G***" (at 0 0) (layer F.SilkS) hide
  (effects (font (thickness 0.3)))
  )
  (fp_text value "LOGO" (at 0.75 0) (layer F.SilkS) hide
  (effects (font (thickness 0.3)))
  )
  (fp_poly (pts (xy -12.926494 0.798205) (xy -12.883431 0.859776) (xy -12.813683 0.960409) (xy -12.722439 1.092580) (xy -12.614883 1.248766) (xy -12.496203 1.421441) (xy -12.371585 1.603083) (xy -12.353252 1.629834)
     (xy -11.884274 2.314223) (xy -12.235692 2.314223) (xy -12.388120 2.316404) (xy -12.501419 2.322620) (xy -12.569436 2.332375) (xy -12.587111 2.342445) (xy -12.558894 2.344916) (xy -12.474263 2.347275)
     (xy -12.333249 2.349521) (xy -12.135883 2.351654) (xy -11.882195 2.353674) (xy -11.572215 2.355581) (xy -11.205975 2.357375) (xy -10.783505 2.359055) (xy -10.304835 2.360623) (xy -9.769997 2.362077)
     (xy -9.179020 2.363417) (xy -8.531936 2.364644) (xy -7.828774 2.365758) (xy -7.069567 2.366758) (xy -6.254343 2.367644) (xy -5.383135 2.368417) (xy -4.455971 2.369076) (xy -3.472884 2.369621)
     (xy -2.433904 2.370053) (xy -1.339061 2.370370) (xy -0.188386 2.370573) (xy 1.018091 2.370663) (xy 1.368778 2.370667) (xy 15.324667 2.370667) (xy 15.324667 3.189112) (xy 0.014111 3.189112)
     (xy -1.267820 3.189059) (xy -2.493901 3.188903) (xy -3.664107 3.188644) (xy -4.778411 3.188280) (xy -5.836786 3.187812) (xy -6.839205 3.187240) (xy -7.785642 3.186565) (xy -8.676069 3.185786)
     (xy -9.510462 3.184904) (xy -10.288791 3.183917) (xy -11.011032 3.182828) (xy -11.677158 3.181634) (xy -12.287141 3.180338) (xy -12.840955 3.178938) (xy -13.338574 3.177434) (xy -13.779971 3.175827)
     (xy -14.165118 3.174117) (xy -14.493991 3.172304) (xy -14.766561 3.170388) (xy -14.982802 3.168368) (xy -15.142688 3.166245) (xy -15.246191 3.164020) (xy -15.293286 3.161691) (xy -15.296444 3.160889)
     (xy -15.268228 3.158364) (xy -15.183599 3.155956) (xy -15.042592 3.153667) (xy -14.845239 3.151495) (xy -14.591572 3.149442) (xy -14.281624 3.147506) (xy -13.915429 3.145689) (xy -13.493018 3.143991)
     (xy -13.014424 3.142410) (xy -12.479681 3.140948) (xy -11.888820 3.139605) (xy -11.241875 3.138380) (xy -10.538878 3.137274) (xy -9.779862 3.136287) (xy -8.964860 3.135418) (xy -8.093904 3.134668)
     (xy -7.167027 3.134037) (xy -6.184262 3.133526) (xy -5.145642 3.133133) (xy -4.051199 3.132859) (xy -2.900965 3.132705) (xy -1.947333 3.132667) (xy -0.752797 3.132607) (xy 0.385975 3.132428)
     (xy 1.468950 3.132130) (xy 2.496096 3.131713) (xy 3.467380 3.131177) (xy 4.382768 3.130522) (xy 5.242230 3.129747) (xy 6.045730 3.128854) (xy 6.793238 3.127842) (xy 7.484720 3.126712)
     (xy 8.120143 3.125463) (xy 8.699476 3.124095) (xy 9.222684 3.122609) (xy 9.689736 3.121004) (xy 10.100598 3.119281) (xy 10.455239 3.117440) (xy 10.753624 3.115480) (xy 10.995722 3.113402)
     (xy 11.181500 3.111207) (xy 11.310926 3.108893) (xy 11.383965 3.106461) (xy 11.401778 3.104445) (xy 11.373562 3.101834) (xy 11.288937 3.099349) (xy 11.147942 3.096990) (xy 10.950610 3.094758)
     (xy 10.696979 3.092652) (xy 10.387086 3.090673) (xy 10.020965 3.088820) (xy 9.598654 3.087094) (xy 9.120189 3.085495) (xy 8.585606 3.084023) (xy 7.994941 3.082677) (xy 7.348231 3.081459)
     (xy 6.645511 3.080368) (xy 5.886819 3.079403) (xy 5.072190 3.078567) (xy 4.201661 3.077857) (xy 3.275267 3.077275) (xy 2.293045 3.076821) (xy 1.255032 3.076494) (xy 0.161264 3.076294)
     (xy -0.988224 3.076223) (xy -13.518444 3.076223) (xy -13.518444 1.212186) (xy -13.274602 0.931576) (xy -13.030759 0.650966) (xy -12.926494 0.798205) )(layer F.SilkS) (width  0.010000)
  )
  (fp_poly (pts (xy 15.324667 2.314223) (xy -10.937825 2.314223) (xy -11.705882 1.199868) (xy -11.859766 0.976296) (xy -12.003658 0.766648) (xy -12.134413 0.575548) (xy -12.248888 0.407620) (xy -12.343937 0.267488)
     (xy -12.416415 0.159776) (xy -12.463177 0.089109) (xy -12.481079 0.060111) (xy -12.481137 0.059936) (xy -12.465229 0.032525) (xy -12.416697 -0.030831) (xy -12.340584 -0.124038) (xy -12.241931 -0.241002)
     (xy -12.125782 -0.375629) (xy -12.037124 -0.476709) (xy -11.585914 -0.987777) (xy -9.779000 -0.986273) (xy -9.945383 -0.896026) (xy -10.153510 -0.751794) (xy -10.328889 -0.565689) (xy -10.466313 -0.345108)
     (xy -10.560570 -0.097450) (xy -10.586267 0.014112) (xy -10.604873 0.199879) (xy -10.600198 0.410286) (xy -10.574158 0.619468) (xy -10.528669 0.801556) (xy -10.527716 0.804334) (xy -10.418480 1.044790)
     (xy -10.269645 1.245403) (xy -10.079084 1.408543) (xy -9.887257 1.517396) (xy -9.809481 1.551452) (xy -9.739770 1.573751) (xy -9.662618 1.586736) (xy -9.562519 1.592849) (xy -9.423967 1.594534)
     (xy -9.397407 1.594556) (xy -9.254508 1.593676) (xy -9.152257 1.589130) (xy -9.074861 1.578062) (xy -9.006529 1.557613) (xy -8.931469 1.524925) (xy -8.883256 1.501511) (xy -8.665912 1.364249)
     (xy -8.486647 1.186514) (xy -8.347496 0.971271) (xy -8.250495 0.721486) (xy -8.207109 0.516575) (xy -8.191362 0.235270) (xy -8.225404 -0.033917) (xy -8.306407 -0.284854) (xy -8.431538 -0.511412)
     (xy -8.597968 -0.707460) (xy -8.802866 -0.866866) (xy -8.861778 -0.901381) (xy -9.017000 -0.986755) (xy -8.276167 -0.987266) (xy -7.535333 -0.987777) (xy -7.535333 1.524000) (xy -7.028173 1.524000)
     (xy -7.020698 0.695996) (xy -7.013222 -0.132008) (xy -5.997222 1.521510) (xy -5.736167 1.522755) (xy -5.475111 1.524000) (xy -5.475111 0.620889) (xy -4.833897 0.620889) (xy -4.818095 0.773993)
     (xy -4.770157 0.989041) (xy -4.675815 1.174831) (xy -4.538435 1.328728) (xy -4.361382 1.448100) (xy -4.148023 1.530314) (xy -3.901723 1.572738) (xy -3.790223 1.578045) (xy -3.663888 1.573813)
     (xy -3.532057 1.560362) (xy -3.465667 1.549155) (xy -3.240566 1.479302) (xy -3.055507 1.373846) (xy -2.913077 1.235629) (xy -2.815862 1.067493) (xy -2.766450 0.872281) (xy -2.760487 0.774455)
     (xy -2.766921 0.649589) (xy -2.793274 0.546925) (xy -2.840234 0.447049) (xy -2.900703 0.349790) (xy -2.972434 0.270024) (xy -3.063946 0.202881) (xy -3.183756 0.143488) (xy -3.340382 0.086973)
     (xy -3.542344 0.028465) (xy -3.597783 0.013774) (xy -3.795623 -0.040043) (xy -3.944903 -0.086729) (xy -4.052416 -0.130191) (xy -4.124957 -0.174335) (xy -4.169318 -0.223069) (xy -4.192294 -0.280300)
     (xy -4.199671 -0.332382) (xy -4.198452 -0.419029) (xy -4.172357 -0.479054) (xy -4.133480 -0.520635) (xy -4.031160 -0.581278) (xy -3.898249 -0.612958) (xy -3.752555 -0.615756) (xy -3.611888 -0.589751)
     (xy -3.494054 -0.535025) (xy -3.471182 -0.517652) (xy -3.392922 -0.419142) (xy -3.354808 -0.321806) (xy -3.323521 -0.197555) (xy -2.815041 -0.197555) (xy -2.827989 -0.331611) (xy -2.872967 -0.522861)
     (xy -2.964916 -0.691084) (xy -3.097742 -0.832498) (xy -3.265356 -0.943322) (xy -3.415735 -1.001888) (xy -2.328333 -1.001888) (xy -2.328333 -0.550333) (xy -1.940278 -0.542481) (xy -1.552222 -0.534629)
     (xy -1.552222 1.524000) (xy -1.044222 1.524000) (xy 0.310444 1.524000) (xy 0.818444 1.524000) (xy 0.818444 0.500637) (xy 1.196829 0.513470) (xy 1.396254 0.523596) (xy 1.546784 0.543062)
     (xy 1.655903 0.578530) (xy 1.731095 0.636664) (xy 1.779845 0.724126) (xy 1.809639 0.847580) (xy 1.827961 1.013688) (xy 1.832808 1.079615) (xy 1.844981 1.246528) (xy 1.859444 1.365347)
     (xy 1.882992 1.444243) (xy 1.922418 1.491385) (xy 1.984516 1.514946) (xy 2.076080 1.523094) (xy 2.202326 1.524000) (xy 2.320571 1.522578) (xy 2.414305 1.518743) (xy 2.471561 1.513146)
     (xy 2.483556 1.508746) (xy 2.468716 1.477648) (xy 2.432602 1.422485) (xy 2.428713 1.417024) (xy 2.385214 1.326445) (xy 2.349678 1.194091) (xy 2.324959 1.034401) (xy 2.313910 0.861812)
     (xy 2.313602 0.834428) (xy 2.293470 0.655098) (xy 2.237194 0.502566) (xy 2.148901 0.387260) (xy 2.130517 0.371727) (xy 2.052610 0.310445) (xy 2.127907 0.251216) (xy 2.229475 0.137900)
     (xy 2.302782 -0.014310) (xy 2.342765 -0.192854) (xy 2.348716 -0.296561) (xy 2.331708 -0.484428) (xy 2.277764 -0.637403) (xy 2.182508 -0.766703) (xy 2.154529 -0.794055) (xy 2.080126 -0.855496)
     (xy 1.998760 -0.904820) (xy 1.903556 -0.943268) (xy 1.787640 -0.972076) (xy 1.677245 -0.987777) (xy 3.076222 -0.987777) (xy 3.076222 -0.087907) (xy 3.076607 0.191990) (xy 3.078570 0.421916)
     (xy 3.083324 0.608346) (xy 3.092082 0.757751) (xy 3.106054 0.876605) (xy 3.126455 0.971380) (xy 3.154496 1.048551) (xy 3.191390 1.114589) (xy 3.238350 1.175968) (xy 3.296587 1.239160)
     (xy 3.331424 1.274579) (xy 3.464849 1.391245) (xy 3.603292 1.471949) (xy 3.759160 1.520809) (xy 3.944859 1.541946) (xy 4.134556 1.541225) (xy 4.291170 1.529937) (xy 4.432350 1.510599)
     (xy 4.539018 1.485927) (xy 4.550670 1.482002) (xy 4.700022 1.404615) (xy 4.843153 1.288125) (xy 4.962665 1.148759) (xy 5.026778 1.037998) (xy 5.045081 0.995992) (xy 5.059793 0.955216)
     (xy 5.071373 0.909096) (xy 5.080278 0.851061) (xy 5.086966 0.774540) (xy 5.091895 0.672960) (xy 5.095521 0.539750) (xy 5.098304 0.368338) (xy 5.100700 0.152152) (xy 5.102584 -0.050553)
     (xy 5.111035 -0.987777) (xy 5.926667 -0.987777) (xy 5.926667 1.495778) (xy 6.406444 1.495778) (xy 6.406444 0.664998) (xy 6.553647 0.515943) (xy 6.627191 0.443902) (xy 6.685772 0.390995)
     (xy 6.718143 0.367301) (xy 6.719974 0.366889) (xy 6.740540 0.389212) (xy 6.788137 0.451932) (xy 6.858195 0.548677) (xy 6.946144 0.673074) (xy 7.047415 0.818751) (xy 7.124714 0.931334)
     (xy 7.510330 1.495778) (xy 8.104585 1.495778) (xy 8.007477 1.361723) (xy 7.964478 1.301936) (xy 7.894444 1.204055) (xy 7.803030 1.076003) (xy 7.695886 0.925703) (xy 7.578667 0.761078)
     (xy 7.480735 0.623405) (xy 7.051101 0.019143) (xy 7.553979 -0.484317) (xy 8.056856 -0.987777) (xy 8.410222 -0.987777) (xy 8.410222 -0.564444) (xy 9.172222 -0.564444) (xy 9.172222 1.495778)
     (xy 9.652000 1.495778) (xy 9.652000 -0.564444) (xy 10.414000 -0.564444) (xy 10.414000 -0.987777) (xy 11.034889 -0.987777) (xy 11.034889 1.495778) (xy 11.514667 1.495778) (xy 11.514667 -0.931333)
     (xy 12.083656 -0.931333) (xy 12.493338 0.297357) (xy 12.903020 1.526046) (xy 13.161343 1.517968) (xy 13.419667 1.509889) (xy 13.834674 0.296334) (xy 13.919851 0.047165) (xy 13.999197 -0.185128)
     (xy 14.070889 -0.395194) (xy 14.133103 -0.577684) (xy 14.184016 -0.727247) (xy 14.221806 -0.838532) (xy 14.244649 -0.906191) (xy 14.250951 -0.925376) (xy 14.225486 -0.928158) (xy 14.156351 -0.928645)
     (xy 14.056275 -0.926837) (xy 14.007555 -0.925376) (xy 13.762888 -0.917222) (xy 13.726914 -0.804333) (xy 13.605958 -0.426152) (xy 13.500729 -0.100170) (xy 13.410600 0.175437) (xy 13.334944 0.402494)
     (xy 13.273135 0.582825) (xy 13.224546 0.718254) (xy 13.188552 0.810606) (xy 13.164525 0.861706) (xy 13.151839 0.873377) (xy 13.151167 0.872441) (xy 13.137663 0.836664) (xy 13.109524 0.753692)
     (xy 13.068921 0.630216) (xy 13.018025 0.472926) (xy 12.959005 0.288512) (xy 12.894032 0.083664) (xy 12.852113 -0.049388) (xy 12.574960 -0.931333) (xy 12.083656 -0.931333) (xy 11.514667 -0.931333)
     (xy 11.514667 -0.987777) (xy 11.034889 -0.987777) (xy 10.414000 -0.987777) (xy 8.410222 -0.987777) (xy 8.056856 -0.987777) (xy 7.455980 -0.987777) (xy 6.931212 -0.447507) (xy 6.406444 0.092762)
     (xy 6.406444 -0.987777) (xy 5.926667 -0.987777) (xy 5.111035 -0.987777) (xy 5.111057 -0.990106) (xy 4.876806 -0.981886) (xy 4.642556 -0.973666) (xy 4.628444 -0.070555) (xy 4.624237 0.182259)
     (xy 4.620085 0.384902) (xy 4.615571 0.543642) (xy 4.610277 0.664749) (xy 4.603783 0.754495) (xy 4.595673 0.819149) (xy 4.585528 0.864980) (xy 4.572929 0.898260) (xy 4.562562 0.917223)
     (xy 4.496754 1.007444) (xy 4.421878 1.067043) (xy 4.324272 1.102390) (xy 4.190275 1.119854) (xy 4.120444 1.123368) (xy 3.952410 1.121574) (xy 3.827310 1.098872) (xy 3.733861 1.050040)
     (xy 3.660777 0.969862) (xy 3.614132 0.889200) (xy 3.594754 0.849157) (xy 3.579291 0.810131) (xy 3.567194 0.765300) (xy 3.557911 0.707845) (xy 3.550893 0.630944) (xy 3.545589 0.527778)
     (xy 3.541449 0.391527) (xy 3.537922 0.215368) (xy 3.534458 -0.007517) (xy 3.532874 -0.117813) (xy 3.520482 -0.987777) (xy 3.076222 -0.987777) (xy 1.677245 -0.987777) (xy 1.644135 -0.992486)
     (xy 1.466169 -1.005736) (xy 1.246865 -1.013064) (xy 0.979350 -1.015711) (xy 0.924278 -1.015786) (xy 0.310444 -1.016000) (xy 0.310444 1.524000) (xy -1.044222 1.524000) (xy -1.044222 -0.534629)
     (xy -0.656167 -0.542481) (xy -0.268111 -0.550333) (xy -0.268111 -1.001888) (xy -2.328333 -1.001888) (xy -3.415735 -1.001888) (xy -3.461664 -1.019775) (xy -3.680576 -1.058077) (xy -3.915999 -1.054445)
     (xy -3.979216 -1.046158) (xy -4.201448 -0.989947) (xy -4.390784 -0.898123) (xy -4.542985 -0.775454) (xy -4.653812 -0.626712) (xy -4.719027 -0.456666) (xy -4.734392 -0.270086) (xy -4.727545 -0.203983)
     (xy -4.693949 -0.060319) (xy -4.634679 0.053160) (xy -4.539130 0.159119) (xy -4.476972 0.213488) (xy -4.412900 0.257925) (xy -4.336783 0.296702) (xy -4.238490 0.334090) (xy -4.107889 0.374362)
     (xy -3.934848 0.421789) (xy -3.884905 0.434966) (xy -3.683970 0.489659) (xy -3.531792 0.536876) (xy -3.421843 0.580530) (xy -3.347595 0.624531) (xy -3.302522 0.672790) (xy -3.280095 0.729220)
     (xy -3.273787 0.797730) (xy -3.273778 0.801150) (xy -3.298076 0.926824) (xy -3.369460 1.023535) (xy -3.485662 1.089709) (xy -3.644412 1.123773) (xy -3.745376 1.128269) (xy -3.941381 1.109027)
     (xy -4.095441 1.052339) (xy -4.208329 0.957653) (xy -4.280816 0.824419) (xy -4.304681 0.729088) (xy -4.322961 0.620889) (xy -4.833897 0.620889) (xy -5.475111 0.620889) (xy -5.475111 -1.016000)
     (xy -5.954889 -1.016000) (xy -5.954889 -0.177396) (xy -5.955204 0.064422) (xy -5.956322 0.255069) (xy -5.958500 0.399812) (xy -5.961996 0.503923) (xy -5.967068 0.572671) (xy -5.973973 0.611324)
     (xy -5.982970 0.625154) (xy -5.993895 0.619881) (xy -6.019492 0.584734) (xy -6.069088 0.509713) (xy -6.138374 0.401796) (xy -6.223042 0.267960) (xy -6.318783 0.115185) (xy -6.421290 -0.049552)
     (xy -6.526253 -0.219273) (xy -6.629365 -0.386999) (xy -6.726316 -0.545753) (xy -6.812798 -0.688557) (xy -6.884503 -0.808432) (xy -6.937122 -0.898400) (xy -6.966347 -0.951484) (xy -6.970889 -0.962476)
     (xy -6.944663 -0.973097) (xy -6.873949 -0.981522) (xy -6.770691 -0.986681) (xy -6.688667 -0.987777) (xy -6.558495 -0.990441) (xy -6.463728 -0.997873) (xy -6.412820 -1.009231) (xy -6.406444 -1.015850)
     (xy -6.434559 -1.021330) (xy -6.518470 -1.026409) (xy -6.657535 -1.031079) (xy -6.851108 -1.035329) (xy -7.098543 -1.039152) (xy -7.399195 -1.042539) (xy -7.752420 -1.045481) (xy -8.157572 -1.047968)
     (xy -8.614006 -1.049992) (xy -8.963547 -1.051128) (xy -11.520650 -1.058333) (xy -10.882658 -1.776509) (xy -10.731964 -1.946786) (xy -10.593960 -2.103961) (xy -10.472971 -2.243010) (xy -10.373326 -2.358909)
     (xy -10.299350 -2.446635) (xy -10.255369 -2.501164) (xy -10.244667 -2.517343) (xy -10.256738 -2.539968) (xy -10.294535 -2.522487) (xy -10.360432 -2.463090) (xy -10.456805 -2.359967) (xy -10.468628 -2.346710)
     (xy -10.640413 -2.153420) (xy -11.052908 -2.133930) (xy -11.199224 -2.127758) (xy -11.324231 -2.123891) (xy -11.417714 -2.122536) (xy -11.469461 -2.123899) (xy -11.476344 -2.125381) (xy -11.461688 -2.148677)
     (xy -11.414553 -2.207790) (xy -11.340163 -2.296533) (xy -11.243740 -2.408714) (xy -11.130506 -2.538145) (xy -11.077643 -2.597906) (xy -10.957955 -2.733755) (xy -10.852055 -2.855838) (xy -10.765356 -2.957760)
     (xy -10.703270 -3.033126) (xy -10.671210 -3.075539) (xy -10.668000 -3.081967) (xy -10.689408 -3.104020) (xy -10.694533 -3.104444) (xy -10.717972 -3.083942) (xy -10.775004 -3.025148) (xy -10.861918 -2.932131)
     (xy -10.975001 -2.808960) (xy -11.110543 -2.659704) (xy -11.264833 -2.488430) (xy -11.434159 -2.299208) (xy -11.614809 -2.096107) (xy -11.632921 -2.075678) (xy -12.544778 -1.046913) (xy -13.412611 -1.045567)
     (xy -14.280444 -1.044222) (xy -14.280444 -1.467555) (xy -14.282271 -1.640075) (xy -14.287535 -1.771280) (xy -14.295915 -1.856347) (xy -14.307089 -1.890449) (xy -14.308667 -1.890888) (xy -14.320168 -1.863497)
     (xy -14.328915 -1.784538) (xy -14.334586 -1.658837) (xy -14.336860 -1.491219) (xy -14.336889 -1.467555) (xy -14.336889 -1.044222) (xy -14.534444 -1.044222) (xy -14.651797 -1.039306) (xy -14.715196 -1.027065)
     (xy -14.724215 -1.011255) (xy -14.678428 -0.995634) (xy -14.577410 -0.983960) (xy -14.541500 -0.982011) (xy -14.351000 -0.973666) (xy -14.343696 0.513634) (xy -14.336391 2.000933) (xy -14.816418 2.539721)
     (xy -15.296444 3.078509) (xy -15.296444 -3.160888) (xy 15.324667 -3.160888) (xy 15.324667 2.314223) )(layer F.SilkS) (width  0.010000)
  )
  (fp_poly (pts (xy -13.605848 1.358232) (xy -13.602390 1.389967) (xy -13.603382 1.440556) (xy -13.604175 1.482451) (xy -13.605238 1.651000) (xy -14.127214 2.226276) (xy -14.262955 2.377027) (xy -14.384427 2.514147)
     (xy -14.486935 2.632153) (xy -14.565782 2.725564) (xy -14.616273 2.788898) (xy -14.633711 2.816673) (xy -14.633478 2.817263) (xy -14.604706 2.812761) (xy -14.580491 2.792320) (xy -14.551303 2.760031)
     (xy -14.490460 2.692398) (xy -14.403974 2.596115) (xy -14.297858 2.477878) (xy -14.178123 2.344381) (xy -14.125783 2.286000) (xy -14.001015 2.146949) (xy -13.886259 2.019309) (xy -13.787804 1.910053)
     (xy -13.711937 1.826156) (xy -13.664946 1.774591) (xy -13.655731 1.764673) (xy -13.626806 1.736779) (xy -13.611073 1.736972) (xy -13.604517 1.774098) (xy -13.603124 1.857000) (xy -13.603111 1.880576)
     (xy -13.603111 2.052139) (xy -14.056176 2.542511) (xy -14.181737 2.680254) (xy -14.291239 2.803946) (xy -14.379820 2.907797) (xy -14.442623 2.986016) (xy -14.474785 3.032814) (xy -14.476824 3.043689)
     (xy -14.446270 3.028240) (xy -14.386954 2.978198) (xy -14.307392 2.901349) (xy -14.216102 2.805481) (xy -14.215021 2.804303) (xy -14.100163 2.680020) (xy -13.975116 2.546304) (xy -13.858032 2.422499)
     (xy -13.794847 2.356556) (xy -13.604059 2.159000) (xy -13.604532 2.314223) (xy -13.605004 2.469445) (xy -14.195934 3.076223) (xy -15.194628 3.076223) (xy -15.109970 2.984500) (xy -15.064305 2.935180)
     (xy -14.987824 2.852748) (xy -14.888156 2.745421) (xy -14.772932 2.621415) (xy -14.649781 2.488946) (xy -14.644769 2.483556) (xy -14.501834 2.328443) (xy -14.348485 2.159644) (xy -14.197978 1.991906)
     (xy -14.063568 1.839977) (xy -13.985168 1.749778) (xy -13.855589 1.598631) (xy -13.758867 1.486269) (xy -13.690265 1.409370) (xy -13.645051 1.364612) (xy -13.618490 1.348673) (xy -13.605848 1.358232) )(layer F.SilkS) (width  0.010000)
  )
  (fp_poly (pts (xy -13.608480 2.725846) (xy -13.617157 2.849178) (xy -13.664335 2.932541) (xy -13.752944 2.978933) (xy -13.868329 2.991556) (xy -14.010820 2.991556) (xy -13.814021 2.792960) (xy -13.617222 2.594365)
     (xy -13.608480 2.725846) )(layer F.SilkS) (width  0.010000)
  )
  (fp_poly (pts (xy -11.398802 1.775685) (xy -11.363298 1.828720) (xy -11.366961 1.863031) (xy -11.379304 1.876211) (xy -11.414899 1.908855) (xy -11.480448 1.970011) (xy -11.564929 2.049373) (xy -11.616654 2.098165)
     (xy -11.817418 2.287834) (xy -11.861455 2.220625) (xy -11.878917 2.189909) (xy -11.882038 2.161349) (xy -11.865253 2.126034) (xy -11.822995 2.075055) (xy -11.749699 1.999501) (xy -11.680189 1.930430)
     (xy -11.454885 1.707445) (xy -11.398802 1.775685) )(layer F.SilkS) (width  0.010000)
  )
  (fp_poly (pts (xy -11.227588 2.023136) (xy -11.203263 2.047268) (xy -11.194700 2.095754) (xy -11.225632 2.155492) (xy -11.283984 2.214783) (xy -11.357684 2.261928) (xy -11.434658 2.285230) (xy -11.449647 2.286000)
     (xy -11.512716 2.279472) (xy -11.542530 2.263536) (xy -11.542889 2.261373) (xy -11.523202 2.229643) (xy -11.473640 2.175912) (xy -11.408456 2.113380) (xy -11.341900 2.055243) (xy -11.288222 2.014702)
     (xy -11.264753 2.003778) (xy -11.227588 2.023136) )(layer F.SilkS) (width  0.010000)
  )
  (fp_poly (pts (xy -11.063111 2.271889) (xy -11.077222 2.286000) (xy -11.091333 2.271889) (xy -11.077222 2.257778) (xy -11.063111 2.271889) )(layer F.SilkS) (width  0.010000)
  )
  (fp_poly (pts (xy -11.583654 1.508321) (xy -11.533550 1.584790) (xy -11.760896 1.812135) (xy -11.988242 2.039481) (xy -12.038346 1.963013) (xy -12.088450 1.886544) (xy -11.861104 1.659199) (xy -11.633758 1.431853)
     (xy -11.583654 1.508321) )(layer F.SilkS) (width  0.010000)
  )
  (fp_poly (pts (xy -11.790600 1.206501) (xy -11.750929 1.257464) (xy -11.750537 1.258062) (xy -11.702884 1.330790) (xy -12.155460 1.783366) (xy -12.278972 1.626346) (xy -12.059759 1.405840) (xy -11.969486 1.316857)
     (xy -11.893208 1.245067) (xy -11.839869 1.198675) (xy -11.819368 1.185334) (xy -11.790600 1.206501) )(layer F.SilkS) (width  0.010000)
  )
  (fp_poly (pts (xy -11.938180 0.987525) (xy -11.873980 1.077687) (xy -12.095828 1.300843) (xy -12.186074 1.390287) (xy -12.261609 1.462645) (xy -12.313788 1.509798) (xy -12.333420 1.524000) (xy -12.356640 1.502205)
     (xy -12.393594 1.448516) (xy -12.401126 1.436036) (xy -12.453088 1.348071) (xy -12.227734 1.122718) (xy -12.002381 0.897364) (xy -11.938180 0.987525) )(layer F.SilkS) (width  0.010000)
  )
  (fp_poly (pts (xy -8.344628 -0.136248) (xy -8.333756 -0.110482) (xy -8.328960 -0.067983) (xy -8.327539 -0.032830) (xy -8.341885 0.005657) (xy -8.387101 0.077766) (xy -8.464444 0.185173) (xy -8.575175 0.329556)
     (xy -8.720551 0.512590) (xy -8.901831 0.735953) (xy -8.936722 0.778559) (xy -9.081160 0.954032) (xy -9.214392 1.114558) (xy -9.332199 1.255152) (xy -9.430356 1.370829) (xy -9.504642 1.456607)
     (xy -9.550835 1.507501) (xy -9.564667 1.519772) (xy -9.602264 1.512872) (xy -9.660729 1.503625) (xy -9.714663 1.487242) (xy -9.731284 1.465525) (xy -9.711925 1.438537) (xy -9.660565 1.373018)
     (xy -9.581203 1.273908) (xy -9.477838 1.146148) (xy -9.354470 0.994680) (xy -9.215098 0.824444) (xy -9.063722 0.640382) (xy -9.046208 0.619138) (xy -8.867969 0.403303) (xy -8.722196 0.228142)
     (xy -8.605592 0.090663) (xy -8.514856 -0.012127) (xy -8.446691 -0.083220) (xy -8.397797 -0.125610) (xy -8.364876 -0.142288) (xy -8.344628 -0.136248) )(layer F.SilkS) (width  0.010000)
  )
  (fp_poly (pts (xy -8.292868 0.223066) (xy -8.292057 0.225111) (xy -8.280496 0.273510) (xy -8.283736 0.326244) (xy -8.305208 0.389128) (xy -8.348338 0.467981) (xy -8.416555 0.568619) (xy -8.513288 0.696859)
     (xy -8.641965 0.858519) (xy -8.726942 0.962984) (xy -8.847718 1.109990) (xy -8.957799 1.242577) (xy -9.051811 1.354386) (xy -9.124382 1.439059) (xy -9.170139 1.490238) (xy -9.182751 1.502402)
     (xy -9.230193 1.516086) (xy -9.306450 1.523276) (xy -9.322832 1.523568) (xy -9.431107 1.524000) (xy -9.291666 1.357121) (xy -9.232535 1.285934) (xy -9.145034 1.180043) (xy -9.036555 1.048417)
     (xy -8.914484 0.900024) (xy -8.786212 0.743834) (xy -8.732837 0.678763) (xy -8.598167 0.515378) (xy -8.494397 0.391918) (xy -8.417349 0.304085) (xy -8.362849 0.247582) (xy -8.326719 0.218109)
     (xy -8.304784 0.211370) (xy -8.292868 0.223066) )(layer F.SilkS) (width  0.010000)
  )
  (fp_poly (pts (xy -8.461310 -0.395504) (xy -8.425927 -0.341801) (xy -8.416350 -0.306774) (xy -8.435719 -0.279565) (xy -8.486147 -0.215081) (xy -8.562974 -0.118995) (xy -8.661537 0.003023) (xy -8.777175 0.145303)
     (xy -8.905225 0.302171) (xy -9.041025 0.467959) (xy -9.179915 0.636993) (xy -9.317231 0.803604) (xy -9.448312 0.962120) (xy -9.568497 1.106869) (xy -9.673123 1.232182) (xy -9.757528 1.332385)
     (xy -9.817050 1.401809) (xy -9.847029 1.434782) (xy -9.849556 1.436718) (xy -9.881649 1.424852) (xy -9.940182 1.395603) (xy -9.944007 1.393539) (xy -10.024348 1.350004) (xy -9.968987 1.288836)
     (xy -9.938989 1.253894) (xy -9.877287 1.180600) (xy -9.788162 1.074086) (xy -9.675895 0.939487) (xy -9.544766 0.781934) (xy -9.399056 0.606563) (xy -9.243047 0.418506) (xy -9.213940 0.383390)
     (xy -8.514253 -0.460886) (xy -8.461310 -0.395504) )(layer F.SilkS) (width  0.010000)
  )
  (fp_poly (pts (xy -8.335635 0.693134) (xy -8.358099 0.763285) (xy -8.396680 0.854779) (xy -8.445217 0.953911) (xy -8.497548 1.046974) (xy -8.537100 1.106617) (xy -8.591997 1.170731) (xy -8.662725 1.238959)
     (xy -8.741068 1.305476) (xy -8.818807 1.364458) (xy -8.887724 1.410080) (xy -8.939601 1.436517) (xy -8.966221 1.437945) (xy -8.959364 1.408539) (xy -8.956749 1.404056) (xy -8.925610 1.360101)
     (xy -8.868777 1.286813) (xy -8.793312 1.192671) (xy -8.706276 1.086153) (xy -8.614731 0.975740) (xy -8.525739 0.869910) (xy -8.446361 0.777142) (xy -8.383658 0.705916) (xy -8.344693 0.664711)
     (xy -8.335449 0.658033) (xy -8.335635 0.693134) )(layer F.SilkS) (width  0.010000)
  )
  (fp_poly (pts (xy -7.140222 0.960116) (xy -7.145176 1.053726) (xy -7.166563 1.124292) (xy -7.214166 1.197431) (xy -7.246056 1.237169) (xy -7.308745 1.313673) (xy -7.359470 1.376574) (xy -7.380886 1.403930)
     (xy -7.415170 1.427017) (xy -7.430275 1.422096) (xy -7.443622 1.382761) (xy -7.450439 1.311848) (xy -7.450667 1.295854) (xy -7.443791 1.233053) (xy -7.418327 1.169516) (xy -7.367016 1.091443)
     (xy -7.295444 1.000636) (xy -7.140222 0.811268) (xy -7.140222 0.960116) )(layer F.SilkS) (width  0.010000)
  )
  (fp_poly (pts (xy -7.140850 1.347612) (xy -7.147729 1.412600) (xy -7.175652 1.437348) (xy -7.196667 1.439334) (xy -7.242268 1.430468) (xy -7.252484 1.418167) (xy -7.236220 1.383137) (xy -7.197844 1.327954)
     (xy -7.196667 1.326445) (xy -7.141477 1.255889) (xy -7.140850 1.347612) )(layer F.SilkS) (width  0.010000)
  )
  (fp_poly (pts (xy -5.566824 1.270000) (xy -5.573889 1.425223) (xy -5.693833 1.433901) (xy -5.766779 1.434440) (xy -5.808972 1.425566) (xy -5.813197 1.419790) (xy -5.795354 1.388656) (xy -5.749189 1.329163)
     (xy -5.686188 1.255889) (xy -5.559759 1.114778) (xy -5.566824 1.270000) )(layer F.SilkS) (width  0.010000)
  )
  (fp_poly (pts (xy -5.565192 0.807073) (xy -5.564819 0.866933) (xy -5.575756 0.923272) (xy -5.603032 0.984804) (xy -5.651675 1.060244) (xy -5.726712 1.158307) (xy -5.833172 1.287707) (xy -5.862985 1.323240)
     (xy -5.943351 1.418813) (xy -5.992509 1.343788) (xy -6.013877 1.310274) (xy -6.024557 1.281463) (xy -6.020335 1.249070) (xy -5.997002 1.204814) (xy -5.950345 1.140412) (xy -5.876152 1.047580)
     (xy -5.785556 0.936790) (xy -5.573889 0.678169) (xy -5.565192 0.807073) )(layer F.SilkS) (width  0.010000)
  )
  (fp_poly (pts (xy -12.166130 0.669672) (xy -12.121804 0.720695) (xy -12.109429 0.736979) (xy -12.044466 0.824847) (xy -12.265738 1.047423) (xy -12.356164 1.136800) (xy -12.432256 1.209051) (xy -12.485236 1.256027)
     (xy -12.505592 1.270000) (xy -12.532672 1.248950) (xy -12.569754 1.200438) (xy -12.602837 1.140803) (xy -12.615333 1.101745) (xy -12.597060 1.071054) (xy -12.548901 1.011597) (xy -12.480848 0.934101)
     (xy -12.402891 0.849293) (xy -12.325024 0.767898) (xy -12.257236 0.700645) (xy -12.209520 0.658258) (xy -12.193720 0.649112) (xy -12.166130 0.669672) )(layer F.SilkS) (width  0.010000)
  )
  (fp_poly (pts (xy -8.676673 -0.670421) (xy -8.637849 -0.636516) (xy -8.601836 -0.591211) (xy -8.585176 -0.552625) (xy -8.585566 -0.547539) (xy -8.605083 -0.517737) (xy -8.656114 -0.450954) (xy -8.734048 -0.352728)
     (xy -8.834276 -0.228595) (xy -8.952187 -0.084093) (xy -9.083172 0.075239) (xy -9.222620 0.243865) (xy -9.365921 0.416247) (xy -9.508465 0.586846) (xy -9.645642 0.750127) (xy -9.772841 0.900551)
     (xy -9.885453 1.032580) (xy -9.978868 1.140676) (xy -10.048475 1.219303) (xy -10.089664 1.262923) (xy -10.098693 1.270000) (xy -10.133974 1.251120) (xy -10.173632 1.214085) (xy -10.206843 1.166877)
     (xy -10.199107 1.127884) (xy -10.185062 1.108294) (xy -10.158787 1.076139) (xy -10.100481 1.005607) (xy -10.014270 0.901664) (xy -9.904280 0.769276) (xy -9.774639 0.613408) (xy -9.629472 0.439027)
     (xy -9.472906 0.251099) (xy -9.428312 0.197598) (xy -9.270818 0.008644) (xy -9.124829 -0.166545) (xy -8.994250 -0.323280) (xy -8.882985 -0.456873) (xy -8.794940 -0.562636) (xy -8.734017 -0.635881)
     (xy -8.704122 -0.671921) (xy -8.701763 -0.674808) (xy -8.676673 -0.670421) )(layer F.SilkS) (width  0.010000)
  )
  (fp_poly (pts (xy -5.565278 0.374156) (xy -5.563179 0.428087) (xy -5.568242 0.473784) (xy -5.585727 0.520746) (xy -5.620897 0.578471) (xy -5.679014 0.656458) (xy -5.765340 0.764204) (xy -5.815429 0.825712)
     (xy -5.908485 0.938822) (xy -5.989264 1.035142) (xy -6.050965 1.106703) (xy -6.086782 1.145533) (xy -6.092372 1.150130) (xy -6.119317 1.135005) (xy -6.145610 1.101124) (xy -6.174444 1.038505)
     (xy -6.169080 0.981833) (xy -6.125746 0.913269) (xy -6.099079 0.881017) (xy -6.047228 0.825384) (xy -6.014863 0.809282) (xy -5.988064 0.826744) (xy -5.983881 0.831628) (xy -5.931866 0.875160)
     (xy -5.894556 0.865252) (xy -5.873865 0.803441) (xy -5.870222 0.740425) (xy -5.866409 0.667989) (xy -5.849917 0.607256) (xy -5.813170 0.541990) (xy -5.748592 0.455957) (xy -5.722056 0.422925)
     (xy -5.573889 0.239889) (xy -5.565278 0.374156) )(layer F.SilkS) (width  0.010000)
  )
  (fp_poly (pts (xy -8.896063 -0.806773) (xy -8.842103 -0.780824) (xy -8.793771 -0.754191) (xy -8.780273 -0.744876) (xy -8.795731 -0.722521) (xy -8.842840 -0.662438) (xy -8.917012 -0.570173) (xy -9.013659 -0.451273)
     (xy -9.128191 -0.311283) (xy -9.256019 -0.155750) (xy -9.392556 0.009780) (xy -9.533212 0.179762) (xy -9.673398 0.348650) (xy -9.808526 0.510897) (xy -9.934007 0.660957) (xy -10.045253 0.793285)
     (xy -10.137673 0.902335) (xy -10.206681 0.982559) (xy -10.246080 1.026712) (xy -10.280758 1.058625) (xy -10.304795 1.053544) (xy -10.334355 1.005272) (xy -10.342408 0.989783) (xy -10.388935 0.899808)
     (xy -9.958149 0.386404) (xy -9.726283 0.110283) (xy -9.528484 -0.124783) (xy -9.362740 -0.321146) (xy -9.227040 -0.481160) (xy -9.119374 -0.607177) (xy -9.037728 -0.701552) (xy -8.980093 -0.766636)
     (xy -8.944457 -0.804784) (xy -8.928808 -0.818349) (xy -8.928297 -0.818444) (xy -8.896063 -0.806773) )(layer F.SilkS) (width  0.010000)
  )
  (fp_poly (pts (xy -12.314139 0.440362) (xy -12.270762 0.503889) (xy -12.249130 0.553817) (xy -12.248585 0.559176) (xy -12.267018 0.593691) (xy -12.317022 0.658369) (xy -12.390467 0.743247) (xy -12.460226 0.818565)
     (xy -12.672008 1.040890) (xy -12.741214 0.939043) (xy -12.810421 0.837196) (xy -12.722916 0.736098) (xy -12.654807 0.658957) (xy -12.569740 0.564679) (xy -12.507482 0.496807) (xy -12.379552 0.358613)
     (xy -12.314139 0.440362) )(layer F.SilkS) (width  0.010000)
  )
  (fp_poly (pts (xy -7.145640 0.519379) (xy -7.144078 0.586671) (xy -7.153298 0.643528) (xy -7.179325 0.701400) (xy -7.228183 0.771740) (xy -7.305897 0.865998) (xy -7.362382 0.931334) (xy -7.448373 1.030112)
     (xy -7.449520 0.888881) (xy -7.446922 0.814300) (xy -7.432696 0.754264) (xy -7.399322 0.692281) (xy -7.339279 0.611854) (xy -7.302500 0.566405) (xy -7.154333 0.385158) (xy -7.145640 0.519379) )(layer F.SilkS) (width  0.010000)
  )
  (fp_poly (pts (xy -6.152835 0.570070) (xy -6.117255 0.616402) (xy -6.116266 0.618069) (xy -6.090305 0.667598) (xy -6.088681 0.705302) (xy -6.116084 0.750557) (xy -6.161390 0.804445) (xy -6.253598 0.911114)
     (xy -6.303059 0.835628) (xy -6.334107 0.781141) (xy -6.333379 0.740689) (xy -6.299602 0.685835) (xy -6.296133 0.680953) (xy -6.233023 0.599111) (xy -6.188341 0.563229) (xy -6.152835 0.570070) )(layer F.SilkS) (width  0.010000)
  )
  (fp_poly (pts (xy -12.528955 0.135278) (xy -12.488891 0.188788) (xy -12.474551 0.211135) (xy -12.447383 0.256430) (xy -12.433755 0.293252) (xy -12.437997 0.330742) (xy -12.464437 0.378042) (xy -12.517405 0.444291)
     (xy -12.601230 0.538631) (xy -12.660834 0.604454) (xy -12.833334 0.794933) (xy -12.905953 0.702143) (xy -12.946890 0.637244) (xy -12.961737 0.586760) (xy -12.959230 0.576395) (xy -12.929343 0.535364)
     (xy -12.874579 0.468161) (xy -12.804448 0.385620) (xy -12.728456 0.298576) (xy -12.656113 0.217863) (xy -12.596927 0.154316) (xy -12.560407 0.118770) (xy -12.554135 0.114798) (xy -12.528955 0.135278) )(layer F.SilkS) (width  0.010000)
  )
  (fp_poly (pts (xy -9.104809 -0.894319) (xy -9.068033 -0.880862) (xy -9.075559 -0.853142) (xy -9.120543 -0.784120) (xy -9.203069 -0.673687) (xy -9.323221 -0.521736) (xy -9.481082 -0.328159) (xy -9.676735 -0.092846)
     (xy -9.684131 -0.084017) (xy -9.869744 0.137732) (xy -10.022162 0.319840) (xy -10.144772 0.465656) (xy -10.240958 0.578528) (xy -10.314103 0.661803) (xy -10.367594 0.718830) (xy -10.404814 0.752956)
     (xy -10.429149 0.767530) (xy -10.443982 0.765899) (xy -10.452699 0.751412) (xy -10.458684 0.727417) (xy -10.465322 0.697261) (xy -10.467108 0.690486) (xy -10.496786 0.582999) (xy -10.196976 0.228000)
     (xy -10.068843 0.076172) (xy -9.919896 -0.100492) (xy -9.765624 -0.283608) (xy -9.621520 -0.454795) (xy -9.570831 -0.515055) (xy -9.447709 -0.659677) (xy -9.353862 -0.765129) (xy -9.283832 -0.836733)
     (xy -9.232157 -0.879810) (xy -9.193379 -0.899680) (xy -9.173082 -0.902679) (xy -9.104809 -0.894319) )(layer F.SilkS) (width  0.010000)
  )
  (fp_poly (pts (xy -6.281672 0.353340) (xy -6.249542 0.405931) (xy -6.242459 0.444016) (xy -6.263422 0.487930) (xy -6.311016 0.552217) (xy -6.366160 0.619704) (xy -6.402136 0.643913) (xy -6.431369 0.628341)
     (xy -6.456100 0.593050) (xy -6.484954 0.533420) (xy -6.481836 0.481656) (xy -6.442705 0.419528) (xy -6.408672 0.379225) (xy -6.326232 0.285332) (xy -6.281672 0.353340) )(layer F.SilkS) (width  0.010000)
  )
  (fp_poly (pts (xy -7.147939 -0.041503) (xy -7.142396 -0.001471) (xy -7.141535 0.084667) (xy -7.143837 0.164626) (xy -7.155975 0.224200) (xy -7.185904 0.280209) (xy -7.241579 0.349472) (xy -7.295029 0.409223)
     (xy -7.448466 0.578556) (xy -7.449566 0.440351) (xy -7.444701 0.351703) (xy -7.421874 0.282566) (xy -7.371284 0.208195) (xy -7.344833 0.175906) (xy -7.277157 0.094845) (xy -7.217140 0.022392)
     (xy -7.190239 -0.010445) (xy -7.162456 -0.041701) (xy -7.147939 -0.041503) )(layer F.SilkS) (width  0.010000)
  )
  (fp_poly (pts (xy -5.570035 -0.172522) (xy -5.561625 -0.119414) (xy -5.559778 -0.065677) (xy -5.562778 0.008235) (xy -5.576704 0.067832) (xy -5.608941 0.128941) (xy -5.666879 0.207386) (xy -5.715000 0.266858)
     (xy -5.870222 0.456227) (xy -5.870222 0.308768) (xy -5.868252 0.246180) (xy -5.858675 0.192409) (xy -5.835990 0.138056) (xy -5.794698 0.073725) (xy -5.729298 -0.009980) (xy -5.634291 -0.122457)
     (xy -5.582943 -0.182033) (xy -5.570035 -0.172522) )(layer F.SilkS) (width  0.010000)
  )
  (fp_poly (pts (xy -9.402284 -0.927221) (xy -9.370460 -0.917131) (xy -9.369778 -0.915224) (xy -9.387322 -0.889309) (xy -9.436327 -0.827109) (xy -9.511350 -0.735046) (xy -9.606946 -0.619545) (xy -9.717674 -0.487029)
     (xy -9.838089 -0.343922) (xy -9.962750 -0.196648) (xy -10.086212 -0.051629) (xy -10.203032 0.084709) (xy -10.307768 0.205944) (xy -10.394976 0.305651) (xy -10.459214 0.377407) (xy -10.495037 0.414789)
     (xy -10.500023 0.418630) (xy -10.515910 0.399342) (xy -10.525551 0.339711) (xy -10.526889 0.300515) (xy -10.525453 0.257647) (xy -10.518187 0.217808) (xy -10.500651 0.174344) (xy -10.468405 0.120599)
     (xy -10.417010 0.049920) (xy -10.342027 -0.044349) (xy -10.239016 -0.168862) (xy -10.115824 -0.315670) (xy -9.964494 -0.495126) (xy -9.844314 -0.635876) (xy -9.750342 -0.742610) (xy -9.677636 -0.820017)
     (xy -9.621252 -0.872789) (xy -9.576249 -0.905614) (xy -9.537683 -0.923183) (xy -9.500611 -0.930185) (xy -9.466982 -0.931333) (xy -9.402284 -0.927221) )(layer F.SilkS) (width  0.010000)
  )
  (fp_poly (pts (xy -6.434821 0.104225) (xy -6.406236 0.163808) (xy -6.408369 0.216346) (xy -6.445272 0.279128) (xy -6.488104 0.331612) (xy -6.536925 0.382109) (xy -6.570516 0.386617) (xy -6.607617 0.344221)
     (xy -6.620311 0.325160) (xy -6.644916 0.281388) (xy -6.645845 0.244679) (xy -6.618652 0.196874) (xy -6.574982 0.140107) (xy -6.483819 0.025004) (xy -6.434821 0.104225) )(layer F.SilkS) (width  0.010000)
  )
  (fp_poly (pts (xy -6.592116 -0.154660) (xy -6.559272 -0.099779) (xy -6.553005 -0.059182) (xy -6.576154 -0.012041) (xy -6.619547 0.046725) (xy -6.679104 0.115609) (xy -6.721442 0.137044) (xy -6.755805 0.113439)
     (xy -6.772340 0.086522) (xy -6.797082 0.024206) (xy -6.790478 -0.030013) (xy -6.747887 -0.094914) (xy -6.719116 -0.128775) (xy -6.636677 -0.222668) (xy -6.592116 -0.154660) )(layer F.SilkS) (width  0.010000)
  )
  (fp_poly (pts (xy -6.943783 -0.710249) (xy -6.909131 -0.665317) (xy -6.901723 -0.651798) (xy -6.875254 -0.593380) (xy -6.875213 -0.550646) (xy -6.905267 -0.499257) (xy -6.929602 -0.466804) (xy -6.989589 -0.404168)
     (xy -7.049362 -0.365758) (xy -7.064488 -0.361526) (xy -7.119904 -0.328522) (xy -7.140041 -0.276203) (xy -7.162045 -0.224287) (xy -7.207903 -0.149052) (xy -7.267357 -0.064236) (xy -7.330150 0.016421)
     (xy -7.386023 0.079180) (xy -7.424719 0.110300) (xy -7.429500 0.111519) (xy -7.441994 0.087112) (xy -7.449594 0.023643) (xy -7.450667 -0.017037) (xy -7.448281 -0.074052) (xy -7.437084 -0.123908)
     (xy -7.411017 -0.177187) (xy -7.364022 -0.244473) (xy -7.290039 -0.336350) (xy -7.220438 -0.419204) (xy -7.131204 -0.524655) (xy -7.054519 -0.615156) (xy -6.998118 -0.681585) (xy -6.969736 -0.714823)
     (xy -6.968839 -0.715854) (xy -6.943783 -0.710249) )(layer F.SilkS) (width  0.010000)
  )
  (fp_poly (pts (xy -12.954250 -0.986490) (xy -12.821121 -0.982927) (xy -12.719137 -0.977538) (xy -12.657598 -0.970771) (xy -12.643556 -0.965300) (xy -12.661296 -0.940011) (xy -12.710350 -0.879771) (xy -12.784467 -0.791756)
     (xy -12.877397 -0.683146) (xy -12.982889 -0.561118) (xy -13.094691 -0.432850) (xy -13.206555 -0.305520) (xy -13.312228 -0.186305) (xy -13.405461 -0.082384) (xy -13.480003 -0.000935) (xy -13.520336 0.041550)
     (xy -13.539166 0.059213) (xy -13.553073 0.063808) (xy -13.562802 0.048678) (xy -13.569099 0.007164) (xy -13.572711 -0.067390) (xy -13.574384 -0.181643) (xy -13.574864 -0.342252) (xy -13.574889 -0.445284)
     (xy -13.574889 -0.987777) (xy -13.109222 -0.987777) (xy -12.954250 -0.986490) )(layer F.SilkS) (width  0.010000)
  )
  (fp_poly (pts (xy -5.565227 -0.497397) (xy -5.563620 -0.427793) (xy -5.574073 -0.371968) (xy -5.603575 -0.314063) (xy -5.659111 -0.238220) (xy -5.704210 -0.181976) (xy -5.772837 -0.098656) (xy -5.826894 -0.035396)
     (xy -5.857533 -0.002464) (xy -5.861039 0.000000) (xy -5.866393 -0.025331) (xy -5.869702 -0.089774) (xy -5.870222 -0.134174) (xy -5.866416 -0.206533) (xy -5.849904 -0.267010) (xy -5.813047 -0.331866)
     (xy -5.748205 -0.417368) (xy -5.722056 -0.449595) (xy -5.573889 -0.630842) (xy -5.565227 -0.497397) )(layer F.SilkS) (width  0.010000)
  )
  (fp_poly (pts (xy -9.833077 -0.818773) (xy -9.873436 -0.759824) (xy -9.940143 -0.672359) (xy -10.027857 -0.563418) (xy -10.115432 -0.458612) (xy -10.237886 -0.314303) (xy -10.328462 -0.207906) (xy -10.391940 -0.134412)
     (xy -10.433101 -0.088816) (xy -10.456726 -0.066108) (xy -10.467596 -0.061281) (xy -10.470490 -0.069327) (xy -10.470190 -0.085239) (xy -10.470169 -0.087018) (xy -10.455121 -0.149657) (xy -10.416040 -0.242665)
     (xy -10.361147 -0.350093) (xy -10.298662 -0.455988) (xy -10.236807 -0.544400) (xy -10.230220 -0.552586) (xy -10.163692 -0.622217) (xy -10.079161 -0.695043) (xy -9.989463 -0.761903) (xy -9.907436 -0.813636)
     (xy -9.845918 -0.841083) (xy -9.824409 -0.842164) (xy -9.833077 -0.818773) )(layer F.SilkS) (width  0.010000)
  )
  (fp_poly (pts (xy -6.765376 -0.424124) (xy -6.731715 -0.378130) (xy -6.703764 -0.329373) (xy -6.703964 -0.292640) (xy -6.736559 -0.246286) (xy -6.763528 -0.215852) (xy -6.817875 -0.154698) (xy -6.856231 -0.110220)
     (xy -6.862435 -0.102590) (xy -6.885841 -0.108304) (xy -6.919794 -0.153271) (xy -6.927939 -0.168141) (xy -6.954953 -0.227273) (xy -6.955558 -0.270014) (xy -6.926188 -0.320797) (xy -6.900682 -0.354828)
     (xy -6.842969 -0.423516) (xy -6.802156 -0.446023) (xy -6.765376 -0.424124) )(layer F.SilkS) (width  0.010000)
  )
  (fp_poly (pts (xy -7.112241 -0.897238) (xy -7.057128 -0.880469) (xy -7.037676 -0.844194) (xy -7.055361 -0.783989) (xy -7.111659 -0.695433) (xy -7.208045 -0.574104) (xy -7.227871 -0.550666) (xy -7.310382 -0.454663)
     (xy -7.378665 -0.376909) (xy -7.425019 -0.326060) (xy -7.441543 -0.310444) (xy -7.446798 -0.335816) (xy -7.450096 -0.400546) (xy -7.450667 -0.448492) (xy -7.446679 -0.526347) (xy -7.429155 -0.588845)
     (xy -7.389755 -0.654495) (xy -7.320140 -0.741806) (xy -7.316611 -0.746008) (xy -7.238965 -0.832761) (xy -7.181842 -0.880626) (xy -7.134387 -0.897632) (xy -7.112241 -0.897238) )(layer F.SilkS) (width  0.010000)
  )
  (fp_poly (pts (xy -5.574089 -0.887662) (xy -5.562520 -0.840928) (xy -5.596187 -0.762328) (xy -5.675253 -0.651282) (xy -5.715000 -0.603088) (xy -5.870222 -0.420121) (xy -5.869395 -0.569894) (xy -5.863084 -0.669696)
     (xy -5.839396 -0.739945) (xy -5.789157 -0.806930) (xy -5.785126 -0.811388) (xy -5.704890 -0.878712) (xy -5.630731 -0.903111) (xy -5.574089 -0.887662) )(layer F.SilkS) (width  0.010000)
  )
  (fp_poly (pts (xy -7.366000 -0.832555) (xy -7.412845 -0.785234) (xy -7.440160 -0.762382) (xy -7.441475 -0.762000) (xy -7.448394 -0.786230) (xy -7.450667 -0.832555) (xy -7.440008 -0.885051) (xy -7.396761 -0.902398)
     (xy -7.375192 -0.903111) (xy -7.299717 -0.903111) (xy -7.366000 -0.832555) )(layer F.SilkS) (width  0.010000)
  )
  (fp_poly (pts (xy -5.842000 -0.889000) (xy -5.856111 -0.874888) (xy -5.870222 -0.889000) (xy -5.856111 -0.903111) (xy -5.842000 -0.889000) )(layer F.SilkS) (width  0.010000)
  )
  (fp_poly (pts (xy -2.948526 0.459066) (xy -2.915543 0.497552) (xy -2.887621 0.546957) (xy -2.878667 0.581139) (xy -2.896378 0.617595) (xy -2.944900 0.687740) (xy -3.017313 0.783280) (xy -3.106699 0.895920)
     (xy -3.206139 1.017369) (xy -3.308714 1.139331) (xy -3.407507 1.253514) (xy -3.495597 1.351623) (xy -3.566067 1.425366) (xy -3.611997 1.466447) (xy -3.621671 1.471798) (xy -3.700415 1.488577)
     (xy -3.767996 1.491943) (xy -3.805941 1.481618) (xy -3.808797 1.474612) (xy -3.784692 1.424801) (xy -3.726314 1.359124) (xy -3.648143 1.290165) (xy -3.564656 1.230505) (xy -3.490334 1.192727)
     (xy -3.481006 1.189763) (xy -3.351879 1.128269) (xy -3.254745 1.032083) (xy -3.198913 0.912542) (xy -3.189111 0.834244) (xy -3.175816 0.742855) (xy -3.131934 0.648144) (xy -3.051466 0.539538)
     (xy -2.972076 0.451600) (xy -2.948526 0.459066) )(layer F.SilkS) (width  0.010000)
  )
  (fp_poly (pts (xy -3.853232 1.225636) (xy -3.753030 1.244434) (xy -3.842683 1.355995) (xy -3.921588 1.434986) (xy -3.997896 1.464432) (xy -4.084875 1.448955) (xy -4.096400 1.444406) (xy -4.118706 1.427016)
     (xy -4.111339 1.396569) (xy -4.069950 1.341486) (xy -4.048172 1.316031) (xy -3.987609 1.251476) (xy -3.940865 1.222614) (xy -3.887756 1.220086) (xy -3.853232 1.225636) )(layer F.SilkS) (width  0.010000)
  )
  (fp_poly (pts (xy -2.854140 0.810351) (xy -2.849576 0.854754) (xy -2.861265 0.937754) (xy -2.862597 0.944931) (xy -2.912034 1.073165) (xy -3.005128 1.198638) (xy -3.129810 1.309637) (xy -3.274007 1.394451)
     (xy -3.358444 1.426043) (xy -3.406757 1.437691) (xy -3.407986 1.423522) (xy -3.384217 1.393696) (xy -3.350082 1.352357) (xy -3.288687 1.277229) (xy -3.208265 1.178411) (xy -3.117048 1.066003)
     (xy -3.101995 1.047424) (xy -2.998883 0.923081) (xy -2.925439 0.843078) (xy -2.878309 0.805980) (xy -2.854140 0.810351) )(layer F.SilkS) (width  0.010000)
  )
  (fp_poly (pts (xy -4.213033 1.103765) (xy -4.164173 1.128494) (xy -4.117003 1.163338) (xy -4.093342 1.194471) (xy -4.093114 1.197158) (xy -4.113417 1.243450) (xy -4.160415 1.302326) (xy -4.216192 1.354859)
     (xy -4.262835 1.382125) (xy -4.268919 1.382889) (xy -4.321647 1.367206) (xy -4.357684 1.345983) (xy -4.386129 1.319744) (xy -4.386055 1.290834) (xy -4.353977 1.242840) (xy -4.329217 1.211928)
     (xy -4.279551 1.150530) (xy -4.247098 1.109902) (xy -4.241763 1.102976) (xy -4.213033 1.103765) )(layer F.SilkS) (width  0.010000)
  )
  (fp_poly (pts (xy -4.340976 0.929873) (xy -4.314746 0.981764) (xy -4.312051 1.020914) (xy -4.337160 1.067162) (xy -4.383309 1.126568) (xy -4.437612 1.190880) (xy -4.477888 1.232210) (xy -4.490015 1.240322)
     (xy -4.519599 1.222948) (xy -4.553515 1.190167) (xy -4.586918 1.146811) (xy -4.593624 1.107908) (xy -4.569870 1.059391) (xy -4.511890 0.987189) (xy -4.493547 0.966016) (xy -4.388556 0.845476)
     (xy -4.340976 0.929873) )(layer F.SilkS) (width  0.010000)
  )
  (fp_poly (pts (xy -4.470888 0.709308) (xy -4.433161 0.718647) (xy -4.430889 0.721973) (xy -4.448058 0.754575) (xy -4.490946 0.811729) (xy -4.546631 0.878359) (xy -4.602184 0.939391) (xy -4.644683 0.979750)
     (xy -4.658788 0.987778) (xy -4.678911 0.963125) (xy -4.698116 0.902427) (xy -4.700920 0.888691) (xy -4.703470 0.792362) (xy -4.665169 0.733280) (xy -4.582531 0.707469) (xy -4.540322 0.705556)
     (xy -4.470888 0.709308) )(layer F.SilkS) (width  0.010000)
  )
  (fp_poly (pts (xy -3.124087 0.270095) (xy -3.076985 0.304152) (xy -3.015051 0.354303) (xy -3.123248 0.473652) (xy -3.231444 0.593001) (xy -3.299485 0.539899) (xy -3.367525 0.486797) (xy -3.271262 0.370908)
     (xy -3.214337 0.306025) (xy -3.171427 0.263739) (xy -3.156960 0.254509) (xy -3.124087 0.270095) )(layer F.SilkS) (width  0.010000)
  )
  (fp_poly (pts (xy -3.306350 0.194257) (xy -3.305027 0.195088) (xy -3.288763 0.218683) (xy -3.303436 0.258507) (xy -3.353484 0.325583) (xy -3.361472 0.335258) (xy -3.424571 0.406843) (xy -3.471014 0.440255)
     (xy -3.518160 0.442363) (xy -3.579558 0.421570) (xy -3.645449 0.395161) (xy -3.556020 0.282247) (xy -3.470300 0.198314) (xy -3.388118 0.169345) (xy -3.306350 0.194257) )(layer F.SilkS) (width  0.010000)
  )
  (fp_poly (pts (xy -3.604332 0.108558) (xy -3.579551 0.124658) (xy -3.582149 0.151434) (xy -3.616423 0.200479) (xy -3.655920 0.247685) (xy -3.720985 0.318897) (xy -3.769796 0.353138) (xy -3.820057 0.358524)
     (xy -3.873500 0.347435) (xy -3.914888 0.322231) (xy -3.911827 0.276511) (xy -3.863319 0.205500) (xy -3.837793 0.176389) (xy -3.760567 0.108885) (xy -3.686328 0.088881) (xy -3.604332 0.108558) )(layer F.SilkS) (width  0.010000)
  )
  (fp_poly (pts (xy -3.969877 0.011770) (xy -3.906246 0.027298) (xy -3.872745 0.040737) (xy -3.872725 0.040757) (xy -3.882011 0.067355) (xy -3.918708 0.122748) (xy -3.953001 0.167463) (xy -4.019481 0.240448)
     (xy -4.077316 0.272444) (xy -4.145898 0.271454) (xy -4.183944 0.262768) (xy -4.219374 0.250053) (xy -4.227963 0.229339) (xy -4.206800 0.189233) (xy -4.152975 0.118344) (xy -4.144208 0.107259)
     (xy -4.086000 0.040112) (xy -4.040593 0.010401) (xy -3.989985 0.008265) (xy -3.969877 0.011770) )(layer F.SilkS) (width  0.010000)
  )
  (fp_poly (pts (xy -4.224847 -0.124644) (xy -4.218274 -0.119878) (xy -4.169743 -0.080542) (xy -4.149630 -0.056444) (xy -4.166356 -0.029347) (xy -4.210399 0.025918) (xy -4.254576 0.077263) (xy -4.360333 0.196859)
     (xy -4.493915 0.084401) (xy -4.390011 -0.042399) (xy -4.330761 -0.112699) (xy -4.292929 -0.145578) (xy -4.262348 -0.147429) (xy -4.224847 -0.124644) )(layer F.SilkS) (width  0.010000)
  )
  (fp_poly (pts (xy -3.843441 -0.844395) (xy -3.932690 -0.757199) (xy -4.044054 -0.680042) (xy -4.081767 -0.660269) (xy -4.209725 -0.575160) (xy -4.289879 -0.465412) (xy -4.319067 -0.335371) (xy -4.319084 -0.334401)
     (xy -4.337853 -0.278591) (xy -4.385721 -0.200773) (xy -4.440456 -0.131645) (xy -4.560744 0.004820) (xy -4.594594 -0.069473) (xy -4.619417 -0.133432) (xy -4.628444 -0.173213) (xy -4.611061 -0.203435)
     (xy -4.562855 -0.268939) (xy -4.489741 -0.362154) (xy -4.397635 -0.475511) (xy -4.310944 -0.579537) (xy -4.196261 -0.715235) (xy -4.110934 -0.813718) (xy -4.048008 -0.880985) (xy -4.000528 -0.923033)
     (xy -3.961540 -0.945862) (xy -3.924088 -0.955470) (xy -3.881218 -0.957856) (xy -3.872170 -0.957985) (xy -3.750896 -0.959555) (xy -3.843441 -0.844395) )(layer F.SilkS) (width  0.010000)
  )
  (fp_poly (pts (xy -3.042933 -0.649862) (xy -3.005751 -0.598080) (xy -2.991556 -0.567600) (xy -3.008852 -0.538327) (xy -3.054077 -0.480151) (xy -3.113821 -0.409842) (xy -3.236086 -0.270897) (xy -3.269028 -0.365394)
     (xy -3.284977 -0.422193) (xy -3.280856 -0.467484) (xy -3.250665 -0.519998) (xy -3.198140 -0.586600) (xy -3.094311 -0.713310) (xy -3.042933 -0.649862) )(layer F.SilkS) (width  0.010000)
  )
  (fp_poly (pts (xy -2.935000 -0.402478) (xy -2.924433 -0.359833) (xy -2.916821 -0.305864) (xy -2.939747 -0.285288) (xy -2.992940 -0.282222) (xy -3.080066 -0.282222) (xy -3.018621 -0.368513) (xy -2.974702 -0.427234)
     (xy -2.951050 -0.438945) (xy -2.935000 -0.402478) )(layer F.SilkS) (width  0.010000)
  )
  (fp_poly (pts (xy -4.204604 -0.875293) (xy -4.246277 -0.819006) (xy -4.307991 -0.739808) (xy -4.381589 -0.647832) (xy -4.458912 -0.553211) (xy -4.531805 -0.466077) (xy -4.592109 -0.396565) (xy -4.617218 -0.369240)
     (xy -4.625590 -0.383870) (xy -4.628444 -0.427215) (xy -4.606502 -0.517281) (xy -4.548369 -0.621598) (xy -4.465587 -0.724294) (xy -4.369698 -0.809493) (xy -4.333026 -0.833511) (xy -4.258627 -0.874037)
     (xy -4.206270 -0.896812) (xy -4.191129 -0.898535) (xy -4.204604 -0.875293) )(layer F.SilkS) (width  0.010000)
  )
  (fp_poly (pts (xy -3.288335 -0.851569) (xy -3.245493 -0.828029) (xy -3.165717 -0.780904) (xy -3.252693 -0.672674) (xy -3.309442 -0.604308) (xy -3.346981 -0.574291) (xy -3.381685 -0.577154) (xy -3.429929 -0.607433)
     (xy -3.435823 -0.611546) (xy -3.499090 -0.655687) (xy -3.412180 -0.765420) (xy -3.359163 -0.829711) (xy -3.323691 -0.856245) (xy -3.288335 -0.851569) )(layer F.SilkS) (width  0.010000)
  )
  (fp_poly (pts (xy -3.529846 -0.941624) (xy -3.467623 -0.923844) (xy -3.448315 -0.896786) (xy -3.470915 -0.849465) (xy -3.516175 -0.792387) (xy -3.581111 -0.731324) (xy -3.653854 -0.707746) (xy -3.701022 -0.705555)
     (xy -3.771899 -0.709897) (xy -3.795796 -0.725485) (xy -3.790236 -0.743726) (xy -3.758074 -0.788935) (xy -3.706470 -0.853418) (xy -3.692123 -0.870434) (xy -3.634839 -0.927721) (xy -3.583473 -0.946965)
     (xy -3.529846 -0.941624) )(layer F.SilkS) (width  0.010000)
  )
  (fp_poly (pts (xy -1.129121 1.365741) (xy -1.128889 1.379434) (xy -1.145741 1.428095) (xy -1.171222 1.439334) (xy -1.208806 1.425931) (xy -1.213556 1.414567) (xy -1.194247 1.377787) (xy -1.171222 1.354667)
     (xy -1.138784 1.336489) (xy -1.129121 1.365741) )(layer F.SilkS) (width  0.010000)
  )
  (fp_poly (pts (xy -1.139661 0.915299) (xy -1.133930 0.944709) (xy -1.139705 0.996587) (xy -1.172304 1.063359) (xy -1.237156 1.154721) (xy -1.285299 1.215007) (xy -1.357362 1.301708) (xy -1.415274 1.368792)
     (xy -1.450428 1.406411) (xy -1.456647 1.411112) (xy -1.464772 1.386828) (xy -1.467556 1.338524) (xy -1.446689 1.271925) (xy -1.386122 1.173551) (xy -1.305278 1.068226) (xy -1.228781 0.976333)
     (xy -1.180358 0.923587) (xy -1.152992 0.904930) (xy -1.139661 0.915299) )(layer F.SilkS) (width  0.010000)
  )
  (fp_poly (pts (xy -1.131817 0.475703) (xy -1.128889 0.519553) (xy -1.148369 0.578071) (xy -1.203245 0.667105) (xy -1.288169 0.778106) (xy -1.298222 0.790223) (xy -1.376890 0.883438) (xy -1.426448 0.937668)
     (xy -1.453604 0.957550) (xy -1.465066 0.947721) (xy -1.467543 0.912818) (xy -1.467556 0.907276) (xy -1.454568 0.844496) (xy -1.411775 0.766670) (xy -1.333433 0.663892) (xy -1.310566 0.636606)
     (xy -1.238416 0.553134) (xy -1.180638 0.489231) (xy -1.146322 0.454831) (xy -1.141233 0.451556) (xy -1.131817 0.475703) )(layer F.SilkS) (width  0.010000)
  )
  (fp_poly (pts (xy -1.139950 0.034370) (xy -1.134091 0.065237) (xy -1.139465 0.116592) (xy -1.170626 0.181570) (xy -1.233177 0.270124) (xy -1.287887 0.338446) (xy -1.360297 0.425408) (xy -1.418136 0.492883)
     (xy -1.452961 0.531118) (xy -1.459073 0.536223) (xy -1.465332 0.511884) (xy -1.467556 0.461753) (xy -1.445898 0.391501) (xy -1.381968 0.288327) (xy -1.305278 0.188543) (xy -1.228888 0.096242)
     (xy -1.180539 0.043143) (xy -1.153228 0.024200) (xy -1.139950 0.034370) )(layer F.SilkS) (width  0.010000)
  )
  (fp_poly (pts (xy -1.133445 -0.405257) (xy -1.132722 -0.337881) (xy -1.163097 -0.261238) (xy -1.229389 -0.166298) (xy -1.312019 -0.070555) (xy -1.387791 0.011567) (xy -1.433594 0.055969) (xy -1.457004 0.067079)
     (xy -1.465596 0.049322) (xy -1.466871 0.019943) (xy -1.452610 -0.029874) (xy -1.414528 -0.100704) (xy -1.360606 -0.182367) (xy -1.298828 -0.264681) (xy -1.237177 -0.337467) (xy -1.183638 -0.390542)
     (xy -1.146192 -0.413728) (xy -1.133445 -0.405257) )(layer F.SilkS) (width  0.010000)
  )
  (fp_poly (pts (xy -1.016756 -0.900573) (xy -1.013173 -0.889601) (xy -1.024745 -0.865228) (xy -1.055064 -0.822252) (xy -1.107724 -0.755474) (xy -1.186320 -0.659695) (xy -1.294444 -0.529714) (xy -1.403041 -0.399503)
     (xy -1.465526 -0.324555) (xy -1.466541 -0.411041) (xy -1.448181 -0.479901) (xy -1.398668 -0.569595) (xy -1.328266 -0.667850) (xy -1.247237 -0.762395) (xy -1.165843 -0.840959) (xy -1.094349 -0.891270)
     (xy -1.055011 -0.903111) (xy -1.031900 -0.903343) (xy -1.016756 -0.900573) )(layer F.SilkS) (width  0.010000)
  )
  (fp_poly (pts (xy -1.825420 -0.777036) (xy -1.906963 -0.695560) (xy -1.975800 -0.653906) (xy -1.996722 -0.650036) (xy -2.046326 -0.655356) (xy -2.060222 -0.665120) (xy -2.043682 -0.694186) (xy -2.001403 -0.750908)
     (xy -1.968500 -0.791611) (xy -1.892876 -0.867682) (xy -1.824497 -0.899984) (xy -1.797198 -0.902602) (xy -1.717618 -0.903111) (xy -1.825420 -0.777036) )(layer F.SilkS) (width  0.010000)
  )
  (fp_poly (pts (xy -1.383039 -0.901078) (xy -1.373066 -0.888053) (xy -1.392985 -0.853646) (xy -1.445653 -0.787467) (xy -1.454955 -0.776111) (xy -1.540920 -0.687391) (xy -1.611609 -0.650466) (xy -1.626178 -0.649111)
     (xy -1.677627 -0.654149) (xy -1.693333 -0.663141) (xy -1.675983 -0.690146) (xy -1.631372 -0.744620) (xy -1.591272 -0.790141) (xy -1.502781 -0.870659) (xy -1.428121 -0.902701) (xy -1.420049 -0.903111)
     (xy -1.383039 -0.901078) )(layer F.SilkS) (width  0.010000)
  )
  (fp_poly (pts (xy -0.719347 -0.778344) (xy -0.800314 -0.692761) (xy -0.867251 -0.653344) (xy -0.896054 -0.649111) (xy -0.966864 -0.649111) (xy -0.868117 -0.769055) (xy -0.778022 -0.858209) (xy -0.697116 -0.897452)
     (xy -0.691410 -0.898289) (xy -0.613450 -0.907578) (xy -0.719347 -0.778344) )(layer F.SilkS) (width  0.010000)
  )
  (fp_poly (pts (xy -0.368778 -0.887352) (xy -0.366889 -0.843209) (xy -0.387680 -0.752358) (xy -0.441080 -0.682392) (xy -0.513632 -0.649767) (xy -0.525633 -0.649111) (xy -0.596510 -0.649111) (xy -0.541190 -0.726722)
     (xy -0.482434 -0.799850) (xy -0.426379 -0.858096) (xy -0.383866 -0.893552) (xy -0.368778 -0.887352) )(layer F.SilkS) (width  0.010000)
  )
  (fp_poly (pts (xy -2.132423 -0.895289) (xy -2.137160 -0.861773) (xy -2.144048 -0.848238) (xy -2.185123 -0.789045) (xy -2.215384 -0.778960) (xy -2.229235 -0.819118) (xy -2.229556 -0.830890) (xy -2.217134 -0.886871)
     (xy -2.173285 -0.903106) (xy -2.172118 -0.903111) (xy -2.132423 -0.895289) )(layer F.SilkS) (width  0.010000)
  )
  (fp_poly (pts (xy 0.732356 1.175714) (xy 0.732693 1.190224) (xy 0.714392 1.263906) (xy 0.667266 1.341909) (xy 0.605805 1.406094) (xy 0.544499 1.438320) (xy 0.533713 1.439334) (xy 0.489478 1.430097)
     (xy 0.480358 1.418167) (xy 0.498092 1.387795) (xy 0.543963 1.328769) (xy 0.606274 1.255889) (xy 0.672623 1.182551) (xy 0.710259 1.147596) (xy 0.727422 1.146744) (xy 0.732356 1.175714) )(layer F.SilkS) (width  0.010000)
  )
  (fp_poly (pts (xy 2.243385 1.128433) (xy 2.251217 1.154100) (xy 2.240107 1.188870) (xy 2.204169 1.243866) (xy 2.137521 1.330213) (xy 2.134909 1.333500) (xy 2.074423 1.397833) (xy 2.020823 1.435224)
     (xy 1.984935 1.439901) (xy 1.976163 1.418167) (xy 1.993442 1.381572) (xy 2.036458 1.323769) (xy 2.093860 1.257064) (xy 2.154299 1.193762) (xy 2.206425 1.146170) (xy 2.238888 1.126595)
     (xy 2.243385 1.128433) )(layer F.SilkS) (width  0.010000)
  )
  (fp_poly (pts (xy 0.722717 0.711704) (xy 0.728575 0.742570) (xy 0.723202 0.793925) (xy 0.692040 0.858903) (xy 0.629489 0.947457) (xy 0.574780 1.015780) (xy 0.502370 1.102741) (xy 0.444531 1.170217)
     (xy 0.409706 1.208451) (xy 0.403593 1.213556) (xy 0.397335 1.189218) (xy 0.395111 1.139087) (xy 0.416769 1.068835) (xy 0.480699 0.965660) (xy 0.557389 0.865877) (xy 0.633779 0.773575)
     (xy 0.682127 0.720476) (xy 0.709439 0.701534) (xy 0.722717 0.711704) )(layer F.SilkS) (width  0.010000)
  )
  (fp_poly (pts (xy 2.226425 0.715644) (xy 2.218681 0.755339) (xy 2.183110 0.821523) (xy 2.124579 0.906374) (xy 2.047953 1.002070) (xy 1.959197 1.099659) (xy 1.928194 1.124570) (xy 1.919362 1.100629)
     (xy 1.919111 1.085348) (xy 1.936337 1.039619) (xy 1.980522 0.967260) (xy 2.040431 0.883197) (xy 2.104826 0.802356) (xy 2.162472 0.739665) (xy 2.201474 0.710260) (xy 2.226425 0.715644) )(layer F.SilkS) (width  0.010000)
  )
  (fp_poly (pts (xy 0.859603 0.202159) (xy 0.859515 0.224398) (xy 0.843297 0.246945) (xy 0.794954 0.307082) (xy 0.727847 0.388167) (xy 0.650497 0.480204) (xy 0.571422 0.573198) (xy 0.499144 0.657155)
     (xy 0.442182 0.722079) (xy 0.409056 0.757977) (xy 0.404235 0.762000) (xy 0.397450 0.737705) (xy 0.395111 0.689082) (xy 0.413871 0.626326) (xy 0.463367 0.541079) (xy 0.533423 0.445352)
     (xy 0.613862 0.351154) (xy 0.694509 0.270495) (xy 0.765187 0.215385) (xy 0.811585 0.197556) (xy 0.859603 0.202159) )(layer F.SilkS) (width  0.010000)
  )
  (fp_poly (pts (xy 2.091386 0.459095) (xy 2.073021 0.513605) (xy 2.015144 0.600823) (xy 2.014512 0.601635) (xy 1.955361 0.677268) (xy 1.921420 0.717119) (xy 1.902804 0.729609) (xy 1.889624 0.723161)
     (xy 1.881481 0.714963) (xy 1.865487 0.688050) (xy 1.874192 0.652366) (xy 1.912890 0.595756) (xy 1.957003 0.541538) (xy 2.028619 0.468088) (xy 2.074999 0.442265) (xy 2.091386 0.459095) )(layer F.SilkS) (width  0.010000)
  )
  (fp_poly (pts (xy 2.252757 -0.188671) (xy 2.239646 -0.146896) (xy 2.197856 -0.076361) (xy 2.137096 0.010316) (xy 2.067078 0.100518) (xy 1.997510 0.181625) (xy 1.938104 0.241021) (xy 1.903933 0.264616)
     (xy 1.866514 0.298710) (xy 1.861652 0.316615) (xy 1.842756 0.371883) (xy 1.799461 0.428893) (xy 1.747723 0.471727) (xy 1.703497 0.484465) (xy 1.696283 0.481601) (xy 1.689699 0.461719)
     (xy 1.707532 0.420579) (xy 1.753182 0.353199) (xy 1.830049 0.254596) (xy 1.941532 0.119788) (xy 1.950193 0.109493) (xy 2.069595 -0.029611) (xy 2.157409 -0.125495) (xy 2.215735 -0.180228)
     (xy 2.246673 -0.195879) (xy 2.252757 -0.188671) )(layer F.SilkS) (width  0.010000)
  )
  (fp_poly (pts (xy 1.217702 0.211836) (xy 1.218973 0.232992) (xy 1.187951 0.278117) (xy 1.155899 0.317500) (xy 1.096180 0.375561) (xy 1.034818 0.414331) (xy 0.985270 0.427982) (xy 0.960996 0.410686)
     (xy 0.960383 0.402167) (xy 0.982817 0.355310) (xy 1.035483 0.296881) (xy 1.100628 0.242472) (xy 1.160502 0.207670) (xy 1.187390 0.202808) (xy 1.217702 0.211836) )(layer F.SilkS) (width  0.010000)
  )
  (fp_poly (pts (xy 1.579077 0.224978) (xy 1.559444 0.270380) (xy 1.517724 0.325627) (xy 1.464785 0.377858) (xy 1.411498 0.414211) (xy 1.378912 0.423334) (xy 1.342922 0.420879) (xy 1.339465 0.404053)
     (xy 1.368671 0.358665) (xy 1.379650 0.343216) (xy 1.456475 0.249904) (xy 1.520901 0.205657) (xy 1.565750 0.202281) (xy 1.579077 0.224978) )(layer F.SilkS) (width  0.010000)
  )
  (fp_poly (pts (xy 0.730405 -0.164654) (xy 0.732550 -0.135661) (xy 0.714474 -0.068521) (xy 0.656662 0.024908) (xy 0.576788 0.125394) (xy 0.504638 0.208867) (xy 0.446860 0.272770) (xy 0.412544 0.307170)
     (xy 0.407455 0.310445) (xy 0.398635 0.286039) (xy 0.395575 0.232834) (xy 0.412197 0.171073) (xy 0.464367 0.088970) (xy 0.556508 -0.020344) (xy 0.563681 -0.028222) (xy 0.643444 -0.114279)
     (xy 0.693014 -0.162646) (xy 0.719598 -0.177909) (xy 0.730405 -0.164654) )(layer F.SilkS) (width  0.010000)
  )
  (fp_poly (pts (xy 1.411864 -0.560192) (xy 1.573147 -0.545155) (xy 1.689933 -0.515908) (xy 1.767954 -0.469027) (xy 1.812942 -0.401089) (xy 1.830631 -0.308671) (xy 1.826926 -0.190214) (xy 1.809387 -0.090116)
     (xy 1.773361 -0.014011) (xy 1.712236 0.041124) (xy 1.619397 0.078312) (xy 1.488230 0.100576) (xy 1.312122 0.110940) (xy 1.164167 0.112732) (xy 0.818444 0.112889) (xy 0.818444 -0.564444)
     (xy 1.200351 -0.564444) (xy 1.411864 -0.560192) )(layer F.SilkS) (width  0.010000)
  )
  (fp_poly (pts (xy 0.969095 -0.776111) (xy 0.883466 -0.689287) (xy 0.813239 -0.650799) (xy 0.798357 -0.649111) (xy 0.749884 -0.636910) (xy 0.734175 -0.589814) (xy 0.733778 -0.573689) (xy 0.727607 -0.535552)
     (xy 0.705819 -0.488085) (xy 0.663502 -0.424353) (xy 0.595745 -0.337423) (xy 0.497636 -0.220359) (xy 0.418374 -0.128411) (xy 0.402564 -0.133236) (xy 0.395197 -0.181676) (xy 0.395111 -0.189280)
     (xy 0.402887 -0.235139) (xy 0.429591 -0.292352) (xy 0.480291 -0.368662) (xy 0.560052 -0.471815) (xy 0.656167 -0.588397) (xy 0.764107 -0.715068) (xy 0.844438 -0.803353) (xy 0.904020 -0.859567)
     (xy 0.949710 -0.890025) (xy 0.988367 -0.901039) (xy 0.996238 -0.901473) (xy 1.075254 -0.903111) (xy 0.969095 -0.776111) )(layer F.SilkS) (width  0.010000)
  )
  (fp_poly (pts (xy 2.208925 -0.568141) (xy 2.207730 -0.529561) (xy 2.163592 -0.454413) (xy 2.099291 -0.370345) (xy 2.017985 -0.273497) (xy 1.964487 -0.219068) (xy 1.933724 -0.203597) (xy 1.920626 -0.223624)
     (xy 1.919111 -0.247429) (xy 1.935947 -0.295153) (xy 1.979225 -0.361370) (xy 2.038096 -0.434076) (xy 2.101715 -0.501269) (xy 2.159233 -0.550945) (xy 2.199805 -0.571100) (xy 2.208925 -0.568141) )(layer F.SilkS) (width  0.010000)
  )
  (fp_poly (pts (xy 2.021618 -0.787127) (xy 2.037010 -0.759577) (xy 2.021227 -0.717616) (xy 1.969582 -0.649038) (xy 1.967729 -0.646803) (xy 1.903768 -0.574166) (xy 1.862871 -0.542240) (xy 1.835488 -0.545667)
     (xy 1.820479 -0.564208) (xy 1.826827 -0.600243) (xy 1.861958 -0.661896) (xy 1.893869 -0.705040) (xy 1.953456 -0.771770) (xy 1.993965 -0.796068) (xy 2.021618 -0.787127) )(layer F.SilkS) (width  0.010000)
  )
  (fp_poly (pts (xy 0.661066 -0.895552) (xy 0.676111 -0.881944) (xy 0.657902 -0.852090) (xy 0.610975 -0.792866) (xy 0.544954 -0.716325) (xy 0.535312 -0.705555) (xy 0.464163 -0.627533) (xy 0.422498 -0.587514)
     (xy 0.402412 -0.581216) (xy 0.395996 -0.604360) (xy 0.395422 -0.629827) (xy 0.414381 -0.712907) (xy 0.462857 -0.797319) (xy 0.527349 -0.865880) (xy 0.594357 -0.901405) (xy 0.610127 -0.903111)
     (xy 0.661066 -0.895552) )(layer F.SilkS) (width  0.010000)
  )
  (fp_poly (pts (xy 1.411526 -0.900744) (xy 1.420136 -0.886768) (xy 1.398779 -0.850865) (xy 1.344459 -0.782720) (xy 1.339045 -0.776111) (xy 1.257836 -0.690898) (xy 1.190237 -0.652555) (xy 1.164367 -0.649111)
     (xy 1.116117 -0.653839) (xy 1.115679 -0.676314) (xy 1.131077 -0.698500) (xy 1.232579 -0.818163) (xy 1.317224 -0.885714) (xy 1.375947 -0.903111) (xy 1.411526 -0.900744) )(layer F.SilkS) (width  0.010000)
  )
  (fp_poly (pts (xy 1.740352 -0.891107) (xy 1.759074 -0.872754) (xy 1.746779 -0.835905) (xy 1.699600 -0.769949) (xy 1.693319 -0.761981) (xy 1.633884 -0.701115) (xy 1.572864 -0.659757) (xy 1.523145 -0.643911)
     (xy 1.497609 -0.659583) (xy 1.496541 -0.670277) (xy 1.517115 -0.712487) (xy 1.566469 -0.769609) (xy 1.629317 -0.827796) (xy 1.690370 -0.873202) (xy 1.734340 -0.891980) (xy 1.740352 -0.891107) )(layer F.SilkS) (width  0.010000)
  )
)
