(module LOGO (layer F.Cu)
  (at 0 0)
 (fp_text reference "G***" (at 0 0) (layer F.SilkS) hide
  (effects (font (thickness 0.3)))
  )
  (fp_text value "LOGO" (at 0.75 0) (layer F.SilkS) hide
  (effects (font (thickness 0.3)))
  )
  (fp_poly (pts (xy -25.852988 1.596410) (xy -25.766861 1.719551) (xy -25.627366 1.920817) (xy -25.444877 2.185160) (xy -25.229766 2.497531) (xy -24.992406 2.842882) (xy -24.743169 3.206166) (xy -24.706503 3.259667)
     (xy -23.768547 4.628445) (xy -24.471384 4.628445) (xy -24.776239 4.632808) (xy -25.002838 4.645239) (xy -25.138872 4.664749) (xy -25.174222 4.684889) (xy -25.117788 4.689832) (xy -24.948526 4.694550)
     (xy -24.666498 4.699042) (xy -24.271766 4.703308) (xy -23.764389 4.707348) (xy -23.144430 4.711162) (xy -22.411950 4.714749) (xy -21.567009 4.718110) (xy -20.609670 4.721245) (xy -19.539993 4.724153)
     (xy -18.358039 4.726834) (xy -17.063871 4.729288) (xy -15.657548 4.731515) (xy -14.139133 4.733515) (xy -12.508686 4.735288) (xy -10.766269 4.736834) (xy -8.911942 4.738152) (xy -6.945768 4.739242)
     (xy -4.867807 4.740105) (xy -2.678121 4.740739) (xy -0.376771 4.741146) (xy 2.036182 4.741325) (xy 2.737556 4.741334) (xy 30.649334 4.741334) (xy 30.649334 6.378223) (xy 0.028223 6.378223)
     (xy -2.535639 6.378118) (xy -4.987802 6.377806) (xy -7.328214 6.377287) (xy -9.556822 6.376559) (xy -11.673571 6.375623) (xy -13.678409 6.374480) (xy -15.571283 6.373130) (xy -17.352138 6.371572)
     (xy -19.020923 6.369807) (xy -20.577582 6.367834) (xy -22.022064 6.365655) (xy -23.354315 6.363268) (xy -24.574282 6.360675) (xy -25.681910 6.357875) (xy -26.677148 6.354868) (xy -27.559941 6.351654)
     (xy -28.330236 6.348234) (xy -28.987981 6.344607) (xy -29.533121 6.340775) (xy -29.965603 6.336736) (xy -30.285375 6.332490) (xy -30.492382 6.328039) (xy -30.586572 6.323382) (xy -30.592888 6.321778)
     (xy -30.536455 6.316727) (xy -30.367198 6.311912) (xy -30.085184 6.307333) (xy -29.690477 6.302990) (xy -29.183144 6.298883) (xy -28.563248 6.295012) (xy -27.830857 6.291378) (xy -26.986035 6.287981)
     (xy -26.028848 6.284820) (xy -24.959361 6.281896) (xy -23.777640 6.279209) (xy -22.483749 6.276760) (xy -21.077756 6.274548) (xy -19.559724 6.272573) (xy -17.929719 6.270835) (xy -16.187807 6.269336)
     (xy -14.334054 6.268074) (xy -12.368524 6.267051) (xy -10.291283 6.266265) (xy -8.102397 6.265718) (xy -5.801930 6.265409) (xy -3.894666 6.265334) (xy -1.505594 6.265214) (xy 0.771950 6.264856)
     (xy 2.937901 6.264260) (xy 4.992193 6.263426) (xy 6.934760 6.262353) (xy 8.765537 6.261043) (xy 10.484460 6.259494) (xy 12.091461 6.257708) (xy 13.586477 6.255684) (xy 14.969440 6.253423)
     (xy 16.240287 6.250925) (xy 17.398952 6.248190) (xy 18.445369 6.245217) (xy 19.379472 6.242008) (xy 20.201197 6.238562) (xy 20.910478 6.234879) (xy 21.507249 6.230960) (xy 21.991445 6.226804)
     (xy 22.363001 6.222413) (xy 22.621852 6.217785) (xy 22.767930 6.212921) (xy 22.803556 6.208889) (xy 22.747124 6.203667) (xy 22.577875 6.198697) (xy 22.295884 6.193980) (xy 21.901221 6.189515)
     (xy 21.393959 6.185304) (xy 20.774172 6.181345) (xy 20.041931 6.177640) (xy 19.197309 6.174188) (xy 18.240379 6.170990) (xy 17.171212 6.168045) (xy 15.989883 6.165354) (xy 14.696462 6.162917)
     (xy 13.291023 6.160735) (xy 11.773638 6.158806) (xy 10.144380 6.157133) (xy 8.403322 6.155714) (xy 6.550534 6.154550) (xy 4.586091 6.153641) (xy 2.510065 6.152987) (xy 0.322528 6.152588)
     (xy -1.976447 6.152445) (xy -27.036888 6.152445) (xy -27.036888 2.424372) (xy -26.549203 1.863151) (xy -26.061518 1.301931) (xy -25.852988 1.596410) )(layer F.SilkS) (width  0.010000)
  )
  (fp_poly (pts (xy 30.649334 4.628445) (xy -21.875649 4.628445) (xy -23.411764 2.399736) (xy -23.719531 1.952592) (xy -24.007315 1.533296) (xy -24.268826 1.151095) (xy -24.497776 0.815239) (xy -24.687873 0.534975)
     (xy -24.832829 0.319551) (xy -24.926354 0.178218) (xy -24.962158 0.120222) (xy -24.962273 0.119872) (xy -24.930457 0.065049) (xy -24.833393 -0.061663) (xy -24.681167 -0.248077) (xy -24.483862 -0.482005)
     (xy -24.251564 -0.751258) (xy -24.074247 -0.953419) (xy -23.171828 -1.975555) (xy -19.558000 -1.972547) (xy -19.890765 -1.792052) (xy -20.307019 -1.503588) (xy -20.657778 -1.131378) (xy -20.932625 -0.690217)
     (xy -21.121139 -0.194900) (xy -21.172534 0.028223) (xy -21.209746 0.399757) (xy -21.200395 0.820572) (xy -21.148315 1.238935) (xy -21.057338 1.603111) (xy -21.055431 1.608667) (xy -20.836959 2.089580)
     (xy -20.539290 2.490805) (xy -20.158167 2.817085) (xy -19.774514 3.034792) (xy -19.618961 3.102903) (xy -19.479539 3.147501) (xy -19.325235 3.173471) (xy -19.125038 3.185698) (xy -18.847933 3.189068)
     (xy -18.794813 3.189111) (xy -18.509016 3.187351) (xy -18.304514 3.178260) (xy -18.149722 3.156124) (xy -18.013058 3.115225) (xy -17.862938 3.049849) (xy -17.766512 3.003021) (xy -17.331824 2.728498)
     (xy -16.973294 2.373028) (xy -16.694992 1.942542) (xy -16.500990 1.442971) (xy -16.414217 1.033150) (xy -16.382723 0.470539) (xy -16.450808 -0.067834) (xy -16.612813 -0.569709) (xy -16.863076 -1.022825)
     (xy -17.195935 -1.414920) (xy -17.605731 -1.733732) (xy -17.723555 -1.802762) (xy -18.034000 -1.973510) (xy -16.552333 -1.974533) (xy -15.070666 -1.975555) (xy -15.070666 3.048000) (xy -14.056346 3.048000)
     (xy -14.041395 1.391992) (xy -14.026444 -0.264017) (xy -11.994444 3.043019) (xy -11.472333 3.045510) (xy -10.950222 3.048000) (xy -10.950222 1.241778) (xy -9.667793 1.241778) (xy -9.636190 1.547985)
     (xy -9.540313 1.978082) (xy -9.351630 2.349661) (xy -9.076869 2.657455) (xy -8.722764 2.896199) (xy -8.296046 3.060628) (xy -7.803446 3.145476) (xy -7.580445 3.156089) (xy -7.327775 3.147625)
     (xy -7.064113 3.120724) (xy -6.931333 3.098309) (xy -6.481132 2.958603) (xy -6.111014 2.747691) (xy -5.826153 2.471258) (xy -5.631724 2.134986) (xy -5.532900 1.744562) (xy -5.520973 1.548910)
     (xy -5.533841 1.299178) (xy -5.586547 1.093849) (xy -5.680467 0.894098) (xy -5.801406 0.699579) (xy -5.944868 0.540048) (xy -6.127891 0.405761) (xy -6.367511 0.286975) (xy -6.680764 0.173946)
     (xy -7.084687 0.056930) (xy -7.195566 0.027548) (xy -7.591246 -0.080087) (xy -7.889806 -0.173459) (xy -8.104832 -0.260382) (xy -8.249913 -0.348670) (xy -8.338636 -0.446138) (xy -8.384588 -0.560601)
     (xy -8.399342 -0.664765) (xy -8.396904 -0.838059) (xy -8.344713 -0.958108) (xy -8.266960 -1.041271) (xy -8.062320 -1.162556) (xy -7.796498 -1.225916) (xy -7.505110 -1.231512) (xy -7.223775 -1.179503)
     (xy -6.988108 -1.070051) (xy -6.942363 -1.035305) (xy -6.785843 -0.838285) (xy -6.709616 -0.643612) (xy -6.647042 -0.395111) (xy -5.630081 -0.395111) (xy -5.655978 -0.663222) (xy -5.745934 -1.045723)
     (xy -5.929831 -1.382169) (xy -6.195484 -1.664996) (xy -6.530711 -1.886645) (xy -6.831471 -2.003777) (xy -4.656666 -2.003777) (xy -4.656666 -1.100666) (xy -3.104444 -1.069258) (xy -3.104444 3.048000)
     (xy -2.088444 3.048000) (xy 0.620889 3.048000) (xy 1.636889 3.048000) (xy 1.636889 1.001274) (xy 2.393658 1.026940) (xy 2.792509 1.047192) (xy 3.093569 1.086124) (xy 3.311806 1.157060)
     (xy 3.462190 1.273327) (xy 3.559691 1.448252) (xy 3.619279 1.695159) (xy 3.655923 2.027375) (xy 3.665617 2.159229) (xy 3.689963 2.493055) (xy 3.718889 2.730693) (xy 3.765984 2.888485)
     (xy 3.844836 2.982770) (xy 3.969032 3.029891) (xy 4.152160 3.046187) (xy 4.404653 3.048000) (xy 4.641143 3.045155) (xy 4.828611 3.037486) (xy 4.943123 3.026291) (xy 4.967112 3.017492)
     (xy 4.937433 2.955295) (xy 4.865205 2.844969) (xy 4.857427 2.834048) (xy 4.770428 2.652889) (xy 4.699357 2.388182) (xy 4.649919 2.068801) (xy 4.627820 1.723623) (xy 4.627205 1.668856)
     (xy 4.586940 1.310195) (xy 4.474389 1.005131) (xy 4.297802 0.774519) (xy 4.261035 0.743453) (xy 4.105221 0.620889) (xy 4.255815 0.502432) (xy 4.458951 0.275800) (xy 4.605565 -0.028621)
     (xy 4.685530 -0.385708) (xy 4.697432 -0.593122) (xy 4.663416 -0.968856) (xy 4.555529 -1.274807) (xy 4.365016 -1.533407) (xy 4.309059 -1.588111) (xy 4.160253 -1.710993) (xy 3.997521 -1.809641)
     (xy 3.807113 -1.886536) (xy 3.575280 -1.944153) (xy 3.354490 -1.975555) (xy 6.152445 -1.975555) (xy 6.152445 -0.175815) (xy 6.153215 0.383979) (xy 6.157141 0.843832) (xy 6.166649 1.216691)
     (xy 6.184164 1.515501) (xy 6.212109 1.753209) (xy 6.252911 1.942760) (xy 6.308993 2.097101) (xy 6.382781 2.229177) (xy 6.476700 2.351935) (xy 6.593174 2.478320) (xy 6.662849 2.549157)
     (xy 6.929698 2.782489) (xy 7.206585 2.943897) (xy 7.518321 3.041618) (xy 7.889719 3.083891) (xy 8.269112 3.082449) (xy 8.582341 3.059873) (xy 8.864700 3.021197) (xy 9.078036 2.971853)
     (xy 9.101340 2.964004) (xy 9.400044 2.809229) (xy 9.686306 2.576250) (xy 9.925330 2.297518) (xy 10.053557 2.075995) (xy 10.090162 1.991984) (xy 10.119587 1.910431) (xy 10.142746 1.818191)
     (xy 10.160557 1.702121) (xy 10.173933 1.549079) (xy 10.183790 1.345919) (xy 10.191043 1.079499) (xy 10.196609 0.736675) (xy 10.201401 0.304304) (xy 10.205169 -0.101106) (xy 10.222073 -1.975555)
     (xy 11.853334 -1.975555) (xy 11.853334 2.991556) (xy 12.812889 2.991556) (xy 12.812889 1.329995) (xy 13.107294 1.031886) (xy 13.254382 0.887804) (xy 13.371545 0.781989) (xy 13.436286 0.734602)
     (xy 13.439948 0.733778) (xy 13.481080 0.778424) (xy 13.576274 0.903864) (xy 13.716390 1.097354) (xy 13.892288 1.346148) (xy 14.094831 1.637502) (xy 14.249428 1.862667) (xy 15.020660 2.991556)
     (xy 16.209171 2.991556) (xy 16.014955 2.723445) (xy 15.928956 2.603871) (xy 15.788889 2.408109) (xy 15.606060 2.152005) (xy 15.391773 1.851406) (xy 15.157334 1.522156) (xy 14.961471 1.246810)
     (xy 14.102203 0.038286) (xy 15.107958 -0.968635) (xy 16.113713 -1.975555) (xy 16.820445 -1.975555) (xy 16.820445 -1.128889) (xy 18.344445 -1.128889) (xy 18.344445 2.991556) (xy 19.304000 2.991556)
     (xy 19.304000 -1.128889) (xy 20.828000 -1.128889) (xy 20.828000 -1.975555) (xy 22.069778 -1.975555) (xy 22.069778 2.991556) (xy 23.029334 2.991556) (xy 23.029334 -1.862666) (xy 24.167313 -1.862666)
     (xy 24.986677 0.594713) (xy 25.806040 3.052092) (xy 26.839334 3.019778) (xy 27.669348 0.592667) (xy 27.839703 0.094329) (xy 27.998395 -0.370256) (xy 28.141778 -0.790389) (xy 28.266206 -1.155368)
     (xy 28.368033 -1.454494) (xy 28.443612 -1.677065) (xy 28.489299 -1.812382) (xy 28.501903 -1.850753) (xy 28.450973 -1.856316) (xy 28.312703 -1.857290) (xy 28.112551 -1.853675) (xy 28.015111 -1.850753)
     (xy 27.525777 -1.834444) (xy 27.453828 -1.608666) (xy 27.211917 -0.852304) (xy 27.001459 -0.200340) (xy 26.821200 0.350874) (xy 26.669888 0.804988) (xy 26.546270 1.165649) (xy 26.449093 1.436508)
     (xy 26.377104 1.621212) (xy 26.329050 1.723411) (xy 26.303678 1.746754) (xy 26.302334 1.744882) (xy 26.275326 1.673327) (xy 26.219049 1.507384) (xy 26.137843 1.260432) (xy 26.036050 0.945851)
     (xy 25.918010 0.577023) (xy 25.788064 0.167328) (xy 25.704227 -0.098777) (xy 25.149920 -1.862666) (xy 24.167313 -1.862666) (xy 23.029334 -1.862666) (xy 23.029334 -1.975555) (xy 22.069778 -1.975555)
     (xy 20.828000 -1.975555) (xy 16.820445 -1.975555) (xy 16.113713 -1.975555) (xy 14.911961 -1.975555) (xy 13.862425 -0.895015) (xy 12.812889 0.185524) (xy 12.812889 -1.975555) (xy 11.853334 -1.975555)
     (xy 10.222073 -1.975555) (xy 10.222115 -1.980212) (xy 9.753613 -1.963773) (xy 9.285112 -1.947333) (xy 9.256889 -0.141111) (xy 9.248474 0.364518) (xy 9.240171 0.769803) (xy 9.231143 1.087283)
     (xy 9.220554 1.329498) (xy 9.207567 1.508990) (xy 9.191346 1.638297) (xy 9.171056 1.729960) (xy 9.145858 1.796520) (xy 9.125125 1.834445) (xy 8.993509 2.014887) (xy 8.843756 2.134085)
     (xy 8.648544 2.204779) (xy 8.380551 2.239708) (xy 8.240889 2.246736) (xy 7.904820 2.243148) (xy 7.654621 2.197743) (xy 7.467722 2.100080) (xy 7.321554 1.939723) (xy 7.228265 1.778399)
     (xy 7.189509 1.698314) (xy 7.158583 1.620261) (xy 7.134388 1.530599) (xy 7.115823 1.415689) (xy 7.101787 1.261888) (xy 7.091178 1.055556) (xy 7.082898 0.783053) (xy 7.075844 0.430736)
     (xy 7.068916 -0.015035) (xy 7.065748 -0.235626) (xy 7.040965 -1.975555) (xy 6.152445 -1.975555) (xy 3.354490 -1.975555) (xy 3.288271 -1.984973) (xy 2.932338 -2.011472) (xy 2.493731 -2.026129)
     (xy 1.958700 -2.031423) (xy 1.848556 -2.031573) (xy 0.620889 -2.032000) (xy 0.620889 3.048000) (xy -2.088444 3.048000) (xy -2.088444 -1.069258) (xy -0.536222 -1.100666) (xy -0.536222 -2.003777)
     (xy -4.656666 -2.003777) (xy -6.831471 -2.003777) (xy -6.923328 -2.039551) (xy -7.361151 -2.116154) (xy -7.831998 -2.108891) (xy -7.958432 -2.092316) (xy -8.402896 -1.979895) (xy -8.781567 -1.796246)
     (xy -9.085969 -1.550909) (xy -9.307624 -1.253425) (xy -9.438054 -0.913332) (xy -9.468784 -0.540173) (xy -9.455090 -0.407967) (xy -9.387898 -0.120639) (xy -9.269357 0.106319) (xy -9.078260 0.318237)
     (xy -8.953943 0.426975) (xy -8.825799 0.515850) (xy -8.673565 0.593403) (xy -8.476979 0.668180) (xy -8.215777 0.748724) (xy -7.869696 0.843578) (xy -7.769809 0.869932) (xy -7.367939 0.979317)
     (xy -7.063583 1.073752) (xy -6.843685 1.161059) (xy -6.695190 1.249061) (xy -6.605043 1.345580) (xy -6.560189 1.458439) (xy -6.547574 1.595460) (xy -6.547555 1.602300) (xy -6.596152 1.853648)
     (xy -6.738920 2.047070) (xy -6.971323 2.179418) (xy -7.288824 2.247546) (xy -7.490751 2.256538) (xy -7.882761 2.218054) (xy -8.190881 2.104678) (xy -8.416657 1.915306) (xy -8.561632 1.648838)
     (xy -8.609362 1.458175) (xy -8.645922 1.241778) (xy -9.667793 1.241778) (xy -10.950222 1.241778) (xy -10.950222 -2.032000) (xy -11.909777 -2.032000) (xy -11.909777 -0.354793) (xy -11.910408 0.128844)
     (xy -11.912643 0.510137) (xy -11.916999 0.799624) (xy -11.923991 1.007846) (xy -11.934135 1.145341) (xy -11.947946 1.222648) (xy -11.965940 1.250307) (xy -11.987790 1.239762) (xy -12.038983 1.169468)
     (xy -12.138175 1.019426) (xy -12.276747 0.803591) (xy -12.446083 0.535920) (xy -12.637566 0.230370) (xy -12.842579 -0.099104) (xy -13.052506 -0.438546) (xy -13.258729 -0.773999) (xy -13.452631 -1.091507)
     (xy -13.625596 -1.377114) (xy -13.769006 -1.616864) (xy -13.874244 -1.796801) (xy -13.932694 -1.902968) (xy -13.941777 -1.924953) (xy -13.889326 -1.946194) (xy -13.747897 -1.963044) (xy -13.541382 -1.973363)
     (xy -13.377333 -1.975555) (xy -13.116989 -1.980883) (xy -12.927456 -1.995746) (xy -12.825639 -2.018462) (xy -12.812888 -2.031701) (xy -12.869117 -2.042661) (xy -13.036940 -2.052819) (xy -13.315070 -2.062158)
     (xy -13.702215 -2.070659) (xy -14.197085 -2.078305) (xy -14.798390 -2.085079) (xy -15.504840 -2.090962) (xy -16.315144 -2.095936) (xy -17.228012 -2.099984) (xy -17.927094 -2.102257) (xy -23.041299 -2.116666)
     (xy -21.765316 -3.553019) (xy -21.463928 -3.893572) (xy -21.187919 -4.207922) (xy -20.945942 -4.486020) (xy -20.746651 -4.717819) (xy -20.598699 -4.893271) (xy -20.510738 -5.002328) (xy -20.489333 -5.034686)
     (xy -20.513475 -5.079937) (xy -20.589069 -5.044975) (xy -20.720864 -4.926180) (xy -20.913610 -4.719934) (xy -20.937255 -4.693420) (xy -21.280826 -4.306841) (xy -22.105816 -4.267860) (xy -22.398448 -4.255516)
     (xy -22.648461 -4.247783) (xy -22.835428 -4.245073) (xy -22.938921 -4.247799) (xy -22.952688 -4.250762) (xy -22.923375 -4.297354) (xy -22.829106 -4.415581) (xy -22.680326 -4.593066) (xy -22.487480 -4.817429)
     (xy -22.261012 -5.076291) (xy -22.155286 -5.195813) (xy -21.915909 -5.467510) (xy -21.704109 -5.711677) (xy -21.530712 -5.915521) (xy -21.406540 -6.066252) (xy -21.342420 -6.151079) (xy -21.336000 -6.163934)
     (xy -21.378815 -6.208041) (xy -21.389065 -6.208889) (xy -21.435944 -6.167884) (xy -21.550008 -6.050297) (xy -21.723835 -5.864263) (xy -21.950002 -5.617921) (xy -22.221086 -5.319408) (xy -22.529665 -4.976860)
     (xy -22.868317 -4.598417) (xy -23.229618 -4.192214) (xy -23.265842 -4.151357) (xy -25.089555 -2.093826) (xy -26.825222 -2.091135) (xy -28.560888 -2.088444) (xy -28.560888 -2.935111) (xy -28.564541 -3.280150)
     (xy -28.575069 -3.542560) (xy -28.591829 -3.712694) (xy -28.614178 -3.780899) (xy -28.617333 -3.781777) (xy -28.640336 -3.726994) (xy -28.657830 -3.569076) (xy -28.669172 -3.317674) (xy -28.673719 -2.982438)
     (xy -28.673777 -2.935111) (xy -28.673777 -2.088444) (xy -29.068888 -2.088444) (xy -29.303593 -2.078613) (xy -29.430391 -2.054130) (xy -29.448430 -2.022511) (xy -29.356856 -1.991269) (xy -29.154819 -1.967921)
     (xy -29.083000 -1.964023) (xy -28.702000 -1.947333) (xy -28.687391 1.027267) (xy -28.672782 4.001866) (xy -30.592888 6.157018) (xy -30.592888 -6.321777) (xy 30.649334 -6.321777) (xy 30.649334 4.628445) )(layer F.SilkS) (width  0.010000)
  )
  (fp_poly (pts (xy -27.211695 2.716464) (xy -27.204779 2.779934) (xy -27.206764 2.881112) (xy -27.208349 2.964902) (xy -27.210476 3.302000) (xy -28.254427 4.452551) (xy -28.525910 4.754054) (xy -28.768854 5.028293)
     (xy -28.973870 5.264305) (xy -29.131564 5.451127) (xy -29.232545 5.577795) (xy -29.267421 5.633346) (xy -29.266956 5.634525) (xy -29.209411 5.625522) (xy -29.160982 5.584640) (xy -29.102605 5.520062)
     (xy -28.980919 5.384795) (xy -28.807947 5.192230) (xy -28.595715 4.955756) (xy -28.356245 4.688761) (xy -28.251566 4.572000) (xy -28.002030 4.293898) (xy -27.772518 4.038617) (xy -27.575607 3.820106)
     (xy -27.423873 3.652311) (xy -27.329892 3.549182) (xy -27.311462 3.529346) (xy -27.253611 3.473557) (xy -27.222145 3.473944) (xy -27.209034 3.548195) (xy -27.206247 3.714000) (xy -27.206222 3.761151)
     (xy -27.206222 4.104277) (xy -28.112351 5.085021) (xy -28.363474 5.360507) (xy -28.582477 5.607892) (xy -28.759640 5.815594) (xy -28.885245 5.972032) (xy -28.949569 6.065627) (xy -28.953647 6.087377)
     (xy -28.892540 6.056480) (xy -28.773907 5.956395) (xy -28.614784 5.802697) (xy -28.432203 5.610962) (xy -28.430041 5.608605) (xy -28.200326 5.360039) (xy -27.950231 5.092607) (xy -27.716064 4.844998)
     (xy -27.589693 4.713111) (xy -27.208117 4.318000) (xy -27.209063 4.628445) (xy -27.210008 4.938889) (xy -27.800938 5.545667) (xy -28.391867 6.152445) (xy -30.389256 6.152445) (xy -30.219940 5.969000)
     (xy -30.128609 5.870359) (xy -29.975647 5.705495) (xy -29.776312 5.490842) (xy -29.545864 5.242830) (xy -29.299562 4.977892) (xy -29.289537 4.967111) (xy -29.003668 4.656885) (xy -28.696970 4.319287)
     (xy -28.395955 3.983812) (xy -28.127135 3.679953) (xy -27.970336 3.499556) (xy -27.711178 3.197262) (xy -27.517733 2.972537) (xy -27.380530 2.818739) (xy -27.290102 2.729223) (xy -27.236979 2.697346)
     (xy -27.211695 2.716464) )(layer F.SilkS) (width  0.010000)
  )
  (fp_poly (pts (xy -27.216959 5.451691) (xy -27.234314 5.698355) (xy -27.328669 5.865082) (xy -27.505887 5.957866) (xy -27.736658 5.983111) (xy -28.021639 5.983111) (xy -27.628041 5.585920) (xy -27.234444 5.188730)
     (xy -27.216959 5.451691) )(layer F.SilkS) (width  0.010000)
  )
  (fp_poly (pts (xy -22.797604 3.551370) (xy -22.726595 3.657440) (xy -22.733921 3.726062) (xy -22.758608 3.752422) (xy -22.829797 3.817710) (xy -22.960895 3.940022) (xy -23.129857 4.098745) (xy -23.233307 4.196330)
     (xy -23.634836 4.575667) (xy -23.722910 4.441249) (xy -23.757834 4.379818) (xy -23.764076 4.322698) (xy -23.730505 4.252068) (xy -23.645989 4.150109) (xy -23.499398 3.999001) (xy -23.360377 3.860860)
     (xy -22.909770 3.414889) (xy -22.797604 3.551370) )(layer F.SilkS) (width  0.010000)
  )
  (fp_poly (pts (xy -22.455176 4.046271) (xy -22.406525 4.094535) (xy -22.389399 4.191507) (xy -22.451263 4.310983) (xy -22.567968 4.429565) (xy -22.715368 4.523856) (xy -22.869315 4.570460) (xy -22.899294 4.572000)
     (xy -23.025432 4.558943) (xy -23.085059 4.527072) (xy -23.085777 4.522745) (xy -23.046403 4.459285) (xy -22.947280 4.351824) (xy -22.816912 4.226759) (xy -22.683799 4.110486) (xy -22.576444 4.029403)
     (xy -22.529505 4.007556) (xy -22.455176 4.046271) )(layer F.SilkS) (width  0.010000)
  )
  (fp_poly (pts (xy -22.126222 4.543778) (xy -22.154444 4.572000) (xy -22.182666 4.543778) (xy -22.154444 4.515556) (xy -22.126222 4.543778) )(layer F.SilkS) (width  0.010000)
  )
  (fp_poly (pts (xy -23.067100 3.169579) (xy -23.521792 3.624270) (xy -23.976483 4.078962) (xy -24.176899 3.773088) (xy -23.267516 2.863705) (xy -23.067100 3.169579) )(layer F.SilkS) (width  0.010000)
  )
  (fp_poly (pts (xy -23.581199 2.413001) (xy -23.501858 2.514927) (xy -23.501073 2.516123) (xy -23.405767 2.661579) (xy -23.858343 3.114156) (xy -24.310920 3.566732) (xy -24.557944 3.252692) (xy -24.119518 2.811679)
     (xy -23.938972 2.633713) (xy -23.786416 2.490134) (xy -23.679737 2.397350) (xy -23.638736 2.370667) (xy -23.581199 2.413001) )(layer F.SilkS) (width  0.010000)
  )
  (fp_poly (pts (xy -23.876360 1.975050) (xy -23.747959 2.155373) (xy -24.191655 2.601686) (xy -24.372148 2.780573) (xy -24.523218 2.925290) (xy -24.627575 3.019596) (xy -24.666839 3.048000) (xy -24.713279 3.004410)
     (xy -24.787188 2.897031) (xy -24.802251 2.872071) (xy -24.906175 2.696142) (xy -24.004761 1.794728) (xy -23.876360 1.975050) )(layer F.SilkS) (width  0.010000)
  )
  (fp_poly (pts (xy -16.689256 -0.272497) (xy -16.667512 -0.220965) (xy -16.657920 -0.135966) (xy -16.655078 -0.065661) (xy -16.683770 0.011313) (xy -16.774201 0.155531) (xy -16.928888 0.370346) (xy -17.150349 0.659111)
     (xy -17.441101 1.025180) (xy -17.803662 1.471905) (xy -17.873444 1.557117) (xy -18.162319 1.908064) (xy -18.428784 2.229116) (xy -18.664397 2.510303) (xy -18.860711 2.741658) (xy -19.009284 2.913214)
     (xy -19.101670 3.015002) (xy -19.129333 3.039543) (xy -19.204528 3.025744) (xy -19.321457 3.007249) (xy -19.429326 2.974483) (xy -19.462568 2.931049) (xy -19.423850 2.877074) (xy -19.321129 2.746036)
     (xy -19.162405 2.547815) (xy -18.955675 2.292296) (xy -18.708939 1.989359) (xy -18.430195 1.648887) (xy -18.127443 1.280763) (xy -18.092415 1.238275) (xy -17.735937 0.806605) (xy -17.444392 0.456283)
     (xy -17.211183 0.181325) (xy -17.029712 -0.024254) (xy -16.893381 -0.166441) (xy -16.795594 -0.251220) (xy -16.729751 -0.284577) (xy -16.689256 -0.272497) )(layer F.SilkS) (width  0.010000)
  )
  (fp_poly (pts (xy -16.585736 0.446131) (xy -16.584113 0.450222) (xy -16.560991 0.547020) (xy -16.567472 0.652487) (xy -16.610415 0.778256) (xy -16.696675 0.935962) (xy -16.833109 1.137238) (xy -17.026575 1.393718)
     (xy -17.283929 1.717037) (xy -17.453883 1.925968) (xy -17.695436 2.219980) (xy -17.915597 2.485154) (xy -18.103622 2.708772) (xy -18.248764 2.878118) (xy -18.340278 2.980475) (xy -18.365501 3.004803)
     (xy -18.460385 3.032171) (xy -18.612900 3.046551) (xy -18.645663 3.047136) (xy -18.862214 3.048000) (xy -18.583332 2.714242) (xy -18.465069 2.571868) (xy -18.290068 2.360086) (xy -18.073109 2.096833)
     (xy -17.828968 1.800047) (xy -17.572424 1.487668) (xy -17.465673 1.357526) (xy -17.196334 1.030755) (xy -16.988793 0.783835) (xy -16.834698 0.608170) (xy -16.725697 0.495163) (xy -16.653437 0.436218)
     (xy -16.609568 0.422739) (xy -16.585736 0.446131) )(layer F.SilkS) (width  0.010000)
  )
  (fp_poly (pts (xy -16.922620 -0.791008) (xy -16.851853 -0.683603) (xy -16.832700 -0.613548) (xy -16.871437 -0.559130) (xy -16.972294 -0.430163) (xy -17.125947 -0.237990) (xy -17.323074 0.006046) (xy -17.554349 0.290605)
     (xy -17.810449 0.604342) (xy -18.082050 0.935917) (xy -18.359829 1.273986) (xy -18.634461 1.607208) (xy -18.896624 1.924239) (xy -19.136993 2.213738) (xy -19.346245 2.464363) (xy -19.515055 2.664770)
     (xy -19.634100 2.803618) (xy -19.694057 2.869564) (xy -19.699111 2.873436) (xy -19.763298 2.849703) (xy -19.880363 2.791206) (xy -19.888014 2.787078) (xy -20.048695 2.700008) (xy -19.937974 2.577671)
     (xy -19.877978 2.507788) (xy -19.754574 2.361200) (xy -19.576324 2.148172) (xy -19.351789 1.878973) (xy -19.089531 1.563868) (xy -18.798112 1.213126) (xy -18.486093 0.837012) (xy -18.427880 0.766780)
     (xy -17.028506 -0.921773) (xy -16.922620 -0.791008) )(layer F.SilkS) (width  0.010000)
  )
  (fp_poly (pts (xy -16.671269 1.386267) (xy -16.716197 1.526569) (xy -16.793360 1.709557) (xy -16.890434 1.907821) (xy -16.995096 2.093947) (xy -17.074199 2.213234) (xy -17.183993 2.341461) (xy -17.325450 2.477917)
     (xy -17.482136 2.610951) (xy -17.637614 2.728915) (xy -17.775447 2.820159) (xy -17.879202 2.873034) (xy -17.932441 2.875890) (xy -17.918728 2.817077) (xy -17.913498 2.808111) (xy -17.851219 2.720202)
     (xy -17.737553 2.573626) (xy -17.586623 2.385341) (xy -17.412551 2.172306) (xy -17.229462 1.951480) (xy -17.051477 1.739820) (xy -16.892721 1.554284) (xy -16.767316 1.411832) (xy -16.689386 1.329421)
     (xy -16.670897 1.316065) (xy -16.671269 1.386267) )(layer F.SilkS) (width  0.010000)
  )
  (fp_poly (pts (xy -14.280444 1.920232) (xy -14.290352 2.107451) (xy -14.333125 2.248583) (xy -14.428332 2.394861) (xy -14.492111 2.474337) (xy -14.617490 2.627345) (xy -14.718940 2.753147) (xy -14.761771 2.807860)
     (xy -14.830340 2.854033) (xy -14.860549 2.844192) (xy -14.887243 2.765521) (xy -14.900878 2.623695) (xy -14.901333 2.591708) (xy -14.887582 2.466105) (xy -14.836653 2.339032) (xy -14.734032 2.182885)
     (xy -14.590888 2.001272) (xy -14.280444 1.622535) (xy -14.280444 1.920232) )(layer F.SilkS) (width  0.010000)
  )
  (fp_poly (pts (xy -14.281699 2.695223) (xy -14.295457 2.825199) (xy -14.351304 2.874695) (xy -14.393333 2.878667) (xy -14.484535 2.860935) (xy -14.504967 2.836334) (xy -14.472439 2.766273) (xy -14.395687 2.655908)
     (xy -14.393333 2.652889) (xy -14.282954 2.511778) (xy -14.281699 2.695223) )(layer F.SilkS) (width  0.010000)
  )
  (fp_poly (pts (xy -11.133648 2.540000) (xy -11.147777 2.850445) (xy -11.387666 2.867801) (xy -11.533557 2.868879) (xy -11.617943 2.851131) (xy -11.626394 2.839579) (xy -11.590708 2.777311) (xy -11.498377 2.658325)
     (xy -11.372376 2.511778) (xy -11.119518 2.229556) (xy -11.133648 2.540000) )(layer F.SilkS) (width  0.010000)
  )
  (fp_poly (pts (xy -11.130384 1.614145) (xy -11.129637 1.733865) (xy -11.151511 1.846543) (xy -11.206064 1.969607) (xy -11.303350 2.120487) (xy -11.453424 2.316613) (xy -11.666343 2.575414) (xy -11.725970 2.646479)
     (xy -11.886702 2.837625) (xy -11.985018 2.687575) (xy -12.027754 2.620548) (xy -12.049113 2.562925) (xy -12.040670 2.498140) (xy -11.994003 2.409628) (xy -11.900689 2.280823) (xy -11.752304 2.095160)
     (xy -11.571111 1.873580) (xy -11.147777 1.356338) (xy -11.130384 1.614145) )(layer F.SilkS) (width  0.010000)
  )
  (fp_poly (pts (xy -24.332259 1.339343) (xy -24.243607 1.441389) (xy -24.218858 1.473958) (xy -24.088932 1.649693) (xy -24.531475 2.094846) (xy -24.712327 2.273600) (xy -24.864512 2.418101) (xy -24.970472 2.512054)
     (xy -25.011184 2.540000) (xy -25.065344 2.497899) (xy -25.139508 2.400875) (xy -25.205674 2.281606) (xy -25.230666 2.203490) (xy -25.194120 2.142107) (xy -25.097801 2.023194) (xy -24.961695 1.868202)
     (xy -24.805782 1.698585) (xy -24.650047 1.535796) (xy -24.514471 1.401289) (xy -24.419039 1.316515) (xy -24.387439 1.298223) (xy -24.332259 1.339343) )(layer F.SilkS) (width  0.010000)
  )
  (fp_poly (pts (xy -17.353345 -1.340843) (xy -17.275698 -1.273032) (xy -17.203672 -1.182422) (xy -17.170352 -1.105251) (xy -17.171132 -1.095078) (xy -17.210165 -1.035475) (xy -17.312227 -0.901909) (xy -17.468095 -0.705456)
     (xy -17.668551 -0.457190) (xy -17.904374 -0.168187) (xy -18.166343 0.150478) (xy -18.445239 0.487729) (xy -18.731841 0.832493) (xy -19.016929 1.173692) (xy -19.291283 1.500253) (xy -19.545682 1.801101)
     (xy -19.770906 2.065159) (xy -19.957735 2.281352) (xy -20.096949 2.438606) (xy -20.179327 2.525846) (xy -20.197386 2.540000) (xy -20.267948 2.502239) (xy -20.347264 2.428170) (xy -20.413686 2.333754)
     (xy -20.398213 2.255768) (xy -20.370123 2.216587) (xy -20.317573 2.152277) (xy -20.200961 2.011213) (xy -20.028539 1.803327) (xy -19.808560 1.538551) (xy -19.549277 1.226816) (xy -19.258944 0.878054)
     (xy -18.945812 0.502197) (xy -18.856624 0.395195) (xy -18.541635 0.017287) (xy -18.249657 -0.333090) (xy -17.988499 -0.646560) (xy -17.765970 -0.913746) (xy -17.589879 -1.125273) (xy -17.468034 -1.271763)
     (xy -17.408244 -1.343842) (xy -17.403526 -1.349617) (xy -17.353345 -1.340843) )(layer F.SilkS) (width  0.010000)
  )
  (fp_poly (pts (xy -11.130556 0.748312) (xy -11.126358 0.856174) (xy -11.136483 0.947568) (xy -11.171453 1.041492) (xy -11.241794 1.156942) (xy -11.358028 1.312915) (xy -11.530679 1.528408) (xy -11.630858 1.651423)
     (xy -11.816969 1.877643) (xy -11.978528 2.070284) (xy -12.101929 2.213405) (xy -12.173563 2.291066) (xy -12.184743 2.300259) (xy -12.238634 2.270009) (xy -12.291219 2.202247) (xy -12.348888 2.077009)
     (xy -12.338160 1.963665) (xy -12.251492 1.826538) (xy -12.198157 1.762034) (xy -12.094456 1.650767) (xy -12.029726 1.618563) (xy -11.976128 1.653488) (xy -11.967762 1.663256) (xy -11.863732 1.750319)
     (xy -11.789111 1.730503) (xy -11.747729 1.606882) (xy -11.740444 1.480850) (xy -11.732817 1.335977) (xy -11.699833 1.214511) (xy -11.626340 1.083980) (xy -11.497183 0.911914) (xy -11.444111 0.845850)
     (xy -11.147777 0.479778) (xy -11.130556 0.748312) )(layer F.SilkS) (width  0.010000)
  )
  (fp_poly (pts (xy -17.792126 -1.613547) (xy -17.684205 -1.561648) (xy -17.587541 -1.508383) (xy -17.560546 -1.489753) (xy -17.591461 -1.445042) (xy -17.685680 -1.324876) (xy -17.834024 -1.140346) (xy -18.027317 -0.902546)
     (xy -18.256381 -0.622567) (xy -18.512038 -0.311501) (xy -18.785111 0.019560) (xy -19.066423 0.359524) (xy -19.346796 0.697300) (xy -19.617052 1.021794) (xy -19.868014 1.321914) (xy -20.090505 1.586570)
     (xy -20.275346 1.804669) (xy -20.413361 1.965118) (xy -20.492160 2.053424) (xy -20.561515 2.117249) (xy -20.609589 2.107087) (xy -20.668710 2.010544) (xy -20.684815 1.979565) (xy -20.777870 1.799616)
     (xy -19.916298 0.772808) (xy -19.452565 0.220566) (xy -19.056967 -0.249566) (xy -18.725479 -0.642292) (xy -18.454080 -0.962320) (xy -18.238747 -1.214355) (xy -18.075456 -1.403104) (xy -17.960186 -1.533273)
     (xy -17.888913 -1.609569) (xy -17.857615 -1.636698) (xy -17.856593 -1.636889) (xy -17.792126 -1.613547) )(layer F.SilkS) (width  0.010000)
  )
  (fp_poly (pts (xy -24.628277 0.880724) (xy -24.541524 1.007777) (xy -24.498259 1.107634) (xy -24.497169 1.118352) (xy -24.534036 1.187382) (xy -24.634043 1.316737) (xy -24.780934 1.486493) (xy -24.920452 1.637130)
     (xy -25.344015 2.081779) (xy -25.482428 1.878086) (xy -25.620841 1.674392) (xy -25.445832 1.472196) (xy -25.309613 1.317914) (xy -25.139480 1.129357) (xy -25.014963 0.993613) (xy -24.759104 0.717226)
     (xy -24.628277 0.880724) )(layer F.SilkS) (width  0.010000)
  )
  (fp_poly (pts (xy -14.291279 1.038758) (xy -14.288156 1.173342) (xy -14.306596 1.287055) (xy -14.358649 1.402800) (xy -14.456365 1.543479) (xy -14.611793 1.731996) (xy -14.724763 1.862667) (xy -14.896745 2.060223)
     (xy -14.899039 1.777762) (xy -14.893843 1.628599) (xy -14.865391 1.508528) (xy -14.798643 1.384561) (xy -14.678558 1.223707) (xy -14.605000 1.132809) (xy -14.308666 0.770316) (xy -14.291279 1.038758) )(layer F.SilkS) (width  0.010000)
  )
  (fp_poly (pts (xy -12.305669 1.140140) (xy -12.234510 1.232803) (xy -12.232532 1.236138) (xy -12.180610 1.335196) (xy -12.177361 1.410603) (xy -12.232168 1.501113) (xy -12.322780 1.608890) (xy -12.507196 1.822228)
     (xy -12.606117 1.671255) (xy -12.668213 1.562281) (xy -12.666757 1.481378) (xy -12.599204 1.371669) (xy -12.592265 1.361906) (xy -12.466046 1.198222) (xy -12.376681 1.126457) (xy -12.305669 1.140140) )(layer F.SilkS) (width  0.010000)
  )
  (fp_poly (pts (xy -25.057910 0.270556) (xy -24.977782 0.377576) (xy -24.949102 0.422270) (xy -24.894766 0.512859) (xy -24.867510 0.586503) (xy -24.875994 0.661484) (xy -24.928874 0.756083) (xy -25.034810 0.888581)
     (xy -25.202459 1.077261) (xy -25.321667 1.208908) (xy -25.666667 1.589865) (xy -25.811905 1.404286) (xy -25.893780 1.274487) (xy -25.923474 1.173519) (xy -25.918460 1.152790) (xy -25.858686 1.070728)
     (xy -25.749158 0.936321) (xy -25.608895 0.771240) (xy -25.456912 0.597151) (xy -25.312226 0.435725) (xy -25.193854 0.308632) (xy -25.120813 0.237539) (xy -25.108270 0.229596) (xy -25.057910 0.270556) )(layer F.SilkS) (width  0.010000)
  )
  (fp_poly (pts (xy -18.209617 -1.788639) (xy -18.136065 -1.761725) (xy -18.151117 -1.706285) (xy -18.241086 -1.568240) (xy -18.406138 -1.347375) (xy -18.646441 -1.043473) (xy -18.962163 -0.656318) (xy -19.353469 -0.185693)
     (xy -19.368262 -0.168034) (xy -19.739487 0.275464) (xy -20.044324 0.639680) (xy -20.289544 0.931312) (xy -20.481915 1.157055) (xy -20.628206 1.323605) (xy -20.735187 1.437659) (xy -20.809628 1.505911)
     (xy -20.858297 1.535059) (xy -20.887964 1.531798) (xy -20.905397 1.502824) (xy -20.917367 1.454833) (xy -20.930643 1.394522) (xy -20.934215 1.380971) (xy -20.993572 1.165997) (xy -20.393951 0.455999)
     (xy -20.137685 0.152343) (xy -19.839791 -0.200984) (xy -19.531248 -0.567217) (xy -19.243040 -0.909590) (xy -19.141661 -1.030111) (xy -18.895417 -1.319354) (xy -18.707724 -1.530259) (xy -18.567663 -1.673467)
     (xy -18.464314 -1.759620) (xy -18.386757 -1.799361) (xy -18.346163 -1.805358) (xy -18.209617 -1.788639) )(layer F.SilkS) (width  0.010000)
  )
  (fp_poly (pts (xy -12.563343 0.706679) (xy -12.499084 0.811861) (xy -12.484918 0.888031) (xy -12.526844 0.975860) (xy -12.622032 1.104433) (xy -12.732319 1.239407) (xy -12.804271 1.287825) (xy -12.862738 1.256681)
     (xy -12.912200 1.186099) (xy -12.969907 1.066839) (xy -12.963672 0.963311) (xy -12.885409 0.839056) (xy -12.817343 0.758450) (xy -12.652464 0.570663) (xy -12.563343 0.706679) )(layer F.SilkS) (width  0.010000)
  )
  (fp_poly (pts (xy -14.295878 -0.083007) (xy -14.284792 -0.002943) (xy -14.283069 0.169334) (xy -14.287673 0.329252) (xy -14.311949 0.448399) (xy -14.371808 0.560417) (xy -14.483158 0.698944) (xy -14.590058 0.818445)
     (xy -14.896932 1.157111) (xy -14.899132 0.880702) (xy -14.889402 0.703405) (xy -14.843747 0.565131) (xy -14.742567 0.416389) (xy -14.689666 0.351812) (xy -14.554314 0.189689) (xy -14.434280 0.044783)
     (xy -14.380477 -0.020890) (xy -14.324911 -0.083402) (xy -14.295878 -0.083007) )(layer F.SilkS) (width  0.010000)
  )
  (fp_poly (pts (xy -11.140070 -0.345044) (xy -11.123250 -0.238828) (xy -11.119555 -0.131355) (xy -11.125556 0.016469) (xy -11.153407 0.135664) (xy -11.217882 0.257882) (xy -11.333757 0.414772) (xy -11.430000 0.533716)
     (xy -11.740444 0.912453) (xy -11.740444 0.617535) (xy -11.736504 0.492360) (xy -11.717349 0.384817) (xy -11.671980 0.276111) (xy -11.589395 0.147449) (xy -11.458596 -0.019961) (xy -11.268581 -0.244914)
     (xy -11.165886 -0.364066) (xy -11.140070 -0.345044) )(layer F.SilkS) (width  0.010000)
  )
  (fp_poly (pts (xy -18.804568 -1.854442) (xy -18.740920 -1.834263) (xy -18.739555 -1.830448) (xy -18.774644 -1.778619) (xy -18.872654 -1.654218) (xy -19.022699 -1.470092) (xy -19.213892 -1.239090) (xy -19.435347 -0.974058)
     (xy -19.676178 -0.687844) (xy -19.925499 -0.393296) (xy -20.172423 -0.103259) (xy -20.406063 0.169417) (xy -20.615535 0.411887) (xy -20.789952 0.611301) (xy -20.918427 0.754814) (xy -20.990073 0.829578)
     (xy -21.000045 0.837260) (xy -21.031819 0.798683) (xy -21.051101 0.679421) (xy -21.053777 0.601030) (xy -21.050906 0.515294) (xy -21.036374 0.435616) (xy -21.001302 0.348687) (xy -20.936810 0.241198)
     (xy -20.834020 0.099840) (xy -20.684054 -0.088699) (xy -20.478031 -0.337725) (xy -20.231648 -0.631340) (xy -19.928987 -0.990252) (xy -19.688627 -1.271752) (xy -19.500684 -1.485220) (xy -19.355271 -1.640035)
     (xy -19.242504 -1.745578) (xy -19.152498 -1.811228) (xy -19.075365 -1.846366) (xy -19.001222 -1.860371) (xy -18.933963 -1.862666) (xy -18.804568 -1.854442) )(layer F.SilkS) (width  0.010000)
  )
  (fp_poly (pts (xy -12.869642 0.208449) (xy -12.812471 0.327615) (xy -12.816738 0.432692) (xy -12.890544 0.558255) (xy -12.976207 0.663223) (xy -13.073850 0.764217) (xy -13.141031 0.773233) (xy -13.215234 0.688442)
     (xy -13.240621 0.650320) (xy -13.289831 0.562776) (xy -13.291690 0.489357) (xy -13.237304 0.393747) (xy -13.149963 0.280213) (xy -12.967638 0.050008) (xy -12.869642 0.208449) )(layer F.SilkS) (width  0.010000)
  )
  (fp_poly (pts (xy -13.184232 -0.309321) (xy -13.118543 -0.199559) (xy -13.106010 -0.118364) (xy -13.152307 -0.024083) (xy -13.239094 0.093450) (xy -13.358208 0.231218) (xy -13.442883 0.274088) (xy -13.511610 0.226878)
     (xy -13.544680 0.173044) (xy -13.594164 0.048412) (xy -13.580956 -0.060026) (xy -13.495773 -0.189828) (xy -13.438232 -0.257550) (xy -13.273353 -0.445337) (xy -13.184232 -0.309321) )(layer F.SilkS) (width  0.010000)
  )
  (fp_poly (pts (xy -13.887566 -1.420499) (xy -13.818262 -1.330634) (xy -13.803445 -1.303596) (xy -13.750508 -1.186760) (xy -13.750425 -1.101292) (xy -13.810533 -0.998514) (xy -13.859203 -0.933608) (xy -13.979177 -0.808337)
     (xy -14.098724 -0.731517) (xy -14.128975 -0.723053) (xy -14.239807 -0.657044) (xy -14.280081 -0.552406) (xy -14.324090 -0.448575) (xy -14.415806 -0.298104) (xy -14.534714 -0.128472) (xy -14.660299 0.032842)
     (xy -14.772045 0.158359) (xy -14.849438 0.220600) (xy -14.859000 0.223037) (xy -14.883987 0.174223) (xy -14.899188 0.047285) (xy -14.901333 -0.034075) (xy -14.896561 -0.148105) (xy -14.874167 -0.247816)
     (xy -14.822034 -0.354374) (xy -14.728043 -0.488947) (xy -14.580078 -0.672701) (xy -14.440875 -0.838408) (xy -14.262408 -1.049311) (xy -14.109038 -1.230312) (xy -13.996236 -1.363170) (xy -13.939472 -1.429647)
     (xy -13.937678 -1.431708) (xy -13.887566 -1.420499) )(layer F.SilkS) (width  0.010000)
  )
  (fp_poly (pts (xy -25.908499 -1.972981) (xy -25.642242 -1.965855) (xy -25.438273 -1.955077) (xy -25.315195 -1.941543) (xy -25.287111 -1.930601) (xy -25.322592 -1.880023) (xy -25.420700 -1.759542) (xy -25.568934 -1.583513)
     (xy -25.754794 -1.366293) (xy -25.965777 -1.122237) (xy -26.189382 -0.865701) (xy -26.413109 -0.611040) (xy -26.624456 -0.372611) (xy -26.810922 -0.164769) (xy -26.960005 -0.001870) (xy -27.040672 0.083099)
     (xy -27.078332 0.118425) (xy -27.106145 0.127616) (xy -27.125603 0.097355) (xy -27.138198 0.014328) (xy -27.145422 -0.134781) (xy -27.148768 -0.363287) (xy -27.149727 -0.684505) (xy -27.149777 -0.890568)
     (xy -27.149777 -1.975555) (xy -26.218444 -1.975555) (xy -25.908499 -1.972981) )(layer F.SilkS) (width  0.010000)
  )
  (fp_poly (pts (xy -11.130454 -0.994794) (xy -11.127239 -0.855586) (xy -11.148146 -0.743936) (xy -11.207149 -0.628126) (xy -11.318222 -0.476441) (xy -11.408420 -0.363952) (xy -11.545674 -0.197312) (xy -11.653788 -0.070793)
     (xy -11.715066 -0.004928) (xy -11.722077 0.000000) (xy -11.732785 -0.050662) (xy -11.739404 -0.179549) (xy -11.740444 -0.268349) (xy -11.732832 -0.413067) (xy -11.699808 -0.534020) (xy -11.626094 -0.663733)
     (xy -11.496410 -0.834737) (xy -11.444111 -0.899191) (xy -11.147777 -1.261684) (xy -11.130454 -0.994794) )(layer F.SilkS) (width  0.010000)
  )
  (fp_poly (pts (xy -19.666153 -1.637546) (xy -19.746871 -1.519649) (xy -19.880285 -1.344719) (xy -20.055714 -1.126836) (xy -20.230863 -0.917225) (xy -20.475771 -0.628606) (xy -20.656923 -0.415812) (xy -20.783879 -0.268825)
     (xy -20.866202 -0.177632) (xy -20.913452 -0.132217) (xy -20.935191 -0.122563) (xy -20.940980 -0.138655) (xy -20.940380 -0.170479) (xy -20.940337 -0.174037) (xy -20.910242 -0.299314) (xy -20.832080 -0.485331)
     (xy -20.722293 -0.700186) (xy -20.597323 -0.911976) (xy -20.473613 -1.088801) (xy -20.460439 -1.105173) (xy -20.327384 -1.244435) (xy -20.158321 -1.390086) (xy -19.978926 -1.523806) (xy -19.814872 -1.627273)
     (xy -19.691835 -1.682166) (xy -19.648818 -1.684329) (xy -19.666153 -1.637546) )(layer F.SilkS) (width  0.010000)
  )
  (fp_poly (pts (xy -13.530752 -0.848248) (xy -13.463430 -0.756260) (xy -13.407527 -0.658747) (xy -13.407928 -0.585280) (xy -13.473117 -0.492573) (xy -13.527056 -0.431705) (xy -13.635750 -0.309396) (xy -13.712462 -0.220440)
     (xy -13.724870 -0.205181) (xy -13.771682 -0.216609) (xy -13.839587 -0.306543) (xy -13.855878 -0.336283) (xy -13.909905 -0.454547) (xy -13.911116 -0.540028) (xy -13.852375 -0.641595) (xy -13.801364 -0.709657)
     (xy -13.685937 -0.847033) (xy -13.604312 -0.892047) (xy -13.530752 -0.848248) )(layer F.SilkS) (width  0.010000)
  )
  (fp_poly (pts (xy -14.224482 -1.794476) (xy -14.114255 -1.760939) (xy -14.075351 -1.688388) (xy -14.110722 -1.567978) (xy -14.223318 -1.390866) (xy -14.416089 -1.148208) (xy -14.455742 -1.101332) (xy -14.620763 -0.909327)
     (xy -14.757329 -0.753818) (xy -14.850037 -0.652120) (xy -14.883086 -0.620889) (xy -14.893596 -0.671633) (xy -14.900191 -0.801092) (xy -14.901333 -0.896985) (xy -14.893357 -1.052695) (xy -14.858309 -1.177690)
     (xy -14.779510 -1.308991) (xy -14.640279 -1.483613) (xy -14.633222 -1.492017) (xy -14.477930 -1.665523) (xy -14.363683 -1.761252) (xy -14.268773 -1.795264) (xy -14.224482 -1.794476) )(layer F.SilkS) (width  0.010000)
  )
  (fp_poly (pts (xy -11.148178 -1.775324) (xy -11.125040 -1.681856) (xy -11.192373 -1.524657) (xy -11.350505 -1.302565) (xy -11.430000 -1.206177) (xy -11.740444 -0.840242) (xy -11.738789 -1.139788) (xy -11.726167 -1.339393)
     (xy -11.678791 -1.479890) (xy -11.578314 -1.613860) (xy -11.570252 -1.622777) (xy -11.409780 -1.757425) (xy -11.261462 -1.806222) (xy -11.148178 -1.775324) )(layer F.SilkS) (width  0.010000)
  )
  (fp_poly (pts (xy -14.732000 -1.665111) (xy -14.825689 -1.570468) (xy -14.880319 -1.524764) (xy -14.882950 -1.524000) (xy -14.896787 -1.572460) (xy -14.901333 -1.665111) (xy -14.880016 -1.770103) (xy -14.793521 -1.804796)
     (xy -14.750383 -1.806222) (xy -14.599433 -1.806222) (xy -14.732000 -1.665111) )(layer F.SilkS) (width  0.010000)
  )
  (fp_poly (pts (xy -11.684000 -1.778000) (xy -11.712222 -1.749777) (xy -11.740444 -1.778000) (xy -11.712222 -1.806222) (xy -11.684000 -1.778000) )(layer F.SilkS) (width  0.010000)
  )
  (fp_poly (pts (xy -5.897051 0.918131) (xy -5.831085 0.995103) (xy -5.775241 1.093914) (xy -5.757333 1.162278) (xy -5.792756 1.235190) (xy -5.889799 1.375480) (xy -6.034625 1.566559) (xy -6.213397 1.791840)
     (xy -6.412277 2.034737) (xy -6.617428 2.278662) (xy -6.815013 2.507027) (xy -6.991194 2.703246) (xy -7.132133 2.850731) (xy -7.223993 2.932894) (xy -7.243341 2.943596) (xy -7.400830 2.977154)
     (xy -7.535992 2.983886) (xy -7.611882 2.963236) (xy -7.617593 2.949223) (xy -7.569383 2.849601) (xy -7.452627 2.718248) (xy -7.296285 2.580330) (xy -7.129312 2.461010) (xy -6.980668 2.385453)
     (xy -6.962012 2.379526) (xy -6.703758 2.256538) (xy -6.509489 2.064165) (xy -6.397825 1.825084) (xy -6.378222 1.668488) (xy -6.351632 1.485710) (xy -6.263867 1.296288) (xy -6.102932 1.079076)
     (xy -5.944151 0.903200) (xy -5.897051 0.918131) )(layer F.SilkS) (width  0.010000)
  )
  (fp_poly (pts (xy -7.706464 2.451272) (xy -7.506060 2.488868) (xy -7.685366 2.711990) (xy -7.843175 2.869972) (xy -7.995791 2.928863) (xy -8.169750 2.897909) (xy -8.192799 2.888811) (xy -8.237411 2.854031)
     (xy -8.222678 2.793137) (xy -8.139899 2.682972) (xy -8.096344 2.632061) (xy -7.975217 2.502951) (xy -7.881729 2.445227) (xy -7.775512 2.440172) (xy -7.706464 2.451272) )(layer F.SilkS) (width  0.010000)
  )
  (fp_poly (pts (xy -5.708279 1.620701) (xy -5.699152 1.709507) (xy -5.722529 1.875507) (xy -5.725194 1.889862) (xy -5.824067 2.146329) (xy -6.010256 2.397275) (xy -6.259619 2.619274) (xy -6.548013 2.788901)
     (xy -6.716888 2.852085) (xy -6.813513 2.875382) (xy -6.815972 2.847044) (xy -6.768434 2.787391) (xy -6.700163 2.704714) (xy -6.577373 2.554457) (xy -6.416530 2.356821) (xy -6.234096 2.132006)
     (xy -6.203990 2.094847) (xy -5.997765 1.846161) (xy -5.850877 1.686156) (xy -5.756618 1.611960) (xy -5.708279 1.620701) )(layer F.SilkS) (width  0.010000)
  )
  (fp_poly (pts (xy -8.426066 2.207530) (xy -8.328345 2.256988) (xy -8.234005 2.326675) (xy -8.186684 2.388942) (xy -8.186228 2.394316) (xy -8.226834 2.486900) (xy -8.320829 2.604651) (xy -8.432384 2.709718)
     (xy -8.525670 2.764250) (xy -8.537837 2.765778) (xy -8.643294 2.734412) (xy -8.715367 2.691966) (xy -8.772257 2.639487) (xy -8.772110 2.581667) (xy -8.707954 2.485679) (xy -8.658434 2.423855)
     (xy -8.559101 2.301060) (xy -8.494195 2.219804) (xy -8.483526 2.205952) (xy -8.426066 2.207530) )(layer F.SilkS) (width  0.010000)
  )
  (fp_poly (pts (xy -8.681951 1.859746) (xy -8.629492 1.963527) (xy -8.624101 2.041827) (xy -8.674319 2.134323) (xy -8.766617 2.253135) (xy -8.875223 2.381759) (xy -8.955776 2.464419) (xy -8.980029 2.480643)
     (xy -9.039197 2.445896) (xy -9.107029 2.380334) (xy -9.173835 2.293621) (xy -9.187248 2.215816) (xy -9.139739 2.118782) (xy -9.023780 1.974378) (xy -8.987093 1.932031) (xy -8.777111 1.690952)
     (xy -8.681951 1.859746) )(layer F.SilkS) (width  0.010000)
  )
  (fp_poly (pts (xy -8.941775 1.418616) (xy -8.866322 1.437294) (xy -8.861777 1.443945) (xy -8.896115 1.509149) (xy -8.981892 1.623457) (xy -9.093261 1.756718) (xy -9.204368 1.878782) (xy -9.289365 1.959499)
     (xy -9.317575 1.975556) (xy -9.357822 1.926249) (xy -9.396232 1.804854) (xy -9.401840 1.777382) (xy -9.406940 1.584724) (xy -9.330338 1.466560) (xy -9.165062 1.414938) (xy -9.080644 1.411111)
     (xy -8.941775 1.418616) )(layer F.SilkS) (width  0.010000)
  )
  (fp_poly (pts (xy -6.248173 0.540189) (xy -6.153970 0.608303) (xy -6.030101 0.708606) (xy -6.246495 0.947304) (xy -6.462888 1.186001) (xy -6.598969 1.079798) (xy -6.735049 0.973594) (xy -6.542524 0.741815)
     (xy -6.428673 0.612049) (xy -6.342854 0.527477) (xy -6.313919 0.509018) (xy -6.248173 0.540189) )(layer F.SilkS) (width  0.010000)
  )
  (fp_poly (pts (xy -6.612699 0.388514) (xy -6.610054 0.390175) (xy -6.577526 0.437366) (xy -6.606871 0.517014) (xy -6.706967 0.651166) (xy -6.722943 0.670516) (xy -6.849141 0.813686) (xy -6.942027 0.880509)
     (xy -7.036319 0.884726) (xy -7.159115 0.843139) (xy -7.290898 0.790322) (xy -7.112039 0.564494) (xy -6.940600 0.396627) (xy -6.776236 0.338690) (xy -6.612699 0.388514) )(layer F.SilkS) (width  0.010000)
  )
  (fp_poly (pts (xy -7.208663 0.217115) (xy -7.159102 0.249316) (xy -7.164298 0.302868) (xy -7.232846 0.400958) (xy -7.311839 0.495370) (xy -7.441969 0.637794) (xy -7.539592 0.706276) (xy -7.640113 0.717048)
     (xy -7.747000 0.694869) (xy -7.829776 0.644462) (xy -7.823653 0.553022) (xy -7.726637 0.411000) (xy -7.675585 0.352778) (xy -7.521133 0.217770) (xy -7.372655 0.177762) (xy -7.208663 0.217115) )(layer F.SilkS) (width  0.010000)
  )
  (fp_poly (pts (xy -7.939753 0.023539) (xy -7.812491 0.054595) (xy -7.745490 0.081473) (xy -7.745449 0.081514) (xy -7.764022 0.134710) (xy -7.837416 0.245496) (xy -7.906002 0.334926) (xy -8.038961 0.480895)
     (xy -8.154632 0.544887) (xy -8.291796 0.542907) (xy -8.367888 0.525536) (xy -8.438748 0.500106) (xy -8.455926 0.458678) (xy -8.413600 0.378466) (xy -8.305950 0.236688) (xy -8.288415 0.214518)
     (xy -8.171999 0.080224) (xy -8.081186 0.020802) (xy -7.979970 0.016529) (xy -7.939753 0.023539) )(layer F.SilkS) (width  0.010000)
  )
  (fp_poly (pts (xy -8.449694 -0.249288) (xy -8.436548 -0.239756) (xy -8.339486 -0.161085) (xy -8.299259 -0.112889) (xy -8.332711 -0.058694) (xy -8.420797 0.051835) (xy -8.509152 0.154526) (xy -8.720666 0.393718)
     (xy -8.854248 0.281260) (xy -8.987829 0.168802) (xy -8.780022 -0.084799) (xy -8.661522 -0.225398) (xy -8.585858 -0.291156) (xy -8.524695 -0.294858) (xy -8.449694 -0.249288) )(layer F.SilkS) (width  0.010000)
  )
  (fp_poly (pts (xy -7.686881 -1.688791) (xy -7.865380 -1.514398) (xy -8.088108 -1.360084) (xy -8.163534 -1.320539) (xy -8.419449 -1.150321) (xy -8.579758 -0.930825) (xy -8.638134 -0.670742) (xy -8.638168 -0.668803)
     (xy -8.675706 -0.557183) (xy -8.771441 -0.401546) (xy -8.880912 -0.263291) (xy -9.121487 0.009639) (xy -9.189188 -0.138947) (xy -9.238834 -0.266865) (xy -9.256888 -0.346426) (xy -9.222122 -0.406871)
     (xy -9.125710 -0.537879) (xy -8.979482 -0.724309) (xy -8.795270 -0.951022) (xy -8.621888 -1.159074) (xy -8.392522 -1.430471) (xy -8.221867 -1.627437) (xy -8.096015 -1.761970) (xy -8.001056 -1.846066)
     (xy -7.923079 -1.891724) (xy -7.848175 -1.910941) (xy -7.762435 -1.915713) (xy -7.744340 -1.915970) (xy -7.501791 -1.919111) (xy -7.686881 -1.688791) )(layer F.SilkS) (width  0.010000)
  )
  (fp_poly (pts (xy -6.085866 -1.299724) (xy -6.011501 -1.196161) (xy -5.983111 -1.135201) (xy -6.017704 -1.076655) (xy -6.108154 -0.960303) (xy -6.227641 -0.819685) (xy -6.472172 -0.541795) (xy -6.538055 -0.730788)
     (xy -6.569953 -0.844386) (xy -6.561712 -0.934969) (xy -6.501330 -1.039997) (xy -6.396280 -1.173201) (xy -6.188621 -1.426621) (xy -6.085866 -1.299724) )(layer F.SilkS) (width  0.010000)
  )
  (fp_poly (pts (xy -5.869999 -0.804957) (xy -5.848865 -0.719666) (xy -5.833641 -0.611728) (xy -5.879494 -0.570577) (xy -5.985879 -0.564444) (xy -6.160131 -0.564444) (xy -6.037241 -0.737027) (xy -5.949404 -0.854469)
     (xy -5.902100 -0.877890) (xy -5.869999 -0.804957) )(layer F.SilkS) (width  0.010000)
  )
  (fp_poly (pts (xy -8.409207 -1.750587) (xy -8.492554 -1.638013) (xy -8.615982 -1.479617) (xy -8.763177 -1.295665) (xy -8.917824 -1.106422) (xy -9.063609 -0.932155) (xy -9.184218 -0.793130) (xy -9.234435 -0.738481)
     (xy -9.251179 -0.767740) (xy -9.256888 -0.854430) (xy -9.213003 -1.034562) (xy -9.096737 -1.243197) (xy -8.931173 -1.448588) (xy -8.739396 -1.618987) (xy -8.666052 -1.667022) (xy -8.517254 -1.748074)
     (xy -8.412540 -1.793625) (xy -8.382257 -1.797071) (xy -8.409207 -1.750587) )(layer F.SilkS) (width  0.010000)
  )
  (fp_poly (pts (xy -6.576669 -1.703139) (xy -6.490986 -1.656058) (xy -6.331434 -1.561809) (xy -6.505386 -1.345349) (xy -6.618884 -1.208617) (xy -6.693962 -1.148582) (xy -6.763369 -1.154309) (xy -6.859858 -1.214867)
     (xy -6.871646 -1.223092) (xy -6.998180 -1.311374) (xy -6.824359 -1.530841) (xy -6.718325 -1.659422) (xy -6.647382 -1.712490) (xy -6.576669 -1.703139) )(layer F.SilkS) (width  0.010000)
  )
  (fp_poly (pts (xy -7.059691 -1.883249) (xy -6.935245 -1.847688) (xy -6.896629 -1.793572) (xy -6.941829 -1.698930) (xy -7.032350 -1.584775) (xy -7.162222 -1.462649) (xy -7.307707 -1.415492) (xy -7.402044 -1.411111)
     (xy -7.543797 -1.419795) (xy -7.591591 -1.450970) (xy -7.580471 -1.487453) (xy -7.516147 -1.577871) (xy -7.412939 -1.706837) (xy -7.384246 -1.740869) (xy -7.269677 -1.855442) (xy -7.166945 -1.893931)
     (xy -7.059691 -1.883249) )(layer F.SilkS) (width  0.010000)
  )
  (fp_poly (pts (xy -2.258242 2.731482) (xy -2.257777 2.758867) (xy -2.291482 2.856190) (xy -2.342444 2.878667) (xy -2.417611 2.851862) (xy -2.427111 2.829134) (xy -2.388494 2.755573) (xy -2.342444 2.709334)
     (xy -2.277568 2.672978) (xy -2.258242 2.731482) )(layer F.SilkS) (width  0.010000)
  )
  (fp_poly (pts (xy -2.279321 1.830598) (xy -2.267859 1.889418) (xy -2.279409 1.993174) (xy -2.344607 2.126717) (xy -2.474311 2.309441) (xy -2.570597 2.430014) (xy -2.714723 2.603415) (xy -2.830547 2.737583)
     (xy -2.900856 2.812821) (xy -2.913293 2.822223) (xy -2.929544 2.773656) (xy -2.935111 2.677047) (xy -2.893377 2.543850) (xy -2.772243 2.347102) (xy -2.610555 2.136451) (xy -2.457561 1.952665)
     (xy -2.360716 1.847174) (xy -2.305983 1.809859) (xy -2.279321 1.830598) )(layer F.SilkS) (width  0.010000)
  )
  (fp_poly (pts (xy -2.263634 0.951406) (xy -2.257777 1.039105) (xy -2.296738 1.156141) (xy -2.406490 1.334209) (xy -2.576337 1.556212) (xy -2.596444 1.580445) (xy -2.753780 1.766876) (xy -2.852895 1.875336)
     (xy -2.907207 1.915099) (xy -2.930131 1.895441) (xy -2.935086 1.825636) (xy -2.935111 1.814552) (xy -2.909135 1.688992) (xy -2.823550 1.533339) (xy -2.666866 1.327784) (xy -2.621132 1.273212)
     (xy -2.476831 1.106268) (xy -2.361275 0.978461) (xy -2.292643 0.909661) (xy -2.282465 0.903111) (xy -2.263634 0.951406) )(layer F.SilkS) (width  0.010000)
  )
  (fp_poly (pts (xy -2.279899 0.068740) (xy -2.268182 0.130473) (xy -2.278930 0.233183) (xy -2.341252 0.363139) (xy -2.466354 0.540247) (xy -2.575773 0.676892) (xy -2.720593 0.850816) (xy -2.836271 0.985766)
     (xy -2.905921 1.062235) (xy -2.918146 1.072445) (xy -2.930664 1.023768) (xy -2.935111 0.923506) (xy -2.891795 0.783002) (xy -2.763935 0.576653) (xy -2.610555 0.377086) (xy -2.457776 0.192483)
     (xy -2.361078 0.086285) (xy -2.306456 0.048400) (xy -2.279899 0.068740) )(layer F.SilkS) (width  0.010000)
  )
  (fp_poly (pts (xy -2.266890 -0.810515) (xy -2.265443 -0.675763) (xy -2.326194 -0.522476) (xy -2.458777 -0.332596) (xy -2.624038 -0.141111) (xy -2.775581 0.023134) (xy -2.867187 0.111938) (xy -2.914007 0.134157)
     (xy -2.931191 0.098644) (xy -2.933741 0.039886) (xy -2.905220 -0.059748) (xy -2.829055 -0.201409) (xy -2.721211 -0.364734) (xy -2.597655 -0.529363) (xy -2.474354 -0.674934) (xy -2.367275 -0.781085)
     (xy -2.292384 -0.827456) (xy -2.266890 -0.810515) )(layer F.SilkS) (width  0.010000)
  )
  (fp_poly (pts (xy -2.033512 -1.801147) (xy -2.026346 -1.779203) (xy -2.049489 -1.730456) (xy -2.110127 -1.644504) (xy -2.215448 -1.510949) (xy -2.372640 -1.319391) (xy -2.588888 -1.059429) (xy -2.806081 -0.799006)
     (xy -2.931051 -0.649111) (xy -2.933081 -0.822082) (xy -2.896362 -0.959803) (xy -2.797336 -1.139190) (xy -2.656531 -1.335701) (xy -2.494473 -1.524791) (xy -2.331686 -1.681919) (xy -2.188697 -1.782540)
     (xy -2.110022 -1.806222) (xy -2.063800 -1.806686) (xy -2.033512 -1.801147) )(layer F.SilkS) (width  0.010000)
  )
  (fp_poly (pts (xy -3.650839 -1.554073) (xy -3.813925 -1.391120) (xy -3.951600 -1.307812) (xy -3.993444 -1.300073) (xy -4.092652 -1.310713) (xy -4.120444 -1.330240) (xy -4.087364 -1.388372) (xy -4.002805 -1.501816)
     (xy -3.937000 -1.583223) (xy -3.785751 -1.735365) (xy -3.648994 -1.799969) (xy -3.594395 -1.805204) (xy -3.435235 -1.806222) (xy -3.650839 -1.554073) )(layer F.SilkS) (width  0.010000)
  )
  (fp_poly (pts (xy -2.766077 -1.802156) (xy -2.746131 -1.776106) (xy -2.785970 -1.707292) (xy -2.891306 -1.574935) (xy -2.909909 -1.552222) (xy -3.081839 -1.374782) (xy -3.223217 -1.300933) (xy -3.252355 -1.298222)
     (xy -3.355254 -1.308298) (xy -3.386666 -1.326282) (xy -3.351966 -1.380293) (xy -3.262743 -1.489240) (xy -3.182543 -1.580282) (xy -3.005561 -1.741318) (xy -2.856241 -1.805402) (xy -2.840097 -1.806222)
     (xy -2.766077 -1.802156) )(layer F.SilkS) (width  0.010000)
  )
  (fp_poly (pts (xy -1.438693 -1.556689) (xy -1.600627 -1.385522) (xy -1.734502 -1.306688) (xy -1.792108 -1.298222) (xy -1.933728 -1.298222) (xy -1.736234 -1.538111) (xy -1.556044 -1.716418) (xy -1.394231 -1.794905)
     (xy -1.382820 -1.796578) (xy -1.226899 -1.815156) (xy -1.438693 -1.556689) )(layer F.SilkS) (width  0.010000)
  )
  (fp_poly (pts (xy -0.737555 -1.774704) (xy -0.733777 -1.686418) (xy -0.775359 -1.504717) (xy -0.882160 -1.364785) (xy -1.027263 -1.299535) (xy -1.051266 -1.298222) (xy -1.193020 -1.298222) (xy -1.082379 -1.453444)
     (xy -0.964867 -1.599700) (xy -0.852758 -1.716192) (xy -0.767732 -1.787104) (xy -0.737555 -1.774704) )(layer F.SilkS) (width  0.010000)
  )
  (fp_poly (pts (xy -4.264846 -1.790578) (xy -4.274319 -1.723547) (xy -4.288095 -1.696477) (xy -4.370246 -1.578091) (xy -4.430768 -1.557921) (xy -4.458470 -1.638237) (xy -4.459111 -1.661780) (xy -4.434268 -1.773743)
     (xy -4.346569 -1.806213) (xy -4.344236 -1.806222) (xy -4.264846 -1.790578) )(layer F.SilkS) (width  0.010000)
  )
  (fp_poly (pts (xy 1.464713 2.351427) (xy 1.465387 2.380447) (xy 1.428785 2.527811) (xy 1.334533 2.683818) (xy 1.211611 2.812188) (xy 1.088999 2.876639) (xy 1.067427 2.878667) (xy 0.978957 2.860194)
     (xy 0.960717 2.836334) (xy 0.996185 2.775590) (xy 1.087927 2.657537) (xy 1.212548 2.511778) (xy 1.345246 2.365101) (xy 1.420518 2.295192) (xy 1.454845 2.293488) (xy 1.464713 2.351427) )(layer F.SilkS) (width  0.010000)
  )
  (fp_poly (pts (xy 4.486770 2.256866) (xy 4.502434 2.308200) (xy 4.480214 2.377739) (xy 4.408339 2.487731) (xy 4.275043 2.660425) (xy 4.269818 2.667000) (xy 4.148846 2.795665) (xy 4.041646 2.870448)
     (xy 3.969870 2.879802) (xy 3.952326 2.836334) (xy 3.986884 2.763144) (xy 4.072916 2.647538) (xy 4.187721 2.514127) (xy 4.308599 2.387524) (xy 4.412851 2.292340) (xy 4.477777 2.253189)
     (xy 4.486770 2.256866) )(layer F.SilkS) (width  0.010000)
  )
  (fp_poly (pts (xy 1.445434 1.423407) (xy 1.457151 1.485139) (xy 1.446404 1.587849) (xy 1.384081 1.717806) (xy 1.258979 1.894914) (xy 1.149561 2.031559) (xy 1.004741 2.205482) (xy 0.889063 2.340433)
     (xy 0.819413 2.416901) (xy 0.807187 2.427111) (xy 0.794670 2.378435) (xy 0.790223 2.278173) (xy 0.833538 2.137669) (xy 0.961398 1.931320) (xy 1.114778 1.731753) (xy 1.267558 1.547150)
     (xy 1.364255 1.440951) (xy 1.418878 1.403067) (xy 1.445434 1.423407) )(layer F.SilkS) (width  0.010000)
  )
  (fp_poly (pts (xy 4.452850 1.431288) (xy 4.437363 1.510678) (xy 4.366221 1.643046) (xy 4.249158 1.812748) (xy 4.095906 2.004140) (xy 3.918394 2.199318) (xy 3.856389 2.249140) (xy 3.838725 2.201258)
     (xy 3.838223 2.170695) (xy 3.872674 2.079238) (xy 3.961045 1.934519) (xy 4.080862 1.766393) (xy 4.209653 1.604712) (xy 4.324944 1.479330) (xy 4.402948 1.420519) (xy 4.452850 1.431288) )(layer F.SilkS) (width  0.010000)
  )
  (fp_poly (pts (xy 1.719206 0.404318) (xy 1.719030 0.448796) (xy 1.686594 0.493889) (xy 1.589909 0.614164) (xy 1.455695 0.776334) (xy 1.300994 0.960407) (xy 1.142845 1.146396) (xy 0.998288 1.314309)
     (xy 0.884364 1.444158) (xy 0.818113 1.515953) (xy 0.808470 1.524000) (xy 0.794901 1.475409) (xy 0.790223 1.378163) (xy 0.827743 1.252651) (xy 0.926735 1.082158) (xy 1.066846 0.890704)
     (xy 1.227725 0.702308) (xy 1.389019 0.540990) (xy 1.530375 0.430770) (xy 1.623171 0.395111) (xy 1.719206 0.404318) )(layer F.SilkS) (width  0.010000)
  )
  (fp_poly (pts (xy 4.182773 0.918190) (xy 4.146043 1.027210) (xy 4.030289 1.201645) (xy 4.029025 1.203269) (xy 3.910723 1.354536) (xy 3.842841 1.434237) (xy 3.805608 1.459217) (xy 3.779249 1.446321)
     (xy 3.762963 1.429926) (xy 3.730974 1.376099) (xy 3.748384 1.304732) (xy 3.825780 1.191511) (xy 3.914007 1.083076) (xy 4.057238 0.936176) (xy 4.149999 0.884529) (xy 4.182773 0.918190) )(layer F.SilkS) (width  0.010000)
  )
  (fp_poly (pts (xy 4.505515 -0.377343) (xy 4.479293 -0.293793) (xy 4.395712 -0.152723) (xy 4.274193 0.020632) (xy 4.134156 0.201035) (xy 3.995021 0.363250) (xy 3.876209 0.482041) (xy 3.807867 0.529231)
     (xy 3.733029 0.597419) (xy 3.723304 0.633229) (xy 3.685512 0.743765) (xy 3.598922 0.857785) (xy 3.495446 0.943453) (xy 3.406994 0.968930) (xy 3.392566 0.963202) (xy 3.379399 0.923438)
     (xy 3.415065 0.841158) (xy 3.506365 0.706398) (xy 3.660098 0.509192) (xy 3.883064 0.239576) (xy 3.900386 0.218985) (xy 4.139190 -0.059223) (xy 4.314819 -0.250991) (xy 4.431471 -0.360457)
     (xy 4.493346 -0.391759) (xy 4.505515 -0.377343) )(layer F.SilkS) (width  0.010000)
  )
  (fp_poly (pts (xy 2.435405 0.423672) (xy 2.437947 0.465984) (xy 2.375902 0.556234) (xy 2.311798 0.635000) (xy 2.192361 0.751121) (xy 2.069636 0.828661) (xy 1.970541 0.855963) (xy 1.921992 0.821372)
     (xy 1.920766 0.804334) (xy 1.965635 0.710619) (xy 2.070966 0.593762) (xy 2.201257 0.484943) (xy 2.321005 0.415340) (xy 2.374780 0.405615) (xy 2.435405 0.423672) )(layer F.SilkS) (width  0.010000)
  )
  (fp_poly (pts (xy 3.158154 0.449955) (xy 3.118889 0.540760) (xy 3.035448 0.651254) (xy 2.929570 0.755715) (xy 2.822996 0.828421) (xy 2.757825 0.846667) (xy 2.685844 0.841758) (xy 2.678930 0.808106)
     (xy 2.737342 0.717329) (xy 2.759300 0.686432) (xy 2.912950 0.499808) (xy 3.041802 0.411314) (xy 3.131500 0.404562) (xy 3.158154 0.449955) )(layer F.SilkS) (width  0.010000)
  )
  (fp_poly (pts (xy 1.460811 -0.329308) (xy 1.465100 -0.271323) (xy 1.428949 -0.137042) (xy 1.313325 0.049815) (xy 1.153577 0.250788) (xy 1.009276 0.417733) (xy 0.893720 0.545539) (xy 0.825088 0.614340)
     (xy 0.814910 0.620889) (xy 0.797270 0.572078) (xy 0.791151 0.465667) (xy 0.824395 0.342146) (xy 0.928735 0.177939) (xy 1.113016 -0.040689) (xy 1.127362 -0.056444) (xy 1.286888 -0.228558)
     (xy 1.386028 -0.325292) (xy 1.439197 -0.355819) (xy 1.460811 -0.329308) )(layer F.SilkS) (width  0.010000)
  )
  (fp_poly (pts (xy 2.823728 -1.120385) (xy 3.146295 -1.090310) (xy 3.379867 -1.031816) (xy 3.535908 -0.938055) (xy 3.625885 -0.802179) (xy 3.661262 -0.617342) (xy 3.653853 -0.380428) (xy 3.618774 -0.180232)
     (xy 3.546723 -0.028022) (xy 3.424472 0.082247) (xy 3.238794 0.156623) (xy 2.976461 0.201151) (xy 2.624245 0.221879) (xy 2.328334 0.225463) (xy 1.636889 0.225778) (xy 1.636889 -1.128889)
     (xy 2.400702 -1.128889) (xy 2.823728 -1.120385) )(layer F.SilkS) (width  0.010000)
  )
  (fp_poly (pts (xy 1.938190 -1.552222) (xy 1.766932 -1.378575) (xy 1.626479 -1.301598) (xy 1.596714 -1.298222) (xy 1.499768 -1.273821) (xy 1.468351 -1.179628) (xy 1.467556 -1.147379) (xy 1.455214 -1.071104)
     (xy 1.411638 -0.976170) (xy 1.327005 -0.848707) (xy 1.191491 -0.674846) (xy 0.995272 -0.440719) (xy 0.836749 -0.256822) (xy 0.805128 -0.266473) (xy 0.790395 -0.363352) (xy 0.790223 -0.378560)
     (xy 0.805774 -0.470279) (xy 0.859183 -0.584704) (xy 0.960582 -0.737324) (xy 1.120104 -0.943631) (xy 1.312334 -1.176795) (xy 1.528214 -1.430136) (xy 1.688877 -1.606707) (xy 1.808041 -1.719135)
     (xy 1.899421 -1.780050) (xy 1.976735 -1.802078) (xy 1.992476 -1.802946) (xy 2.150508 -1.806222) (xy 1.938190 -1.552222) )(layer F.SilkS) (width  0.010000)
  )
  (fp_poly (pts (xy 4.417851 -1.136282) (xy 4.415461 -1.059122) (xy 4.327185 -0.908827) (xy 4.198583 -0.740690) (xy 4.035970 -0.546994) (xy 3.928974 -0.438136) (xy 3.867449 -0.407194) (xy 3.841252 -0.447249)
     (xy 3.838223 -0.494858) (xy 3.871895 -0.590306) (xy 3.958450 -0.722740) (xy 4.076193 -0.868153) (xy 4.203430 -1.002539) (xy 4.318467 -1.101890) (xy 4.399610 -1.142200) (xy 4.417851 -1.136282) )(layer F.SilkS) (width  0.010000)
  )
  (fp_poly (pts (xy 4.043236 -1.574255) (xy 4.074021 -1.519154) (xy 4.042455 -1.435232) (xy 3.939164 -1.298077) (xy 3.935459 -1.293607) (xy 3.807536 -1.148333) (xy 3.725742 -1.084480) (xy 3.670977 -1.091335)
     (xy 3.640959 -1.128416) (xy 3.653654 -1.200487) (xy 3.723917 -1.323792) (xy 3.787738 -1.410081) (xy 3.906912 -1.543541) (xy 3.987931 -1.592136) (xy 4.043236 -1.574255) )(layer F.SilkS) (width  0.010000)
  )
  (fp_poly (pts (xy 1.322132 -1.791105) (xy 1.352223 -1.763889) (xy 1.315804 -1.704181) (xy 1.221951 -1.585732) (xy 1.089908 -1.432651) (xy 1.070624 -1.411111) (xy 0.928326 -1.255067) (xy 0.844997 -1.175028)
     (xy 0.804824 -1.162433) (xy 0.791993 -1.208720) (xy 0.790845 -1.259655) (xy 0.828762 -1.425814) (xy 0.925714 -1.594638) (xy 1.054698 -1.731760) (xy 1.188714 -1.802810) (xy 1.220255 -1.806222)
     (xy 1.322132 -1.791105) )(layer F.SilkS) (width  0.010000)
  )
  (fp_poly (pts (xy 2.823053 -1.801489) (xy 2.840272 -1.773536) (xy 2.797559 -1.701730) (xy 2.688919 -1.565441) (xy 2.678091 -1.552222) (xy 2.515672 -1.381796) (xy 2.380474 -1.305110) (xy 2.328734 -1.298222)
     (xy 2.232235 -1.307679) (xy 2.231359 -1.352629) (xy 2.262155 -1.397000) (xy 2.465159 -1.636326) (xy 2.634448 -1.771429) (xy 2.751895 -1.806222) (xy 2.823053 -1.801489) )(layer F.SilkS) (width  0.010000)
  )
  (fp_poly (pts (xy 3.480704 -1.782215) (xy 3.518149 -1.745509) (xy 3.493558 -1.671811) (xy 3.399200 -1.539899) (xy 3.386638 -1.523962) (xy 3.267769 -1.402230) (xy 3.145729 -1.319514) (xy 3.046290 -1.287823)
     (xy 2.995218 -1.319167) (xy 2.993083 -1.340555) (xy 3.034230 -1.424974) (xy 3.132939 -1.539218) (xy 3.258634 -1.655592) (xy 3.380740 -1.746405) (xy 3.468681 -1.783961) (xy 3.480704 -1.782215) )(layer F.SilkS) (width  0.010000)
  )
)
