(module Socket_BeagleBone_Black (layer F.Cu)
  (descr "Through hole pin header")
  (tags "pin header")
  (fp_text reference REF** (at 0 -5.1) (layer F.SilkS)
    (effects (font (size 1 1) (thickness 0.15)))
  )
  (fp_text value Socket_BeagleBone_Black (at 0 -3.1) (layer F.Fab)
    (effects (font (size 1 1) (thickness 0.15)))
  )
  (fp_line (start -1.75 -1.75) (end -1.75 57.65) (layer F.CrtYd) (width 0.05))
  (fp_line (start 4.3 -1.75) (end 4.3 57.65) (layer F.CrtYd) (width 0.05))
  (fp_line (start -1.75 -1.75) (end 4.3 -1.75) (layer F.CrtYd) (width 0.05))
  (fp_line (start -1.75 57.65) (end 4.3 57.65) (layer F.CrtYd) (width 0.05))
  (fp_line (start 3.81 57.15) (end 3.81 -1.27) (layer F.SilkS) (width 0.15))
  (fp_line (start -1.27 57.15) (end -1.27 1.27) (layer F.SilkS) (width 0.15))
  (fp_line (start 3.81 57.15) (end -1.27 57.15) (layer F.SilkS) (width 0.15))
  (fp_line (start 3.81 -1.27) (end 1.27 -1.27) (layer F.SilkS) (width 0.15))
  (fp_line (start 0 -1.55) (end -1.55 -1.55) (layer F.SilkS) (width 0.15))
  (fp_line (start 1.27 -1.27) (end 1.27 1.27) (layer F.SilkS) (width 0.15))
  (fp_line (start 1.27 1.27) (end -1.27 1.27) (layer F.SilkS) (width 0.15))
  (fp_line (start -1.55 -1.55) (end -1.55 0) (layer F.SilkS) (width 0.15))
  (pad 1 thru_hole rect (at 0 0) (size 1.7272 1.7272) (drill 1.016) (layers *.Cu *.Mask F.SilkS))
  (pad 2 thru_hole oval (at 2.54 0) (size 1.7272 1.7272) (drill 1.016) (layers *.Cu *.Mask F.SilkS))
  (pad 3 thru_hole oval (at 0 2.54) (size 1.7272 1.7272) (drill 1.016) (layers *.Cu *.Mask F.SilkS))
  (pad 4 thru_hole oval (at 2.54 2.54) (size 1.7272 1.7272) (drill 1.016) (layers *.Cu *.Mask F.SilkS))
  (pad 5 thru_hole oval (at 0 5.08) (size 1.7272 1.7272) (drill 1.016) (layers *.Cu *.Mask F.SilkS))
  (pad 6 thru_hole oval (at 2.54 5.08) (size 1.7272 1.7272) (drill 1.016) (layers *.Cu *.Mask F.SilkS))
  (pad 7 thru_hole oval (at 0 7.62) (size 1.7272 1.7272) (drill 1.016) (layers *.Cu *.Mask F.SilkS))
  (pad 8 thru_hole oval (at 2.54 7.62) (size 1.7272 1.7272) (drill 1.016) (layers *.Cu *.Mask F.SilkS))
  (pad 9 thru_hole oval (at 0 10.16) (size 1.7272 1.7272) (drill 1.016) (layers *.Cu *.Mask F.SilkS))
  (pad 10 thru_hole oval (at 2.54 10.16) (size 1.7272 1.7272) (drill 1.016) (layers *.Cu *.Mask F.SilkS))
  (pad 11 thru_hole oval (at 0 12.7) (size 1.7272 1.7272) (drill 1.016) (layers *.Cu *.Mask F.SilkS))
  (pad 12 thru_hole oval (at 2.54 12.7) (size 1.7272 1.7272) (drill 1.016) (layers *.Cu *.Mask F.SilkS))
  (pad 13 thru_hole oval (at 0 15.24) (size 1.7272 1.7272) (drill 1.016) (layers *.Cu *.Mask F.SilkS))
  (pad 14 thru_hole oval (at 2.54 15.24) (size 1.7272 1.7272) (drill 1.016) (layers *.Cu *.Mask F.SilkS))
  (pad 15 thru_hole oval (at 0 17.78) (size 1.7272 1.7272) (drill 1.016) (layers *.Cu *.Mask F.SilkS))
  (pad 16 thru_hole oval (at 2.54 17.78) (size 1.7272 1.7272) (drill 1.016) (layers *.Cu *.Mask F.SilkS))
  (pad 17 thru_hole oval (at 0 20.32) (size 1.7272 1.7272) (drill 1.016) (layers *.Cu *.Mask F.SilkS))
  (pad 18 thru_hole oval (at 2.54 20.32) (size 1.7272 1.7272) (drill 1.016) (layers *.Cu *.Mask F.SilkS))
  (pad 19 thru_hole oval (at 0 22.86) (size 1.7272 1.7272) (drill 1.016) (layers *.Cu *.Mask F.SilkS))
  (pad 20 thru_hole oval (at 2.54 22.86) (size 1.7272 1.7272) (drill 1.016) (layers *.Cu *.Mask F.SilkS))
  (pad 21 thru_hole oval (at 0 25.4) (size 1.7272 1.7272) (drill 1.016) (layers *.Cu *.Mask F.SilkS))
  (pad 22 thru_hole oval (at 2.54 25.4) (size 1.7272 1.7272) (drill 1.016) (layers *.Cu *.Mask F.SilkS))
  (pad 23 thru_hole oval (at 0 27.94) (size 1.7272 1.7272) (drill 1.016) (layers *.Cu *.Mask F.SilkS))
  (pad 24 thru_hole oval (at 2.54 27.94) (size 1.7272 1.7272) (drill 1.016) (layers *.Cu *.Mask F.SilkS))
  (pad 25 thru_hole oval (at 0 30.48) (size 1.7272 1.7272) (drill 1.016) (layers *.Cu *.Mask F.SilkS))
  (pad 26 thru_hole oval (at 2.54 30.48) (size 1.7272 1.7272) (drill 1.016) (layers *.Cu *.Mask F.SilkS))
  (pad 27 thru_hole oval (at 0 33.02) (size 1.7272 1.7272) (drill 1.016) (layers *.Cu *.Mask F.SilkS))
  (pad 28 thru_hole oval (at 2.54 33.02) (size 1.7272 1.7272) (drill 1.016) (layers *.Cu *.Mask F.SilkS))
  (pad 29 thru_hole oval (at 0 35.56) (size 1.7272 1.7272) (drill 1.016) (layers *.Cu *.Mask F.SilkS))
  (pad 30 thru_hole oval (at 2.54 35.56) (size 1.7272 1.7272) (drill 1.016) (layers *.Cu *.Mask F.SilkS))
  (pad 31 thru_hole oval (at 0 38.1) (size 1.7272 1.7272) (drill 1.016) (layers *.Cu *.Mask F.SilkS))
  (pad 32 thru_hole oval (at 2.54 38.1) (size 1.7272 1.7272) (drill 1.016) (layers *.Cu *.Mask F.SilkS))
  (pad 33 thru_hole oval (at 0 40.64) (size 1.7272 1.7272) (drill 1.016) (layers *.Cu *.Mask F.SilkS))
  (pad 34 thru_hole oval (at 2.54 40.64) (size 1.7272 1.7272) (drill 1.016) (layers *.Cu *.Mask F.SilkS))
  (pad 35 thru_hole oval (at 0 43.18) (size 1.7272 1.7272) (drill 1.016) (layers *.Cu *.Mask F.SilkS))
  (pad 36 thru_hole oval (at 2.54 43.18) (size 1.7272 1.7272) (drill 1.016) (layers *.Cu *.Mask F.SilkS))
  (pad 37 thru_hole oval (at 0 45.72) (size 1.7272 1.7272) (drill 1.016) (layers *.Cu *.Mask F.SilkS))
  (pad 38 thru_hole oval (at 2.54 45.72) (size 1.7272 1.7272) (drill 1.016) (layers *.Cu *.Mask F.SilkS))
  (pad 39 thru_hole oval (at 0 48.26) (size 1.7272 1.7272) (drill 1.016) (layers *.Cu *.Mask F.SilkS))
  (pad 40 thru_hole oval (at 2.54 48.26) (size 1.7272 1.7272) (drill 1.016) (layers *.Cu *.Mask F.SilkS))
  (pad 41 thru_hole oval (at 0 50.8) (size 1.7272 1.7272) (drill 1.016) (layers *.Cu *.Mask F.SilkS))
  (pad 42 thru_hole oval (at 2.54 50.8) (size 1.7272 1.7272) (drill 1.016) (layers *.Cu *.Mask F.SilkS))
  (pad 43 thru_hole oval (at 0 53.34) (size 1.7272 1.7272) (drill 1.016) (layers *.Cu *.Mask F.SilkS))
  (pad 44 thru_hole oval (at 2.54 53.34) (size 1.7272 1.7272) (drill 1.016) (layers *.Cu *.Mask F.SilkS))
  (pad 45 thru_hole oval (at 0 55.88) (size 1.7272 1.7272) (drill 1.016) (layers *.Cu *.Mask F.SilkS))
  (pad 46 thru_hole oval (at 2.54 55.88) (size 1.7272 1.7272) (drill 1.016) (layers *.Cu *.Mask F.SilkS))
  (model ${KIPRJMOD}/Socket_BeagleBone_Black_k.3dshapes/Socket_BeagleBone_Black_k.wrl    (at (xyz 0.05 -1.1 0))
    (scale (xyz 1 1 1))
    (rotate (xyz 0 0 90))
  )
)
