(module Samtec_HLE-114-02-xx-DV-PE_2x07_P2.54mm_Horizontal (layer F.Cu) (tedit 5A369BF0)
  (descr "Samtec HLE .100\" Tiger Beam Cost-effective Single Beam Socket Strip, HLE-114-02-xx-DV-PE (compatible alternatives: HLE-114-02-xx-DV-PE-BE), 7 Pins per row (http://suddendocs.samtec.com/prints/hle-1xx-02-xx-dv-xe-xx-mkt.pdf, http://suddendocs.samtec.com/prints/hle-thru.pdf), generated with kicad-footprint-generator")
  (tags "connector Samtec  top entry")
  (fp_text reference REF** (at 7.62 -1.86) (layer F.SilkS)
    (effects (font (size 1 1) (thickness 0.15)))
  )
  (fp_text value Samtec_HLE-114-02-xx-DV-PE_2x07_P2.54mm_Horizontal (at 7.62 9.48) (layer F.Fab)
    (effects (font (size 1 1) (thickness 0.15)))
  )
  (fp_line (start -1.27 1.27) (end 16.51 1.27) (layer F.Fab) (width 0.1))
  (fp_line (start 16.51 1.27) (end 16.51 6.35) (layer F.Fab) (width 0.1))
  (fp_line (start 16.51 6.35) (end -1.27 6.35) (layer F.Fab) (width 0.1))
  (fp_line (start -1.27 6.35) (end -1.27 1.27) (layer F.Fab) (width 0.1))
  (fp_line (start -0.5 1.27) (end 0 1.977107) (layer F.Fab) (width 0.1))
  (fp_line (start 0 1.977107) (end 0.5 1.27) (layer F.Fab) (width 0.1))
  (fp_line (start -1.38 1.16) (end 16.62 1.16) (layer F.SilkS) (width 0.12))
  (fp_line (start 16.62 1.16) (end 16.62 6.46) (layer F.SilkS) (width 0.12))
  (fp_line (start 16.62 6.46) (end -1.38 6.46) (layer F.SilkS) (width 0.12))
  (fp_line (start -1.38 6.46) (end -1.38 1.16) (layer F.SilkS) (width 0.12))
  (fp_line (start -1.77 -1.16) (end 17.01 -1.16) (layer F.CrtYd) (width 0.05))
  (fp_line (start 17.01 -1.16) (end 17.01 8.78) (layer F.CrtYd) (width 0.05))
  (fp_line (start 17.01 8.78) (end -1.77 8.78) (layer F.CrtYd) (width 0.05))
  (fp_line (start -1.77 8.78) (end -1.77 -1.16) (layer F.CrtYd) (width 0.05))
  (pad "" np_thru_hole circle (at 0 2.54) (size 1.4 1.4) (drill 1.4) (layers *.Cu *.Mask))
  (pad "" np_thru_hole circle (at 0 5.08) (size 1.4 1.4) (drill 1.4) (layers *.Cu *.Mask))
  (pad "" np_thru_hole circle (at 2.54 2.54) (size 1.4 1.4) (drill 1.4) (layers *.Cu *.Mask))
  (pad "" np_thru_hole circle (at 2.54 5.08) (size 1.4 1.4) (drill 1.4) (layers *.Cu *.Mask))
  (pad "" np_thru_hole circle (at 5.08 2.54) (size 1.4 1.4) (drill 1.4) (layers *.Cu *.Mask))
  (pad "" np_thru_hole circle (at 5.08 5.08) (size 1.4 1.4) (drill 1.4) (layers *.Cu *.Mask))
  (pad "" np_thru_hole circle (at 7.62 2.54) (size 1.4 1.4) (drill 1.4) (layers *.Cu *.Mask))
  (pad "" np_thru_hole circle (at 7.62 5.08) (size 1.4 1.4) (drill 1.4) (layers *.Cu *.Mask))
  (pad "" np_thru_hole circle (at 10.16 2.54) (size 1.4 1.4) (drill 1.4) (layers *.Cu *.Mask))
  (pad "" np_thru_hole circle (at 10.16 5.08) (size 1.4 1.4) (drill 1.4) (layers *.Cu *.Mask))
  (pad "" np_thru_hole circle (at 12.7 2.54) (size 1.4 1.4) (drill 1.4) (layers *.Cu *.Mask))
  (pad "" np_thru_hole circle (at 12.7 5.08) (size 1.4 1.4) (drill 1.4) (layers *.Cu *.Mask))
  (pad "" np_thru_hole circle (at 15.24 2.54) (size 1.4 1.4) (drill 1.4) (layers *.Cu *.Mask))
  (pad "" np_thru_hole circle (at 15.24 5.08) (size 1.4 1.4) (drill 1.4) (layers *.Cu *.Mask))
  (pad 1 thru_hole rect (at 0 0) (size 1.31 1.31) (drill 0.71) (layers *.Cu *.Mask))
  (pad 3 thru_hole circle (at 2.54 0) (size 1.31 1.31) (drill 0.71) (layers *.Cu *.Mask))
  (pad 5 thru_hole circle (at 5.08 0) (size 1.31 1.31) (drill 0.71) (layers *.Cu *.Mask))
  (pad 7 thru_hole circle (at 7.62 0) (size 1.31 1.31) (drill 0.71) (layers *.Cu *.Mask))
  (pad 9 thru_hole circle (at 10.16 0) (size 1.31 1.31) (drill 0.71) (layers *.Cu *.Mask))
  (pad 11 thru_hole circle (at 12.7 0) (size 1.31 1.31) (drill 0.71) (layers *.Cu *.Mask))
  (pad 13 thru_hole circle (at 15.24 0) (size 1.31 1.31) (drill 0.71) (layers *.Cu *.Mask))
  (pad 2 thru_hole circle (at 0 7.62) (size 1.31 1.31) (drill 0.71) (layers *.Cu *.Mask))
  (pad 4 thru_hole circle (at 2.54 7.62) (size 1.31 1.31) (drill 0.71) (layers *.Cu *.Mask))
  (pad 6 thru_hole circle (at 5.08 7.62) (size 1.31 1.31) (drill 0.71) (layers *.Cu *.Mask))
  (pad 8 thru_hole circle (at 7.62 7.62) (size 1.31 1.31) (drill 0.71) (layers *.Cu *.Mask))
  (pad 10 thru_hole circle (at 10.16 7.62) (size 1.31 1.31) (drill 0.71) (layers *.Cu *.Mask))
  (pad 12 thru_hole circle (at 12.7 7.62) (size 1.31 1.31) (drill 0.71) (layers *.Cu *.Mask))
  (pad 14 thru_hole circle (at 15.24 7.62) (size 1.31 1.31) (drill 0.71) (layers *.Cu *.Mask))
  (fp_text user %R (at 7.62 5.65) (layer F.Fab)
    (effects (font (size 1 1) (thickness 0.15)))
  )
  (model ${KIPRJMOD}/kicad_libs_k/models_k.3d/Connector_Samtec_HLE_THT_k.3dshapes/Samtec_HLE-114-02-xx-DV-PE_2x07_P2.54mm_Horizontal_k.wrl
    (at (xyz 0 0 0))
    (scale (xyz 1 1 1))
    (rotate (xyz 0 0 0))
  )
)