(module R_0612_1632Metric (layer F.Cu) (tedit 5B301BBD)
  (descr "Resistor SMD 0612 (1632 Metric), square (rectangular) end terminal, IPC_7351 nominal, (Body size source: https://www.vishay.com/docs/20019/rcwe.pdf), generated with kicad-footprint-generator")
  (tags resistor)
  (attr smd)
  (fp_text reference REF** (at 0 -2.65) (layer F.SilkS)
    (effects (font (size 1 1) (thickness 0.15)))
  )
  (fp_text value R_0612_1632Metric (at 0 2.65) (layer F.Fab)
    (effects (font (size 1 1) (thickness 0.15)))
  )
  (fp_line (start -0.8 1.6) (end -0.8 -1.6) (layer F.Fab) (width 0.1))
  (fp_line (start -0.8 -1.6) (end 0.8 -1.6) (layer F.Fab) (width 0.1))
  (fp_line (start 0.8 -1.6) (end 0.8 1.6) (layer F.Fab) (width 0.1))
  (fp_line (start 0.8 1.6) (end -0.8 1.6) (layer F.Fab) (width 0.1))
  (fp_line (start -0.182983 -1.71) (end 0.182983 -1.71) (layer F.SilkS) (width 0.12))
  (fp_line (start -0.182983 1.71) (end 0.182983 1.71) (layer F.SilkS) (width 0.12))
  (fp_line (start -1.5 1.95) (end -1.5 -1.95) (layer F.CrtYd) (width 0.05))
  (fp_line (start -1.5 -1.95) (end 1.5 -1.95) (layer F.CrtYd) (width 0.05))
  (fp_line (start 1.5 -1.95) (end 1.5 1.95) (layer F.CrtYd) (width 0.05))
  (fp_line (start 1.5 1.95) (end -1.5 1.95) (layer F.CrtYd) (width 0.05))
  (pad 1 smd roundrect (at -0.75 0) (size 1 3.4) (layers F.Cu F.Mask F.Paste) (roundrect_rratio 0.25))
  (pad 2 smd roundrect (at 0.75 0) (size 1 3.4) (layers F.Cu F.Mask F.Paste) (roundrect_rratio 0.25))
  (fp_text user %R (at 0 0) (layer F.Fab)
    (effects (font (size 0.4 0.4) (thickness 0.06)))
  )
  (model ${KIPRJMOD}/kicad_libs_k/models_k.3d/Resistor_SMD_k.3dshapes/R_0612_1632Metric_k.wrl
    (at (xyz 0 0 0))
    (scale (xyz 1 1 1))
    (rotate (xyz 0 0 0))
  )
)