(module R_0815_2038Metric_Pad1.64x4.00mm_HandSolder (layer F.Cu) (tedit 5AC5DB74)
  (descr "Resistor SMD 0815 (2038 Metric), square (rectangular) end terminal, IPC_7351 nominal with elongated pad for handsoldering. (Body size source: http://www.yageo.com/documents/recent/PYu-PRPFPH_521_RoHS_L_0.pdf), generated with kicad-footprint-generator")
  (tags "resistor handsolder")
  (attr smd)
  (fp_text reference REF** (at 0 -2.95) (layer F.SilkS)
    (effects (font (size 1 1) (thickness 0.15)))
  )
  (fp_text value R_0815_2038Metric_Pad1.64x4.00mm_HandSolder (at 0 2.95) (layer F.Fab)
    (effects (font (size 1 1) (thickness 0.15)))
  )
  (fp_line (start -1.075 1.875) (end -1.075 -1.875) (layer F.Fab) (width 0.1))
  (fp_line (start -1.075 -1.875) (end 1.075 -1.875) (layer F.Fab) (width 0.1))
  (fp_line (start 1.075 -1.875) (end 1.075 1.875) (layer F.Fab) (width 0.1))
  (fp_line (start 1.075 1.875) (end -1.075 1.875) (layer F.Fab) (width 0.1))
  (fp_line (start -1.96 2.25) (end -1.96 -2.25) (layer F.CrtYd) (width 0.05))
  (fp_line (start -1.96 -2.25) (end 1.96 -2.25) (layer F.CrtYd) (width 0.05))
  (fp_line (start 1.96 -2.25) (end 1.96 2.25) (layer F.CrtYd) (width 0.05))
  (fp_line (start 1.96 2.25) (end -1.96 2.25) (layer F.CrtYd) (width 0.05))
  (pad 1 smd rect (at -0.8875 0) (size 1.635 4) (layers F.Cu F.Mask F.Paste))
  (pad 2 smd rect (at 0.8875 0) (size 1.635 4) (layers F.Cu F.Mask F.Paste))
  (fp_text user %R (at 0 0) (layer F.Fab)
    (effects (font (size 0.54 0.54) (thickness 0.08)))
  )
  (model ${KIPRJMOD}/kicad_libs_k/models_k.3d/Resistor_SMD_k.3dshapes/R_0815_2038Metric_k.wrl
    (at (xyz 0 0 0))
    (scale (xyz 1 1 1))
    (rotate (xyz 0 0 0))
  )
)