(module R_0805_2012Metric_Pad1.29x1.40mm_HandSolder (layer F.Cu) (tedit 5AC5DB74)
  (descr "Resistor SMD 0805 (2012 Metric), square (rectangular) end terminal, IPC_7351 nominal with elongated pad for handsoldering. (Body size source: http://www.tortai-tech.com/upload/download/2011102023233369053.pdf), generated with kicad-footprint-generator")
  (tags "resistor handsolder")
  (attr smd)
  (fp_text reference REF** (at 0 -1.65) (layer F.SilkS)
    (effects (font (size 1 1) (thickness 0.15)))
  )
  (fp_text value R_0805_2012Metric_Pad1.29x1.40mm_HandSolder (at 0 1.65) (layer F.Fab)
    (effects (font (size 1 1) (thickness 0.15)))
  )
  (fp_line (start -1 0.6) (end -1 -0.6) (layer F.Fab) (width 0.1))
  (fp_line (start -1 -0.6) (end 1 -0.6) (layer F.Fab) (width 0.1))
  (fp_line (start 1 -0.6) (end 1 0.6) (layer F.Fab) (width 0.1))
  (fp_line (start 1 0.6) (end -1 0.6) (layer F.Fab) (width 0.1))
  (fp_line (start -1.86 0.95) (end -1.86 -0.95) (layer F.CrtYd) (width 0.05))
  (fp_line (start -1.86 -0.95) (end 1.86 -0.95) (layer F.CrtYd) (width 0.05))
  (fp_line (start 1.86 -0.95) (end 1.86 0.95) (layer F.CrtYd) (width 0.05))
  (fp_line (start 1.86 0.95) (end -1.86 0.95) (layer F.CrtYd) (width 0.05))
  (pad 1 smd rect (at -0.9675 0) (size 1.295 1.4) (layers F.Cu F.Mask F.Paste))
  (pad 2 smd rect (at 0.9675 0) (size 1.295 1.4) (layers F.Cu F.Mask F.Paste))
  (fp_text user %R (at 0 0) (layer F.Fab)
    (effects (font (size 0.5 0.5) (thickness 0.08)))
  )
  (model ${KIPRJMOD}/kicad_libs_k/models_k.3d/Resistor_SMD_k.3dshapes/R_0805_2012Metric_k.wrl
    (at (xyz 0 0 0))
    (scale (xyz 1 1 1))
    (rotate (xyz 0 0 0))
  )
)