(module R_1020_2550Metric (layer F.Cu) (tedit 5B301BBD)
  (descr "Resistor SMD 1020 (2550 Metric), square (rectangular) end terminal, IPC_7351 nominal, (Body size source: https://www.vishay.com/docs/20019/rcwe.pdf), generated with kicad-footprint-generator")
  (tags resistor)
  (attr smd)
  (fp_text reference REF** (at 0 -3.55) (layer F.SilkS)
    (effects (font (size 1 1) (thickness 0.15)))
  )
  (fp_text value R_1020_2550Metric (at 0 3.55) (layer F.Fab)
    (effects (font (size 1 1) (thickness 0.15)))
  )
  (fp_line (start -1.25 2.5) (end -1.25 -2.5) (layer F.Fab) (width 0.1))
  (fp_line (start -1.25 -2.5) (end 1.25 -2.5) (layer F.Fab) (width 0.1))
  (fp_line (start 1.25 -2.5) (end 1.25 2.5) (layer F.Fab) (width 0.1))
  (fp_line (start 1.25 2.5) (end -1.25 2.5) (layer F.Fab) (width 0.1))
  (fp_line (start -0.361252 -2.61) (end 0.361252 -2.61) (layer F.SilkS) (width 0.12))
  (fp_line (start -0.361252 2.61) (end 0.361252 2.61) (layer F.SilkS) (width 0.12))
  (fp_line (start -1.95 2.85) (end -1.95 -2.85) (layer F.CrtYd) (width 0.05))
  (fp_line (start -1.95 -2.85) (end 1.95 -2.85) (layer F.CrtYd) (width 0.05))
  (fp_line (start 1.95 -2.85) (end 1.95 2.85) (layer F.CrtYd) (width 0.05))
  (fp_line (start 1.95 2.85) (end -1.95 2.85) (layer F.CrtYd) (width 0.05))
  (pad 1 smd roundrect (at -1.125 0) (size 1.15 5.2) (layers F.Cu F.Mask F.Paste) (roundrect_rratio 0.217391))
  (pad 2 smd roundrect (at 1.125 0) (size 1.15 5.2) (layers F.Cu F.Mask F.Paste) (roundrect_rratio 0.217391))
  (fp_text user %R (at 0 0) (layer F.Fab)
    (effects (font (size 0.62 0.62) (thickness 0.09)))
  )
  (model ${KIPRJMOD}/kicad_libs_k/models_k.3d/Resistor_SMD_k.3dshapes/R_1020_2550Metric_k.wrl
    (at (xyz 0 0 0))
    (scale (xyz 1 1 1))
    (rotate (xyz 0 0 0))
  )
)