(module R_Array_Convex_5x0603 (layer F.Cu) (tedit 58E0A8CD)
  (descr "Chip Resistor Network, ROHM MNR15 (see mnr_g.pdf)")
  (tags "resistor array")
  (attr smd)
  (fp_text reference REF** (at 0 -2.8) (layer F.SilkS)
    (effects (font (size 1 1) (thickness 0.15)))
  )
  (fp_text value R_Array_Convex_5x0603 (at 0 2.8) (layer F.Fab)
    (effects (font (size 1 1) (thickness 0.15)))
  )
  (fp_text user %R (at 0 0 90) (layer F.Fab)
    (effects (font (size 0.5 0.5) (thickness 0.075)))
  )
  (fp_line (start -0.8 -1.7) (end -0.8 1.7) (layer F.Fab) (width 0.1))
  (fp_line (start -0.8 1.7) (end 0.8 1.7) (layer F.Fab) (width 0.1))
  (fp_line (start 0.8 1.7) (end 0.8 -1.7) (layer F.Fab) (width 0.1))
  (fp_line (start 0.8 -1.7) (end -0.8 -1.7) (layer F.Fab) (width 0.1))
  (fp_line (start 0.53 -1.82) (end -0.53 -1.82) (layer F.SilkS) (width 0.12))
  (fp_line (start 0.53 1.82) (end -0.53 1.82) (layer F.SilkS) (width 0.12))
  (fp_line (start -1.55 -1.95) (end 1.55 -1.95) (layer F.CrtYd) (width 0.05))
  (fp_line (start -1.55 -1.95) (end -1.55 1.95) (layer F.CrtYd) (width 0.05))
  (fp_line (start 1.55 1.95) (end 1.55 -1.95) (layer F.CrtYd) (width 0.05))
  (fp_line (start 1.55 1.95) (end -1.55 1.95) (layer F.CrtYd) (width 0.05))
  (pad 1 smd rect (at -0.9 -1.36) (size 0.8 0.48) (layers F.Cu F.Paste F.Mask))
  (pad 2 smd rect (at -0.9 -0.64) (size 0.8 0.32) (layers F.Cu F.Paste F.Mask))
  (pad 5 smd rect (at -0.9 1.36) (size 0.8 0.48) (layers F.Cu F.Paste F.Mask))
  (pad 4 smd rect (at -0.9 0.64) (size 0.8 0.32) (layers F.Cu F.Paste F.Mask))
  (pad 3 smd rect (at -0.9 0) (size 0.8 0.32) (layers F.Cu F.Paste F.Mask))
  (pad 7 smd rect (at 0.9 0.64) (size 0.8 0.32) (layers F.Cu F.Paste F.Mask))
  (pad 10 smd rect (at 0.9 -1.36) (size 0.8 0.48) (layers F.Cu F.Paste F.Mask))
  (pad 9 smd rect (at 0.9 -0.64) (size 0.8 0.32) (layers F.Cu F.Paste F.Mask))
  (pad 6 smd rect (at 0.9 1.36) (size 0.8 0.48) (layers F.Cu F.Paste F.Mask))
  (pad 8 smd rect (at 0.9 0) (size 0.8 0.32) (layers F.Cu F.Paste F.Mask))
  (model ${KIPRJMOD}/kicad_libs_k/models_k.3d/Resistor_SMD_k.3dshapes/R_Array_Convex_5x0603_k.wrl
    (at (xyz 0 0 0))
    (scale (xyz 1 1 1))
    (rotate (xyz 0 0 0))
  )
)
