(module R_Array_Convex_2x0402 (layer F.Cu) (tedit 58E0A89B)
  (descr "Chip Resistor Network, ROHM MNR02 (see mnr_g.pdf)")
  (tags "resistor array")
  (attr smd)
  (fp_text reference REF** (at 0 -1.75) (layer F.SilkS)
    (effects (font (size 1 1) (thickness 0.15)))
  )
  (fp_text value R_Array_Convex_2x0402 (at 0 1.8) (layer F.Fab)
    (effects (font (size 1 1) (thickness 0.15)))
  )
  (fp_text user %R (at 0 -1.75) (layer F.Fab)
    (effects (font (size 1 1) (thickness 0.15)))
  )
  (fp_line (start 0.5 0.7) (end 0.5 -0.7) (layer F.Fab) (width 0.1))
  (fp_line (start 0.5 -0.7) (end -0.5 -0.7) (layer F.Fab) (width 0.1))
  (fp_line (start -0.5 -0.7) (end -0.5 0.7) (layer F.Fab) (width 0.1))
  (fp_line (start -0.5 0.7) (end 0.5 0.7) (layer F.Fab) (width 0.1))
  (fp_line (start 0.25 0.78) (end -0.25 0.78) (layer F.SilkS) (width 0.12))
  (fp_line (start 0.25 -0.78) (end -0.25 -0.78) (layer F.SilkS) (width 0.12))
  (fp_line (start -1 -0.95) (end 1 -0.95) (layer F.CrtYd) (width 0.05))
  (fp_line (start -1 -0.95) (end -1 0.95) (layer F.CrtYd) (width 0.05))
  (fp_line (start 1 0.95) (end 1 -0.95) (layer F.CrtYd) (width 0.05))
  (fp_line (start 1 0.95) (end -1 0.95) (layer F.CrtYd) (width 0.05))
  (pad 1 smd rect (at -0.5 -0.35) (size 0.5 0.4) (layers F.Cu F.Paste F.Mask))
  (pad 2 smd rect (at -0.5 0.35) (size 0.5 0.4) (layers F.Cu F.Paste F.Mask))
  (pad 3 smd rect (at 0.5 0.35) (size 0.5 0.4) (layers F.Cu F.Paste F.Mask))
  (pad 4 smd rect (at 0.5 -0.35) (size 0.5 0.4) (layers F.Cu F.Paste F.Mask))
  (model ${KIPRJMOD}/kicad_libs_k/models_k.3d/Resistor_SMD_k.3dshapes/R_Array_Convex_2x0402_k.wrl
    (at (xyz 0 0 0))
    (scale (xyz 1 1 1))
    (rotate (xyz 0 0 0))
  )
)
