(module R_Array_Convex_2x0603 (layer F.Cu) (tedit 58E0A873)
  (descr "Chip Resistor Network, ROHM MNR12 (see mnr_g.pdf)")
  (tags "resistor array")
  (attr smd)
  (fp_text reference REF** (at 0 -1.75) (layer F.SilkS)
    (effects (font (size 1 1) (thickness 0.15)))
  )
  (fp_text value R_Array_Convex_2x0603 (at 0 2.1) (layer F.Fab)
    (effects (font (size 1 1) (thickness 0.15)))
  )
  (fp_text user %R (at 0 -1.75) (layer F.Fab)
    (effects (font (size 1 1) (thickness 0.15)))
  )
  (fp_line (start -0.8 -0.8) (end 0.8 -0.8) (layer F.Fab) (width 0.1))
  (fp_line (start 0.8 -0.8) (end 0.8 0.8) (layer F.Fab) (width 0.1))
  (fp_line (start 0.8 0.8) (end -0.8 0.8) (layer F.Fab) (width 0.1))
  (fp_line (start -0.8 0.8) (end -0.8 -0.8) (layer F.Fab) (width 0.1))
  (fp_line (start 0.5 0.97) (end -0.5 0.97) (layer F.SilkS) (width 0.12))
  (fp_line (start 0.5 -0.97) (end -0.5 -0.97) (layer F.SilkS) (width 0.12))
  (fp_line (start -1.55 -1.05) (end 1.55 -1.05) (layer F.CrtYd) (width 0.05))
  (fp_line (start -1.55 -1.05) (end -1.55 1.05) (layer F.CrtYd) (width 0.05))
  (fp_line (start 1.55 1.05) (end 1.55 -1.05) (layer F.CrtYd) (width 0.05))
  (fp_line (start 1.55 1.05) (end -1.55 1.05) (layer F.CrtYd) (width 0.05))
  (pad 1 smd rect (at -0.9 -0.5) (size 0.8 0.5) (layers F.Cu F.Paste F.Mask))
  (pad 2 smd rect (at -0.9 0.5) (size 0.8 0.5) (layers F.Cu F.Paste F.Mask))
  (pad 3 smd rect (at 0.9 0.5) (size 0.8 0.5) (layers F.Cu F.Paste F.Mask))
  (pad 4 smd rect (at 0.9 -0.5) (size 0.8 0.5) (layers F.Cu F.Paste F.Mask))
  (model ${KIPRJMOD}/kicad_libs_k/models_k.3d/Resistor_SMD_k.3dshapes/R_Array_Convex_2x0603_k.wrl
    (at (xyz 0 0 0))
    (scale (xyz 1 1 1))
    (rotate (xyz 0 0 0))
  )
)
