(module Sensor_Hall_AH1806_SIP3_P_1.27_k (layer F.Cu) (tedit 6076B866)
  (descr "HIGH SENSITIVITY MICROPOWER OMNIPOLAR HALL-EFFECT SWITCH")
  (tags "Hall Sensor")
  (fp_text reference REF** (at 0.254 -1.778) (layer F.SilkS)
    (effects (font (size 1 1) (thickness 0.15)))
  )
  (fp_text value AH1806 (at 5.588 -1.778) (layer F.Fab)
    (effects (font (size 1 1) (thickness 0.15)))
  )
  (fp_line (start -1.778 -0.889) (end -1.778 0) (layer F.SilkS) (width 0.12))
  (fp_line (start 4.318 -0.889) (end -1.778 -0.889) (layer F.SilkS) (width 0.12))
  (fp_line (start 4.318 0) (end 4.318 -0.889) (layer F.SilkS) (width 0.12))
  (fp_line (start 3.81 1.143) (end 4.318 0) (layer F.SilkS) (width 0.12))
  (fp_line (start -1.27 1.143) (end 3.81 1.143) (layer F.SilkS) (width 0.12))
  (fp_line (start -1.778 0) (end -1.27 1.143) (layer F.SilkS) (width 0.12))
  (fp_line (start 4.572 1.27) (end 4.572 -1.143) (layer F.CrtYd) (width 0.05))
  (fp_line (start -2.032 1.27) (end -2.032 -1.143) (layer F.CrtYd) (width 0.05))
  (fp_line (start 4.572 -1.143) (end -2.032 -1.143) (layer F.CrtYd) (width 0.05))
  (fp_line (start 4.572 1.27) (end -2.032 1.27) (layer F.CrtYd) (width 0.05))
  (pad 2 thru_hole circle (at 1.27 0 180) (size 1.1 1.1) (drill 0.7) (layers *.Cu *.Mask))
  (pad 1 thru_hole rect (at 0 0 270) (size 1 1) (drill 0.7) (layers *.Cu *.Mask))
  (pad 3 thru_hole circle (at 2.54 0 270) (size 1.1 1.1) (drill 0.7) (layers *.Cu *.Mask))
  (model ${KIPRJMOD}/kicad_libs_k/models_k.3d/Sensor_Distance_k.3dshapes/Sensor_Hall_AH1806_SIP-3.STEP
    (offset (xyz 1.27 0 4.7))
    (scale (xyz 1 1 1))
    (rotate (xyz -90 0 0))
  )
)
