(module Sensor_Hall_AH1806_SIP3_P_2.54_k (layer F.Cu) (tedit 6076B845)
  (descr "HIGH SENSITIVITY MICROPOWER OMNIPOLAR HALL-EFFECT SWITCH")
  (tags "Hall Sensor")
  (fp_text reference REF** (at 2.54 2.032) (layer F.SilkS)
    (effects (font (size 1 1) (thickness 0.15)))
  )
  (fp_text value AH1806 (at 2.413 -2.159) (layer F.Fab)
    (effects (font (size 1 1) (thickness 0.15)))
  )
  (fp_line (start -0.508 -0.889) (end -0.508 0) (layer F.SilkS) (width 0.12))
  (fp_line (start 5.588 -0.889) (end -0.508 -0.889) (layer F.SilkS) (width 0.12))
  (fp_line (start 5.588 0) (end 5.588 -0.889) (layer F.SilkS) (width 0.12))
  (fp_line (start 5.08 1.143) (end 5.588 0) (layer F.SilkS) (width 0.12))
  (fp_line (start 0 1.143) (end 5.08 1.143) (layer F.SilkS) (width 0.12))
  (fp_line (start -0.508 0) (end 0 1.143) (layer F.SilkS) (width 0.12))
  (fp_line (start 5.842 1.27) (end 5.842 -1.143) (layer F.CrtYd) (width 0.05))
  (fp_line (start -0.762 1.27) (end -0.762 -1.143) (layer F.CrtYd) (width 0.05))
  (fp_line (start 5.842 -1.143) (end -0.762 -1.143) (layer F.CrtYd) (width 0.05))
  (fp_line (start 5.842 1.27) (end -0.762 1.27) (layer F.CrtYd) (width 0.05))
  (pad 2 thru_hole circle (at 2.54 0 180) (size 1.3 1.3) (drill 0.7) (layers *.Cu *.Mask))
  (pad 1 thru_hole rect (at 0 0 270) (size 1.3 1.3) (drill 0.7) (layers *.Cu *.Mask))
  (pad 3 thru_hole circle (at 5.08 0 270) (size 1.3 1.3) (drill 0.7) (layers *.Cu *.Mask))
  (model ${KIPRJMOD}/kicad_libs_k/models_k.3d/Sensor_Magnetic_k.3dshapes/Sensor_Hall_AH1806_SIP-3.STEP
    (at (xyz 0 0 0))
    (scale (xyz 1 1 1))
    (rotate (xyz 0 0 0))
  )
  (model ${KIPRJMOD}/kicad_libs_k/models_k.3d/Sensor_Distance_k.3dshapes/Sensor_Hall_AH1806_SIP-3.STEP
    (offset (xyz 2.54 0 4.7))
    (scale (xyz 1 1 1))
    (rotate (xyz -90 0 0))
  )
)
