(module DIN41612_B2_2x16_Vertical (layer F.Cu) (tedit 5A35305F)
  (descr "DIN 41612 connector, type B/2, vertical, 16 pins wide, 2 rows, full configuration")
  (tags "DIN 41512 IEC 60603 B/2")
  (fp_text reference REF** (at 1.27 -9.45) (layer F.SilkS)
    (effects (font (size 1 1) (thickness 0.15)))
  )
  (fp_text value DIN41612_B2_2x16_Vertical (at 1.27 47.85) (layer F.Fab)
    (effects (font (size 1 1) (thickness 0.15)))
  )
  (fp_line (start -3.28 -8.95) (end -3.28 47.05) (layer F.CrtYd) (width 0.05))
  (fp_line (start -3.28 47.05) (end 5.82 47.05) (layer F.CrtYd) (width 0.05))
  (fp_line (start 5.82 47.05) (end 5.82 -8.95) (layer F.CrtYd) (width 0.05))
  (fp_line (start 5.82 -8.95) (end -3.28 -8.95) (layer F.CrtYd) (width 0.05))
  (fp_line (start -1.705 -2.15) (end -1.705 -3.15) (layer F.Fab) (width 0.1))
  (fp_line (start -1.705 -3.15) (end 1.245 -3.15) (layer F.Fab) (width 0.1))
  (fp_line (start 1.245 -3.15) (end 1.245 -2.15) (layer F.Fab) (width 0.1))
  (fp_line (start 1.245 -2.15) (end 4.245 -2.15) (layer F.Fab) (width 0.1))
  (fp_line (start 4.245 -2.15) (end 4.245 40.25) (layer F.Fab) (width 0.1))
  (fp_line (start 4.245 40.25) (end 1.245 40.25) (layer F.Fab) (width 0.1))
  (fp_line (start 1.245 40.25) (end 1.245 41.25) (layer F.Fab) (width 0.1))
  (fp_line (start 1.245 41.25) (end -1.705 41.25) (layer F.Fab) (width 0.1))
  (fp_line (start -1.705 41.25) (end -1.705 40.25) (layer F.Fab) (width 0.1))
  (fp_line (start -1.705 40.25) (end -1.705 -2.15) (layer F.Fab) (width 0.1))
  (fp_line (start -2.98 0) (end -3.58 -0.3) (layer F.Fab) (width 0.12))
  (fp_line (start -3.58 -0.3) (end -3.58 0.3) (layer F.Fab) (width 0.12))
  (fp_line (start -3.58 0.3) (end -2.98 0) (layer F.Fab) (width 0.12))
  (fp_line (start -2.88 -8.55) (end -2.88 46.65) (layer F.SilkS) (width 0.15))
  (fp_line (start -2.88 46.65) (end 5.42 46.65) (layer F.SilkS) (width 0.15))
  (fp_line (start 5.42 46.65) (end 5.42 -8.55) (layer F.SilkS) (width 0.15))
  (fp_line (start 5.42 -8.55) (end -2.88 -8.55) (layer F.SilkS) (width 0.15))
  (fp_line (start -1.705 -2.15) (end -1.705 -3.15) (layer F.SilkS) (width 0.15))
  (fp_line (start -1.705 -3.15) (end 1.245 -3.15) (layer F.SilkS) (width 0.15))
  (fp_line (start 1.245 -3.15) (end 1.245 -2.15) (layer F.SilkS) (width 0.15))
  (fp_line (start 1.245 -2.15) (end 4.245 -2.15) (layer F.SilkS) (width 0.15))
  (fp_line (start 4.245 40.25) (end 1.245 40.25) (layer F.SilkS) (width 0.15))
  (fp_line (start 1.245 40.25) (end 1.245 41.25) (layer F.SilkS) (width 0.15))
  (fp_line (start 1.245 41.25) (end -1.705 41.25) (layer F.SilkS) (width 0.15))
  (fp_line (start -1.705 41.25) (end -1.705 40.25) (layer F.SilkS) (width 0.15))
  (fp_line (start -2.98 0) (end -3.58 -0.3) (layer F.SilkS) (width 0.12))
  (fp_line (start -3.58 -0.3) (end -3.58 0.3) (layer F.SilkS) (width 0.12))
  (fp_line (start -3.58 0.3) (end -2.98 0) (layer F.SilkS) (width 0.12))
  (pad A1 thru_hole rect (at 0 0) (size 1.7 1.7) (drill 1) (layers *.Cu *.Mask))
  (pad B1 thru_hole circle (at 2.54 0) (size 1.7 1.7) (drill 1) (layers *.Cu *.Mask))
  (pad A2 thru_hole circle (at 0 2.54) (size 1.7 1.7) (drill 1) (layers *.Cu *.Mask))
  (pad B2 thru_hole circle (at 2.54 2.54) (size 1.7 1.7) (drill 1) (layers *.Cu *.Mask))
  (pad A3 thru_hole circle (at 0 5.08) (size 1.7 1.7) (drill 1) (layers *.Cu *.Mask))
  (pad B3 thru_hole circle (at 2.54 5.08) (size 1.7 1.7) (drill 1) (layers *.Cu *.Mask))
  (pad A4 thru_hole circle (at 0 7.62) (size 1.7 1.7) (drill 1) (layers *.Cu *.Mask))
  (pad B4 thru_hole circle (at 2.54 7.62) (size 1.7 1.7) (drill 1) (layers *.Cu *.Mask))
  (pad A5 thru_hole circle (at 0 10.16) (size 1.7 1.7) (drill 1) (layers *.Cu *.Mask))
  (pad B5 thru_hole circle (at 2.54 10.16) (size 1.7 1.7) (drill 1) (layers *.Cu *.Mask))
  (pad A6 thru_hole circle (at 0 12.7) (size 1.7 1.7) (drill 1) (layers *.Cu *.Mask))
  (pad B6 thru_hole circle (at 2.54 12.7) (size 1.7 1.7) (drill 1) (layers *.Cu *.Mask))
  (pad A7 thru_hole circle (at 0 15.24) (size 1.7 1.7) (drill 1) (layers *.Cu *.Mask))
  (pad B7 thru_hole circle (at 2.54 15.24) (size 1.7 1.7) (drill 1) (layers *.Cu *.Mask))
  (pad A8 thru_hole circle (at 0 17.78) (size 1.7 1.7) (drill 1) (layers *.Cu *.Mask))
  (pad B8 thru_hole circle (at 2.54 17.78) (size 1.7 1.7) (drill 1) (layers *.Cu *.Mask))
  (pad A9 thru_hole circle (at 0 20.32) (size 1.7 1.7) (drill 1) (layers *.Cu *.Mask))
  (pad B9 thru_hole circle (at 2.54 20.32) (size 1.7 1.7) (drill 1) (layers *.Cu *.Mask))
  (pad A10 thru_hole circle (at 0 22.86) (size 1.7 1.7) (drill 1) (layers *.Cu *.Mask))
  (pad B10 thru_hole circle (at 2.54 22.86) (size 1.7 1.7) (drill 1) (layers *.Cu *.Mask))
  (pad A11 thru_hole circle (at 0 25.4) (size 1.7 1.7) (drill 1) (layers *.Cu *.Mask))
  (pad B11 thru_hole circle (at 2.54 25.4) (size 1.7 1.7) (drill 1) (layers *.Cu *.Mask))
  (pad A12 thru_hole circle (at 0 27.94) (size 1.7 1.7) (drill 1) (layers *.Cu *.Mask))
  (pad B12 thru_hole circle (at 2.54 27.94) (size 1.7 1.7) (drill 1) (layers *.Cu *.Mask))
  (pad A13 thru_hole circle (at 0 30.48) (size 1.7 1.7) (drill 1) (layers *.Cu *.Mask))
  (pad B13 thru_hole circle (at 2.54 30.48) (size 1.7 1.7) (drill 1) (layers *.Cu *.Mask))
  (pad A14 thru_hole circle (at 0 33.02) (size 1.7 1.7) (drill 1) (layers *.Cu *.Mask))
  (pad B14 thru_hole circle (at 2.54 33.02) (size 1.7 1.7) (drill 1) (layers *.Cu *.Mask))
  (pad A15 thru_hole circle (at 0 35.56) (size 1.7 1.7) (drill 1) (layers *.Cu *.Mask))
  (pad B15 thru_hole circle (at 2.54 35.56) (size 1.7 1.7) (drill 1) (layers *.Cu *.Mask))
  (pad A16 thru_hole circle (at 0 38.1) (size 1.7 1.7) (drill 1) (layers *.Cu *.Mask))
  (pad B16 thru_hole circle (at 2.54 38.1) (size 1.7 1.7) (drill 1) (layers *.Cu *.Mask))
  (pad "" np_thru_hole circle (at 2.24 -5.95) (size 2.8 2.8) (drill 2.8) (layers *.Cu *.Mask))
  (pad "" np_thru_hole circle (at 2.24 44.05) (size 2.8 2.8) (drill 2.8) (layers *.Cu *.Mask))
  (fp_text user %R (at 1.27 19.05) (layer F.Fab)
    (effects (font (size 0.6 0.6) (thickness 0.07)))
  )
  (model ${KIPRJMOD}/kicad_libs_k/models_k.3d/Connector_DIN_k.3dshapes/DIN41612_B2_2x16_Vertical_k.wrl
    (at (xyz 0 0 0))
    (scale (xyz 1 1 1))
    (rotate (xyz 0 0 0))
  )
)