(module DIN41612_B_2x16_Horizontal (layer F.Cu) (tedit 5A9BA504)
  (descr "DIN 41612 connector, type B, horizontal, 16 pins wide, 2 rows, even columns")
  (tags "DIN 41512 IEC 60603 B")
  (fp_text reference REF** (at -5.08 1.27) (layer F.SilkS)
    (effects (font (size 1 1) (thickness 0.15)))
  )
  (fp_text value DIN41612_B_2x16_Horizontal (at 39.37 6.36) (layer F.Fab)
    (effects (font (size 1 1) (thickness 0.15)))
  )
  (fp_line (start -2.53 -0.44) (end -2.53 0.06) (layer F.SilkS) (width 0.15))
  (fp_line (start -2.53 0.06) (end -7.73 0.06) (layer F.SilkS) (width 0.15))
  (fp_line (start -7.73 0.06) (end -7.73 -5.04) (layer F.SilkS) (width 0.15))
  (fp_line (start 81.27 -0.44) (end 81.27 0.06) (layer F.SilkS) (width 0.15))
  (fp_line (start 81.27 0.06) (end 86.47 0.06) (layer F.SilkS) (width 0.15))
  (fp_line (start 86.47 0.06) (end 86.47 -5.04) (layer F.SilkS) (width 0.15))
  (fp_line (start -1.35 0) (end -1.95 -0.3) (layer F.SilkS) (width 0.12))
  (fp_line (start -1.95 -0.3) (end -1.95 0.3) (layer F.SilkS) (width 0.12))
  (fp_line (start -1.95 0.3) (end -1.35 0) (layer F.SilkS) (width 0.12))
  (fp_line (start -2.63 -0.54) (end -2.63 -0.04) (layer F.Fab) (width 0.1))
  (fp_line (start -2.63 -0.04) (end -7.63 -0.04) (layer F.Fab) (width 0.1))
  (fp_line (start -7.63 -0.04) (end -7.63 -5.04) (layer F.Fab) (width 0.1))
  (fp_line (start -7.63 -5.04) (end -4.38 -5.04) (layer F.Fab) (width 0.1))
  (fp_line (start -4.38 -5.04) (end -4.38 -12.74) (layer F.Fab) (width 0.1))
  (fp_line (start -4.38 -12.74) (end 83.12 -12.74) (layer F.Fab) (width 0.1))
  (fp_line (start 83.12 -12.74) (end 83.12 -5.04) (layer F.Fab) (width 0.1))
  (fp_line (start 83.12 -5.04) (end 86.37 -5.04) (layer F.Fab) (width 0.1))
  (fp_line (start 86.37 -5.04) (end 86.37 -0.04) (layer F.Fab) (width 0.1))
  (fp_line (start 86.37 -0.04) (end 81.37 -0.04) (layer F.Fab) (width 0.1))
  (fp_line (start 81.37 -0.04) (end 81.37 -0.54) (layer F.Fab) (width 0.1))
  (fp_line (start 81.37 -0.54) (end -2.63 -0.54) (layer F.Fab) (width 0.1))
  (fp_line (start -1.35 3.89) (end -1.35 0.46) (layer F.CrtYd) (width 0.05))
  (fp_line (start -1.35 0.46) (end -8.13 0.46) (layer F.CrtYd) (width 0.05))
  (fp_line (start -8.13 0.46) (end -8.13 -5.54) (layer F.CrtYd) (width 0.05))
  (fp_line (start -8.13 -5.54) (end -4.88 -5.54) (layer F.CrtYd) (width 0.05))
  (fp_line (start -4.88 -5.54) (end -4.88 -13.24) (layer F.CrtYd) (width 0.05))
  (fp_line (start -4.88 -13.24) (end 83.62 -13.24) (layer F.CrtYd) (width 0.05))
  (fp_line (start 83.62 -13.24) (end 83.62 -5.54) (layer F.CrtYd) (width 0.05))
  (fp_line (start 83.62 -5.54) (end 86.87 -5.54) (layer F.CrtYd) (width 0.05))
  (fp_line (start 86.87 -5.54) (end 86.87 0.46) (layer F.CrtYd) (width 0.05))
  (fp_line (start 86.87 0.46) (end 80.87 0.46) (layer F.CrtYd) (width 0.05))
  (fp_line (start 80.87 0.46) (end 80.09 0.46) (layer F.CrtYd) (width 0.05))
  (fp_line (start 80.09 0.46) (end 80.09 3.89) (layer F.CrtYd) (width 0.05))
  (fp_line (start 80.09 3.89) (end -1.35 3.89) (layer F.CrtYd) (width 0.05))
  (fp_line (start -4.38 -5.3) (end 83.12 -5.3) (layer Dwgs.User) (width 0.08))
  (fp_line (start 39.37 -6.8) (end 39.37 -5.4) (layer Cmts.User) (width 0.1))
  (fp_line (start 39.17 -5.9) (end 39.37 -5.4) (layer Cmts.User) (width 0.1))
  (fp_line (start 39.37 -5.4) (end 39.57 -5.9) (layer Cmts.User) (width 0.1))
  (fp_text user %R (at 39.37 -2.54) (layer F.Fab)
    (effects (font (size 1 1) (thickness 0.15)))
  )
  (fp_text user "Board edge" (at 39.37 -7.3) (layer Cmts.User)
    (effects (font (size 0.7 0.7) (thickness 0.1)))
  )
  (pad A2 thru_hole rect (at 2.54 0) (size 1.7 1.7) (drill 1) (layers *.Cu *.Mask))
  (pad B2 thru_hole circle (at 2.54 2.54) (size 1.7 1.7) (drill 1) (layers *.Cu *.Mask))
  (pad A4 thru_hole circle (at 7.62 0) (size 1.7 1.7) (drill 1) (layers *.Cu *.Mask))
  (pad B4 thru_hole circle (at 7.62 2.54) (size 1.7 1.7) (drill 1) (layers *.Cu *.Mask))
  (pad A6 thru_hole circle (at 12.7 0) (size 1.7 1.7) (drill 1) (layers *.Cu *.Mask))
  (pad B6 thru_hole circle (at 12.7 2.54) (size 1.7 1.7) (drill 1) (layers *.Cu *.Mask))
  (pad A8 thru_hole circle (at 17.78 0) (size 1.7 1.7) (drill 1) (layers *.Cu *.Mask))
  (pad B8 thru_hole circle (at 17.78 2.54) (size 1.7 1.7) (drill 1) (layers *.Cu *.Mask))
  (pad A10 thru_hole circle (at 22.86 0) (size 1.7 1.7) (drill 1) (layers *.Cu *.Mask))
  (pad B10 thru_hole circle (at 22.86 2.54) (size 1.7 1.7) (drill 1) (layers *.Cu *.Mask))
  (pad A12 thru_hole circle (at 27.94 0) (size 1.7 1.7) (drill 1) (layers *.Cu *.Mask))
  (pad B12 thru_hole circle (at 27.94 2.54) (size 1.7 1.7) (drill 1) (layers *.Cu *.Mask))
  (pad A14 thru_hole circle (at 33.02 0) (size 1.7 1.7) (drill 1) (layers *.Cu *.Mask))
  (pad B14 thru_hole circle (at 33.02 2.54) (size 1.7 1.7) (drill 1) (layers *.Cu *.Mask))
  (pad A16 thru_hole circle (at 38.1 0) (size 1.7 1.7) (drill 1) (layers *.Cu *.Mask))
  (pad B16 thru_hole circle (at 38.1 2.54) (size 1.7 1.7) (drill 1) (layers *.Cu *.Mask))
  (pad A18 thru_hole circle (at 43.18 0) (size 1.7 1.7) (drill 1) (layers *.Cu *.Mask))
  (pad B18 thru_hole circle (at 43.18 2.54) (size 1.7 1.7) (drill 1) (layers *.Cu *.Mask))
  (pad A20 thru_hole circle (at 48.26 0) (size 1.7 1.7) (drill 1) (layers *.Cu *.Mask))
  (pad B20 thru_hole circle (at 48.26 2.54) (size 1.7 1.7) (drill 1) (layers *.Cu *.Mask))
  (pad A22 thru_hole circle (at 53.34 0) (size 1.7 1.7) (drill 1) (layers *.Cu *.Mask))
  (pad B22 thru_hole circle (at 53.34 2.54) (size 1.7 1.7) (drill 1) (layers *.Cu *.Mask))
  (pad A24 thru_hole circle (at 58.42 0) (size 1.7 1.7) (drill 1) (layers *.Cu *.Mask))
  (pad B24 thru_hole circle (at 58.42 2.54) (size 1.7 1.7) (drill 1) (layers *.Cu *.Mask))
  (pad A26 thru_hole circle (at 63.5 0) (size 1.7 1.7) (drill 1) (layers *.Cu *.Mask))
  (pad B26 thru_hole circle (at 63.5 2.54) (size 1.7 1.7) (drill 1) (layers *.Cu *.Mask))
  (pad A28 thru_hole circle (at 68.58 0) (size 1.7 1.7) (drill 1) (layers *.Cu *.Mask))
  (pad B28 thru_hole circle (at 68.58 2.54) (size 1.7 1.7) (drill 1) (layers *.Cu *.Mask))
  (pad A30 thru_hole circle (at 73.66 0) (size 1.7 1.7) (drill 1) (layers *.Cu *.Mask))
  (pad B30 thru_hole circle (at 73.66 2.54) (size 1.7 1.7) (drill 1) (layers *.Cu *.Mask))
  (pad A32 thru_hole circle (at 78.74 0) (size 1.7 1.7) (drill 1) (layers *.Cu *.Mask))
  (pad B32 thru_hole circle (at 78.74 2.54) (size 1.7 1.7) (drill 1) (layers *.Cu *.Mask))
  (pad "" np_thru_hole circle (at -5.08 -2.54) (size 2.8 2.8) (drill 2.8) (layers *.Cu *.Mask))
  (pad "" np_thru_hole circle (at 83.82 -2.54) (size 2.8 2.8) (drill 2.8) (layers *.Cu *.Mask))
  (model ${KIPRJMOD}/kicad_libs_k/models_k.3d/Connector_DIN_k.3dshapes/DIN41612_B_2x16_Horizontal_k.wrl
    (at (xyz 0 0 0))
    (scale (xyz 1 1 1))
    (rotate (xyz 0 0 0))
  )
)
