(module DIN41612_B3_2x10_Vertical (layer F.Cu) (tedit 5A35305F)
  (descr "DIN 41612 connector, type B/3, vertical, 10 pins wide, 2 rows, full configuration")
  (tags "DIN 41512 IEC 60603 B/3")
  (fp_text reference REF** (at 1.27 -9.45) (layer F.SilkS)
    (effects (font (size 1 1) (thickness 0.15)))
  )
  (fp_text value DIN41612_B3_2x10_Vertical (at 1.27 32.61) (layer F.Fab)
    (effects (font (size 1 1) (thickness 0.15)))
  )
  (fp_line (start -3.28 -8.95) (end -3.28 31.81) (layer F.CrtYd) (width 0.05))
  (fp_line (start -3.28 31.81) (end 5.82 31.81) (layer F.CrtYd) (width 0.05))
  (fp_line (start 5.82 31.81) (end 5.82 -8.95) (layer F.CrtYd) (width 0.05))
  (fp_line (start 5.82 -8.95) (end -3.28 -8.95) (layer F.CrtYd) (width 0.05))
  (fp_line (start -1.705 -2.12) (end -1.705 -3.12) (layer F.Fab) (width 0.1))
  (fp_line (start -1.705 -3.12) (end 1.245 -3.12) (layer F.Fab) (width 0.1))
  (fp_line (start 1.245 -3.12) (end 1.245 -2.12) (layer F.Fab) (width 0.1))
  (fp_line (start 1.245 -2.12) (end 4.245 -2.12) (layer F.Fab) (width 0.1))
  (fp_line (start 4.245 -2.12) (end 4.245 24.98) (layer F.Fab) (width 0.1))
  (fp_line (start 4.245 24.98) (end 1.245 24.98) (layer F.Fab) (width 0.1))
  (fp_line (start 1.245 24.98) (end 1.245 25.98) (layer F.Fab) (width 0.1))
  (fp_line (start 1.245 25.98) (end -1.705 25.98) (layer F.Fab) (width 0.1))
  (fp_line (start -1.705 25.98) (end -1.705 24.98) (layer F.Fab) (width 0.1))
  (fp_line (start -1.705 24.98) (end -1.705 -2.12) (layer F.Fab) (width 0.1))
  (fp_line (start -2.98 0) (end -3.58 -0.3) (layer F.Fab) (width 0.12))
  (fp_line (start -3.58 -0.3) (end -3.58 0.3) (layer F.Fab) (width 0.12))
  (fp_line (start -3.58 0.3) (end -2.98 0) (layer F.Fab) (width 0.12))
  (fp_line (start -2.88 -8.55) (end -2.88 31.41) (layer F.SilkS) (width 0.15))
  (fp_line (start -2.88 31.41) (end 5.42 31.41) (layer F.SilkS) (width 0.15))
  (fp_line (start 5.42 31.41) (end 5.42 -8.55) (layer F.SilkS) (width 0.15))
  (fp_line (start 5.42 -8.55) (end -2.88 -8.55) (layer F.SilkS) (width 0.15))
  (fp_line (start -1.705 -2.12) (end -1.705 -3.12) (layer F.SilkS) (width 0.15))
  (fp_line (start -1.705 -3.12) (end 1.245 -3.12) (layer F.SilkS) (width 0.15))
  (fp_line (start 1.245 -3.12) (end 1.245 -2.12) (layer F.SilkS) (width 0.15))
  (fp_line (start 1.245 -2.12) (end 4.245 -2.12) (layer F.SilkS) (width 0.15))
  (fp_line (start 4.245 24.98) (end 1.245 24.98) (layer F.SilkS) (width 0.15))
  (fp_line (start 1.245 24.98) (end 1.245 25.98) (layer F.SilkS) (width 0.15))
  (fp_line (start 1.245 25.98) (end -1.705 25.98) (layer F.SilkS) (width 0.15))
  (fp_line (start -1.705 25.98) (end -1.705 24.98) (layer F.SilkS) (width 0.15))
  (fp_line (start -2.98 0) (end -3.58 -0.3) (layer F.SilkS) (width 0.12))
  (fp_line (start -3.58 -0.3) (end -3.58 0.3) (layer F.SilkS) (width 0.12))
  (fp_line (start -3.58 0.3) (end -2.98 0) (layer F.SilkS) (width 0.12))
  (pad A1 thru_hole rect (at 0 0) (size 1.7 1.7) (drill 1) (layers *.Cu *.Mask))
  (pad B1 thru_hole circle (at 2.54 0) (size 1.7 1.7) (drill 1) (layers *.Cu *.Mask))
  (pad A2 thru_hole circle (at 0 2.54) (size 1.7 1.7) (drill 1) (layers *.Cu *.Mask))
  (pad B2 thru_hole circle (at 2.54 2.54) (size 1.7 1.7) (drill 1) (layers *.Cu *.Mask))
  (pad A3 thru_hole circle (at 0 5.08) (size 1.7 1.7) (drill 1) (layers *.Cu *.Mask))
  (pad B3 thru_hole circle (at 2.54 5.08) (size 1.7 1.7) (drill 1) (layers *.Cu *.Mask))
  (pad A4 thru_hole circle (at 0 7.62) (size 1.7 1.7) (drill 1) (layers *.Cu *.Mask))
  (pad B4 thru_hole circle (at 2.54 7.62) (size 1.7 1.7) (drill 1) (layers *.Cu *.Mask))
  (pad A5 thru_hole circle (at 0 10.16) (size 1.7 1.7) (drill 1) (layers *.Cu *.Mask))
  (pad B5 thru_hole circle (at 2.54 10.16) (size 1.7 1.7) (drill 1) (layers *.Cu *.Mask))
  (pad A6 thru_hole circle (at 0 12.7) (size 1.7 1.7) (drill 1) (layers *.Cu *.Mask))
  (pad B6 thru_hole circle (at 2.54 12.7) (size 1.7 1.7) (drill 1) (layers *.Cu *.Mask))
  (pad A7 thru_hole circle (at 0 15.24) (size 1.7 1.7) (drill 1) (layers *.Cu *.Mask))
  (pad B7 thru_hole circle (at 2.54 15.24) (size 1.7 1.7) (drill 1) (layers *.Cu *.Mask))
  (pad A8 thru_hole circle (at 0 17.78) (size 1.7 1.7) (drill 1) (layers *.Cu *.Mask))
  (pad B8 thru_hole circle (at 2.54 17.78) (size 1.7 1.7) (drill 1) (layers *.Cu *.Mask))
  (pad A9 thru_hole circle (at 0 20.32) (size 1.7 1.7) (drill 1) (layers *.Cu *.Mask))
  (pad B9 thru_hole circle (at 2.54 20.32) (size 1.7 1.7) (drill 1) (layers *.Cu *.Mask))
  (pad A10 thru_hole circle (at 0 22.86) (size 1.7 1.7) (drill 1) (layers *.Cu *.Mask))
  (pad B10 thru_hole circle (at 2.54 22.86) (size 1.7 1.7) (drill 1) (layers *.Cu *.Mask))
  (pad "" np_thru_hole circle (at 2.24 -5.95) (size 2.8 2.8) (drill 2.8) (layers *.Cu *.Mask))
  (pad "" np_thru_hole circle (at 2.24 28.81) (size 2.8 2.8) (drill 2.8) (layers *.Cu *.Mask))
  (fp_text user %R (at 1.27 11.43) (layer F.Fab)
    (effects (font (size 0.6 0.6) (thickness 0.07)))
  )
  (model ${KIPRJMOD}/kicad_libs_k/models_k.3d/Connector_DIN_k.3dshapes/DIN41612_B3_2x10_Vertical_k.wrl
    (at (xyz 0 0 0))
    (scale (xyz 1 1 1))
    (rotate (xyz 0 0 0))
  )
)