(module Picostar_1.53x0.77_k (layer F.Cu) (tedit 615EB2A4)
  (fp_text reference REF** (at 0 1.7) (layer F.SilkS)
    (effects (font (size 1 1) (thickness 0.15)))
  )
  (fp_text value Picostar_1.53x0.77_k (at 0 -1.5) (layer F.Fab)
    (effects (font (size 1 1) (thickness 0.15)))
  )
  (fp_line (start -0.4 0.8) (end -0.4 -0.8) (layer F.SilkS) (width 0.1))
  (fp_line (start 0.4 0.8) (end -0.4 0.8) (layer F.SilkS) (width 0.1))
  (fp_line (start 0.4 -0.8) (end 0.4 0.8) (layer F.SilkS) (width 0.1))
  (fp_line (start -0.4 -0.8) (end 0.4 -0.8) (layer F.SilkS) (width 0.1))
  (fp_line (start -0.275 -0.675) (end 0.275 -0.675) (layer F.SilkS) (width 0.12))
  (pad 1 smd oval (at 0 -0.5) (size 0.4 0.16) (layers F.Cu F.Paste F.Mask))
  (pad 2 smd oval (at 0 0) (size 0.4 0.16) (layers F.Cu F.Paste F.Mask))
  (pad 3 smd oval (at 0 0.5) (size 0.4 0.16) (layers F.Cu F.Paste F.Mask))
)
