(module PhoenixContact_GMSTBA_2,5_7-G_1x07_P7.50mm_Horizontal (layer F.Cu) (tedit 5A00FA1F)
  (descr "Generic Phoenix Contact connector footprint for: GMSTBA_2,5/7-G; number of pins: 07; pin pitch: 7.50mm; Angled || order number: 1766398 12A 630V")
  (tags "phoenix_contact connector GMSTBA_01x07_G_7.50mm")
  (fp_text reference REF** (at 22.5 -3) (layer F.SilkS)
    (effects (font (size 1 1) (thickness 0.15)))
  )
  (fp_text value PhoenixContact_GMSTBA_2,5_7-G_1x07_P7.50mm_Horizontal (at 22.5 11) (layer F.Fab)
    (effects (font (size 1 1) (thickness 0.15)))
  )
  (fp_line (start -3.83 -2.08) (end -3.83 10.08) (layer F.SilkS) (width 0.12))
  (fp_line (start -3.83 10.08) (end 48.83 10.08) (layer F.SilkS) (width 0.12))
  (fp_line (start 48.83 10.08) (end 48.83 -2.08) (layer F.SilkS) (width 0.12))
  (fp_line (start 48.83 -2.08) (end -3.83 -2.08) (layer F.SilkS) (width 0.12))
  (fp_line (start -3.75 -2) (end -3.75 10) (layer F.Fab) (width 0.1))
  (fp_line (start -3.75 10) (end 48.75 10) (layer F.Fab) (width 0.1))
  (fp_line (start 48.75 10) (end 48.75 -2) (layer F.Fab) (width 0.1))
  (fp_line (start 48.75 -2) (end -3.75 -2) (layer F.Fab) (width 0.1))
  (fp_line (start -3.83 8.58) (end -3.83 6.78) (layer F.SilkS) (width 0.12))
  (fp_line (start -3.83 6.78) (end 48.83 6.78) (layer F.SilkS) (width 0.12))
  (fp_line (start 48.83 6.78) (end 48.83 8.58) (layer F.SilkS) (width 0.12))
  (fp_line (start 48.83 8.58) (end -3.83 8.58) (layer F.SilkS) (width 0.12))
  (fp_line (start -1 10.08) (end 1 10.08) (layer F.SilkS) (width 0.12))
  (fp_line (start 1 10.08) (end 0.75 8.58) (layer F.SilkS) (width 0.12))
  (fp_line (start 0.75 8.58) (end -0.75 8.58) (layer F.SilkS) (width 0.12))
  (fp_line (start -0.75 8.58) (end -1 10.08) (layer F.SilkS) (width 0.12))
  (fp_line (start 6.5 10.08) (end 8.5 10.08) (layer F.SilkS) (width 0.12))
  (fp_line (start 8.5 10.08) (end 8.25 8.58) (layer F.SilkS) (width 0.12))
  (fp_line (start 8.25 8.58) (end 6.75 8.58) (layer F.SilkS) (width 0.12))
  (fp_line (start 6.75 8.58) (end 6.5 10.08) (layer F.SilkS) (width 0.12))
  (fp_line (start 14 10.08) (end 16 10.08) (layer F.SilkS) (width 0.12))
  (fp_line (start 16 10.08) (end 15.75 8.58) (layer F.SilkS) (width 0.12))
  (fp_line (start 15.75 8.58) (end 14.25 8.58) (layer F.SilkS) (width 0.12))
  (fp_line (start 14.25 8.58) (end 14 10.08) (layer F.SilkS) (width 0.12))
  (fp_line (start 21.5 10.08) (end 23.5 10.08) (layer F.SilkS) (width 0.12))
  (fp_line (start 23.5 10.08) (end 23.25 8.58) (layer F.SilkS) (width 0.12))
  (fp_line (start 23.25 8.58) (end 21.75 8.58) (layer F.SilkS) (width 0.12))
  (fp_line (start 21.75 8.58) (end 21.5 10.08) (layer F.SilkS) (width 0.12))
  (fp_line (start 29 10.08) (end 31 10.08) (layer F.SilkS) (width 0.12))
  (fp_line (start 31 10.08) (end 30.75 8.58) (layer F.SilkS) (width 0.12))
  (fp_line (start 30.75 8.58) (end 29.25 8.58) (layer F.SilkS) (width 0.12))
  (fp_line (start 29.25 8.58) (end 29 10.08) (layer F.SilkS) (width 0.12))
  (fp_line (start 36.5 10.08) (end 38.5 10.08) (layer F.SilkS) (width 0.12))
  (fp_line (start 38.5 10.08) (end 38.25 8.58) (layer F.SilkS) (width 0.12))
  (fp_line (start 38.25 8.58) (end 36.75 8.58) (layer F.SilkS) (width 0.12))
  (fp_line (start 36.75 8.58) (end 36.5 10.08) (layer F.SilkS) (width 0.12))
  (fp_line (start 44 10.08) (end 46 10.08) (layer F.SilkS) (width 0.12))
  (fp_line (start 46 10.08) (end 45.75 8.58) (layer F.SilkS) (width 0.12))
  (fp_line (start 45.75 8.58) (end 44.25 8.58) (layer F.SilkS) (width 0.12))
  (fp_line (start 44.25 8.58) (end 44 10.08) (layer F.SilkS) (width 0.12))
  (fp_line (start -4.25 -2.5) (end -4.25 10.5) (layer F.CrtYd) (width 0.05))
  (fp_line (start -4.25 10.5) (end 49.25 10.5) (layer F.CrtYd) (width 0.05))
  (fp_line (start 49.25 10.5) (end 49.25 -2.5) (layer F.CrtYd) (width 0.05))
  (fp_line (start 49.25 -2.5) (end -4.25 -2.5) (layer F.CrtYd) (width 0.05))
  (fp_line (start 0.3 -2.88) (end 0 -2.28) (layer F.SilkS) (width 0.12))
  (fp_line (start 0 -2.28) (end -0.3 -2.88) (layer F.SilkS) (width 0.12))
  (fp_line (start -0.3 -2.88) (end 0.3 -2.88) (layer F.SilkS) (width 0.12))
  (fp_line (start 0.95 -2) (end 0 -0.5) (layer F.Fab) (width 0.1))
  (fp_line (start 0 -0.5) (end -0.95 -2) (layer F.Fab) (width 0.1))
  (pad 1 thru_hole rect (at 0 0) (size 2 3.6) (drill 1.4) (layers *.Cu *.Mask))
  (pad 2 thru_hole oval (at 7.5 0) (size 2 3.6) (drill 1.4) (layers *.Cu *.Mask))
  (pad 3 thru_hole oval (at 15 0) (size 2 3.6) (drill 1.4) (layers *.Cu *.Mask))
  (pad 4 thru_hole oval (at 22.5 0) (size 2 3.6) (drill 1.4) (layers *.Cu *.Mask))
  (pad 5 thru_hole oval (at 30 0) (size 2 3.6) (drill 1.4) (layers *.Cu *.Mask))
  (pad 6 thru_hole oval (at 37.5 0) (size 2 3.6) (drill 1.4) (layers *.Cu *.Mask))
  (pad 7 thru_hole oval (at 45 0) (size 2 3.6) (drill 1.4) (layers *.Cu *.Mask))
  (fp_text user %R (at 22.5 3) (layer F.Fab)
    (effects (font (size 1 1) (thickness 0.15)))
  )
  (model ${KIPRJMOD}/kicad_libs_k/models_k.3d/Connector_Phoenix_GMSTB_k.3dshapes/PhoenixContact_GMSTBA_2,5_7-G_1x07_P7.50mm_Horizontal_k.wrl
    (at (xyz 0 0 0))
    (scale (xyz 1 1 1))
    (rotate (xyz 0 0 0))
  )
)