(module PhoenixContact_GMSTBV_2,5_3-GF-7,62_1x03_P7.62mm_Vertical_ThreadedFlange (layer F.Cu) (tedit 5A00FA1F)
  (descr "Generic Phoenix Contact connector footprint for: GMSTBV_2,5/3-GF-7,62; number of pins: 03; pin pitch: 7.62mm; Vertical; threaded flange || order number: 1829167 12A 630V")
  (tags "phoenix_contact connector GMSTBV_01x03_GF_7.62mm")
  (fp_text reference REF** (at 7.62 -5.8) (layer F.SilkS)
    (effects (font (size 1 1) (thickness 0.15)))
  )
  (fp_text value PhoenixContact_GMSTBV_2,5_3-GF-7,62_1x03_P7.62mm_Vertical_ThreadedFlange (at 7.62 4.8) (layer F.Fab)
    (effects (font (size 1 1) (thickness 0.15)))
  )
  (fp_arc (start 0 0.55) (end -2 2.2) (angle -100.5) (layer F.SilkS) (width 0.12))
  (fp_arc (start 7.62 0.55) (end 5.62 2.2) (angle -100.5) (layer F.SilkS) (width 0.12))
  (fp_arc (start 15.24 0.55) (end 13.24 2.2) (angle -100.5) (layer F.SilkS) (width 0.12))
  (fp_circle (center -6.1 0) (end -4.2 0) (layer F.SilkS) (width 0.12))
  (fp_circle (center 21.34 0) (end 23.24 0) (layer F.SilkS) (width 0.12))
  (fp_circle (center -6.1 0) (end -5.1 0) (layer F.SilkS) (width 0.12))
  (fp_circle (center 21.34 0) (end 22.34 0) (layer F.SilkS) (width 0.12))
  (fp_line (start -9.18 -4.88) (end -9.18 3.88) (layer F.SilkS) (width 0.12))
  (fp_line (start -9.18 3.88) (end 24.42 3.88) (layer F.SilkS) (width 0.12))
  (fp_line (start 24.42 3.88) (end 24.42 -4.88) (layer F.SilkS) (width 0.12))
  (fp_line (start 24.42 -4.88) (end -9.18 -4.88) (layer F.SilkS) (width 0.12))
  (fp_line (start -9.1 -4.8) (end -9.1 3.8) (layer F.Fab) (width 0.1))
  (fp_line (start -9.1 3.8) (end 24.34 3.8) (layer F.Fab) (width 0.1))
  (fp_line (start 24.34 3.8) (end 24.34 -4.8) (layer F.Fab) (width 0.1))
  (fp_line (start 24.34 -4.8) (end -9.1 -4.8) (layer F.Fab) (width 0.1))
  (fp_line (start -9.18 -4.1) (end -7.18 -4.1) (layer F.SilkS) (width 0.12))
  (fp_line (start 24.42 -4.1) (end 22.42 -4.1) (layer F.SilkS) (width 0.12))
  (fp_line (start 1 -4.1) (end 6.62 -4.1) (layer F.SilkS) (width 0.12))
  (fp_line (start 8.62 -4.1) (end 14.24 -4.1) (layer F.SilkS) (width 0.12))
  (fp_line (start -7.1 -3.1) (end -7.1 -4.88) (layer F.SilkS) (width 0.12))
  (fp_line (start -7.1 -4.88) (end -5.1 -4.88) (layer F.SilkS) (width 0.12))
  (fp_line (start -5.1 -4.88) (end -5.1 -3.1) (layer F.SilkS) (width 0.12))
  (fp_line (start -5.1 -3.1) (end -7.1 -3.1) (layer F.SilkS) (width 0.12))
  (fp_line (start 20.34 -3.1) (end 20.34 -4.88) (layer F.SilkS) (width 0.12))
  (fp_line (start 20.34 -4.88) (end 22.34 -4.88) (layer F.SilkS) (width 0.12))
  (fp_line (start 22.34 -4.88) (end 22.34 -3.1) (layer F.SilkS) (width 0.12))
  (fp_line (start 22.34 -3.1) (end 20.34 -3.1) (layer F.SilkS) (width 0.12))
  (fp_line (start -5.1 -4.1) (end -1 -4.1) (layer F.SilkS) (width 0.12))
  (fp_line (start 16.24 -4.1) (end 20.34 -4.1) (layer F.SilkS) (width 0.12))
  (fp_line (start -1 -3.1) (end -1 -4.88) (layer F.SilkS) (width 0.12))
  (fp_line (start -1 -4.88) (end 1 -4.88) (layer F.SilkS) (width 0.12))
  (fp_line (start 1 -4.88) (end 1 -3.1) (layer F.SilkS) (width 0.12))
  (fp_line (start 1 -3.1) (end -1 -3.1) (layer F.SilkS) (width 0.12))
  (fp_line (start 6.62 -3.1) (end 6.62 -4.88) (layer F.SilkS) (width 0.12))
  (fp_line (start 6.62 -4.88) (end 8.62 -4.88) (layer F.SilkS) (width 0.12))
  (fp_line (start 8.62 -4.88) (end 8.62 -3.1) (layer F.SilkS) (width 0.12))
  (fp_line (start 8.62 -3.1) (end 6.62 -3.1) (layer F.SilkS) (width 0.12))
  (fp_line (start 14.24 -3.1) (end 14.24 -4.88) (layer F.SilkS) (width 0.12))
  (fp_line (start 14.24 -4.88) (end 16.24 -4.88) (layer F.SilkS) (width 0.12))
  (fp_line (start 16.24 -4.88) (end 16.24 -3.1) (layer F.SilkS) (width 0.12))
  (fp_line (start 16.24 -3.1) (end 14.24 -3.1) (layer F.SilkS) (width 0.12))
  (fp_line (start 2 2.2) (end 5.62 2.2) (layer F.SilkS) (width 0.12))
  (fp_line (start 9.62 2.2) (end 13.24 2.2) (layer F.SilkS) (width 0.12))
  (fp_line (start -2 2.2) (end -3.01 2.2) (layer F.SilkS) (width 0.12))
  (fp_line (start -3.01 2.2) (end -3.01 -3.1) (layer F.SilkS) (width 0.12))
  (fp_line (start -3.01 -3.1) (end 18.25 -3.1) (layer F.SilkS) (width 0.12))
  (fp_line (start 18.25 -3.1) (end 18.25 2.2) (layer F.SilkS) (width 0.12))
  (fp_line (start 18.25 2.2) (end 17.24 2.2) (layer F.SilkS) (width 0.12))
  (fp_line (start -9.6 -5.3) (end -9.6 4.3) (layer F.CrtYd) (width 0.05))
  (fp_line (start -9.6 4.3) (end 24.84 4.3) (layer F.CrtYd) (width 0.05))
  (fp_line (start 24.84 4.3) (end 24.84 -5.3) (layer F.CrtYd) (width 0.05))
  (fp_line (start 24.84 -5.3) (end -9.6 -5.3) (layer F.CrtYd) (width 0.05))
  (fp_line (start 0.3 -5.68) (end 0 -5.08) (layer F.SilkS) (width 0.12))
  (fp_line (start 0 -5.08) (end -0.3 -5.68) (layer F.SilkS) (width 0.12))
  (fp_line (start -0.3 -5.68) (end 0.3 -5.68) (layer F.SilkS) (width 0.12))
  (fp_line (start 0.5 -3.55) (end 0 -2.55) (layer F.Fab) (width 0.1))
  (fp_line (start 0 -2.55) (end -0.5 -3.55) (layer F.Fab) (width 0.1))
  (fp_line (start -0.5 -3.55) (end 0.5 -3.55) (layer F.Fab) (width 0.1))
  (pad 1 thru_hole rect (at 0 0) (size 2.1 3.6) (drill 1.4) (layers *.Cu *.Mask))
  (pad 2 thru_hole oval (at 7.62 0) (size 2.1 3.6) (drill 1.4) (layers *.Cu *.Mask))
  (pad 3 thru_hole oval (at 15.24 0) (size 2.1 3.6) (drill 1.4) (layers *.Cu *.Mask))
  (fp_text user %R (at 7.62 -3) (layer F.Fab)
    (effects (font (size 1 1) (thickness 0.15)))
  )
  (model ${KIPRJMOD}/kicad_libs_k/models_k.3d/Connector_Phoenix_GMSTB_k.3dshapes/PhoenixContact_GMSTBV_2,5_3-GF-7,62_1x03_P7.62mm_Vertical_ThreadedFlange_k.wrl
    (at (xyz 0 0 0))
    (scale (xyz 1 1 1))
    (rotate (xyz 0 0 0))
  )
)