(module Converter_DCDC_muRata_CRE1xxxxxxDC_THT (layer F.Cu) (tedit 59FDE93A)
  (descr "Isloated DC-DC, http://power.murata.com/data/power/ncl/kdc_cre1.pdf")
  (tags "Isloated DC-DC")
  (fp_text reference REF** (at 3.7 -2.8) (layer F.SilkS)
    (effects (font (size 1 1) (thickness 0.15)))
  )
  (fp_text value Converter_DCDC_muRata_CRE1xxxxxxDC_THT (at 3.3 10.7) (layer F.Fab)
    (effects (font (size 1 1) (thickness 0.15)))
  )
  (fp_text user %R (at 3.81 3.81) (layer F.Fab)
    (effects (font (size 1 1) (thickness 0.15)))
  )
  (fp_line (start -0.2 -2.3) (end -1.5 -2.3) (layer F.SilkS) (width 0.12))
  (fp_line (start -1.5 -1) (end -1.5 -2.3) (layer F.SilkS) (width 0.12))
  (fp_line (start 8.9 9.7) (end -1.3 9.7) (layer F.SilkS) (width 0.12))
  (fp_line (start -1.3 9.7) (end -1.3 -2.1) (layer F.SilkS) (width 0.12))
  (fp_line (start -1.3 -2.1) (end 8.9 -2.1) (layer F.SilkS) (width 0.12))
  (fp_line (start 8.9 -2.1) (end 8.9 9.7) (layer F.SilkS) (width 0.12))
  (fp_line (start 8.75 -2) (end 8.75 9.6) (layer F.Fab) (width 0.12))
  (fp_line (start 8.75 9.6) (end -1.15 9.6) (layer F.Fab) (width 0.12))
  (fp_line (start -1.15 9.6) (end -1.15 -1) (layer F.Fab) (width 0.12))
  (fp_line (start -1.15 -1) (end -0.15 -2) (layer F.Fab) (width 0.12))
  (fp_line (start -0.15 -2) (end 8.75 -2) (layer F.Fab) (width 0.12))
  (fp_line (start -1.4 -2.25) (end 9 -2.25) (layer F.CrtYd) (width 0.05))
  (fp_line (start -1.4 -2.25) (end -1.4 9.85) (layer F.CrtYd) (width 0.05))
  (fp_line (start 9 9.85) (end 9 -2.25) (layer F.CrtYd) (width 0.05))
  (fp_line (start 9 9.85) (end -1.4 9.85) (layer F.CrtYd) (width 0.05))
  (pad 4 thru_hole oval (at 0 7.62) (size 1.5 2) (drill 0.7) (layers *.Cu *.Mask))
  (pad 5 thru_hole oval (at 7.62 7.62) (size 1.5 2) (drill 0.7) (layers *.Cu *.Mask))
  (pad 7 thru_hole oval (at 7.62 2.54) (size 1.5 2) (drill 0.7) (layers *.Cu *.Mask))
  (pad 1 thru_hole rect (at 0 0) (size 1.5 2) (drill 0.7) (layers *.Cu *.Mask))
  (model ${KIPRJMOD}/kicad_libs_k/models_k.3d/Converter_DCDC_k.3dshapes/Converter_DCDC_muRata_CRE1xxxxxxDC_THT_k.wrl
    (at (xyz 0 0 0))
    (scale (xyz 1 1 1))
    (rotate (xyz 0 0 0))
  )
)
