(module Converter_DCDC_Bothhand_CFUSxxxx_THT (layer F.Cu) (tedit 59FEFBED)
  (descr "DCDC-Converter, BOTHHAND, Type CFxxxx-Serie,  (Very dodgy url but was the only at hand), ")
  (tags "DCDC-Converter BOTHHAND Type CFxxxx-Serie")
  (fp_text reference REF** (at 1.99 -3.68) (layer F.SilkS)
    (effects (font (size 1 1) (thickness 0.15)))
  )
  (fp_text value Converter_DCDC_Bothhand_CFUSxxxx_THT (at 7.95 31.35) (layer F.Fab)
    (effects (font (size 1 1) (thickness 0.15)))
  )
  (fp_line (start -1.5 -2.9) (end -1.5 30.2) (layer F.CrtYd) (width 0.05))
  (fp_line (start 16.75 -2.9) (end 16.75 30.2) (layer F.CrtYd) (width 0.05))
  (fp_line (start -1.5 -2.9) (end 16.75 -2.9) (layer F.CrtYd) (width 0.05))
  (fp_line (start -1.5 30.2) (end 16.75 30.2) (layer F.CrtYd) (width 0.05))
  (fp_text user %R (at 7.62 12) (layer F.Fab)
    (effects (font (size 1 1) (thickness 0.15)))
  )
  (fp_line (start -0.78 29.95) (end -0.78 -2.65) (layer F.Fab) (width 0.1))
  (fp_line (start 16.02 29.95) (end -0.78 29.95) (layer F.Fab) (width 0.1))
  (fp_line (start 16.02 -2.65) (end 16.02 29.95) (layer F.Fab) (width 0.1))
  (fp_line (start -0.78 -2.65) (end 16.02 -2.65) (layer F.Fab) (width 0.1))
  (fp_line (start 16.14 -2.77) (end 16.14 -1.5) (layer F.SilkS) (width 0.12))
  (fp_line (start -0.9 -2.77) (end 16.14 -2.77) (layer F.SilkS) (width 0.12))
  (fp_line (start -0.9 -1.5) (end -0.9 -2.77) (layer F.SilkS) (width 0.12))
  (fp_line (start -0.9 1.5) (end -0.9 21) (layer F.SilkS) (width 0.12))
  (fp_line (start 16.14 30.07) (end 16.14 29.5) (layer F.SilkS) (width 0.12))
  (fp_line (start -0.9 30.07) (end 16.14 30.07) (layer F.SilkS) (width 0.12))
  (fp_line (start -0.9 29.5) (end -0.9 30.07) (layer F.SilkS) (width 0.12))
  (fp_line (start 16.02 19.5) (end 16.02 21) (layer F.Fab) (width 0.1))
  (fp_line (start 16.02 14.5) (end 16.02 16) (layer F.Fab) (width 0.1))
  (fp_line (start 16.14 1) (end 16.14 21) (layer F.Fab) (width 0.12))
  (pad 1 thru_hole rect (at 0 0) (size 2.5 1.5) (drill 0.7) (layers *.Cu *.Mask))
  (pad 10 thru_hole oval (at 0 22.86) (size 2.5 1.5) (drill 0.7) (layers *.Cu *.Mask))
  (pad 11 thru_hole oval (at 0 25.4) (size 2.5 1.5) (drill 0.7) (layers *.Cu *.Mask))
  (pad 12 thru_hole oval (at 0 27.94) (size 2.5 1.5) (drill 0.7) (layers *.Cu *.Mask))
  (pad 13 thru_hole oval (at 15.24 27.94) (size 2.5 1.5) (drill 0.7) (layers *.Cu *.Mask))
  (pad 14 thru_hole oval (at 15.24 25.4) (size 2.5 1.5) (drill 0.7) (layers *.Cu *.Mask))
  (pad 15 thru_hole oval (at 15.24 22.86) (size 2.5 1.5) (drill 0.7) (layers *.Cu *.Mask))
  (pad 24 thru_hole oval (at 15.24 0) (size 2.5 1.5) (drill 0.7) (layers *.Cu *.Mask))
  (model ${KIPRJMOD}/kicad_libs_k/models_k.3d/Converter_DCDC_k.3dshapes/Converter_DCDC_Bothhand_CFUSxxxx_THT_k.wrl
    (at (xyz 0 0 0))
    (scale (xyz 1 1 1))
    (rotate (xyz 0 0 0))
  )
)
