(module TerminalBlock_MetzConnect_Type094_RT03502HBLU_1x02_P5.00mm_Horizontal (layer F.Cu) (tedit 5B294E9C)
  (descr "terminal block Metz Connect Type094_RT03502HBLU, 2 pins, pitch 5mm, size 10x8.3mm^2, drill diamater 1.3mm, pad diameter 2.6mm, see http://www.metz-connect.com/ru/system/files/productfiles/Data_sheet_310941_RT035xxHBLU_OFF-022742T.pdf, script-generated using https://github.com/pointhi/kicad-footprint-generator/scripts/TerminalBlock_MetzConnect")
  (tags "THT terminal block Metz Connect Type094_RT03502HBLU pitch 5mm size 10x8.3mm^2 drill 1.3mm pad 2.6mm")
  (fp_text reference REF** (at 2.5 -5.36) (layer F.SilkS)
    (effects (font (size 1 1) (thickness 0.15)))
  )
  (fp_text value TerminalBlock_MetzConnect_Type094_RT03502HBLU_1x02_P5.00mm_Horizontal (at 2.5 5.06) (layer F.Fab)
    (effects (font (size 1 1) (thickness 0.15)))
  )
  (fp_arc (start 0 0) (end 0 1.68) (angle -24) (layer F.SilkS) (width 0.12))
  (fp_arc (start 0 0) (end 1.535 0.684) (angle -48) (layer F.SilkS) (width 0.12))
  (fp_arc (start 0 0) (end 0.684 -1.535) (angle -48) (layer F.SilkS) (width 0.12))
  (fp_arc (start 0 0) (end -1.535 -0.684) (angle -48) (layer F.SilkS) (width 0.12))
  (fp_arc (start 0 0) (end -0.684 1.535) (angle -25) (layer F.SilkS) (width 0.12))
  (fp_circle (center 0 0) (end 1.5 0) (layer F.Fab) (width 0.1))
  (fp_circle (center 5 0) (end 6.5 0) (layer F.Fab) (width 0.1))
  (fp_circle (center 5 0) (end 6.68 0) (layer F.SilkS) (width 0.12))
  (fp_line (start -2.5 -4.3) (end 7.5 -4.3) (layer F.Fab) (width 0.1))
  (fp_line (start 7.5 -4.3) (end 7.5 4) (layer F.Fab) (width 0.1))
  (fp_line (start 7.5 4) (end -2 4) (layer F.Fab) (width 0.1))
  (fp_line (start -2 4) (end -2.5 3.5) (layer F.Fab) (width 0.1))
  (fp_line (start -2.5 3.5) (end -2.5 -4.3) (layer F.Fab) (width 0.1))
  (fp_line (start -2.5 3.5) (end 7.5 3.5) (layer F.Fab) (width 0.1))
  (fp_line (start -2.56 3.5) (end 7.56 3.5) (layer F.SilkS) (width 0.12))
  (fp_line (start -2.5 2) (end 7.5 2) (layer F.Fab) (width 0.1))
  (fp_line (start -2.56 2) (end 7.56 2) (layer F.SilkS) (width 0.12))
  (fp_line (start -2.5 -2.3) (end 7.5 -2.3) (layer F.Fab) (width 0.1))
  (fp_line (start -2.56 -2.301) (end 7.56 -2.301) (layer F.SilkS) (width 0.12))
  (fp_line (start -2.56 -4.36) (end 7.56 -4.36) (layer F.SilkS) (width 0.12))
  (fp_line (start -2.56 4.06) (end 7.56 4.06) (layer F.SilkS) (width 0.12))
  (fp_line (start -2.56 -4.36) (end -2.56 4.06) (layer F.SilkS) (width 0.12))
  (fp_line (start 7.56 -4.36) (end 7.56 4.06) (layer F.SilkS) (width 0.12))
  (fp_line (start 1.138 -0.955) (end -0.955 1.138) (layer F.Fab) (width 0.1))
  (fp_line (start 0.955 -1.138) (end -1.138 0.955) (layer F.Fab) (width 0.1))
  (fp_line (start -1 -4.3) (end -1 -3.3) (layer F.Fab) (width 0.1))
  (fp_line (start -1 -3.3) (end 1 -3.3) (layer F.Fab) (width 0.1))
  (fp_line (start 1 -3.3) (end 1 -4.3) (layer F.Fab) (width 0.1))
  (fp_line (start 1 -4.3) (end -1 -4.3) (layer F.Fab) (width 0.1))
  (fp_line (start -1 -4.3) (end 1 -4.3) (layer F.SilkS) (width 0.12))
  (fp_line (start -1 -3.3) (end 1 -3.3) (layer F.SilkS) (width 0.12))
  (fp_line (start -1 -4.3) (end -1 -3.3) (layer F.SilkS) (width 0.12))
  (fp_line (start 1 -4.3) (end 1 -3.3) (layer F.SilkS) (width 0.12))
  (fp_line (start 6.138 -0.955) (end 4.046 1.138) (layer F.Fab) (width 0.1))
  (fp_line (start 5.955 -1.138) (end 3.863 0.955) (layer F.Fab) (width 0.1))
  (fp_line (start 6.275 -1.069) (end 6.228 -1.023) (layer F.SilkS) (width 0.12))
  (fp_line (start 3.966 1.239) (end 3.931 1.274) (layer F.SilkS) (width 0.12))
  (fp_line (start 6.07 -1.275) (end 6.035 -1.239) (layer F.SilkS) (width 0.12))
  (fp_line (start 3.773 1.023) (end 3.726 1.069) (layer F.SilkS) (width 0.12))
  (fp_line (start 4 -4.3) (end 4 -3.3) (layer F.Fab) (width 0.1))
  (fp_line (start 4 -3.3) (end 6 -3.3) (layer F.Fab) (width 0.1))
  (fp_line (start 6 -3.3) (end 6 -4.3) (layer F.Fab) (width 0.1))
  (fp_line (start 6 -4.3) (end 4 -4.3) (layer F.Fab) (width 0.1))
  (fp_line (start 4 -4.3) (end 6 -4.3) (layer F.SilkS) (width 0.12))
  (fp_line (start 4 -3.3) (end 6 -3.3) (layer F.SilkS) (width 0.12))
  (fp_line (start 4 -4.3) (end 4 -3.3) (layer F.SilkS) (width 0.12))
  (fp_line (start 6 -4.3) (end 6 -3.3) (layer F.SilkS) (width 0.12))
  (fp_line (start -2.8 3.56) (end -2.8 4.3) (layer F.SilkS) (width 0.12))
  (fp_line (start -2.8 4.3) (end -2.3 4.3) (layer F.SilkS) (width 0.12))
  (fp_line (start -3 -4.81) (end -3 4.5) (layer F.CrtYd) (width 0.05))
  (fp_line (start -3 4.5) (end 8 4.5) (layer F.CrtYd) (width 0.05))
  (fp_line (start 8 4.5) (end 8 -4.81) (layer F.CrtYd) (width 0.05))
  (fp_line (start 8 -4.81) (end -3 -4.81) (layer F.CrtYd) (width 0.05))
  (pad 1 thru_hole rect (at 0 0) (size 2.6 2.6) (drill 1.3) (layers *.Cu *.Mask))
  (pad 2 thru_hole circle (at 5 0) (size 2.6 2.6) (drill 1.3) (layers *.Cu *.Mask))
  (fp_text user %R (at 2.5 2.75) (layer F.Fab)
    (effects (font (size 1 1) (thickness 0.15)))
  )
  (model ${KIPRJMOD}/kicad_libs_k/models_k.3d/TerminalBlock_MetzConnect_k.3dshapes/TerminalBlock_MetzConnect_Type094_RT03502HBLU_1x02_P5.00mm_Horizontal_k.wrl
    (at (xyz 0 0 0))
    (scale (xyz 1 1 1))
    (rotate (xyz 0 0 0))
  )
)