(module TerminalBlock_MetzConnect_Type175_RT02706HBLC_1x06_P7.50mm_Horizontal (layer F.Cu) (tedit 5B294EA7)
  (descr "terminal block Metz Connect Type175_RT02706HBLC, 6 pins, pitch 7.5mm, size 45x11mm^2, drill diamater 1.4mm, pad diameter 2.6mm, see http://www.metz-connect.com/de/system/files/productfiles/Datenblatt_311751_RT027xxHBLC_OFF-022814U.pdf, script-generated using https://github.com/pointhi/kicad-footprint-generator/scripts/TerminalBlock_MetzConnect")
  (tags "THT terminal block Metz Connect Type175_RT02706HBLC pitch 7.5mm size 45x11mm^2 drill 1.4mm pad 2.6mm")
  (fp_text reference REF** (at 18.75 -6.56) (layer F.SilkS)
    (effects (font (size 1 1) (thickness 0.15)))
  )
  (fp_text value TerminalBlock_MetzConnect_Type175_RT02706HBLC_1x06_P7.50mm_Horizontal (at 18.75 6.56) (layer F.Fab)
    (effects (font (size 1 1) (thickness 0.15)))
  )
  (fp_arc (start 0 0) (end 0 1.68) (angle -24) (layer F.SilkS) (width 0.12))
  (fp_arc (start 0 0) (end 1.535 0.684) (angle -48) (layer F.SilkS) (width 0.12))
  (fp_arc (start 0 0) (end 0.684 -1.535) (angle -48) (layer F.SilkS) (width 0.12))
  (fp_arc (start 0 0) (end -1.535 -0.684) (angle -48) (layer F.SilkS) (width 0.12))
  (fp_arc (start 0 0) (end -0.684 1.535) (angle -25) (layer F.SilkS) (width 0.12))
  (fp_circle (center 0 0) (end 1.5 0) (layer F.Fab) (width 0.1))
  (fp_circle (center 7.5 0) (end 9 0) (layer F.Fab) (width 0.1))
  (fp_circle (center 7.5 0) (end 9.18 0) (layer F.SilkS) (width 0.12))
  (fp_circle (center 15 0) (end 16.5 0) (layer F.Fab) (width 0.1))
  (fp_circle (center 15 0) (end 16.68 0) (layer F.SilkS) (width 0.12))
  (fp_circle (center 22.5 0) (end 24 0) (layer F.Fab) (width 0.1))
  (fp_circle (center 22.5 0) (end 24.18 0) (layer F.SilkS) (width 0.12))
  (fp_circle (center 30 0) (end 31.5 0) (layer F.Fab) (width 0.1))
  (fp_circle (center 30 0) (end 31.68 0) (layer F.SilkS) (width 0.12))
  (fp_circle (center 37.5 0) (end 39 0) (layer F.Fab) (width 0.1))
  (fp_circle (center 37.5 0) (end 39.18 0) (layer F.SilkS) (width 0.12))
  (fp_line (start -3.75 -5.5) (end 41.25 -5.5) (layer F.Fab) (width 0.1))
  (fp_line (start 41.25 -5.5) (end 41.25 5.5) (layer F.Fab) (width 0.1))
  (fp_line (start 41.25 5.5) (end -3.15 5.5) (layer F.Fab) (width 0.1))
  (fp_line (start -3.15 5.5) (end -3.75 4.9) (layer F.Fab) (width 0.1))
  (fp_line (start -3.75 4.9) (end -3.75 -5.5) (layer F.Fab) (width 0.1))
  (fp_line (start -3.75 4.9) (end 41.25 4.9) (layer F.Fab) (width 0.1))
  (fp_line (start -3.81 4.9) (end 41.31 4.9) (layer F.SilkS) (width 0.12))
  (fp_line (start -3.75 3) (end 41.25 3) (layer F.Fab) (width 0.1))
  (fp_line (start -3.81 3) (end 41.31 3) (layer F.SilkS) (width 0.12))
  (fp_line (start -3.75 -3.6) (end 41.25 -3.6) (layer F.Fab) (width 0.1))
  (fp_line (start -3.81 -3.6) (end 41.31 -3.6) (layer F.SilkS) (width 0.12))
  (fp_line (start -3.81 -5.56) (end 41.31 -5.56) (layer F.SilkS) (width 0.12))
  (fp_line (start -3.81 5.56) (end 41.31 5.56) (layer F.SilkS) (width 0.12))
  (fp_line (start -3.81 -5.56) (end -3.81 5.56) (layer F.SilkS) (width 0.12))
  (fp_line (start 41.31 -5.56) (end 41.31 5.56) (layer F.SilkS) (width 0.12))
  (fp_line (start 1.138 -0.955) (end -0.955 1.138) (layer F.Fab) (width 0.1))
  (fp_line (start 0.955 -1.138) (end -1.138 0.955) (layer F.Fab) (width 0.1))
  (fp_line (start 8.638 -0.955) (end 6.546 1.138) (layer F.Fab) (width 0.1))
  (fp_line (start 8.455 -1.138) (end 6.363 0.955) (layer F.Fab) (width 0.1))
  (fp_line (start 8.775 -1.069) (end 8.728 -1.023) (layer F.SilkS) (width 0.12))
  (fp_line (start 6.466 1.239) (end 6.431 1.274) (layer F.SilkS) (width 0.12))
  (fp_line (start 8.57 -1.275) (end 8.535 -1.239) (layer F.SilkS) (width 0.12))
  (fp_line (start 6.273 1.023) (end 6.226 1.069) (layer F.SilkS) (width 0.12))
  (fp_line (start 16.138 -0.955) (end 14.046 1.138) (layer F.Fab) (width 0.1))
  (fp_line (start 15.955 -1.138) (end 13.863 0.955) (layer F.Fab) (width 0.1))
  (fp_line (start 16.275 -1.069) (end 16.228 -1.023) (layer F.SilkS) (width 0.12))
  (fp_line (start 13.966 1.239) (end 13.931 1.274) (layer F.SilkS) (width 0.12))
  (fp_line (start 16.07 -1.275) (end 16.035 -1.239) (layer F.SilkS) (width 0.12))
  (fp_line (start 13.773 1.023) (end 13.726 1.069) (layer F.SilkS) (width 0.12))
  (fp_line (start 23.638 -0.955) (end 21.546 1.138) (layer F.Fab) (width 0.1))
  (fp_line (start 23.455 -1.138) (end 21.363 0.955) (layer F.Fab) (width 0.1))
  (fp_line (start 23.775 -1.069) (end 23.728 -1.023) (layer F.SilkS) (width 0.12))
  (fp_line (start 21.466 1.239) (end 21.431 1.274) (layer F.SilkS) (width 0.12))
  (fp_line (start 23.57 -1.275) (end 23.535 -1.239) (layer F.SilkS) (width 0.12))
  (fp_line (start 21.273 1.023) (end 21.226 1.069) (layer F.SilkS) (width 0.12))
  (fp_line (start 31.138 -0.955) (end 29.046 1.138) (layer F.Fab) (width 0.1))
  (fp_line (start 30.955 -1.138) (end 28.863 0.955) (layer F.Fab) (width 0.1))
  (fp_line (start 31.275 -1.069) (end 31.228 -1.023) (layer F.SilkS) (width 0.12))
  (fp_line (start 28.966 1.239) (end 28.931 1.274) (layer F.SilkS) (width 0.12))
  (fp_line (start 31.07 -1.275) (end 31.035 -1.239) (layer F.SilkS) (width 0.12))
  (fp_line (start 28.773 1.023) (end 28.726 1.069) (layer F.SilkS) (width 0.12))
  (fp_line (start 38.638 -0.955) (end 36.546 1.138) (layer F.Fab) (width 0.1))
  (fp_line (start 38.455 -1.138) (end 36.363 0.955) (layer F.Fab) (width 0.1))
  (fp_line (start 38.775 -1.069) (end 38.728 -1.023) (layer F.SilkS) (width 0.12))
  (fp_line (start 36.466 1.239) (end 36.431 1.274) (layer F.SilkS) (width 0.12))
  (fp_line (start 38.57 -1.275) (end 38.535 -1.239) (layer F.SilkS) (width 0.12))
  (fp_line (start 36.273 1.023) (end 36.226 1.069) (layer F.SilkS) (width 0.12))
  (fp_line (start -4.05 4.96) (end -4.05 5.8) (layer F.SilkS) (width 0.12))
  (fp_line (start -4.05 5.8) (end -3.45 5.8) (layer F.SilkS) (width 0.12))
  (fp_line (start -4.25 -6) (end -4.25 6) (layer F.CrtYd) (width 0.05))
  (fp_line (start -4.25 6) (end 41.75 6) (layer F.CrtYd) (width 0.05))
  (fp_line (start 41.75 6) (end 41.75 -6) (layer F.CrtYd) (width 0.05))
  (fp_line (start 41.75 -6) (end -4.25 -6) (layer F.CrtYd) (width 0.05))
  (pad 1 thru_hole rect (at 0 0) (size 2.6 2.6) (drill 1.4) (layers *.Cu *.Mask))
  (pad 2 thru_hole circle (at 7.5 0) (size 2.6 2.6) (drill 1.4) (layers *.Cu *.Mask))
  (pad 3 thru_hole circle (at 15 0) (size 2.6 2.6) (drill 1.4) (layers *.Cu *.Mask))
  (pad 4 thru_hole circle (at 22.5 0) (size 2.6 2.6) (drill 1.4) (layers *.Cu *.Mask))
  (pad 5 thru_hole circle (at 30 0) (size 2.6 2.6) (drill 1.4) (layers *.Cu *.Mask))
  (pad 6 thru_hole circle (at 37.5 0) (size 2.6 2.6) (drill 1.4) (layers *.Cu *.Mask))
  (fp_text user %R (at 18.75 4) (layer F.Fab)
    (effects (font (size 1 1) (thickness 0.15)))
  )
  (model ${KIPRJMOD}/kicad_libs_k/models_k.3d/TerminalBlock_MetzConnect_k.3dshapes/TerminalBlock_MetzConnect_Type175_RT02706HBLC_1x06_P7.50mm_Horizontal_k.wrl
    (at (xyz 0 0 0))
    (scale (xyz 1 1 1))
    (rotate (xyz 0 0 0))
  )
)