(module TerminalBlock_MetzConnect_360291_1x01_Horizontal_ScrewM3.0_Boxed (layer F.Cu) (tedit 5B294E90)
  (descr "single screw terminal block Metz Connect 360291, block size 9x7.3mm^2, drill diamater 1.5mm, 2 pads, pad diameter 3mm, see http://www.metz-connect.com/de/system/files/METZ_CONNECT_U_Contact_Katalog_Anschlusssysteme_fuer_Leiterplatten_DE_31_07_2017_OFF_024803.pdf?language=en page 133, script-generated using https://github.com/pointhi/kicad-footprint-generator/scripts/TerminalBlock_MetzConnect")
  (tags "THT single screw terminal block Metz Connect 360291 size 9x7.3mm^2 drill 1.5mm pad 3mm")
  (fp_text reference REF** (at 2 -4.71) (layer F.SilkS)
    (effects (font (size 1 1) (thickness 0.15)))
  )
  (fp_text value TerminalBlock_MetzConnect_360291_1x01_Horizontal_ScrewM3.0_Boxed (at 2 4.71) (layer F.Fab)
    (effects (font (size 1 1) (thickness 0.15)))
  )
  (fp_arc (start 2 0) (end 2 2.06) (angle -37) (layer F.SilkS) (width 0.12))
  (fp_arc (start 2 0) (end 3.24 -1.646) (angle -74) (layer F.SilkS) (width 0.12))
  (fp_arc (start 2 0) (end 0.759 1.645) (angle -38) (layer F.SilkS) (width 0.12))
  (fp_circle (center 2 0) (end 4 0) (layer F.Fab) (width 0.1))
  (fp_line (start 3.517 -1.273) (end 0.727 1.517) (layer F.Fab) (width 0.1))
  (fp_line (start 3.273 -1.517) (end 0.483 1.273) (layer F.Fab) (width 0.1))
  (fp_line (start 2.241 0.011) (end 1.708 0.543) (layer F.SilkS) (width 0.12))
  (fp_line (start 1.68 0.571) (end 1.68 0.571) (layer F.SilkS) (width 0.12))
  (fp_line (start 2.32 -0.572) (end 2.32 -0.572) (layer F.SilkS) (width 0.12))
  (fp_line (start 2.291 -0.543) (end 1.759 -0.011) (layer F.SilkS) (width 0.12))
  (fp_line (start -2.5 -3.65) (end 6.5 -3.65) (layer F.Fab) (width 0.1))
  (fp_line (start -2.5 3.65) (end 6.5 3.65) (layer F.Fab) (width 0.1))
  (fp_line (start -2.5 -3.65) (end -2.5 3.65) (layer F.Fab) (width 0.1))
  (fp_line (start 6.5 -3.65) (end 6.5 3.65) (layer F.Fab) (width 0.1))
  (fp_line (start -2.56 -3.71) (end 6.56 -3.71) (layer F.SilkS) (width 0.12))
  (fp_line (start -2.56 3.71) (end 6.56 3.71) (layer F.SilkS) (width 0.12))
  (fp_line (start -2.56 -3.71) (end -2.56 3.71) (layer F.SilkS) (width 0.12))
  (fp_line (start 6.56 -3.71) (end 6.56 3.71) (layer F.SilkS) (width 0.12))
  (fp_line (start -3 -4.15) (end -3 4.15) (layer F.CrtYd) (width 0.05))
  (fp_line (start -3 4.15) (end 7 4.15) (layer F.CrtYd) (width 0.05))
  (fp_line (start 7 4.15) (end 7 -4.15) (layer F.CrtYd) (width 0.05))
  (fp_line (start 7 -4.15) (end -3 -4.15) (layer F.CrtYd) (width 0.05))
  (pad 1 thru_hole circle (at 4 0) (size 3 3) (drill 1.5) (layers *.Cu *.Mask))
  (pad 1 thru_hole circle (at 0 0) (size 3 3) (drill 1.5) (layers *.Cu *.Mask))
  (fp_text user %R (at 2 -4.71) (layer F.Fab)
    (effects (font (size 1 1) (thickness 0.15)))
  )
  (model ${KIPRJMOD}/kicad_libs_k/models_k.3d/TerminalBlock_MetzConnect_k.3dshapes/TerminalBlock_MetzConnect_360291_1x01_Horizontal_ScrewM3.0_Boxed_k.wrl
    (at (xyz 0 0 0))
    (scale (xyz 1 1 1))
    (rotate (xyz 0 0 0))
  )
)