(module TerminalBlock_MetzConnect_Type703_RT10N03HGLU_1x03_P9.52mm_Horizontal (layer F.Cu) (tedit 5B294E9C)
  (descr "terminal block Metz Connect Type703_RT10N03HGLU, 3 pins, pitch 9.52mm, size 28.6x12.5mm^2, drill diamater 1.3mm, pad diameter 2.6mm, see http://www.metz-connect.com/de/system/files/productfiles/Datenblatt_317031_RT10NxxHGLU_OFF-022897S.pdf, script-generated using https://github.com/pointhi/kicad-footprint-generator/scripts/TerminalBlock_MetzConnect")
  (tags "THT terminal block Metz Connect Type703_RT10N03HGLU pitch 9.52mm size 28.6x12.5mm^2 drill 1.3mm pad 2.6mm")
  (fp_text reference REF** (at 9.52 -5.56) (layer F.SilkS)
    (effects (font (size 1 1) (thickness 0.15)))
  )
  (fp_text value TerminalBlock_MetzConnect_Type703_RT10N03HGLU_1x03_P9.52mm_Horizontal (at 9.52 9.06) (layer F.Fab)
    (effects (font (size 1 1) (thickness 0.15)))
  )
  (fp_arc (start 0 0.5) (end 0 2.68) (angle -136) (layer F.SilkS) (width 0.12))
  (fp_arc (start 0 0.5) (end 0.782 -1.536) (angle -42) (layer F.SilkS) (width 0.12))
  (fp_arc (start 0 0.5) (end -1.515 -1.069) (angle -137) (layer F.SilkS) (width 0.12))
  (fp_circle (center 0 0.5) (end 2 0.5) (layer F.Fab) (width 0.1))
  (fp_circle (center 9.52 0.5) (end 11.52 0.5) (layer F.Fab) (width 0.1))
  (fp_circle (center 9.52 0.5) (end 11.7 0.5) (layer F.SilkS) (width 0.12))
  (fp_circle (center 19.04 0.5) (end 21.04 0.5) (layer F.Fab) (width 0.1))
  (fp_circle (center 19.04 0.5) (end 21.22 0.5) (layer F.SilkS) (width 0.12))
  (fp_line (start -4.76 -4.5) (end 23.8 -4.5) (layer F.Fab) (width 0.1))
  (fp_line (start 23.8 -4.5) (end 23.8 8) (layer F.Fab) (width 0.1))
  (fp_line (start 23.8 8) (end -4.26 8) (layer F.Fab) (width 0.1))
  (fp_line (start -4.26 8) (end -4.76 7.5) (layer F.Fab) (width 0.1))
  (fp_line (start -4.76 7.5) (end -4.76 -4.5) (layer F.Fab) (width 0.1))
  (fp_line (start -4.76 7.5) (end 23.8 7.5) (layer F.Fab) (width 0.1))
  (fp_line (start -4.82 7.5) (end 23.86 7.5) (layer F.SilkS) (width 0.12))
  (fp_line (start -4.76 3.5) (end 23.8 3.5) (layer F.Fab) (width 0.1))
  (fp_line (start -4.82 3.5) (end 23.86 3.5) (layer F.SilkS) (width 0.12))
  (fp_line (start -4.76 -2.5) (end 23.8 -2.5) (layer F.Fab) (width 0.1))
  (fp_line (start -4.82 -2.5) (end 23.86 -2.5) (layer F.SilkS) (width 0.12))
  (fp_line (start -4.82 -4.56) (end 23.86 -4.56) (layer F.SilkS) (width 0.12))
  (fp_line (start -4.82 8.06) (end 23.86 8.06) (layer F.SilkS) (width 0.12))
  (fp_line (start -4.82 -4.56) (end -4.82 8.06) (layer F.SilkS) (width 0.12))
  (fp_line (start 23.86 -4.56) (end 23.86 8.06) (layer F.SilkS) (width 0.12))
  (fp_line (start 1.517 -0.773) (end -1.273 2.017) (layer F.Fab) (width 0.1))
  (fp_line (start 1.273 -1.017) (end -1.517 1.773) (layer F.Fab) (width 0.1))
  (fp_line (start 1.654 -0.888) (end 1.547 -0.781) (layer F.SilkS) (width 0.12))
  (fp_line (start -0.78 1.546) (end -1.388 2.154) (layer F.SilkS) (width 0.12))
  (fp_line (start -1.32 1.553) (end -1.654 1.888) (layer F.SilkS) (width 0.12))
  (fp_line (start -1 -4.5) (end -1 -3.5) (layer F.Fab) (width 0.1))
  (fp_line (start -1 -3.5) (end 1 -3.5) (layer F.Fab) (width 0.1))
  (fp_line (start 1 -3.5) (end 1 -4.5) (layer F.Fab) (width 0.1))
  (fp_line (start 1 -4.5) (end -1 -4.5) (layer F.Fab) (width 0.1))
  (fp_line (start -1 -4.5) (end 1 -4.5) (layer F.SilkS) (width 0.12))
  (fp_line (start -1 -3.5) (end 1 -3.5) (layer F.SilkS) (width 0.12))
  (fp_line (start -1 -4.5) (end -1 -3.5) (layer F.SilkS) (width 0.12))
  (fp_line (start 1 -4.5) (end 1 -3.5) (layer F.SilkS) (width 0.12))
  (fp_line (start 11.037 -0.773) (end 8.248 2.017) (layer F.Fab) (width 0.1))
  (fp_line (start 10.793 -1.017) (end 8.004 1.773) (layer F.Fab) (width 0.1))
  (fp_line (start 11.174 -0.888) (end 10.976 -0.69) (layer F.SilkS) (width 0.12))
  (fp_line (start 8.817 1.47) (end 8.133 2.154) (layer F.SilkS) (width 0.12))
  (fp_line (start 10.908 -1.154) (end 10.741 -0.986) (layer F.SilkS) (width 0.12))
  (fp_line (start 8.475 1.279) (end 7.867 1.888) (layer F.SilkS) (width 0.12))
  (fp_line (start 8.52 -4.5) (end 8.52 -3.5) (layer F.Fab) (width 0.1))
  (fp_line (start 8.52 -3.5) (end 10.52 -3.5) (layer F.Fab) (width 0.1))
  (fp_line (start 10.52 -3.5) (end 10.52 -4.5) (layer F.Fab) (width 0.1))
  (fp_line (start 10.52 -4.5) (end 8.52 -4.5) (layer F.Fab) (width 0.1))
  (fp_line (start 8.52 -4.5) (end 10.52 -4.5) (layer F.SilkS) (width 0.12))
  (fp_line (start 8.52 -3.5) (end 10.52 -3.5) (layer F.SilkS) (width 0.12))
  (fp_line (start 8.52 -4.5) (end 8.52 -3.5) (layer F.SilkS) (width 0.12))
  (fp_line (start 10.52 -4.5) (end 10.52 -3.5) (layer F.SilkS) (width 0.12))
  (fp_line (start 20.557 -0.773) (end 17.768 2.017) (layer F.Fab) (width 0.1))
  (fp_line (start 20.313 -1.017) (end 17.524 1.773) (layer F.Fab) (width 0.1))
  (fp_line (start 20.694 -0.888) (end 20.496 -0.69) (layer F.SilkS) (width 0.12))
  (fp_line (start 18.337 1.47) (end 17.653 2.154) (layer F.SilkS) (width 0.12))
  (fp_line (start 20.428 -1.154) (end 20.261 -0.986) (layer F.SilkS) (width 0.12))
  (fp_line (start 17.995 1.279) (end 17.387 1.888) (layer F.SilkS) (width 0.12))
  (fp_line (start 18.04 -4.5) (end 18.04 -3.5) (layer F.Fab) (width 0.1))
  (fp_line (start 18.04 -3.5) (end 20.04 -3.5) (layer F.Fab) (width 0.1))
  (fp_line (start 20.04 -3.5) (end 20.04 -4.5) (layer F.Fab) (width 0.1))
  (fp_line (start 20.04 -4.5) (end 18.04 -4.5) (layer F.Fab) (width 0.1))
  (fp_line (start 18.04 -4.5) (end 20.04 -4.5) (layer F.SilkS) (width 0.12))
  (fp_line (start 18.04 -3.5) (end 20.04 -3.5) (layer F.SilkS) (width 0.12))
  (fp_line (start 18.04 -4.5) (end 18.04 -3.5) (layer F.SilkS) (width 0.12))
  (fp_line (start 20.04 -4.5) (end 20.04 -3.5) (layer F.SilkS) (width 0.12))
  (fp_line (start -5.06 7.56) (end -5.06 8.3) (layer F.SilkS) (width 0.12))
  (fp_line (start -5.06 8.3) (end -4.56 8.3) (layer F.SilkS) (width 0.12))
  (fp_line (start -5.26 -5) (end -5.26 8.5) (layer F.CrtYd) (width 0.05))
  (fp_line (start -5.26 8.5) (end 24.3 8.5) (layer F.CrtYd) (width 0.05))
  (fp_line (start 24.3 8.5) (end 24.3 -5) (layer F.CrtYd) (width 0.05))
  (fp_line (start 24.3 -5) (end -5.26 -5) (layer F.CrtYd) (width 0.05))
  (pad 1 thru_hole rect (at 0 0) (size 2.6 2.6) (drill 1.3) (layers *.Cu *.Mask))
  (pad 2 thru_hole circle (at 9.52 0) (size 2.6 2.6) (drill 1.3) (layers *.Cu *.Mask))
  (pad 3 thru_hole circle (at 19.04 0) (size 2.6 2.6) (drill 1.3) (layers *.Cu *.Mask))
  (fp_text user %R (at 9.52 5.25) (layer F.Fab)
    (effects (font (size 1 1) (thickness 0.15)))
  )
  (model ${KIPRJMOD}/kicad_libs_k/models_k.3d/TerminalBlock_MetzConnect_k.3dshapes/TerminalBlock_MetzConnect_Type703_RT10N03HGLU_1x03_P9.52mm_Horizontal_k.wrl
    (at (xyz 0 0 0))
    (scale (xyz 1 1 1))
    (rotate (xyz 0 0 0))
  )
)