(module TerminalBlock_MetzConnect_Type101_RT01606HBWC_1x06_P5.08mm_Horizontal (layer F.Cu) (tedit 5B294EA0)
  (descr "terminal block Metz Connect Type101_RT01606HBWC, 6 pins, pitch 5.08mm, size 30.5x8mm^2, drill diamater 1.3mm, pad diameter 2.5mm, see http://www.metz-connect.com/de/system/files/productfiles/Datenblatt_311011_RT016xxHBWC_OFF-022771S.pdf, script-generated using https://github.com/pointhi/kicad-footprint-generator/scripts/TerminalBlock_MetzConnect")
  (tags "THT terminal block Metz Connect Type101_RT01606HBWC pitch 5.08mm size 30.5x8mm^2 drill 1.3mm pad 2.5mm")
  (fp_text reference REF** (at 12.7 -5.06) (layer F.SilkS)
    (effects (font (size 1 1) (thickness 0.15)))
  )
  (fp_text value TerminalBlock_MetzConnect_Type101_RT01606HBWC_1x06_P5.08mm_Horizontal (at 12.7 5.06) (layer F.Fab)
    (effects (font (size 1 1) (thickness 0.15)))
  )
  (fp_arc (start 0 0) (end 0 1.68) (angle -28) (layer F.SilkS) (width 0.12))
  (fp_arc (start 0 0) (end 1.484 0.789) (angle -56) (layer F.SilkS) (width 0.12))
  (fp_arc (start 0 0) (end 0.789 -1.484) (angle -56) (layer F.SilkS) (width 0.12))
  (fp_arc (start 0 0) (end -1.484 -0.789) (angle -56) (layer F.SilkS) (width 0.12))
  (fp_arc (start 0 0) (end -0.789 1.484) (angle -29) (layer F.SilkS) (width 0.12))
  (fp_circle (center 0 0) (end 1.5 0) (layer F.Fab) (width 0.1))
  (fp_circle (center 5.08 0) (end 6.58 0) (layer F.Fab) (width 0.1))
  (fp_circle (center 5.08 0) (end 6.76 0) (layer F.SilkS) (width 0.12))
  (fp_circle (center 10.16 0) (end 11.66 0) (layer F.Fab) (width 0.1))
  (fp_circle (center 10.16 0) (end 11.84 0) (layer F.SilkS) (width 0.12))
  (fp_circle (center 15.24 0) (end 16.74 0) (layer F.Fab) (width 0.1))
  (fp_circle (center 15.24 0) (end 16.92 0) (layer F.SilkS) (width 0.12))
  (fp_circle (center 20.32 0) (end 21.82 0) (layer F.Fab) (width 0.1))
  (fp_circle (center 20.32 0) (end 22 0) (layer F.SilkS) (width 0.12))
  (fp_circle (center 25.4 0) (end 26.9 0) (layer F.Fab) (width 0.1))
  (fp_circle (center 25.4 0) (end 27.08 0) (layer F.SilkS) (width 0.12))
  (fp_line (start -2.54 -4) (end 27.94 -4) (layer F.Fab) (width 0.1))
  (fp_line (start 27.94 -4) (end 27.94 4) (layer F.Fab) (width 0.1))
  (fp_line (start 27.94 4) (end -0.54 4) (layer F.Fab) (width 0.1))
  (fp_line (start -0.54 4) (end -2.54 2) (layer F.Fab) (width 0.1))
  (fp_line (start -2.54 2) (end -2.54 -4) (layer F.Fab) (width 0.1))
  (fp_line (start -2.54 2) (end 27.94 2) (layer F.Fab) (width 0.1))
  (fp_line (start -2.6 2) (end 28 2) (layer F.SilkS) (width 0.12))
  (fp_line (start -2.54 -2) (end 27.94 -2) (layer F.Fab) (width 0.1))
  (fp_line (start -2.6 -2) (end 28 -2) (layer F.SilkS) (width 0.12))
  (fp_line (start -2.6 -4.06) (end 28 -4.06) (layer F.SilkS) (width 0.12))
  (fp_line (start -2.6 4.06) (end 28 4.06) (layer F.SilkS) (width 0.12))
  (fp_line (start -2.6 -4.06) (end -2.6 4.06) (layer F.SilkS) (width 0.12))
  (fp_line (start 28 -4.06) (end 28 4.06) (layer F.SilkS) (width 0.12))
  (fp_line (start 1.138 -0.955) (end -0.955 1.138) (layer F.Fab) (width 0.1))
  (fp_line (start 0.955 -1.138) (end -1.138 0.955) (layer F.Fab) (width 0.1))
  (fp_line (start 6.218 -0.955) (end 4.126 1.138) (layer F.Fab) (width 0.1))
  (fp_line (start 6.035 -1.138) (end 3.943 0.955) (layer F.Fab) (width 0.1))
  (fp_line (start 6.355 -1.069) (end 6.261 -0.976) (layer F.SilkS) (width 0.12))
  (fp_line (start 4.07 1.216) (end 4.011 1.274) (layer F.SilkS) (width 0.12))
  (fp_line (start 6.15 -1.275) (end 6.091 -1.216) (layer F.SilkS) (width 0.12))
  (fp_line (start 3.9 0.976) (end 3.806 1.069) (layer F.SilkS) (width 0.12))
  (fp_line (start 11.298 -0.955) (end 9.206 1.138) (layer F.Fab) (width 0.1))
  (fp_line (start 11.115 -1.138) (end 9.023 0.955) (layer F.Fab) (width 0.1))
  (fp_line (start 11.435 -1.069) (end 11.341 -0.976) (layer F.SilkS) (width 0.12))
  (fp_line (start 9.15 1.216) (end 9.091 1.274) (layer F.SilkS) (width 0.12))
  (fp_line (start 11.23 -1.275) (end 11.171 -1.216) (layer F.SilkS) (width 0.12))
  (fp_line (start 8.98 0.976) (end 8.886 1.069) (layer F.SilkS) (width 0.12))
  (fp_line (start 16.378 -0.955) (end 14.286 1.138) (layer F.Fab) (width 0.1))
  (fp_line (start 16.195 -1.138) (end 14.103 0.955) (layer F.Fab) (width 0.1))
  (fp_line (start 16.515 -1.069) (end 16.421 -0.976) (layer F.SilkS) (width 0.12))
  (fp_line (start 14.23 1.216) (end 14.171 1.274) (layer F.SilkS) (width 0.12))
  (fp_line (start 16.31 -1.275) (end 16.251 -1.216) (layer F.SilkS) (width 0.12))
  (fp_line (start 14.06 0.976) (end 13.966 1.069) (layer F.SilkS) (width 0.12))
  (fp_line (start 21.458 -0.955) (end 19.366 1.138) (layer F.Fab) (width 0.1))
  (fp_line (start 21.275 -1.138) (end 19.183 0.955) (layer F.Fab) (width 0.1))
  (fp_line (start 21.595 -1.069) (end 21.501 -0.976) (layer F.SilkS) (width 0.12))
  (fp_line (start 19.31 1.216) (end 19.251 1.274) (layer F.SilkS) (width 0.12))
  (fp_line (start 21.39 -1.275) (end 21.331 -1.216) (layer F.SilkS) (width 0.12))
  (fp_line (start 19.14 0.976) (end 19.046 1.069) (layer F.SilkS) (width 0.12))
  (fp_line (start 26.538 -0.955) (end 24.446 1.138) (layer F.Fab) (width 0.1))
  (fp_line (start 26.355 -1.138) (end 24.263 0.955) (layer F.Fab) (width 0.1))
  (fp_line (start 26.675 -1.069) (end 26.581 -0.976) (layer F.SilkS) (width 0.12))
  (fp_line (start 24.39 1.216) (end 24.331 1.274) (layer F.SilkS) (width 0.12))
  (fp_line (start 26.47 -1.275) (end 26.411 -1.216) (layer F.SilkS) (width 0.12))
  (fp_line (start 24.22 0.976) (end 24.126 1.069) (layer F.SilkS) (width 0.12))
  (fp_line (start -2.84 2.06) (end -2.84 4.3) (layer F.SilkS) (width 0.12))
  (fp_line (start -2.84 4.3) (end -0.84 4.3) (layer F.SilkS) (width 0.12))
  (fp_line (start -3.04 -4.5) (end -3.04 4.5) (layer F.CrtYd) (width 0.05))
  (fp_line (start -3.04 4.5) (end 28.44 4.5) (layer F.CrtYd) (width 0.05))
  (fp_line (start 28.44 4.5) (end 28.44 -4.5) (layer F.CrtYd) (width 0.05))
  (fp_line (start 28.44 -4.5) (end -3.04 -4.5) (layer F.CrtYd) (width 0.05))
  (pad 1 thru_hole rect (at 0 0) (size 2.5 2.5) (drill 1.3) (layers *.Cu *.Mask))
  (pad 2 thru_hole circle (at 5.08 0) (size 2.5 2.5) (drill 1.3) (layers *.Cu *.Mask))
  (pad 3 thru_hole circle (at 10.16 0) (size 2.5 2.5) (drill 1.3) (layers *.Cu *.Mask))
  (pad 4 thru_hole circle (at 15.24 0) (size 2.5 2.5) (drill 1.3) (layers *.Cu *.Mask))
  (pad 5 thru_hole circle (at 20.32 0) (size 2.5 2.5) (drill 1.3) (layers *.Cu *.Mask))
  (pad 6 thru_hole circle (at 25.4 0) (size 2.5 2.5) (drill 1.3) (layers *.Cu *.Mask))
  (fp_text user %R (at 12.7 3) (layer F.Fab)
    (effects (font (size 1 1) (thickness 0.15)))
  )
  (model ${KIPRJMOD}/kicad_libs_k/models_k.3d/TerminalBlock_MetzConnect_k.3dshapes/TerminalBlock_MetzConnect_Type101_RT01606HBWC_1x06_P5.08mm_Horizontal_k.wrl
    (at (xyz 0 0 0))
    (scale (xyz 1 1 1))
    (rotate (xyz 0 0 0))
  )
)