(module TerminalBlock_MetzConnect_Type205_RT04506UBLC_1x06_P5.00mm_45Degree (layer F.Cu) (tedit 5B294E97)
  (descr "terminal block Metz Connect Type205_RT04506UBLC, 45Degree (cable under 45degree), 6 pins, pitch 5mm, size 30x12.5mm^2, drill diamater 1.4mm, pad diameter 2.7mm, see http://www.metz-connect.com/de/system/files/productfiles/Datenblatt_312051_RT045xxUBLC_OFF-022759T.pdf, script-generated with , script-generated using https://github.com/pointhi/kicad-footprint-generator/scripts/TerminalBlock_MetzConnect")
  (tags "THT terminal block Metz Connect Type205_RT04506UBLC 45Degree pitch 5mm size 30x12.5mm^2 drill 1.4mm pad 2.7mm")
  (fp_text reference REF** (at 12.5 -7.06) (layer F.SilkS)
    (effects (font (size 1 1) (thickness 0.15)))
  )
  (fp_text value TerminalBlock_MetzConnect_Type205_RT04506UBLC_1x06_P5.00mm_45Degree (at 12.5 7.56) (layer F.Fab)
    (effects (font (size 1 1) (thickness 0.15)))
  )
  (fp_arc (start 0 -3.943) (end 1.801 -4.4) (angle -151.504403) (layer F.Fab) (width 0.1))
  (fp_arc (start 0 -4.858) (end 1.8 -4.4) (angle 151.504403) (layer F.Fab) (width 0.1))
  (fp_arc (start 0 -3.943) (end 1.801 -4.4) (angle -151.504403) (layer F.SilkS) (width 0.12))
  (fp_arc (start 0 -4.858) (end 1.8 -4.4) (angle 151.504403) (layer F.SilkS) (width 0.12))
  (fp_arc (start 5 -3.943) (end 6.801 -4.4) (angle -151.504403) (layer F.Fab) (width 0.1))
  (fp_arc (start 5 -4.858) (end 6.8 -4.4) (angle 151.504403) (layer F.Fab) (width 0.1))
  (fp_arc (start 5 -3.943) (end 6.801 -4.4) (angle -151.504403) (layer F.SilkS) (width 0.12))
  (fp_arc (start 5 -4.858) (end 6.8 -4.4) (angle 151.504403) (layer F.SilkS) (width 0.12))
  (fp_arc (start 10 -3.943) (end 11.801 -4.4) (angle -151.504403) (layer F.Fab) (width 0.1))
  (fp_arc (start 10 -4.858) (end 11.8 -4.4) (angle 151.504403) (layer F.Fab) (width 0.1))
  (fp_arc (start 10 -3.943) (end 11.801 -4.4) (angle -151.504403) (layer F.SilkS) (width 0.12))
  (fp_arc (start 10 -4.858) (end 11.8 -4.4) (angle 151.504403) (layer F.SilkS) (width 0.12))
  (fp_arc (start 15 -3.943) (end 16.801 -4.4) (angle -151.504403) (layer F.Fab) (width 0.1))
  (fp_arc (start 15 -4.858) (end 16.8 -4.4) (angle 151.504403) (layer F.Fab) (width 0.1))
  (fp_arc (start 15 -3.943) (end 16.801 -4.4) (angle -151.504403) (layer F.SilkS) (width 0.12))
  (fp_arc (start 15 -4.858) (end 16.8 -4.4) (angle 151.504403) (layer F.SilkS) (width 0.12))
  (fp_arc (start 20 -3.943) (end 21.801 -4.4) (angle -151.504403) (layer F.Fab) (width 0.1))
  (fp_arc (start 20 -4.858) (end 21.8 -4.4) (angle 151.504403) (layer F.Fab) (width 0.1))
  (fp_arc (start 20 -3.943) (end 21.801 -4.4) (angle -151.504403) (layer F.SilkS) (width 0.12))
  (fp_arc (start 20 -4.858) (end 21.8 -4.4) (angle 151.504403) (layer F.SilkS) (width 0.12))
  (fp_arc (start 25 -3.943) (end 26.801 -4.4) (angle -151.504403) (layer F.Fab) (width 0.1))
  (fp_arc (start 25 -4.858) (end 26.8 -4.4) (angle 151.504403) (layer F.Fab) (width 0.1))
  (fp_arc (start 25 -3.943) (end 26.801 -4.4) (angle -151.504403) (layer F.SilkS) (width 0.12))
  (fp_arc (start 25 -4.858) (end 26.8 -4.4) (angle 151.504403) (layer F.SilkS) (width 0.12))
  (fp_line (start -2.5 -6) (end 27.5 -6) (layer F.Fab) (width 0.1))
  (fp_line (start 27.5 -6) (end 27.5 6.5) (layer F.Fab) (width 0.1))
  (fp_line (start 27.5 6.5) (end -0.5 6.5) (layer F.Fab) (width 0.1))
  (fp_line (start -0.5 6.5) (end -2.5 4.5) (layer F.Fab) (width 0.1))
  (fp_line (start -2.5 4.5) (end -2.5 -6) (layer F.Fab) (width 0.1))
  (fp_line (start -2.5 1.1) (end 27.5 1.1) (layer F.Fab) (width 0.1))
  (fp_line (start -2.56 1.1) (end -1.59 1.1) (layer F.SilkS) (width 0.12))
  (fp_line (start 1.59 1.1) (end 3.744 1.1) (layer F.SilkS) (width 0.12))
  (fp_line (start 6.257 1.1) (end 8.744 1.1) (layer F.SilkS) (width 0.12))
  (fp_line (start 11.257 1.1) (end 13.744 1.1) (layer F.SilkS) (width 0.12))
  (fp_line (start 16.257 1.1) (end 18.744 1.1) (layer F.SilkS) (width 0.12))
  (fp_line (start 21.257 1.1) (end 23.744 1.1) (layer F.SilkS) (width 0.12))
  (fp_line (start 26.257 1.1) (end 27.56 1.1) (layer F.SilkS) (width 0.12))
  (fp_line (start -2.5 -2.7) (end 27.5 -2.7) (layer F.Fab) (width 0.1))
  (fp_line (start -2.56 -2.7) (end 27.56 -2.7) (layer F.SilkS) (width 0.12))
  (fp_line (start -2.56 -6.06) (end 27.56 -6.06) (layer F.SilkS) (width 0.12))
  (fp_line (start -2.56 6.56) (end 27.56 6.56) (layer F.SilkS) (width 0.12))
  (fp_line (start -2.56 -6.06) (end -2.56 6.56) (layer F.SilkS) (width 0.12))
  (fp_line (start 27.56 -6.06) (end 27.56 6.56) (layer F.SilkS) (width 0.12))
  (fp_line (start -1.75 1.5) (end -1.59 1.5) (layer F.SilkS) (width 0.12))
  (fp_line (start 1.59 1.5) (end 1.75 1.5) (layer F.SilkS) (width 0.12))
  (fp_line (start -1.75 5.5) (end 1.75 5.5) (layer F.SilkS) (width 0.12))
  (fp_line (start -1.75 1.5) (end -1.75 5.5) (layer F.SilkS) (width 0.12))
  (fp_line (start 1.75 1.5) (end 1.75 5.5) (layer F.SilkS) (width 0.12))
  (fp_line (start -1.75 1.5) (end -1.75 5.5) (layer F.Fab) (width 0.1))
  (fp_line (start -1.75 5.5) (end 1.75 5.5) (layer F.Fab) (width 0.1))
  (fp_line (start 1.75 5.5) (end 1.75 1.5) (layer F.Fab) (width 0.1))
  (fp_line (start 1.75 1.5) (end -1.75 1.5) (layer F.Fab) (width 0.1))
  (fp_line (start 3.25 1.5) (end 4.216 1.5) (layer F.SilkS) (width 0.12))
  (fp_line (start 5.785 1.5) (end 6.75 1.5) (layer F.SilkS) (width 0.12))
  (fp_line (start 3.25 5.5) (end 6.75 5.5) (layer F.SilkS) (width 0.12))
  (fp_line (start 3.25 1.5) (end 3.25 5.5) (layer F.SilkS) (width 0.12))
  (fp_line (start 6.75 1.5) (end 6.75 5.5) (layer F.SilkS) (width 0.12))
  (fp_line (start 3.25 1.5) (end 3.25 5.5) (layer F.Fab) (width 0.1))
  (fp_line (start 3.25 5.5) (end 6.75 5.5) (layer F.Fab) (width 0.1))
  (fp_line (start 6.75 5.5) (end 6.75 1.5) (layer F.Fab) (width 0.1))
  (fp_line (start 6.75 1.5) (end 3.25 1.5) (layer F.Fab) (width 0.1))
  (fp_line (start 8.25 1.5) (end 9.216 1.5) (layer F.SilkS) (width 0.12))
  (fp_line (start 10.785 1.5) (end 11.75 1.5) (layer F.SilkS) (width 0.12))
  (fp_line (start 8.25 5.5) (end 11.75 5.5) (layer F.SilkS) (width 0.12))
  (fp_line (start 8.25 1.5) (end 8.25 5.5) (layer F.SilkS) (width 0.12))
  (fp_line (start 11.75 1.5) (end 11.75 5.5) (layer F.SilkS) (width 0.12))
  (fp_line (start 8.25 1.5) (end 8.25 5.5) (layer F.Fab) (width 0.1))
  (fp_line (start 8.25 5.5) (end 11.75 5.5) (layer F.Fab) (width 0.1))
  (fp_line (start 11.75 5.5) (end 11.75 1.5) (layer F.Fab) (width 0.1))
  (fp_line (start 11.75 1.5) (end 8.25 1.5) (layer F.Fab) (width 0.1))
  (fp_line (start 13.25 1.5) (end 14.216 1.5) (layer F.SilkS) (width 0.12))
  (fp_line (start 15.785 1.5) (end 16.75 1.5) (layer F.SilkS) (width 0.12))
  (fp_line (start 13.25 5.5) (end 16.75 5.5) (layer F.SilkS) (width 0.12))
  (fp_line (start 13.25 1.5) (end 13.25 5.5) (layer F.SilkS) (width 0.12))
  (fp_line (start 16.75 1.5) (end 16.75 5.5) (layer F.SilkS) (width 0.12))
  (fp_line (start 13.25 1.5) (end 13.25 5.5) (layer F.Fab) (width 0.1))
  (fp_line (start 13.25 5.5) (end 16.75 5.5) (layer F.Fab) (width 0.1))
  (fp_line (start 16.75 5.5) (end 16.75 1.5) (layer F.Fab) (width 0.1))
  (fp_line (start 16.75 1.5) (end 13.25 1.5) (layer F.Fab) (width 0.1))
  (fp_line (start 18.25 1.5) (end 19.216 1.5) (layer F.SilkS) (width 0.12))
  (fp_line (start 20.785 1.5) (end 21.75 1.5) (layer F.SilkS) (width 0.12))
  (fp_line (start 18.25 5.5) (end 21.75 5.5) (layer F.SilkS) (width 0.12))
  (fp_line (start 18.25 1.5) (end 18.25 5.5) (layer F.SilkS) (width 0.12))
  (fp_line (start 21.75 1.5) (end 21.75 5.5) (layer F.SilkS) (width 0.12))
  (fp_line (start 18.25 1.5) (end 18.25 5.5) (layer F.Fab) (width 0.1))
  (fp_line (start 18.25 5.5) (end 21.75 5.5) (layer F.Fab) (width 0.1))
  (fp_line (start 21.75 5.5) (end 21.75 1.5) (layer F.Fab) (width 0.1))
  (fp_line (start 21.75 1.5) (end 18.25 1.5) (layer F.Fab) (width 0.1))
  (fp_line (start 23.25 1.5) (end 24.216 1.5) (layer F.SilkS) (width 0.12))
  (fp_line (start 25.785 1.5) (end 26.75 1.5) (layer F.SilkS) (width 0.12))
  (fp_line (start 23.25 5.5) (end 26.75 5.5) (layer F.SilkS) (width 0.12))
  (fp_line (start 23.25 1.5) (end 23.25 5.5) (layer F.SilkS) (width 0.12))
  (fp_line (start 26.75 1.5) (end 26.75 5.5) (layer F.SilkS) (width 0.12))
  (fp_line (start 23.25 1.5) (end 23.25 5.5) (layer F.Fab) (width 0.1))
  (fp_line (start 23.25 5.5) (end 26.75 5.5) (layer F.Fab) (width 0.1))
  (fp_line (start 26.75 5.5) (end 26.75 1.5) (layer F.Fab) (width 0.1))
  (fp_line (start 26.75 1.5) (end 23.25 1.5) (layer F.Fab) (width 0.1))
  (fp_line (start -2.8 4.56) (end -2.8 6.8) (layer F.SilkS) (width 0.12))
  (fp_line (start -2.8 6.8) (end -0.8 6.8) (layer F.SilkS) (width 0.12))
  (fp_line (start -3 -6.5) (end -3 7) (layer F.CrtYd) (width 0.05))
  (fp_line (start -3 7) (end 28 7) (layer F.CrtYd) (width 0.05))
  (fp_line (start 28 7) (end 28 -6.5) (layer F.CrtYd) (width 0.05))
  (fp_line (start 28 -6.5) (end -3 -6.5) (layer F.CrtYd) (width 0.05))
  (pad 1 thru_hole rect (at 0 0) (size 2.7 2.7) (drill 1.4) (layers *.Cu *.Mask))
  (pad 2 thru_hole circle (at 5 0) (size 2.7 2.7) (drill 1.4) (layers *.Cu *.Mask))
  (pad 3 thru_hole circle (at 10 0) (size 2.7 2.7) (drill 1.4) (layers *.Cu *.Mask))
  (pad 4 thru_hole circle (at 15 0) (size 2.7 2.7) (drill 1.4) (layers *.Cu *.Mask))
  (pad 5 thru_hole circle (at 20 0) (size 2.7 2.7) (drill 1.4) (layers *.Cu *.Mask))
  (pad 6 thru_hole circle (at 25 0) (size 2.7 2.7) (drill 1.4) (layers *.Cu *.Mask))
  (fp_text user %R (at 12.5 -0.75) (layer F.Fab)
    (effects (font (size 1 1) (thickness 0.15)))
  )
  (model ${KIPRJMOD}/kicad_libs_k/models_k.3d/TerminalBlock_MetzConnect_k.3dshapes/TerminalBlock_MetzConnect_Type205_RT04506UBLC_1x06_P5.00mm_45Degree_k.wrl
    (at (xyz 0 0 0))
    (scale (xyz 1 1 1))
    (rotate (xyz 0 0 0))
  )
)