(module TerminalBlock_MetzConnect_Type086_RT03406HBLC_1x06_P3.81mm_Horizontal (layer F.Cu) (tedit 5B294E99)
  (descr "terminal block Metz Connect Type086_RT03406HBLC, 6 pins, pitch 3.81mm, size 22.8x7.3mm^2, drill diamater 0.7mm, pad diameter 1.4mm, see http://www.metz-connect.com/de/system/files/productfiles/Datenblatt_310861_RT034xxHBLC_OFF-026114K.pdf, script-generated using https://github.com/pointhi/kicad-footprint-generator/scripts/TerminalBlock_MetzConnect")
  (tags "THT terminal block Metz Connect Type086_RT03406HBLC pitch 3.81mm size 22.8x7.3mm^2 drill 0.7mm pad 1.4mm")
  (fp_text reference REF** (at 9.525 -4.76) (layer F.SilkS)
    (effects (font (size 1 1) (thickness 0.15)))
  )
  (fp_text value TerminalBlock_MetzConnect_Type086_RT03406HBLC_1x06_P3.81mm_Horizontal (at 9.525 4.66) (layer F.Fab)
    (effects (font (size 1 1) (thickness 0.15)))
  )
  (fp_circle (center 0 0) (end 1.25 0) (layer F.Fab) (width 0.1))
  (fp_circle (center 0 0) (end 1.43 0) (layer F.SilkS) (width 0.12))
  (fp_circle (center 3.81 0) (end 5.06 0) (layer F.Fab) (width 0.1))
  (fp_circle (center 3.81 0) (end 5.24 0) (layer F.SilkS) (width 0.12))
  (fp_circle (center 7.62 0) (end 8.87 0) (layer F.Fab) (width 0.1))
  (fp_circle (center 7.62 0) (end 9.05 0) (layer F.SilkS) (width 0.12))
  (fp_circle (center 11.43 0) (end 12.68 0) (layer F.Fab) (width 0.1))
  (fp_circle (center 11.43 0) (end 12.86 0) (layer F.SilkS) (width 0.12))
  (fp_circle (center 15.24 0) (end 16.49 0) (layer F.Fab) (width 0.1))
  (fp_circle (center 15.24 0) (end 16.67 0) (layer F.SilkS) (width 0.12))
  (fp_circle (center 19.05 0) (end 20.3 0) (layer F.Fab) (width 0.1))
  (fp_circle (center 19.05 0) (end 20.48 0) (layer F.SilkS) (width 0.12))
  (fp_line (start -1.85 -3.7) (end 20.9 -3.7) (layer F.Fab) (width 0.1))
  (fp_line (start 20.9 -3.7) (end 20.9 3.6) (layer F.Fab) (width 0.1))
  (fp_line (start 20.9 3.6) (end -1.25 3.6) (layer F.Fab) (width 0.1))
  (fp_line (start -1.25 3.6) (end -1.85 3) (layer F.Fab) (width 0.1))
  (fp_line (start -1.85 3) (end -1.85 -3.7) (layer F.Fab) (width 0.1))
  (fp_line (start -1.85 3) (end 20.9 3) (layer F.Fab) (width 0.1))
  (fp_line (start -1.91 3) (end 20.96 3) (layer F.SilkS) (width 0.12))
  (fp_line (start -1.85 1.7) (end 20.9 1.7) (layer F.Fab) (width 0.1))
  (fp_line (start -1.91 1.701) (end 20.96 1.701) (layer F.SilkS) (width 0.12))
  (fp_line (start -1.85 -1.7) (end 20.9 -1.7) (layer F.Fab) (width 0.1))
  (fp_line (start -1.91 -1.7) (end 20.96 -1.7) (layer F.SilkS) (width 0.12))
  (fp_line (start -1.91 -3.76) (end 20.96 -3.76) (layer F.SilkS) (width 0.12))
  (fp_line (start -1.91 3.66) (end 20.96 3.66) (layer F.SilkS) (width 0.12))
  (fp_line (start -1.91 -3.76) (end -1.91 3.66) (layer F.SilkS) (width 0.12))
  (fp_line (start 20.96 -3.76) (end 20.96 3.66) (layer F.SilkS) (width 0.12))
  (fp_line (start 0.949 -0.796) (end -0.796 0.948) (layer F.Fab) (width 0.1))
  (fp_line (start 0.796 -0.948) (end -0.949 0.796) (layer F.Fab) (width 0.1))
  (fp_line (start 1.085 -0.91) (end 0.945 -0.771) (layer F.SilkS) (width 0.12))
  (fp_line (start -0.771 0.945) (end -0.911 1.085) (layer F.SilkS) (width 0.12))
  (fp_line (start 0.911 -1.085) (end 0.771 -0.945) (layer F.SilkS) (width 0.12))
  (fp_line (start -0.946 0.771) (end -1.085 0.91) (layer F.SilkS) (width 0.12))
  (fp_line (start -1 -3.6) (end -1 -3.1) (layer F.Fab) (width 0.1))
  (fp_line (start -1 -3.1) (end 1 -3.1) (layer F.Fab) (width 0.1))
  (fp_line (start 1 -3.1) (end 1 -3.6) (layer F.Fab) (width 0.1))
  (fp_line (start 1 -3.6) (end -1 -3.6) (layer F.Fab) (width 0.1))
  (fp_line (start -1 -3.6) (end 1 -3.6) (layer F.SilkS) (width 0.12))
  (fp_line (start -1 -3.1) (end 1 -3.1) (layer F.SilkS) (width 0.12))
  (fp_line (start -1 -3.6) (end -1 -3.1) (layer F.SilkS) (width 0.12))
  (fp_line (start 1 -3.6) (end 1 -3.1) (layer F.SilkS) (width 0.12))
  (fp_line (start 4.759 -0.796) (end 3.015 0.948) (layer F.Fab) (width 0.1))
  (fp_line (start 4.606 -0.948) (end 2.862 0.796) (layer F.Fab) (width 0.1))
  (fp_line (start 4.895 -0.91) (end 4.596 -0.611) (layer F.SilkS) (width 0.12))
  (fp_line (start 3.2 0.786) (end 2.9 1.085) (layer F.SilkS) (width 0.12))
  (fp_line (start 4.721 -1.085) (end 4.421 -0.786) (layer F.SilkS) (width 0.12))
  (fp_line (start 3.025 0.611) (end 2.726 0.91) (layer F.SilkS) (width 0.12))
  (fp_line (start 2.81 -3.6) (end 2.81 -3.1) (layer F.Fab) (width 0.1))
  (fp_line (start 2.81 -3.1) (end 4.81 -3.1) (layer F.Fab) (width 0.1))
  (fp_line (start 4.81 -3.1) (end 4.81 -3.6) (layer F.Fab) (width 0.1))
  (fp_line (start 4.81 -3.6) (end 2.81 -3.6) (layer F.Fab) (width 0.1))
  (fp_line (start 2.81 -3.6) (end 4.81 -3.6) (layer F.SilkS) (width 0.12))
  (fp_line (start 2.81 -3.1) (end 4.81 -3.1) (layer F.SilkS) (width 0.12))
  (fp_line (start 2.81 -3.6) (end 2.81 -3.1) (layer F.SilkS) (width 0.12))
  (fp_line (start 4.81 -3.6) (end 4.81 -3.1) (layer F.SilkS) (width 0.12))
  (fp_line (start 8.569 -0.796) (end 6.825 0.948) (layer F.Fab) (width 0.1))
  (fp_line (start 8.416 -0.948) (end 6.672 0.796) (layer F.Fab) (width 0.1))
  (fp_line (start 8.705 -0.91) (end 8.406 -0.611) (layer F.SilkS) (width 0.12))
  (fp_line (start 7.01 0.786) (end 6.71 1.085) (layer F.SilkS) (width 0.12))
  (fp_line (start 8.531 -1.085) (end 8.231 -0.786) (layer F.SilkS) (width 0.12))
  (fp_line (start 6.835 0.611) (end 6.536 0.91) (layer F.SilkS) (width 0.12))
  (fp_line (start 6.62 -3.6) (end 6.62 -3.1) (layer F.Fab) (width 0.1))
  (fp_line (start 6.62 -3.1) (end 8.62 -3.1) (layer F.Fab) (width 0.1))
  (fp_line (start 8.62 -3.1) (end 8.62 -3.6) (layer F.Fab) (width 0.1))
  (fp_line (start 8.62 -3.6) (end 6.62 -3.6) (layer F.Fab) (width 0.1))
  (fp_line (start 6.62 -3.6) (end 8.62 -3.6) (layer F.SilkS) (width 0.12))
  (fp_line (start 6.62 -3.1) (end 8.62 -3.1) (layer F.SilkS) (width 0.12))
  (fp_line (start 6.62 -3.6) (end 6.62 -3.1) (layer F.SilkS) (width 0.12))
  (fp_line (start 8.62 -3.6) (end 8.62 -3.1) (layer F.SilkS) (width 0.12))
  (fp_line (start 12.379 -0.796) (end 10.635 0.948) (layer F.Fab) (width 0.1))
  (fp_line (start 12.226 -0.948) (end 10.482 0.796) (layer F.Fab) (width 0.1))
  (fp_line (start 12.515 -0.91) (end 12.216 -0.611) (layer F.SilkS) (width 0.12))
  (fp_line (start 10.82 0.786) (end 10.52 1.085) (layer F.SilkS) (width 0.12))
  (fp_line (start 12.341 -1.085) (end 12.041 -0.786) (layer F.SilkS) (width 0.12))
  (fp_line (start 10.645 0.611) (end 10.346 0.91) (layer F.SilkS) (width 0.12))
  (fp_line (start 10.43 -3.6) (end 10.43 -3.1) (layer F.Fab) (width 0.1))
  (fp_line (start 10.43 -3.1) (end 12.43 -3.1) (layer F.Fab) (width 0.1))
  (fp_line (start 12.43 -3.1) (end 12.43 -3.6) (layer F.Fab) (width 0.1))
  (fp_line (start 12.43 -3.6) (end 10.43 -3.6) (layer F.Fab) (width 0.1))
  (fp_line (start 10.43 -3.6) (end 12.43 -3.6) (layer F.SilkS) (width 0.12))
  (fp_line (start 10.43 -3.1) (end 12.43 -3.1) (layer F.SilkS) (width 0.12))
  (fp_line (start 10.43 -3.6) (end 10.43 -3.1) (layer F.SilkS) (width 0.12))
  (fp_line (start 12.43 -3.6) (end 12.43 -3.1) (layer F.SilkS) (width 0.12))
  (fp_line (start 16.189 -0.796) (end 14.445 0.948) (layer F.Fab) (width 0.1))
  (fp_line (start 16.036 -0.948) (end 14.292 0.796) (layer F.Fab) (width 0.1))
  (fp_line (start 16.325 -0.91) (end 16.026 -0.611) (layer F.SilkS) (width 0.12))
  (fp_line (start 14.63 0.786) (end 14.33 1.085) (layer F.SilkS) (width 0.12))
  (fp_line (start 16.151 -1.085) (end 15.851 -0.786) (layer F.SilkS) (width 0.12))
  (fp_line (start 14.455 0.611) (end 14.156 0.91) (layer F.SilkS) (width 0.12))
  (fp_line (start 14.24 -3.6) (end 14.24 -3.1) (layer F.Fab) (width 0.1))
  (fp_line (start 14.24 -3.1) (end 16.24 -3.1) (layer F.Fab) (width 0.1))
  (fp_line (start 16.24 -3.1) (end 16.24 -3.6) (layer F.Fab) (width 0.1))
  (fp_line (start 16.24 -3.6) (end 14.24 -3.6) (layer F.Fab) (width 0.1))
  (fp_line (start 14.24 -3.6) (end 16.241 -3.6) (layer F.SilkS) (width 0.12))
  (fp_line (start 14.24 -3.1) (end 16.241 -3.1) (layer F.SilkS) (width 0.12))
  (fp_line (start 14.24 -3.6) (end 14.24 -3.1) (layer F.SilkS) (width 0.12))
  (fp_line (start 16.241 -3.6) (end 16.241 -3.1) (layer F.SilkS) (width 0.12))
  (fp_line (start 19.999 -0.796) (end 18.255 0.948) (layer F.Fab) (width 0.1))
  (fp_line (start 19.846 -0.948) (end 18.102 0.796) (layer F.Fab) (width 0.1))
  (fp_line (start 20.135 -0.91) (end 19.836 -0.611) (layer F.SilkS) (width 0.12))
  (fp_line (start 18.44 0.786) (end 18.14 1.085) (layer F.SilkS) (width 0.12))
  (fp_line (start 19.961 -1.085) (end 19.661 -0.786) (layer F.SilkS) (width 0.12))
  (fp_line (start 18.265 0.611) (end 17.966 0.91) (layer F.SilkS) (width 0.12))
  (fp_line (start 18.05 -3.6) (end 18.05 -3.1) (layer F.Fab) (width 0.1))
  (fp_line (start 18.05 -3.1) (end 20.05 -3.1) (layer F.Fab) (width 0.1))
  (fp_line (start 20.05 -3.1) (end 20.05 -3.6) (layer F.Fab) (width 0.1))
  (fp_line (start 20.05 -3.6) (end 18.05 -3.6) (layer F.Fab) (width 0.1))
  (fp_line (start 18.05 -3.6) (end 20.05 -3.6) (layer F.SilkS) (width 0.12))
  (fp_line (start 18.05 -3.1) (end 20.05 -3.1) (layer F.SilkS) (width 0.12))
  (fp_line (start 18.05 -3.6) (end 18.05 -3.1) (layer F.SilkS) (width 0.12))
  (fp_line (start 20.05 -3.6) (end 20.05 -3.1) (layer F.SilkS) (width 0.12))
  (fp_line (start -2.15 3.06) (end -2.15 3.9) (layer F.SilkS) (width 0.12))
  (fp_line (start -2.15 3.9) (end -1.55 3.9) (layer F.SilkS) (width 0.12))
  (fp_line (start -2.35 -4.2) (end -2.35 4.11) (layer F.CrtYd) (width 0.05))
  (fp_line (start -2.35 4.11) (end 21.4 4.11) (layer F.CrtYd) (width 0.05))
  (fp_line (start 21.4 4.11) (end 21.4 -4.2) (layer F.CrtYd) (width 0.05))
  (fp_line (start 21.4 -4.2) (end -2.35 -4.2) (layer F.CrtYd) (width 0.05))
  (pad 1 thru_hole rect (at 0 0) (size 1.4 1.4) (drill 0.7) (layers *.Cu *.Mask))
  (pad 2 thru_hole circle (at 3.81 0) (size 1.4 1.4) (drill 0.7) (layers *.Cu *.Mask))
  (pad 3 thru_hole circle (at 7.62 0) (size 1.4 1.4) (drill 0.7) (layers *.Cu *.Mask))
  (pad 4 thru_hole circle (at 11.43 0) (size 1.4 1.4) (drill 0.7) (layers *.Cu *.Mask))
  (pad 5 thru_hole circle (at 15.24 0) (size 1.4 1.4) (drill 0.7) (layers *.Cu *.Mask))
  (pad 6 thru_hole circle (at 19.05 0) (size 1.4 1.4) (drill 0.7) (layers *.Cu *.Mask))
  (fp_text user %R (at 9.525 2.4) (layer F.Fab)
    (effects (font (size 1 1) (thickness 0.15)))
  )
  (model ${KIPRJMOD}/kicad_libs_k/models_k.3d/TerminalBlock_MetzConnect_k.3dshapes/TerminalBlock_MetzConnect_Type086_RT03406HBLC_1x06_P3.81mm_Horizontal_k.wrl
    (at (xyz 0 0 0))
    (scale (xyz 1 1 1))
    (rotate (xyz 0 0 0))
  )
)