(module TerminalBlock_MetzConnect_Type171_RT13704HBWC_1x04_P7.50mm_Horizontal (layer F.Cu) (tedit 5B294EA3)
  (descr "terminal block Metz Connect Type171_RT13704HBWC, 4 pins, pitch 7.5mm, size 30x9mm^2, drill diamater 1.3mm, pad diameter 2.5mm, see http://www.metz-connect.com/de/system/files/productfiles/Datenblatt_311711_RT137xxHBWC_OFF-022811Q.pdf, script-generated using https://github.com/pointhi/kicad-footprint-generator/scripts/TerminalBlock_MetzConnect")
  (tags "THT terminal block Metz Connect Type171_RT13704HBWC pitch 7.5mm size 30x9mm^2 drill 1.3mm pad 2.5mm")
  (fp_text reference REF** (at 11.25 -5.56) (layer F.SilkS)
    (effects (font (size 1 1) (thickness 0.15)))
  )
  (fp_text value TerminalBlock_MetzConnect_Type171_RT13704HBWC_1x04_P7.50mm_Horizontal (at 11.25 5.56) (layer F.Fab)
    (effects (font (size 1 1) (thickness 0.15)))
  )
  (fp_arc (start 0 0) (end 0 1.68) (angle -28) (layer F.SilkS) (width 0.12))
  (fp_arc (start 0 0) (end 1.484 0.789) (angle -56) (layer F.SilkS) (width 0.12))
  (fp_arc (start 0 0) (end 0.789 -1.484) (angle -56) (layer F.SilkS) (width 0.12))
  (fp_arc (start 0 0) (end -1.484 -0.789) (angle -56) (layer F.SilkS) (width 0.12))
  (fp_arc (start 0 0) (end -0.789 1.484) (angle -29) (layer F.SilkS) (width 0.12))
  (fp_circle (center 0 0) (end 1.5 0) (layer F.Fab) (width 0.1))
  (fp_circle (center 7.5 0) (end 9 0) (layer F.Fab) (width 0.1))
  (fp_circle (center 7.5 0) (end 9.18 0) (layer F.SilkS) (width 0.12))
  (fp_circle (center 15 0) (end 16.5 0) (layer F.Fab) (width 0.1))
  (fp_circle (center 15 0) (end 16.68 0) (layer F.SilkS) (width 0.12))
  (fp_circle (center 22.5 0) (end 24 0) (layer F.Fab) (width 0.1))
  (fp_circle (center 22.5 0) (end 24.18 0) (layer F.SilkS) (width 0.12))
  (fp_line (start -3.75 -4.5) (end 26.25 -4.5) (layer F.Fab) (width 0.1))
  (fp_line (start 26.25 -4.5) (end 26.25 4.5) (layer F.Fab) (width 0.1))
  (fp_line (start 26.25 4.5) (end -1.75 4.5) (layer F.Fab) (width 0.1))
  (fp_line (start -1.75 4.5) (end -3.75 2.5) (layer F.Fab) (width 0.1))
  (fp_line (start -3.75 2.5) (end -3.75 -4.5) (layer F.Fab) (width 0.1))
  (fp_line (start -3.75 2.5) (end 26.25 2.5) (layer F.Fab) (width 0.1))
  (fp_line (start -3.81 2.5) (end 26.31 2.5) (layer F.SilkS) (width 0.12))
  (fp_line (start -3.75 -2.5) (end 26.25 -2.5) (layer F.Fab) (width 0.1))
  (fp_line (start -3.81 -2.5) (end 26.31 -2.5) (layer F.SilkS) (width 0.12))
  (fp_line (start -3.81 -4.56) (end 26.31 -4.56) (layer F.SilkS) (width 0.12))
  (fp_line (start -3.81 4.56) (end 26.31 4.56) (layer F.SilkS) (width 0.12))
  (fp_line (start -3.81 -4.56) (end -3.81 4.56) (layer F.SilkS) (width 0.12))
  (fp_line (start 26.31 -4.56) (end 26.31 4.56) (layer F.SilkS) (width 0.12))
  (fp_line (start 1.138 -0.955) (end -0.955 1.138) (layer F.Fab) (width 0.1))
  (fp_line (start 0.955 -1.138) (end -1.138 0.955) (layer F.Fab) (width 0.1))
  (fp_line (start 8.638 -0.955) (end 6.546 1.138) (layer F.Fab) (width 0.1))
  (fp_line (start 8.455 -1.138) (end 6.363 0.955) (layer F.Fab) (width 0.1))
  (fp_line (start 8.775 -1.069) (end 8.681 -0.976) (layer F.SilkS) (width 0.12))
  (fp_line (start 6.49 1.216) (end 6.431 1.274) (layer F.SilkS) (width 0.12))
  (fp_line (start 8.57 -1.275) (end 8.511 -1.216) (layer F.SilkS) (width 0.12))
  (fp_line (start 6.32 0.976) (end 6.226 1.069) (layer F.SilkS) (width 0.12))
  (fp_line (start 16.138 -0.955) (end 14.046 1.138) (layer F.Fab) (width 0.1))
  (fp_line (start 15.955 -1.138) (end 13.863 0.955) (layer F.Fab) (width 0.1))
  (fp_line (start 16.275 -1.069) (end 16.181 -0.976) (layer F.SilkS) (width 0.12))
  (fp_line (start 13.99 1.216) (end 13.931 1.274) (layer F.SilkS) (width 0.12))
  (fp_line (start 16.07 -1.275) (end 16.011 -1.216) (layer F.SilkS) (width 0.12))
  (fp_line (start 13.82 0.976) (end 13.726 1.069) (layer F.SilkS) (width 0.12))
  (fp_line (start 23.638 -0.955) (end 21.546 1.138) (layer F.Fab) (width 0.1))
  (fp_line (start 23.455 -1.138) (end 21.363 0.955) (layer F.Fab) (width 0.1))
  (fp_line (start 23.775 -1.069) (end 23.681 -0.976) (layer F.SilkS) (width 0.12))
  (fp_line (start 21.49 1.216) (end 21.431 1.274) (layer F.SilkS) (width 0.12))
  (fp_line (start 23.57 -1.275) (end 23.511 -1.216) (layer F.SilkS) (width 0.12))
  (fp_line (start 21.32 0.976) (end 21.226 1.069) (layer F.SilkS) (width 0.12))
  (fp_line (start -4.05 2.56) (end -4.05 4.8) (layer F.SilkS) (width 0.12))
  (fp_line (start -4.05 4.8) (end -2.05 4.8) (layer F.SilkS) (width 0.12))
  (fp_line (start -4.25 -5) (end -4.25 5) (layer F.CrtYd) (width 0.05))
  (fp_line (start -4.25 5) (end 26.75 5) (layer F.CrtYd) (width 0.05))
  (fp_line (start 26.75 5) (end 26.75 -5) (layer F.CrtYd) (width 0.05))
  (fp_line (start 26.75 -5) (end -4.25 -5) (layer F.CrtYd) (width 0.05))
  (pad 1 thru_hole rect (at 0 0) (size 2.5 2.5) (drill 1.3) (layers *.Cu *.Mask))
  (pad 2 thru_hole circle (at 7.5 0) (size 2.5 2.5) (drill 1.3) (layers *.Cu *.Mask))
  (pad 3 thru_hole circle (at 15 0) (size 2.5 2.5) (drill 1.3) (layers *.Cu *.Mask))
  (pad 4 thru_hole circle (at 22.5 0) (size 2.5 2.5) (drill 1.3) (layers *.Cu *.Mask))
  (fp_text user %R (at 11.25 3.5) (layer F.Fab)
    (effects (font (size 1 1) (thickness 0.15)))
  )
  (model ${KIPRJMOD}/kicad_libs_k/models_k.3d/TerminalBlock_MetzConnect_k.3dshapes/TerminalBlock_MetzConnect_Type171_RT13704HBWC_1x04_P7.50mm_Horizontal_k.wrl
    (at (xyz 0 0 0))
    (scale (xyz 1 1 1))
    (rotate (xyz 0 0 0))
  )
)