(module LED_Avago_PLCC6_3x2.8mm (layer F.Cu) (tedit 5B211B3C)
  (descr https://docs.broadcom.com/docs/AV02-3793EN)
  (tags "LED Avago PLCC-6 ASMT-YTB7-0AA02")
  (attr smd)
  (fp_text reference REF** (at 0 -2.5) (layer F.SilkS)
    (effects (font (size 1 1) (thickness 0.15)))
  )
  (fp_text value LED_Avago_PLCC6_3x2.8mm (at 0 2.5) (layer F.Fab)
    (effects (font (size 1 1) (thickness 0.15)))
  )
  (fp_text user %R (at 0 0) (layer F.Fab)
    (effects (font (size 0.5 0.5) (thickness 0.075)))
  )
  (fp_line (start -1.5 1.4) (end 1.5 1.4) (layer F.Fab) (width 0.1))
  (fp_line (start -1.5 -1.4) (end 1.5 -1.4) (layer F.Fab) (width 0.1))
  (fp_line (start -1.5 -1.4) (end -1.5 1.4) (layer F.Fab) (width 0.1))
  (fp_line (start 1.5 -1.4) (end 1.5 1.4) (layer F.Fab) (width 0.1))
  (fp_line (start -1.5 -0.9) (end -1 -1.4) (layer F.Fab) (width 0.1))
  (fp_line (start -2.2 -1.51) (end 1.5 -1.51) (layer F.SilkS) (width 0.12))
  (fp_line (start -1.5 1.51) (end 1.5 1.51) (layer F.SilkS) (width 0.12))
  (fp_line (start -2.53 -1.65) (end -2.53 1.65) (layer F.CrtYd) (width 0.05))
  (fp_line (start -2.53 1.65) (end 2.53 1.65) (layer F.CrtYd) (width 0.05))
  (fp_line (start 2.53 -1.65) (end 2.53 1.65) (layer F.CrtYd) (width 0.05))
  (fp_line (start -2.53 -1.65) (end 2.53 -1.65) (layer F.CrtYd) (width 0.05))
  (pad 6 smd rect (at 1.475 -0.9) (size 1.6 0.5) (layers F.Cu F.Paste F.Mask))
  (pad 5 smd rect (at 1.475 0) (size 1.6 0.5) (layers F.Cu F.Paste F.Mask))
  (pad 4 smd rect (at 1.475 0.9) (size 1.6 0.5) (layers F.Cu F.Paste F.Mask))
  (pad 3 smd rect (at -1.475 0.9) (size 1.6 0.5) (layers F.Cu F.Paste F.Mask))
  (pad 2 smd rect (at -1.475 0) (size 1.6 0.5) (layers F.Cu F.Paste F.Mask))
  (pad 1 smd rect (at -1.475 -0.9) (size 1.6 0.5) (layers F.Cu F.Paste F.Mask))
  (model ${KIPRJMOD}/kicad_libs_k/models_k.3d/LED_SMD_k.3dshapes/LED_Avago_PLCC6_3x2.8mm_k.wrl
    (at (xyz 0 0 0))
    (scale (xyz 1 1 1))
    (rotate (xyz 0 0 0))
  )
)
