(module LED_0805_2012Metric_Pad1.15x1.40mm_HandSolder (layer F.Cu) (tedit 5B4B45C9)
  (descr "LED SMD 0805 (2012 Metric), square (rectangular) end terminal, IPC_7351 nominal, (Body size source: https://docs.google.com/spreadsheets/d/1BsfQQcO9C6DZCsRaXUlFlo91Tg2WpOkGARC1WS5S8t0/edit?usp=sharing), generated with kicad-footprint-generator")
  (tags "LED handsolder")
  (attr smd)
  (fp_text reference REF** (at 0 -1.65) (layer F.SilkS)
    (effects (font (size 1 1) (thickness 0.15)))
  )
  (fp_text value LED_0805_2012Metric_Pad1.15x1.40mm_HandSolder (at 0 1.65) (layer F.Fab)
    (effects (font (size 1 1) (thickness 0.15)))
  )
  (fp_line (start 1 -0.6) (end -0.7 -0.6) (layer F.Fab) (width 0.1))
  (fp_line (start -0.7 -0.6) (end -1 -0.3) (layer F.Fab) (width 0.1))
  (fp_line (start -1 -0.3) (end -1 0.6) (layer F.Fab) (width 0.1))
  (fp_line (start -1 0.6) (end 1 0.6) (layer F.Fab) (width 0.1))
  (fp_line (start 1 0.6) (end 1 -0.6) (layer F.Fab) (width 0.1))
  (fp_line (start 1 -0.96) (end -1.86 -0.96) (layer F.SilkS) (width 0.12))
  (fp_line (start -1.86 -0.96) (end -1.86 0.96) (layer F.SilkS) (width 0.12))
  (fp_line (start -1.86 0.96) (end 1 0.96) (layer F.SilkS) (width 0.12))
  (fp_line (start -1.85 0.95) (end -1.85 -0.95) (layer F.CrtYd) (width 0.05))
  (fp_line (start -1.85 -0.95) (end 1.85 -0.95) (layer F.CrtYd) (width 0.05))
  (fp_line (start 1.85 -0.95) (end 1.85 0.95) (layer F.CrtYd) (width 0.05))
  (fp_line (start 1.85 0.95) (end -1.85 0.95) (layer F.CrtYd) (width 0.05))
  (pad 1 smd roundrect (at -1.025 0) (size 1.15 1.4) (layers F.Cu F.Mask F.Paste) (roundrect_rratio 0.217391))
  (pad 2 smd roundrect (at 1.025 0) (size 1.15 1.4) (layers F.Cu F.Mask F.Paste) (roundrect_rratio 0.217391))
  (fp_text user %R (at 0 0) (layer F.Fab)
    (effects (font (size 0.5 0.5) (thickness 0.08)))
  )
  (model ${KIPRJMOD}/kicad_libs_k/models_k.3d/LED_SMD_k.3dshapes/LED_0805_2012Metric_k.wrl
    (at (xyz 0 0 0))
    (scale (xyz 1 1 1))
    (rotate (xyz 0 0 0))
  )
)