(module LED_PLCC-2 (layer F.Cu) (tedit 59959404)
  (descr "LED PLCC-2 SMD package")
  (tags "LED PLCC-2 SMD")
  (attr smd)
  (fp_text reference REF** (at 0 -2.5) (layer F.SilkS)
    (effects (font (size 1 1) (thickness 0.15)))
  )
  (fp_text value LED_PLCC-2 (at 0 2.5) (layer F.Fab)
    (effects (font (size 1 1) (thickness 0.15)))
  )
  (fp_circle (center 0 0) (end 0 -1.25) (layer F.Fab) (width 0.1))
  (fp_line (start -1.7 -0.6) (end -0.8 -1.5) (layer F.Fab) (width 0.1))
  (fp_line (start 1.7 1.5) (end 1.7 -1.5) (layer F.Fab) (width 0.1))
  (fp_line (start 1.7 -1.5) (end -1.7 -1.5) (layer F.Fab) (width 0.1))
  (fp_line (start -1.7 -1.5) (end -1.7 1.5) (layer F.Fab) (width 0.1))
  (fp_line (start -1.7 1.5) (end 1.7 1.5) (layer F.Fab) (width 0.1))
  (fp_line (start -2.65 -1.85) (end 2.5 -1.85) (layer F.CrtYd) (width 0.05))
  (fp_line (start 2.5 -1.85) (end 2.5 1.85) (layer F.CrtYd) (width 0.05))
  (fp_line (start 2.5 1.85) (end -2.65 1.85) (layer F.CrtYd) (width 0.05))
  (fp_line (start -2.65 1.85) (end -2.65 -1.85) (layer F.CrtYd) (width 0.05))
  (fp_line (start 2.25 1.6) (end -2.4 1.6) (layer F.SilkS) (width 0.12))
  (fp_line (start 2.25 -1.6) (end -2.4 -1.6) (layer F.SilkS) (width 0.12))
  (fp_line (start -2.4 -1.6) (end -2.4 -0.8) (layer F.SilkS) (width 0.12))
  (fp_text user %R (at 0 0) (layer F.Fab)
    (effects (font (size 0.4 0.4) (thickness 0.1)))
  )
  (pad 1 smd rect (at -1.5 0) (size 1.5 2.6) (layers F.Cu F.Paste F.Mask))
  (pad 2 smd rect (at 1.5 0) (size 1.5 2.6) (layers F.Cu F.Paste F.Mask))
  (model ${KIPRJMOD}/kicad_libs_k/models_k.3d/LED_SMD_k.3dshapes/LED_PLCC-2_k.wrl
    (at (xyz 0 0 0))
    (scale (xyz 1 1 1))
    (rotate (xyz 0 0 0))
  )
)
