(module LED_Cree-PLCC4_5x5mm_CW (layer F.Cu) (tedit 59D41639)
  (descr "5.0mm x 5.0mm PLCC4 LED")
  (tags "LED Cree PLCC-4")
  (attr smd)
  (fp_text reference REF** (at 0 -3.5) (layer F.SilkS)
    (effects (font (size 1 1) (thickness 0.15)))
  )
  (fp_text value LED_Cree-PLCC4_5x5mm_CW (at 0 4) (layer F.Fab)
    (effects (font (size 1 1) (thickness 0.15)))
  )
  (fp_line (start 3.75 -2.85) (end -3.75 -2.85) (layer F.CrtYd) (width 0.05))
  (fp_line (start 3.75 2.85) (end 3.75 -2.85) (layer F.CrtYd) (width 0.05))
  (fp_line (start -3.75 2.85) (end 3.75 2.85) (layer F.CrtYd) (width 0.05))
  (fp_line (start -3.75 -2.85) (end -3.75 2.85) (layer F.CrtYd) (width 0.05))
  (fp_line (start -1.5 -2.5) (end -2.5 -1.5) (layer F.Fab) (width 0.1))
  (fp_line (start -2.5 -2.5) (end -2.5 2.5) (layer F.Fab) (width 0.1))
  (fp_line (start -2.5 2.5) (end 2.5 2.5) (layer F.Fab) (width 0.1))
  (fp_line (start 2.5 2.5) (end 2.5 -2.5) (layer F.Fab) (width 0.1))
  (fp_line (start 2.5 -2.5) (end -2.5 -2.5) (layer F.Fab) (width 0.1))
  (fp_line (start -3.5 -2.6) (end 3.5 -2.6) (layer F.SilkS) (width 0.12))
  (fp_line (start -3.5 2.6) (end 3.5 2.6) (layer F.SilkS) (width 0.12))
  (fp_line (start -3.5 -1.6) (end -3.5 -2.6) (layer F.SilkS) (width 0.12))
  (fp_circle (center 0 0) (end 0 -2) (layer F.Fab) (width 0.1))
  (fp_text user %R (at 0 0) (layer F.Fab)
    (effects (font (size 1 1) (thickness 0.1)))
  )
  (pad 3 smd rect (at 2.5 1.6) (size 1.6 1) (layers F.Cu F.Paste F.Mask))
  (pad 2 smd rect (at 2.5 -1.6) (size 1.6 1) (layers F.Cu F.Paste F.Mask))
  (pad 4 smd rect (at -2.5 1.6) (size 1.6 1) (layers F.Cu F.Paste F.Mask))
  (pad 1 smd rect (at -2.5 -1.6) (size 1.6 1) (layers F.Cu F.Paste F.Mask))
  (model ${KIPRJMOD}/kicad_libs_k/models_k.3d/LED_SMD_k.3dshapes/LED_Cree-PLCC4_5x5mm_CW_k.wrl
    (at (xyz 0 0 0))
    (scale (xyz 1 1 1))
    (rotate (xyz 0 0 0))
  )
)
