(module LED_Cree-XH (layer F.Cu) (tedit 57592DC3)
  (descr http://www.cree.com/~/media/Files/Cree/LED-Components-and-Modules/XLamp/Data-and-Binning/ds-XHB.pdf)
  (tags "LED Cree XH")
  (attr smd)
  (fp_text reference REF** (at 0 -2.7) (layer F.SilkS)
    (effects (font (size 1 1) (thickness 0.15)))
  )
  (fp_text value LED_Cree-XH (at 0 2.7) (layer F.Fab)
    (effects (font (size 1 1) (thickness 0.15)))
  )
  (fp_line (start 0.5 0.5) (end -0.5 0) (layer F.Fab) (width 0.1))
  (fp_line (start 0.5 -0.5) (end 0.5 0.5) (layer F.Fab) (width 0.1))
  (fp_line (start -0.5 0) (end 0.5 -0.5) (layer F.Fab) (width 0.1))
  (fp_line (start -0.5 -0.5) (end -0.5 0.5) (layer F.Fab) (width 0.1))
  (fp_line (start -1 0) (end -0.5 0) (layer F.Fab) (width 0.1))
  (fp_line (start 1 0) (end 0.5 0) (layer F.Fab) (width 0.1))
  (fp_line (start -1.75 1.75) (end 0.75 1.75) (layer F.SilkS) (width 0.12))
  (fp_line (start -1.75 1.25) (end -1.75 1.75) (layer F.SilkS) (width 0.12))
  (fp_line (start -1.75 -1.75) (end -1.75 -1.25) (layer F.SilkS) (width 0.12))
  (fp_line (start 0.75 -1.75) (end -1.75 -1.75) (layer F.SilkS) (width 0.12))
  (fp_line (start 2 -1.85) (end -2 -1.85) (layer F.CrtYd) (width 0.05))
  (fp_line (start 2 1.85) (end 2 -1.85) (layer F.CrtYd) (width 0.05))
  (fp_line (start -2 1.85) (end 2 1.85) (layer F.CrtYd) (width 0.05))
  (fp_line (start -2 -1.85) (end -2 1.85) (layer F.CrtYd) (width 0.05))
  (fp_line (start -1.5 1.5) (end -1.5 -1.5) (layer F.Fab) (width 0.1))
  (fp_line (start 1.5 1.5) (end -1.5 1.5) (layer F.Fab) (width 0.1))
  (fp_line (start 1.5 -1.5) (end 1.5 1.5) (layer F.Fab) (width 0.1))
  (fp_line (start -1.5 -1.5) (end 1.5 -1.5) (layer F.Fab) (width 0.1))
  (fp_text user %R (at 0 0) (layer F.Fab)
    (effects (font (size 0.5 0.5) (thickness 0.05)))
  )
  (pad 1 smd rect (at -0.65 0) (size 1.7 3) (layers F.Cu F.Mask))
  (pad 2 smd rect (at 1.1 0) (size 0.8 3) (layers F.Cu F.Mask))
  (pad 1 smd rect (at -1.5 0) (size 0.5 0.33) (layers F.Cu F.Mask))
  (pad 2 smd rect (at 1.5 0) (size 0.5 0.33) (layers F.Cu F.Mask))
  (pad 1 smd rect (at -0.65 -0.75) (size 1.35 1.2) (layers F.Paste))
  (pad 1 smd rect (at -0.65 0.75) (size 1.35 1.2) (layers F.Paste))
  (pad 2 smd rect (at 1.1 0.75) (size 0.7 1.2) (layers F.Paste))
  (pad 2 smd rect (at 1.1 -0.75) (size 0.7 1.2) (layers F.Paste))
  (model ${KIPRJMOD}/kicad_libs_k/models_k.3d/LED_SMD_k.3dshapes/LED_Cree-XH_k.wrl
    (at (xyz 0 0 0))
    (scale (xyz 1 1 1))
    (rotate (xyz 0 0 0))
  )
)
