(module LED_Cree-XB (layer F.Cu) (tedit 587BEC30)
  (descr http://www.cree.com/~/media/Files/Cree/LED-Components-and-Modules/XLamp/Data-and-Binning/XLampXBD.pdf)
  (tags "LED Cree XB")
  (attr smd)
  (fp_text reference REF** (at 0 -2.25) (layer F.SilkS)
    (effects (font (size 1 1) (thickness 0.15)))
  )
  (fp_text value LED_Cree-XB (at 0 2.25) (layer F.Fab)
    (effects (font (size 1 1) (thickness 0.15)))
  )
  (fp_line (start 1.4 1.4) (end -1.4 1.4) (layer F.CrtYd) (width 0.05))
  (fp_line (start 1.4 -1.4) (end 1.4 1.4) (layer F.CrtYd) (width 0.05))
  (fp_line (start -1.4 -1.4) (end 1.4 -1.4) (layer F.CrtYd) (width 0.05))
  (fp_line (start -1.4 1.4) (end -1.4 -1.4) (layer F.CrtYd) (width 0.05))
  (fp_line (start -1.35 1.35) (end -1.35 0.6) (layer F.SilkS) (width 0.12))
  (fp_line (start 0.5 1.35) (end -1.35 1.35) (layer F.SilkS) (width 0.12))
  (fp_line (start -1.35 -1.35) (end -1.35 -0.6) (layer F.SilkS) (width 0.12))
  (fp_line (start 0.5 -1.35) (end -1.35 -1.35) (layer F.SilkS) (width 0.12))
  (fp_line (start -1.15 1.15) (end -1.15 -1.15) (layer F.Fab) (width 0.1))
  (fp_line (start 1.15 1.15) (end -1.15 1.15) (layer F.Fab) (width 0.1))
  (fp_line (start 1.15 -1.15) (end 1.15 1.15) (layer F.Fab) (width 0.1))
  (fp_line (start -1.15 -1.15) (end 1.15 -1.15) (layer F.Fab) (width 0.1))
  (fp_text user %R (at 0 0) (layer F.Fab)
    (effects (font (size 0.5 0.5) (thickness 0.05)))
  )
  (pad 2 smd rect (at 0.98 0) (size 0.33 2.29) (layers F.Cu F.Paste F.Mask))
  (pad 1 smd rect (at -0.98 0) (size 0.33 2.29) (layers F.Cu F.Paste F.Mask))
  (pad 3 smd rect (at 0 0) (size 0.92 2.29) (layers F.Cu F.Mask))
  (pad 3 smd rect (at 0 -0.55) (size 0.85 0.85) (layers F.Paste))
  (pad 3 smd rect (at 0 0.55) (size 0.85 0.85) (layers F.Paste))
  (model ${KIPRJMOD}/kicad_libs_k/models_k.3d/LED_SMD_k.3dshapes/LED_Cree-XB_k.wrl
    (at (xyz 0 0 0))
    (scale (xyz 1 1 1))
    (rotate (xyz 0 0 0))
  )
)
