(module LED_Kingbright_APFA3010_3x1.5mm_Horizontal (layer F.Cu) (tedit 5A7CB8DD)
  (descr "LED RGB, APFA3010, http://www.kingbrightusa.com/images/catalog/SPEC/APFA3010LSEEZGKQBKC.pdf")
  (tags "LED RGB APFA3010 KINGBRIGHT 3x1.5mm")
  (attr smd)
  (fp_text reference REF** (at 0 1.8) (layer F.SilkS)
    (effects (font (size 1 1) (thickness 0.15)))
  )
  (fp_text value LED_Kingbright_APFA3010_3x1.5mm_Horizontal (at 0 3) (layer F.Fab)
    (effects (font (size 0.5 0.5) (thickness 0.075)))
  )
  (fp_arc (start 0 -0.25) (end -1.17 -0.7) (angle 137.9249779) (layer F.CrtYd) (width 0.05))
  (fp_line (start -2.25 -0.7) (end -1.17 -0.7) (layer F.CrtYd) (width 0.05))
  (fp_line (start -2.25 0.7) (end -2.25 -0.7) (layer F.CrtYd) (width 0.05))
  (fp_line (start 2.25 -0.7) (end 1.17 -0.7) (layer F.CrtYd) (width 0.05))
  (fp_line (start 2.25 0.7) (end 2.25 -0.7) (layer F.CrtYd) (width 0.05))
  (fp_line (start 0.85 0.7) (end 2.25 0.7) (layer F.CrtYd) (width 0.05))
  (fp_line (start 0.85 1.1) (end 0.85 0.7) (layer F.CrtYd) (width 0.05))
  (fp_line (start -0.85 1.1) (end 0.85 1.1) (layer F.CrtYd) (width 0.05))
  (fp_line (start -0.85 0.7) (end -0.85 1.1) (layer F.CrtYd) (width 0.05))
  (fp_line (start -2.25 0.7) (end -0.85 0.7) (layer F.CrtYd) (width 0.05))
  (fp_text user %R (at 0 0) (layer F.Fab)
    (effects (font (size 0.3 0.3) (thickness 0.045)))
  )
  (fp_line (start -0.75 -0.25) (end -1.25 0.25) (layer F.Fab) (width 0.1))
  (fp_line (start -2.2 0.65) (end -1.5 0.65) (layer F.SilkS) (width 0.12))
  (fp_line (start -2.2 0) (end -2.2 0.65) (layer F.SilkS) (width 0.12))
  (fp_arc (start 0 -0.25) (end -1 -0.65) (angle 136.397181) (layer F.SilkS) (width 0.12))
  (fp_arc (start 0 -0.25) (end -1 -0.25) (angle 180) (layer F.Fab) (width 0.1))
  (fp_line (start -1.5 -0.25) (end -1.5 0.25) (layer F.Fab) (width 0.1))
  (fp_line (start 1.5 -0.25) (end -1.5 -0.25) (layer F.Fab) (width 0.1))
  (fp_line (start 1.5 0.25) (end 1.5 -0.25) (layer F.Fab) (width 0.1))
  (fp_line (start -1.5 0.25) (end 1.5 0.25) (layer F.Fab) (width 0.1))
  (pad 1 smd rect (at -1.5 0) (size 1 0.9) (layers F.Cu F.Paste F.Mask))
  (pad 2 smd rect (at 1.5 0) (size 1 0.9) (layers F.Cu F.Paste F.Mask))
  (pad 3 smd rect (at -0.4 0.45) (size 0.4 0.8) (layers F.Cu F.Paste F.Mask))
  (pad 4 smd rect (at 0.4 0.45) (size 0.4 0.8) (layers F.Cu F.Paste F.Mask))
  (model ${KIPRJMOD}/kicad_libs_k/models_k.3d/LED_SMD_k.3dshapes/LED_Kingbright_APFA3010_3x1.5mm_Horizontal_k.wrl
    (at (xyz 0 0 0))
    (scale (xyz 1 1 1))
    (rotate (xyz 0 0 0))
  )
)
