(module LED_2816_7142Metric (layer F.Cu) (tedit 5B341557)
  (descr "LED SMD 2816 (7142 Metric), square (rectangular) end terminal, IPC_7351 nominal, (Body size from: https://www.vishay.com/docs/30100/wsl.pdf), generated with kicad-footprint-generator")
  (tags diode)
  (attr smd)
  (fp_text reference REF** (at 0 -3.18) (layer F.SilkS)
    (effects (font (size 1 1) (thickness 0.15)))
  )
  (fp_text value LED_2816_7142Metric (at 0 3.18) (layer F.Fab)
    (effects (font (size 1 1) (thickness 0.15)))
  )
  (fp_line (start 3.55 -2.1) (end -2.55 -2.1) (layer F.Fab) (width 0.1))
  (fp_line (start -2.55 -2.1) (end -3.55 -1.1) (layer F.Fab) (width 0.1))
  (fp_line (start -3.55 -1.1) (end -3.55 2.1) (layer F.Fab) (width 0.1))
  (fp_line (start -3.55 2.1) (end 3.55 2.1) (layer F.Fab) (width 0.1))
  (fp_line (start 3.55 2.1) (end 3.55 -2.1) (layer F.Fab) (width 0.1))
  (fp_line (start 3.55 -2.485) (end -4.285 -2.485) (layer F.SilkS) (width 0.12))
  (fp_line (start -4.285 -2.485) (end -4.285 2.485) (layer F.SilkS) (width 0.12))
  (fp_line (start -4.285 2.485) (end 3.55 2.485) (layer F.SilkS) (width 0.12))
  (fp_line (start -4.28 2.48) (end -4.28 -2.48) (layer F.CrtYd) (width 0.05))
  (fp_line (start -4.28 -2.48) (end 4.28 -2.48) (layer F.CrtYd) (width 0.05))
  (fp_line (start 4.28 -2.48) (end 4.28 2.48) (layer F.CrtYd) (width 0.05))
  (fp_line (start 4.28 2.48) (end -4.28 2.48) (layer F.CrtYd) (width 0.05))
  (pad 1 smd roundrect (at -2.5125 0) (size 3.025 4.45) (layers F.Cu F.Mask F.Paste) (roundrect_rratio 0.082645))
  (pad 2 smd roundrect (at 2.5125 0) (size 3.025 4.45) (layers F.Cu F.Mask F.Paste) (roundrect_rratio 0.082645))
  (fp_text user %R (at 0 0) (layer F.Fab)
    (effects (font (size 1 1) (thickness 0.15)))
  )
  (model ${KIPRJMOD}/kicad_libs_k/models_k.3d/LED_SMD_k.3dshapes/LED_2816_7142Metric_k.wrl
    (at (xyz 0 0 0))
    (scale (xyz 1 1 1))
    (rotate (xyz 0 0 0))
  )
)