(module LED_1812_4532Metric_Castellated (layer F.Cu) (tedit 5B301BBE)
  (descr "LED SMD 1812 (4532 Metric), castellated end terminal, IPC_7351 nominal, (Body size source: https://www.nikhef.nl/pub/departments/mt/projects/detectorR_D/dtddice/ERJ2G.pdf), generated with kicad-footprint-generator")
  (tags "LED castellated")
  (attr smd)
  (fp_text reference REF** (at 0 -2.6) (layer F.SilkS)
    (effects (font (size 1 1) (thickness 0.15)))
  )
  (fp_text value LED_1812_4532Metric_Castellated (at 0 2.6) (layer F.Fab)
    (effects (font (size 1 1) (thickness 0.15)))
  )
  (fp_line (start 2.25 -1.6) (end -1.45 -1.6) (layer F.Fab) (width 0.1))
  (fp_line (start -1.45 -1.6) (end -2.25 -0.8) (layer F.Fab) (width 0.1))
  (fp_line (start -2.25 -0.8) (end -2.25 1.6) (layer F.Fab) (width 0.1))
  (fp_line (start -2.25 1.6) (end 2.25 1.6) (layer F.Fab) (width 0.1))
  (fp_line (start 2.25 1.6) (end 2.25 -1.6) (layer F.Fab) (width 0.1))
  (fp_line (start 2.25 -1.91) (end -3.16 -1.91) (layer F.SilkS) (width 0.12))
  (fp_line (start -3.16 -1.91) (end -3.16 1.91) (layer F.SilkS) (width 0.12))
  (fp_line (start -3.16 1.91) (end 2.25 1.91) (layer F.SilkS) (width 0.12))
  (fp_line (start -3.15 1.9) (end -3.15 -1.9) (layer F.CrtYd) (width 0.05))
  (fp_line (start -3.15 -1.9) (end 3.15 -1.9) (layer F.CrtYd) (width 0.05))
  (fp_line (start 3.15 -1.9) (end 3.15 1.9) (layer F.CrtYd) (width 0.05))
  (fp_line (start 3.15 1.9) (end -3.15 1.9) (layer F.CrtYd) (width 0.05))
  (pad 1 smd roundrect (at -2.1625 0) (size 1.475 3.3) (layers F.Cu F.Mask F.Paste) (roundrect_rratio 0.169492))
  (pad 2 smd roundrect (at 2.1625 0) (size 1.475 3.3) (layers F.Cu F.Mask F.Paste) (roundrect_rratio 0.169492))
  (fp_text user %R (at 0 0) (layer F.Fab)
    (effects (font (size 1 1) (thickness 0.15)))
  )
  (model ${KIPRJMOD}/kicad_libs_k/models_k.3d/LED_SMD_k.3dshapes/LED_1812_4532Metric_Castellated_k.wrl
    (at (xyz 0 0 0))
    (scale (xyz 1 1 1))
    (rotate (xyz 0 0 0))
  )
)