(module LED_Cree-XQ (layer F.Cu) (tedit 5759EDB2)
  (descr "LED Cree-XQ http://www.cree.com/~/media/Files/Cree/LED-Components-and-Modules/XLamp/Data-and-Binning/ds-XQB.pdf")
  (tags "LED Cree XQ")
  (attr smd)
  (fp_text reference REF** (at 0 -2) (layer F.SilkS)
    (effects (font (size 1 1) (thickness 0.15)))
  )
  (fp_text value LED_Cree-XQ (at 0 2) (layer F.Fab)
    (effects (font (size 1 1) (thickness 0.15)))
  )
  (fp_line (start -1.1 -1.1) (end 1.1 -1.1) (layer F.CrtYd) (width 0.05))
  (fp_line (start -1.1 1.1) (end -1.1 -1.1) (layer F.CrtYd) (width 0.05))
  (fp_line (start 1.1 1.1) (end -1.1 1.1) (layer F.CrtYd) (width 0.05))
  (fp_line (start 1.1 -1.1) (end 1.1 1.1) (layer F.CrtYd) (width 0.05))
  (fp_line (start -1 1) (end -1 0.6) (layer F.SilkS) (width 0.12))
  (fp_line (start 0.2 1) (end -1 1) (layer F.SilkS) (width 0.12))
  (fp_line (start -1 -1) (end -1 -0.6) (layer F.SilkS) (width 0.12))
  (fp_line (start 0.2 -1) (end -1 -1) (layer F.SilkS) (width 0.12))
  (fp_line (start 0.2 0.2) (end -0.2 0) (layer F.Fab) (width 0.1))
  (fp_line (start 0.2 -0.2) (end 0.2 0.2) (layer F.Fab) (width 0.1))
  (fp_line (start -0.2 0) (end 0.2 -0.2) (layer F.Fab) (width 0.1))
  (fp_line (start -0.2 -0.2) (end -0.2 0.2) (layer F.Fab) (width 0.1))
  (fp_line (start -0.6 0) (end -0.2 0) (layer F.Fab) (width 0.1))
  (fp_line (start 0.6 0) (end 0.2 0) (layer F.Fab) (width 0.1))
  (fp_line (start -0.8 0.8) (end -0.8 -0.8) (layer F.Fab) (width 0.1))
  (fp_line (start 0.8 0.8) (end -0.8 0.8) (layer F.Fab) (width 0.1))
  (fp_line (start 0.8 -0.8) (end 0.8 0.8) (layer F.Fab) (width 0.1))
  (fp_line (start -0.8 -0.8) (end 0.8 -0.8) (layer F.Fab) (width 0.1))
  (fp_text user %R (at 0 0) (layer F.Fab)
    (effects (font (size 0.5 0.5) (thickness 0.05)))
  )
  (pad 1 smd rect (at -0.475 0) (size 0.65 1.6) (layers F.Cu F.Paste F.Mask))
  (pad 2 smd rect (at 0.475 0) (size 0.65 1.6) (layers F.Cu F.Paste F.Mask))
  (model ${KIPRJMOD}/kicad_libs_k/models_k.3d/LED_SMD_k.3dshapes/LED_Cree-XQ_k.wrl
    (at (xyz 0 0 0))
    (scale (xyz 1 1 1))
    (rotate (xyz 0 0 0))
  )
)
