(module Light_Pipe_Bivar_LPR1-400-650 locked (layer F.Cu) (tedit 5BAA11CB)
  (fp_text reference PIPE801 (at 5.95 0.2 90) (layer F.SilkS)
    (effects (font (size 1 1) (thickness 0.15)))
  )
  (fp_text value Lightpipe_RLP1-400-650 (at -0.02 -3.16) (layer F.Fab)
    (effects (font (size 1 1) (thickness 0.15)))
  )
  (fp_line (start -1.5 -3.2) (end 1.5 -3.2) (layer F.Fab) (width 0.15))
  (fp_line (start 1.5 -3.2) (end 1.5 0.6) (layer F.Fab) (width 0.15))
  (fp_line (start -1.5 0.6) (end 1.5 0.6) (layer F.Fab) (width 0.15))
  (fp_line (start -1.5 0.6) (end -1.5 -3.2) (layer F.Fab) (width 0.15))
  (fp_line (start -2.2 17) (end 2.2 17) (layer F.Fab) (width 0.15))
  (fp_line (start -4.3 2.9) (end 4.3 2.9) (layer F.SilkS) (width 0.15))
  (fp_line (start -4.3 -2.9) (end 4.3 -2.9) (layer F.SilkS) (width 0.15))
  (fp_line (start -4.3 2.9) (end -4.3 -2.9) (layer F.SilkS) (width 0.15))
  (fp_line (start 4.3 2.9) (end 4.3 -2.9) (layer F.SilkS) (width 0.15))
  (fp_line (start -4.3 -1.3) (end -4.8 -1.3) (layer B.Fab) (width 0.15))
  (fp_line (start -4.8 -1.3) (end -4.8 1.3) (layer B.Fab) (width 0.15))
  (fp_line (start -4.8 1.3) (end -4.3 1.3) (layer B.Fab) (width 0.15))
  (fp_line (start 4.3 -1.3) (end 4.8 -1.3) (layer B.Fab) (width 0.15))
  (fp_line (start 4.8 -1.3) (end 4.8 1.3) (layer B.Fab) (width 0.15))
  (fp_line (start 4.8 1.3) (end 4.4 1.3) (layer B.Fab) (width 0.15))
  (fp_line (start 2.2 17) (end 2.2 2.9) (layer F.Fab) (width 0.15))
  (fp_line (start -2.2 17) (end -2.2 2.9) (layer F.Fab) (width 0.15))
  (fp_line (start -2.4 3.1) (end -2.4 17.2) (layer F.CrtYd) (width 0.15))
  (fp_line (start -2.4 17.2) (end 2.4 17.2) (layer F.CrtYd) (width 0.15))
  (fp_line (start 2.4 17.2) (end 2.4 3.1) (layer F.CrtYd) (width 0.15))
  (fp_line (start 2.4 3.1) (end 4.5 3.1) (layer F.CrtYd) (width 0.15))
  (fp_line (start 4.5 3.1) (end 4.5 -3.1) (layer F.CrtYd) (width 0.15))
  (fp_line (start 4.5 -3.1) (end -4.5 -3.1) (layer F.CrtYd) (width 0.15))
  (fp_line (start -4.5 -3.1) (end -4.5 3.1) (layer F.CrtYd) (width 0.15))
  (fp_line (start -4.5 3.1) (end -2.4 3.1) (layer F.CrtYd) (width 0.15))
  (fp_line (start -3.6 -1.5) (end -5 -1.5) (layer B.CrtYd) (width 0.15))
  (fp_line (start -5 -1.5) (end -5 1.5) (layer B.CrtYd) (width 0.15))
  (fp_line (start -5 1.5) (end -3.6 1.5) (layer B.CrtYd) (width 0.15))
  (fp_line (start 3.7 -1.5) (end 5 -1.5) (layer B.CrtYd) (width 0.15))
  (fp_line (start 5 -1.5) (end 5 1.5) (layer B.CrtYd) (width 0.15))
  (fp_line (start 5 1.5) (end 3.7 1.5) (layer B.CrtYd) (width 0.15))
  (fp_line (start -3.6 -1.5) (end -3.6 1.5) (layer B.CrtYd) (width 0.15))
  (fp_line (start 3.7 -1.5) (end 3.7 1.5) (layer B.CrtYd) (width 0.15))
  (pad "" np_thru_hole oval (at -3.6 0) (size 2 3) (drill oval 2 3) (layers *.Cu *.Mask))
  (pad "" np_thru_hole oval (at 3.6 0) (size 2 3) (drill oval 2 3) (layers *.Cu *.Mask))
  (model ${KIKON3D}/RLP1-400-650.STEP
    (offset (xyz 2.05 28.53 23))
    (scale (xyz 1 1 1))
    (rotate (xyz -90 0 0))
  )
)
