(module PhoenixContact_MCV_1,5_12-GF-3.81_1x12_P3.81mm_Vertical_ThreadedFlange_MountHole (layer F.Cu) (tedit 5A00FA1B)
  (descr "Generic Phoenix Contact connector footprint for: MCV_1,5/12-GF-3.81; number of pins: 12; pin pitch: 3.81mm; Vertical; threaded flange; footprint includes mount hole for mounting screw: ISO 1481-ST 2.2x4.5 C or ISO 7049-ST 2.2x4.5 C (http://www.fasteners.eu/standards/ISO/7049/) || order number: 1830693 8A 160V")
  (tags "phoenix_contact connector MCV_01x12_GF_3.81mm_MH")
  (fp_text reference REF** (at 20.955 -5.25) (layer F.SilkS)
    (effects (font (size 1 1) (thickness 0.15)))
  )
  (fp_text value PhoenixContact_MCV_1,5_12-GF-3.81_1x12_P3.81mm_Vertical_ThreadedFlange_MountHole (at 20.955 4) (layer F.Fab)
    (effects (font (size 1 1) (thickness 0.15)))
  )
  (fp_arc (start 0 3.95) (end -0.75 2.25) (angle 47.6) (layer F.SilkS) (width 0.12))
  (fp_arc (start 3.81 3.95) (end 3.06 2.25) (angle 47.6) (layer F.SilkS) (width 0.12))
  (fp_arc (start 7.62 3.95) (end 6.87 2.25) (angle 47.6) (layer F.SilkS) (width 0.12))
  (fp_arc (start 11.43 3.95) (end 10.68 2.25) (angle 47.6) (layer F.SilkS) (width 0.12))
  (fp_arc (start 15.24 3.95) (end 14.49 2.25) (angle 47.6) (layer F.SilkS) (width 0.12))
  (fp_arc (start 19.05 3.95) (end 18.3 2.25) (angle 47.6) (layer F.SilkS) (width 0.12))
  (fp_arc (start 22.86 3.95) (end 22.11 2.25) (angle 47.6) (layer F.SilkS) (width 0.12))
  (fp_arc (start 26.67 3.95) (end 25.92 2.25) (angle 47.6) (layer F.SilkS) (width 0.12))
  (fp_arc (start 30.48 3.95) (end 29.73 2.25) (angle 47.6) (layer F.SilkS) (width 0.12))
  (fp_arc (start 34.29 3.95) (end 33.54 2.25) (angle 47.6) (layer F.SilkS) (width 0.12))
  (fp_arc (start 38.1 3.95) (end 37.35 2.25) (angle 47.6) (layer F.SilkS) (width 0.12))
  (fp_arc (start 41.91 3.95) (end 41.16 2.25) (angle 47.6) (layer F.SilkS) (width 0.12))
  (fp_circle (center -4.5 0) (end -2.6 0) (layer F.SilkS) (width 0.12))
  (fp_circle (center 46.41 0) (end 48.31 0) (layer F.SilkS) (width 0.12))
  (fp_circle (center -4.5 0) (end -2.32 0) (layer B.SilkS) (width 0.12))
  (fp_circle (center 46.41 0) (end 48.59 0) (layer B.SilkS) (width 0.12))
  (fp_circle (center 46.41 0) (end 48.51 0) (layer B.Fab) (width 0.1))
  (fp_circle (center -4.5 0) (end -2.4 0) (layer B.Fab) (width 0.1))
  (fp_circle (center 46.41 0) (end 49.01 0) (layer B.CrtYd) (width 0.05))
  (fp_circle (center -4.5 0) (end -1.9 0) (layer B.CrtYd) (width 0.05))
  (fp_line (start -7.18 3.08) (end 49.09 3.08) (layer F.SilkS) (width 0.12))
  (fp_line (start 49.09 3.08) (end 49.09 -3.08) (layer F.SilkS) (width 0.12))
  (fp_line (start 49.09 -3.08) (end 44.29 -3.08) (layer F.SilkS) (width 0.12))
  (fp_line (start 44.29 -3.08) (end 44.29 -4.33) (layer F.SilkS) (width 0.12))
  (fp_line (start 44.29 -4.33) (end -2.38 -4.33) (layer F.SilkS) (width 0.12))
  (fp_line (start -2.38 -4.33) (end -2.38 -3.08) (layer F.SilkS) (width 0.12))
  (fp_line (start -2.38 -3.08) (end -7.18 -3.08) (layer F.SilkS) (width 0.12))
  (fp_line (start -7.18 -3.08) (end -7.18 3.08) (layer F.SilkS) (width 0.12))
  (fp_line (start -7.1 3) (end 49.01 3) (layer F.Fab) (width 0.1))
  (fp_line (start 49.01 3) (end 49.01 -3) (layer F.Fab) (width 0.1))
  (fp_line (start 49.01 -3) (end 44.21 -3) (layer F.Fab) (width 0.1))
  (fp_line (start 44.21 -3) (end 44.21 -4.25) (layer F.Fab) (width 0.1))
  (fp_line (start 44.21 -4.25) (end -2.3 -4.25) (layer F.Fab) (width 0.1))
  (fp_line (start -2.3 -4.25) (end -2.3 -3) (layer F.Fab) (width 0.1))
  (fp_line (start -2.3 -3) (end -7.1 -3) (layer F.Fab) (width 0.1))
  (fp_line (start -7.1 -3) (end -7.1 3) (layer F.Fab) (width 0.1))
  (fp_line (start -0.75 2.25) (end -1.5 2.25) (layer F.SilkS) (width 0.12))
  (fp_line (start -1.5 2.25) (end -1.5 -2.05) (layer F.SilkS) (width 0.12))
  (fp_line (start -1.5 -2.05) (end -0.75 -2.05) (layer F.SilkS) (width 0.12))
  (fp_line (start -0.75 -2.05) (end -0.75 -2.4) (layer F.SilkS) (width 0.12))
  (fp_line (start -0.75 -2.4) (end -1.25 -2.4) (layer F.SilkS) (width 0.12))
  (fp_line (start -1.25 -2.4) (end -1.5 -3.4) (layer F.SilkS) (width 0.12))
  (fp_line (start -1.5 -3.4) (end 1.5 -3.4) (layer F.SilkS) (width 0.12))
  (fp_line (start 1.5 -3.4) (end 1.25 -2.4) (layer F.SilkS) (width 0.12))
  (fp_line (start 1.25 -2.4) (end 0.75 -2.4) (layer F.SilkS) (width 0.12))
  (fp_line (start 0.75 -2.4) (end 0.75 -2.05) (layer F.SilkS) (width 0.12))
  (fp_line (start 0.75 -2.05) (end 1.5 -2.05) (layer F.SilkS) (width 0.12))
  (fp_line (start 1.5 -2.05) (end 1.5 2.25) (layer F.SilkS) (width 0.12))
  (fp_line (start 1.5 2.25) (end 0.75 2.25) (layer F.SilkS) (width 0.12))
  (fp_line (start 3.06 2.25) (end 2.31 2.25) (layer F.SilkS) (width 0.12))
  (fp_line (start 2.31 2.25) (end 2.31 -2.05) (layer F.SilkS) (width 0.12))
  (fp_line (start 2.31 -2.05) (end 3.06 -2.05) (layer F.SilkS) (width 0.12))
  (fp_line (start 3.06 -2.05) (end 3.06 -2.4) (layer F.SilkS) (width 0.12))
  (fp_line (start 3.06 -2.4) (end 2.56 -2.4) (layer F.SilkS) (width 0.12))
  (fp_line (start 2.56 -2.4) (end 2.31 -3.4) (layer F.SilkS) (width 0.12))
  (fp_line (start 2.31 -3.4) (end 5.31 -3.4) (layer F.SilkS) (width 0.12))
  (fp_line (start 5.31 -3.4) (end 5.06 -2.4) (layer F.SilkS) (width 0.12))
  (fp_line (start 5.06 -2.4) (end 4.56 -2.4) (layer F.SilkS) (width 0.12))
  (fp_line (start 4.56 -2.4) (end 4.56 -2.05) (layer F.SilkS) (width 0.12))
  (fp_line (start 4.56 -2.05) (end 5.31 -2.05) (layer F.SilkS) (width 0.12))
  (fp_line (start 5.31 -2.05) (end 5.31 2.25) (layer F.SilkS) (width 0.12))
  (fp_line (start 5.31 2.25) (end 4.56 2.25) (layer F.SilkS) (width 0.12))
  (fp_line (start 6.87 2.25) (end 6.12 2.25) (layer F.SilkS) (width 0.12))
  (fp_line (start 6.12 2.25) (end 6.12 -2.05) (layer F.SilkS) (width 0.12))
  (fp_line (start 6.12 -2.05) (end 6.87 -2.05) (layer F.SilkS) (width 0.12))
  (fp_line (start 6.87 -2.05) (end 6.87 -2.4) (layer F.SilkS) (width 0.12))
  (fp_line (start 6.87 -2.4) (end 6.37 -2.4) (layer F.SilkS) (width 0.12))
  (fp_line (start 6.37 -2.4) (end 6.12 -3.4) (layer F.SilkS) (width 0.12))
  (fp_line (start 6.12 -3.4) (end 9.12 -3.4) (layer F.SilkS) (width 0.12))
  (fp_line (start 9.12 -3.4) (end 8.87 -2.4) (layer F.SilkS) (width 0.12))
  (fp_line (start 8.87 -2.4) (end 8.37 -2.4) (layer F.SilkS) (width 0.12))
  (fp_line (start 8.37 -2.4) (end 8.37 -2.05) (layer F.SilkS) (width 0.12))
  (fp_line (start 8.37 -2.05) (end 9.12 -2.05) (layer F.SilkS) (width 0.12))
  (fp_line (start 9.12 -2.05) (end 9.12 2.25) (layer F.SilkS) (width 0.12))
  (fp_line (start 9.12 2.25) (end 8.37 2.25) (layer F.SilkS) (width 0.12))
  (fp_line (start 10.68 2.25) (end 9.93 2.25) (layer F.SilkS) (width 0.12))
  (fp_line (start 9.93 2.25) (end 9.93 -2.05) (layer F.SilkS) (width 0.12))
  (fp_line (start 9.93 -2.05) (end 10.68 -2.05) (layer F.SilkS) (width 0.12))
  (fp_line (start 10.68 -2.05) (end 10.68 -2.4) (layer F.SilkS) (width 0.12))
  (fp_line (start 10.68 -2.4) (end 10.18 -2.4) (layer F.SilkS) (width 0.12))
  (fp_line (start 10.18 -2.4) (end 9.93 -3.4) (layer F.SilkS) (width 0.12))
  (fp_line (start 9.93 -3.4) (end 12.93 -3.4) (layer F.SilkS) (width 0.12))
  (fp_line (start 12.93 -3.4) (end 12.68 -2.4) (layer F.SilkS) (width 0.12))
  (fp_line (start 12.68 -2.4) (end 12.18 -2.4) (layer F.SilkS) (width 0.12))
  (fp_line (start 12.18 -2.4) (end 12.18 -2.05) (layer F.SilkS) (width 0.12))
  (fp_line (start 12.18 -2.05) (end 12.93 -2.05) (layer F.SilkS) (width 0.12))
  (fp_line (start 12.93 -2.05) (end 12.93 2.25) (layer F.SilkS) (width 0.12))
  (fp_line (start 12.93 2.25) (end 12.18 2.25) (layer F.SilkS) (width 0.12))
  (fp_line (start 14.49 2.25) (end 13.74 2.25) (layer F.SilkS) (width 0.12))
  (fp_line (start 13.74 2.25) (end 13.74 -2.05) (layer F.SilkS) (width 0.12))
  (fp_line (start 13.74 -2.05) (end 14.49 -2.05) (layer F.SilkS) (width 0.12))
  (fp_line (start 14.49 -2.05) (end 14.49 -2.4) (layer F.SilkS) (width 0.12))
  (fp_line (start 14.49 -2.4) (end 13.99 -2.4) (layer F.SilkS) (width 0.12))
  (fp_line (start 13.99 -2.4) (end 13.74 -3.4) (layer F.SilkS) (width 0.12))
  (fp_line (start 13.74 -3.4) (end 16.74 -3.4) (layer F.SilkS) (width 0.12))
  (fp_line (start 16.74 -3.4) (end 16.49 -2.4) (layer F.SilkS) (width 0.12))
  (fp_line (start 16.49 -2.4) (end 15.99 -2.4) (layer F.SilkS) (width 0.12))
  (fp_line (start 15.99 -2.4) (end 15.99 -2.05) (layer F.SilkS) (width 0.12))
  (fp_line (start 15.99 -2.05) (end 16.74 -2.05) (layer F.SilkS) (width 0.12))
  (fp_line (start 16.74 -2.05) (end 16.74 2.25) (layer F.SilkS) (width 0.12))
  (fp_line (start 16.74 2.25) (end 15.99 2.25) (layer F.SilkS) (width 0.12))
  (fp_line (start 18.3 2.25) (end 17.55 2.25) (layer F.SilkS) (width 0.12))
  (fp_line (start 17.55 2.25) (end 17.55 -2.05) (layer F.SilkS) (width 0.12))
  (fp_line (start 17.55 -2.05) (end 18.3 -2.05) (layer F.SilkS) (width 0.12))
  (fp_line (start 18.3 -2.05) (end 18.3 -2.4) (layer F.SilkS) (width 0.12))
  (fp_line (start 18.3 -2.4) (end 17.8 -2.4) (layer F.SilkS) (width 0.12))
  (fp_line (start 17.8 -2.4) (end 17.55 -3.4) (layer F.SilkS) (width 0.12))
  (fp_line (start 17.55 -3.4) (end 20.55 -3.4) (layer F.SilkS) (width 0.12))
  (fp_line (start 20.55 -3.4) (end 20.3 -2.4) (layer F.SilkS) (width 0.12))
  (fp_line (start 20.3 -2.4) (end 19.8 -2.4) (layer F.SilkS) (width 0.12))
  (fp_line (start 19.8 -2.4) (end 19.8 -2.05) (layer F.SilkS) (width 0.12))
  (fp_line (start 19.8 -2.05) (end 20.55 -2.05) (layer F.SilkS) (width 0.12))
  (fp_line (start 20.55 -2.05) (end 20.55 2.25) (layer F.SilkS) (width 0.12))
  (fp_line (start 20.55 2.25) (end 19.8 2.25) (layer F.SilkS) (width 0.12))
  (fp_line (start 22.11 2.25) (end 21.36 2.25) (layer F.SilkS) (width 0.12))
  (fp_line (start 21.36 2.25) (end 21.36 -2.05) (layer F.SilkS) (width 0.12))
  (fp_line (start 21.36 -2.05) (end 22.11 -2.05) (layer F.SilkS) (width 0.12))
  (fp_line (start 22.11 -2.05) (end 22.11 -2.4) (layer F.SilkS) (width 0.12))
  (fp_line (start 22.11 -2.4) (end 21.61 -2.4) (layer F.SilkS) (width 0.12))
  (fp_line (start 21.61 -2.4) (end 21.36 -3.4) (layer F.SilkS) (width 0.12))
  (fp_line (start 21.36 -3.4) (end 24.36 -3.4) (layer F.SilkS) (width 0.12))
  (fp_line (start 24.36 -3.4) (end 24.11 -2.4) (layer F.SilkS) (width 0.12))
  (fp_line (start 24.11 -2.4) (end 23.61 -2.4) (layer F.SilkS) (width 0.12))
  (fp_line (start 23.61 -2.4) (end 23.61 -2.05) (layer F.SilkS) (width 0.12))
  (fp_line (start 23.61 -2.05) (end 24.36 -2.05) (layer F.SilkS) (width 0.12))
  (fp_line (start 24.36 -2.05) (end 24.36 2.25) (layer F.SilkS) (width 0.12))
  (fp_line (start 24.36 2.25) (end 23.61 2.25) (layer F.SilkS) (width 0.12))
  (fp_line (start 25.92 2.25) (end 25.17 2.25) (layer F.SilkS) (width 0.12))
  (fp_line (start 25.17 2.25) (end 25.17 -2.05) (layer F.SilkS) (width 0.12))
  (fp_line (start 25.17 -2.05) (end 25.92 -2.05) (layer F.SilkS) (width 0.12))
  (fp_line (start 25.92 -2.05) (end 25.92 -2.4) (layer F.SilkS) (width 0.12))
  (fp_line (start 25.92 -2.4) (end 25.42 -2.4) (layer F.SilkS) (width 0.12))
  (fp_line (start 25.42 -2.4) (end 25.17 -3.4) (layer F.SilkS) (width 0.12))
  (fp_line (start 25.17 -3.4) (end 28.17 -3.4) (layer F.SilkS) (width 0.12))
  (fp_line (start 28.17 -3.4) (end 27.92 -2.4) (layer F.SilkS) (width 0.12))
  (fp_line (start 27.92 -2.4) (end 27.42 -2.4) (layer F.SilkS) (width 0.12))
  (fp_line (start 27.42 -2.4) (end 27.42 -2.05) (layer F.SilkS) (width 0.12))
  (fp_line (start 27.42 -2.05) (end 28.17 -2.05) (layer F.SilkS) (width 0.12))
  (fp_line (start 28.17 -2.05) (end 28.17 2.25) (layer F.SilkS) (width 0.12))
  (fp_line (start 28.17 2.25) (end 27.42 2.25) (layer F.SilkS) (width 0.12))
  (fp_line (start 29.73 2.25) (end 28.98 2.25) (layer F.SilkS) (width 0.12))
  (fp_line (start 28.98 2.25) (end 28.98 -2.05) (layer F.SilkS) (width 0.12))
  (fp_line (start 28.98 -2.05) (end 29.73 -2.05) (layer F.SilkS) (width 0.12))
  (fp_line (start 29.73 -2.05) (end 29.73 -2.4) (layer F.SilkS) (width 0.12))
  (fp_line (start 29.73 -2.4) (end 29.23 -2.4) (layer F.SilkS) (width 0.12))
  (fp_line (start 29.23 -2.4) (end 28.98 -3.4) (layer F.SilkS) (width 0.12))
  (fp_line (start 28.98 -3.4) (end 31.98 -3.4) (layer F.SilkS) (width 0.12))
  (fp_line (start 31.98 -3.4) (end 31.73 -2.4) (layer F.SilkS) (width 0.12))
  (fp_line (start 31.73 -2.4) (end 31.23 -2.4) (layer F.SilkS) (width 0.12))
  (fp_line (start 31.23 -2.4) (end 31.23 -2.05) (layer F.SilkS) (width 0.12))
  (fp_line (start 31.23 -2.05) (end 31.98 -2.05) (layer F.SilkS) (width 0.12))
  (fp_line (start 31.98 -2.05) (end 31.98 2.25) (layer F.SilkS) (width 0.12))
  (fp_line (start 31.98 2.25) (end 31.23 2.25) (layer F.SilkS) (width 0.12))
  (fp_line (start 33.54 2.25) (end 32.79 2.25) (layer F.SilkS) (width 0.12))
  (fp_line (start 32.79 2.25) (end 32.79 -2.05) (layer F.SilkS) (width 0.12))
  (fp_line (start 32.79 -2.05) (end 33.54 -2.05) (layer F.SilkS) (width 0.12))
  (fp_line (start 33.54 -2.05) (end 33.54 -2.4) (layer F.SilkS) (width 0.12))
  (fp_line (start 33.54 -2.4) (end 33.04 -2.4) (layer F.SilkS) (width 0.12))
  (fp_line (start 33.04 -2.4) (end 32.79 -3.4) (layer F.SilkS) (width 0.12))
  (fp_line (start 32.79 -3.4) (end 35.79 -3.4) (layer F.SilkS) (width 0.12))
  (fp_line (start 35.79 -3.4) (end 35.54 -2.4) (layer F.SilkS) (width 0.12))
  (fp_line (start 35.54 -2.4) (end 35.04 -2.4) (layer F.SilkS) (width 0.12))
  (fp_line (start 35.04 -2.4) (end 35.04 -2.05) (layer F.SilkS) (width 0.12))
  (fp_line (start 35.04 -2.05) (end 35.79 -2.05) (layer F.SilkS) (width 0.12))
  (fp_line (start 35.79 -2.05) (end 35.79 2.25) (layer F.SilkS) (width 0.12))
  (fp_line (start 35.79 2.25) (end 35.04 2.25) (layer F.SilkS) (width 0.12))
  (fp_line (start 37.35 2.25) (end 36.6 2.25) (layer F.SilkS) (width 0.12))
  (fp_line (start 36.6 2.25) (end 36.6 -2.05) (layer F.SilkS) (width 0.12))
  (fp_line (start 36.6 -2.05) (end 37.35 -2.05) (layer F.SilkS) (width 0.12))
  (fp_line (start 37.35 -2.05) (end 37.35 -2.4) (layer F.SilkS) (width 0.12))
  (fp_line (start 37.35 -2.4) (end 36.85 -2.4) (layer F.SilkS) (width 0.12))
  (fp_line (start 36.85 -2.4) (end 36.6 -3.4) (layer F.SilkS) (width 0.12))
  (fp_line (start 36.6 -3.4) (end 39.6 -3.4) (layer F.SilkS) (width 0.12))
  (fp_line (start 39.6 -3.4) (end 39.35 -2.4) (layer F.SilkS) (width 0.12))
  (fp_line (start 39.35 -2.4) (end 38.85 -2.4) (layer F.SilkS) (width 0.12))
  (fp_line (start 38.85 -2.4) (end 38.85 -2.05) (layer F.SilkS) (width 0.12))
  (fp_line (start 38.85 -2.05) (end 39.6 -2.05) (layer F.SilkS) (width 0.12))
  (fp_line (start 39.6 -2.05) (end 39.6 2.25) (layer F.SilkS) (width 0.12))
  (fp_line (start 39.6 2.25) (end 38.85 2.25) (layer F.SilkS) (width 0.12))
  (fp_line (start 41.16 2.25) (end 40.41 2.25) (layer F.SilkS) (width 0.12))
  (fp_line (start 40.41 2.25) (end 40.41 -2.05) (layer F.SilkS) (width 0.12))
  (fp_line (start 40.41 -2.05) (end 41.16 -2.05) (layer F.SilkS) (width 0.12))
  (fp_line (start 41.16 -2.05) (end 41.16 -2.4) (layer F.SilkS) (width 0.12))
  (fp_line (start 41.16 -2.4) (end 40.66 -2.4) (layer F.SilkS) (width 0.12))
  (fp_line (start 40.66 -2.4) (end 40.41 -3.4) (layer F.SilkS) (width 0.12))
  (fp_line (start 40.41 -3.4) (end 43.41 -3.4) (layer F.SilkS) (width 0.12))
  (fp_line (start 43.41 -3.4) (end 43.16 -2.4) (layer F.SilkS) (width 0.12))
  (fp_line (start 43.16 -2.4) (end 42.66 -2.4) (layer F.SilkS) (width 0.12))
  (fp_line (start 42.66 -2.4) (end 42.66 -2.05) (layer F.SilkS) (width 0.12))
  (fp_line (start 42.66 -2.05) (end 43.41 -2.05) (layer F.SilkS) (width 0.12))
  (fp_line (start 43.41 -2.05) (end 43.41 2.25) (layer F.SilkS) (width 0.12))
  (fp_line (start 43.41 2.25) (end 42.66 2.25) (layer F.SilkS) (width 0.12))
  (fp_line (start -7.6 -4.75) (end -7.6 3.5) (layer F.CrtYd) (width 0.05))
  (fp_line (start -7.6 3.5) (end 49.51 3.5) (layer F.CrtYd) (width 0.05))
  (fp_line (start 49.51 3.5) (end 49.51 -4.75) (layer F.CrtYd) (width 0.05))
  (fp_line (start 49.51 -4.75) (end -7.6 -4.75) (layer F.CrtYd) (width 0.05))
  (fp_line (start -2.8 -3.5) (end -2.8 -4.75) (layer F.SilkS) (width 0.12))
  (fp_line (start -2.8 -4.75) (end -0.8 -4.75) (layer F.SilkS) (width 0.12))
  (fp_line (start -2.8 -3.5) (end -2.8 -4.75) (layer F.Fab) (width 0.1))
  (fp_line (start -2.8 -4.75) (end -0.8 -4.75) (layer F.Fab) (width 0.1))
  (pad 1 thru_hole rect (at 0 0) (size 1.8 3.6) (drill 1.2) (layers *.Cu *.Mask))
  (pad 2 thru_hole oval (at 3.81 0) (size 1.8 3.6) (drill 1.2) (layers *.Cu *.Mask))
  (pad 3 thru_hole oval (at 7.62 0) (size 1.8 3.6) (drill 1.2) (layers *.Cu *.Mask))
  (pad 4 thru_hole oval (at 11.43 0) (size 1.8 3.6) (drill 1.2) (layers *.Cu *.Mask))
  (pad 5 thru_hole oval (at 15.24 0) (size 1.8 3.6) (drill 1.2) (layers *.Cu *.Mask))
  (pad 6 thru_hole oval (at 19.05 0) (size 1.8 3.6) (drill 1.2) (layers *.Cu *.Mask))
  (pad 7 thru_hole oval (at 22.86 0) (size 1.8 3.6) (drill 1.2) (layers *.Cu *.Mask))
  (pad 8 thru_hole oval (at 26.67 0) (size 1.8 3.6) (drill 1.2) (layers *.Cu *.Mask))
  (pad 9 thru_hole oval (at 30.48 0) (size 1.8 3.6) (drill 1.2) (layers *.Cu *.Mask))
  (pad 10 thru_hole oval (at 34.29 0) (size 1.8 3.6) (drill 1.2) (layers *.Cu *.Mask))
  (pad 11 thru_hole oval (at 38.1 0) (size 1.8 3.6) (drill 1.2) (layers *.Cu *.Mask))
  (pad 12 thru_hole oval (at 41.91 0) (size 1.8 3.6) (drill 1.2) (layers *.Cu *.Mask))
  (pad "" np_thru_hole circle (at -4.5 0) (size 2.4 2.4) (drill 2.4) (layers *.Cu *.Mask))
  (pad "" np_thru_hole circle (at 46.41 0) (size 2.4 2.4) (drill 2.4) (layers *.Cu *.Mask))
  (fp_text user %R (at 20.955 -3) (layer F.Fab)
    (effects (font (size 1 1) (thickness 0.15)))
  )
  (model ${KIPRJMOD}/kicad_libs_k/models_k.3d/Connector_Phoenix_MC_k.3dshapes/PhoenixContact_MCV_1,5_12-GF-3.81_1x12_P3.81mm_Vertical_ThreadedFlange_MountHole_k.wrl
    (at (xyz 0 0 0))
    (scale (xyz 1 1 1))
    (rotate (xyz 0 0 0))
  )
)