(module PhoenixContact_MC_1,5_2-GF-3.5_1x02_P3.50mm_Horizontal_ThreadedFlange_MountHole (layer F.Cu) (tedit 5A00FA19)
  (descr "Generic Phoenix Contact connector footprint for: MC_1,5/2-GF-3.5; number of pins: 02; pin pitch: 3.50mm; Angled; threaded flange; footprint includes mount hole for mounting screw: ISO 1481-ST 2.2x4.5 C or ISO 7049-ST 2.2x4.5 C (http://www.fasteners.eu/standards/ISO/7049/) || order number: 1843790 8A 160V")
  (tags "phoenix_contact connector MC_01x02_GF_3.5mm_MH")
  (fp_text reference REF** (at 2.75 -2.8) (layer F.SilkS)
    (effects (font (size 1 1) (thickness 0.15)))
  )
  (fp_text value PhoenixContact_MC_1,5_2-GF-3.5_1x02_P3.50mm_Horizontal_ThreadedFlange_MountHole (at 1.75 9) (layer F.Fab)
    (effects (font (size 1 1) (thickness 0.15)))
  )
  (fp_circle (center -4.3 0.9) (end -2.12 0.9) (layer B.SilkS) (width 0.12))
  (fp_circle (center 7.8 0.9) (end 9.98 0.9) (layer B.SilkS) (width 0.12))
  (fp_circle (center 7.8 0.9) (end 9.9 0.9) (layer B.Fab) (width 0.1))
  (fp_circle (center -4.3 0.9) (end -2.2 0.9) (layer B.Fab) (width 0.1))
  (fp_circle (center 7.8 0.9) (end 10.4 0.9) (layer B.CrtYd) (width 0.05))
  (fp_circle (center -4.3 0.9) (end -1.7 0.9) (layer B.CrtYd) (width 0.05))
  (fp_line (start -6.98 -1.28) (end -6.98 8.08) (layer F.SilkS) (width 0.12))
  (fp_line (start -6.98 8.08) (end 10.48 8.08) (layer F.SilkS) (width 0.12))
  (fp_line (start 10.48 8.08) (end 10.48 -1.28) (layer F.SilkS) (width 0.12))
  (fp_line (start -6.98 -1.28) (end -1.05 -1.28) (layer F.SilkS) (width 0.12))
  (fp_line (start 10.48 -1.28) (end 4.55 -1.28) (layer F.SilkS) (width 0.12))
  (fp_line (start 1.05 -1.28) (end 2.45 -1.28) (layer F.SilkS) (width 0.12))
  (fp_line (start -6.9 -1.2) (end -6.9 8) (layer F.Fab) (width 0.1))
  (fp_line (start -6.9 8) (end 10.4 8) (layer F.Fab) (width 0.1))
  (fp_line (start 10.4 8) (end 10.4 -1.2) (layer F.Fab) (width 0.1))
  (fp_line (start 10.4 -1.2) (end -6.9 -1.2) (layer F.Fab) (width 0.1))
  (fp_line (start -2.18 4.8) (end 5.68 4.8) (layer F.SilkS) (width 0.12))
  (fp_line (start -2.18 -1.28) (end -2.18 8.08) (layer F.SilkS) (width 0.12))
  (fp_line (start 5.68 -1.28) (end 5.68 8.08) (layer F.SilkS) (width 0.12))
  (fp_line (start -7.48 -2.3) (end -7.48 8.5) (layer F.CrtYd) (width 0.05))
  (fp_line (start -7.48 8.5) (end 10.9 8.5) (layer F.CrtYd) (width 0.05))
  (fp_line (start 10.9 8.5) (end 10.9 -2.3) (layer F.CrtYd) (width 0.05))
  (fp_line (start 10.9 -2.3) (end -7.48 -2.3) (layer F.CrtYd) (width 0.05))
  (fp_line (start 0.3 -2.6) (end 0 -2) (layer F.SilkS) (width 0.12))
  (fp_line (start 0 -2) (end -0.3 -2.6) (layer F.SilkS) (width 0.12))
  (fp_line (start -0.3 -2.6) (end 0.3 -2.6) (layer F.SilkS) (width 0.12))
  (fp_line (start 0.8 -1.2) (end 0 0) (layer F.Fab) (width 0.1))
  (fp_line (start 0 0) (end -0.8 -1.2) (layer F.Fab) (width 0.1))
  (pad 1 thru_hole rect (at 0 0) (size 1.8 3.6) (drill 1.2) (layers *.Cu *.Mask))
  (pad 2 thru_hole oval (at 3.5 0) (size 1.8 3.6) (drill 1.2) (layers *.Cu *.Mask))
  (pad "" np_thru_hole circle (at -4.3 0.9) (size 2.4 2.4) (drill 2.4) (layers *.Cu *.Mask))
  (pad "" np_thru_hole circle (at 7.8 0.9) (size 2.4 2.4) (drill 2.4) (layers *.Cu *.Mask))
  (fp_text user %R (at 2.75 3) (layer F.Fab)
    (effects (font (size 1 1) (thickness 0.15)))
  )
  (model ${KIPRJMOD}/kicad_libs_k/models_k.3d/Connector_Phoenix_MC_k.3dshapes/PhoenixContact_MC_1,5_2-GF-3.5_1x02_P3.50mm_Horizontal_ThreadedFlange_MountHole_k.wrl
    (at (xyz 0 0 0))
    (scale (xyz 1 1 1))
    (rotate (xyz 0 0 0))
  )
)