(module PhoenixContact_MCV_1,5_2-GF-3.81_1x02_P3.81mm_Vertical_ThreadedFlange_MountHole (layer F.Cu) (tedit 5A00FA1B)
  (descr "Generic Phoenix Contact connector footprint for: MCV_1,5/2-GF-3.81; number of pins: 02; pin pitch: 3.81mm; Vertical; threaded flange; footprint includes mount hole for mounting screw: ISO 1481-ST 2.2x4.5 C or ISO 7049-ST 2.2x4.5 C (http://www.fasteners.eu/standards/ISO/7049/) || order number: 1830596 8A 160V")
  (tags "phoenix_contact connector MCV_01x02_GF_3.81mm_MH")
  (fp_text reference REF** (at 2.905 -5.25) (layer F.SilkS)
    (effects (font (size 1 1) (thickness 0.15)))
  )
  (fp_text value PhoenixContact_MCV_1,5_2-GF-3.81_1x02_P3.81mm_Vertical_ThreadedFlange_MountHole (at 1.905 4) (layer F.Fab)
    (effects (font (size 1 1) (thickness 0.15)))
  )
  (fp_arc (start 0 3.95) (end -0.75 2.25) (angle 47.6) (layer F.SilkS) (width 0.12))
  (fp_arc (start 3.81 3.95) (end 3.06 2.25) (angle 47.6) (layer F.SilkS) (width 0.12))
  (fp_circle (center -4.5 0) (end -2.6 0) (layer F.SilkS) (width 0.12))
  (fp_circle (center 8.31 0) (end 10.21 0) (layer F.SilkS) (width 0.12))
  (fp_circle (center -4.5 0) (end -2.32 0) (layer B.SilkS) (width 0.12))
  (fp_circle (center 8.31 0) (end 10.49 0) (layer B.SilkS) (width 0.12))
  (fp_circle (center 8.31 0) (end 10.41 0) (layer B.Fab) (width 0.1))
  (fp_circle (center -4.5 0) (end -2.4 0) (layer B.Fab) (width 0.1))
  (fp_circle (center 8.31 0) (end 10.91 0) (layer B.CrtYd) (width 0.05))
  (fp_circle (center -4.5 0) (end -1.9 0) (layer B.CrtYd) (width 0.05))
  (fp_line (start -7.18 3.08) (end 10.99 3.08) (layer F.SilkS) (width 0.12))
  (fp_line (start 10.99 3.08) (end 10.99 -3.08) (layer F.SilkS) (width 0.12))
  (fp_line (start 10.99 -3.08) (end 6.19 -3.08) (layer F.SilkS) (width 0.12))
  (fp_line (start 6.19 -3.08) (end 6.19 -4.33) (layer F.SilkS) (width 0.12))
  (fp_line (start 6.19 -4.33) (end -2.38 -4.33) (layer F.SilkS) (width 0.12))
  (fp_line (start -2.38 -4.33) (end -2.38 -3.08) (layer F.SilkS) (width 0.12))
  (fp_line (start -2.38 -3.08) (end -7.18 -3.08) (layer F.SilkS) (width 0.12))
  (fp_line (start -7.18 -3.08) (end -7.18 3.08) (layer F.SilkS) (width 0.12))
  (fp_line (start -7.1 3) (end 10.91 3) (layer F.Fab) (width 0.1))
  (fp_line (start 10.91 3) (end 10.91 -3) (layer F.Fab) (width 0.1))
  (fp_line (start 10.91 -3) (end 6.11 -3) (layer F.Fab) (width 0.1))
  (fp_line (start 6.11 -3) (end 6.11 -4.25) (layer F.Fab) (width 0.1))
  (fp_line (start 6.11 -4.25) (end -2.3 -4.25) (layer F.Fab) (width 0.1))
  (fp_line (start -2.3 -4.25) (end -2.3 -3) (layer F.Fab) (width 0.1))
  (fp_line (start -2.3 -3) (end -7.1 -3) (layer F.Fab) (width 0.1))
  (fp_line (start -7.1 -3) (end -7.1 3) (layer F.Fab) (width 0.1))
  (fp_line (start -0.75 2.25) (end -1.5 2.25) (layer F.SilkS) (width 0.12))
  (fp_line (start -1.5 2.25) (end -1.5 -2.05) (layer F.SilkS) (width 0.12))
  (fp_line (start -1.5 -2.05) (end -0.75 -2.05) (layer F.SilkS) (width 0.12))
  (fp_line (start -0.75 -2.05) (end -0.75 -2.4) (layer F.SilkS) (width 0.12))
  (fp_line (start -0.75 -2.4) (end -1.25 -2.4) (layer F.SilkS) (width 0.12))
  (fp_line (start -1.25 -2.4) (end -1.5 -3.4) (layer F.SilkS) (width 0.12))
  (fp_line (start -1.5 -3.4) (end 1.5 -3.4) (layer F.SilkS) (width 0.12))
  (fp_line (start 1.5 -3.4) (end 1.25 -2.4) (layer F.SilkS) (width 0.12))
  (fp_line (start 1.25 -2.4) (end 0.75 -2.4) (layer F.SilkS) (width 0.12))
  (fp_line (start 0.75 -2.4) (end 0.75 -2.05) (layer F.SilkS) (width 0.12))
  (fp_line (start 0.75 -2.05) (end 1.5 -2.05) (layer F.SilkS) (width 0.12))
  (fp_line (start 1.5 -2.05) (end 1.5 2.25) (layer F.SilkS) (width 0.12))
  (fp_line (start 1.5 2.25) (end 0.75 2.25) (layer F.SilkS) (width 0.12))
  (fp_line (start 3.06 2.25) (end 2.31 2.25) (layer F.SilkS) (width 0.12))
  (fp_line (start 2.31 2.25) (end 2.31 -2.05) (layer F.SilkS) (width 0.12))
  (fp_line (start 2.31 -2.05) (end 3.06 -2.05) (layer F.SilkS) (width 0.12))
  (fp_line (start 3.06 -2.05) (end 3.06 -2.4) (layer F.SilkS) (width 0.12))
  (fp_line (start 3.06 -2.4) (end 2.56 -2.4) (layer F.SilkS) (width 0.12))
  (fp_line (start 2.56 -2.4) (end 2.31 -3.4) (layer F.SilkS) (width 0.12))
  (fp_line (start 2.31 -3.4) (end 5.31 -3.4) (layer F.SilkS) (width 0.12))
  (fp_line (start 5.31 -3.4) (end 5.06 -2.4) (layer F.SilkS) (width 0.12))
  (fp_line (start 5.06 -2.4) (end 4.56 -2.4) (layer F.SilkS) (width 0.12))
  (fp_line (start 4.56 -2.4) (end 4.56 -2.05) (layer F.SilkS) (width 0.12))
  (fp_line (start 4.56 -2.05) (end 5.31 -2.05) (layer F.SilkS) (width 0.12))
  (fp_line (start 5.31 -2.05) (end 5.31 2.25) (layer F.SilkS) (width 0.12))
  (fp_line (start 5.31 2.25) (end 4.56 2.25) (layer F.SilkS) (width 0.12))
  (fp_line (start -7.6 -4.75) (end -7.6 3.5) (layer F.CrtYd) (width 0.05))
  (fp_line (start -7.6 3.5) (end 11.41 3.5) (layer F.CrtYd) (width 0.05))
  (fp_line (start 11.41 3.5) (end 11.41 -4.75) (layer F.CrtYd) (width 0.05))
  (fp_line (start 11.41 -4.75) (end -7.6 -4.75) (layer F.CrtYd) (width 0.05))
  (fp_line (start -2.8 -3.5) (end -2.8 -4.75) (layer F.SilkS) (width 0.12))
  (fp_line (start -2.8 -4.75) (end -0.8 -4.75) (layer F.SilkS) (width 0.12))
  (fp_line (start -2.8 -3.5) (end -2.8 -4.75) (layer F.Fab) (width 0.1))
  (fp_line (start -2.8 -4.75) (end -0.8 -4.75) (layer F.Fab) (width 0.1))
  (pad 1 thru_hole rect (at 0 0) (size 1.8 3.6) (drill 1.2) (layers *.Cu *.Mask))
  (pad 2 thru_hole oval (at 3.81 0) (size 1.8 3.6) (drill 1.2) (layers *.Cu *.Mask))
  (pad "" np_thru_hole circle (at -4.5 0) (size 2.4 2.4) (drill 2.4) (layers *.Cu *.Mask))
  (pad "" np_thru_hole circle (at 8.31 0) (size 2.4 2.4) (drill 2.4) (layers *.Cu *.Mask))
  (fp_text user %R (at 2.905 -3) (layer F.Fab)
    (effects (font (size 1 1) (thickness 0.15)))
  )
  (model ${KIPRJMOD}/kicad_libs_k/models_k.3d/Connector_Phoenix_MC_k.3dshapes/PhoenixContact_MCV_1,5_2-GF-3.81_1x02_P3.81mm_Vertical_ThreadedFlange_MountHole_k.wrl
    (at (xyz 0 0 0))
    (scale (xyz 1 1 1))
    (rotate (xyz 0 0 0))
  )
)