(module PhoenixContact_MC_1,5_3-GF-3.81_1x03_P3.81mm_Horizontal_ThreadedFlange (layer F.Cu) (tedit 5A00FA1A)
  (descr "Generic Phoenix Contact connector footprint for: MC_1,5/3-GF-3.81; number of pins: 03; pin pitch: 3.81mm; Angled; threaded flange || order number: 1827871 8A 160V")
  (tags "phoenix_contact connector MC_01x03_GF_3.81mm")
  (fp_text reference REF** (at 3.81 -2.8) (layer F.SilkS)
    (effects (font (size 1 1) (thickness 0.15)))
  )
  (fp_text value PhoenixContact_MC_1,5_3-GF-3.81_1x03_P3.81mm_Horizontal_ThreadedFlange (at 3.81 9) (layer F.Fab)
    (effects (font (size 1 1) (thickness 0.15)))
  )
  (fp_line (start -7.18 -1.28) (end -7.18 8.08) (layer F.SilkS) (width 0.12))
  (fp_line (start -7.18 8.08) (end 14.8 8.08) (layer F.SilkS) (width 0.12))
  (fp_line (start 14.8 8.08) (end 14.8 -1.28) (layer F.SilkS) (width 0.12))
  (fp_line (start -7.18 -1.28) (end -1.05 -1.28) (layer F.SilkS) (width 0.12))
  (fp_line (start 14.8 -1.28) (end 8.67 -1.28) (layer F.SilkS) (width 0.12))
  (fp_line (start 1.05 -1.28) (end 2.76 -1.28) (layer F.SilkS) (width 0.12))
  (fp_line (start 4.86 -1.28) (end 6.57 -1.28) (layer F.SilkS) (width 0.12))
  (fp_line (start -7.1 -1.2) (end -7.1 8) (layer F.Fab) (width 0.1))
  (fp_line (start -7.1 8) (end 14.72 8) (layer F.Fab) (width 0.1))
  (fp_line (start 14.72 8) (end 14.72 -1.2) (layer F.Fab) (width 0.1))
  (fp_line (start 14.72 -1.2) (end -7.1 -1.2) (layer F.Fab) (width 0.1))
  (fp_line (start -2.38 4.8) (end 10 4.8) (layer F.SilkS) (width 0.12))
  (fp_line (start -2.38 -1.28) (end -2.38 8.08) (layer F.SilkS) (width 0.12))
  (fp_line (start 10 -1.28) (end 10 8.08) (layer F.SilkS) (width 0.12))
  (fp_line (start -7.68 -2.3) (end -7.68 8.5) (layer F.CrtYd) (width 0.05))
  (fp_line (start -7.68 8.5) (end 15.22 8.5) (layer F.CrtYd) (width 0.05))
  (fp_line (start 15.22 8.5) (end 15.22 -2.3) (layer F.CrtYd) (width 0.05))
  (fp_line (start 15.22 -2.3) (end -7.68 -2.3) (layer F.CrtYd) (width 0.05))
  (fp_line (start 0.3 -2.6) (end 0 -2) (layer F.SilkS) (width 0.12))
  (fp_line (start 0 -2) (end -0.3 -2.6) (layer F.SilkS) (width 0.12))
  (fp_line (start -0.3 -2.6) (end 0.3 -2.6) (layer F.SilkS) (width 0.12))
  (fp_line (start 0.8 -1.2) (end 0 0) (layer F.Fab) (width 0.1))
  (fp_line (start 0 0) (end -0.8 -1.2) (layer F.Fab) (width 0.1))
  (pad 1 thru_hole rect (at 0 0) (size 1.8 3.6) (drill 1.2) (layers *.Cu *.Mask))
  (pad 2 thru_hole oval (at 3.81 0) (size 1.8 3.6) (drill 1.2) (layers *.Cu *.Mask))
  (pad 3 thru_hole oval (at 7.62 0) (size 1.8 3.6) (drill 1.2) (layers *.Cu *.Mask))
  (fp_text user %R (at 3.81 3) (layer F.Fab)
    (effects (font (size 1 1) (thickness 0.15)))
  )
  (model ${KIPRJMOD}/kicad_libs_k/models_k.3d/Connector_Phoenix_MC_k.3dshapes/PhoenixContact_MC_1,5_3-GF-3.81_1x03_P3.81mm_Horizontal_ThreadedFlange_k.wrl
    (at (xyz 0 0 0))
    (scale (xyz 1 1 1))
    (rotate (xyz 0 0 0))
  )
)