(module PhoenixContact_MC_1,5_13-GF-3.5_1x13_P3.50mm_Horizontal_ThreadedFlange (layer F.Cu) (tedit 5A00FA19)
  (descr "Generic Phoenix Contact connector footprint for: MC_1,5/13-GF-3.5; number of pins: 13; pin pitch: 3.50mm; Angled; threaded flange || order number: 1843907 8A 160V")
  (tags "phoenix_contact connector MC_01x13_GF_3.5mm")
  (fp_text reference REF** (at 21 -2.8) (layer F.SilkS)
    (effects (font (size 1 1) (thickness 0.15)))
  )
  (fp_text value PhoenixContact_MC_1,5_13-GF-3.5_1x13_P3.50mm_Horizontal_ThreadedFlange (at 21 9) (layer F.Fab)
    (effects (font (size 1 1) (thickness 0.15)))
  )
  (fp_line (start -6.98 -1.28) (end -6.98 8.08) (layer F.SilkS) (width 0.12))
  (fp_line (start -6.98 8.08) (end 48.98 8.08) (layer F.SilkS) (width 0.12))
  (fp_line (start 48.98 8.08) (end 48.98 -1.28) (layer F.SilkS) (width 0.12))
  (fp_line (start -6.98 -1.28) (end -1.05 -1.28) (layer F.SilkS) (width 0.12))
  (fp_line (start 48.98 -1.28) (end 43.05 -1.28) (layer F.SilkS) (width 0.12))
  (fp_line (start 1.05 -1.28) (end 2.45 -1.28) (layer F.SilkS) (width 0.12))
  (fp_line (start 4.55 -1.28) (end 5.95 -1.28) (layer F.SilkS) (width 0.12))
  (fp_line (start 8.05 -1.28) (end 9.45 -1.28) (layer F.SilkS) (width 0.12))
  (fp_line (start 11.55 -1.28) (end 12.95 -1.28) (layer F.SilkS) (width 0.12))
  (fp_line (start 15.05 -1.28) (end 16.45 -1.28) (layer F.SilkS) (width 0.12))
  (fp_line (start 18.55 -1.28) (end 19.95 -1.28) (layer F.SilkS) (width 0.12))
  (fp_line (start 22.05 -1.28) (end 23.45 -1.28) (layer F.SilkS) (width 0.12))
  (fp_line (start 25.55 -1.28) (end 26.95 -1.28) (layer F.SilkS) (width 0.12))
  (fp_line (start 29.05 -1.28) (end 30.45 -1.28) (layer F.SilkS) (width 0.12))
  (fp_line (start 32.55 -1.28) (end 33.95 -1.28) (layer F.SilkS) (width 0.12))
  (fp_line (start 36.05 -1.28) (end 37.45 -1.28) (layer F.SilkS) (width 0.12))
  (fp_line (start 39.55 -1.28) (end 40.95 -1.28) (layer F.SilkS) (width 0.12))
  (fp_line (start -6.9 -1.2) (end -6.9 8) (layer F.Fab) (width 0.1))
  (fp_line (start -6.9 8) (end 48.9 8) (layer F.Fab) (width 0.1))
  (fp_line (start 48.9 8) (end 48.9 -1.2) (layer F.Fab) (width 0.1))
  (fp_line (start 48.9 -1.2) (end -6.9 -1.2) (layer F.Fab) (width 0.1))
  (fp_line (start -2.18 4.8) (end 44.18 4.8) (layer F.SilkS) (width 0.12))
  (fp_line (start -2.18 -1.28) (end -2.18 8.08) (layer F.SilkS) (width 0.12))
  (fp_line (start 44.18 -1.28) (end 44.18 8.08) (layer F.SilkS) (width 0.12))
  (fp_line (start -7.48 -2.3) (end -7.48 8.5) (layer F.CrtYd) (width 0.05))
  (fp_line (start -7.48 8.5) (end 49.4 8.5) (layer F.CrtYd) (width 0.05))
  (fp_line (start 49.4 8.5) (end 49.4 -2.3) (layer F.CrtYd) (width 0.05))
  (fp_line (start 49.4 -2.3) (end -7.48 -2.3) (layer F.CrtYd) (width 0.05))
  (fp_line (start 0.3 -2.6) (end 0 -2) (layer F.SilkS) (width 0.12))
  (fp_line (start 0 -2) (end -0.3 -2.6) (layer F.SilkS) (width 0.12))
  (fp_line (start -0.3 -2.6) (end 0.3 -2.6) (layer F.SilkS) (width 0.12))
  (fp_line (start 0.8 -1.2) (end 0 0) (layer F.Fab) (width 0.1))
  (fp_line (start 0 0) (end -0.8 -1.2) (layer F.Fab) (width 0.1))
  (pad 1 thru_hole rect (at 0 0) (size 1.8 3.6) (drill 1.2) (layers *.Cu *.Mask))
  (pad 2 thru_hole oval (at 3.5 0) (size 1.8 3.6) (drill 1.2) (layers *.Cu *.Mask))
  (pad 3 thru_hole oval (at 7 0) (size 1.8 3.6) (drill 1.2) (layers *.Cu *.Mask))
  (pad 4 thru_hole oval (at 10.5 0) (size 1.8 3.6) (drill 1.2) (layers *.Cu *.Mask))
  (pad 5 thru_hole oval (at 14 0) (size 1.8 3.6) (drill 1.2) (layers *.Cu *.Mask))
  (pad 6 thru_hole oval (at 17.5 0) (size 1.8 3.6) (drill 1.2) (layers *.Cu *.Mask))
  (pad 7 thru_hole oval (at 21 0) (size 1.8 3.6) (drill 1.2) (layers *.Cu *.Mask))
  (pad 8 thru_hole oval (at 24.5 0) (size 1.8 3.6) (drill 1.2) (layers *.Cu *.Mask))
  (pad 9 thru_hole oval (at 28 0) (size 1.8 3.6) (drill 1.2) (layers *.Cu *.Mask))
  (pad 10 thru_hole oval (at 31.5 0) (size 1.8 3.6) (drill 1.2) (layers *.Cu *.Mask))
  (pad 11 thru_hole oval (at 35 0) (size 1.8 3.6) (drill 1.2) (layers *.Cu *.Mask))
  (pad 12 thru_hole oval (at 38.5 0) (size 1.8 3.6) (drill 1.2) (layers *.Cu *.Mask))
  (pad 13 thru_hole oval (at 42 0) (size 1.8 3.6) (drill 1.2) (layers *.Cu *.Mask))
  (fp_text user %R (at 21 3) (layer F.Fab)
    (effects (font (size 1 1) (thickness 0.15)))
  )
  (model ${KIPRJMOD}/kicad_libs_k/models_k.3d/Connector_Phoenix_MC_k.3dshapes/PhoenixContact_MC_1,5_13-GF-3.5_1x13_P3.50mm_Horizontal_ThreadedFlange_k.wrl
    (at (xyz 0 0 0))
    (scale (xyz 1 1 1))
    (rotate (xyz 0 0 0))
  )
)