(module PhoenixContact_MCV_1,5_7-GF-3.81_1x07_P3.81mm_Vertical_ThreadedFlange_MountHole (layer F.Cu) (tedit 5A00FA1B)
  (descr "Generic Phoenix Contact connector footprint for: MCV_1,5/7-GF-3.81; number of pins: 07; pin pitch: 3.81mm; Vertical; threaded flange; footprint includes mount hole for mounting screw: ISO 1481-ST 2.2x4.5 C or ISO 7049-ST 2.2x4.5 C (http://www.fasteners.eu/standards/ISO/7049/) || order number: 1830648 8A 160V")
  (tags "phoenix_contact connector MCV_01x07_GF_3.81mm_MH")
  (fp_text reference REF** (at 11.43 -5.25) (layer F.SilkS)
    (effects (font (size 1 1) (thickness 0.15)))
  )
  (fp_text value PhoenixContact_MCV_1,5_7-GF-3.81_1x07_P3.81mm_Vertical_ThreadedFlange_MountHole (at 11.43 4) (layer F.Fab)
    (effects (font (size 1 1) (thickness 0.15)))
  )
  (fp_arc (start 0 3.95) (end -0.75 2.25) (angle 47.6) (layer F.SilkS) (width 0.12))
  (fp_arc (start 3.81 3.95) (end 3.06 2.25) (angle 47.6) (layer F.SilkS) (width 0.12))
  (fp_arc (start 7.62 3.95) (end 6.87 2.25) (angle 47.6) (layer F.SilkS) (width 0.12))
  (fp_arc (start 11.43 3.95) (end 10.68 2.25) (angle 47.6) (layer F.SilkS) (width 0.12))
  (fp_arc (start 15.24 3.95) (end 14.49 2.25) (angle 47.6) (layer F.SilkS) (width 0.12))
  (fp_arc (start 19.05 3.95) (end 18.3 2.25) (angle 47.6) (layer F.SilkS) (width 0.12))
  (fp_arc (start 22.86 3.95) (end 22.11 2.25) (angle 47.6) (layer F.SilkS) (width 0.12))
  (fp_circle (center -4.5 0) (end -2.6 0) (layer F.SilkS) (width 0.12))
  (fp_circle (center 27.36 0) (end 29.26 0) (layer F.SilkS) (width 0.12))
  (fp_circle (center -4.5 0) (end -2.32 0) (layer B.SilkS) (width 0.12))
  (fp_circle (center 27.36 0) (end 29.54 0) (layer B.SilkS) (width 0.12))
  (fp_circle (center 27.36 0) (end 29.46 0) (layer B.Fab) (width 0.1))
  (fp_circle (center -4.5 0) (end -2.4 0) (layer B.Fab) (width 0.1))
  (fp_circle (center 27.36 0) (end 29.96 0) (layer B.CrtYd) (width 0.05))
  (fp_circle (center -4.5 0) (end -1.9 0) (layer B.CrtYd) (width 0.05))
  (fp_line (start -7.18 3.08) (end 30.04 3.08) (layer F.SilkS) (width 0.12))
  (fp_line (start 30.04 3.08) (end 30.04 -3.08) (layer F.SilkS) (width 0.12))
  (fp_line (start 30.04 -3.08) (end 25.24 -3.08) (layer F.SilkS) (width 0.12))
  (fp_line (start 25.24 -3.08) (end 25.24 -4.33) (layer F.SilkS) (width 0.12))
  (fp_line (start 25.24 -4.33) (end -2.38 -4.33) (layer F.SilkS) (width 0.12))
  (fp_line (start -2.38 -4.33) (end -2.38 -3.08) (layer F.SilkS) (width 0.12))
  (fp_line (start -2.38 -3.08) (end -7.18 -3.08) (layer F.SilkS) (width 0.12))
  (fp_line (start -7.18 -3.08) (end -7.18 3.08) (layer F.SilkS) (width 0.12))
  (fp_line (start -7.1 3) (end 29.96 3) (layer F.Fab) (width 0.1))
  (fp_line (start 29.96 3) (end 29.96 -3) (layer F.Fab) (width 0.1))
  (fp_line (start 29.96 -3) (end 25.16 -3) (layer F.Fab) (width 0.1))
  (fp_line (start 25.16 -3) (end 25.16 -4.25) (layer F.Fab) (width 0.1))
  (fp_line (start 25.16 -4.25) (end -2.3 -4.25) (layer F.Fab) (width 0.1))
  (fp_line (start -2.3 -4.25) (end -2.3 -3) (layer F.Fab) (width 0.1))
  (fp_line (start -2.3 -3) (end -7.1 -3) (layer F.Fab) (width 0.1))
  (fp_line (start -7.1 -3) (end -7.1 3) (layer F.Fab) (width 0.1))
  (fp_line (start -0.75 2.25) (end -1.5 2.25) (layer F.SilkS) (width 0.12))
  (fp_line (start -1.5 2.25) (end -1.5 -2.05) (layer F.SilkS) (width 0.12))
  (fp_line (start -1.5 -2.05) (end -0.75 -2.05) (layer F.SilkS) (width 0.12))
  (fp_line (start -0.75 -2.05) (end -0.75 -2.4) (layer F.SilkS) (width 0.12))
  (fp_line (start -0.75 -2.4) (end -1.25 -2.4) (layer F.SilkS) (width 0.12))
  (fp_line (start -1.25 -2.4) (end -1.5 -3.4) (layer F.SilkS) (width 0.12))
  (fp_line (start -1.5 -3.4) (end 1.5 -3.4) (layer F.SilkS) (width 0.12))
  (fp_line (start 1.5 -3.4) (end 1.25 -2.4) (layer F.SilkS) (width 0.12))
  (fp_line (start 1.25 -2.4) (end 0.75 -2.4) (layer F.SilkS) (width 0.12))
  (fp_line (start 0.75 -2.4) (end 0.75 -2.05) (layer F.SilkS) (width 0.12))
  (fp_line (start 0.75 -2.05) (end 1.5 -2.05) (layer F.SilkS) (width 0.12))
  (fp_line (start 1.5 -2.05) (end 1.5 2.25) (layer F.SilkS) (width 0.12))
  (fp_line (start 1.5 2.25) (end 0.75 2.25) (layer F.SilkS) (width 0.12))
  (fp_line (start 3.06 2.25) (end 2.31 2.25) (layer F.SilkS) (width 0.12))
  (fp_line (start 2.31 2.25) (end 2.31 -2.05) (layer F.SilkS) (width 0.12))
  (fp_line (start 2.31 -2.05) (end 3.06 -2.05) (layer F.SilkS) (width 0.12))
  (fp_line (start 3.06 -2.05) (end 3.06 -2.4) (layer F.SilkS) (width 0.12))
  (fp_line (start 3.06 -2.4) (end 2.56 -2.4) (layer F.SilkS) (width 0.12))
  (fp_line (start 2.56 -2.4) (end 2.31 -3.4) (layer F.SilkS) (width 0.12))
  (fp_line (start 2.31 -3.4) (end 5.31 -3.4) (layer F.SilkS) (width 0.12))
  (fp_line (start 5.31 -3.4) (end 5.06 -2.4) (layer F.SilkS) (width 0.12))
  (fp_line (start 5.06 -2.4) (end 4.56 -2.4) (layer F.SilkS) (width 0.12))
  (fp_line (start 4.56 -2.4) (end 4.56 -2.05) (layer F.SilkS) (width 0.12))
  (fp_line (start 4.56 -2.05) (end 5.31 -2.05) (layer F.SilkS) (width 0.12))
  (fp_line (start 5.31 -2.05) (end 5.31 2.25) (layer F.SilkS) (width 0.12))
  (fp_line (start 5.31 2.25) (end 4.56 2.25) (layer F.SilkS) (width 0.12))
  (fp_line (start 6.87 2.25) (end 6.12 2.25) (layer F.SilkS) (width 0.12))
  (fp_line (start 6.12 2.25) (end 6.12 -2.05) (layer F.SilkS) (width 0.12))
  (fp_line (start 6.12 -2.05) (end 6.87 -2.05) (layer F.SilkS) (width 0.12))
  (fp_line (start 6.87 -2.05) (end 6.87 -2.4) (layer F.SilkS) (width 0.12))
  (fp_line (start 6.87 -2.4) (end 6.37 -2.4) (layer F.SilkS) (width 0.12))
  (fp_line (start 6.37 -2.4) (end 6.12 -3.4) (layer F.SilkS) (width 0.12))
  (fp_line (start 6.12 -3.4) (end 9.12 -3.4) (layer F.SilkS) (width 0.12))
  (fp_line (start 9.12 -3.4) (end 8.87 -2.4) (layer F.SilkS) (width 0.12))
  (fp_line (start 8.87 -2.4) (end 8.37 -2.4) (layer F.SilkS) (width 0.12))
  (fp_line (start 8.37 -2.4) (end 8.37 -2.05) (layer F.SilkS) (width 0.12))
  (fp_line (start 8.37 -2.05) (end 9.12 -2.05) (layer F.SilkS) (width 0.12))
  (fp_line (start 9.12 -2.05) (end 9.12 2.25) (layer F.SilkS) (width 0.12))
  (fp_line (start 9.12 2.25) (end 8.37 2.25) (layer F.SilkS) (width 0.12))
  (fp_line (start 10.68 2.25) (end 9.93 2.25) (layer F.SilkS) (width 0.12))
  (fp_line (start 9.93 2.25) (end 9.93 -2.05) (layer F.SilkS) (width 0.12))
  (fp_line (start 9.93 -2.05) (end 10.68 -2.05) (layer F.SilkS) (width 0.12))
  (fp_line (start 10.68 -2.05) (end 10.68 -2.4) (layer F.SilkS) (width 0.12))
  (fp_line (start 10.68 -2.4) (end 10.18 -2.4) (layer F.SilkS) (width 0.12))
  (fp_line (start 10.18 -2.4) (end 9.93 -3.4) (layer F.SilkS) (width 0.12))
  (fp_line (start 9.93 -3.4) (end 12.93 -3.4) (layer F.SilkS) (width 0.12))
  (fp_line (start 12.93 -3.4) (end 12.68 -2.4) (layer F.SilkS) (width 0.12))
  (fp_line (start 12.68 -2.4) (end 12.18 -2.4) (layer F.SilkS) (width 0.12))
  (fp_line (start 12.18 -2.4) (end 12.18 -2.05) (layer F.SilkS) (width 0.12))
  (fp_line (start 12.18 -2.05) (end 12.93 -2.05) (layer F.SilkS) (width 0.12))
  (fp_line (start 12.93 -2.05) (end 12.93 2.25) (layer F.SilkS) (width 0.12))
  (fp_line (start 12.93 2.25) (end 12.18 2.25) (layer F.SilkS) (width 0.12))
  (fp_line (start 14.49 2.25) (end 13.74 2.25) (layer F.SilkS) (width 0.12))
  (fp_line (start 13.74 2.25) (end 13.74 -2.05) (layer F.SilkS) (width 0.12))
  (fp_line (start 13.74 -2.05) (end 14.49 -2.05) (layer F.SilkS) (width 0.12))
  (fp_line (start 14.49 -2.05) (end 14.49 -2.4) (layer F.SilkS) (width 0.12))
  (fp_line (start 14.49 -2.4) (end 13.99 -2.4) (layer F.SilkS) (width 0.12))
  (fp_line (start 13.99 -2.4) (end 13.74 -3.4) (layer F.SilkS) (width 0.12))
  (fp_line (start 13.74 -3.4) (end 16.74 -3.4) (layer F.SilkS) (width 0.12))
  (fp_line (start 16.74 -3.4) (end 16.49 -2.4) (layer F.SilkS) (width 0.12))
  (fp_line (start 16.49 -2.4) (end 15.99 -2.4) (layer F.SilkS) (width 0.12))
  (fp_line (start 15.99 -2.4) (end 15.99 -2.05) (layer F.SilkS) (width 0.12))
  (fp_line (start 15.99 -2.05) (end 16.74 -2.05) (layer F.SilkS) (width 0.12))
  (fp_line (start 16.74 -2.05) (end 16.74 2.25) (layer F.SilkS) (width 0.12))
  (fp_line (start 16.74 2.25) (end 15.99 2.25) (layer F.SilkS) (width 0.12))
  (fp_line (start 18.3 2.25) (end 17.55 2.25) (layer F.SilkS) (width 0.12))
  (fp_line (start 17.55 2.25) (end 17.55 -2.05) (layer F.SilkS) (width 0.12))
  (fp_line (start 17.55 -2.05) (end 18.3 -2.05) (layer F.SilkS) (width 0.12))
  (fp_line (start 18.3 -2.05) (end 18.3 -2.4) (layer F.SilkS) (width 0.12))
  (fp_line (start 18.3 -2.4) (end 17.8 -2.4) (layer F.SilkS) (width 0.12))
  (fp_line (start 17.8 -2.4) (end 17.55 -3.4) (layer F.SilkS) (width 0.12))
  (fp_line (start 17.55 -3.4) (end 20.55 -3.4) (layer F.SilkS) (width 0.12))
  (fp_line (start 20.55 -3.4) (end 20.3 -2.4) (layer F.SilkS) (width 0.12))
  (fp_line (start 20.3 -2.4) (end 19.8 -2.4) (layer F.SilkS) (width 0.12))
  (fp_line (start 19.8 -2.4) (end 19.8 -2.05) (layer F.SilkS) (width 0.12))
  (fp_line (start 19.8 -2.05) (end 20.55 -2.05) (layer F.SilkS) (width 0.12))
  (fp_line (start 20.55 -2.05) (end 20.55 2.25) (layer F.SilkS) (width 0.12))
  (fp_line (start 20.55 2.25) (end 19.8 2.25) (layer F.SilkS) (width 0.12))
  (fp_line (start 22.11 2.25) (end 21.36 2.25) (layer F.SilkS) (width 0.12))
  (fp_line (start 21.36 2.25) (end 21.36 -2.05) (layer F.SilkS) (width 0.12))
  (fp_line (start 21.36 -2.05) (end 22.11 -2.05) (layer F.SilkS) (width 0.12))
  (fp_line (start 22.11 -2.05) (end 22.11 -2.4) (layer F.SilkS) (width 0.12))
  (fp_line (start 22.11 -2.4) (end 21.61 -2.4) (layer F.SilkS) (width 0.12))
  (fp_line (start 21.61 -2.4) (end 21.36 -3.4) (layer F.SilkS) (width 0.12))
  (fp_line (start 21.36 -3.4) (end 24.36 -3.4) (layer F.SilkS) (width 0.12))
  (fp_line (start 24.36 -3.4) (end 24.11 -2.4) (layer F.SilkS) (width 0.12))
  (fp_line (start 24.11 -2.4) (end 23.61 -2.4) (layer F.SilkS) (width 0.12))
  (fp_line (start 23.61 -2.4) (end 23.61 -2.05) (layer F.SilkS) (width 0.12))
  (fp_line (start 23.61 -2.05) (end 24.36 -2.05) (layer F.SilkS) (width 0.12))
  (fp_line (start 24.36 -2.05) (end 24.36 2.25) (layer F.SilkS) (width 0.12))
  (fp_line (start 24.36 2.25) (end 23.61 2.25) (layer F.SilkS) (width 0.12))
  (fp_line (start -7.6 -4.75) (end -7.6 3.5) (layer F.CrtYd) (width 0.05))
  (fp_line (start -7.6 3.5) (end 30.46 3.5) (layer F.CrtYd) (width 0.05))
  (fp_line (start 30.46 3.5) (end 30.46 -4.75) (layer F.CrtYd) (width 0.05))
  (fp_line (start 30.46 -4.75) (end -7.6 -4.75) (layer F.CrtYd) (width 0.05))
  (fp_line (start -2.8 -3.5) (end -2.8 -4.75) (layer F.SilkS) (width 0.12))
  (fp_line (start -2.8 -4.75) (end -0.8 -4.75) (layer F.SilkS) (width 0.12))
  (fp_line (start -2.8 -3.5) (end -2.8 -4.75) (layer F.Fab) (width 0.1))
  (fp_line (start -2.8 -4.75) (end -0.8 -4.75) (layer F.Fab) (width 0.1))
  (pad 1 thru_hole rect (at 0 0) (size 1.8 3.6) (drill 1.2) (layers *.Cu *.Mask))
  (pad 2 thru_hole oval (at 3.81 0) (size 1.8 3.6) (drill 1.2) (layers *.Cu *.Mask))
  (pad 3 thru_hole oval (at 7.62 0) (size 1.8 3.6) (drill 1.2) (layers *.Cu *.Mask))
  (pad 4 thru_hole oval (at 11.43 0) (size 1.8 3.6) (drill 1.2) (layers *.Cu *.Mask))
  (pad 5 thru_hole oval (at 15.24 0) (size 1.8 3.6) (drill 1.2) (layers *.Cu *.Mask))
  (pad 6 thru_hole oval (at 19.05 0) (size 1.8 3.6) (drill 1.2) (layers *.Cu *.Mask))
  (pad 7 thru_hole oval (at 22.86 0) (size 1.8 3.6) (drill 1.2) (layers *.Cu *.Mask))
  (pad "" np_thru_hole circle (at -4.5 0) (size 2.4 2.4) (drill 2.4) (layers *.Cu *.Mask))
  (pad "" np_thru_hole circle (at 27.36 0) (size 2.4 2.4) (drill 2.4) (layers *.Cu *.Mask))
  (fp_text user %R (at 11.43 -3) (layer F.Fab)
    (effects (font (size 1 1) (thickness 0.15)))
  )
  (model ${KIPRJMOD}/kicad_libs_k/models_k.3d/Connector_Phoenix_MC_k.3dshapes/PhoenixContact_MCV_1,5_7-GF-3.81_1x07_P3.81mm_Vertical_ThreadedFlange_MountHole_k.wrl
    (at (xyz 0 0 0))
    (scale (xyz 1 1 1))
    (rotate (xyz 0 0 0))
  )
)