(module PhoenixContact_MCV_1,5_5-GF-3.5_1x05_P3.50mm_Vertical_ThreadedFlange_MountHole (layer F.Cu) (tedit 5A00FA1A)
  (descr "Generic Phoenix Contact connector footprint for: MCV_1,5/5-GF-3.5; number of pins: 05; pin pitch: 3.50mm; Vertical; threaded flange; footprint includes mount hole for mounting screw: ISO 1481-ST 2.2x4.5 C or ISO 7049-ST 2.2x4.5 C (http://www.fasteners.eu/standards/ISO/7049/) || order number: 1843253 8A 160V")
  (tags "phoenix_contact connector MCV_01x05_GF_3.5mm_MH")
  (fp_text reference REF** (at 7 -5.25) (layer F.SilkS)
    (effects (font (size 1 1) (thickness 0.15)))
  )
  (fp_text value PhoenixContact_MCV_1,5_5-GF-3.5_1x05_P3.50mm_Vertical_ThreadedFlange_MountHole (at 7 4) (layer F.Fab)
    (effects (font (size 1 1) (thickness 0.15)))
  )
  (fp_arc (start 0 3.95) (end -0.75 2.25) (angle 47.6) (layer F.SilkS) (width 0.12))
  (fp_arc (start 3.5 3.95) (end 2.75 2.25) (angle 47.6) (layer F.SilkS) (width 0.12))
  (fp_arc (start 7 3.95) (end 6.25 2.25) (angle 47.6) (layer F.SilkS) (width 0.12))
  (fp_arc (start 10.5 3.95) (end 9.75 2.25) (angle 47.6) (layer F.SilkS) (width 0.12))
  (fp_arc (start 14 3.95) (end 13.25 2.25) (angle 47.6) (layer F.SilkS) (width 0.12))
  (fp_circle (center -4.3 0) (end -2.4 0) (layer F.SilkS) (width 0.12))
  (fp_circle (center 18.3 0) (end 20.2 0) (layer F.SilkS) (width 0.12))
  (fp_circle (center -4.3 0) (end -2.12 0) (layer B.SilkS) (width 0.12))
  (fp_circle (center 18.3 0) (end 20.48 0) (layer B.SilkS) (width 0.12))
  (fp_circle (center 18.3 0) (end 20.4 0) (layer B.Fab) (width 0.1))
  (fp_circle (center -4.3 0) (end -2.2 0) (layer B.Fab) (width 0.1))
  (fp_circle (center 18.3 0) (end 20.9 0) (layer B.CrtYd) (width 0.05))
  (fp_circle (center -4.3 0) (end -1.7 0) (layer B.CrtYd) (width 0.05))
  (fp_line (start -6.98 3.08) (end 20.98 3.08) (layer F.SilkS) (width 0.12))
  (fp_line (start 20.98 3.08) (end 20.98 -3.08) (layer F.SilkS) (width 0.12))
  (fp_line (start 20.98 -3.08) (end 16.18 -3.08) (layer F.SilkS) (width 0.12))
  (fp_line (start 16.18 -3.08) (end 16.18 -4.33) (layer F.SilkS) (width 0.12))
  (fp_line (start 16.18 -4.33) (end -2.18 -4.33) (layer F.SilkS) (width 0.12))
  (fp_line (start -2.18 -4.33) (end -2.18 -3.08) (layer F.SilkS) (width 0.12))
  (fp_line (start -2.18 -3.08) (end -6.98 -3.08) (layer F.SilkS) (width 0.12))
  (fp_line (start -6.98 -3.08) (end -6.98 3.08) (layer F.SilkS) (width 0.12))
  (fp_line (start -6.9 3) (end 20.9 3) (layer F.Fab) (width 0.1))
  (fp_line (start 20.9 3) (end 20.9 -3) (layer F.Fab) (width 0.1))
  (fp_line (start 20.9 -3) (end 16.1 -3) (layer F.Fab) (width 0.1))
  (fp_line (start 16.1 -3) (end 16.1 -4.25) (layer F.Fab) (width 0.1))
  (fp_line (start 16.1 -4.25) (end -2.1 -4.25) (layer F.Fab) (width 0.1))
  (fp_line (start -2.1 -4.25) (end -2.1 -3) (layer F.Fab) (width 0.1))
  (fp_line (start -2.1 -3) (end -6.9 -3) (layer F.Fab) (width 0.1))
  (fp_line (start -6.9 -3) (end -6.9 3) (layer F.Fab) (width 0.1))
  (fp_line (start -0.75 2.25) (end -1.5 2.25) (layer F.SilkS) (width 0.12))
  (fp_line (start -1.5 2.25) (end -1.5 -2.05) (layer F.SilkS) (width 0.12))
  (fp_line (start -1.5 -2.05) (end -0.75 -2.05) (layer F.SilkS) (width 0.12))
  (fp_line (start -0.75 -2.05) (end -0.75 -2.4) (layer F.SilkS) (width 0.12))
  (fp_line (start -0.75 -2.4) (end -1.25 -2.4) (layer F.SilkS) (width 0.12))
  (fp_line (start -1.25 -2.4) (end -1.5 -3.4) (layer F.SilkS) (width 0.12))
  (fp_line (start -1.5 -3.4) (end 1.5 -3.4) (layer F.SilkS) (width 0.12))
  (fp_line (start 1.5 -3.4) (end 1.25 -2.4) (layer F.SilkS) (width 0.12))
  (fp_line (start 1.25 -2.4) (end 0.75 -2.4) (layer F.SilkS) (width 0.12))
  (fp_line (start 0.75 -2.4) (end 0.75 -2.05) (layer F.SilkS) (width 0.12))
  (fp_line (start 0.75 -2.05) (end 1.5 -2.05) (layer F.SilkS) (width 0.12))
  (fp_line (start 1.5 -2.05) (end 1.5 2.25) (layer F.SilkS) (width 0.12))
  (fp_line (start 1.5 2.25) (end 0.75 2.25) (layer F.SilkS) (width 0.12))
  (fp_line (start 2.75 2.25) (end 2 2.25) (layer F.SilkS) (width 0.12))
  (fp_line (start 2 2.25) (end 2 -2.05) (layer F.SilkS) (width 0.12))
  (fp_line (start 2 -2.05) (end 2.75 -2.05) (layer F.SilkS) (width 0.12))
  (fp_line (start 2.75 -2.05) (end 2.75 -2.4) (layer F.SilkS) (width 0.12))
  (fp_line (start 2.75 -2.4) (end 2.25 -2.4) (layer F.SilkS) (width 0.12))
  (fp_line (start 2.25 -2.4) (end 2 -3.4) (layer F.SilkS) (width 0.12))
  (fp_line (start 2 -3.4) (end 5 -3.4) (layer F.SilkS) (width 0.12))
  (fp_line (start 5 -3.4) (end 4.75 -2.4) (layer F.SilkS) (width 0.12))
  (fp_line (start 4.75 -2.4) (end 4.25 -2.4) (layer F.SilkS) (width 0.12))
  (fp_line (start 4.25 -2.4) (end 4.25 -2.05) (layer F.SilkS) (width 0.12))
  (fp_line (start 4.25 -2.05) (end 5 -2.05) (layer F.SilkS) (width 0.12))
  (fp_line (start 5 -2.05) (end 5 2.25) (layer F.SilkS) (width 0.12))
  (fp_line (start 5 2.25) (end 4.25 2.25) (layer F.SilkS) (width 0.12))
  (fp_line (start 6.25 2.25) (end 5.5 2.25) (layer F.SilkS) (width 0.12))
  (fp_line (start 5.5 2.25) (end 5.5 -2.05) (layer F.SilkS) (width 0.12))
  (fp_line (start 5.5 -2.05) (end 6.25 -2.05) (layer F.SilkS) (width 0.12))
  (fp_line (start 6.25 -2.05) (end 6.25 -2.4) (layer F.SilkS) (width 0.12))
  (fp_line (start 6.25 -2.4) (end 5.75 -2.4) (layer F.SilkS) (width 0.12))
  (fp_line (start 5.75 -2.4) (end 5.5 -3.4) (layer F.SilkS) (width 0.12))
  (fp_line (start 5.5 -3.4) (end 8.5 -3.4) (layer F.SilkS) (width 0.12))
  (fp_line (start 8.5 -3.4) (end 8.25 -2.4) (layer F.SilkS) (width 0.12))
  (fp_line (start 8.25 -2.4) (end 7.75 -2.4) (layer F.SilkS) (width 0.12))
  (fp_line (start 7.75 -2.4) (end 7.75 -2.05) (layer F.SilkS) (width 0.12))
  (fp_line (start 7.75 -2.05) (end 8.5 -2.05) (layer F.SilkS) (width 0.12))
  (fp_line (start 8.5 -2.05) (end 8.5 2.25) (layer F.SilkS) (width 0.12))
  (fp_line (start 8.5 2.25) (end 7.75 2.25) (layer F.SilkS) (width 0.12))
  (fp_line (start 9.75 2.25) (end 9 2.25) (layer F.SilkS) (width 0.12))
  (fp_line (start 9 2.25) (end 9 -2.05) (layer F.SilkS) (width 0.12))
  (fp_line (start 9 -2.05) (end 9.75 -2.05) (layer F.SilkS) (width 0.12))
  (fp_line (start 9.75 -2.05) (end 9.75 -2.4) (layer F.SilkS) (width 0.12))
  (fp_line (start 9.75 -2.4) (end 9.25 -2.4) (layer F.SilkS) (width 0.12))
  (fp_line (start 9.25 -2.4) (end 9 -3.4) (layer F.SilkS) (width 0.12))
  (fp_line (start 9 -3.4) (end 12 -3.4) (layer F.SilkS) (width 0.12))
  (fp_line (start 12 -3.4) (end 11.75 -2.4) (layer F.SilkS) (width 0.12))
  (fp_line (start 11.75 -2.4) (end 11.25 -2.4) (layer F.SilkS) (width 0.12))
  (fp_line (start 11.25 -2.4) (end 11.25 -2.05) (layer F.SilkS) (width 0.12))
  (fp_line (start 11.25 -2.05) (end 12 -2.05) (layer F.SilkS) (width 0.12))
  (fp_line (start 12 -2.05) (end 12 2.25) (layer F.SilkS) (width 0.12))
  (fp_line (start 12 2.25) (end 11.25 2.25) (layer F.SilkS) (width 0.12))
  (fp_line (start 13.25 2.25) (end 12.5 2.25) (layer F.SilkS) (width 0.12))
  (fp_line (start 12.5 2.25) (end 12.5 -2.05) (layer F.SilkS) (width 0.12))
  (fp_line (start 12.5 -2.05) (end 13.25 -2.05) (layer F.SilkS) (width 0.12))
  (fp_line (start 13.25 -2.05) (end 13.25 -2.4) (layer F.SilkS) (width 0.12))
  (fp_line (start 13.25 -2.4) (end 12.75 -2.4) (layer F.SilkS) (width 0.12))
  (fp_line (start 12.75 -2.4) (end 12.5 -3.4) (layer F.SilkS) (width 0.12))
  (fp_line (start 12.5 -3.4) (end 15.5 -3.4) (layer F.SilkS) (width 0.12))
  (fp_line (start 15.5 -3.4) (end 15.25 -2.4) (layer F.SilkS) (width 0.12))
  (fp_line (start 15.25 -2.4) (end 14.75 -2.4) (layer F.SilkS) (width 0.12))
  (fp_line (start 14.75 -2.4) (end 14.75 -2.05) (layer F.SilkS) (width 0.12))
  (fp_line (start 14.75 -2.05) (end 15.5 -2.05) (layer F.SilkS) (width 0.12))
  (fp_line (start 15.5 -2.05) (end 15.5 2.25) (layer F.SilkS) (width 0.12))
  (fp_line (start 15.5 2.25) (end 14.75 2.25) (layer F.SilkS) (width 0.12))
  (fp_line (start -7.4 -4.75) (end -7.4 3.5) (layer F.CrtYd) (width 0.05))
  (fp_line (start -7.4 3.5) (end 21.4 3.5) (layer F.CrtYd) (width 0.05))
  (fp_line (start 21.4 3.5) (end 21.4 -4.75) (layer F.CrtYd) (width 0.05))
  (fp_line (start 21.4 -4.75) (end -7.4 -4.75) (layer F.CrtYd) (width 0.05))
  (fp_line (start -2.6 -3.5) (end -2.6 -4.75) (layer F.SilkS) (width 0.12))
  (fp_line (start -2.6 -4.75) (end -0.6 -4.75) (layer F.SilkS) (width 0.12))
  (fp_line (start -2.6 -3.5) (end -2.6 -4.75) (layer F.Fab) (width 0.1))
  (fp_line (start -2.6 -4.75) (end -0.6 -4.75) (layer F.Fab) (width 0.1))
  (pad 1 thru_hole rect (at 0 0) (size 1.8 3.6) (drill 1.2) (layers *.Cu *.Mask))
  (pad 2 thru_hole oval (at 3.5 0) (size 1.8 3.6) (drill 1.2) (layers *.Cu *.Mask))
  (pad 3 thru_hole oval (at 7 0) (size 1.8 3.6) (drill 1.2) (layers *.Cu *.Mask))
  (pad 4 thru_hole oval (at 10.5 0) (size 1.8 3.6) (drill 1.2) (layers *.Cu *.Mask))
  (pad 5 thru_hole oval (at 14 0) (size 1.8 3.6) (drill 1.2) (layers *.Cu *.Mask))
  (pad "" np_thru_hole circle (at -4.3 0) (size 2.4 2.4) (drill 2.4) (layers *.Cu *.Mask))
  (pad "" np_thru_hole circle (at 18.3 0) (size 2.4 2.4) (drill 2.4) (layers *.Cu *.Mask))
  (fp_text user %R (at 7 -3) (layer F.Fab)
    (effects (font (size 1 1) (thickness 0.15)))
  )
  (model ${KIPRJMOD}/kicad_libs_k/models_k.3d/Connector_Phoenix_MC_k.3dshapes/PhoenixContact_MCV_1,5_5-GF-3.5_1x05_P3.50mm_Vertical_ThreadedFlange_MountHole_k.wrl
    (at (xyz 0 0 0))
    (scale (xyz 1 1 1))
    (rotate (xyz 0 0 0))
  )
)