(module PhoenixContact_MC_1,5_10-GF-3.81_1x10_P3.81mm_Horizontal_ThreadedFlange (layer F.Cu) (tedit 5A00FA1A)
  (descr "Generic Phoenix Contact connector footprint for: MC_1,5/10-GF-3.81; number of pins: 10; pin pitch: 3.81mm; Angled; threaded flange || order number: 1827949 8A 160V")
  (tags "phoenix_contact connector MC_01x10_GF_3.81mm")
  (fp_text reference REF** (at 17.145 -2.8) (layer F.SilkS)
    (effects (font (size 1 1) (thickness 0.15)))
  )
  (fp_text value PhoenixContact_MC_1,5_10-GF-3.81_1x10_P3.81mm_Horizontal_ThreadedFlange (at 17.145 9) (layer F.Fab)
    (effects (font (size 1 1) (thickness 0.15)))
  )
  (fp_line (start -7.18 -1.28) (end -7.18 8.08) (layer F.SilkS) (width 0.12))
  (fp_line (start -7.18 8.08) (end 41.47 8.08) (layer F.SilkS) (width 0.12))
  (fp_line (start 41.47 8.08) (end 41.47 -1.28) (layer F.SilkS) (width 0.12))
  (fp_line (start -7.18 -1.28) (end -1.05 -1.28) (layer F.SilkS) (width 0.12))
  (fp_line (start 41.47 -1.28) (end 35.34 -1.28) (layer F.SilkS) (width 0.12))
  (fp_line (start 1.05 -1.28) (end 2.76 -1.28) (layer F.SilkS) (width 0.12))
  (fp_line (start 4.86 -1.28) (end 6.57 -1.28) (layer F.SilkS) (width 0.12))
  (fp_line (start 8.67 -1.28) (end 10.38 -1.28) (layer F.SilkS) (width 0.12))
  (fp_line (start 12.48 -1.28) (end 14.19 -1.28) (layer F.SilkS) (width 0.12))
  (fp_line (start 16.29 -1.28) (end 18 -1.28) (layer F.SilkS) (width 0.12))
  (fp_line (start 20.1 -1.28) (end 21.81 -1.28) (layer F.SilkS) (width 0.12))
  (fp_line (start 23.91 -1.28) (end 25.62 -1.28) (layer F.SilkS) (width 0.12))
  (fp_line (start 27.72 -1.28) (end 29.43 -1.28) (layer F.SilkS) (width 0.12))
  (fp_line (start 31.53 -1.28) (end 33.24 -1.28) (layer F.SilkS) (width 0.12))
  (fp_line (start -7.1 -1.2) (end -7.1 8) (layer F.Fab) (width 0.1))
  (fp_line (start -7.1 8) (end 41.39 8) (layer F.Fab) (width 0.1))
  (fp_line (start 41.39 8) (end 41.39 -1.2) (layer F.Fab) (width 0.1))
  (fp_line (start 41.39 -1.2) (end -7.1 -1.2) (layer F.Fab) (width 0.1))
  (fp_line (start -2.38 4.8) (end 36.67 4.8) (layer F.SilkS) (width 0.12))
  (fp_line (start -2.38 -1.28) (end -2.38 8.08) (layer F.SilkS) (width 0.12))
  (fp_line (start 36.67 -1.28) (end 36.67 8.08) (layer F.SilkS) (width 0.12))
  (fp_line (start -7.68 -2.3) (end -7.68 8.5) (layer F.CrtYd) (width 0.05))
  (fp_line (start -7.68 8.5) (end 41.89 8.5) (layer F.CrtYd) (width 0.05))
  (fp_line (start 41.89 8.5) (end 41.89 -2.3) (layer F.CrtYd) (width 0.05))
  (fp_line (start 41.89 -2.3) (end -7.68 -2.3) (layer F.CrtYd) (width 0.05))
  (fp_line (start 0.3 -2.6) (end 0 -2) (layer F.SilkS) (width 0.12))
  (fp_line (start 0 -2) (end -0.3 -2.6) (layer F.SilkS) (width 0.12))
  (fp_line (start -0.3 -2.6) (end 0.3 -2.6) (layer F.SilkS) (width 0.12))
  (fp_line (start 0.8 -1.2) (end 0 0) (layer F.Fab) (width 0.1))
  (fp_line (start 0 0) (end -0.8 -1.2) (layer F.Fab) (width 0.1))
  (pad 1 thru_hole rect (at 0 0) (size 1.8 3.6) (drill 1.2) (layers *.Cu *.Mask))
  (pad 2 thru_hole oval (at 3.81 0) (size 1.8 3.6) (drill 1.2) (layers *.Cu *.Mask))
  (pad 3 thru_hole oval (at 7.62 0) (size 1.8 3.6) (drill 1.2) (layers *.Cu *.Mask))
  (pad 4 thru_hole oval (at 11.43 0) (size 1.8 3.6) (drill 1.2) (layers *.Cu *.Mask))
  (pad 5 thru_hole oval (at 15.24 0) (size 1.8 3.6) (drill 1.2) (layers *.Cu *.Mask))
  (pad 6 thru_hole oval (at 19.05 0) (size 1.8 3.6) (drill 1.2) (layers *.Cu *.Mask))
  (pad 7 thru_hole oval (at 22.86 0) (size 1.8 3.6) (drill 1.2) (layers *.Cu *.Mask))
  (pad 8 thru_hole oval (at 26.67 0) (size 1.8 3.6) (drill 1.2) (layers *.Cu *.Mask))
  (pad 9 thru_hole oval (at 30.48 0) (size 1.8 3.6) (drill 1.2) (layers *.Cu *.Mask))
  (pad 10 thru_hole oval (at 34.29 0) (size 1.8 3.6) (drill 1.2) (layers *.Cu *.Mask))
  (fp_text user %R (at 17.145 3) (layer F.Fab)
    (effects (font (size 1 1) (thickness 0.15)))
  )
  (model ${KIPRJMOD}/kicad_libs_k/models_k.3d/Connector_Phoenix_MC_k.3dshapes/PhoenixContact_MC_1,5_10-GF-3.81_1x10_P3.81mm_Horizontal_ThreadedFlange_k.wrl
    (at (xyz 0 0 0))
    (scale (xyz 1 1 1))
    (rotate (xyz 0 0 0))
  )
)