(module PhoenixContact_MC_1,5_6-GF-3.5_1x06_P3.50mm_Horizontal_ThreadedFlange (layer F.Cu) (tedit 5A00FA19)
  (descr "Generic Phoenix Contact connector footprint for: MC_1,5/6-GF-3.5; number of pins: 06; pin pitch: 3.50mm; Angled; threaded flange || order number: 1843839 8A 160V")
  (tags "phoenix_contact connector MC_01x06_GF_3.5mm")
  (fp_text reference REF** (at 8.75 -2.8) (layer F.SilkS)
    (effects (font (size 1 1) (thickness 0.15)))
  )
  (fp_text value PhoenixContact_MC_1,5_6-GF-3.5_1x06_P3.50mm_Horizontal_ThreadedFlange (at 8.75 9) (layer F.Fab)
    (effects (font (size 1 1) (thickness 0.15)))
  )
  (fp_line (start -6.98 -1.28) (end -6.98 8.08) (layer F.SilkS) (width 0.12))
  (fp_line (start -6.98 8.08) (end 24.48 8.08) (layer F.SilkS) (width 0.12))
  (fp_line (start 24.48 8.08) (end 24.48 -1.28) (layer F.SilkS) (width 0.12))
  (fp_line (start -6.98 -1.28) (end -1.05 -1.28) (layer F.SilkS) (width 0.12))
  (fp_line (start 24.48 -1.28) (end 18.55 -1.28) (layer F.SilkS) (width 0.12))
  (fp_line (start 1.05 -1.28) (end 2.45 -1.28) (layer F.SilkS) (width 0.12))
  (fp_line (start 4.55 -1.28) (end 5.95 -1.28) (layer F.SilkS) (width 0.12))
  (fp_line (start 8.05 -1.28) (end 9.45 -1.28) (layer F.SilkS) (width 0.12))
  (fp_line (start 11.55 -1.28) (end 12.95 -1.28) (layer F.SilkS) (width 0.12))
  (fp_line (start 15.05 -1.28) (end 16.45 -1.28) (layer F.SilkS) (width 0.12))
  (fp_line (start -6.9 -1.2) (end -6.9 8) (layer F.Fab) (width 0.1))
  (fp_line (start -6.9 8) (end 24.4 8) (layer F.Fab) (width 0.1))
  (fp_line (start 24.4 8) (end 24.4 -1.2) (layer F.Fab) (width 0.1))
  (fp_line (start 24.4 -1.2) (end -6.9 -1.2) (layer F.Fab) (width 0.1))
  (fp_line (start -2.18 4.8) (end 19.68 4.8) (layer F.SilkS) (width 0.12))
  (fp_line (start -2.18 -1.28) (end -2.18 8.08) (layer F.SilkS) (width 0.12))
  (fp_line (start 19.68 -1.28) (end 19.68 8.08) (layer F.SilkS) (width 0.12))
  (fp_line (start -7.48 -2.3) (end -7.48 8.5) (layer F.CrtYd) (width 0.05))
  (fp_line (start -7.48 8.5) (end 24.9 8.5) (layer F.CrtYd) (width 0.05))
  (fp_line (start 24.9 8.5) (end 24.9 -2.3) (layer F.CrtYd) (width 0.05))
  (fp_line (start 24.9 -2.3) (end -7.48 -2.3) (layer F.CrtYd) (width 0.05))
  (fp_line (start 0.3 -2.6) (end 0 -2) (layer F.SilkS) (width 0.12))
  (fp_line (start 0 -2) (end -0.3 -2.6) (layer F.SilkS) (width 0.12))
  (fp_line (start -0.3 -2.6) (end 0.3 -2.6) (layer F.SilkS) (width 0.12))
  (fp_line (start 0.8 -1.2) (end 0 0) (layer F.Fab) (width 0.1))
  (fp_line (start 0 0) (end -0.8 -1.2) (layer F.Fab) (width 0.1))
  (pad 1 thru_hole rect (at 0 0) (size 1.8 3.6) (drill 1.2) (layers *.Cu *.Mask))
  (pad 2 thru_hole oval (at 3.5 0) (size 1.8 3.6) (drill 1.2) (layers *.Cu *.Mask))
  (pad 3 thru_hole oval (at 7 0) (size 1.8 3.6) (drill 1.2) (layers *.Cu *.Mask))
  (pad 4 thru_hole oval (at 10.5 0) (size 1.8 3.6) (drill 1.2) (layers *.Cu *.Mask))
  (pad 5 thru_hole oval (at 14 0) (size 1.8 3.6) (drill 1.2) (layers *.Cu *.Mask))
  (pad 6 thru_hole oval (at 17.5 0) (size 1.8 3.6) (drill 1.2) (layers *.Cu *.Mask))
  (fp_text user %R (at 8.75 3) (layer F.Fab)
    (effects (font (size 1 1) (thickness 0.15)))
  )
  (model ${KIPRJMOD}/kicad_libs_k/models_k.3d/Connector_Phoenix_MC_k.3dshapes/PhoenixContact_MC_1,5_6-GF-3.5_1x06_P3.50mm_Horizontal_ThreadedFlange_k.wrl
    (at (xyz 0 0 0))
    (scale (xyz 1 1 1))
    (rotate (xyz 0 0 0))
  )
)