(module PhoenixContact_MC_1,5_6-G-3.81_1x06_P3.81mm_Horizontal (layer F.Cu) (tedit 5A00FA1A)
  (descr "Generic Phoenix Contact connector footprint for: MC_1,5/6-G-3.81; number of pins: 06; pin pitch: 3.81mm; Angled || order number: 1803316 8A 160V")
  (tags "phoenix_contact connector MC_01x06_G_3.81mm")
  (fp_text reference REF** (at 9.525 -2.8) (layer F.SilkS)
    (effects (font (size 1 1) (thickness 0.15)))
  )
  (fp_text value PhoenixContact_MC_1,5_6-G-3.81_1x06_P3.81mm_Horizontal (at 9.525 9) (layer F.Fab)
    (effects (font (size 1 1) (thickness 0.15)))
  )
  (fp_line (start -2.68 -1.28) (end -2.68 8.08) (layer F.SilkS) (width 0.12))
  (fp_line (start -2.68 8.08) (end 21.73 8.08) (layer F.SilkS) (width 0.12))
  (fp_line (start 21.73 8.08) (end 21.73 -1.28) (layer F.SilkS) (width 0.12))
  (fp_line (start -2.68 -1.28) (end -1.05 -1.28) (layer F.SilkS) (width 0.12))
  (fp_line (start 21.73 -1.28) (end 20.1 -1.28) (layer F.SilkS) (width 0.12))
  (fp_line (start 1.05 -1.28) (end 2.76 -1.28) (layer F.SilkS) (width 0.12))
  (fp_line (start 4.86 -1.28) (end 6.57 -1.28) (layer F.SilkS) (width 0.12))
  (fp_line (start 8.67 -1.28) (end 10.38 -1.28) (layer F.SilkS) (width 0.12))
  (fp_line (start 12.48 -1.28) (end 14.19 -1.28) (layer F.SilkS) (width 0.12))
  (fp_line (start 16.29 -1.28) (end 18 -1.28) (layer F.SilkS) (width 0.12))
  (fp_line (start -2.6 -1.2) (end -2.6 8) (layer F.Fab) (width 0.1))
  (fp_line (start -2.6 8) (end 21.65 8) (layer F.Fab) (width 0.1))
  (fp_line (start 21.65 8) (end 21.65 -1.2) (layer F.Fab) (width 0.1))
  (fp_line (start 21.65 -1.2) (end -2.6 -1.2) (layer F.Fab) (width 0.1))
  (fp_line (start -2.68 4.8) (end 21.73 4.8) (layer F.SilkS) (width 0.12))
  (fp_line (start -3.18 -2.3) (end -3.18 8.5) (layer F.CrtYd) (width 0.05))
  (fp_line (start -3.18 8.5) (end 22.15 8.5) (layer F.CrtYd) (width 0.05))
  (fp_line (start 22.15 8.5) (end 22.15 -2.3) (layer F.CrtYd) (width 0.05))
  (fp_line (start 22.15 -2.3) (end -3.18 -2.3) (layer F.CrtYd) (width 0.05))
  (fp_line (start 0.3 -2.6) (end 0 -2) (layer F.SilkS) (width 0.12))
  (fp_line (start 0 -2) (end -0.3 -2.6) (layer F.SilkS) (width 0.12))
  (fp_line (start -0.3 -2.6) (end 0.3 -2.6) (layer F.SilkS) (width 0.12))
  (fp_line (start 0.8 -1.2) (end 0 0) (layer F.Fab) (width 0.1))
  (fp_line (start 0 0) (end -0.8 -1.2) (layer F.Fab) (width 0.1))
  (pad 1 thru_hole rect (at 0 0) (size 1.8 3.6) (drill 1.2) (layers *.Cu *.Mask))
  (pad 2 thru_hole oval (at 3.81 0) (size 1.8 3.6) (drill 1.2) (layers *.Cu *.Mask))
  (pad 3 thru_hole oval (at 7.62 0) (size 1.8 3.6) (drill 1.2) (layers *.Cu *.Mask))
  (pad 4 thru_hole oval (at 11.43 0) (size 1.8 3.6) (drill 1.2) (layers *.Cu *.Mask))
  (pad 5 thru_hole oval (at 15.24 0) (size 1.8 3.6) (drill 1.2) (layers *.Cu *.Mask))
  (pad 6 thru_hole oval (at 19.05 0) (size 1.8 3.6) (drill 1.2) (layers *.Cu *.Mask))
  (fp_text user %R (at 9.525 3) (layer F.Fab)
    (effects (font (size 1 1) (thickness 0.15)))
  )
  (model ${KIPRJMOD}/kicad_libs_k/models_k.3d/Connector_Phoenix_MC_k.3dshapes/PhoenixContact_MC_1,5_6-G-3.81_1x06_P3.81mm_Horizontal_k.wrl
    (at (xyz 0 0 0))
    (scale (xyz 1 1 1))
    (rotate (xyz 0 0 0))
  )
)