(module PhoenixContact_MCV_1,5_3-GF-3.5_1x03_P3.50mm_Vertical_ThreadedFlange (layer F.Cu) (tedit 5A00FA19)
  (descr "Generic Phoenix Contact connector footprint for: MCV_1,5/3-GF-3.5; number of pins: 03; pin pitch: 3.50mm; Vertical; threaded flange || order number: 1843237 8A 160V")
  (tags "phoenix_contact connector MCV_01x03_GF_3.5mm")
  (fp_text reference REF** (at 3.5 -5.25) (layer F.SilkS)
    (effects (font (size 1 1) (thickness 0.15)))
  )
  (fp_text value PhoenixContact_MCV_1,5_3-GF-3.5_1x03_P3.50mm_Vertical_ThreadedFlange (at 3.5 4) (layer F.Fab)
    (effects (font (size 1 1) (thickness 0.15)))
  )
  (fp_arc (start 0 3.95) (end -0.75 2.25) (angle 47.6) (layer F.SilkS) (width 0.12))
  (fp_arc (start 3.5 3.95) (end 2.75 2.25) (angle 47.6) (layer F.SilkS) (width 0.12))
  (fp_arc (start 7 3.95) (end 6.25 2.25) (angle 47.6) (layer F.SilkS) (width 0.12))
  (fp_circle (center -4.3 0) (end -2.4 0) (layer F.SilkS) (width 0.12))
  (fp_circle (center 11.3 0) (end 13.2 0) (layer F.SilkS) (width 0.12))
  (fp_circle (center -4.3 0) (end -3.3 0) (layer F.SilkS) (width 0.12))
  (fp_circle (center 11.3 0) (end 12.3 0) (layer F.SilkS) (width 0.12))
  (fp_line (start -6.98 3.08) (end 13.98 3.08) (layer F.SilkS) (width 0.12))
  (fp_line (start 13.98 3.08) (end 13.98 -3.08) (layer F.SilkS) (width 0.12))
  (fp_line (start 13.98 -3.08) (end 9.18 -3.08) (layer F.SilkS) (width 0.12))
  (fp_line (start 9.18 -3.08) (end 9.18 -4.33) (layer F.SilkS) (width 0.12))
  (fp_line (start 9.18 -4.33) (end -2.18 -4.33) (layer F.SilkS) (width 0.12))
  (fp_line (start -2.18 -4.33) (end -2.18 -3.08) (layer F.SilkS) (width 0.12))
  (fp_line (start -2.18 -3.08) (end -6.98 -3.08) (layer F.SilkS) (width 0.12))
  (fp_line (start -6.98 -3.08) (end -6.98 3.08) (layer F.SilkS) (width 0.12))
  (fp_line (start -6.9 3) (end 13.9 3) (layer F.Fab) (width 0.1))
  (fp_line (start 13.9 3) (end 13.9 -3) (layer F.Fab) (width 0.1))
  (fp_line (start 13.9 -3) (end 9.1 -3) (layer F.Fab) (width 0.1))
  (fp_line (start 9.1 -3) (end 9.1 -4.25) (layer F.Fab) (width 0.1))
  (fp_line (start 9.1 -4.25) (end -2.1 -4.25) (layer F.Fab) (width 0.1))
  (fp_line (start -2.1 -4.25) (end -2.1 -3) (layer F.Fab) (width 0.1))
  (fp_line (start -2.1 -3) (end -6.9 -3) (layer F.Fab) (width 0.1))
  (fp_line (start -6.9 -3) (end -6.9 3) (layer F.Fab) (width 0.1))
  (fp_line (start -0.75 2.25) (end -1.5 2.25) (layer F.SilkS) (width 0.12))
  (fp_line (start -1.5 2.25) (end -1.5 -2.05) (layer F.SilkS) (width 0.12))
  (fp_line (start -1.5 -2.05) (end -0.75 -2.05) (layer F.SilkS) (width 0.12))
  (fp_line (start -0.75 -2.05) (end -0.75 -2.4) (layer F.SilkS) (width 0.12))
  (fp_line (start -0.75 -2.4) (end -1.25 -2.4) (layer F.SilkS) (width 0.12))
  (fp_line (start -1.25 -2.4) (end -1.5 -3.4) (layer F.SilkS) (width 0.12))
  (fp_line (start -1.5 -3.4) (end 1.5 -3.4) (layer F.SilkS) (width 0.12))
  (fp_line (start 1.5 -3.4) (end 1.25 -2.4) (layer F.SilkS) (width 0.12))
  (fp_line (start 1.25 -2.4) (end 0.75 -2.4) (layer F.SilkS) (width 0.12))
  (fp_line (start 0.75 -2.4) (end 0.75 -2.05) (layer F.SilkS) (width 0.12))
  (fp_line (start 0.75 -2.05) (end 1.5 -2.05) (layer F.SilkS) (width 0.12))
  (fp_line (start 1.5 -2.05) (end 1.5 2.25) (layer F.SilkS) (width 0.12))
  (fp_line (start 1.5 2.25) (end 0.75 2.25) (layer F.SilkS) (width 0.12))
  (fp_line (start 2.75 2.25) (end 2 2.25) (layer F.SilkS) (width 0.12))
  (fp_line (start 2 2.25) (end 2 -2.05) (layer F.SilkS) (width 0.12))
  (fp_line (start 2 -2.05) (end 2.75 -2.05) (layer F.SilkS) (width 0.12))
  (fp_line (start 2.75 -2.05) (end 2.75 -2.4) (layer F.SilkS) (width 0.12))
  (fp_line (start 2.75 -2.4) (end 2.25 -2.4) (layer F.SilkS) (width 0.12))
  (fp_line (start 2.25 -2.4) (end 2 -3.4) (layer F.SilkS) (width 0.12))
  (fp_line (start 2 -3.4) (end 5 -3.4) (layer F.SilkS) (width 0.12))
  (fp_line (start 5 -3.4) (end 4.75 -2.4) (layer F.SilkS) (width 0.12))
  (fp_line (start 4.75 -2.4) (end 4.25 -2.4) (layer F.SilkS) (width 0.12))
  (fp_line (start 4.25 -2.4) (end 4.25 -2.05) (layer F.SilkS) (width 0.12))
  (fp_line (start 4.25 -2.05) (end 5 -2.05) (layer F.SilkS) (width 0.12))
  (fp_line (start 5 -2.05) (end 5 2.25) (layer F.SilkS) (width 0.12))
  (fp_line (start 5 2.25) (end 4.25 2.25) (layer F.SilkS) (width 0.12))
  (fp_line (start 6.25 2.25) (end 5.5 2.25) (layer F.SilkS) (width 0.12))
  (fp_line (start 5.5 2.25) (end 5.5 -2.05) (layer F.SilkS) (width 0.12))
  (fp_line (start 5.5 -2.05) (end 6.25 -2.05) (layer F.SilkS) (width 0.12))
  (fp_line (start 6.25 -2.05) (end 6.25 -2.4) (layer F.SilkS) (width 0.12))
  (fp_line (start 6.25 -2.4) (end 5.75 -2.4) (layer F.SilkS) (width 0.12))
  (fp_line (start 5.75 -2.4) (end 5.5 -3.4) (layer F.SilkS) (width 0.12))
  (fp_line (start 5.5 -3.4) (end 8.5 -3.4) (layer F.SilkS) (width 0.12))
  (fp_line (start 8.5 -3.4) (end 8.25 -2.4) (layer F.SilkS) (width 0.12))
  (fp_line (start 8.25 -2.4) (end 7.75 -2.4) (layer F.SilkS) (width 0.12))
  (fp_line (start 7.75 -2.4) (end 7.75 -2.05) (layer F.SilkS) (width 0.12))
  (fp_line (start 7.75 -2.05) (end 8.5 -2.05) (layer F.SilkS) (width 0.12))
  (fp_line (start 8.5 -2.05) (end 8.5 2.25) (layer F.SilkS) (width 0.12))
  (fp_line (start 8.5 2.25) (end 7.75 2.25) (layer F.SilkS) (width 0.12))
  (fp_line (start -7.4 -4.75) (end -7.4 3.5) (layer F.CrtYd) (width 0.05))
  (fp_line (start -7.4 3.5) (end 14.4 3.5) (layer F.CrtYd) (width 0.05))
  (fp_line (start 14.4 3.5) (end 14.4 -4.75) (layer F.CrtYd) (width 0.05))
  (fp_line (start 14.4 -4.75) (end -7.4 -4.75) (layer F.CrtYd) (width 0.05))
  (fp_line (start -2.6 -3.5) (end -2.6 -4.75) (layer F.SilkS) (width 0.12))
  (fp_line (start -2.6 -4.75) (end -0.6 -4.75) (layer F.SilkS) (width 0.12))
  (fp_line (start -2.6 -3.5) (end -2.6 -4.75) (layer F.Fab) (width 0.1))
  (fp_line (start -2.6 -4.75) (end -0.6 -4.75) (layer F.Fab) (width 0.1))
  (pad 1 thru_hole rect (at 0 0) (size 1.8 3.6) (drill 1.2) (layers *.Cu *.Mask))
  (pad 2 thru_hole oval (at 3.5 0) (size 1.8 3.6) (drill 1.2) (layers *.Cu *.Mask))
  (pad 3 thru_hole oval (at 7 0) (size 1.8 3.6) (drill 1.2) (layers *.Cu *.Mask))
  (fp_text user %R (at 3.5 -3) (layer F.Fab)
    (effects (font (size 1 1) (thickness 0.15)))
  )
  (model ${KIPRJMOD}/kicad_libs_k/models_k.3d/Connector_Phoenix_MC_k.3dshapes/PhoenixContact_MCV_1,5_3-GF-3.5_1x03_P3.50mm_Vertical_ThreadedFlange_k.wrl
    (at (xyz 0 0 0))
    (scale (xyz 1 1 1))
    (rotate (xyz 0 0 0))
  )
)