(module PhoenixContact_MC_1,5_10-G-5.08_1x10_P5.08mm_Horizontal (layer F.Cu) (tedit 5A00FA1B)
  (descr "Generic Phoenix Contact connector footprint for: MC_1,5/10-G-5.08; number of pins: 10; pin pitch: 5.08mm; Angled || order number: 1836260 8A 320V")
  (tags "phoenix_contact connector MC_01x10_G_5.08mm")
  (fp_text reference REF** (at 22.86 -2.8) (layer F.SilkS)
    (effects (font (size 1 1) (thickness 0.15)))
  )
  (fp_text value PhoenixContact_MC_1,5_10-G-5.08_1x10_P5.08mm_Horizontal (at 22.86 9) (layer F.Fab)
    (effects (font (size 1 1) (thickness 0.15)))
  )
  (fp_line (start -2.62 -1.28) (end -2.62 8.08) (layer F.SilkS) (width 0.12))
  (fp_line (start -2.62 8.08) (end 48.34 8.08) (layer F.SilkS) (width 0.12))
  (fp_line (start 48.34 8.08) (end 48.34 -1.28) (layer F.SilkS) (width 0.12))
  (fp_line (start -2.62 -1.28) (end -1.05 -1.28) (layer F.SilkS) (width 0.12))
  (fp_line (start 48.34 -1.28) (end 46.77 -1.28) (layer F.SilkS) (width 0.12))
  (fp_line (start 1.05 -1.28) (end 4.03 -1.28) (layer F.SilkS) (width 0.12))
  (fp_line (start 6.13 -1.28) (end 9.11 -1.28) (layer F.SilkS) (width 0.12))
  (fp_line (start 11.21 -1.28) (end 14.19 -1.28) (layer F.SilkS) (width 0.12))
  (fp_line (start 16.29 -1.28) (end 19.27 -1.28) (layer F.SilkS) (width 0.12))
  (fp_line (start 21.37 -1.28) (end 24.35 -1.28) (layer F.SilkS) (width 0.12))
  (fp_line (start 26.45 -1.28) (end 29.43 -1.28) (layer F.SilkS) (width 0.12))
  (fp_line (start 31.53 -1.28) (end 34.51 -1.28) (layer F.SilkS) (width 0.12))
  (fp_line (start 36.61 -1.28) (end 39.59 -1.28) (layer F.SilkS) (width 0.12))
  (fp_line (start 41.69 -1.28) (end 44.67 -1.28) (layer F.SilkS) (width 0.12))
  (fp_line (start -2.54 -1.2) (end -2.54 8) (layer F.Fab) (width 0.1))
  (fp_line (start -2.54 8) (end 48.26 8) (layer F.Fab) (width 0.1))
  (fp_line (start 48.26 8) (end 48.26 -1.2) (layer F.Fab) (width 0.1))
  (fp_line (start 48.26 -1.2) (end -2.54 -1.2) (layer F.Fab) (width 0.1))
  (fp_line (start -2.62 4.8) (end 48.34 4.8) (layer F.SilkS) (width 0.12))
  (fp_line (start -3.12 -2.3) (end -3.12 8.5) (layer F.CrtYd) (width 0.05))
  (fp_line (start -3.12 8.5) (end 48.76 8.5) (layer F.CrtYd) (width 0.05))
  (fp_line (start 48.76 8.5) (end 48.76 -2.3) (layer F.CrtYd) (width 0.05))
  (fp_line (start 48.76 -2.3) (end -3.12 -2.3) (layer F.CrtYd) (width 0.05))
  (fp_line (start 0.3 -2.6) (end 0 -2) (layer F.SilkS) (width 0.12))
  (fp_line (start 0 -2) (end -0.3 -2.6) (layer F.SilkS) (width 0.12))
  (fp_line (start -0.3 -2.6) (end 0.3 -2.6) (layer F.SilkS) (width 0.12))
  (fp_line (start 0.8 -1.2) (end 0 0) (layer F.Fab) (width 0.1))
  (fp_line (start 0 0) (end -0.8 -1.2) (layer F.Fab) (width 0.1))
  (pad 1 thru_hole rect (at 0 0) (size 1.8 3.6) (drill 1.2) (layers *.Cu *.Mask))
  (pad 2 thru_hole oval (at 5.08 0) (size 1.8 3.6) (drill 1.2) (layers *.Cu *.Mask))
  (pad 3 thru_hole oval (at 10.16 0) (size 1.8 3.6) (drill 1.2) (layers *.Cu *.Mask))
  (pad 4 thru_hole oval (at 15.24 0) (size 1.8 3.6) (drill 1.2) (layers *.Cu *.Mask))
  (pad 5 thru_hole oval (at 20.32 0) (size 1.8 3.6) (drill 1.2) (layers *.Cu *.Mask))
  (pad 6 thru_hole oval (at 25.4 0) (size 1.8 3.6) (drill 1.2) (layers *.Cu *.Mask))
  (pad 7 thru_hole oval (at 30.48 0) (size 1.8 3.6) (drill 1.2) (layers *.Cu *.Mask))
  (pad 8 thru_hole oval (at 35.56 0) (size 1.8 3.6) (drill 1.2) (layers *.Cu *.Mask))
  (pad 9 thru_hole oval (at 40.64 0) (size 1.8 3.6) (drill 1.2) (layers *.Cu *.Mask))
  (pad 10 thru_hole oval (at 45.72 0) (size 1.8 3.6) (drill 1.2) (layers *.Cu *.Mask))
  (fp_text user %R (at 22.86 3) (layer F.Fab)
    (effects (font (size 1 1) (thickness 0.15)))
  )
  (model ${KIPRJMOD}/kicad_libs_k/models_k.3d/Connector_Phoenix_MC_k.3dshapes/PhoenixContact_MC_1,5_10-G-5.08_1x10_P5.08mm_Horizontal_k.wrl
    (at (xyz 0 0 0))
    (scale (xyz 1 1 1))
    (rotate (xyz 0 0 0))
  )
)