(module TerminalBlock_RND_205-00001_1x02_P5.00mm_Horizontal (layer F.Cu) (tedit 5B294F8C)
  (descr "terminal block RND 205-00001, 2 pins, pitch 5mm, size 10x9mm^2, drill diamater 1.3mm, pad diameter 2.5mm, see http://cdn-reichelt.de/documents/datenblatt/C151/RND_205-00001_DB_EN.pdf, script-generated using https://github.com/pointhi/kicad-footprint-generator/scripts/TerminalBlock_RND")
  (tags "THT terminal block RND 205-00001 pitch 5mm size 10x9mm^2 drill 1.3mm pad 2.5mm")
  (fp_text reference REF** (at 2.5 -6.06) (layer F.SilkS)
    (effects (font (size 1 1) (thickness 0.15)))
  )
  (fp_text value TerminalBlock_RND_205-00001_1x02_P5.00mm_Horizontal (at 2.5 5.06) (layer F.Fab)
    (effects (font (size 1 1) (thickness 0.15)))
  )
  (fp_arc (start 0 0) (end 0 1.68) (angle -28) (layer F.SilkS) (width 0.12))
  (fp_arc (start 0 0) (end 1.484 0.789) (angle -56) (layer F.SilkS) (width 0.12))
  (fp_arc (start 0 0) (end 0.789 -1.484) (angle -56) (layer F.SilkS) (width 0.12))
  (fp_arc (start 0 0) (end -1.484 -0.789) (angle -56) (layer F.SilkS) (width 0.12))
  (fp_arc (start 0 0) (end -0.789 1.484) (angle -29) (layer F.SilkS) (width 0.12))
  (fp_circle (center 0 0) (end 1.5 0) (layer F.Fab) (width 0.1))
  (fp_circle (center 0 -3) (end 0.9 -3) (layer F.Fab) (width 0.1))
  (fp_circle (center 0 -3) (end 0.9 -3) (layer F.SilkS) (width 0.12))
  (fp_circle (center 5 0) (end 6.5 0) (layer F.Fab) (width 0.1))
  (fp_circle (center 5 0) (end 6.68 0) (layer F.SilkS) (width 0.12))
  (fp_circle (center 5 -3) (end 5.9 -3) (layer F.Fab) (width 0.1))
  (fp_circle (center 5 -3) (end 5.9 -3) (layer F.SilkS) (width 0.12))
  (fp_line (start -2.5 -5) (end 7.5 -5) (layer F.Fab) (width 0.1))
  (fp_line (start 7.5 -5) (end 7.5 4) (layer F.Fab) (width 0.1))
  (fp_line (start 7.5 4) (end -1 4) (layer F.Fab) (width 0.1))
  (fp_line (start -1 4) (end -2.5 2.5) (layer F.Fab) (width 0.1))
  (fp_line (start -2.5 2.5) (end -2.5 -5) (layer F.Fab) (width 0.1))
  (fp_line (start -2.5 2.5) (end 7.5 2.5) (layer F.Fab) (width 0.1))
  (fp_line (start -2.56 2.5) (end 7.56 2.5) (layer F.SilkS) (width 0.12))
  (fp_line (start -2.56 -5.06) (end 7.56 -5.06) (layer F.SilkS) (width 0.12))
  (fp_line (start -2.56 4.06) (end 7.56 4.06) (layer F.SilkS) (width 0.12))
  (fp_line (start -2.56 -5.06) (end -2.56 4.06) (layer F.SilkS) (width 0.12))
  (fp_line (start 7.56 -5.06) (end 7.56 4.06) (layer F.SilkS) (width 0.12))
  (fp_line (start 1.138 -0.955) (end -0.955 1.138) (layer F.Fab) (width 0.1))
  (fp_line (start 0.955 -1.138) (end -1.138 0.955) (layer F.Fab) (width 0.1))
  (fp_line (start 6.138 -0.955) (end 4.046 1.138) (layer F.Fab) (width 0.1))
  (fp_line (start 5.955 -1.138) (end 3.863 0.955) (layer F.Fab) (width 0.1))
  (fp_line (start 6.275 -1.069) (end 6.181 -0.976) (layer F.SilkS) (width 0.12))
  (fp_line (start 3.99 1.216) (end 3.931 1.274) (layer F.SilkS) (width 0.12))
  (fp_line (start 6.07 -1.275) (end 6.011 -1.216) (layer F.SilkS) (width 0.12))
  (fp_line (start 3.82 0.976) (end 3.726 1.069) (layer F.SilkS) (width 0.12))
  (fp_line (start -2.8 2.56) (end -2.8 4.3) (layer F.SilkS) (width 0.12))
  (fp_line (start -2.8 4.3) (end -1.3 4.3) (layer F.SilkS) (width 0.12))
  (fp_line (start -3 -5.5) (end -3 4.5) (layer F.CrtYd) (width 0.05))
  (fp_line (start -3 4.5) (end 8 4.5) (layer F.CrtYd) (width 0.05))
  (fp_line (start 8 4.5) (end 8 -5.5) (layer F.CrtYd) (width 0.05))
  (fp_line (start 8 -5.5) (end -3 -5.5) (layer F.CrtYd) (width 0.05))
  (pad 1 thru_hole rect (at 0 0) (size 2.5 2.5) (drill 1.3) (layers *.Cu *.Mask))
  (pad 2 thru_hole circle (at 5 0) (size 2.5 2.5) (drill 1.3) (layers *.Cu *.Mask))
  (fp_text user %R (at 2.5 -6.06) (layer F.Fab)
    (effects (font (size 1 1) (thickness 0.15)))
  )
  (model ${KIPRJMOD}/kicad_libs_k/models_k.3d/TerminalBlock_RND_k.3dshapes/TerminalBlock_RND_205-00001_1x02_P5.00mm_Horizontal_k.wrl
    (at (xyz 0 0 0))
    (scale (xyz 1 1 1))
    (rotate (xyz 0 0 0))
  )
)