(module TerminalBlock_RND_205-00244_1x05_P10.16mm_Horizontal (layer F.Cu) (tedit 5B294F71)
  (descr "terminal block RND 205-00244, 5 pins, pitch 10.2mm, size 45.7x8.3mm^2, drill diamater 1.3mm, pad diameter 2.5mm, see http://cdn-reichelt.de/documents/datenblatt/C151/RND_205-00023_DB_EN.pdf, script-generated using https://github.com/pointhi/kicad-footprint-generator/scripts/TerminalBlock_RND")
  (tags "THT terminal block RND 205-00244 pitch 10.2mm size 45.7x8.3mm^2 drill 1.3mm pad 2.5mm")
  (fp_text reference REF** (at 20.32 -4.81) (layer F.SilkS)
    (effects (font (size 1 1) (thickness 0.15)))
  )
  (fp_text value TerminalBlock_RND_205-00244_1x05_P10.16mm_Horizontal (at 20.32 5.61) (layer F.Fab)
    (effects (font (size 1 1) (thickness 0.15)))
  )
  (fp_arc (start 0 0) (end 0 1.68) (angle -28) (layer F.SilkS) (width 0.12))
  (fp_arc (start 0 0) (end 1.484 0.789) (angle -56) (layer F.SilkS) (width 0.12))
  (fp_arc (start 0 0) (end 0.789 -1.484) (angle -56) (layer F.SilkS) (width 0.12))
  (fp_arc (start 0 0) (end -1.484 -0.789) (angle -56) (layer F.SilkS) (width 0.12))
  (fp_arc (start 0 0) (end -0.789 1.484) (angle -29) (layer F.SilkS) (width 0.12))
  (fp_circle (center 0 0) (end 1.5 0) (layer F.Fab) (width 0.1))
  (fp_circle (center 5.08 0) (end 6.58 0) (layer F.Fab) (width 0.1))
  (fp_circle (center 5.08 0) (end 6.58 0) (layer F.SilkS) (width 0.12))
  (fp_circle (center 10.16 0) (end 11.66 0) (layer F.Fab) (width 0.1))
  (fp_circle (center 10.16 0) (end 11.84 0) (layer F.SilkS) (width 0.12))
  (fp_circle (center 15.24 0) (end 16.74 0) (layer F.Fab) (width 0.1))
  (fp_circle (center 15.24 0) (end 16.74 0) (layer F.SilkS) (width 0.12))
  (fp_circle (center 20.32 0) (end 21.82 0) (layer F.Fab) (width 0.1))
  (fp_circle (center 20.32 0) (end 22 0) (layer F.SilkS) (width 0.12))
  (fp_circle (center 25.4 0) (end 26.9 0) (layer F.Fab) (width 0.1))
  (fp_circle (center 25.4 0) (end 26.9 0) (layer F.SilkS) (width 0.12))
  (fp_circle (center 30.48 0) (end 31.98 0) (layer F.Fab) (width 0.1))
  (fp_circle (center 30.48 0) (end 32.16 0) (layer F.SilkS) (width 0.12))
  (fp_circle (center 35.56 0) (end 37.06 0) (layer F.Fab) (width 0.1))
  (fp_circle (center 35.56 0) (end 37.06 0) (layer F.SilkS) (width 0.12))
  (fp_circle (center 40.64 0) (end 42.14 0) (layer F.Fab) (width 0.1))
  (fp_circle (center 40.64 0) (end 42.32 0) (layer F.SilkS) (width 0.12))
  (fp_line (start -2.54 -3.75) (end 43.18 -3.75) (layer F.Fab) (width 0.1))
  (fp_line (start 43.18 -3.75) (end 43.18 4.55) (layer F.Fab) (width 0.1))
  (fp_line (start 43.18 4.55) (end -1.94 4.55) (layer F.Fab) (width 0.1))
  (fp_line (start -1.94 4.55) (end -2.54 3.95) (layer F.Fab) (width 0.1))
  (fp_line (start -2.54 3.95) (end -2.54 -3.75) (layer F.Fab) (width 0.1))
  (fp_line (start -2.54 3.95) (end 43.18 3.95) (layer F.Fab) (width 0.1))
  (fp_line (start -2.6 3.95) (end 43.24 3.95) (layer F.SilkS) (width 0.12))
  (fp_line (start -2.54 3.35) (end 43.18 3.35) (layer F.Fab) (width 0.1))
  (fp_line (start -2.6 3.35) (end 43.24 3.35) (layer F.SilkS) (width 0.12))
  (fp_line (start -2.54 -2.25) (end 43.18 -2.25) (layer F.Fab) (width 0.1))
  (fp_line (start -2.6 -2.251) (end 43.24 -2.251) (layer F.SilkS) (width 0.12))
  (fp_line (start -2.6 -3.811) (end 43.24 -3.811) (layer F.SilkS) (width 0.12))
  (fp_line (start -2.6 4.61) (end 43.24 4.61) (layer F.SilkS) (width 0.12))
  (fp_line (start -2.6 -3.811) (end -2.6 4.61) (layer F.SilkS) (width 0.12))
  (fp_line (start 43.24 -3.811) (end 43.24 4.61) (layer F.SilkS) (width 0.12))
  (fp_line (start 1.138 -0.955) (end -0.955 1.138) (layer F.Fab) (width 0.1))
  (fp_line (start 0.955 -1.138) (end -1.138 0.955) (layer F.Fab) (width 0.1))
  (fp_line (start -1.25 -3.75) (end -1.25 -2.75) (layer F.Fab) (width 0.1))
  (fp_line (start -1.25 -2.75) (end 1.25 -2.75) (layer F.Fab) (width 0.1))
  (fp_line (start 1.25 -2.75) (end 1.25 -3.75) (layer F.Fab) (width 0.1))
  (fp_line (start 1.25 -3.75) (end -1.25 -3.75) (layer F.Fab) (width 0.1))
  (fp_line (start -1.25 -3.751) (end 1.25 -3.751) (layer F.SilkS) (width 0.12))
  (fp_line (start -1.25 -2.751) (end 1.25 -2.751) (layer F.SilkS) (width 0.12))
  (fp_line (start -1.25 -3.751) (end -1.25 -2.751) (layer F.SilkS) (width 0.12))
  (fp_line (start 1.25 -3.751) (end 1.25 -2.751) (layer F.SilkS) (width 0.12))
  (fp_line (start 3.83 -3.75) (end 3.83 -2.75) (layer F.Fab) (width 0.1))
  (fp_line (start 3.83 -2.75) (end 6.33 -2.75) (layer F.Fab) (width 0.1))
  (fp_line (start 6.33 -2.75) (end 6.33 -3.75) (layer F.Fab) (width 0.1))
  (fp_line (start 6.33 -3.75) (end 3.83 -3.75) (layer F.Fab) (width 0.1))
  (fp_line (start 3.83 -3.751) (end 6.33 -3.751) (layer F.SilkS) (width 0.12))
  (fp_line (start 3.83 -2.751) (end 6.33 -2.751) (layer F.SilkS) (width 0.12))
  (fp_line (start 3.83 -3.751) (end 3.83 -2.751) (layer F.SilkS) (width 0.12))
  (fp_line (start 6.33 -3.751) (end 6.33 -2.751) (layer F.SilkS) (width 0.12))
  (fp_line (start 11.298 -0.955) (end 9.206 1.138) (layer F.Fab) (width 0.1))
  (fp_line (start 11.115 -1.138) (end 9.023 0.955) (layer F.Fab) (width 0.1))
  (fp_line (start 11.435 -1.069) (end 11.341 -0.976) (layer F.SilkS) (width 0.12))
  (fp_line (start 9.15 1.216) (end 9.091 1.274) (layer F.SilkS) (width 0.12))
  (fp_line (start 11.23 -1.275) (end 11.171 -1.216) (layer F.SilkS) (width 0.12))
  (fp_line (start 8.98 0.976) (end 8.886 1.069) (layer F.SilkS) (width 0.12))
  (fp_line (start 8.91 -3.75) (end 8.91 -2.75) (layer F.Fab) (width 0.1))
  (fp_line (start 8.91 -2.75) (end 11.41 -2.75) (layer F.Fab) (width 0.1))
  (fp_line (start 11.41 -2.75) (end 11.41 -3.75) (layer F.Fab) (width 0.1))
  (fp_line (start 11.41 -3.75) (end 8.91 -3.75) (layer F.Fab) (width 0.1))
  (fp_line (start 8.91 -3.751) (end 11.41 -3.751) (layer F.SilkS) (width 0.12))
  (fp_line (start 8.91 -2.751) (end 11.41 -2.751) (layer F.SilkS) (width 0.12))
  (fp_line (start 8.91 -3.751) (end 8.91 -2.751) (layer F.SilkS) (width 0.12))
  (fp_line (start 11.41 -3.751) (end 11.41 -2.751) (layer F.SilkS) (width 0.12))
  (fp_line (start 13.99 -3.75) (end 13.99 -2.75) (layer F.Fab) (width 0.1))
  (fp_line (start 13.99 -2.75) (end 16.49 -2.75) (layer F.Fab) (width 0.1))
  (fp_line (start 16.49 -2.75) (end 16.49 -3.75) (layer F.Fab) (width 0.1))
  (fp_line (start 16.49 -3.75) (end 13.99 -3.75) (layer F.Fab) (width 0.1))
  (fp_line (start 13.99 -3.751) (end 16.49 -3.751) (layer F.SilkS) (width 0.12))
  (fp_line (start 13.99 -2.751) (end 16.49 -2.751) (layer F.SilkS) (width 0.12))
  (fp_line (start 13.99 -3.751) (end 13.99 -2.751) (layer F.SilkS) (width 0.12))
  (fp_line (start 16.49 -3.751) (end 16.49 -2.751) (layer F.SilkS) (width 0.12))
  (fp_line (start 21.458 -0.955) (end 19.366 1.138) (layer F.Fab) (width 0.1))
  (fp_line (start 21.275 -1.138) (end 19.183 0.955) (layer F.Fab) (width 0.1))
  (fp_line (start 21.595 -1.069) (end 21.501 -0.976) (layer F.SilkS) (width 0.12))
  (fp_line (start 19.31 1.216) (end 19.251 1.274) (layer F.SilkS) (width 0.12))
  (fp_line (start 21.39 -1.275) (end 21.331 -1.216) (layer F.SilkS) (width 0.12))
  (fp_line (start 19.14 0.976) (end 19.046 1.069) (layer F.SilkS) (width 0.12))
  (fp_line (start 19.07 -3.75) (end 19.07 -2.75) (layer F.Fab) (width 0.1))
  (fp_line (start 19.07 -2.75) (end 21.57 -2.75) (layer F.Fab) (width 0.1))
  (fp_line (start 21.57 -2.75) (end 21.57 -3.75) (layer F.Fab) (width 0.1))
  (fp_line (start 21.57 -3.75) (end 19.07 -3.75) (layer F.Fab) (width 0.1))
  (fp_line (start 19.07 -3.751) (end 21.57 -3.751) (layer F.SilkS) (width 0.12))
  (fp_line (start 19.07 -2.751) (end 21.57 -2.751) (layer F.SilkS) (width 0.12))
  (fp_line (start 19.07 -3.751) (end 19.07 -2.751) (layer F.SilkS) (width 0.12))
  (fp_line (start 21.57 -3.751) (end 21.57 -2.751) (layer F.SilkS) (width 0.12))
  (fp_line (start 24.15 -3.75) (end 24.15 -2.75) (layer F.Fab) (width 0.1))
  (fp_line (start 24.15 -2.75) (end 26.65 -2.75) (layer F.Fab) (width 0.1))
  (fp_line (start 26.65 -2.75) (end 26.65 -3.75) (layer F.Fab) (width 0.1))
  (fp_line (start 26.65 -3.75) (end 24.15 -3.75) (layer F.Fab) (width 0.1))
  (fp_line (start 24.15 -3.751) (end 26.65 -3.751) (layer F.SilkS) (width 0.12))
  (fp_line (start 24.15 -2.751) (end 26.65 -2.751) (layer F.SilkS) (width 0.12))
  (fp_line (start 24.15 -3.751) (end 24.15 -2.751) (layer F.SilkS) (width 0.12))
  (fp_line (start 26.65 -3.751) (end 26.65 -2.751) (layer F.SilkS) (width 0.12))
  (fp_line (start 31.618 -0.955) (end 29.526 1.138) (layer F.Fab) (width 0.1))
  (fp_line (start 31.435 -1.138) (end 29.343 0.955) (layer F.Fab) (width 0.1))
  (fp_line (start 31.755 -1.069) (end 31.661 -0.976) (layer F.SilkS) (width 0.12))
  (fp_line (start 29.47 1.216) (end 29.411 1.274) (layer F.SilkS) (width 0.12))
  (fp_line (start 31.55 -1.275) (end 31.491 -1.216) (layer F.SilkS) (width 0.12))
  (fp_line (start 29.3 0.976) (end 29.206 1.069) (layer F.SilkS) (width 0.12))
  (fp_line (start 29.23 -3.75) (end 29.23 -2.75) (layer F.Fab) (width 0.1))
  (fp_line (start 29.23 -2.75) (end 31.73 -2.75) (layer F.Fab) (width 0.1))
  (fp_line (start 31.73 -2.75) (end 31.73 -3.75) (layer F.Fab) (width 0.1))
  (fp_line (start 31.73 -3.75) (end 29.23 -3.75) (layer F.Fab) (width 0.1))
  (fp_line (start 29.23 -3.751) (end 31.73 -3.751) (layer F.SilkS) (width 0.12))
  (fp_line (start 29.23 -2.751) (end 31.73 -2.751) (layer F.SilkS) (width 0.12))
  (fp_line (start 29.23 -3.751) (end 29.23 -2.751) (layer F.SilkS) (width 0.12))
  (fp_line (start 31.73 -3.751) (end 31.73 -2.751) (layer F.SilkS) (width 0.12))
  (fp_line (start 34.31 -3.75) (end 34.31 -2.75) (layer F.Fab) (width 0.1))
  (fp_line (start 34.31 -2.75) (end 36.81 -2.75) (layer F.Fab) (width 0.1))
  (fp_line (start 36.81 -2.75) (end 36.81 -3.75) (layer F.Fab) (width 0.1))
  (fp_line (start 36.81 -3.75) (end 34.31 -3.75) (layer F.Fab) (width 0.1))
  (fp_line (start 34.31 -3.751) (end 36.81 -3.751) (layer F.SilkS) (width 0.12))
  (fp_line (start 34.31 -2.751) (end 36.81 -2.751) (layer F.SilkS) (width 0.12))
  (fp_line (start 34.31 -3.751) (end 34.31 -2.751) (layer F.SilkS) (width 0.12))
  (fp_line (start 36.81 -3.751) (end 36.81 -2.751) (layer F.SilkS) (width 0.12))
  (fp_line (start 41.778 -0.955) (end 39.686 1.138) (layer F.Fab) (width 0.1))
  (fp_line (start 41.595 -1.138) (end 39.503 0.955) (layer F.Fab) (width 0.1))
  (fp_line (start 41.915 -1.069) (end 41.821 -0.976) (layer F.SilkS) (width 0.12))
  (fp_line (start 39.63 1.216) (end 39.571 1.274) (layer F.SilkS) (width 0.12))
  (fp_line (start 41.71 -1.275) (end 41.651 -1.216) (layer F.SilkS) (width 0.12))
  (fp_line (start 39.46 0.976) (end 39.366 1.069) (layer F.SilkS) (width 0.12))
  (fp_line (start 39.39 -3.75) (end 39.39 -2.75) (layer F.Fab) (width 0.1))
  (fp_line (start 39.39 -2.75) (end 41.89 -2.75) (layer F.Fab) (width 0.1))
  (fp_line (start 41.89 -2.75) (end 41.89 -3.75) (layer F.Fab) (width 0.1))
  (fp_line (start 41.89 -3.75) (end 39.39 -3.75) (layer F.Fab) (width 0.1))
  (fp_line (start 39.39 -3.751) (end 41.89 -3.751) (layer F.SilkS) (width 0.12))
  (fp_line (start 39.39 -2.751) (end 41.89 -2.751) (layer F.SilkS) (width 0.12))
  (fp_line (start 39.39 -3.751) (end 39.39 -2.751) (layer F.SilkS) (width 0.12))
  (fp_line (start 41.89 -3.751) (end 41.89 -2.751) (layer F.SilkS) (width 0.12))
  (fp_line (start -2.84 4.01) (end -2.84 4.85) (layer F.SilkS) (width 0.12))
  (fp_line (start -2.84 4.85) (end -2.24 4.85) (layer F.SilkS) (width 0.12))
  (fp_line (start -3.04 -4.26) (end -3.04 5.05) (layer F.CrtYd) (width 0.05))
  (fp_line (start -3.04 5.05) (end 43.68 5.05) (layer F.CrtYd) (width 0.05))
  (fp_line (start 43.68 5.05) (end 43.68 -4.26) (layer F.CrtYd) (width 0.05))
  (fp_line (start 43.68 -4.26) (end -3.04 -4.26) (layer F.CrtYd) (width 0.05))
  (pad 1 thru_hole rect (at 0 0) (size 2.5 2.5) (drill 1.3) (layers *.Cu *.Mask))
  (pad 2 thru_hole circle (at 10.16 0) (size 2.5 2.5) (drill 1.3) (layers *.Cu *.Mask))
  (pad 3 thru_hole circle (at 20.32 0) (size 2.5 2.5) (drill 1.3) (layers *.Cu *.Mask))
  (pad 4 thru_hole circle (at 30.48 0) (size 2.5 2.5) (drill 1.3) (layers *.Cu *.Mask))
  (pad 5 thru_hole circle (at 40.64 0) (size 2.5 2.5) (drill 1.3) (layers *.Cu *.Mask))
  (fp_text user %R (at 20.32 -4.81) (layer F.Fab)
    (effects (font (size 1 1) (thickness 0.15)))
  )
  (model ${KIPRJMOD}/kicad_libs_k/models_k.3d/TerminalBlock_RND_k.3dshapes/TerminalBlock_RND_205-00244_1x05_P10.16mm_Horizontal_k.wrl
    (at (xyz 0 0 0))
    (scale (xyz 1 1 1))
    (rotate (xyz 0 0 0))
  )
)