(module TerminalBlock_RND_205-00010_1x11_P5.00mm_Horizontal (layer F.Cu) (tedit 5B294FA3)
  (descr "terminal block RND 205-00010, 11 pins, pitch 5mm, size 55x9mm^2, drill diamater 1.3mm, pad diameter 2.5mm, see http://cdn-reichelt.de/documents/datenblatt/C151/RND_205-00001_DB_EN.pdf, script-generated using https://github.com/pointhi/kicad-footprint-generator/scripts/TerminalBlock_RND")
  (tags "THT terminal block RND 205-00010 pitch 5mm size 55x9mm^2 drill 1.3mm pad 2.5mm")
  (fp_text reference REF** (at 25 -6.06) (layer F.SilkS)
    (effects (font (size 1 1) (thickness 0.15)))
  )
  (fp_text value TerminalBlock_RND_205-00010_1x11_P5.00mm_Horizontal (at 25 5.06) (layer F.Fab)
    (effects (font (size 1 1) (thickness 0.15)))
  )
  (fp_arc (start 0 0) (end 0 1.68) (angle -28) (layer F.SilkS) (width 0.12))
  (fp_arc (start 0 0) (end 1.484 0.789) (angle -56) (layer F.SilkS) (width 0.12))
  (fp_arc (start 0 0) (end 0.789 -1.484) (angle -56) (layer F.SilkS) (width 0.12))
  (fp_arc (start 0 0) (end -1.484 -0.789) (angle -56) (layer F.SilkS) (width 0.12))
  (fp_arc (start 0 0) (end -0.789 1.484) (angle -29) (layer F.SilkS) (width 0.12))
  (fp_circle (center 0 0) (end 1.5 0) (layer F.Fab) (width 0.1))
  (fp_circle (center 0 -3) (end 0.9 -3) (layer F.Fab) (width 0.1))
  (fp_circle (center 0 -3) (end 0.9 -3) (layer F.SilkS) (width 0.12))
  (fp_circle (center 5 0) (end 6.5 0) (layer F.Fab) (width 0.1))
  (fp_circle (center 5 0) (end 6.68 0) (layer F.SilkS) (width 0.12))
  (fp_circle (center 5 -3) (end 5.9 -3) (layer F.Fab) (width 0.1))
  (fp_circle (center 5 -3) (end 5.9 -3) (layer F.SilkS) (width 0.12))
  (fp_circle (center 10 0) (end 11.5 0) (layer F.Fab) (width 0.1))
  (fp_circle (center 10 0) (end 11.68 0) (layer F.SilkS) (width 0.12))
  (fp_circle (center 10 -3) (end 10.9 -3) (layer F.Fab) (width 0.1))
  (fp_circle (center 10 -3) (end 10.9 -3) (layer F.SilkS) (width 0.12))
  (fp_circle (center 15 0) (end 16.5 0) (layer F.Fab) (width 0.1))
  (fp_circle (center 15 0) (end 16.68 0) (layer F.SilkS) (width 0.12))
  (fp_circle (center 15 -3) (end 15.9 -3) (layer F.Fab) (width 0.1))
  (fp_circle (center 15 -3) (end 15.9 -3) (layer F.SilkS) (width 0.12))
  (fp_circle (center 20 0) (end 21.5 0) (layer F.Fab) (width 0.1))
  (fp_circle (center 20 0) (end 21.68 0) (layer F.SilkS) (width 0.12))
  (fp_circle (center 20 -3) (end 20.9 -3) (layer F.Fab) (width 0.1))
  (fp_circle (center 20 -3) (end 20.9 -3) (layer F.SilkS) (width 0.12))
  (fp_circle (center 25 0) (end 26.5 0) (layer F.Fab) (width 0.1))
  (fp_circle (center 25 0) (end 26.68 0) (layer F.SilkS) (width 0.12))
  (fp_circle (center 25 -3) (end 25.9 -3) (layer F.Fab) (width 0.1))
  (fp_circle (center 25 -3) (end 25.9 -3) (layer F.SilkS) (width 0.12))
  (fp_circle (center 30 0) (end 31.5 0) (layer F.Fab) (width 0.1))
  (fp_circle (center 30 0) (end 31.68 0) (layer F.SilkS) (width 0.12))
  (fp_circle (center 30 -3) (end 30.9 -3) (layer F.Fab) (width 0.1))
  (fp_circle (center 30 -3) (end 30.9 -3) (layer F.SilkS) (width 0.12))
  (fp_circle (center 35 0) (end 36.5 0) (layer F.Fab) (width 0.1))
  (fp_circle (center 35 0) (end 36.68 0) (layer F.SilkS) (width 0.12))
  (fp_circle (center 35 -3) (end 35.9 -3) (layer F.Fab) (width 0.1))
  (fp_circle (center 35 -3) (end 35.9 -3) (layer F.SilkS) (width 0.12))
  (fp_circle (center 40 0) (end 41.5 0) (layer F.Fab) (width 0.1))
  (fp_circle (center 40 0) (end 41.68 0) (layer F.SilkS) (width 0.12))
  (fp_circle (center 40 -3) (end 40.9 -3) (layer F.Fab) (width 0.1))
  (fp_circle (center 40 -3) (end 40.9 -3) (layer F.SilkS) (width 0.12))
  (fp_circle (center 45 0) (end 46.5 0) (layer F.Fab) (width 0.1))
  (fp_circle (center 45 0) (end 46.68 0) (layer F.SilkS) (width 0.12))
  (fp_circle (center 45 -3) (end 45.9 -3) (layer F.Fab) (width 0.1))
  (fp_circle (center 45 -3) (end 45.9 -3) (layer F.SilkS) (width 0.12))
  (fp_circle (center 50 0) (end 51.5 0) (layer F.Fab) (width 0.1))
  (fp_circle (center 50 0) (end 51.68 0) (layer F.SilkS) (width 0.12))
  (fp_circle (center 50 -3) (end 50.9 -3) (layer F.Fab) (width 0.1))
  (fp_circle (center 50 -3) (end 50.9 -3) (layer F.SilkS) (width 0.12))
  (fp_line (start -2.5 -5) (end 52.5 -5) (layer F.Fab) (width 0.1))
  (fp_line (start 52.5 -5) (end 52.5 4) (layer F.Fab) (width 0.1))
  (fp_line (start 52.5 4) (end -1 4) (layer F.Fab) (width 0.1))
  (fp_line (start -1 4) (end -2.5 2.5) (layer F.Fab) (width 0.1))
  (fp_line (start -2.5 2.5) (end -2.5 -5) (layer F.Fab) (width 0.1))
  (fp_line (start -2.5 2.5) (end 52.5 2.5) (layer F.Fab) (width 0.1))
  (fp_line (start -2.56 2.5) (end 52.56 2.5) (layer F.SilkS) (width 0.12))
  (fp_line (start -2.56 -5.06) (end 52.56 -5.06) (layer F.SilkS) (width 0.12))
  (fp_line (start -2.56 4.06) (end 52.56 4.06) (layer F.SilkS) (width 0.12))
  (fp_line (start -2.56 -5.06) (end -2.56 4.06) (layer F.SilkS) (width 0.12))
  (fp_line (start 52.56 -5.06) (end 52.56 4.06) (layer F.SilkS) (width 0.12))
  (fp_line (start 1.138 -0.955) (end -0.955 1.138) (layer F.Fab) (width 0.1))
  (fp_line (start 0.955 -1.138) (end -1.138 0.955) (layer F.Fab) (width 0.1))
  (fp_line (start 6.138 -0.955) (end 4.046 1.138) (layer F.Fab) (width 0.1))
  (fp_line (start 5.955 -1.138) (end 3.863 0.955) (layer F.Fab) (width 0.1))
  (fp_line (start 6.275 -1.069) (end 6.181 -0.976) (layer F.SilkS) (width 0.12))
  (fp_line (start 3.99 1.216) (end 3.931 1.274) (layer F.SilkS) (width 0.12))
  (fp_line (start 6.07 -1.275) (end 6.011 -1.216) (layer F.SilkS) (width 0.12))
  (fp_line (start 3.82 0.976) (end 3.726 1.069) (layer F.SilkS) (width 0.12))
  (fp_line (start 11.138 -0.955) (end 9.046 1.138) (layer F.Fab) (width 0.1))
  (fp_line (start 10.955 -1.138) (end 8.863 0.955) (layer F.Fab) (width 0.1))
  (fp_line (start 11.275 -1.069) (end 11.181 -0.976) (layer F.SilkS) (width 0.12))
  (fp_line (start 8.99 1.216) (end 8.931 1.274) (layer F.SilkS) (width 0.12))
  (fp_line (start 11.07 -1.275) (end 11.011 -1.216) (layer F.SilkS) (width 0.12))
  (fp_line (start 8.82 0.976) (end 8.726 1.069) (layer F.SilkS) (width 0.12))
  (fp_line (start 16.138 -0.955) (end 14.046 1.138) (layer F.Fab) (width 0.1))
  (fp_line (start 15.955 -1.138) (end 13.863 0.955) (layer F.Fab) (width 0.1))
  (fp_line (start 16.275 -1.069) (end 16.181 -0.976) (layer F.SilkS) (width 0.12))
  (fp_line (start 13.99 1.216) (end 13.931 1.274) (layer F.SilkS) (width 0.12))
  (fp_line (start 16.07 -1.275) (end 16.011 -1.216) (layer F.SilkS) (width 0.12))
  (fp_line (start 13.82 0.976) (end 13.726 1.069) (layer F.SilkS) (width 0.12))
  (fp_line (start 21.138 -0.955) (end 19.046 1.138) (layer F.Fab) (width 0.1))
  (fp_line (start 20.955 -1.138) (end 18.863 0.955) (layer F.Fab) (width 0.1))
  (fp_line (start 21.275 -1.069) (end 21.181 -0.976) (layer F.SilkS) (width 0.12))
  (fp_line (start 18.99 1.216) (end 18.931 1.274) (layer F.SilkS) (width 0.12))
  (fp_line (start 21.07 -1.275) (end 21.011 -1.216) (layer F.SilkS) (width 0.12))
  (fp_line (start 18.82 0.976) (end 18.726 1.069) (layer F.SilkS) (width 0.12))
  (fp_line (start 26.138 -0.955) (end 24.046 1.138) (layer F.Fab) (width 0.1))
  (fp_line (start 25.955 -1.138) (end 23.863 0.955) (layer F.Fab) (width 0.1))
  (fp_line (start 26.275 -1.069) (end 26.181 -0.976) (layer F.SilkS) (width 0.12))
  (fp_line (start 23.99 1.216) (end 23.931 1.274) (layer F.SilkS) (width 0.12))
  (fp_line (start 26.07 -1.275) (end 26.011 -1.216) (layer F.SilkS) (width 0.12))
  (fp_line (start 23.82 0.976) (end 23.726 1.069) (layer F.SilkS) (width 0.12))
  (fp_line (start 31.138 -0.955) (end 29.046 1.138) (layer F.Fab) (width 0.1))
  (fp_line (start 30.955 -1.138) (end 28.863 0.955) (layer F.Fab) (width 0.1))
  (fp_line (start 31.275 -1.069) (end 31.181 -0.976) (layer F.SilkS) (width 0.12))
  (fp_line (start 28.99 1.216) (end 28.931 1.274) (layer F.SilkS) (width 0.12))
  (fp_line (start 31.07 -1.275) (end 31.011 -1.216) (layer F.SilkS) (width 0.12))
  (fp_line (start 28.82 0.976) (end 28.726 1.069) (layer F.SilkS) (width 0.12))
  (fp_line (start 36.138 -0.955) (end 34.046 1.138) (layer F.Fab) (width 0.1))
  (fp_line (start 35.955 -1.138) (end 33.863 0.955) (layer F.Fab) (width 0.1))
  (fp_line (start 36.275 -1.069) (end 36.181 -0.976) (layer F.SilkS) (width 0.12))
  (fp_line (start 33.99 1.216) (end 33.931 1.274) (layer F.SilkS) (width 0.12))
  (fp_line (start 36.07 -1.275) (end 36.011 -1.216) (layer F.SilkS) (width 0.12))
  (fp_line (start 33.82 0.976) (end 33.726 1.069) (layer F.SilkS) (width 0.12))
  (fp_line (start 41.138 -0.955) (end 39.046 1.138) (layer F.Fab) (width 0.1))
  (fp_line (start 40.955 -1.138) (end 38.863 0.955) (layer F.Fab) (width 0.1))
  (fp_line (start 41.275 -1.069) (end 41.181 -0.976) (layer F.SilkS) (width 0.12))
  (fp_line (start 38.99 1.216) (end 38.931 1.274) (layer F.SilkS) (width 0.12))
  (fp_line (start 41.07 -1.275) (end 41.011 -1.216) (layer F.SilkS) (width 0.12))
  (fp_line (start 38.82 0.976) (end 38.726 1.069) (layer F.SilkS) (width 0.12))
  (fp_line (start 46.138 -0.955) (end 44.046 1.138) (layer F.Fab) (width 0.1))
  (fp_line (start 45.955 -1.138) (end 43.863 0.955) (layer F.Fab) (width 0.1))
  (fp_line (start 46.275 -1.069) (end 46.181 -0.976) (layer F.SilkS) (width 0.12))
  (fp_line (start 43.99 1.216) (end 43.931 1.274) (layer F.SilkS) (width 0.12))
  (fp_line (start 46.07 -1.275) (end 46.011 -1.216) (layer F.SilkS) (width 0.12))
  (fp_line (start 43.82 0.976) (end 43.726 1.069) (layer F.SilkS) (width 0.12))
  (fp_line (start 51.138 -0.955) (end 49.046 1.138) (layer F.Fab) (width 0.1))
  (fp_line (start 50.955 -1.138) (end 48.863 0.955) (layer F.Fab) (width 0.1))
  (fp_line (start 51.275 -1.069) (end 51.181 -0.976) (layer F.SilkS) (width 0.12))
  (fp_line (start 48.99 1.216) (end 48.931 1.274) (layer F.SilkS) (width 0.12))
  (fp_line (start 51.07 -1.275) (end 51.011 -1.216) (layer F.SilkS) (width 0.12))
  (fp_line (start 48.82 0.976) (end 48.726 1.069) (layer F.SilkS) (width 0.12))
  (fp_line (start -2.8 2.56) (end -2.8 4.3) (layer F.SilkS) (width 0.12))
  (fp_line (start -2.8 4.3) (end -1.3 4.3) (layer F.SilkS) (width 0.12))
  (fp_line (start -3 -5.5) (end -3 4.5) (layer F.CrtYd) (width 0.05))
  (fp_line (start -3 4.5) (end 53 4.5) (layer F.CrtYd) (width 0.05))
  (fp_line (start 53 4.5) (end 53 -5.5) (layer F.CrtYd) (width 0.05))
  (fp_line (start 53 -5.5) (end -3 -5.5) (layer F.CrtYd) (width 0.05))
  (pad 1 thru_hole rect (at 0 0) (size 2.5 2.5) (drill 1.3) (layers *.Cu *.Mask))
  (pad 2 thru_hole circle (at 5 0) (size 2.5 2.5) (drill 1.3) (layers *.Cu *.Mask))
  (pad 3 thru_hole circle (at 10 0) (size 2.5 2.5) (drill 1.3) (layers *.Cu *.Mask))
  (pad 4 thru_hole circle (at 15 0) (size 2.5 2.5) (drill 1.3) (layers *.Cu *.Mask))
  (pad 5 thru_hole circle (at 20 0) (size 2.5 2.5) (drill 1.3) (layers *.Cu *.Mask))
  (pad 6 thru_hole circle (at 25 0) (size 2.5 2.5) (drill 1.3) (layers *.Cu *.Mask))
  (pad 7 thru_hole circle (at 30 0) (size 2.5 2.5) (drill 1.3) (layers *.Cu *.Mask))
  (pad 8 thru_hole circle (at 35 0) (size 2.5 2.5) (drill 1.3) (layers *.Cu *.Mask))
  (pad 9 thru_hole circle (at 40 0) (size 2.5 2.5) (drill 1.3) (layers *.Cu *.Mask))
  (pad 10 thru_hole circle (at 45 0) (size 2.5 2.5) (drill 1.3) (layers *.Cu *.Mask))
  (pad 11 thru_hole circle (at 50 0) (size 2.5 2.5) (drill 1.3) (layers *.Cu *.Mask))
  (fp_text user %R (at 25 -6.06) (layer F.Fab)
    (effects (font (size 1 1) (thickness 0.15)))
  )
  (model ${KIPRJMOD}/kicad_libs_k/models_k.3d/TerminalBlock_RND_k.3dshapes/TerminalBlock_RND_205-00010_1x11_P5.00mm_Horizontal_k.wrl
    (at (xyz 0 0 0))
    (scale (xyz 1 1 1))
    (rotate (xyz 0 0 0))
  )
)