(module TerminalBlock_RND_205-00055_1x12_P5.00mm_Horizontal (layer F.Cu) (tedit 5B294EF4)
  (descr "terminal block RND 205-00055, 12 pins, pitch 5mm, size 60x8.1mm^2, drill diamater 1.1mm, pad diameter 2.1mm, see http://cdn-reichelt.de/documents/datenblatt/C151/RND_205-00045_DB_EN.pdf, script-generated using https://github.com/pointhi/kicad-footprint-generator/scripts/TerminalBlock_RND")
  (tags "THT terminal block RND 205-00055 pitch 5mm size 60x8.1mm^2 drill 1.1mm pad 2.1mm")
  (fp_text reference REF** (at 27.5 -5.11) (layer F.SilkS)
    (effects (font (size 1 1) (thickness 0.15)))
  )
  (fp_text value TerminalBlock_RND_205-00055_1x12_P5.00mm_Horizontal (at 27.5 5.11) (layer F.Fab)
    (effects (font (size 1 1) (thickness 0.15)))
  )
  (fp_arc (start 0 0) (end 0 1.68) (angle -40) (layer F.SilkS) (width 0.12))
  (fp_arc (start 0 0) (end 1.287 1.08) (angle -80) (layer F.SilkS) (width 0.12))
  (fp_arc (start 0 0) (end 1.08 -1.287) (angle -80) (layer F.SilkS) (width 0.12))
  (fp_arc (start 0 0) (end -1.287 -1.081) (angle -80) (layer F.SilkS) (width 0.12))
  (fp_arc (start 0 0) (end -1.081 1.287) (angle -41) (layer F.SilkS) (width 0.12))
  (fp_circle (center 0 0) (end 1.5 0) (layer F.Fab) (width 0.1))
  (fp_circle (center 5 0) (end 6.5 0) (layer F.Fab) (width 0.1))
  (fp_circle (center 5 0) (end 6.68 0) (layer F.SilkS) (width 0.12))
  (fp_circle (center 10 0) (end 11.5 0) (layer F.Fab) (width 0.1))
  (fp_circle (center 10 0) (end 11.68 0) (layer F.SilkS) (width 0.12))
  (fp_circle (center 15 0) (end 16.5 0) (layer F.Fab) (width 0.1))
  (fp_circle (center 15 0) (end 16.68 0) (layer F.SilkS) (width 0.12))
  (fp_circle (center 20 0) (end 21.5 0) (layer F.Fab) (width 0.1))
  (fp_circle (center 20 0) (end 21.68 0) (layer F.SilkS) (width 0.12))
  (fp_circle (center 25 0) (end 26.5 0) (layer F.Fab) (width 0.1))
  (fp_circle (center 25 0) (end 26.68 0) (layer F.SilkS) (width 0.12))
  (fp_circle (center 30 0) (end 31.5 0) (layer F.Fab) (width 0.1))
  (fp_circle (center 30 0) (end 31.68 0) (layer F.SilkS) (width 0.12))
  (fp_circle (center 35 0) (end 36.5 0) (layer F.Fab) (width 0.1))
  (fp_circle (center 35 0) (end 36.68 0) (layer F.SilkS) (width 0.12))
  (fp_circle (center 40 0) (end 41.5 0) (layer F.Fab) (width 0.1))
  (fp_circle (center 40 0) (end 41.68 0) (layer F.SilkS) (width 0.12))
  (fp_circle (center 45 0) (end 46.5 0) (layer F.Fab) (width 0.1))
  (fp_circle (center 45 0) (end 46.68 0) (layer F.SilkS) (width 0.12))
  (fp_circle (center 50 0) (end 51.5 0) (layer F.Fab) (width 0.1))
  (fp_circle (center 50 0) (end 51.68 0) (layer F.SilkS) (width 0.12))
  (fp_circle (center 55 0) (end 56.5 0) (layer F.Fab) (width 0.1))
  (fp_circle (center 55 0) (end 56.68 0) (layer F.SilkS) (width 0.12))
  (fp_line (start -2.5 -4.05) (end 57.5 -4.05) (layer F.Fab) (width 0.1))
  (fp_line (start 57.5 -4.05) (end 57.5 4.05) (layer F.Fab) (width 0.1))
  (fp_line (start 57.5 4.05) (end -1.9 4.05) (layer F.Fab) (width 0.1))
  (fp_line (start -1.9 4.05) (end -2.5 3.45) (layer F.Fab) (width 0.1))
  (fp_line (start -2.5 3.45) (end -2.5 -4.05) (layer F.Fab) (width 0.1))
  (fp_line (start -2.5 3.45) (end 57.5 3.45) (layer F.Fab) (width 0.1))
  (fp_line (start -2.56 3.45) (end 57.56 3.45) (layer F.SilkS) (width 0.12))
  (fp_line (start -2.5 2.85) (end 57.5 2.85) (layer F.Fab) (width 0.1))
  (fp_line (start -2.56 2.85) (end 57.56 2.85) (layer F.SilkS) (width 0.12))
  (fp_line (start -2.5 -2.05) (end 57.5 -2.05) (layer F.Fab) (width 0.1))
  (fp_line (start -2.56 -2.05) (end 57.56 -2.05) (layer F.SilkS) (width 0.12))
  (fp_line (start -2.56 -4.11) (end 57.56 -4.11) (layer F.SilkS) (width 0.12))
  (fp_line (start -2.56 4.11) (end 57.56 4.11) (layer F.SilkS) (width 0.12))
  (fp_line (start -2.56 -4.11) (end -2.56 4.11) (layer F.SilkS) (width 0.12))
  (fp_line (start 57.56 -4.11) (end 57.56 4.11) (layer F.SilkS) (width 0.12))
  (fp_line (start 1.138 -0.955) (end -0.955 1.138) (layer F.Fab) (width 0.1))
  (fp_line (start 0.955 -1.138) (end -1.138 0.955) (layer F.Fab) (width 0.1))
  (fp_line (start -1.25 -4.05) (end -1.25 -3.05) (layer F.Fab) (width 0.1))
  (fp_line (start -1.25 -3.05) (end 1.25 -3.05) (layer F.Fab) (width 0.1))
  (fp_line (start 1.25 -3.05) (end 1.25 -4.05) (layer F.Fab) (width 0.1))
  (fp_line (start 1.25 -4.05) (end -1.25 -4.05) (layer F.Fab) (width 0.1))
  (fp_line (start -1.25 -4.05) (end 1.25 -4.05) (layer F.SilkS) (width 0.12))
  (fp_line (start -1.25 -3.05) (end 1.25 -3.05) (layer F.SilkS) (width 0.12))
  (fp_line (start -1.25 -4.05) (end -1.25 -3.05) (layer F.SilkS) (width 0.12))
  (fp_line (start 1.25 -4.05) (end 1.25 -3.05) (layer F.SilkS) (width 0.12))
  (fp_line (start 6.138 -0.955) (end 4.046 1.138) (layer F.Fab) (width 0.1))
  (fp_line (start 5.955 -1.138) (end 3.863 0.955) (layer F.Fab) (width 0.1))
  (fp_line (start 6.275 -1.069) (end 6.029 -0.823) (layer F.SilkS) (width 0.12))
  (fp_line (start 4.13 1.075) (end 3.931 1.274) (layer F.SilkS) (width 0.12))
  (fp_line (start 6.07 -1.275) (end 5.859 -1.064) (layer F.SilkS) (width 0.12))
  (fp_line (start 3.972 0.823) (end 3.726 1.069) (layer F.SilkS) (width 0.12))
  (fp_line (start 3.75 -4.05) (end 3.75 -3.05) (layer F.Fab) (width 0.1))
  (fp_line (start 3.75 -3.05) (end 6.25 -3.05) (layer F.Fab) (width 0.1))
  (fp_line (start 6.25 -3.05) (end 6.25 -4.05) (layer F.Fab) (width 0.1))
  (fp_line (start 6.25 -4.05) (end 3.75 -4.05) (layer F.Fab) (width 0.1))
  (fp_line (start 3.75 -4.05) (end 6.25 -4.05) (layer F.SilkS) (width 0.12))
  (fp_line (start 3.75 -3.05) (end 6.25 -3.05) (layer F.SilkS) (width 0.12))
  (fp_line (start 3.75 -4.05) (end 3.75 -3.05) (layer F.SilkS) (width 0.12))
  (fp_line (start 6.25 -4.05) (end 6.25 -3.05) (layer F.SilkS) (width 0.12))
  (fp_line (start 11.138 -0.955) (end 9.046 1.138) (layer F.Fab) (width 0.1))
  (fp_line (start 10.955 -1.138) (end 8.863 0.955) (layer F.Fab) (width 0.1))
  (fp_line (start 11.275 -1.069) (end 11.029 -0.823) (layer F.SilkS) (width 0.12))
  (fp_line (start 9.13 1.075) (end 8.931 1.274) (layer F.SilkS) (width 0.12))
  (fp_line (start 11.07 -1.275) (end 10.859 -1.064) (layer F.SilkS) (width 0.12))
  (fp_line (start 8.972 0.823) (end 8.726 1.069) (layer F.SilkS) (width 0.12))
  (fp_line (start 8.75 -4.05) (end 8.75 -3.05) (layer F.Fab) (width 0.1))
  (fp_line (start 8.75 -3.05) (end 11.25 -3.05) (layer F.Fab) (width 0.1))
  (fp_line (start 11.25 -3.05) (end 11.25 -4.05) (layer F.Fab) (width 0.1))
  (fp_line (start 11.25 -4.05) (end 8.75 -4.05) (layer F.Fab) (width 0.1))
  (fp_line (start 8.75 -4.05) (end 11.25 -4.05) (layer F.SilkS) (width 0.12))
  (fp_line (start 8.75 -3.05) (end 11.25 -3.05) (layer F.SilkS) (width 0.12))
  (fp_line (start 8.75 -4.05) (end 8.75 -3.05) (layer F.SilkS) (width 0.12))
  (fp_line (start 11.25 -4.05) (end 11.25 -3.05) (layer F.SilkS) (width 0.12))
  (fp_line (start 16.138 -0.955) (end 14.046 1.138) (layer F.Fab) (width 0.1))
  (fp_line (start 15.955 -1.138) (end 13.863 0.955) (layer F.Fab) (width 0.1))
  (fp_line (start 16.275 -1.069) (end 16.029 -0.823) (layer F.SilkS) (width 0.12))
  (fp_line (start 14.13 1.075) (end 13.931 1.274) (layer F.SilkS) (width 0.12))
  (fp_line (start 16.07 -1.275) (end 15.859 -1.064) (layer F.SilkS) (width 0.12))
  (fp_line (start 13.972 0.823) (end 13.726 1.069) (layer F.SilkS) (width 0.12))
  (fp_line (start 13.75 -4.05) (end 13.75 -3.05) (layer F.Fab) (width 0.1))
  (fp_line (start 13.75 -3.05) (end 16.25 -3.05) (layer F.Fab) (width 0.1))
  (fp_line (start 16.25 -3.05) (end 16.25 -4.05) (layer F.Fab) (width 0.1))
  (fp_line (start 16.25 -4.05) (end 13.75 -4.05) (layer F.Fab) (width 0.1))
  (fp_line (start 13.75 -4.05) (end 16.25 -4.05) (layer F.SilkS) (width 0.12))
  (fp_line (start 13.75 -3.05) (end 16.25 -3.05) (layer F.SilkS) (width 0.12))
  (fp_line (start 13.75 -4.05) (end 13.75 -3.05) (layer F.SilkS) (width 0.12))
  (fp_line (start 16.25 -4.05) (end 16.25 -3.05) (layer F.SilkS) (width 0.12))
  (fp_line (start 21.138 -0.955) (end 19.046 1.138) (layer F.Fab) (width 0.1))
  (fp_line (start 20.955 -1.138) (end 18.863 0.955) (layer F.Fab) (width 0.1))
  (fp_line (start 21.275 -1.069) (end 21.029 -0.823) (layer F.SilkS) (width 0.12))
  (fp_line (start 19.13 1.075) (end 18.931 1.274) (layer F.SilkS) (width 0.12))
  (fp_line (start 21.07 -1.275) (end 20.859 -1.064) (layer F.SilkS) (width 0.12))
  (fp_line (start 18.972 0.823) (end 18.726 1.069) (layer F.SilkS) (width 0.12))
  (fp_line (start 18.75 -4.05) (end 18.75 -3.05) (layer F.Fab) (width 0.1))
  (fp_line (start 18.75 -3.05) (end 21.25 -3.05) (layer F.Fab) (width 0.1))
  (fp_line (start 21.25 -3.05) (end 21.25 -4.05) (layer F.Fab) (width 0.1))
  (fp_line (start 21.25 -4.05) (end 18.75 -4.05) (layer F.Fab) (width 0.1))
  (fp_line (start 18.75 -4.05) (end 21.25 -4.05) (layer F.SilkS) (width 0.12))
  (fp_line (start 18.75 -3.05) (end 21.25 -3.05) (layer F.SilkS) (width 0.12))
  (fp_line (start 18.75 -4.05) (end 18.75 -3.05) (layer F.SilkS) (width 0.12))
  (fp_line (start 21.25 -4.05) (end 21.25 -3.05) (layer F.SilkS) (width 0.12))
  (fp_line (start 26.138 -0.955) (end 24.046 1.138) (layer F.Fab) (width 0.1))
  (fp_line (start 25.955 -1.138) (end 23.863 0.955) (layer F.Fab) (width 0.1))
  (fp_line (start 26.275 -1.069) (end 26.029 -0.823) (layer F.SilkS) (width 0.12))
  (fp_line (start 24.13 1.075) (end 23.931 1.274) (layer F.SilkS) (width 0.12))
  (fp_line (start 26.07 -1.275) (end 25.859 -1.064) (layer F.SilkS) (width 0.12))
  (fp_line (start 23.972 0.823) (end 23.726 1.069) (layer F.SilkS) (width 0.12))
  (fp_line (start 23.75 -4.05) (end 23.75 -3.05) (layer F.Fab) (width 0.1))
  (fp_line (start 23.75 -3.05) (end 26.25 -3.05) (layer F.Fab) (width 0.1))
  (fp_line (start 26.25 -3.05) (end 26.25 -4.05) (layer F.Fab) (width 0.1))
  (fp_line (start 26.25 -4.05) (end 23.75 -4.05) (layer F.Fab) (width 0.1))
  (fp_line (start 23.75 -4.05) (end 26.25 -4.05) (layer F.SilkS) (width 0.12))
  (fp_line (start 23.75 -3.05) (end 26.25 -3.05) (layer F.SilkS) (width 0.12))
  (fp_line (start 23.75 -4.05) (end 23.75 -3.05) (layer F.SilkS) (width 0.12))
  (fp_line (start 26.25 -4.05) (end 26.25 -3.05) (layer F.SilkS) (width 0.12))
  (fp_line (start 31.138 -0.955) (end 29.046 1.138) (layer F.Fab) (width 0.1))
  (fp_line (start 30.955 -1.138) (end 28.863 0.955) (layer F.Fab) (width 0.1))
  (fp_line (start 31.275 -1.069) (end 31.029 -0.823) (layer F.SilkS) (width 0.12))
  (fp_line (start 29.13 1.075) (end 28.931 1.274) (layer F.SilkS) (width 0.12))
  (fp_line (start 31.07 -1.275) (end 30.859 -1.064) (layer F.SilkS) (width 0.12))
  (fp_line (start 28.972 0.823) (end 28.726 1.069) (layer F.SilkS) (width 0.12))
  (fp_line (start 28.75 -4.05) (end 28.75 -3.05) (layer F.Fab) (width 0.1))
  (fp_line (start 28.75 -3.05) (end 31.25 -3.05) (layer F.Fab) (width 0.1))
  (fp_line (start 31.25 -3.05) (end 31.25 -4.05) (layer F.Fab) (width 0.1))
  (fp_line (start 31.25 -4.05) (end 28.75 -4.05) (layer F.Fab) (width 0.1))
  (fp_line (start 28.75 -4.05) (end 31.25 -4.05) (layer F.SilkS) (width 0.12))
  (fp_line (start 28.75 -3.05) (end 31.25 -3.05) (layer F.SilkS) (width 0.12))
  (fp_line (start 28.75 -4.05) (end 28.75 -3.05) (layer F.SilkS) (width 0.12))
  (fp_line (start 31.25 -4.05) (end 31.25 -3.05) (layer F.SilkS) (width 0.12))
  (fp_line (start 36.138 -0.955) (end 34.046 1.138) (layer F.Fab) (width 0.1))
  (fp_line (start 35.955 -1.138) (end 33.863 0.955) (layer F.Fab) (width 0.1))
  (fp_line (start 36.275 -1.069) (end 36.029 -0.823) (layer F.SilkS) (width 0.12))
  (fp_line (start 34.13 1.075) (end 33.931 1.274) (layer F.SilkS) (width 0.12))
  (fp_line (start 36.07 -1.275) (end 35.859 -1.064) (layer F.SilkS) (width 0.12))
  (fp_line (start 33.972 0.823) (end 33.726 1.069) (layer F.SilkS) (width 0.12))
  (fp_line (start 33.75 -4.05) (end 33.75 -3.05) (layer F.Fab) (width 0.1))
  (fp_line (start 33.75 -3.05) (end 36.25 -3.05) (layer F.Fab) (width 0.1))
  (fp_line (start 36.25 -3.05) (end 36.25 -4.05) (layer F.Fab) (width 0.1))
  (fp_line (start 36.25 -4.05) (end 33.75 -4.05) (layer F.Fab) (width 0.1))
  (fp_line (start 33.75 -4.05) (end 36.25 -4.05) (layer F.SilkS) (width 0.12))
  (fp_line (start 33.75 -3.05) (end 36.25 -3.05) (layer F.SilkS) (width 0.12))
  (fp_line (start 33.75 -4.05) (end 33.75 -3.05) (layer F.SilkS) (width 0.12))
  (fp_line (start 36.25 -4.05) (end 36.25 -3.05) (layer F.SilkS) (width 0.12))
  (fp_line (start 41.138 -0.955) (end 39.046 1.138) (layer F.Fab) (width 0.1))
  (fp_line (start 40.955 -1.138) (end 38.863 0.955) (layer F.Fab) (width 0.1))
  (fp_line (start 41.275 -1.069) (end 41.029 -0.823) (layer F.SilkS) (width 0.12))
  (fp_line (start 39.13 1.075) (end 38.931 1.274) (layer F.SilkS) (width 0.12))
  (fp_line (start 41.07 -1.275) (end 40.859 -1.064) (layer F.SilkS) (width 0.12))
  (fp_line (start 38.972 0.823) (end 38.726 1.069) (layer F.SilkS) (width 0.12))
  (fp_line (start 38.75 -4.05) (end 38.75 -3.05) (layer F.Fab) (width 0.1))
  (fp_line (start 38.75 -3.05) (end 41.25 -3.05) (layer F.Fab) (width 0.1))
  (fp_line (start 41.25 -3.05) (end 41.25 -4.05) (layer F.Fab) (width 0.1))
  (fp_line (start 41.25 -4.05) (end 38.75 -4.05) (layer F.Fab) (width 0.1))
  (fp_line (start 38.75 -4.05) (end 41.25 -4.05) (layer F.SilkS) (width 0.12))
  (fp_line (start 38.75 -3.05) (end 41.25 -3.05) (layer F.SilkS) (width 0.12))
  (fp_line (start 38.75 -4.05) (end 38.75 -3.05) (layer F.SilkS) (width 0.12))
  (fp_line (start 41.25 -4.05) (end 41.25 -3.05) (layer F.SilkS) (width 0.12))
  (fp_line (start 46.138 -0.955) (end 44.046 1.138) (layer F.Fab) (width 0.1))
  (fp_line (start 45.955 -1.138) (end 43.863 0.955) (layer F.Fab) (width 0.1))
  (fp_line (start 46.275 -1.069) (end 46.029 -0.823) (layer F.SilkS) (width 0.12))
  (fp_line (start 44.13 1.075) (end 43.931 1.274) (layer F.SilkS) (width 0.12))
  (fp_line (start 46.07 -1.275) (end 45.859 -1.064) (layer F.SilkS) (width 0.12))
  (fp_line (start 43.972 0.823) (end 43.726 1.069) (layer F.SilkS) (width 0.12))
  (fp_line (start 43.75 -4.05) (end 43.75 -3.05) (layer F.Fab) (width 0.1))
  (fp_line (start 43.75 -3.05) (end 46.25 -3.05) (layer F.Fab) (width 0.1))
  (fp_line (start 46.25 -3.05) (end 46.25 -4.05) (layer F.Fab) (width 0.1))
  (fp_line (start 46.25 -4.05) (end 43.75 -4.05) (layer F.Fab) (width 0.1))
  (fp_line (start 43.75 -4.05) (end 46.25 -4.05) (layer F.SilkS) (width 0.12))
  (fp_line (start 43.75 -3.05) (end 46.25 -3.05) (layer F.SilkS) (width 0.12))
  (fp_line (start 43.75 -4.05) (end 43.75 -3.05) (layer F.SilkS) (width 0.12))
  (fp_line (start 46.25 -4.05) (end 46.25 -3.05) (layer F.SilkS) (width 0.12))
  (fp_line (start 51.138 -0.955) (end 49.046 1.138) (layer F.Fab) (width 0.1))
  (fp_line (start 50.955 -1.138) (end 48.863 0.955) (layer F.Fab) (width 0.1))
  (fp_line (start 51.275 -1.069) (end 51.029 -0.823) (layer F.SilkS) (width 0.12))
  (fp_line (start 49.13 1.075) (end 48.931 1.274) (layer F.SilkS) (width 0.12))
  (fp_line (start 51.07 -1.275) (end 50.859 -1.064) (layer F.SilkS) (width 0.12))
  (fp_line (start 48.972 0.823) (end 48.726 1.069) (layer F.SilkS) (width 0.12))
  (fp_line (start 48.75 -4.05) (end 48.75 -3.05) (layer F.Fab) (width 0.1))
  (fp_line (start 48.75 -3.05) (end 51.25 -3.05) (layer F.Fab) (width 0.1))
  (fp_line (start 51.25 -3.05) (end 51.25 -4.05) (layer F.Fab) (width 0.1))
  (fp_line (start 51.25 -4.05) (end 48.75 -4.05) (layer F.Fab) (width 0.1))
  (fp_line (start 48.75 -4.05) (end 51.25 -4.05) (layer F.SilkS) (width 0.12))
  (fp_line (start 48.75 -3.05) (end 51.25 -3.05) (layer F.SilkS) (width 0.12))
  (fp_line (start 48.75 -4.05) (end 48.75 -3.05) (layer F.SilkS) (width 0.12))
  (fp_line (start 51.25 -4.05) (end 51.25 -3.05) (layer F.SilkS) (width 0.12))
  (fp_line (start 56.138 -0.955) (end 54.046 1.138) (layer F.Fab) (width 0.1))
  (fp_line (start 55.955 -1.138) (end 53.863 0.955) (layer F.Fab) (width 0.1))
  (fp_line (start 56.275 -1.069) (end 56.029 -0.823) (layer F.SilkS) (width 0.12))
  (fp_line (start 54.13 1.075) (end 53.931 1.274) (layer F.SilkS) (width 0.12))
  (fp_line (start 56.07 -1.275) (end 55.859 -1.064) (layer F.SilkS) (width 0.12))
  (fp_line (start 53.972 0.823) (end 53.726 1.069) (layer F.SilkS) (width 0.12))
  (fp_line (start 53.75 -4.05) (end 53.75 -3.05) (layer F.Fab) (width 0.1))
  (fp_line (start 53.75 -3.05) (end 56.25 -3.05) (layer F.Fab) (width 0.1))
  (fp_line (start 56.25 -3.05) (end 56.25 -4.05) (layer F.Fab) (width 0.1))
  (fp_line (start 56.25 -4.05) (end 53.75 -4.05) (layer F.Fab) (width 0.1))
  (fp_line (start 53.75 -4.05) (end 56.25 -4.05) (layer F.SilkS) (width 0.12))
  (fp_line (start 53.75 -3.05) (end 56.25 -3.05) (layer F.SilkS) (width 0.12))
  (fp_line (start 53.75 -4.05) (end 53.75 -3.05) (layer F.SilkS) (width 0.12))
  (fp_line (start 56.25 -4.05) (end 56.25 -3.05) (layer F.SilkS) (width 0.12))
  (fp_line (start -2.8 3.51) (end -2.8 4.35) (layer F.SilkS) (width 0.12))
  (fp_line (start -2.8 4.35) (end -2.2 4.35) (layer F.SilkS) (width 0.12))
  (fp_line (start -3 -4.55) (end -3 4.55) (layer F.CrtYd) (width 0.05))
  (fp_line (start -3 4.55) (end 58 4.55) (layer F.CrtYd) (width 0.05))
  (fp_line (start 58 4.55) (end 58 -4.55) (layer F.CrtYd) (width 0.05))
  (fp_line (start 58 -4.55) (end -3 -4.55) (layer F.CrtYd) (width 0.05))
  (pad 1 thru_hole rect (at 0 0) (size 2.1 2.1) (drill 1.1) (layers *.Cu *.Mask))
  (pad 2 thru_hole circle (at 5 0) (size 2.1 2.1) (drill 1.1) (layers *.Cu *.Mask))
  (pad 3 thru_hole circle (at 10 0) (size 2.1 2.1) (drill 1.1) (layers *.Cu *.Mask))
  (pad 4 thru_hole circle (at 15 0) (size 2.1 2.1) (drill 1.1) (layers *.Cu *.Mask))
  (pad 5 thru_hole circle (at 20 0) (size 2.1 2.1) (drill 1.1) (layers *.Cu *.Mask))
  (pad 6 thru_hole circle (at 25 0) (size 2.1 2.1) (drill 1.1) (layers *.Cu *.Mask))
  (pad 7 thru_hole circle (at 30 0) (size 2.1 2.1) (drill 1.1) (layers *.Cu *.Mask))
  (pad 8 thru_hole circle (at 35 0) (size 2.1 2.1) (drill 1.1) (layers *.Cu *.Mask))
  (pad 9 thru_hole circle (at 40 0) (size 2.1 2.1) (drill 1.1) (layers *.Cu *.Mask))
  (pad 10 thru_hole circle (at 45 0) (size 2.1 2.1) (drill 1.1) (layers *.Cu *.Mask))
  (pad 11 thru_hole circle (at 50 0) (size 2.1 2.1) (drill 1.1) (layers *.Cu *.Mask))
  (pad 12 thru_hole circle (at 55 0) (size 2.1 2.1) (drill 1.1) (layers *.Cu *.Mask))
  (fp_text user %R (at 27.5 -5.11) (layer F.Fab)
    (effects (font (size 1 1) (thickness 0.15)))
  )
  (model ${KIPRJMOD}/kicad_libs_k/models_k.3d/TerminalBlock_RND_k.3dshapes/TerminalBlock_RND_205-00055_1x12_P5.00mm_Horizontal_k.wrl
    (at (xyz 0 0 0))
    (scale (xyz 1 1 1))
    (rotate (xyz 0 0 0))
  )
)