(module TerminalBlock_RND_205-00288_1x03_P5.08mm_Horizontal (layer F.Cu) (tedit 5B294ECF)
  (descr "terminal block RND 205-00288, 3 pins, pitch 5.08mm, size 15.2x10.6mm^2, drill diamater 1.3mm, pad diameter 2.5mm, see http://cdn-reichelt.de/documents/datenblatt/C151/RND_205-00287_DB_EN.pdf, script-generated using https://github.com/pointhi/kicad-footprint-generator/scripts/TerminalBlock_RND")
  (tags "THT terminal block RND 205-00288 pitch 5.08mm size 15.2x10.6mm^2 drill 1.3mm pad 2.5mm")
  (fp_text reference REF** (at 5.08 -6.36) (layer F.SilkS)
    (effects (font (size 1 1) (thickness 0.15)))
  )
  (fp_text value TerminalBlock_RND_205-00288_1x03_P5.08mm_Horizontal (at 5.08 6.36) (layer F.Fab)
    (effects (font (size 1 1) (thickness 0.15)))
  )
  (fp_arc (start 0 0) (end 0 1.68) (angle -28) (layer F.SilkS) (width 0.12))
  (fp_arc (start 0 0) (end 1.484 0.789) (angle -56) (layer F.SilkS) (width 0.12))
  (fp_arc (start 0 0) (end 0.789 -1.484) (angle -56) (layer F.SilkS) (width 0.12))
  (fp_arc (start 0 0) (end -1.484 -0.789) (angle -56) (layer F.SilkS) (width 0.12))
  (fp_arc (start 0 0) (end -0.789 1.484) (angle -29) (layer F.SilkS) (width 0.12))
  (fp_circle (center 0 0) (end 1.5 0) (layer F.Fab) (width 0.1))
  (fp_circle (center 5.08 0) (end 6.58 0) (layer F.Fab) (width 0.1))
  (fp_circle (center 5.08 0) (end 6.76 0) (layer F.SilkS) (width 0.12))
  (fp_circle (center 10.16 0) (end 11.66 0) (layer F.Fab) (width 0.1))
  (fp_circle (center 10.16 0) (end 11.84 0) (layer F.SilkS) (width 0.12))
  (fp_line (start -2.54 -5.3) (end 12.7 -5.3) (layer F.Fab) (width 0.1))
  (fp_line (start 12.7 -5.3) (end 12.7 5.3) (layer F.Fab) (width 0.1))
  (fp_line (start 12.7 5.3) (end -1.94 5.3) (layer F.Fab) (width 0.1))
  (fp_line (start -1.94 5.3) (end -2.54 4.7) (layer F.Fab) (width 0.1))
  (fp_line (start -2.54 4.7) (end -2.54 -5.3) (layer F.Fab) (width 0.1))
  (fp_line (start -2.54 4.7) (end 12.7 4.7) (layer F.Fab) (width 0.1))
  (fp_line (start -2.6 4.7) (end 12.76 4.7) (layer F.SilkS) (width 0.12))
  (fp_line (start -2.54 2.5) (end 12.7 2.5) (layer F.Fab) (width 0.1))
  (fp_line (start -2.6 2.5) (end 12.76 2.5) (layer F.SilkS) (width 0.12))
  (fp_line (start -2.54 -3.3) (end 12.7 -3.3) (layer F.Fab) (width 0.1))
  (fp_line (start -2.6 -3.3) (end 12.76 -3.3) (layer F.SilkS) (width 0.12))
  (fp_line (start -2.6 -5.36) (end 12.76 -5.36) (layer F.SilkS) (width 0.12))
  (fp_line (start -2.6 5.36) (end 12.76 5.36) (layer F.SilkS) (width 0.12))
  (fp_line (start -2.6 -5.36) (end -2.6 5.36) (layer F.SilkS) (width 0.12))
  (fp_line (start 12.76 -5.36) (end 12.76 5.36) (layer F.SilkS) (width 0.12))
  (fp_line (start 1.138 -0.955) (end -0.955 1.138) (layer F.Fab) (width 0.1))
  (fp_line (start 0.955 -1.138) (end -1.138 0.955) (layer F.Fab) (width 0.1))
  (fp_line (start -1.25 -5.05) (end -1.25 -4.55) (layer F.Fab) (width 0.1))
  (fp_line (start -1.25 -4.55) (end 1.25 -4.55) (layer F.Fab) (width 0.1))
  (fp_line (start 1.25 -4.55) (end 1.25 -5.05) (layer F.Fab) (width 0.1))
  (fp_line (start 1.25 -5.05) (end -1.25 -5.05) (layer F.Fab) (width 0.1))
  (fp_line (start -1.25 -5.05) (end 1.25 -5.05) (layer F.SilkS) (width 0.12))
  (fp_line (start -1.25 -4.55) (end 1.25 -4.55) (layer F.SilkS) (width 0.12))
  (fp_line (start -1.25 -5.05) (end -1.25 -4.55) (layer F.SilkS) (width 0.12))
  (fp_line (start 1.25 -5.05) (end 1.25 -4.55) (layer F.SilkS) (width 0.12))
  (fp_line (start 6.218 -0.955) (end 4.126 1.138) (layer F.Fab) (width 0.1))
  (fp_line (start 6.035 -1.138) (end 3.943 0.955) (layer F.Fab) (width 0.1))
  (fp_line (start 6.355 -1.069) (end 6.261 -0.976) (layer F.SilkS) (width 0.12))
  (fp_line (start 4.07 1.216) (end 4.011 1.274) (layer F.SilkS) (width 0.12))
  (fp_line (start 6.15 -1.275) (end 6.091 -1.216) (layer F.SilkS) (width 0.12))
  (fp_line (start 3.9 0.976) (end 3.806 1.069) (layer F.SilkS) (width 0.12))
  (fp_line (start 3.83 -5.05) (end 3.83 -4.55) (layer F.Fab) (width 0.1))
  (fp_line (start 3.83 -4.55) (end 6.33 -4.55) (layer F.Fab) (width 0.1))
  (fp_line (start 6.33 -4.55) (end 6.33 -5.05) (layer F.Fab) (width 0.1))
  (fp_line (start 6.33 -5.05) (end 3.83 -5.05) (layer F.Fab) (width 0.1))
  (fp_line (start 3.83 -5.05) (end 6.33 -5.05) (layer F.SilkS) (width 0.12))
  (fp_line (start 3.83 -4.55) (end 6.33 -4.55) (layer F.SilkS) (width 0.12))
  (fp_line (start 3.83 -5.05) (end 3.83 -4.55) (layer F.SilkS) (width 0.12))
  (fp_line (start 6.33 -5.05) (end 6.33 -4.55) (layer F.SilkS) (width 0.12))
  (fp_line (start 11.298 -0.955) (end 9.206 1.138) (layer F.Fab) (width 0.1))
  (fp_line (start 11.115 -1.138) (end 9.023 0.955) (layer F.Fab) (width 0.1))
  (fp_line (start 11.435 -1.069) (end 11.341 -0.976) (layer F.SilkS) (width 0.12))
  (fp_line (start 9.15 1.216) (end 9.091 1.274) (layer F.SilkS) (width 0.12))
  (fp_line (start 11.23 -1.275) (end 11.171 -1.216) (layer F.SilkS) (width 0.12))
  (fp_line (start 8.98 0.976) (end 8.886 1.069) (layer F.SilkS) (width 0.12))
  (fp_line (start 8.91 -5.05) (end 8.91 -4.55) (layer F.Fab) (width 0.1))
  (fp_line (start 8.91 -4.55) (end 11.41 -4.55) (layer F.Fab) (width 0.1))
  (fp_line (start 11.41 -4.55) (end 11.41 -5.05) (layer F.Fab) (width 0.1))
  (fp_line (start 11.41 -5.05) (end 8.91 -5.05) (layer F.Fab) (width 0.1))
  (fp_line (start 8.91 -5.05) (end 11.41 -5.05) (layer F.SilkS) (width 0.12))
  (fp_line (start 8.91 -4.55) (end 11.41 -4.55) (layer F.SilkS) (width 0.12))
  (fp_line (start 8.91 -5.05) (end 8.91 -4.55) (layer F.SilkS) (width 0.12))
  (fp_line (start 11.41 -5.05) (end 11.41 -4.55) (layer F.SilkS) (width 0.12))
  (fp_line (start -2.84 4.76) (end -2.84 5.6) (layer F.SilkS) (width 0.12))
  (fp_line (start -2.84 5.6) (end -2.24 5.6) (layer F.SilkS) (width 0.12))
  (fp_line (start -3.04 -5.8) (end -3.04 5.8) (layer F.CrtYd) (width 0.05))
  (fp_line (start -3.04 5.8) (end 13.21 5.8) (layer F.CrtYd) (width 0.05))
  (fp_line (start 13.21 5.8) (end 13.21 -5.8) (layer F.CrtYd) (width 0.05))
  (fp_line (start 13.21 -5.8) (end -3.04 -5.8) (layer F.CrtYd) (width 0.05))
  (pad 1 thru_hole rect (at 0 0) (size 2.5 2.5) (drill 1.3) (layers *.Cu *.Mask))
  (pad 2 thru_hole circle (at 5.08 0) (size 2.5 2.5) (drill 1.3) (layers *.Cu *.Mask))
  (pad 3 thru_hole circle (at 10.16 0) (size 2.5 2.5) (drill 1.3) (layers *.Cu *.Mask))
  (fp_text user %R (at 5.08 -6.36) (layer F.Fab)
    (effects (font (size 1 1) (thickness 0.15)))
  )
  (model ${KIPRJMOD}/kicad_libs_k/models_k.3d/TerminalBlock_RND_k.3dshapes/TerminalBlock_RND_205-00288_1x03_P5.08mm_Horizontal_k.wrl
    (at (xyz 0 0 0))
    (scale (xyz 1 1 1))
    (rotate (xyz 0 0 0))
  )
)