(module TerminalBlock_RND_205-00251_1x12_P10.16mm_Horizontal (layer F.Cu) (tedit 5B294F8C)
  (descr "terminal block RND 205-00251, 12 pins, pitch 10.2mm, size 117x8.3mm^2, drill diamater 1.3mm, pad diameter 2.5mm, see http://cdn-reichelt.de/documents/datenblatt/C151/RND_205-00023_DB_EN.pdf, script-generated using https://github.com/pointhi/kicad-footprint-generator/scripts/TerminalBlock_RND")
  (tags "THT terminal block RND 205-00251 pitch 10.2mm size 117x8.3mm^2 drill 1.3mm pad 2.5mm")
  (fp_text reference REF** (at 55.88 -4.81) (layer F.SilkS)
    (effects (font (size 1 1) (thickness 0.15)))
  )
  (fp_text value TerminalBlock_RND_205-00251_1x12_P10.16mm_Horizontal (at 55.88 5.61) (layer F.Fab)
    (effects (font (size 1 1) (thickness 0.15)))
  )
  (fp_arc (start 0 0) (end 0 1.68) (angle -28) (layer F.SilkS) (width 0.12))
  (fp_arc (start 0 0) (end 1.484 0.789) (angle -56) (layer F.SilkS) (width 0.12))
  (fp_arc (start 0 0) (end 0.789 -1.484) (angle -56) (layer F.SilkS) (width 0.12))
  (fp_arc (start 0 0) (end -1.484 -0.789) (angle -56) (layer F.SilkS) (width 0.12))
  (fp_arc (start 0 0) (end -0.789 1.484) (angle -29) (layer F.SilkS) (width 0.12))
  (fp_circle (center 0 0) (end 1.5 0) (layer F.Fab) (width 0.1))
  (fp_circle (center 5.08 0) (end 6.58 0) (layer F.Fab) (width 0.1))
  (fp_circle (center 5.08 0) (end 6.58 0) (layer F.SilkS) (width 0.12))
  (fp_circle (center 10.16 0) (end 11.66 0) (layer F.Fab) (width 0.1))
  (fp_circle (center 10.16 0) (end 11.84 0) (layer F.SilkS) (width 0.12))
  (fp_circle (center 15.24 0) (end 16.74 0) (layer F.Fab) (width 0.1))
  (fp_circle (center 15.24 0) (end 16.74 0) (layer F.SilkS) (width 0.12))
  (fp_circle (center 20.32 0) (end 21.82 0) (layer F.Fab) (width 0.1))
  (fp_circle (center 20.32 0) (end 22 0) (layer F.SilkS) (width 0.12))
  (fp_circle (center 25.4 0) (end 26.9 0) (layer F.Fab) (width 0.1))
  (fp_circle (center 25.4 0) (end 26.9 0) (layer F.SilkS) (width 0.12))
  (fp_circle (center 30.48 0) (end 31.98 0) (layer F.Fab) (width 0.1))
  (fp_circle (center 30.48 0) (end 32.16 0) (layer F.SilkS) (width 0.12))
  (fp_circle (center 35.56 0) (end 37.06 0) (layer F.Fab) (width 0.1))
  (fp_circle (center 35.56 0) (end 37.06 0) (layer F.SilkS) (width 0.12))
  (fp_circle (center 40.64 0) (end 42.14 0) (layer F.Fab) (width 0.1))
  (fp_circle (center 40.64 0) (end 42.32 0) (layer F.SilkS) (width 0.12))
  (fp_circle (center 45.72 0) (end 47.22 0) (layer F.Fab) (width 0.1))
  (fp_circle (center 45.72 0) (end 47.22 0) (layer F.SilkS) (width 0.12))
  (fp_circle (center 50.8 0) (end 52.3 0) (layer F.Fab) (width 0.1))
  (fp_circle (center 50.8 0) (end 52.48 0) (layer F.SilkS) (width 0.12))
  (fp_circle (center 55.88 0) (end 57.38 0) (layer F.Fab) (width 0.1))
  (fp_circle (center 55.88 0) (end 57.38 0) (layer F.SilkS) (width 0.12))
  (fp_circle (center 60.96 0) (end 62.46 0) (layer F.Fab) (width 0.1))
  (fp_circle (center 60.96 0) (end 62.64 0) (layer F.SilkS) (width 0.12))
  (fp_circle (center 66.04 0) (end 67.54 0) (layer F.Fab) (width 0.1))
  (fp_circle (center 66.04 0) (end 67.54 0) (layer F.SilkS) (width 0.12))
  (fp_circle (center 71.12 0) (end 72.62 0) (layer F.Fab) (width 0.1))
  (fp_circle (center 71.12 0) (end 72.8 0) (layer F.SilkS) (width 0.12))
  (fp_circle (center 76.2 0) (end 77.7 0) (layer F.Fab) (width 0.1))
  (fp_circle (center 76.2 0) (end 77.7 0) (layer F.SilkS) (width 0.12))
  (fp_circle (center 81.28 0) (end 82.78 0) (layer F.Fab) (width 0.1))
  (fp_circle (center 81.28 0) (end 82.96 0) (layer F.SilkS) (width 0.12))
  (fp_circle (center 86.36 0) (end 87.86 0) (layer F.Fab) (width 0.1))
  (fp_circle (center 86.36 0) (end 87.86 0) (layer F.SilkS) (width 0.12))
  (fp_circle (center 91.44 0) (end 92.94 0) (layer F.Fab) (width 0.1))
  (fp_circle (center 91.44 0) (end 93.12 0) (layer F.SilkS) (width 0.12))
  (fp_circle (center 96.52 0) (end 98.02 0) (layer F.Fab) (width 0.1))
  (fp_circle (center 96.52 0) (end 98.02 0) (layer F.SilkS) (width 0.12))
  (fp_circle (center 101.6 0) (end 103.1 0) (layer F.Fab) (width 0.1))
  (fp_circle (center 101.6 0) (end 103.28 0) (layer F.SilkS) (width 0.12))
  (fp_circle (center 106.68 0) (end 108.18 0) (layer F.Fab) (width 0.1))
  (fp_circle (center 106.68 0) (end 108.18 0) (layer F.SilkS) (width 0.12))
  (fp_circle (center 111.76 0) (end 113.26 0) (layer F.Fab) (width 0.1))
  (fp_circle (center 111.76 0) (end 113.44 0) (layer F.SilkS) (width 0.12))
  (fp_line (start -2.54 -3.75) (end 114.3 -3.75) (layer F.Fab) (width 0.1))
  (fp_line (start 114.3 -3.75) (end 114.3 4.55) (layer F.Fab) (width 0.1))
  (fp_line (start 114.3 4.55) (end -1.94 4.55) (layer F.Fab) (width 0.1))
  (fp_line (start -1.94 4.55) (end -2.54 3.95) (layer F.Fab) (width 0.1))
  (fp_line (start -2.54 3.95) (end -2.54 -3.75) (layer F.Fab) (width 0.1))
  (fp_line (start -2.54 3.95) (end 114.3 3.95) (layer F.Fab) (width 0.1))
  (fp_line (start -2.6 3.95) (end 114.361 3.95) (layer F.SilkS) (width 0.12))
  (fp_line (start -2.54 3.35) (end 114.3 3.35) (layer F.Fab) (width 0.1))
  (fp_line (start -2.6 3.35) (end 114.361 3.35) (layer F.SilkS) (width 0.12))
  (fp_line (start -2.54 -2.25) (end 114.3 -2.25) (layer F.Fab) (width 0.1))
  (fp_line (start -2.6 -2.251) (end 114.361 -2.251) (layer F.SilkS) (width 0.12))
  (fp_line (start -2.6 -3.811) (end 114.361 -3.811) (layer F.SilkS) (width 0.12))
  (fp_line (start -2.6 4.61) (end 114.361 4.61) (layer F.SilkS) (width 0.12))
  (fp_line (start -2.6 -3.811) (end -2.6 4.61) (layer F.SilkS) (width 0.12))
  (fp_line (start 114.361 -3.811) (end 114.361 4.61) (layer F.SilkS) (width 0.12))
  (fp_line (start 1.138 -0.955) (end -0.955 1.138) (layer F.Fab) (width 0.1))
  (fp_line (start 0.955 -1.138) (end -1.138 0.955) (layer F.Fab) (width 0.1))
  (fp_line (start -1.25 -3.75) (end -1.25 -2.75) (layer F.Fab) (width 0.1))
  (fp_line (start -1.25 -2.75) (end 1.25 -2.75) (layer F.Fab) (width 0.1))
  (fp_line (start 1.25 -2.75) (end 1.25 -3.75) (layer F.Fab) (width 0.1))
  (fp_line (start 1.25 -3.75) (end -1.25 -3.75) (layer F.Fab) (width 0.1))
  (fp_line (start -1.25 -3.751) (end 1.25 -3.751) (layer F.SilkS) (width 0.12))
  (fp_line (start -1.25 -2.751) (end 1.25 -2.751) (layer F.SilkS) (width 0.12))
  (fp_line (start -1.25 -3.751) (end -1.25 -2.751) (layer F.SilkS) (width 0.12))
  (fp_line (start 1.25 -3.751) (end 1.25 -2.751) (layer F.SilkS) (width 0.12))
  (fp_line (start 3.83 -3.75) (end 3.83 -2.75) (layer F.Fab) (width 0.1))
  (fp_line (start 3.83 -2.75) (end 6.33 -2.75) (layer F.Fab) (width 0.1))
  (fp_line (start 6.33 -2.75) (end 6.33 -3.75) (layer F.Fab) (width 0.1))
  (fp_line (start 6.33 -3.75) (end 3.83 -3.75) (layer F.Fab) (width 0.1))
  (fp_line (start 3.83 -3.751) (end 6.33 -3.751) (layer F.SilkS) (width 0.12))
  (fp_line (start 3.83 -2.751) (end 6.33 -2.751) (layer F.SilkS) (width 0.12))
  (fp_line (start 3.83 -3.751) (end 3.83 -2.751) (layer F.SilkS) (width 0.12))
  (fp_line (start 6.33 -3.751) (end 6.33 -2.751) (layer F.SilkS) (width 0.12))
  (fp_line (start 11.298 -0.955) (end 9.206 1.138) (layer F.Fab) (width 0.1))
  (fp_line (start 11.115 -1.138) (end 9.023 0.955) (layer F.Fab) (width 0.1))
  (fp_line (start 11.435 -1.069) (end 11.341 -0.976) (layer F.SilkS) (width 0.12))
  (fp_line (start 9.15 1.216) (end 9.091 1.274) (layer F.SilkS) (width 0.12))
  (fp_line (start 11.23 -1.275) (end 11.171 -1.216) (layer F.SilkS) (width 0.12))
  (fp_line (start 8.98 0.976) (end 8.886 1.069) (layer F.SilkS) (width 0.12))
  (fp_line (start 8.91 -3.75) (end 8.91 -2.75) (layer F.Fab) (width 0.1))
  (fp_line (start 8.91 -2.75) (end 11.41 -2.75) (layer F.Fab) (width 0.1))
  (fp_line (start 11.41 -2.75) (end 11.41 -3.75) (layer F.Fab) (width 0.1))
  (fp_line (start 11.41 -3.75) (end 8.91 -3.75) (layer F.Fab) (width 0.1))
  (fp_line (start 8.91 -3.751) (end 11.41 -3.751) (layer F.SilkS) (width 0.12))
  (fp_line (start 8.91 -2.751) (end 11.41 -2.751) (layer F.SilkS) (width 0.12))
  (fp_line (start 8.91 -3.751) (end 8.91 -2.751) (layer F.SilkS) (width 0.12))
  (fp_line (start 11.41 -3.751) (end 11.41 -2.751) (layer F.SilkS) (width 0.12))
  (fp_line (start 13.99 -3.75) (end 13.99 -2.75) (layer F.Fab) (width 0.1))
  (fp_line (start 13.99 -2.75) (end 16.49 -2.75) (layer F.Fab) (width 0.1))
  (fp_line (start 16.49 -2.75) (end 16.49 -3.75) (layer F.Fab) (width 0.1))
  (fp_line (start 16.49 -3.75) (end 13.99 -3.75) (layer F.Fab) (width 0.1))
  (fp_line (start 13.99 -3.751) (end 16.49 -3.751) (layer F.SilkS) (width 0.12))
  (fp_line (start 13.99 -2.751) (end 16.49 -2.751) (layer F.SilkS) (width 0.12))
  (fp_line (start 13.99 -3.751) (end 13.99 -2.751) (layer F.SilkS) (width 0.12))
  (fp_line (start 16.49 -3.751) (end 16.49 -2.751) (layer F.SilkS) (width 0.12))
  (fp_line (start 21.458 -0.955) (end 19.366 1.138) (layer F.Fab) (width 0.1))
  (fp_line (start 21.275 -1.138) (end 19.183 0.955) (layer F.Fab) (width 0.1))
  (fp_line (start 21.595 -1.069) (end 21.501 -0.976) (layer F.SilkS) (width 0.12))
  (fp_line (start 19.31 1.216) (end 19.251 1.274) (layer F.SilkS) (width 0.12))
  (fp_line (start 21.39 -1.275) (end 21.331 -1.216) (layer F.SilkS) (width 0.12))
  (fp_line (start 19.14 0.976) (end 19.046 1.069) (layer F.SilkS) (width 0.12))
  (fp_line (start 19.07 -3.75) (end 19.07 -2.75) (layer F.Fab) (width 0.1))
  (fp_line (start 19.07 -2.75) (end 21.57 -2.75) (layer F.Fab) (width 0.1))
  (fp_line (start 21.57 -2.75) (end 21.57 -3.75) (layer F.Fab) (width 0.1))
  (fp_line (start 21.57 -3.75) (end 19.07 -3.75) (layer F.Fab) (width 0.1))
  (fp_line (start 19.07 -3.751) (end 21.57 -3.751) (layer F.SilkS) (width 0.12))
  (fp_line (start 19.07 -2.751) (end 21.57 -2.751) (layer F.SilkS) (width 0.12))
  (fp_line (start 19.07 -3.751) (end 19.07 -2.751) (layer F.SilkS) (width 0.12))
  (fp_line (start 21.57 -3.751) (end 21.57 -2.751) (layer F.SilkS) (width 0.12))
  (fp_line (start 24.15 -3.75) (end 24.15 -2.75) (layer F.Fab) (width 0.1))
  (fp_line (start 24.15 -2.75) (end 26.65 -2.75) (layer F.Fab) (width 0.1))
  (fp_line (start 26.65 -2.75) (end 26.65 -3.75) (layer F.Fab) (width 0.1))
  (fp_line (start 26.65 -3.75) (end 24.15 -3.75) (layer F.Fab) (width 0.1))
  (fp_line (start 24.15 -3.751) (end 26.65 -3.751) (layer F.SilkS) (width 0.12))
  (fp_line (start 24.15 -2.751) (end 26.65 -2.751) (layer F.SilkS) (width 0.12))
  (fp_line (start 24.15 -3.751) (end 24.15 -2.751) (layer F.SilkS) (width 0.12))
  (fp_line (start 26.65 -3.751) (end 26.65 -2.751) (layer F.SilkS) (width 0.12))
  (fp_line (start 31.618 -0.955) (end 29.526 1.138) (layer F.Fab) (width 0.1))
  (fp_line (start 31.435 -1.138) (end 29.343 0.955) (layer F.Fab) (width 0.1))
  (fp_line (start 31.755 -1.069) (end 31.661 -0.976) (layer F.SilkS) (width 0.12))
  (fp_line (start 29.47 1.216) (end 29.411 1.274) (layer F.SilkS) (width 0.12))
  (fp_line (start 31.55 -1.275) (end 31.491 -1.216) (layer F.SilkS) (width 0.12))
  (fp_line (start 29.3 0.976) (end 29.206 1.069) (layer F.SilkS) (width 0.12))
  (fp_line (start 29.23 -3.75) (end 29.23 -2.75) (layer F.Fab) (width 0.1))
  (fp_line (start 29.23 -2.75) (end 31.73 -2.75) (layer F.Fab) (width 0.1))
  (fp_line (start 31.73 -2.75) (end 31.73 -3.75) (layer F.Fab) (width 0.1))
  (fp_line (start 31.73 -3.75) (end 29.23 -3.75) (layer F.Fab) (width 0.1))
  (fp_line (start 29.23 -3.751) (end 31.73 -3.751) (layer F.SilkS) (width 0.12))
  (fp_line (start 29.23 -2.751) (end 31.73 -2.751) (layer F.SilkS) (width 0.12))
  (fp_line (start 29.23 -3.751) (end 29.23 -2.751) (layer F.SilkS) (width 0.12))
  (fp_line (start 31.73 -3.751) (end 31.73 -2.751) (layer F.SilkS) (width 0.12))
  (fp_line (start 34.31 -3.75) (end 34.31 -2.75) (layer F.Fab) (width 0.1))
  (fp_line (start 34.31 -2.75) (end 36.81 -2.75) (layer F.Fab) (width 0.1))
  (fp_line (start 36.81 -2.75) (end 36.81 -3.75) (layer F.Fab) (width 0.1))
  (fp_line (start 36.81 -3.75) (end 34.31 -3.75) (layer F.Fab) (width 0.1))
  (fp_line (start 34.31 -3.751) (end 36.81 -3.751) (layer F.SilkS) (width 0.12))
  (fp_line (start 34.31 -2.751) (end 36.81 -2.751) (layer F.SilkS) (width 0.12))
  (fp_line (start 34.31 -3.751) (end 34.31 -2.751) (layer F.SilkS) (width 0.12))
  (fp_line (start 36.81 -3.751) (end 36.81 -2.751) (layer F.SilkS) (width 0.12))
  (fp_line (start 41.778 -0.955) (end 39.686 1.138) (layer F.Fab) (width 0.1))
  (fp_line (start 41.595 -1.138) (end 39.503 0.955) (layer F.Fab) (width 0.1))
  (fp_line (start 41.915 -1.069) (end 41.821 -0.976) (layer F.SilkS) (width 0.12))
  (fp_line (start 39.63 1.216) (end 39.571 1.274) (layer F.SilkS) (width 0.12))
  (fp_line (start 41.71 -1.275) (end 41.651 -1.216) (layer F.SilkS) (width 0.12))
  (fp_line (start 39.46 0.976) (end 39.366 1.069) (layer F.SilkS) (width 0.12))
  (fp_line (start 39.39 -3.75) (end 39.39 -2.75) (layer F.Fab) (width 0.1))
  (fp_line (start 39.39 -2.75) (end 41.89 -2.75) (layer F.Fab) (width 0.1))
  (fp_line (start 41.89 -2.75) (end 41.89 -3.75) (layer F.Fab) (width 0.1))
  (fp_line (start 41.89 -3.75) (end 39.39 -3.75) (layer F.Fab) (width 0.1))
  (fp_line (start 39.39 -3.751) (end 41.89 -3.751) (layer F.SilkS) (width 0.12))
  (fp_line (start 39.39 -2.751) (end 41.89 -2.751) (layer F.SilkS) (width 0.12))
  (fp_line (start 39.39 -3.751) (end 39.39 -2.751) (layer F.SilkS) (width 0.12))
  (fp_line (start 41.89 -3.751) (end 41.89 -2.751) (layer F.SilkS) (width 0.12))
  (fp_line (start 44.47 -3.75) (end 44.47 -2.75) (layer F.Fab) (width 0.1))
  (fp_line (start 44.47 -2.75) (end 46.97 -2.75) (layer F.Fab) (width 0.1))
  (fp_line (start 46.97 -2.75) (end 46.97 -3.75) (layer F.Fab) (width 0.1))
  (fp_line (start 46.97 -3.75) (end 44.47 -3.75) (layer F.Fab) (width 0.1))
  (fp_line (start 44.47 -3.751) (end 46.97 -3.751) (layer F.SilkS) (width 0.12))
  (fp_line (start 44.47 -2.751) (end 46.97 -2.751) (layer F.SilkS) (width 0.12))
  (fp_line (start 44.47 -3.751) (end 44.47 -2.751) (layer F.SilkS) (width 0.12))
  (fp_line (start 46.97 -3.751) (end 46.97 -2.751) (layer F.SilkS) (width 0.12))
  (fp_line (start 51.938 -0.955) (end 49.846 1.138) (layer F.Fab) (width 0.1))
  (fp_line (start 51.755 -1.138) (end 49.663 0.955) (layer F.Fab) (width 0.1))
  (fp_line (start 52.075 -1.069) (end 51.981 -0.976) (layer F.SilkS) (width 0.12))
  (fp_line (start 49.79 1.216) (end 49.731 1.274) (layer F.SilkS) (width 0.12))
  (fp_line (start 51.87 -1.275) (end 51.811 -1.216) (layer F.SilkS) (width 0.12))
  (fp_line (start 49.62 0.976) (end 49.526 1.069) (layer F.SilkS) (width 0.12))
  (fp_line (start 49.55 -3.75) (end 49.55 -2.75) (layer F.Fab) (width 0.1))
  (fp_line (start 49.55 -2.75) (end 52.05 -2.75) (layer F.Fab) (width 0.1))
  (fp_line (start 52.05 -2.75) (end 52.05 -3.75) (layer F.Fab) (width 0.1))
  (fp_line (start 52.05 -3.75) (end 49.55 -3.75) (layer F.Fab) (width 0.1))
  (fp_line (start 49.55 -3.751) (end 52.05 -3.751) (layer F.SilkS) (width 0.12))
  (fp_line (start 49.55 -2.751) (end 52.05 -2.751) (layer F.SilkS) (width 0.12))
  (fp_line (start 49.55 -3.751) (end 49.55 -2.751) (layer F.SilkS) (width 0.12))
  (fp_line (start 52.05 -3.751) (end 52.05 -2.751) (layer F.SilkS) (width 0.12))
  (fp_line (start 54.63 -3.75) (end 54.63 -2.75) (layer F.Fab) (width 0.1))
  (fp_line (start 54.63 -2.75) (end 57.13 -2.75) (layer F.Fab) (width 0.1))
  (fp_line (start 57.13 -2.75) (end 57.13 -3.75) (layer F.Fab) (width 0.1))
  (fp_line (start 57.13 -3.75) (end 54.63 -3.75) (layer F.Fab) (width 0.1))
  (fp_line (start 54.63 -3.751) (end 57.13 -3.751) (layer F.SilkS) (width 0.12))
  (fp_line (start 54.63 -2.751) (end 57.13 -2.751) (layer F.SilkS) (width 0.12))
  (fp_line (start 54.63 -3.751) (end 54.63 -2.751) (layer F.SilkS) (width 0.12))
  (fp_line (start 57.13 -3.751) (end 57.13 -2.751) (layer F.SilkS) (width 0.12))
  (fp_line (start 62.098 -0.955) (end 60.006 1.138) (layer F.Fab) (width 0.1))
  (fp_line (start 61.915 -1.138) (end 59.823 0.955) (layer F.Fab) (width 0.1))
  (fp_line (start 62.235 -1.069) (end 62.141 -0.976) (layer F.SilkS) (width 0.12))
  (fp_line (start 59.95 1.216) (end 59.891 1.274) (layer F.SilkS) (width 0.12))
  (fp_line (start 62.03 -1.275) (end 61.971 -1.216) (layer F.SilkS) (width 0.12))
  (fp_line (start 59.78 0.976) (end 59.686 1.069) (layer F.SilkS) (width 0.12))
  (fp_line (start 59.71 -3.75) (end 59.71 -2.75) (layer F.Fab) (width 0.1))
  (fp_line (start 59.71 -2.75) (end 62.21 -2.75) (layer F.Fab) (width 0.1))
  (fp_line (start 62.21 -2.75) (end 62.21 -3.75) (layer F.Fab) (width 0.1))
  (fp_line (start 62.21 -3.75) (end 59.71 -3.75) (layer F.Fab) (width 0.1))
  (fp_line (start 59.71 -3.751) (end 62.21 -3.751) (layer F.SilkS) (width 0.12))
  (fp_line (start 59.71 -2.751) (end 62.21 -2.751) (layer F.SilkS) (width 0.12))
  (fp_line (start 59.71 -3.751) (end 59.71 -2.751) (layer F.SilkS) (width 0.12))
  (fp_line (start 62.21 -3.751) (end 62.21 -2.751) (layer F.SilkS) (width 0.12))
  (fp_line (start 64.79 -3.75) (end 64.79 -2.75) (layer F.Fab) (width 0.1))
  (fp_line (start 64.79 -2.75) (end 67.29 -2.75) (layer F.Fab) (width 0.1))
  (fp_line (start 67.29 -2.75) (end 67.29 -3.75) (layer F.Fab) (width 0.1))
  (fp_line (start 67.29 -3.75) (end 64.79 -3.75) (layer F.Fab) (width 0.1))
  (fp_line (start 64.791 -3.751) (end 67.29 -3.751) (layer F.SilkS) (width 0.12))
  (fp_line (start 64.791 -2.751) (end 67.29 -2.751) (layer F.SilkS) (width 0.12))
  (fp_line (start 64.791 -3.751) (end 64.791 -2.751) (layer F.SilkS) (width 0.12))
  (fp_line (start 67.29 -3.751) (end 67.29 -2.751) (layer F.SilkS) (width 0.12))
  (fp_line (start 72.258 -0.955) (end 70.166 1.138) (layer F.Fab) (width 0.1))
  (fp_line (start 72.075 -1.138) (end 69.983 0.955) (layer F.Fab) (width 0.1))
  (fp_line (start 72.395 -1.069) (end 72.301 -0.976) (layer F.SilkS) (width 0.12))
  (fp_line (start 70.11 1.216) (end 70.051 1.274) (layer F.SilkS) (width 0.12))
  (fp_line (start 72.19 -1.275) (end 72.131 -1.216) (layer F.SilkS) (width 0.12))
  (fp_line (start 69.94 0.976) (end 69.846 1.069) (layer F.SilkS) (width 0.12))
  (fp_line (start 69.87 -3.75) (end 69.87 -2.75) (layer F.Fab) (width 0.1))
  (fp_line (start 69.87 -2.75) (end 72.37 -2.75) (layer F.Fab) (width 0.1))
  (fp_line (start 72.37 -2.75) (end 72.37 -3.75) (layer F.Fab) (width 0.1))
  (fp_line (start 72.37 -3.75) (end 69.87 -3.75) (layer F.Fab) (width 0.1))
  (fp_line (start 69.87 -3.751) (end 72.37 -3.751) (layer F.SilkS) (width 0.12))
  (fp_line (start 69.87 -2.751) (end 72.37 -2.751) (layer F.SilkS) (width 0.12))
  (fp_line (start 69.87 -3.751) (end 69.87 -2.751) (layer F.SilkS) (width 0.12))
  (fp_line (start 72.37 -3.751) (end 72.37 -2.751) (layer F.SilkS) (width 0.12))
  (fp_line (start 74.95 -3.75) (end 74.95 -2.75) (layer F.Fab) (width 0.1))
  (fp_line (start 74.95 -2.75) (end 77.45 -2.75) (layer F.Fab) (width 0.1))
  (fp_line (start 77.45 -2.75) (end 77.45 -3.75) (layer F.Fab) (width 0.1))
  (fp_line (start 77.45 -3.75) (end 74.95 -3.75) (layer F.Fab) (width 0.1))
  (fp_line (start 74.95 -3.751) (end 77.45 -3.751) (layer F.SilkS) (width 0.12))
  (fp_line (start 74.95 -2.751) (end 77.45 -2.751) (layer F.SilkS) (width 0.12))
  (fp_line (start 74.95 -3.751) (end 74.95 -2.751) (layer F.SilkS) (width 0.12))
  (fp_line (start 77.45 -3.751) (end 77.45 -2.751) (layer F.SilkS) (width 0.12))
  (fp_line (start 82.418 -0.955) (end 80.326 1.138) (layer F.Fab) (width 0.1))
  (fp_line (start 82.235 -1.138) (end 80.143 0.955) (layer F.Fab) (width 0.1))
  (fp_line (start 82.555 -1.069) (end 82.461 -0.976) (layer F.SilkS) (width 0.12))
  (fp_line (start 80.27 1.216) (end 80.211 1.274) (layer F.SilkS) (width 0.12))
  (fp_line (start 82.35 -1.275) (end 82.291 -1.216) (layer F.SilkS) (width 0.12))
  (fp_line (start 80.1 0.976) (end 80.006 1.069) (layer F.SilkS) (width 0.12))
  (fp_line (start 80.03 -3.75) (end 80.03 -2.75) (layer F.Fab) (width 0.1))
  (fp_line (start 80.03 -2.75) (end 82.53 -2.75) (layer F.Fab) (width 0.1))
  (fp_line (start 82.53 -2.75) (end 82.53 -3.75) (layer F.Fab) (width 0.1))
  (fp_line (start 82.53 -3.75) (end 80.03 -3.75) (layer F.Fab) (width 0.1))
  (fp_line (start 80.03 -3.751) (end 82.53 -3.751) (layer F.SilkS) (width 0.12))
  (fp_line (start 80.03 -2.751) (end 82.53 -2.751) (layer F.SilkS) (width 0.12))
  (fp_line (start 80.03 -3.751) (end 80.03 -2.751) (layer F.SilkS) (width 0.12))
  (fp_line (start 82.53 -3.751) (end 82.53 -2.751) (layer F.SilkS) (width 0.12))
  (fp_line (start 85.11 -3.75) (end 85.11 -2.75) (layer F.Fab) (width 0.1))
  (fp_line (start 85.11 -2.75) (end 87.61 -2.75) (layer F.Fab) (width 0.1))
  (fp_line (start 87.61 -2.75) (end 87.61 -3.75) (layer F.Fab) (width 0.1))
  (fp_line (start 87.61 -3.75) (end 85.11 -3.75) (layer F.Fab) (width 0.1))
  (fp_line (start 85.11 -3.751) (end 87.61 -3.751) (layer F.SilkS) (width 0.12))
  (fp_line (start 85.11 -2.751) (end 87.61 -2.751) (layer F.SilkS) (width 0.12))
  (fp_line (start 85.11 -3.751) (end 85.11 -2.751) (layer F.SilkS) (width 0.12))
  (fp_line (start 87.61 -3.751) (end 87.61 -2.751) (layer F.SilkS) (width 0.12))
  (fp_line (start 92.578 -0.955) (end 90.486 1.138) (layer F.Fab) (width 0.1))
  (fp_line (start 92.395 -1.138) (end 90.303 0.955) (layer F.Fab) (width 0.1))
  (fp_line (start 92.715 -1.069) (end 92.621 -0.976) (layer F.SilkS) (width 0.12))
  (fp_line (start 90.43 1.216) (end 90.371 1.274) (layer F.SilkS) (width 0.12))
  (fp_line (start 92.51 -1.275) (end 92.451 -1.216) (layer F.SilkS) (width 0.12))
  (fp_line (start 90.26 0.976) (end 90.166 1.069) (layer F.SilkS) (width 0.12))
  (fp_line (start 90.19 -3.75) (end 90.19 -2.75) (layer F.Fab) (width 0.1))
  (fp_line (start 90.19 -2.75) (end 92.69 -2.75) (layer F.Fab) (width 0.1))
  (fp_line (start 92.69 -2.75) (end 92.69 -3.75) (layer F.Fab) (width 0.1))
  (fp_line (start 92.69 -3.75) (end 90.19 -3.75) (layer F.Fab) (width 0.1))
  (fp_line (start 90.19 -3.751) (end 92.69 -3.751) (layer F.SilkS) (width 0.12))
  (fp_line (start 90.19 -2.751) (end 92.69 -2.751) (layer F.SilkS) (width 0.12))
  (fp_line (start 90.19 -3.751) (end 90.19 -2.751) (layer F.SilkS) (width 0.12))
  (fp_line (start 92.69 -3.751) (end 92.69 -2.751) (layer F.SilkS) (width 0.12))
  (fp_line (start 95.27 -3.75) (end 95.27 -2.75) (layer F.Fab) (width 0.1))
  (fp_line (start 95.27 -2.75) (end 97.77 -2.75) (layer F.Fab) (width 0.1))
  (fp_line (start 97.77 -2.75) (end 97.77 -3.75) (layer F.Fab) (width 0.1))
  (fp_line (start 97.77 -3.75) (end 95.27 -3.75) (layer F.Fab) (width 0.1))
  (fp_line (start 95.27 -3.751) (end 97.77 -3.751) (layer F.SilkS) (width 0.12))
  (fp_line (start 95.27 -2.751) (end 97.77 -2.751) (layer F.SilkS) (width 0.12))
  (fp_line (start 95.27 -3.751) (end 95.27 -2.751) (layer F.SilkS) (width 0.12))
  (fp_line (start 97.77 -3.751) (end 97.77 -2.751) (layer F.SilkS) (width 0.12))
  (fp_line (start 102.738 -0.955) (end 100.646 1.138) (layer F.Fab) (width 0.1))
  (fp_line (start 102.555 -1.138) (end 100.463 0.955) (layer F.Fab) (width 0.1))
  (fp_line (start 102.875 -1.069) (end 102.781 -0.976) (layer F.SilkS) (width 0.12))
  (fp_line (start 100.59 1.216) (end 100.531 1.274) (layer F.SilkS) (width 0.12))
  (fp_line (start 102.67 -1.275) (end 102.611 -1.216) (layer F.SilkS) (width 0.12))
  (fp_line (start 100.42 0.976) (end 100.326 1.069) (layer F.SilkS) (width 0.12))
  (fp_line (start 100.35 -3.75) (end 100.35 -2.75) (layer F.Fab) (width 0.1))
  (fp_line (start 100.35 -2.75) (end 102.85 -2.75) (layer F.Fab) (width 0.1))
  (fp_line (start 102.85 -2.75) (end 102.85 -3.75) (layer F.Fab) (width 0.1))
  (fp_line (start 102.85 -3.75) (end 100.35 -3.75) (layer F.Fab) (width 0.1))
  (fp_line (start 100.35 -3.751) (end 102.85 -3.751) (layer F.SilkS) (width 0.12))
  (fp_line (start 100.35 -2.751) (end 102.85 -2.751) (layer F.SilkS) (width 0.12))
  (fp_line (start 100.35 -3.751) (end 100.35 -2.751) (layer F.SilkS) (width 0.12))
  (fp_line (start 102.85 -3.751) (end 102.85 -2.751) (layer F.SilkS) (width 0.12))
  (fp_line (start 105.43 -3.75) (end 105.43 -2.75) (layer F.Fab) (width 0.1))
  (fp_line (start 105.43 -2.75) (end 107.93 -2.75) (layer F.Fab) (width 0.1))
  (fp_line (start 107.93 -2.75) (end 107.93 -3.75) (layer F.Fab) (width 0.1))
  (fp_line (start 107.93 -3.75) (end 105.43 -3.75) (layer F.Fab) (width 0.1))
  (fp_line (start 105.43 -3.751) (end 107.93 -3.751) (layer F.SilkS) (width 0.12))
  (fp_line (start 105.43 -2.751) (end 107.93 -2.751) (layer F.SilkS) (width 0.12))
  (fp_line (start 105.43 -3.751) (end 105.43 -2.751) (layer F.SilkS) (width 0.12))
  (fp_line (start 107.93 -3.751) (end 107.93 -2.751) (layer F.SilkS) (width 0.12))
  (fp_line (start 112.898 -0.955) (end 110.806 1.138) (layer F.Fab) (width 0.1))
  (fp_line (start 112.715 -1.138) (end 110.623 0.955) (layer F.Fab) (width 0.1))
  (fp_line (start 113.035 -1.069) (end 112.941 -0.976) (layer F.SilkS) (width 0.12))
  (fp_line (start 110.75 1.216) (end 110.691 1.274) (layer F.SilkS) (width 0.12))
  (fp_line (start 112.83 -1.275) (end 112.771 -1.216) (layer F.SilkS) (width 0.12))
  (fp_line (start 110.58 0.976) (end 110.486 1.069) (layer F.SilkS) (width 0.12))
  (fp_line (start 110.51 -3.75) (end 110.51 -2.75) (layer F.Fab) (width 0.1))
  (fp_line (start 110.51 -2.75) (end 113.01 -2.75) (layer F.Fab) (width 0.1))
  (fp_line (start 113.01 -2.75) (end 113.01 -3.75) (layer F.Fab) (width 0.1))
  (fp_line (start 113.01 -3.75) (end 110.51 -3.75) (layer F.Fab) (width 0.1))
  (fp_line (start 110.51 -3.751) (end 113.01 -3.751) (layer F.SilkS) (width 0.12))
  (fp_line (start 110.51 -2.751) (end 113.01 -2.751) (layer F.SilkS) (width 0.12))
  (fp_line (start 110.51 -3.751) (end 110.51 -2.751) (layer F.SilkS) (width 0.12))
  (fp_line (start 113.01 -3.751) (end 113.01 -2.751) (layer F.SilkS) (width 0.12))
  (fp_line (start -2.84 4.01) (end -2.84 4.85) (layer F.SilkS) (width 0.12))
  (fp_line (start -2.84 4.85) (end -2.24 4.85) (layer F.SilkS) (width 0.12))
  (fp_line (start -3.04 -4.26) (end -3.04 5.05) (layer F.CrtYd) (width 0.05))
  (fp_line (start -3.04 5.05) (end 114.8 5.05) (layer F.CrtYd) (width 0.05))
  (fp_line (start 114.8 5.05) (end 114.8 -4.26) (layer F.CrtYd) (width 0.05))
  (fp_line (start 114.8 -4.26) (end -3.04 -4.26) (layer F.CrtYd) (width 0.05))
  (pad 1 thru_hole rect (at 0 0) (size 2.5 2.5) (drill 1.3) (layers *.Cu *.Mask))
  (pad 2 thru_hole circle (at 10.16 0) (size 2.5 2.5) (drill 1.3) (layers *.Cu *.Mask))
  (pad 3 thru_hole circle (at 20.32 0) (size 2.5 2.5) (drill 1.3) (layers *.Cu *.Mask))
  (pad 4 thru_hole circle (at 30.48 0) (size 2.5 2.5) (drill 1.3) (layers *.Cu *.Mask))
  (pad 5 thru_hole circle (at 40.64 0) (size 2.5 2.5) (drill 1.3) (layers *.Cu *.Mask))
  (pad 6 thru_hole circle (at 50.8 0) (size 2.5 2.5) (drill 1.3) (layers *.Cu *.Mask))
  (pad 7 thru_hole circle (at 60.96 0) (size 2.5 2.5) (drill 1.3) (layers *.Cu *.Mask))
  (pad 8 thru_hole circle (at 71.12 0) (size 2.5 2.5) (drill 1.3) (layers *.Cu *.Mask))
  (pad 9 thru_hole circle (at 81.28 0) (size 2.5 2.5) (drill 1.3) (layers *.Cu *.Mask))
  (pad 10 thru_hole circle (at 91.44 0) (size 2.5 2.5) (drill 1.3) (layers *.Cu *.Mask))
  (pad 11 thru_hole circle (at 101.6 0) (size 2.5 2.5) (drill 1.3) (layers *.Cu *.Mask))
  (pad 12 thru_hole circle (at 111.76 0) (size 2.5 2.5) (drill 1.3) (layers *.Cu *.Mask))
  (fp_text user %R (at 55.88 -4.81) (layer F.Fab)
    (effects (font (size 1 1) (thickness 0.15)))
  )
  (model ${KIPRJMOD}/kicad_libs_k/models_k.3d/TerminalBlock_RND_k.3dshapes/TerminalBlock_RND_205-00251_1x12_P10.16mm_Horizontal_k.wrl
    (at (xyz 0 0 0))
    (scale (xyz 1 1 1))
    (rotate (xyz 0 0 0))
  )
)