(module WA-SMSI_rev19a-WA-SMSI_9774050482 (layer F.Cu) (tedit 200000)
  (descr "WA-SMSI SMT STEEL SPACER, M4 THREAD INTERNAL")
  (tags "WA-SMSI SMT STEEL SPACER, M4 THREAD INTERNAL")
  (attr smd)
  (fp_text reference >NAME (at 0 -5.8039) (layer F.SilkS)
    (effects (font (size 0.8128 0.8128) (thickness 0.0762)))
  )
  (fp_text value >VALUE (at 0.43688 5.7912) (layer F.SilkS)
    (effects (font (size 0.8128 0.8128) (thickness 0.0762)))
  )
  (fp_poly (pts (xy -0.39878 -4.61772) (xy -0.39878 -2.70764) (xy -0.41402 -2.70764) (xy -0.4699 -2.69748)
    (xy -0.59436 -2.67462) (xy -0.6985 -2.64922) (xy -0.81788 -2.61366) (xy -0.9398 -2.57302)
    (xy -1.0541 -2.52984) (xy -1.20904 -2.45872) (xy -1.34366 -2.3876) (xy -1.45796 -2.31902)
    (xy -1.5748 -2.24282) (xy -1.67386 -2.16916) (xy -1.778 -2.0828) (xy -1.88468 -1.98882)
    (xy -1.99898 -1.87452) (xy -2.0828 -1.778) (xy -2.16916 -1.67386) (xy -2.23774 -1.57988)
    (xy -2.30378 -1.48336) (xy -2.36474 -1.3843) (xy -2.43332 -1.25984) (xy -2.4892 -1.14808)
    (xy -2.54254 -1.01854) (xy -2.5781 -0.92456) (xy -2.62382 -0.78994) (xy -2.65938 -0.66294)
    (xy -2.68478 -0.55372) (xy -2.70256 -0.43942) (xy -2.70764 -0.39878) (xy -4.61772 -0.39878)
    (xy -4.61264 -0.43942) (xy -4.60756 -0.48768) (xy -4.59994 -0.56388) (xy -4.58978 -0.65278)
    (xy -4.57454 -0.74422) (xy -4.5593 -0.8382) (xy -4.54406 -0.9144) (xy -4.5339 -0.96266)
    (xy -4.51866 -1.0287) (xy -4.49834 -1.11252) (xy -4.47294 -1.21412) (xy -4.44754 -1.29794)
    (xy -4.4196 -1.39954) (xy -4.38912 -1.48844) (xy -4.35864 -1.5748) (xy -4.32816 -1.65354)
    (xy -4.30276 -1.71958) (xy -4.26466 -1.81864) (xy -4.21386 -1.92786) (xy -4.1783 -2.00406)
    (xy -4.13766 -2.0828) (xy -4.09448 -2.17424) (xy -4.03352 -2.28346) (xy -3.95986 -2.40792)
    (xy -3.89382 -2.5146) (xy -3.83286 -2.6035) (xy -3.7846 -2.67462) (xy -3.7338 -2.7432)
    (xy -3.67284 -2.82448) (xy -3.6195 -2.89306) (xy -3.54838 -2.97942) (xy -3.46456 -3.07848)
    (xy -3.38836 -3.15976) (xy -3.31978 -3.23342) (xy -3.2385 -3.3147) (xy -3.16484 -3.38328)
    (xy -3.08864 -3.4544) (xy -2.97942 -3.54838) (xy -2.87274 -3.63474) (xy -2.75844 -3.72364)
    (xy -2.63906 -3.81) (xy -2.5146 -3.89382) (xy -2.39268 -3.96748) (xy -2.26314 -4.04368)
    (xy -2.17424 -4.09448) (xy -2.05486 -4.1529) (xy -1.9431 -4.20878) (xy -1.83896 -4.2545)
    (xy -1.74498 -4.2926) (xy -1.60274 -4.34848) (xy -1.48844 -4.38912) (xy -1.35382 -4.43484)
    (xy -1.22936 -4.46786) (xy -1.09474 -4.50342) (xy -0.95758 -4.5339) (xy -0.83312 -4.5593)
    (xy -0.71882 -4.57962) (xy -0.6096 -4.59486) (xy -0.48768 -4.60756) (xy -0.39878 -4.61772)) (layer F.Paste) (width 0.00762))
  (fp_poly (pts (xy -4.61772 0.39878) (xy -2.70764 0.39878) (xy -2.70764 0.41402) (xy -2.69748 0.4699)
    (xy -2.67462 0.59436) (xy -2.64922 0.6985) (xy -2.61366 0.81788) (xy -2.57302 0.9398)
    (xy -2.52984 1.0541) (xy -2.45872 1.20904) (xy -2.3876 1.34366) (xy -2.31902 1.45796)
    (xy -2.24282 1.5748) (xy -2.16916 1.67386) (xy -2.0828 1.778) (xy -1.98882 1.88468)
    (xy -1.87452 1.99898) (xy -1.778 2.0828) (xy -1.67386 2.16916) (xy -1.57988 2.23774)
    (xy -1.48336 2.30378) (xy -1.3843 2.36474) (xy -1.25984 2.43332) (xy -1.14808 2.4892)
    (xy -1.01854 2.54254) (xy -0.92456 2.5781) (xy -0.78994 2.62382) (xy -0.66294 2.65938)
    (xy -0.55372 2.68478) (xy -0.43942 2.70256) (xy -0.39878 2.70764) (xy -0.39878 4.61772)
    (xy -0.43942 4.61264) (xy -0.48768 4.60756) (xy -0.56388 4.59994) (xy -0.65278 4.58978)
    (xy -0.74422 4.57454) (xy -0.8382 4.5593) (xy -0.9144 4.54406) (xy -0.96266 4.5339)
    (xy -1.0287 4.51866) (xy -1.11252 4.49834) (xy -1.21412 4.47294) (xy -1.29794 4.44754)
    (xy -1.39954 4.4196) (xy -1.48844 4.38912) (xy -1.5748 4.35864) (xy -1.65354 4.32816)
    (xy -1.71958 4.30276) (xy -1.81864 4.26466) (xy -1.92786 4.21386) (xy -2.00406 4.1783)
    (xy -2.0828 4.13766) (xy -2.17424 4.09448) (xy -2.28346 4.03352) (xy -2.40792 3.95986)
    (xy -2.5146 3.89382) (xy -2.6035 3.83286) (xy -2.67462 3.7846) (xy -2.7432 3.7338)
    (xy -2.82448 3.67284) (xy -2.89306 3.6195) (xy -2.97942 3.54838) (xy -3.07848 3.46456)
    (xy -3.15976 3.38836) (xy -3.23342 3.31978) (xy -3.3147 3.2385) (xy -3.38328 3.16484)
    (xy -3.4544 3.08864) (xy -3.54838 2.97942) (xy -3.63474 2.87274) (xy -3.72364 2.75844)
    (xy -3.81 2.63906) (xy -3.89382 2.5146) (xy -3.96748 2.39268) (xy -4.04368 2.26314)
    (xy -4.09448 2.17424) (xy -4.1529 2.05486) (xy -4.20878 1.9431) (xy -4.2545 1.83896)
    (xy -4.2926 1.74498) (xy -4.34848 1.60274) (xy -4.38912 1.48844) (xy -4.43484 1.35382)
    (xy -4.46786 1.22936) (xy -4.50342 1.09474) (xy -4.5339 0.95758) (xy -4.5593 0.83312)
    (xy -4.57962 0.71882) (xy -4.59486 0.6096) (xy -4.60756 0.48768) (xy -4.61772 0.39878)) (layer F.Paste) (width 0.00762))
  (fp_poly (pts (xy 0.39878 4.61772) (xy 0.39878 2.70764) (xy 0.41402 2.70764) (xy 0.4699 2.69748)
    (xy 0.59436 2.67462) (xy 0.6985 2.64922) (xy 0.81788 2.61366) (xy 0.9398 2.57302)
    (xy 1.0541 2.52984) (xy 1.20904 2.45872) (xy 1.34366 2.3876) (xy 1.45796 2.31902)
    (xy 1.5748 2.24282) (xy 1.67386 2.16916) (xy 1.778 2.0828) (xy 1.88468 1.98882)
    (xy 1.99898 1.87452) (xy 2.0828 1.778) (xy 2.16916 1.67386) (xy 2.23774 1.57988)
    (xy 2.30378 1.48336) (xy 2.36474 1.3843) (xy 2.43332 1.25984) (xy 2.4892 1.14808)
    (xy 2.54254 1.01854) (xy 2.5781 0.92456) (xy 2.62382 0.78994) (xy 2.65938 0.66294)
    (xy 2.68478 0.55372) (xy 2.70256 0.43942) (xy 2.70764 0.39878) (xy 4.61772 0.39878)
    (xy 4.61264 0.43942) (xy 4.60756 0.48768) (xy 4.59994 0.56388) (xy 4.58978 0.65278)
    (xy 4.57454 0.74422) (xy 4.5593 0.8382) (xy 4.54406 0.9144) (xy 4.5339 0.96266)
    (xy 4.51866 1.0287) (xy 4.49834 1.11252) (xy 4.47294 1.21412) (xy 4.44754 1.29794)
    (xy 4.4196 1.39954) (xy 4.38912 1.48844) (xy 4.35864 1.5748) (xy 4.32816 1.65354)
    (xy 4.30276 1.71958) (xy 4.26466 1.81864) (xy 4.21386 1.92786) (xy 4.1783 2.00406)
    (xy 4.13766 2.0828) (xy 4.09448 2.17424) (xy 4.03352 2.28346) (xy 3.95986 2.40792)
    (xy 3.89382 2.5146) (xy 3.83286 2.6035) (xy 3.7846 2.67462) (xy 3.7338 2.7432)
    (xy 3.67284 2.82448) (xy 3.6195 2.89306) (xy 3.54838 2.97942) (xy 3.46456 3.07848)
    (xy 3.38836 3.15976) (xy 3.31978 3.23342) (xy 3.2385 3.3147) (xy 3.16484 3.38328)
    (xy 3.08864 3.4544) (xy 2.97942 3.54838) (xy 2.87274 3.63474) (xy 2.75844 3.72364)
    (xy 2.63906 3.81) (xy 2.5146 3.89382) (xy 2.39268 3.96748) (xy 2.26314 4.04368)
    (xy 2.17424 4.09448) (xy 2.05486 4.1529) (xy 1.9431 4.20878) (xy 1.83896 4.2545)
    (xy 1.74498 4.2926) (xy 1.60274 4.34848) (xy 1.48844 4.38912) (xy 1.35382 4.43484)
    (xy 1.22936 4.46786) (xy 1.09474 4.50342) (xy 0.95758 4.5339) (xy 0.83312 4.5593)
    (xy 0.71882 4.57962) (xy 0.6096 4.59486) (xy 0.48768 4.60756) (xy 0.39878 4.61772)) (layer F.Paste) (width 0.00762))
  (fp_poly (pts (xy 4.61772 -0.39878) (xy 2.70764 -0.39878) (xy 2.70764 -0.41402) (xy 2.69748 -0.4699)
    (xy 2.67462 -0.59436) (xy 2.64922 -0.6985) (xy 2.61366 -0.81788) (xy 2.57302 -0.9398)
    (xy 2.52984 -1.0541) (xy 2.45872 -1.20904) (xy 2.3876 -1.34366) (xy 2.31902 -1.45796)
    (xy 2.24282 -1.5748) (xy 2.16916 -1.67386) (xy 2.0828 -1.778) (xy 1.98882 -1.88468)
    (xy 1.87452 -1.99898) (xy 1.778 -2.0828) (xy 1.67386 -2.16916) (xy 1.57988 -2.23774)
    (xy 1.48336 -2.30378) (xy 1.3843 -2.36474) (xy 1.25984 -2.43332) (xy 1.14808 -2.4892)
    (xy 1.01854 -2.54254) (xy 0.92456 -2.5781) (xy 0.78994 -2.62382) (xy 0.66294 -2.65938)
    (xy 0.55372 -2.68478) (xy 0.43942 -2.70256) (xy 0.39878 -2.70764) (xy 0.39878 -4.61772)
    (xy 0.43942 -4.61264) (xy 0.48768 -4.60756) (xy 0.56388 -4.59994) (xy 0.65278 -4.58978)
    (xy 0.74422 -4.57454) (xy 0.8382 -4.5593) (xy 0.9144 -4.54406) (xy 0.96266 -4.5339)
    (xy 1.0287 -4.51866) (xy 1.11252 -4.49834) (xy 1.21412 -4.47294) (xy 1.29794 -4.44754)
    (xy 1.39954 -4.4196) (xy 1.48844 -4.38912) (xy 1.5748 -4.35864) (xy 1.65354 -4.32816)
    (xy 1.71958 -4.30276) (xy 1.81864 -4.26466) (xy 1.92786 -4.21386) (xy 2.00406 -4.1783)
    (xy 2.0828 -4.13766) (xy 2.17424 -4.09448) (xy 2.28346 -4.03352) (xy 2.40792 -3.95986)
    (xy 2.5146 -3.89382) (xy 2.6035 -3.83286) (xy 2.67462 -3.7846) (xy 2.7432 -3.7338)
    (xy 2.82448 -3.67284) (xy 2.89306 -3.6195) (xy 2.97942 -3.54838) (xy 3.07848 -3.46456)
    (xy 3.15976 -3.38836) (xy 3.23342 -3.31978) (xy 3.3147 -3.2385) (xy 3.38328 -3.16484)
    (xy 3.4544 -3.08864) (xy 3.54838 -2.97942) (xy 3.63474 -2.87274) (xy 3.72364 -2.75844)
    (xy 3.81 -2.63906) (xy 3.89382 -2.5146) (xy 3.96748 -2.39268) (xy 4.04368 -2.26314)
    (xy 4.09448 -2.17424) (xy 4.1529 -2.05486) (xy 4.20878 -1.9431) (xy 4.2545 -1.83896)
    (xy 4.2926 -1.74498) (xy 4.34848 -1.60274) (xy 4.38912 -1.48844) (xy 4.43484 -1.35382)
    (xy 4.46786 -1.22936) (xy 4.50342 -1.09474) (xy 4.5339 -0.95758) (xy 4.5593 -0.83312)
    (xy 4.57962 -0.71882) (xy 4.59486 -0.6096) (xy 4.60756 -0.48768) (xy 4.61772 -0.39878)) (layer F.Paste) (width 0.00762))
  (fp_poly (pts (xy 0 -4.89966) (xy 0.63754 -4.85648) (xy 1.26746 -4.73202) (xy 1.87452 -4.52628)
    (xy 2.44856 -4.2418) (xy 2.98196 -3.8862) (xy 3.46456 -3.46456) (xy 3.8862 -2.98196)
    (xy 4.2418 -2.44856) (xy 4.52628 -1.87452) (xy 4.73202 -1.26746) (xy 4.85648 -0.63754)
    (xy 4.89966 0) (xy 4.85648 0.63754) (xy 4.73202 1.26746) (xy 4.52628 1.87452)
    (xy 4.2418 2.44856) (xy 3.8862 2.98196) (xy 3.46456 3.46456) (xy 2.98196 3.8862)
    (xy 2.44856 4.2418) (xy 1.87452 4.52628) (xy 1.26746 4.73202) (xy 0.63754 4.85648)
    (xy 0 4.89966) (xy -0.63754 4.85648) (xy -1.26746 4.73202) (xy -1.87452 4.52628)
    (xy -2.44856 4.2418) (xy -2.98196 3.8862) (xy -3.46456 3.46456) (xy -3.8862 2.98196)
    (xy -4.2418 2.44856) (xy -4.52628 1.87452) (xy -4.73202 1.26746) (xy -4.85648 0.63754)
    (xy -4.89966 0) (xy -4.85648 -0.63754) (xy -4.73202 -1.26746) (xy -4.52628 -1.87452)
    (xy -4.2418 -2.44856) (xy -3.8862 -2.98196) (xy -3.46456 -3.46456) (xy -2.98196 -3.8862)
    (xy -2.44856 -4.2418) (xy -1.87452 -4.52628) (xy -1.26746 -4.73202) (xy -0.63754 -4.85648)
    (xy 0 -4.89966)) (layer Dwgs.User) (width 0.09906))
  (fp_circle (center 0 0) (end 0 -4.09956) (layer Dwgs.User) (width 0.09906))
  (pad 1 smd circle (at 0 0) (size 9.398 9.398) (layers F.Cu F.Paste F.Mask))
  (pad "" np_thru_hole circle (at 0 0) (size 5.3975 5.3975) (drill 5.3975) (layers *.Cu *.Mask))
)
