(module WA-SMSI_rev19a-WA-SMSI_9774070360 (layer F.Cu) (tedit 200000)
  (descr "WA-SMSI SMT STEEL SPACER, M3 THREAD INTERNAL")
  (tags "WA-SMSI SMT STEEL SPACER, M3 THREAD INTERNAL")
  (attr smd)
  (fp_text reference >NAME (at 0.0508 -5.0673) (layer F.SilkS)
    (effects (font (size 1.27 1.27) (thickness 0.1016)))
  )
  (fp_text value >VALUE (at 0.18542 4.72694) (layer F.SilkS)
    (effects (font (size 1.27 1.27) (thickness 0.1016)))
  )
  (fp_poly (pts (xy -0.39878 -3.61442) (xy -0.39878 -2.40792) (xy -0.43942 -2.39776) (xy -0.51816 -2.38252)
    (xy -0.62484 -2.35966) (xy -0.72898 -2.32918) (xy -0.84328 -2.28854) (xy -0.95758 -2.24282)
    (xy -1.03378 -2.2098) (xy -1.10998 -2.17424) (xy -1.17348 -2.13868) (xy -1.2446 -2.09804)
    (xy -1.3081 -2.05994) (xy -1.3843 -2.00914) (xy -1.45288 -1.95834) (xy -1.51892 -1.90754)
    (xy -1.57988 -1.85928) (xy -1.65862 -1.78816) (xy -1.71958 -1.72974) (xy -1.78816 -1.65862)
    (xy -1.8542 -1.58496) (xy -1.91262 -1.51384) (xy -1.95834 -1.45288) (xy -2.0193 -1.36906)
    (xy -2.07264 -1.2827) (xy -2.12344 -1.19888) (xy -2.1844 -1.08966) (xy -2.2225 -1.0033)
    (xy -2.26314 -0.90932) (xy -2.2987 -0.81788) (xy -2.32918 -0.72898) (xy -2.35458 -0.63754)
    (xy -2.3749 -0.56388) (xy -2.39268 -0.4699) (xy -2.40284 -0.4191) (xy -2.40792 -0.39878)
    (xy -3.61442 -0.39878) (xy -3.60426 -0.46482) (xy -3.5941 -0.54356) (xy -3.57886 -0.635)
    (xy -3.55854 -0.73914) (xy -3.53822 -0.82296) (xy -3.5179 -0.90932) (xy -3.4925 -1.0033)
    (xy -3.45948 -1.1176) (xy -3.41884 -1.23444) (xy -3.3782 -1.33858) (xy -3.33248 -1.4478)
    (xy -3.27406 -1.57988) (xy -3.21818 -1.6891) (xy -3.14452 -1.82372) (xy -3.0734 -1.93802)
    (xy -2.99466 -2.05994) (xy -2.92354 -2.159) (xy -2.85496 -2.2479) (xy -2.78384 -2.33426)
    (xy -2.72288 -2.40284) (xy -2.66954 -2.4638) (xy -2.57302 -2.56286) (xy -2.49428 -2.64414)
    (xy -2.40284 -2.72288) (xy -2.29362 -2.8194) (xy -2.18948 -2.89814) (xy -2.06756 -2.98958)
    (xy -1.9685 -3.05308) (xy -1.84912 -3.12928) (xy -1.73482 -3.19278) (xy -1.61798 -3.25374)
    (xy -1.47828 -3.31978) (xy -1.36398 -3.36804) (xy -1.2192 -3.42392) (xy -1.08966 -3.46964)
    (xy -0.92964 -3.51282) (xy -0.75946 -3.55346) (xy -0.60452 -3.58394) (xy -0.4699 -3.60426)
    (xy -0.39878 -3.61442)) (layer F.Paste) (width 0.00762))
  (fp_poly (pts (xy 0.39878 3.61442) (xy 0.39878 2.40792) (xy 0.43942 2.39776) (xy 0.51816 2.38252)
    (xy 0.62484 2.35966) (xy 0.72898 2.32918) (xy 0.84328 2.28854) (xy 0.95758 2.24282)
    (xy 1.03378 2.2098) (xy 1.10998 2.17424) (xy 1.17348 2.13868) (xy 1.2446 2.09804)
    (xy 1.3081 2.05994) (xy 1.3843 2.00914) (xy 1.45288 1.95834) (xy 1.51892 1.90754)
    (xy 1.57988 1.85928) (xy 1.65862 1.78816) (xy 1.71958 1.72974) (xy 1.78816 1.65862)
    (xy 1.8542 1.58496) (xy 1.91262 1.51384) (xy 1.95834 1.45288) (xy 2.0193 1.36906)
    (xy 2.07264 1.2827) (xy 2.12344 1.19888) (xy 2.1844 1.08966) (xy 2.2225 1.0033)
    (xy 2.26314 0.90932) (xy 2.2987 0.81788) (xy 2.32918 0.72898) (xy 2.35458 0.63754)
    (xy 2.3749 0.56388) (xy 2.39268 0.4699) (xy 2.40284 0.4191) (xy 2.40792 0.39878)
    (xy 3.61442 0.39878) (xy 3.60426 0.46482) (xy 3.5941 0.54356) (xy 3.57886 0.635)
    (xy 3.55854 0.73914) (xy 3.53822 0.82296) (xy 3.5179 0.90932) (xy 3.4925 1.0033)
    (xy 3.45948 1.1176) (xy 3.41884 1.23444) (xy 3.3782 1.33858) (xy 3.33248 1.4478)
    (xy 3.27406 1.57988) (xy 3.21818 1.6891) (xy 3.14452 1.82372) (xy 3.0734 1.93802)
    (xy 2.99466 2.05994) (xy 2.92354 2.159) (xy 2.85496 2.2479) (xy 2.78384 2.33426)
    (xy 2.72288 2.40284) (xy 2.66954 2.4638) (xy 2.57302 2.56286) (xy 2.49428 2.64414)
    (xy 2.40284 2.72288) (xy 2.29362 2.8194) (xy 2.18948 2.89814) (xy 2.06756 2.98958)
    (xy 1.9685 3.05308) (xy 1.84912 3.12928) (xy 1.73482 3.19278) (xy 1.61798 3.25374)
    (xy 1.47828 3.31978) (xy 1.36398 3.36804) (xy 1.2192 3.42392) (xy 1.08966 3.46964)
    (xy 0.92964 3.51282) (xy 0.75946 3.55346) (xy 0.60452 3.58394) (xy 0.4699 3.60426)
    (xy 0.39878 3.61442)) (layer F.Paste) (width 0.00762))
  (fp_poly (pts (xy -3.61442 0.39878) (xy -2.40792 0.39878) (xy -2.39776 0.43942) (xy -2.38252 0.51816)
    (xy -2.35966 0.62484) (xy -2.32918 0.72898) (xy -2.28854 0.84328) (xy -2.24282 0.95758)
    (xy -2.2098 1.03378) (xy -2.17424 1.10998) (xy -2.13868 1.17348) (xy -2.09804 1.2446)
    (xy -2.05994 1.3081) (xy -2.00914 1.3843) (xy -1.95834 1.45288) (xy -1.90754 1.51892)
    (xy -1.85928 1.57988) (xy -1.78816 1.65862) (xy -1.72974 1.71958) (xy -1.65862 1.78816)
    (xy -1.58496 1.8542) (xy -1.51384 1.91262) (xy -1.45288 1.95834) (xy -1.36906 2.0193)
    (xy -1.2827 2.07264) (xy -1.19888 2.12344) (xy -1.08966 2.1844) (xy -1.0033 2.2225)
    (xy -0.90932 2.26314) (xy -0.81788 2.2987) (xy -0.72898 2.32918) (xy -0.63754 2.35458)
    (xy -0.56388 2.3749) (xy -0.4699 2.39268) (xy -0.4191 2.40284) (xy -0.39878 2.40792)
    (xy -0.39878 3.61442) (xy -0.46482 3.60426) (xy -0.54356 3.5941) (xy -0.635 3.57886)
    (xy -0.73914 3.55854) (xy -0.82296 3.53822) (xy -0.90932 3.5179) (xy -1.0033 3.4925)
    (xy -1.1176 3.45948) (xy -1.23444 3.41884) (xy -1.33858 3.3782) (xy -1.4478 3.33248)
    (xy -1.57988 3.27406) (xy -1.6891 3.21818) (xy -1.82372 3.14452) (xy -1.93802 3.0734)
    (xy -2.05994 2.99466) (xy -2.159 2.92354) (xy -2.2479 2.85496) (xy -2.33426 2.78384)
    (xy -2.40284 2.72288) (xy -2.4638 2.66954) (xy -2.56286 2.57302) (xy -2.64414 2.49428)
    (xy -2.72288 2.40284) (xy -2.8194 2.29362) (xy -2.89814 2.18948) (xy -2.98958 2.06756)
    (xy -3.05308 1.9685) (xy -3.12928 1.84912) (xy -3.19278 1.73482) (xy -3.25374 1.61798)
    (xy -3.31978 1.47828) (xy -3.36804 1.36398) (xy -3.42392 1.2192) (xy -3.46964 1.08966)
    (xy -3.51282 0.92964) (xy -3.55346 0.75946) (xy -3.58394 0.60452) (xy -3.60426 0.4699)
    (xy -3.61442 0.39878)) (layer F.Paste) (width 0.00762))
  (fp_poly (pts (xy 3.61442 -0.39878) (xy 2.40792 -0.39878) (xy 2.39776 -0.43942) (xy 2.38252 -0.51816)
    (xy 2.35966 -0.62484) (xy 2.32918 -0.72898) (xy 2.28854 -0.84328) (xy 2.24282 -0.95758)
    (xy 2.2098 -1.03378) (xy 2.17424 -1.10998) (xy 2.13868 -1.17348) (xy 2.09804 -1.2446)
    (xy 2.05994 -1.3081) (xy 2.00914 -1.3843) (xy 1.95834 -1.45288) (xy 1.90754 -1.51892)
    (xy 1.85928 -1.57988) (xy 1.78816 -1.65862) (xy 1.72974 -1.71958) (xy 1.65862 -1.78816)
    (xy 1.58496 -1.8542) (xy 1.51384 -1.91262) (xy 1.45288 -1.95834) (xy 1.36906 -2.0193)
    (xy 1.2827 -2.07264) (xy 1.19888 -2.12344) (xy 1.08966 -2.1844) (xy 1.0033 -2.2225)
    (xy 0.90932 -2.26314) (xy 0.81788 -2.2987) (xy 0.72898 -2.32918) (xy 0.63754 -2.35458)
    (xy 0.56388 -2.3749) (xy 0.4699 -2.39268) (xy 0.4191 -2.40284) (xy 0.39878 -2.40792)
    (xy 0.39878 -3.61442) (xy 0.46482 -3.60426) (xy 0.54356 -3.5941) (xy 0.635 -3.57886)
    (xy 0.73914 -3.55854) (xy 0.82296 -3.53822) (xy 0.90932 -3.5179) (xy 1.0033 -3.4925)
    (xy 1.1176 -3.45948) (xy 1.23444 -3.41884) (xy 1.33858 -3.3782) (xy 1.4478 -3.33248)
    (xy 1.57988 -3.27406) (xy 1.6891 -3.21818) (xy 1.82372 -3.14452) (xy 1.93802 -3.0734)
    (xy 2.05994 -2.99466) (xy 2.159 -2.92354) (xy 2.2479 -2.85496) (xy 2.33426 -2.78384)
    (xy 2.40284 -2.72288) (xy 2.4638 -2.66954) (xy 2.56286 -2.57302) (xy 2.64414 -2.49428)
    (xy 2.72288 -2.40284) (xy 2.8194 -2.29362) (xy 2.89814 -2.18948) (xy 2.98958 -2.06756)
    (xy 3.05308 -1.9685) (xy 3.12928 -1.84912) (xy 3.19278 -1.73482) (xy 3.25374 -1.61798)
    (xy 3.31978 -1.47828) (xy 3.36804 -1.36398) (xy 3.42392 -1.2192) (xy 3.46964 -1.08966)
    (xy 3.51282 -0.92964) (xy 3.55346 -0.75946) (xy 3.58394 -0.60452) (xy 3.60426 -0.4699)
    (xy 3.61442 -0.39878)) (layer F.Paste) (width 0.00762))
  (fp_poly (pts (xy 0 -3.8989) (xy 0.508 -3.86588) (xy 1.00838 -3.76682) (xy 1.49098 -3.60172)
    (xy 1.94818 -3.37566) (xy 2.37236 -3.09372) (xy 2.7559 -2.7559) (xy 3.09372 -2.37236)
    (xy 3.37566 -1.94818) (xy 3.60172 -1.49098) (xy 3.76682 -1.00838) (xy 3.86588 -0.508)
    (xy 3.8989 0) (xy 3.86588 0.508) (xy 3.76682 1.00838) (xy 3.60172 1.49098)
    (xy 3.37566 1.94818) (xy 3.09372 2.37236) (xy 2.7559 2.7559) (xy 2.37236 3.09372)
    (xy 1.94818 3.37566) (xy 1.49098 3.60172) (xy 1.00838 3.76682) (xy 0.508 3.86588)
    (xy 0 3.8989) (xy -0.09906 3.8989) (xy -0.64008 3.8608) (xy -1.1684 3.74396)
    (xy -1.6764 3.556) (xy -2.15392 3.29438) (xy -2.58826 2.9718) (xy -2.9718 2.58826)
    (xy -3.29438 2.15392) (xy -3.556 1.6764) (xy -3.74396 1.1684) (xy -3.8608 0.64008)
    (xy -3.8989 0.09906) (xy -3.8989 0) (xy -3.86588 -0.508) (xy -3.76682 -1.00838)
    (xy -3.60172 -1.49098) (xy -3.37566 -1.94818) (xy -3.09372 -2.37236) (xy -2.7559 -2.7559)
    (xy -2.37236 -3.09372) (xy -1.94818 -3.37566) (xy -1.49098 -3.60172) (xy -1.00838 -3.76682)
    (xy -0.508 -3.86588) (xy 0 -3.8989) (xy 0.09906 -3.8989) (xy 0 -3.8989)) (layer Dwgs.User) (width 0.09906))
  (fp_circle (center 0 0) (end 0 -2.99974) (layer Dwgs.User) (width 0.09906))
  (pad 1 smd circle (at 0 0) (size 7.39902 7.39902) (layers F.Cu F.Paste F.Mask))
  (pad "" np_thru_hole circle (at 0 0) (size 4.39928 4.39928) (drill 4.39928) (layers *.Cu *.Mask))
)
