(module WA-SMSI_rev19a-WA-SMSI_97730256332 (layer F.Cu) (tedit 200000)
  (descr "WA-SMSI SMT STEEL SPACER WITH INTERNAL THREAD M1.6 WITH PIN")
  (tags "WA-SMSI SMT STEEL SPACER WITH INTERNAL THREAD M1.6 WITH PIN")
  (attr smd)
  (fp_text reference >NAME (at 0 -3.00736) (layer F.SilkS)
    (effects (font (size 1.016 1.016) (thickness 0.0762)))
  )
  (fp_text value >VALUE (at 0.04572 3.09118) (layer F.SilkS)
    (effects (font (size 1.016 1.016) (thickness 0.0762)))
  )
  (fp_poly (pts (xy -0.54864 -1.81864) (xy -0.54864 -0.35814) (xy -0.56896 -0.32766) (xy -0.58928 -0.2921)
    (xy -0.6096 -0.24892) (xy -0.62992 -0.19558) (xy -0.64262 -0.14478) (xy -0.65278 -0.09398)
    (xy -0.6604 -0.04318) (xy -0.6604 0.00254) (xy -0.66294 0.05334) (xy -0.65278 0.11684)
    (xy -0.63754 0.1905) (xy -0.61976 0.24892) (xy -0.58928 0.31496) (xy -0.54864 0.37846)
    (xy -0.54864 1.8161) (xy -0.60452 1.79832) (xy -0.70866 1.76276) (xy -0.80518 1.71958)
    (xy -0.9144 1.6637) (xy -0.98552 1.61798) (xy -1.04394 1.58496) (xy -1.14554 1.51384)
    (xy -1.28016 1.40462) (xy -1.41478 1.26492) (xy -1.54686 1.10744) (xy -1.63322 0.96266)
    (xy -1.72212 0.80264) (xy -1.77292 0.67056) (xy -1.81356 0.5588) (xy -1.85928 0.40386)
    (xy -1.88214 0.24384) (xy -1.89484 0.11176) (xy -1.89738 0.01016) (xy -1.89738 -0.06858)
    (xy -1.88722 -0.19812) (xy -1.86944 -0.32512) (xy -1.84404 -0.4572) (xy -1.82372 -0.53086)
    (xy -1.79578 -0.61722) (xy -1.7653 -0.70866) (xy -1.73482 -0.76962) (xy -1.70688 -0.83566)
    (xy -1.67132 -0.90424) (xy -1.6129 -1.00076) (xy -1.56972 -1.0668) (xy -1.51892 -1.14046)
    (xy -1.45796 -1.21412) (xy -1.36652 -1.31572) (xy -1.29794 -1.3843) (xy -1.21412 -1.4605)
    (xy -1.13792 -1.52146) (xy -1.02616 -1.59766) (xy -0.9017 -1.67386) (xy -0.78486 -1.72974)
    (xy -0.68072 -1.77546) (xy -0.59182 -1.80594) (xy -0.54864 -1.81864)) (layer F.Paste) (width 0.00762))
  (fp_poly (pts (xy 0.54864 1.81864) (xy 0.54864 0.35814) (xy 0.56896 0.32766) (xy 0.58928 0.2921)
    (xy 0.6096 0.24892) (xy 0.62992 0.19558) (xy 0.64262 0.14478) (xy 0.65278 0.09398)
    (xy 0.6604 0.04318) (xy 0.6604 -0.00254) (xy 0.66294 -0.05334) (xy 0.65278 -0.11684)
    (xy 0.63754 -0.1905) (xy 0.61976 -0.24892) (xy 0.58928 -0.31496) (xy 0.54864 -0.37846)
    (xy 0.54864 -1.8161) (xy 0.60452 -1.79832) (xy 0.70866 -1.76276) (xy 0.80518 -1.71958)
    (xy 0.9144 -1.6637) (xy 0.98552 -1.61798) (xy 1.04394 -1.58496) (xy 1.14554 -1.51384)
    (xy 1.28016 -1.40462) (xy 1.41478 -1.26492) (xy 1.54686 -1.10744) (xy 1.63322 -0.96266)
    (xy 1.72212 -0.80264) (xy 1.77292 -0.67056) (xy 1.81356 -0.5588) (xy 1.85928 -0.40386)
    (xy 1.88214 -0.24384) (xy 1.89484 -0.11176) (xy 1.89738 -0.01016) (xy 1.89738 0.06858)
    (xy 1.88722 0.19812) (xy 1.86944 0.32512) (xy 1.84404 0.4572) (xy 1.82372 0.53086)
    (xy 1.79578 0.61722) (xy 1.7653 0.70866) (xy 1.73482 0.76962) (xy 1.70688 0.83566)
    (xy 1.67132 0.90424) (xy 1.6129 1.00076) (xy 1.56972 1.0668) (xy 1.51892 1.14046)
    (xy 1.45796 1.21412) (xy 1.36652 1.31572) (xy 1.29794 1.3843) (xy 1.21412 1.4605)
    (xy 1.13792 1.52146) (xy 1.02616 1.59766) (xy 0.9017 1.67386) (xy 0.78486 1.72974)
    (xy 0.68072 1.77546) (xy 0.59182 1.80594) (xy 0.54864 1.81864)) (layer F.Paste) (width 0.00762))
  (fp_poly (pts (xy 0 -2.19964) (xy -0.3429 -2.1717) (xy -0.67818 -2.09042) (xy -0.99822 -1.95834)
    (xy -1.29286 -1.778) (xy -1.55448 -1.55448) (xy -1.778 -1.29286) (xy -1.95834 -0.99822)
    (xy -2.09042 -0.67818) (xy -2.1717 -0.3429) (xy -2.19964 0) (xy -2.1717 0.3429)
    (xy -2.09042 0.67818) (xy -1.95834 0.99822) (xy -1.778 1.29286) (xy -1.55448 1.55448)
    (xy -1.29286 1.778) (xy -0.99822 1.95834) (xy -0.67818 2.09042) (xy -0.3429 2.1717)
    (xy 0 2.19964) (xy 0.3429 2.1717) (xy 0.67818 2.09042) (xy 0.99822 1.95834)
    (xy 1.29286 1.778) (xy 1.55448 1.55448) (xy 1.778 1.29286) (xy 1.95834 0.99822)
    (xy 2.09042 0.67818) (xy 2.1717 0.3429) (xy 2.19964 0) (xy 2.1717 -0.3429)
    (xy 2.09042 -0.67818) (xy 1.95834 -0.99822) (xy 1.778 -1.29286) (xy 1.55448 -1.55448)
    (xy 1.29286 -1.778) (xy 0.99822 -1.95834) (xy 0.67818 -2.09042) (xy 0.3429 -2.1717)
    (xy 0 -2.19964)) (layer Dwgs.User) (width 0.09906))
  (fp_circle (center 0 0) (end 0 -1.64846) (layer Dwgs.User) (width 0.09906))
  (pad 1 smd circle (at 0 0) (size 3.99796 3.99796) (layers F.Cu F.Paste F.Mask))
  (pad "" np_thru_hole circle (at 0 0) (size 0.99822 0.99822) (drill 0.99822) (layers *.Cu *.Mask))
)
