(module WA-SMSI_rev19a-WA-SMSI_9774030151 (layer F.Cu) (tedit 200000)
  (descr "WA-SMSI SMT STEEL SPACER, M2.5 THREAD INTERNAL")
  (tags "WA-SMSI SMT STEEL SPACER, M2.5 THREAD INTERNAL")
  (attr smd)
  (fp_text reference >NAME (at 0 -4.0132) (layer F.SilkS)
    (effects (font (size 1.27 1.27) (thickness 0.1016)))
  )
  (fp_text value >VALUE (at 0.30988 4.064) (layer F.SilkS)
    (effects (font (size 1.27 1.27) (thickness 0.1016)))
  )
  (fp_poly (pts (xy -0.32258 -2.89814) (xy -0.32258 -1.86944) (xy -0.33274 -1.86944) (xy -0.3683 -1.86436)
    (xy -0.43434 -1.84912) (xy -0.54864 -1.81864) (xy -0.62484 -1.79324) (xy -0.71374 -1.75768)
    (xy -0.76454 -1.7399) (xy -0.85852 -1.69418) (xy -0.93472 -1.65354) (xy -1.04902 -1.58496)
    (xy -1.11252 -1.53924) (xy -1.15824 -1.50368) (xy -1.23444 -1.44272) (xy -1.28778 -1.39446)
    (xy -1.3335 -1.35382) (xy -1.36906 -1.31318) (xy -1.44272 -1.23444) (xy -1.48844 -1.17856)
    (xy -1.524 -1.13284) (xy -1.56464 -1.0795) (xy -1.59766 -1.02362) (xy -1.6383 -0.95758)
    (xy -1.67894 -0.889) (xy -1.71958 -0.80772) (xy -1.7526 -0.72898) (xy -1.78816 -0.64262)
    (xy -1.81356 -0.56896) (xy -1.83388 -0.49276) (xy -1.8542 -0.41402) (xy -1.86436 -0.36322)
    (xy -1.86944 -0.33782) (xy -1.86944 -0.32258) (xy -2.90322 -0.32258) (xy -2.89814 -0.34798)
    (xy -2.88798 -0.4191) (xy -2.87274 -0.508) (xy -2.8575 -0.58928) (xy -2.8448 -0.66294)
    (xy -2.8194 -0.76454) (xy -2.794 -0.84836) (xy -2.76352 -0.9398) (xy -2.73812 -1.00838)
    (xy -2.70764 -1.08966) (xy -2.67462 -1.17348) (xy -2.63906 -1.24968) (xy -2.6035 -1.31826)
    (xy -2.5781 -1.36906) (xy -2.54 -1.43764) (xy -2.49936 -1.50876) (xy -2.45364 -1.57988)
    (xy -2.42824 -1.61798) (xy -2.38252 -1.68402) (xy -2.3495 -1.73482) (xy -2.31394 -1.778)
    (xy -2.26314 -1.84404) (xy -2.2098 -1.90754) (xy -2.17424 -1.94818) (xy -2.11328 -2.01422)
    (xy -2.05486 -2.07264) (xy -2.00406 -2.12344) (xy -1.95834 -2.16408) (xy -1.91262 -2.20472)
    (xy -1.84912 -2.25806) (xy -1.79832 -2.2987) (xy -1.7399 -2.34442) (xy -1.66878 -2.39268)
    (xy -1.60274 -2.4384) (xy -1.524 -2.4892) (xy -1.46812 -2.52476) (xy -1.3843 -2.56794)
    (xy -1.31318 -2.60858) (xy -1.22936 -2.64922) (xy -1.15824 -2.6797) (xy -1.0541 -2.72288)
    (xy -0.9525 -2.75844) (xy -0.87884 -2.78384) (xy -0.79756 -2.80924) (xy -0.67818 -2.83972)
    (xy -0.59436 -2.8575) (xy -0.51308 -2.87274) (xy -0.42926 -2.88798) (xy -0.34798 -2.89814)
    (xy -0.32258 -2.89814)) (layer F.Paste) (width 0.00762))
  (fp_poly (pts (xy -2.89814 0.32258) (xy -1.86944 0.32258) (xy -1.86944 0.33274) (xy -1.86436 0.3683)
    (xy -1.84912 0.43434) (xy -1.81864 0.54864) (xy -1.79324 0.62484) (xy -1.75768 0.71374)
    (xy -1.7399 0.76454) (xy -1.69418 0.85852) (xy -1.65354 0.93472) (xy -1.58496 1.04902)
    (xy -1.53924 1.11252) (xy -1.50368 1.15824) (xy -1.44272 1.23444) (xy -1.39446 1.28778)
    (xy -1.35382 1.3335) (xy -1.31318 1.36906) (xy -1.23444 1.44272) (xy -1.17856 1.48844)
    (xy -1.13284 1.524) (xy -1.0795 1.56464) (xy -1.02362 1.59766) (xy -0.95758 1.6383)
    (xy -0.889 1.67894) (xy -0.80772 1.71958) (xy -0.72898 1.7526) (xy -0.64262 1.78816)
    (xy -0.56896 1.81356) (xy -0.49276 1.83388) (xy -0.41402 1.8542) (xy -0.36322 1.86436)
    (xy -0.33782 1.86944) (xy -0.32258 1.86944) (xy -0.32258 2.90322) (xy -0.34798 2.89814)
    (xy -0.4191 2.88798) (xy -0.508 2.87274) (xy -0.58928 2.8575) (xy -0.66294 2.8448)
    (xy -0.76454 2.8194) (xy -0.84836 2.794) (xy -0.9398 2.76352) (xy -1.00838 2.73812)
    (xy -1.08966 2.70764) (xy -1.17348 2.67462) (xy -1.24968 2.63906) (xy -1.31826 2.6035)
    (xy -1.36906 2.5781) (xy -1.43764 2.54) (xy -1.50876 2.49936) (xy -1.57988 2.45364)
    (xy -1.61798 2.42824) (xy -1.68402 2.38252) (xy -1.73482 2.3495) (xy -1.778 2.31394)
    (xy -1.84404 2.26314) (xy -1.90754 2.2098) (xy -1.94818 2.17424) (xy -2.01422 2.11328)
    (xy -2.07264 2.05486) (xy -2.12344 2.00406) (xy -2.16408 1.95834) (xy -2.20472 1.91262)
    (xy -2.25806 1.84912) (xy -2.2987 1.79832) (xy -2.34442 1.7399) (xy -2.39268 1.66878)
    (xy -2.4384 1.60274) (xy -2.4892 1.524) (xy -2.52476 1.46812) (xy -2.56794 1.3843)
    (xy -2.60858 1.31318) (xy -2.64922 1.22936) (xy -2.6797 1.15824) (xy -2.72288 1.0541)
    (xy -2.75844 0.9525) (xy -2.78384 0.87884) (xy -2.80924 0.79756) (xy -2.83972 0.67818)
    (xy -2.8575 0.59436) (xy -2.87274 0.51308) (xy -2.88798 0.42926) (xy -2.89814 0.34798)
    (xy -2.89814 0.32258)) (layer F.Paste) (width 0.00762))
  (fp_poly (pts (xy 0.32258 2.89814) (xy 0.32258 1.86944) (xy 0.33274 1.86944) (xy 0.3683 1.86436)
    (xy 0.43434 1.84912) (xy 0.54864 1.81864) (xy 0.62484 1.79324) (xy 0.71374 1.75768)
    (xy 0.76454 1.7399) (xy 0.85852 1.69418) (xy 0.93472 1.65354) (xy 1.04902 1.58496)
    (xy 1.11252 1.53924) (xy 1.15824 1.50368) (xy 1.23444 1.44272) (xy 1.28778 1.39446)
    (xy 1.3335 1.35382) (xy 1.36906 1.31318) (xy 1.44272 1.23444) (xy 1.48844 1.17856)
    (xy 1.524 1.13284) (xy 1.56464 1.0795) (xy 1.59766 1.02362) (xy 1.6383 0.95758)
    (xy 1.67894 0.889) (xy 1.71958 0.80772) (xy 1.7526 0.72898) (xy 1.78816 0.64262)
    (xy 1.81356 0.56896) (xy 1.83388 0.49276) (xy 1.8542 0.41402) (xy 1.86436 0.36322)
    (xy 1.86944 0.33782) (xy 1.86944 0.32258) (xy 2.90322 0.32258) (xy 2.89814 0.34798)
    (xy 2.88798 0.4191) (xy 2.87274 0.508) (xy 2.8575 0.58928) (xy 2.8448 0.66294)
    (xy 2.8194 0.76454) (xy 2.794 0.84836) (xy 2.76352 0.9398) (xy 2.73812 1.00838)
    (xy 2.70764 1.08966) (xy 2.67462 1.17348) (xy 2.63906 1.24968) (xy 2.6035 1.31826)
    (xy 2.5781 1.36906) (xy 2.54 1.43764) (xy 2.49936 1.50876) (xy 2.45364 1.57988)
    (xy 2.42824 1.61798) (xy 2.38252 1.68402) (xy 2.3495 1.73482) (xy 2.31394 1.778)
    (xy 2.26314 1.84404) (xy 2.2098 1.90754) (xy 2.17424 1.94818) (xy 2.11328 2.01422)
    (xy 2.05486 2.07264) (xy 2.00406 2.12344) (xy 1.95834 2.16408) (xy 1.91262 2.20472)
    (xy 1.84912 2.25806) (xy 1.79832 2.2987) (xy 1.7399 2.34442) (xy 1.66878 2.39268)
    (xy 1.60274 2.4384) (xy 1.524 2.4892) (xy 1.46812 2.52476) (xy 1.3843 2.56794)
    (xy 1.31318 2.60858) (xy 1.22936 2.64922) (xy 1.15824 2.6797) (xy 1.0541 2.72288)
    (xy 0.9525 2.75844) (xy 0.87884 2.78384) (xy 0.79756 2.80924) (xy 0.67818 2.83972)
    (xy 0.59436 2.8575) (xy 0.51308 2.87274) (xy 0.42926 2.88798) (xy 0.34798 2.89814)
    (xy 0.32258 2.89814)) (layer F.Paste) (width 0.00762))
  (fp_poly (pts (xy 2.89814 -0.32258) (xy 1.86944 -0.32258) (xy 1.86944 -0.33274) (xy 1.86436 -0.3683)
    (xy 1.84912 -0.43434) (xy 1.81864 -0.54864) (xy 1.79324 -0.62484) (xy 1.75768 -0.71374)
    (xy 1.7399 -0.76454) (xy 1.69418 -0.85852) (xy 1.65354 -0.93472) (xy 1.58496 -1.04902)
    (xy 1.53924 -1.11252) (xy 1.50368 -1.15824) (xy 1.44272 -1.23444) (xy 1.39446 -1.28778)
    (xy 1.35382 -1.3335) (xy 1.31318 -1.36906) (xy 1.23444 -1.44272) (xy 1.17856 -1.48844)
    (xy 1.13284 -1.524) (xy 1.0795 -1.56464) (xy 1.02362 -1.59766) (xy 0.95758 -1.6383)
    (xy 0.889 -1.67894) (xy 0.80772 -1.71958) (xy 0.72898 -1.7526) (xy 0.64262 -1.78816)
    (xy 0.56896 -1.81356) (xy 0.49276 -1.83388) (xy 0.41402 -1.8542) (xy 0.36322 -1.86436)
    (xy 0.33782 -1.86944) (xy 0.32258 -1.86944) (xy 0.32258 -2.90322) (xy 0.34798 -2.89814)
    (xy 0.4191 -2.88798) (xy 0.508 -2.87274) (xy 0.58928 -2.8575) (xy 0.66294 -2.8448)
    (xy 0.76454 -2.8194) (xy 0.84836 -2.794) (xy 0.9398 -2.76352) (xy 1.00838 -2.73812)
    (xy 1.08966 -2.70764) (xy 1.17348 -2.67462) (xy 1.24968 -2.63906) (xy 1.31826 -2.6035)
    (xy 1.36906 -2.5781) (xy 1.43764 -2.54) (xy 1.50876 -2.49936) (xy 1.57988 -2.45364)
    (xy 1.61798 -2.42824) (xy 1.68402 -2.38252) (xy 1.73482 -2.3495) (xy 1.778 -2.31394)
    (xy 1.84404 -2.26314) (xy 1.90754 -2.2098) (xy 1.94818 -2.17424) (xy 2.01422 -2.11328)
    (xy 2.07264 -2.05486) (xy 2.12344 -2.00406) (xy 2.16408 -1.95834) (xy 2.20472 -1.91262)
    (xy 2.25806 -1.84912) (xy 2.2987 -1.79832) (xy 2.34442 -1.7399) (xy 2.39268 -1.66878)
    (xy 2.4384 -1.60274) (xy 2.4892 -1.524) (xy 2.52476 -1.46812) (xy 2.56794 -1.3843)
    (xy 2.60858 -1.31318) (xy 2.64922 -1.22936) (xy 2.6797 -1.15824) (xy 2.72288 -1.0541)
    (xy 2.75844 -0.9525) (xy 2.78384 -0.87884) (xy 2.80924 -0.79756) (xy 2.83972 -0.67818)
    (xy 2.8575 -0.59436) (xy 2.87274 -0.51308) (xy 2.88798 -0.42926) (xy 2.89814 -0.34798)
    (xy 2.89814 -0.32258)) (layer F.Paste) (width 0.00762))
  (fp_poly (pts (xy 0 -3.19786) (xy 0.45466 -3.16738) (xy 0.89916 -3.06832) (xy 1.32842 -2.9083)
    (xy 1.72974 -2.68986) (xy 2.0955 -2.41808) (xy 2.41808 -2.0955) (xy 2.68986 -1.72974)
    (xy 2.9083 -1.32842) (xy 3.06832 -0.89916) (xy 3.16738 -0.45466) (xy 3.19786 0)
    (xy 3.16738 0.45466) (xy 3.06832 0.89916) (xy 2.9083 1.32842) (xy 2.68986 1.72974)
    (xy 2.41808 2.0955) (xy 2.0955 2.41808) (xy 1.72974 2.68986) (xy 1.32842 2.9083)
    (xy 0.89916 3.06832) (xy 0.45466 3.16738) (xy 0 3.19786) (xy -0.09906 3.19786)
    (xy 0 3.19786) (xy -0.45466 3.16738) (xy -0.89916 3.06832) (xy -1.32842 2.9083)
    (xy -1.72974 2.68986) (xy -2.0955 2.41808) (xy -2.41808 2.0955) (xy -2.68986 1.72974)
    (xy -2.9083 1.32842) (xy -3.06832 0.89916) (xy -3.16738 0.45466) (xy -3.19786 0)
    (xy -3.16738 -0.45466) (xy -3.06832 -0.89916) (xy -2.9083 -1.32842) (xy -2.68986 -1.72974)
    (xy -2.41808 -2.0955) (xy -2.0955 -2.41808) (xy -1.72974 -2.68986) (xy -1.32842 -2.9083)
    (xy -0.89916 -3.06832) (xy -0.45466 -3.16738) (xy 0 -3.19786) (xy 0.09906 -3.19786)
    (xy 0 -3.19786)) (layer Dwgs.User) (width 0.09906))
  (fp_circle (center 0 0) (end 0 -2.54762) (layer Dwgs.User) (width 0.09906))
  (pad 1 smd circle (at 0 0) (size 5.99948 5.99948) (layers F.Cu F.Paste F.Mask))
  (pad "" np_thru_hole circle (at 0 0) (size 3.69824 3.69824) (drill 3.69824) (layers *.Cu *.Mask))
)
