(module WA-SMSI_rev19a-WA-SMSI_97730456334 (layer F.Cu) (tedit 200000)
  (descr "WA-SMSI SMT STEEL SPACER WITH INTERNAL THREAD M1.6")
  (tags "WA-SMSI SMT STEEL SPACER WITH INTERNAL THREAD M1.6")
  (attr smd)
  (fp_text reference >NAME (at 0 -2.90576) (layer F.SilkS)
    (effects (font (size 0.8128 0.8128) (thickness 0.0762)))
  )
  (fp_text value >VALUE (at 0.43688 2.89306) (layer F.SilkS)
    (effects (font (size 0.8128 0.8128) (thickness 0.0762)))
  )
  (fp_poly (pts (xy -0.19812 -1.88976) (xy -0.19812 -1.0795) (xy -0.21336 -1.0795) (xy -0.254 -1.06934)
    (xy -0.3429 -1.04394) (xy -0.40894 -1.01854) (xy -0.47752 -0.98806) (xy -0.55372 -0.94996)
    (xy -0.61976 -0.90932) (xy -0.67818 -0.8636) (xy -0.75438 -0.79756) (xy -0.80772 -0.74422)
    (xy -0.8636 -0.67818) (xy -0.9144 -0.6096) (xy -0.96266 -0.52832) (xy -1.0033 -0.44958)
    (xy -1.04394 -0.3429) (xy -1.06934 -0.25908) (xy -1.08458 -0.19812) (xy -1.88976 -0.19812)
    (xy -1.88468 -0.24384) (xy -1.86944 -0.33274) (xy -1.84912 -0.43434) (xy -1.82372 -0.52832)
    (xy -1.79324 -0.62484) (xy -1.77292 -0.67818) (xy -1.74498 -0.75438) (xy -1.69926 -0.84836)
    (xy -1.65862 -0.92456) (xy -1.61798 -0.99314) (xy -1.55956 -1.08458) (xy -1.49352 -1.17348)
    (xy -1.43256 -1.2446) (xy -1.39446 -1.28778) (xy -1.36906 -1.31318) (xy -1.27762 -1.40462)
    (xy -1.17856 -1.48844) (xy -1.0795 -1.56464) (xy -1.00838 -1.60782) (xy -0.90932 -1.66878)
    (xy -0.81788 -1.7145) (xy -0.70358 -1.76276) (xy -0.56388 -1.81356) (xy -0.43434 -1.84912)
    (xy -0.3429 -1.86944) (xy -0.24384 -1.88468) (xy -0.19812 -1.88976)) (layer F.Paste) (width 0.00762))
  (fp_poly (pts (xy -1.88976 0.19812) (xy -1.0795 0.19812) (xy -1.0795 0.21336) (xy -1.06934 0.254)
    (xy -1.04394 0.3429) (xy -1.01854 0.40894) (xy -0.98806 0.47752) (xy -0.94996 0.55372)
    (xy -0.90932 0.61976) (xy -0.8636 0.67818) (xy -0.79756 0.75438) (xy -0.74422 0.80772)
    (xy -0.67818 0.8636) (xy -0.6096 0.9144) (xy -0.52832 0.96266) (xy -0.44958 1.0033)
    (xy -0.3429 1.04394) (xy -0.25908 1.06934) (xy -0.19812 1.08458) (xy -0.19812 1.88976)
    (xy -0.24384 1.88468) (xy -0.33274 1.86944) (xy -0.43434 1.84912) (xy -0.52832 1.82372)
    (xy -0.62484 1.79324) (xy -0.67818 1.77292) (xy -0.75438 1.74498) (xy -0.84836 1.69926)
    (xy -0.92456 1.65862) (xy -0.99314 1.61798) (xy -1.08458 1.55956) (xy -1.17348 1.49352)
    (xy -1.2446 1.43256) (xy -1.28778 1.39446) (xy -1.31318 1.36906) (xy -1.40462 1.27762)
    (xy -1.48844 1.17856) (xy -1.56464 1.0795) (xy -1.60782 1.00838) (xy -1.66878 0.90932)
    (xy -1.7145 0.81788) (xy -1.76276 0.70358) (xy -1.81356 0.56388) (xy -1.84912 0.43434)
    (xy -1.86944 0.3429) (xy -1.88468 0.24384) (xy -1.88976 0.19812)) (layer F.Paste) (width 0.00762))
  (fp_poly (pts (xy 0.19812 1.88976) (xy 0.19812 1.0795) (xy 0.21336 1.0795) (xy 0.254 1.06934)
    (xy 0.3429 1.04394) (xy 0.40894 1.01854) (xy 0.47752 0.98806) (xy 0.55372 0.94996)
    (xy 0.61976 0.90932) (xy 0.67818 0.8636) (xy 0.75438 0.79756) (xy 0.80772 0.74422)
    (xy 0.8636 0.67818) (xy 0.9144 0.6096) (xy 0.96266 0.52832) (xy 1.0033 0.44958)
    (xy 1.04394 0.3429) (xy 1.06934 0.25908) (xy 1.08458 0.19812) (xy 1.88976 0.19812)
    (xy 1.88468 0.24384) (xy 1.86944 0.33274) (xy 1.84912 0.43434) (xy 1.82372 0.52832)
    (xy 1.79324 0.62484) (xy 1.77292 0.67818) (xy 1.74498 0.75438) (xy 1.69926 0.84836)
    (xy 1.65862 0.92456) (xy 1.61798 0.99314) (xy 1.55956 1.08458) (xy 1.49352 1.17348)
    (xy 1.43256 1.2446) (xy 1.39446 1.28778) (xy 1.36906 1.31318) (xy 1.27762 1.40462)
    (xy 1.17856 1.48844) (xy 1.0795 1.56464) (xy 1.00838 1.60782) (xy 0.90932 1.66878)
    (xy 0.81788 1.7145) (xy 0.70358 1.76276) (xy 0.56388 1.81356) (xy 0.43434 1.84912)
    (xy 0.3429 1.86944) (xy 0.24384 1.88468) (xy 0.19812 1.88976)) (layer F.Paste) (width 0.00762))
  (fp_poly (pts (xy 1.88976 -0.19812) (xy 1.0795 -0.19812) (xy 1.0795 -0.21336) (xy 1.06934 -0.254)
    (xy 1.04394 -0.3429) (xy 1.01854 -0.40894) (xy 0.98806 -0.47752) (xy 0.94996 -0.55372)
    (xy 0.90932 -0.61976) (xy 0.8636 -0.67818) (xy 0.79756 -0.75438) (xy 0.74422 -0.80772)
    (xy 0.67818 -0.8636) (xy 0.6096 -0.9144) (xy 0.52832 -0.96266) (xy 0.44958 -1.0033)
    (xy 0.3429 -1.04394) (xy 0.25908 -1.06934) (xy 0.19812 -1.08458) (xy 0.19812 -1.88976)
    (xy 0.24384 -1.88468) (xy 0.33274 -1.86944) (xy 0.43434 -1.84912) (xy 0.52832 -1.82372)
    (xy 0.62484 -1.79324) (xy 0.67818 -1.77292) (xy 0.75438 -1.74498) (xy 0.84836 -1.69926)
    (xy 0.92456 -1.65862) (xy 0.99314 -1.61798) (xy 1.08458 -1.55956) (xy 1.17348 -1.49352)
    (xy 1.2446 -1.43256) (xy 1.28778 -1.39446) (xy 1.31318 -1.36906) (xy 1.40462 -1.27762)
    (xy 1.48844 -1.17856) (xy 1.56464 -1.0795) (xy 1.60782 -1.00838) (xy 1.66878 -0.90932)
    (xy 1.7145 -0.81788) (xy 1.76276 -0.70358) (xy 1.81356 -0.56388) (xy 1.84912 -0.43434)
    (xy 1.86944 -0.3429) (xy 1.88468 -0.24384) (xy 1.88976 -0.19812)) (layer F.Paste) (width 0.00762))
  (fp_poly (pts (xy 0 -2.19964) (xy 0.3429 -2.1717) (xy 0.67818 -2.09042) (xy 0.99822 -1.95834)
    (xy 1.29286 -1.778) (xy 1.55448 -1.55448) (xy 1.778 -1.29286) (xy 1.95834 -0.99822)
    (xy 2.09042 -0.67818) (xy 2.1717 -0.3429) (xy 2.19964 0) (xy 2.1717 0.3429)
    (xy 2.09042 0.67818) (xy 1.95834 0.99822) (xy 1.778 1.29286) (xy 1.55448 1.55448)
    (xy 1.29286 1.778) (xy 0.99822 1.95834) (xy 0.67818 2.09042) (xy 0.3429 2.1717)
    (xy 0 2.19964) (xy -0.3429 2.1717) (xy -0.67818 2.09042) (xy -0.99822 1.95834)
    (xy -1.29286 1.778) (xy -1.55448 1.55448) (xy -1.778 1.29286) (xy -1.95834 0.99822)
    (xy -2.09042 0.67818) (xy -2.1717 0.3429) (xy -2.19964 0) (xy -2.1717 -0.3429)
    (xy -2.09042 -0.67818) (xy -1.95834 -0.99822) (xy -1.778 -1.29286) (xy -1.55448 -1.55448)
    (xy -1.29286 -1.778) (xy -0.99822 -1.95834) (xy -0.67818 -2.09042) (xy -0.3429 -2.1717)
    (xy 0 -2.19964)) (layer Dwgs.User) (width 0.09906))
  (fp_circle (center 0 0) (end 0 -1.64846) (layer Dwgs.User) (width 0.09906))
  (pad 1 smd circle (at 0 0) (size 3.99796 3.99796) (layers F.Cu F.Paste F.Mask))
  (pad "" np_thru_hole circle (at 0 0) (size 2.09804 2.09804) (drill 2.09804) (layers *.Cu *.Mask))
)
