(module USB_Micro-B_Wuerth_614105150721_Vertical_CircularHoles (layer F.Cu) (tedit 5A142044)
  (descr "USB Micro-B receptacle, through-hole, vertical, http://katalog.we-online.de/em/datasheet/614105150721.pdf")
  (tags "usb micro receptacle vertical")
  (fp_text reference REF** (at 1.3 -2.48) (layer F.SilkS)
    (effects (font (size 1 1) (thickness 0.15)))
  )
  (fp_text value USB_Micro-B_Wuerth_614105150721_Vertical_CircularHoles (at 1.3 2.92) (layer F.Fab)
    (effects (font (size 1 1) (thickness 0.15)))
  )
  (fp_line (start -2.7 -1.23) (end -1 -1.23) (layer F.Fab) (width 0.15))
  (fp_line (start -1 -1.23) (end 0 -0.23) (layer F.Fab) (width 0.15))
  (fp_line (start 0 -0.23) (end 1 -1.23) (layer F.Fab) (width 0.15))
  (fp_line (start 1 -1.23) (end 5.3 -1.23) (layer F.Fab) (width 0.15))
  (fp_line (start 5.3 -1.23) (end 5.3 1.67) (layer F.Fab) (width 0.15))
  (fp_line (start 5.3 1.67) (end -2.7 1.67) (layer F.Fab) (width 0.15))
  (fp_line (start -2.7 1.67) (end -2.7 -1.23) (layer F.Fab) (width 0.15))
  (fp_line (start -2.85 -0.905) (end -2.85 -1.38) (layer F.SilkS) (width 0.15))
  (fp_line (start -2.85 -1.38) (end 5.45 -1.38) (layer F.SilkS) (width 0.15))
  (fp_line (start 5.45 -1.38) (end 5.45 -0.905) (layer F.SilkS) (width 0.15))
  (fp_line (start -2.85 1.345) (end -2.85 1.82) (layer F.SilkS) (width 0.15))
  (fp_line (start -2.85 1.82) (end 5.45 1.82) (layer F.SilkS) (width 0.15))
  (fp_line (start 5.45 1.82) (end 5.45 1.345) (layer F.SilkS) (width 0.15))
  (fp_line (start -1 -1.68) (end 1 -1.68) (layer F.SilkS) (width 0.15))
  (fp_line (start -3.7 -1.73) (end -3.7 2.17) (layer F.CrtYd) (width 0.05))
  (fp_line (start -3.7 2.17) (end 6.3 2.17) (layer F.CrtYd) (width 0.05))
  (fp_line (start 6.3 2.17) (end 6.3 -1.73) (layer F.CrtYd) (width 0.05))
  (fp_line (start 6.3 -1.73) (end -3.7 -1.73) (layer F.CrtYd) (width 0.05))
  (pad 1 thru_hole rect (at 0 0) (size 0.84 0.84) (drill 0.44) (layers *.Cu *.Mask))
  (pad 2 thru_hole circle (at 0.65 1) (size 0.84 0.84) (drill 0.44) (layers *.Cu *.Mask))
  (pad 3 thru_hole circle (at 1.3 0) (size 0.84 0.84) (drill 0.44) (layers *.Cu *.Mask))
  (pad 4 thru_hole circle (at 1.95 1) (size 0.84 0.84) (drill 0.44) (layers *.Cu *.Mask))
  (pad 5 thru_hole circle (at 2.6 0) (size 0.84 0.84) (drill 0.44) (layers *.Cu *.Mask))
  (pad 6 thru_hole circle (at -2.275 0.22) (size 1.85 1.85) (drill 1.35) (layers *.Cu *.Mask))
  (pad 6 thru_hole circle (at 4.875 0.22) (size 1.85 1.85) (drill 1.35) (layers *.Cu *.Mask))
  (fp_text user %R (at 1.3 0.22) (layer F.Fab)
    (effects (font (size 1 1) (thickness 0.15)))
  )
  (model ${KIPRJMOD}/kicad_libs_k/models_k.3d/Connector_USB_k.3dshapes/USB_Micro-B_Wuerth_614105150721_Vertical_CircularHoles_k.wrl
    (at (xyz 0 0 0))
    (scale (xyz 1 1 1))
    (rotate (xyz 0 0 0))
  )
)