(module USB_Micro-B_Molex-105133-0001 (layer F.Cu) (tedit 5A142044)
  (descr "Molex Vertical Micro USB Typ-B (http://www.molex.com/pdm_docs/sd/1051330001_sd.pdf)")
  (tags "Micro-USB SMD Typ-B Vertical")
  (attr smd)
  (fp_text reference REF** (at 0 -2.85) (layer F.SilkS)
    (effects (font (size 1 1) (thickness 0.15)))
  )
  (fp_text value USB_Micro-B_Molex-105133-0001 (at -0.025 3) (layer F.Fab)
    (effects (font (size 1 1) (thickness 0.15)))
  )
  (fp_text user %R (at 0 -0.375) (layer F.Fab)
    (effects (font (size 1 1) (thickness 0.15)))
  )
  (fp_line (start -4 1.565) (end -4 -1.435) (layer F.Fab) (width 0.1))
  (fp_line (start 4 1.565) (end 4 -1.435) (layer F.Fab) (width 0.1))
  (fp_line (start -4 1.565) (end 4 1.565) (layer F.Fab) (width 0.1))
  (fp_line (start 4 -1.435) (end -4 -1.435) (layer F.Fab) (width 0.1))
  (fp_line (start -1.7 -1.075) (end -1.7 -1.825) (layer F.SilkS) (width 0.12))
  (fp_line (start -1.7 -1.825) (end -1.1 -1.825) (layer F.SilkS) (width 0.12))
  (fp_line (start -2 -1.825) (end -4.15 -1.825) (layer F.SilkS) (width 0.12))
  (fp_line (start 4.15 -1.825) (end 4.15 1.725) (layer F.SilkS) (width 0.12))
  (fp_line (start -4.15 1.725) (end -1.25 1.725) (layer F.SilkS) (width 0.12))
  (fp_line (start -4.15 -1.825) (end -4.15 1.725) (layer F.SilkS) (width 0.12))
  (fp_line (start 4.15 1.725) (end 1.25 1.725) (layer F.SilkS) (width 0.12))
  (fp_line (start 2 -1.825) (end 4.15 -1.825) (layer F.SilkS) (width 0.12))
  (fp_line (start -1.3 -1.675) (end -1.525 -1.85) (layer F.Fab) (width 0.1))
  (fp_line (start -1.525 -2.075) (end -1.075 -2.075) (layer F.Fab) (width 0.1))
  (fp_line (start -1.3 -1.675) (end -1.075 -1.85) (layer F.Fab) (width 0.1))
  (fp_line (start -1.525 -1.85) (end -1.525 -2.075) (layer F.Fab) (width 0.1))
  (fp_line (start -1.075 -2.075) (end -1.075 -1.85) (layer F.Fab) (width 0.1))
  (fp_line (start -4.5 2.13) (end -4.5 -2.13) (layer F.CrtYd) (width 0.05))
  (fp_line (start -4.5 -2.13) (end 4.5 -2.13) (layer F.CrtYd) (width 0.05))
  (fp_line (start -4.5 2.13) (end 4.5 2.13) (layer F.CrtYd) (width 0.05))
  (fp_line (start 4.5 2.13) (end 4.5 -2.13) (layer F.CrtYd) (width 0.05))
  (pad 3 smd rect (at 0 -0.825) (size 0.45 1.5) (layers F.Cu F.Paste F.Mask))
  (pad 4 smd rect (at 0.65 -0.825) (size 0.45 1.5) (layers F.Cu F.Paste F.Mask))
  (pad 2 smd rect (at -0.65 -0.825) (size 0.45 1.5) (layers F.Cu F.Paste F.Mask))
  (pad 5 smd rect (at 1.3 -0.825) (size 0.45 1.5) (layers F.Cu F.Paste F.Mask))
  (pad 1 smd rect (at -1.3 -0.825) (size 0.45 1.5) (layers F.Cu F.Paste F.Mask))
  (pad 6 thru_hole oval (at -2.8 -1.075) (size 1.8 1.1) (drill oval 1.2 0.5) (layers *.Cu *.Mask))
  (pad 6 thru_hole oval (at 2.8 -1.075) (size 1.8 1.1) (drill oval 1.2 0.5) (layers *.Cu *.Mask))
  (pad 6 thru_hole oval (at 0 1.075) (size 2.2 1.1) (drill oval 1.6 0.5) (layers *.Cu *.Mask))
  (model ${KIPRJMOD}/kicad_libs_k/models_k.3d/Connector_USB_k.3dshapes/USB_Micro-B_Molex-105133-0001_k.wrl
    (at (xyz 0 0 0))
    (scale (xyz 1 1 1))
    (rotate (xyz 0 0 0))
  )
)
