(module USB_B_Amphenol_MUSB-D511_Vertical_Rugged (layer F.Cu) (tedit 5A1DC0BC)
  (descr "A,phenol MUSB_D511, USB B female connector, straight, rugged, https://www.amphenolcanada.com/ProductSearch/drawings/AC/MUSBD511XX.pdf")
  (tags "USB_B_MUSB_Straight female connector straight rugged MUSB D511")
  (fp_text reference REF** (at -5.8 -4.55) (layer F.SilkS)
    (effects (font (size 1 1) (thickness 0.15)))
  )
  (fp_text value USB_B_Amphenol_MUSB-D511_Vertical_Rugged (at -1.25 10.25) (layer F.Fab)
    (effects (font (size 1 1) (thickness 0.15)))
  )
  (fp_text user %R (at -1.2 6.4) (layer F.Fab)
    (effects (font (size 1 1) (thickness 0.15)))
  )
  (fp_line (start -8.3 1) (end -8.3 -3.8) (layer F.SilkS) (width 0.12))
  (fp_line (start -8.3 9.3) (end -8.3 4.5) (layer F.SilkS) (width 0.12))
  (fp_line (start 5.8 9.3) (end -8.3 9.3) (layer F.SilkS) (width 0.12))
  (fp_line (start 5.8 4.5) (end 5.8 9.3) (layer F.SilkS) (width 0.12))
  (fp_line (start 5.8 -3.8) (end 5.8 1) (layer F.SilkS) (width 0.12))
  (fp_line (start -8.3 -3.8) (end 5.8 -3.8) (layer F.SilkS) (width 0.12))
  (fp_line (start -0.5 -4.5) (end 0 -4) (layer F.SilkS) (width 0.12))
  (fp_line (start 0.5 -4.5) (end -0.5 -4.5) (layer F.SilkS) (width 0.12))
  (fp_line (start 0 -4) (end 0.5 -4.5) (layer F.SilkS) (width 0.12))
  (fp_line (start 5 -3.75) (end 5.75 -3) (layer F.Fab) (width 0.1))
  (fp_line (start -8.25 -3.75) (end 5 -3.75) (layer F.Fab) (width 0.1))
  (fp_line (start 5.75 -3) (end 5.75 9.25) (layer F.Fab) (width 0.1))
  (fp_line (start 5.75 9.25) (end -8.25 9.25) (layer F.Fab) (width 0.1))
  (fp_line (start -8.25 9.25) (end -8.25 -3.75) (layer F.Fab) (width 0.1))
  (fp_line (start -15 -4) (end 12.5 -4) (layer F.CrtYd) (width 0.05))
  (fp_line (start -15 -4) (end -15 9.5) (layer F.CrtYd) (width 0.05))
  (fp_line (start 12.5 9.5) (end 12.5 -4) (layer F.CrtYd) (width 0.05))
  (fp_line (start 12.5 9.5) (end -15 9.5) (layer F.CrtYd) (width 0.05))
  (fp_circle (center -12.25 2) (end -12.25 4.5) (layer F.Fab) (width 0.12))
  (fp_circle (center 9.75 2) (end 9.75 4.5) (layer F.Fab) (width 0.12))
  (pad 5 thru_hole circle (at 4.77 2.71) (size 3 3) (drill 2.3) (layers *.Cu *.Mask))
  (pad 4 thru_hole circle (at 0 3.2) (size 1.4 1.4) (drill 0.92) (layers *.Cu *.Mask))
  (pad 3 thru_hole circle (at -2.5 3.2) (size 1.4 1.4) (drill 0.92) (layers *.Cu *.Mask))
  (pad 1 thru_hole rect (at 0 0) (size 1.4 1.4) (drill 0.92) (layers *.Cu *.Mask))
  (pad 5 thru_hole circle (at -7.27 2.71) (size 3 3) (drill 2.3) (layers *.Cu *.Mask))
  (pad 2 thru_hole circle (at -2.5 0) (size 1.4 1.4) (drill 0.92) (layers *.Cu *.Mask))
  (model ${KIPRJMOD}/kicad_libs_k/models_k.3d/Connector_USB_k.3dshapes/USB_B_Amphenol_MUSB-D511_Vertical_Rugged_k.wrl
    (at (xyz 0 0 0))
    (scale (xyz 1 1 1))
    (rotate (xyz 0 0 0))
  )
)
