(module Adafruit_HUZZAH_ESP8266_breakout_WithMountingHoles (layer F.Cu) (tedit 5ADA62D3)
  (descr "32-bit microcontroller module with WiFi, https://www.adafruit.com/product/2471")
  (tags "ESP8266 WiFi microcontroller")
  (fp_text reference REF** (at 10.16 -7.35) (layer F.SilkS)
    (effects (font (size 1 1) (thickness 0.15)))
  )
  (fp_text value Adafruit_HUZZAH_ESP8266_breakout_WithMountingHoles (at 10.16 32.75) (layer F.Fab)
    (effects (font (size 1 1) (thickness 0.15)))
  )
  (fp_arc (start 0 -3.81) (end -2.54 -3.81) (angle 90.0) (layer F.Fab) (width 0.1))
  (fp_arc (start 20.32 -3.81) (end 20.32 -6.35) (angle 90.0) (layer F.Fab) (width 0.1))
  (fp_arc (start 20.32 29.21) (end 22.86 29.21) (angle 90.0) (layer F.Fab) (width 0.1))
  (fp_arc (start 0 29.21) (end 0 31.75) (angle 90.0) (layer F.Fab) (width 0.1))
  (fp_arc (start 0 -3.81) (end -2.66 -3.81) (angle 90.0) (layer F.SilkS) (width 0.12))
  (fp_arc (start 20.32 -3.81) (end 20.32 -6.47) (angle 90.0) (layer F.SilkS) (width 0.12))
  (fp_arc (start 20.32 29.21) (end 22.98 29.21) (angle 90.0) (layer F.SilkS) (width 0.12))
  (fp_arc (start 0 29.21) (end 0 31.87) (angle 90.0) (layer F.SilkS) (width 0.12))
  (fp_line (start 0 -6.35) (end 20.32 -6.35) (layer F.Fab) (width 0.1))
  (fp_line (start 0 31.75) (end 20.32 31.75) (layer F.Fab) (width 0.1))
  (fp_line (start -2.54 -3.81) (end -2.54 29.21) (layer F.Fab) (width 0.1))
  (fp_line (start 22.86 -3.81) (end 22.86 29.21) (layer F.Fab) (width 0.1))
  (fp_line (start -2.79 -4.85) (end -2.79 -6.6) (layer F.Fab) (width 0.1))
  (fp_line (start -2.79 -6.6) (end -1.04 -6.6) (layer F.Fab) (width 0.1))
  (fp_line (start 0 -6.47) (end 20.32 -6.47) (layer F.SilkS) (width 0.12))
  (fp_line (start 0 31.87) (end 20.32 31.87) (layer F.SilkS) (width 0.12))
  (fp_line (start -2.66 -3.81) (end -2.66 29.21) (layer F.SilkS) (width 0.12))
  (fp_line (start 22.98 -3.81) (end 22.98 29.21) (layer F.SilkS) (width 0.12))
  (fp_line (start -2.79 -4.85) (end -2.79 -6.6) (layer F.SilkS) (width 0.12))
  (fp_line (start -2.79 -6.6) (end -1.04 -6.6) (layer F.SilkS) (width 0.12))
  (fp_line (start -1.37 -1.37) (end -1.37 24.23) (layer F.SilkS) (width 0.12))
  (fp_line (start -1.37 24.23) (end 1.37 24.23) (layer F.SilkS) (width 0.12))
  (fp_line (start 1.37 24.23) (end 1.37 -1.37) (layer F.SilkS) (width 0.12))
  (fp_line (start 1.37 -1.37) (end -1.37 -1.37) (layer F.SilkS) (width 0.12))
  (fp_line (start 18.95 -1.37) (end 18.95 24.23) (layer F.SilkS) (width 0.12))
  (fp_line (start 18.95 24.23) (end 21.69 24.23) (layer F.SilkS) (width 0.12))
  (fp_line (start 21.69 24.23) (end 21.69 -1.37) (layer F.SilkS) (width 0.12))
  (fp_line (start 21.69 -1.37) (end 18.95 -1.37) (layer F.SilkS) (width 0.12))
  (fp_line (start -2.79 -6.6) (end -2.79 32) (layer F.CrtYd) (width 0.05))
  (fp_line (start -2.79 32) (end 23.11 32) (layer F.CrtYd) (width 0.05))
  (fp_line (start 23.11 32) (end 23.11 -6.6) (layer F.CrtYd) (width 0.05))
  (fp_line (start 23.11 -6.6) (end -2.79 -6.6) (layer F.CrtYd) (width 0.05))
  (pad 1 thru_hole rect (at 0 0) (size 2.1 1.9) (drill 1.02) (layers *.Cu *.Mask))
  (pad 20 thru_hole oval (at 20.32 0) (size 2.1 1.9) (drill 1.02) (layers *.Cu *.Mask))
  (pad 2 thru_hole oval (at 0 2.54) (size 2.1 1.9) (drill 1.02) (layers *.Cu *.Mask))
  (pad 19 thru_hole oval (at 20.32 2.54) (size 2.1 1.9) (drill 1.02) (layers *.Cu *.Mask))
  (pad 3 thru_hole oval (at 0 5.08) (size 2.1 1.9) (drill 1.02) (layers *.Cu *.Mask))
  (pad 18 thru_hole oval (at 20.32 5.08) (size 2.1 1.9) (drill 1.02) (layers *.Cu *.Mask))
  (pad 4 thru_hole oval (at 0 7.62) (size 2.1 1.9) (drill 1.02) (layers *.Cu *.Mask))
  (pad 17 thru_hole oval (at 20.32 7.62) (size 2.1 1.9) (drill 1.02) (layers *.Cu *.Mask))
  (pad 5 thru_hole oval (at 0 10.16) (size 2.1 1.9) (drill 1.02) (layers *.Cu *.Mask))
  (pad 16 thru_hole oval (at 20.32 10.16) (size 2.1 1.9) (drill 1.02) (layers *.Cu *.Mask))
  (pad 6 thru_hole oval (at 0 12.7) (size 2.1 1.9) (drill 1.02) (layers *.Cu *.Mask))
  (pad 15 thru_hole oval (at 20.32 12.7) (size 2.1 1.9) (drill 1.02) (layers *.Cu *.Mask))
  (pad 7 thru_hole oval (at 0 15.24) (size 2.1 1.9) (drill 1.02) (layers *.Cu *.Mask))
  (pad 14 thru_hole oval (at 20.32 15.24) (size 2.1 1.9) (drill 1.02) (layers *.Cu *.Mask))
  (pad 8 thru_hole oval (at 0 17.78) (size 2.1 1.9) (drill 1.02) (layers *.Cu *.Mask))
  (pad 13 thru_hole oval (at 20.32 17.78) (size 2.1 1.9) (drill 1.02) (layers *.Cu *.Mask))
  (pad 9 thru_hole oval (at 0 20.32) (size 2.1 1.9) (drill 1.02) (layers *.Cu *.Mask))
  (pad 12 thru_hole oval (at 20.32 20.32) (size 2.1 1.9) (drill 1.02) (layers *.Cu *.Mask))
  (pad 10 thru_hole oval (at 0 22.86) (size 2.1 1.9) (drill 1.02) (layers *.Cu *.Mask))
  (pad 11 thru_hole oval (at 20.32 22.86) (size 2.1 1.9) (drill 1.02) (layers *.Cu *.Mask))
  (pad "" np_thru_hole circle (at 0 -3.81) (size 2.9 2.9) (drill 2.9) (layers *.Cu *.Mask))
  (pad "" np_thru_hole circle (at 20.32 -3.81) (size 2.9 2.9) (drill 2.9) (layers *.Cu *.Mask))
  (pad "" np_thru_hole circle (at 0 29.21) (size 2.9 2.9) (drill 2.9) (layers *.Cu *.Mask))
  (pad "" np_thru_hole circle (at 20.32 29.21) (size 2.9 2.9) (drill 2.9) (layers *.Cu *.Mask))
  (fp_text user %R (at 10.16 12.7) (layer F.Fab)
    (effects (font (size 1 1) (thickness 0.15)))
  )
  (model ${KIPRJMOD}/kicad_libs_k/models_k.3d/Module_k.3dshapes/Adafruit_HUZZAH_ESP8266_breakout_WithMountingHoles_k.wrl
    (at (xyz 0 0 0))
    (scale (xyz 1 1 1))
    (rotate (xyz 0 0 0))
  )
)
