(module Booster_Module (layer F.Cu) (tedit 5F59FC48)
  (fp_text reference REF** (at 2.3 -0.8) (layer F.SilkS)
    (effects (font (size 1 1) (thickness 0.15)))
  )
  (fp_text value Booster_Module (at 0 0.7) (layer F.Fab)
    (effects (font (size 1 1) (thickness 0.15)))
  )
  (fp_line (start 6.3 -10.1) (end -6.2 -10.1) (layer F.SilkS) (width 0.12))
  (fp_line (start 6.3 10) (end 6.3 -10.1) (layer F.SilkS) (width 0.12))
  (fp_line (start -6.2 10) (end 6.3 10) (layer F.SilkS) (width 0.12))
  (fp_line (start -6.2 -10.1) (end -6.2 10) (layer F.SilkS) (width 0.12))
  (fp_text user VIN (at -4.6 7.4) (layer F.SilkS)
    (effects (font (size 1 1) (thickness 0.15)))
  )
  (fp_text user VOUT (at -3.9 -7.5) (layer F.SilkS)
    (effects (font (size 1 1) (thickness 0.15)))
  )
  (fp_text user GND (at 4.5 7.4) (layer F.SilkS)
    (effects (font (size 1 1) (thickness 0.15)))
  )
  (fp_text user GND (at 4.5 -7.3) (layer F.SilkS)
    (effects (font (size 1 1) (thickness 0.15)))
  )
  (fp_line (start -10.5 23) (end 10.6 23) (layer F.SilkS) (width 0.12))
  (fp_line (start 10.6 23) (end 10.6 -23.1) (layer F.SilkS) (width 0.12))
  (fp_line (start 10.6 -23.1) (end -10.5 -23.1) (layer F.SilkS) (width 0.12))
  (fp_line (start -10.5 -23.1) (end -10.5 23) (layer F.SilkS) (width 0.12))
  (pad 1 thru_hole circle (at -5.3 9.1) (size 2 2) (drill 1) (layers *.Cu *.Mask))
  (pad 2 thru_hole circle (at 5.4 9.1) (size 2 2) (drill 1) (layers *.Cu *.Mask))
  (pad 4 thru_hole circle (at 5.4 -9.2) (size 2 2) (drill 1) (layers *.Cu *.Mask))
  (pad 3 thru_hole circle (at -5.3 -9.2) (size 2 2) (drill 1) (layers *.Cu *.Mask))
  (pad 4 thru_hole circle (at 9.7 -22.2) (size 2 2) (drill 1) (layers *.Cu *.Mask))
  (pad 3 thru_hole circle (at -9.6 -22.2) (size 2 2) (drill 1) (layers *.Cu *.Mask))
  (pad 2 thru_hole circle (at 9.7 22.1) (size 2 2) (drill 1) (layers *.Cu *.Mask))
  (pad 1 thru_hole circle (at -9.6 22.1) (size 2 2) (drill 1) (layers *.Cu *.Mask))
  (pad 1 thru_hole circle (at -5.3 13.4) (size 2 2) (drill 1) (layers *.Cu *.Mask))
  (pad 2 thru_hole circle (at 5.4 13.4) (size 2 2) (drill 1) (layers *.Cu *.Mask))
  (pad 1 thru_hole circle (at -9.6 26.4) (size 2 2) (drill 1) (layers *.Cu *.Mask))
  (pad 2 thru_hole circle (at 9.7 26.4) (size 2 2) (drill 1) (layers *.Cu *.Mask))
  (pad 4 thru_hole circle (at 5.4 -14.1) (size 2 2) (drill 1) (layers *.Cu *.Mask))
  (pad 3 thru_hole circle (at -5.3 -14.1) (size 2 2) (drill 1) (layers *.Cu *.Mask))
  (pad 4 thru_hole circle (at 9.7 -27.2) (size 2 2) (drill 1) (layers *.Cu *.Mask))
  (pad 3 thru_hole circle (at -9.6 -27.2) (size 1.524 1.524) (drill 0.762) (layers *.Cu *.Mask))
)
