(module Teensy35_36_k (layer F.Cu) (tedit 6009541B)
  (fp_text reference REF** (at 29.21 -17.78) (layer F.SilkS)
    (effects (font (size 1 1) (thickness 0.15)))
  )
  (fp_text value Teensy3.5/3.6 (at 29.21 2.54) (layer F.Fab)
    (effects (font (size 1 1) (thickness 0.15)))
  )
  (fp_line (start 22.86 -2.54) (end 19.05 -2.54) (layer F.SilkS) (width 0.15))
  (fp_line (start 19.05 -2.54) (end 19.05 -5.08) (layer F.SilkS) (width 0.15))
  (fp_line (start 19.05 -5.08) (end 22.86 -5.08) (layer F.SilkS) (width 0.15))
  (fp_line (start 22.86 -5.08) (end 22.86 -2.54) (layer F.SilkS) (width 0.15))
  (fp_line (start 36.83 -1.27) (end 36.83 -13.97) (layer F.SilkS) (width 0.15))
  (fp_line (start 24.13 -13.97) (end 24.13 -1.27) (layer F.SilkS) (width 0.15))
  (fp_line (start 24.13 -1.27) (end 36.83 -1.27) (layer F.SilkS) (width 0.15))
  (fp_line (start 24.13 -13.97) (end 36.83 -13.97) (layer F.SilkS) (width 0.15))
  (fp_line (start 58.42 -2.54) (end 59.69 -2.54) (layer F.SilkS) (width 0.15))
  (fp_line (start 58.42 -3.81) (end 59.69 -3.81) (layer F.SilkS) (width 0.15))
  (fp_line (start 58.42 -5.08) (end 59.69 -5.08) (layer F.SilkS) (width 0.15))
  (fp_line (start 58.42 -6.35) (end 59.69 -6.35) (layer F.SilkS) (width 0.15))
  (fp_line (start 58.42 -7.62) (end 59.69 -7.62) (layer F.SilkS) (width 0.15))
  (fp_line (start 58.42 -8.89) (end 59.69 -8.89) (layer F.SilkS) (width 0.15))
  (fp_line (start 58.42 -10.16) (end 59.69 -10.16) (layer F.SilkS) (width 0.15))
  (fp_line (start 58.42 -11.43) (end 59.69 -11.43) (layer F.SilkS) (width 0.15))
  (fp_line (start 58.42 -12.7) (end 59.69 -12.7) (layer F.SilkS) (width 0.15))
  (fp_line (start 59.69 -1.27) (end 58.42 -2.54) (layer F.SilkS) (width 0.15))
  (fp_line (start 58.42 -2.54) (end 58.42 -12.7) (layer F.SilkS) (width 0.15))
  (fp_line (start 58.42 -12.7) (end 59.69 -13.97) (layer F.SilkS) (width 0.15))
  (fp_line (start 59.69 -13.97) (end 46.99 -13.97) (layer F.SilkS) (width 0.15))
  (fp_line (start 46.99 -13.97) (end 46.99 -1.27) (layer F.SilkS) (width 0.15))
  (fp_line (start 46.99 -1.27) (end 59.69 -1.27) (layer F.SilkS) (width 0.15))
  (fp_line (start 59.69 -16.51) (end -1.27 -16.51) (layer F.SilkS) (width 0.15))
  (fp_line (start -1.27 1.27) (end 59.69 1.27) (layer F.SilkS) (width 0.15))
  (fp_line (start -1.27 -3.81) (end -2.54 -3.81) (layer F.SilkS) (width 0.15))
  (fp_line (start -2.54 -3.81) (end -2.54 -11.43) (layer F.SilkS) (width 0.15))
  (fp_line (start -2.54 -11.43) (end -1.27 -11.43) (layer F.SilkS) (width 0.15))
  (fp_line (start 3.81 -3.81) (end 3.81 -11.43) (layer F.SilkS) (width 0.15))
  (fp_line (start 3.81 -11.43) (end -1.27 -11.43) (layer F.SilkS) (width 0.15))
  (fp_line (start 3.81 -3.81) (end -1.27 -3.81) (layer F.SilkS) (width 0.15))
  (fp_line (start 43.18 -10.16) (end 43.18 -5.08) (layer F.SilkS) (width 0.15))
  (fp_line (start 43.18 -5.08) (end 40.64 -5.08) (layer F.SilkS) (width 0.15))
  (fp_line (start 40.64 -5.08) (end 40.64 -10.16) (layer F.SilkS) (width 0.15))
  (fp_line (start 40.64 -10.16) (end 43.18 -10.16) (layer F.SilkS) (width 0.15))
  (fp_line (start 59.69 -16.51) (end 59.69 1.27) (layer F.SilkS) (width 0.15))
  (fp_line (start -1.27 1.27) (end -1.27 -16.51) (layer F.SilkS) (width 0.15))
  (pad 62 thru_hole circle (at 2.54 -12.7 180) (size 1.6 1.6) (drill 1.1) (layers *.Cu *.Mask))
  (pad 61 thru_hole circle (at 7.7 -12.73 180) (size 1.6 1.6) (drill 1.1) (layers *.Cu *.Mask))
  (pad 60 thru_hole circle (at 10.24 -12.73 180) (size 1.6 1.6) (drill 1.1) (layers *.Cu *.Mask))
  (pad 59 thru_hole circle (at 12.78 -12.73 180) (size 1.6 1.6) (drill 1.1) (layers *.Cu *.Mask))
  (pad 58 thru_hole circle (at 45.72 -12.7 90) (size 1.6 1.6) (drill 1.1) (layers *.Cu *.Mask))
  (pad 57 thru_hole circle (at 45.72 -10.16 90) (size 1.6 1.6) (drill 1.1) (layers *.Cu *.Mask))
  (pad 56 thru_hole circle (at 45.72 -7.62 90) (size 1.6 1.6) (drill 1.1) (layers *.Cu *.Mask))
  (pad 55 thru_hole circle (at 45.72 -5.08 90) (size 1.6 1.6) (drill 1.1) (layers *.Cu *.Mask))
  (pad 54 thru_hole circle (at 45.72 -2.54 90) (size 1.6 1.6) (drill 1.1) (layers *.Cu *.Mask))
  (pad 53 thru_hole circle (at 16.51 -3 180) (size 1.6 1.6) (drill 1.1) (layers *.Cu *.Mask))
  (pad 52 thru_hole circle (at 13.97 -3 180) (size 1.6 1.6) (drill 1.1) (layers *.Cu *.Mask))
  (pad 51 thru_hole circle (at 11.43 -3 180) (size 1.6 1.6) (drill 1.1) (layers *.Cu *.Mask))
  (pad 50 thru_hole circle (at 8.89 -3 180) (size 1.6 1.6) (drill 1.1) (layers *.Cu *.Mask))
  (pad 49 thru_hole circle (at 6.35 -3 180) (size 1.6 1.6) (drill 1.1) (layers *.Cu *.Mask))
  (pad 48 thru_hole circle (at 0 -15.24) (size 1.6 1.6) (drill 1.1) (layers *.Cu *.Mask))
  (pad 47 thru_hole circle (at 2.54 -15.24) (size 1.6 1.6) (drill 1.1) (layers *.Cu *.Mask))
  (pad 46 thru_hole circle (at 5.08 -15.24) (size 1.6 1.6) (drill 1.1) (layers *.Cu *.Mask))
  (pad 45 thru_hole circle (at 7.62 -15.24) (size 1.6 1.6) (drill 1.1) (layers *.Cu *.Mask))
  (pad 44 thru_hole circle (at 10.16 -15.24) (size 1.6 1.6) (drill 1.1) (layers *.Cu *.Mask))
  (pad 43 thru_hole circle (at 12.7 -15.24) (size 1.6 1.6) (drill 1.1) (layers *.Cu *.Mask))
  (pad 42 thru_hole circle (at 15.24 -15.24) (size 1.6 1.6) (drill 1.1) (layers *.Cu *.Mask))
  (pad 41 thru_hole circle (at 17.78 -15.24) (size 1.6 1.6) (drill 1.1) (layers *.Cu *.Mask))
  (pad 40 thru_hole circle (at 20.32 -15.24) (size 1.6 1.6) (drill 1.1) (layers *.Cu *.Mask))
  (pad 39 thru_hole circle (at 22.86 -15.24) (size 1.6 1.6) (drill 1.1) (layers *.Cu *.Mask))
  (pad 38 thru_hole circle (at 25.4 -15.24) (size 1.6 1.6) (drill 1.1) (layers *.Cu *.Mask))
  (pad 1 thru_hole rect (at 0 0) (size 1.6 1.6) (drill 1.1) (layers *.Cu *.Mask))
  (pad 2 thru_hole circle (at 2.54 0) (size 1.6 1.6) (drill 1.1) (layers *.Cu *.Mask))
  (pad 3 thru_hole circle (at 5.08 0) (size 1.6 1.6) (drill 1.1) (layers *.Cu *.Mask))
  (pad 4 thru_hole circle (at 7.62 0) (size 1.6 1.6) (drill 1.1) (layers *.Cu *.Mask))
  (pad 5 thru_hole circle (at 10.16 0) (size 1.6 1.6) (drill 1.1) (layers *.Cu *.Mask))
  (pad 6 thru_hole circle (at 12.7 0) (size 1.6 1.6) (drill 1.1) (layers *.Cu *.Mask))
  (pad 7 thru_hole circle (at 15.24 0) (size 1.6 1.6) (drill 1.1) (layers *.Cu *.Mask))
  (pad 8 thru_hole circle (at 17.78 0) (size 1.6 1.6) (drill 1.1) (layers *.Cu *.Mask))
  (pad 9 thru_hole circle (at 20.32 0) (size 1.6 1.6) (drill 1.1) (layers *.Cu *.Mask))
  (pad 10 thru_hole circle (at 22.86 0) (size 1.6 1.6) (drill 1.1) (layers *.Cu *.Mask))
  (pad 11 thru_hole circle (at 25.4 0) (size 1.6 1.6) (drill 1.1) (layers *.Cu *.Mask))
  (pad 12 thru_hole circle (at 27.94 0) (size 1.6 1.6) (drill 1.1) (layers *.Cu *.Mask))
  (pad 13 thru_hole circle (at 30.48 0) (size 1.6 1.6) (drill 1.1) (layers *.Cu *.Mask))
  (pad 37 thru_hole circle (at 27.94 -15.24) (size 1.6 1.6) (drill 1.1) (layers *.Cu *.Mask))
  (pad 36 thru_hole circle (at 30.48 -15.24) (size 1.6 1.6) (drill 1.1) (layers *.Cu *.Mask))
  (pad 35 thru_hole circle (at 33.02 -15.24) (size 1.6 1.6) (drill 1.1) (layers *.Cu *.Mask))
  (pad 34 thru_hole circle (at 35.56 -15.24) (size 1.6 1.6) (drill 1.1) (layers *.Cu *.Mask))
  (pad 33 thru_hole circle (at 38.1 -15.24) (size 1.6 1.6) (drill 1.1) (layers *.Cu *.Mask))
  (pad 32 thru_hole circle (at 40.64 -15.24) (size 1.6 1.6) (drill 1.1) (layers *.Cu *.Mask))
  (pad 31 thru_hole circle (at 43.18 -15.24) (size 1.6 1.6) (drill 1.1) (layers *.Cu *.Mask))
  (pad 30 thru_hole circle (at 45.72 -15.24) (size 1.6 1.6) (drill 1.1) (layers *.Cu *.Mask))
  (pad 29 thru_hole circle (at 48.26 -15.24 90) (size 1.6 1.6) (drill 1.1) (layers *.Cu *.Mask))
  (pad 28 thru_hole circle (at 50.8 -15.24 90) (size 1.6 1.6) (drill 1.1) (layers *.Cu *.Mask))
  (pad 27 thru_hole circle (at 53.34 -15.24 90) (size 1.6 1.6) (drill 1.1) (layers *.Cu *.Mask))
  (pad 26 thru_hole circle (at 55.88 -15.24 90) (size 1.6 1.6) (drill 1.1) (layers *.Cu *.Mask))
  (pad 25 thru_hole circle (at 58.42 -15.24 90) (size 1.6 1.6) (drill 1.1) (layers *.Cu *.Mask))
  (pad 24 thru_hole circle (at 58.42 0) (size 1.6 1.6) (drill 1.1) (layers *.Cu *.Mask))
  (pad 23 thru_hole circle (at 55.88 0) (size 1.6 1.6) (drill 1.1) (layers *.Cu *.Mask))
  (pad 22 thru_hole circle (at 53.34 0) (size 1.6 1.6) (drill 1.1) (layers *.Cu *.Mask))
  (pad 21 thru_hole circle (at 50.8 0) (size 1.6 1.6) (drill 1.1) (layers *.Cu *.Mask))
  (pad 14 thru_hole circle (at 33.02 0) (size 1.6 1.6) (drill 1.1) (layers *.Cu *.Mask))
  (pad 15 thru_hole circle (at 35.56 0) (size 1.6 1.6) (drill 1.1) (layers *.Cu *.Mask))
  (pad 16 thru_hole circle (at 38.1 0) (size 1.6 1.6) (drill 1.1) (layers *.Cu *.Mask))
  (pad 20 thru_hole circle (at 48.26 0) (size 1.6 1.6) (drill 1.1) (layers *.Cu *.Mask))
  (pad 19 thru_hole circle (at 45.72 0) (size 1.6 1.6) (drill 1.1) (layers *.Cu *.Mask))
  (pad 18 thru_hole circle (at 43.18 0) (size 1.6 1.6) (drill 1.1) (layers *.Cu *.Mask))
  (pad 17 thru_hole circle (at 40.64 0) (size 1.6 1.6) (drill 1.1) (layers *.Cu *.Mask))
  (model ${KIPRJMOD}/kicad_libs_k/models_k.3d/Connector_PinSocket_2.54mm_k.3dshapes/PinSocket_1x24_P2.54mm_Vertical_k.step
    (at (xyz 0 0 0))
    (scale (xyz 1 1 1))
    (rotate (xyz 0 0 -90))
  )
  (model ${KIPRJMOD}/kicad_libs_k/models_k.3d/Connector_PinSocket_2.54mm_k.3dshapes/PinSocket_1x24_P2.54mm_Vertical_k.step
    (offset (xyz 0 15.24 0))
    (scale (xyz 1 1 1))
    (rotate (xyz 0 0 -90))
  )
  (model ${KIPRJMOD}/kicad_libs_k/models_k.3d/Connector_PinSocket_2.54mm_k.3dshapes/PinSocket_1x05_P2.54mm_Vertical_k.step
    (offset (xyz 6.35 3 0))
    (scale (xyz 1 1 1))
    (rotate (xyz 0 0 -90))
  )
  (model ${KIPRJMOD}/kicad_libs_k/models_k.3d/Connector_PinSocket_2.54mm_k.3dshapes/PinSocket_1x05_P2.54mm_Vertical_k.step
    (offset (xyz 45.72 12.7 0))
    (scale (xyz 1 1 1))
    (rotate (xyz 0 0 0))
  )
  (model ${KIPRJMOD}/kicad_libs_k/models_k.3d/Connector_PinSocket_2.54mm_k.3dshapes/PinSocket_1x03_P2.54mm_Vertical_k.step
    (offset (xyz 7.62 12.62 0))
    (scale (xyz 1 1 1))
    (rotate (xyz 0 0 -90))
  )
  (model ${KIPRJMOD}/kicad_libs_k/models_k.3d/Connector_PinSocket_2.54mm_k.3dshapes/PinSocket_1x01_P2.54mm_Vertical_k.step
    (offset (xyz 2.54 12.62 0))
    (scale (xyz 1 1 1))
    (rotate (xyz 0 0 90))
  )
  (model ${KIPRJMOD}/kicad_libs_k/models_k.3d/Module_k.3dshapes/Module_MCU_Teensy_3.5_-_3.6_k.step
    (offset (xyz -1.27 16.5 9.5))
    (scale (xyz 1 1 1))
    (rotate (xyz 0 0 90))
  )
)
