(module TMC_2209_Polulu (layer F.Cu) (tedit 60095824)
  (descr "Polulu compatible TMC2209 module")
  (tags "Stepper driver SilentStepStick")
  (fp_text reference REF** (at 7.62 2.54) (layer F.SilkS)
    (effects (font (size 1 1) (thickness 0.15)))
  )
  (fp_text value TMC_2209_Polulu (at 6.35 -20.32) (layer F.Fab)
    (effects (font (size 1 1) (thickness 0.15)))
  )
  (fp_circle (center -2 -19.6) (end -1.2 -19.6) (layer F.SilkS) (width 0.3))
  (fp_line (start -1.27 -19.05) (end 13.97 -19.05) (layer F.SilkS) (width 0.12))
  (fp_line (start 13.97 -19.05) (end 13.97 1.27) (layer F.SilkS) (width 0.12))
  (fp_line (start 13.97 1.27) (end -1.27 1.27) (layer F.SilkS) (width 0.12))
  (fp_line (start -1.27 1.27) (end -1.27 -19.05) (layer F.SilkS) (width 0.12))
  (pad 1 thru_hole rect (at 0 -17.78) (size 1.7 1.7) (drill 0.762) (layers *.Cu *.Mask))
  (pad 2 thru_hole circle (at 0 -15.24) (size 1.7 1.7) (drill 1) (layers *.Cu *.Mask))
  (pad 3 thru_hole circle (at 0 -12.7) (size 1.7 1.7) (drill 1) (layers *.Cu *.Mask))
  (pad 4 thru_hole circle (at 0 -10.16) (size 1.7 1.7) (drill 1) (layers *.Cu *.Mask))
  (pad 5 thru_hole circle (at 0 -7.62) (size 1.7 1.7) (drill 1) (layers *.Cu *.Mask))
  (pad 6 thru_hole circle (at 0 -5.08) (size 1.7 1.7) (drill 1) (layers *.Cu *.Mask))
  (pad 7 thru_hole circle (at 0 -2.54) (size 1.7 1.7) (drill 1) (layers *.Cu *.Mask))
  (pad 8 thru_hole circle (at 0 0) (size 1.7 1.7) (drill 1) (layers *.Cu *.Mask))
  (pad 9 thru_hole circle (at 12.7 0) (size 1.7 1.7) (drill 1) (layers *.Cu *.Mask))
  (pad 10 thru_hole circle (at 12.7 -2.54) (size 1.7 1.7) (drill 1) (layers *.Cu *.Mask))
  (pad 11 thru_hole circle (at 12.7 -5.08) (size 1.7 1.7) (drill 1) (layers *.Cu *.Mask))
  (pad 12 thru_hole circle (at 12.7 -7.62) (size 1.7 1.7) (drill 1) (layers *.Cu *.Mask))
  (pad 13 thru_hole circle (at 12.7 -10.16) (size 1.7 1.7) (drill 1) (layers *.Cu *.Mask))
  (pad 14 thru_hole circle (at 12.7 -12.7) (size 1.7 1.7) (drill 1) (layers *.Cu *.Mask))
  (pad 15 thru_hole circle (at 12.7 -15.24) (size 1.7 1.7) (drill 1) (layers *.Cu *.Mask))
  (pad 16 thru_hole circle (at 12.7 -17.78) (size 1.7 1.7) (drill 1) (layers *.Cu *.Mask))
  (model ${KIPRJMOD}/kicad_libs_k/models_k.3d/Module_k.3dshapes/Module_Motordriver_TMC2100_2200.step
    (offset (xyz -26.7 44.5 9.550000000000001))
    (scale (xyz 1 1 1))
    (rotate (xyz -180 0 0))
  )
  (model ${KIPRJMOD}/kicad_libs_k/models_k.3d/Connector_PinSocket_2.54mm_k.3dshapes/PinSocket_1x08_P2.54mm_Vertical_k.step
    (offset (xyz 0 17.78 0))
    (scale (xyz 1 1 1))
    (rotate (xyz 0 0 0))
  )
  (model ${KIPRJMOD}/kicad_libs_k/models_k.3d/Connector_PinSocket_2.54mm_k.3dshapes/PinSocket_1x08_P2.54mm_Vertical_k.step
    (offset (xyz 12.7 17.8 0))
    (scale (xyz 1 1 1))
    (rotate (xyz 0 0 0))
  )
)
