(module C_Axial_L3.8mm_D2.6mm_P7.50mm_Horizontal (layer F.Cu) (tedit 5AE50EF0)
  (descr "C, Axial series, Axial, Horizontal, pin pitch=7.5mm, , length*diameter=3.8*2.6mm^2, http://www.vishay.com/docs/45231/arseries.pdf")
  (tags "C Axial series Axial Horizontal pin pitch 7.5mm  length 3.8mm diameter 2.6mm")
  (fp_text reference REF** (at 3.75 -2.42) (layer F.SilkS)
    (effects (font (size 1 1) (thickness 0.15)))
  )
  (fp_text value C_Axial_L3.8mm_D2.6mm_P7.50mm_Horizontal (at 3.75 2.42) (layer F.Fab)
    (effects (font (size 1 1) (thickness 0.15)))
  )
  (fp_line (start 1.85 -1.3) (end 1.85 1.3) (layer F.Fab) (width 0.1))
  (fp_line (start 1.85 1.3) (end 5.65 1.3) (layer F.Fab) (width 0.1))
  (fp_line (start 5.65 1.3) (end 5.65 -1.3) (layer F.Fab) (width 0.1))
  (fp_line (start 5.65 -1.3) (end 1.85 -1.3) (layer F.Fab) (width 0.1))
  (fp_line (start 0 0) (end 1.85 0) (layer F.Fab) (width 0.1))
  (fp_line (start 7.5 0) (end 5.65 0) (layer F.Fab) (width 0.1))
  (fp_line (start 1.73 -1.42) (end 1.73 1.42) (layer F.SilkS) (width 0.12))
  (fp_line (start 1.73 1.42) (end 5.77 1.42) (layer F.SilkS) (width 0.12))
  (fp_line (start 5.77 1.42) (end 5.77 -1.42) (layer F.SilkS) (width 0.12))
  (fp_line (start 5.77 -1.42) (end 1.73 -1.42) (layer F.SilkS) (width 0.12))
  (fp_line (start 1.04 0) (end 1.73 0) (layer F.SilkS) (width 0.12))
  (fp_line (start 6.46 0) (end 5.77 0) (layer F.SilkS) (width 0.12))
  (fp_line (start -1.05 -1.55) (end -1.05 1.55) (layer F.CrtYd) (width 0.05))
  (fp_line (start -1.05 1.55) (end 8.55 1.55) (layer F.CrtYd) (width 0.05))
  (fp_line (start 8.55 1.55) (end 8.55 -1.55) (layer F.CrtYd) (width 0.05))
  (fp_line (start 8.55 -1.55) (end -1.05 -1.55) (layer F.CrtYd) (width 0.05))
  (pad 1 thru_hole circle (at 0 0) (size 1.6 1.6) (drill 0.8) (layers *.Cu *.Mask))
  (pad 2 thru_hole oval (at 7.5 0) (size 1.6 1.6) (drill 0.8) (layers *.Cu *.Mask))
  (fp_text user %R (at 3.75 0) (layer F.Fab)
    (effects (font (size 0.76 0.76) (thickness 0.114)))
  )
  (model ${KIPRJMOD}/kicad_libs_k/models_k.3d/Capacitor_THT_k.3dshapes/C_Axial_L3.8mm_D2.6mm_P7.50mm_Horizontal_k.wrl
    (at (xyz 0 0 0))
    (scale (xyz 1 1 1))
    (rotate (xyz 0 0 0))
  )
)