(module C_Axial_L5.1mm_D3.1mm_P15.00mm_Horizontal (layer F.Cu) (tedit 5AE50EF0)
  (descr "C, Axial series, Axial, Horizontal, pin pitch=15mm, , length*diameter=5.1*3.1mm^2, http://www.vishay.com/docs/45231/arseries.pdf")
  (tags "C Axial series Axial Horizontal pin pitch 15mm  length 5.1mm diameter 3.1mm")
  (fp_text reference REF** (at 7.5 -2.67) (layer F.SilkS)
    (effects (font (size 1 1) (thickness 0.15)))
  )
  (fp_text value C_Axial_L5.1mm_D3.1mm_P15.00mm_Horizontal (at 7.5 2.67) (layer F.Fab)
    (effects (font (size 1 1) (thickness 0.15)))
  )
  (fp_line (start 4.95 -1.55) (end 4.95 1.55) (layer F.Fab) (width 0.1))
  (fp_line (start 4.95 1.55) (end 10.05 1.55) (layer F.Fab) (width 0.1))
  (fp_line (start 10.05 1.55) (end 10.05 -1.55) (layer F.Fab) (width 0.1))
  (fp_line (start 10.05 -1.55) (end 4.95 -1.55) (layer F.Fab) (width 0.1))
  (fp_line (start 0 0) (end 4.95 0) (layer F.Fab) (width 0.1))
  (fp_line (start 15 0) (end 10.05 0) (layer F.Fab) (width 0.1))
  (fp_line (start 4.83 -1.67) (end 4.83 1.67) (layer F.SilkS) (width 0.12))
  (fp_line (start 4.83 1.67) (end 10.17 1.67) (layer F.SilkS) (width 0.12))
  (fp_line (start 10.17 1.67) (end 10.17 -1.67) (layer F.SilkS) (width 0.12))
  (fp_line (start 10.17 -1.67) (end 4.83 -1.67) (layer F.SilkS) (width 0.12))
  (fp_line (start 1.04 0) (end 4.83 0) (layer F.SilkS) (width 0.12))
  (fp_line (start 13.96 0) (end 10.17 0) (layer F.SilkS) (width 0.12))
  (fp_line (start -1.05 -1.8) (end -1.05 1.8) (layer F.CrtYd) (width 0.05))
  (fp_line (start -1.05 1.8) (end 16.05 1.8) (layer F.CrtYd) (width 0.05))
  (fp_line (start 16.05 1.8) (end 16.05 -1.8) (layer F.CrtYd) (width 0.05))
  (fp_line (start 16.05 -1.8) (end -1.05 -1.8) (layer F.CrtYd) (width 0.05))
  (pad 1 thru_hole circle (at 0 0) (size 1.6 1.6) (drill 0.8) (layers *.Cu *.Mask))
  (pad 2 thru_hole oval (at 15 0) (size 1.6 1.6) (drill 0.8) (layers *.Cu *.Mask))
  (fp_text user %R (at 7.5 0) (layer F.Fab)
    (effects (font (size 1 1) (thickness 0.15)))
  )
  (model ${KIPRJMOD}/kicad_libs_k/models_k.3d/Capacitor_THT_k.3dshapes/C_Axial_L5.1mm_D3.1mm_P15.00mm_Horizontal_k.wrl
    (at (xyz 0 0 0))
    (scale (xyz 1 1 1))
    (rotate (xyz 0 0 0))
  )
)