(module C_Disc_D4.7mm_W2.5mm_P5.00mm (layer F.Cu) (tedit 5AE50EF0)
  (descr "C, Disc series, Radial, pin pitch=5.00mm, , diameter*width=4.7*2.5mm^2, Capacitor, http://www.vishay.com/docs/45233/krseries.pdf")
  (tags "C Disc series Radial pin pitch 5.00mm  diameter 4.7mm width 2.5mm Capacitor")
  (fp_text reference REF** (at 2.5 -2.5) (layer F.SilkS)
    (effects (font (size 1 1) (thickness 0.15)))
  )
  (fp_text value C_Disc_D4.7mm_W2.5mm_P5.00mm (at 2.5 2.5) (layer F.Fab)
    (effects (font (size 1 1) (thickness 0.15)))
  )
  (fp_line (start 0.15 -1.25) (end 0.15 1.25) (layer F.Fab) (width 0.1))
  (fp_line (start 0.15 1.25) (end 4.85 1.25) (layer F.Fab) (width 0.1))
  (fp_line (start 4.85 1.25) (end 4.85 -1.25) (layer F.Fab) (width 0.1))
  (fp_line (start 4.85 -1.25) (end 0.15 -1.25) (layer F.Fab) (width 0.1))
  (fp_line (start 0.03 -1.37) (end 4.97 -1.37) (layer F.SilkS) (width 0.12))
  (fp_line (start 0.03 1.37) (end 4.97 1.37) (layer F.SilkS) (width 0.12))
  (fp_line (start 0.03 -1.37) (end 0.03 -1.055) (layer F.SilkS) (width 0.12))
  (fp_line (start 0.03 1.055) (end 0.03 1.37) (layer F.SilkS) (width 0.12))
  (fp_line (start 4.97 -1.37) (end 4.97 -1.055) (layer F.SilkS) (width 0.12))
  (fp_line (start 4.97 1.055) (end 4.97 1.37) (layer F.SilkS) (width 0.12))
  (fp_line (start -1.05 -1.5) (end -1.05 1.5) (layer F.CrtYd) (width 0.05))
  (fp_line (start -1.05 1.5) (end 6.05 1.5) (layer F.CrtYd) (width 0.05))
  (fp_line (start 6.05 1.5) (end 6.05 -1.5) (layer F.CrtYd) (width 0.05))
  (fp_line (start 6.05 -1.5) (end -1.05 -1.5) (layer F.CrtYd) (width 0.05))
  (pad 1 thru_hole circle (at 0 0) (size 1.6 1.6) (drill 0.8) (layers *.Cu *.Mask))
  (pad 2 thru_hole circle (at 5 0) (size 1.6 1.6) (drill 0.8) (layers *.Cu *.Mask))
  (fp_text user %R (at 2.5 0) (layer F.Fab)
    (effects (font (size 0.94 0.94) (thickness 0.141)))
  )
  (model ${KIPRJMOD}/kicad_libs_k/models_k.3d/Capacitor_THT_k.3dshapes/C_Disc_D4.7mm_W2.5mm_P5.00mm_k.wrl
    (at (xyz 0 0 0))
    (scale (xyz 1 1 1))
    (rotate (xyz 0 0 0))
  )
)