(module C_Disc_D16.0mm_W5.0mm_P7.50mm (layer F.Cu) (tedit 5AE50EF0)
  (descr "C, Disc series, Radial, pin pitch=7.50mm, , diameter*width=16.0*5.0mm^2, Capacitor, http://www.vishay.com/docs/28535/vy2series.pdf")
  (tags "C Disc series Radial pin pitch 7.50mm  diameter 16.0mm width 5.0mm Capacitor")
  (fp_text reference REF** (at 3.75 -3.75) (layer F.SilkS)
    (effects (font (size 1 1) (thickness 0.15)))
  )
  (fp_text value C_Disc_D16.0mm_W5.0mm_P7.50mm (at 3.75 3.75) (layer F.Fab)
    (effects (font (size 1 1) (thickness 0.15)))
  )
  (fp_line (start -4.25 -2.5) (end -4.25 2.5) (layer F.Fab) (width 0.1))
  (fp_line (start -4.25 2.5) (end 11.75 2.5) (layer F.Fab) (width 0.1))
  (fp_line (start 11.75 2.5) (end 11.75 -2.5) (layer F.Fab) (width 0.1))
  (fp_line (start 11.75 -2.5) (end -4.25 -2.5) (layer F.Fab) (width 0.1))
  (fp_line (start -4.37 -2.62) (end 11.87 -2.62) (layer F.SilkS) (width 0.12))
  (fp_line (start -4.37 2.62) (end 11.87 2.62) (layer F.SilkS) (width 0.12))
  (fp_line (start -4.37 -2.62) (end -4.37 2.62) (layer F.SilkS) (width 0.12))
  (fp_line (start 11.87 -2.62) (end 11.87 2.62) (layer F.SilkS) (width 0.12))
  (fp_line (start -4.5 -2.75) (end -4.5 2.75) (layer F.CrtYd) (width 0.05))
  (fp_line (start -4.5 2.75) (end 12 2.75) (layer F.CrtYd) (width 0.05))
  (fp_line (start 12 2.75) (end 12 -2.75) (layer F.CrtYd) (width 0.05))
  (fp_line (start 12 -2.75) (end -4.5 -2.75) (layer F.CrtYd) (width 0.05))
  (pad 1 thru_hole circle (at 0 0) (size 2 2) (drill 1) (layers *.Cu *.Mask))
  (pad 2 thru_hole circle (at 7.5 0) (size 2 2) (drill 1) (layers *.Cu *.Mask))
  (fp_text user %R (at 3.75 0) (layer F.Fab)
    (effects (font (size 1 1) (thickness 0.15)))
  )
  (model ${KIPRJMOD}/kicad_libs_k/models_k.3d/Capacitor_THT_k.3dshapes/C_Disc_D16.0mm_W5.0mm_P7.50mm_k.wrl
    (at (xyz 0 0 0))
    (scale (xyz 1 1 1))
    (rotate (xyz 0 0 0))
  )
)