(module C_Rect_L41.5mm_W35.0mm_P37.50mm_MKS4 (layer F.Cu) (tedit 5AE50EF0)
  (descr "C, Rect series, Radial, pin pitch=37.50mm, , length*width=41.5*35mm^2, Capacitor, http://www.wima.com/EN/WIMA_MKS_4.pdf")
  (tags "C Rect series Radial pin pitch 37.50mm  length 41.5mm width 35mm Capacitor")
  (fp_text reference REF** (at 18.75 -18.75) (layer F.SilkS)
    (effects (font (size 1 1) (thickness 0.15)))
  )
  (fp_text value C_Rect_L41.5mm_W35.0mm_P37.50mm_MKS4 (at 18.75 18.75) (layer F.Fab)
    (effects (font (size 1 1) (thickness 0.15)))
  )
  (fp_line (start -2 -17.5) (end -2 17.5) (layer F.Fab) (width 0.1))
  (fp_line (start -2 17.5) (end 39.5 17.5) (layer F.Fab) (width 0.1))
  (fp_line (start 39.5 17.5) (end 39.5 -17.5) (layer F.Fab) (width 0.1))
  (fp_line (start 39.5 -17.5) (end -2 -17.5) (layer F.Fab) (width 0.1))
  (fp_line (start -2.12 -17.62) (end 39.62 -17.62) (layer F.SilkS) (width 0.12))
  (fp_line (start -2.12 17.62) (end 39.62 17.62) (layer F.SilkS) (width 0.12))
  (fp_line (start -2.12 -17.62) (end -2.12 17.62) (layer F.SilkS) (width 0.12))
  (fp_line (start 39.62 -17.62) (end 39.62 17.62) (layer F.SilkS) (width 0.12))
  (fp_line (start -2.25 -17.75) (end -2.25 17.75) (layer F.CrtYd) (width 0.05))
  (fp_line (start -2.25 17.75) (end 39.75 17.75) (layer F.CrtYd) (width 0.05))
  (fp_line (start 39.75 17.75) (end 39.75 -17.75) (layer F.CrtYd) (width 0.05))
  (fp_line (start 39.75 -17.75) (end -2.25 -17.75) (layer F.CrtYd) (width 0.05))
  (pad 1 thru_hole circle (at 0 0) (size 2.8 2.8) (drill 1.4) (layers *.Cu *.Mask))
  (pad 2 thru_hole circle (at 37.5 0) (size 2.8 2.8) (drill 1.4) (layers *.Cu *.Mask))
  (fp_text user %R (at 18.75 0) (layer F.Fab)
    (effects (font (size 1 1) (thickness 0.15)))
  )
  (model ${KIPRJMOD}/kicad_libs_k/models_k.3d/Capacitor_THT_k.3dshapes/C_Rect_L41.5mm_W35.0mm_P37.50mm_MKS4_k.wrl
    (at (xyz 0 0 0))
    (scale (xyz 1 1 1))
    (rotate (xyz 0 0 0))
  )
)