(module C_Rect_L4.0mm_W2.5mm_P2.50mm (layer F.Cu) (tedit 5AE50EF0)
  (descr "C, Rect series, Radial, pin pitch=2.50mm, , length*width=4*2.5mm^2, Capacitor")
  (tags "C Rect series Radial pin pitch 2.50mm  length 4mm width 2.5mm Capacitor")
  (fp_text reference REF** (at 1.25 -2.5) (layer F.SilkS)
    (effects (font (size 1 1) (thickness 0.15)))
  )
  (fp_text value C_Rect_L4.0mm_W2.5mm_P2.50mm (at 1.25 2.5) (layer F.Fab)
    (effects (font (size 1 1) (thickness 0.15)))
  )
  (fp_line (start -0.75 -1.25) (end -0.75 1.25) (layer F.Fab) (width 0.1))
  (fp_line (start -0.75 1.25) (end 3.25 1.25) (layer F.Fab) (width 0.1))
  (fp_line (start 3.25 1.25) (end 3.25 -1.25) (layer F.Fab) (width 0.1))
  (fp_line (start 3.25 -1.25) (end -0.75 -1.25) (layer F.Fab) (width 0.1))
  (fp_line (start -0.87 -1.37) (end 3.37 -1.37) (layer F.SilkS) (width 0.12))
  (fp_line (start -0.87 1.37) (end 3.37 1.37) (layer F.SilkS) (width 0.12))
  (fp_line (start -0.87 -1.37) (end -0.87 -0.665) (layer F.SilkS) (width 0.12))
  (fp_line (start -0.87 0.665) (end -0.87 1.37) (layer F.SilkS) (width 0.12))
  (fp_line (start 3.37 -1.37) (end 3.37 -0.665) (layer F.SilkS) (width 0.12))
  (fp_line (start 3.37 0.665) (end 3.37 1.37) (layer F.SilkS) (width 0.12))
  (fp_line (start -1.05 -1.5) (end -1.05 1.5) (layer F.CrtYd) (width 0.05))
  (fp_line (start -1.05 1.5) (end 3.55 1.5) (layer F.CrtYd) (width 0.05))
  (fp_line (start 3.55 1.5) (end 3.55 -1.5) (layer F.CrtYd) (width 0.05))
  (fp_line (start 3.55 -1.5) (end -1.05 -1.5) (layer F.CrtYd) (width 0.05))
  (pad 1 thru_hole circle (at 0 0) (size 1.6 1.6) (drill 0.8) (layers *.Cu *.Mask))
  (pad 2 thru_hole circle (at 2.5 0) (size 1.6 1.6) (drill 0.8) (layers *.Cu *.Mask))
  (fp_text user %R (at 1.25 0) (layer F.Fab)
    (effects (font (size 0.8 0.8) (thickness 0.12)))
  )
  (model ${KIPRJMOD}/kicad_libs_k/models_k.3d/Capacitor_THT_k.3dshapes/C_Rect_L4.0mm_W2.5mm_P2.50mm_k.wrl
    (at (xyz 0 0 0))
    (scale (xyz 1 1 1))
    (rotate (xyz 0 0 0))
  )
)