(module C_Rect_L32.0mm_W15.0mm_P27.00mm (layer F.Cu) (tedit 5AE50EF0)
  (descr "C, Rect series, Radial, pin pitch=27.00mm, , length*width=32*15mm^2, Capacitor")
  (tags "C Rect series Radial pin pitch 27.00mm  length 32mm width 15mm Capacitor")
  (fp_text reference REF** (at 13.5 -8.75) (layer F.SilkS)
    (effects (font (size 1 1) (thickness 0.15)))
  )
  (fp_text value C_Rect_L32.0mm_W15.0mm_P27.00mm (at 13.5 8.75) (layer F.Fab)
    (effects (font (size 1 1) (thickness 0.15)))
  )
  (fp_line (start -2.5 -7.5) (end -2.5 7.5) (layer F.Fab) (width 0.1))
  (fp_line (start -2.5 7.5) (end 29.5 7.5) (layer F.Fab) (width 0.1))
  (fp_line (start 29.5 7.5) (end 29.5 -7.5) (layer F.Fab) (width 0.1))
  (fp_line (start 29.5 -7.5) (end -2.5 -7.5) (layer F.Fab) (width 0.1))
  (fp_line (start -2.62 -7.62) (end 29.62 -7.62) (layer F.SilkS) (width 0.12))
  (fp_line (start -2.62 7.62) (end 29.62 7.62) (layer F.SilkS) (width 0.12))
  (fp_line (start -2.62 -7.62) (end -2.62 7.62) (layer F.SilkS) (width 0.12))
  (fp_line (start 29.62 -7.62) (end 29.62 7.62) (layer F.SilkS) (width 0.12))
  (fp_line (start -2.75 -7.75) (end -2.75 7.75) (layer F.CrtYd) (width 0.05))
  (fp_line (start -2.75 7.75) (end 29.75 7.75) (layer F.CrtYd) (width 0.05))
  (fp_line (start 29.75 7.75) (end 29.75 -7.75) (layer F.CrtYd) (width 0.05))
  (fp_line (start 29.75 -7.75) (end -2.75 -7.75) (layer F.CrtYd) (width 0.05))
  (pad 1 thru_hole circle (at 0 0) (size 2.2 2.2) (drill 1.1) (layers *.Cu *.Mask))
  (pad 2 thru_hole circle (at 27 0) (size 2.2 2.2) (drill 1.1) (layers *.Cu *.Mask))
  (fp_text user %R (at 13.5 0) (layer F.Fab)
    (effects (font (size 1 1) (thickness 0.15)))
  )
  (model ${KIPRJMOD}/kicad_libs_k/models_k.3d/Capacitor_THT_k.3dshapes/C_Rect_L32.0mm_W15.0mm_P27.00mm_k.wrl
    (at (xyz 0 0 0))
    (scale (xyz 1 1 1))
    (rotate (xyz 0 0 0))
  )
)