(module C_Rect_L7.2mm_W2.5mm_P5.00mm_FKS2_FKP2_MKS2_MKP2 (layer F.Cu) (tedit 5AE50EF0)
  (descr "C, Rect series, Radial, pin pitch=5.00mm, , length*width=7.2*2.5mm^2, Capacitor, http://www.wima.com/EN/WIMA_FKS_2.pdf")
  (tags "C Rect series Radial pin pitch 5.00mm  length 7.2mm width 2.5mm Capacitor")
  (fp_text reference REF** (at 2.5 -2.5) (layer F.SilkS)
    (effects (font (size 1 1) (thickness 0.15)))
  )
  (fp_text value C_Rect_L7.2mm_W2.5mm_P5.00mm_FKS2_FKP2_MKS2_MKP2 (at 2.5 2.5) (layer F.Fab)
    (effects (font (size 1 1) (thickness 0.15)))
  )
  (fp_line (start -1.1 -1.25) (end -1.1 1.25) (layer F.Fab) (width 0.1))
  (fp_line (start -1.1 1.25) (end 6.1 1.25) (layer F.Fab) (width 0.1))
  (fp_line (start 6.1 1.25) (end 6.1 -1.25) (layer F.Fab) (width 0.1))
  (fp_line (start 6.1 -1.25) (end -1.1 -1.25) (layer F.Fab) (width 0.1))
  (fp_line (start -1.22 -1.37) (end 6.22 -1.37) (layer F.SilkS) (width 0.12))
  (fp_line (start -1.22 1.37) (end 6.22 1.37) (layer F.SilkS) (width 0.12))
  (fp_line (start -1.22 -1.37) (end -1.22 1.37) (layer F.SilkS) (width 0.12))
  (fp_line (start 6.22 -1.37) (end 6.22 1.37) (layer F.SilkS) (width 0.12))
  (fp_line (start -1.35 -1.5) (end -1.35 1.5) (layer F.CrtYd) (width 0.05))
  (fp_line (start -1.35 1.5) (end 6.35 1.5) (layer F.CrtYd) (width 0.05))
  (fp_line (start 6.35 1.5) (end 6.35 -1.5) (layer F.CrtYd) (width 0.05))
  (fp_line (start 6.35 -1.5) (end -1.35 -1.5) (layer F.CrtYd) (width 0.05))
  (pad 1 thru_hole circle (at 0 0) (size 1.6 1.6) (drill 0.8) (layers *.Cu *.Mask))
  (pad 2 thru_hole circle (at 5 0) (size 1.6 1.6) (drill 0.8) (layers *.Cu *.Mask))
  (fp_text user %R (at 2.5 0) (layer F.Fab)
    (effects (font (size 1 1) (thickness 0.15)))
  )
  (model ${KIPRJMOD}/kicad_libs_k/models_k.3d/Capacitor_THT_k.3dshapes/C_Rect_L7.2mm_W2.5mm_P5.00mm_FKS2_FKP2_MKS2_MKP2_k.wrl
    (at (xyz 0 0 0))
    (scale (xyz 1 1 1))
    (rotate (xyz 0 0 0))
  )
)