(module C_Rect_L27.0mm_W9.0mm_P22.00mm (layer F.Cu) (tedit 5AE50EF0)
  (descr "C, Rect series, Radial, pin pitch=22.00mm, , length*width=27*9mm^2, Capacitor")
  (tags "C Rect series Radial pin pitch 22.00mm  length 27mm width 9mm Capacitor")
  (fp_text reference REF** (at 11 -5.75) (layer F.SilkS)
    (effects (font (size 1 1) (thickness 0.15)))
  )
  (fp_text value C_Rect_L27.0mm_W9.0mm_P22.00mm (at 11 5.75) (layer F.Fab)
    (effects (font (size 1 1) (thickness 0.15)))
  )
  (fp_line (start -2.5 -4.5) (end -2.5 4.5) (layer F.Fab) (width 0.1))
  (fp_line (start -2.5 4.5) (end 24.5 4.5) (layer F.Fab) (width 0.1))
  (fp_line (start 24.5 4.5) (end 24.5 -4.5) (layer F.Fab) (width 0.1))
  (fp_line (start 24.5 -4.5) (end -2.5 -4.5) (layer F.Fab) (width 0.1))
  (fp_line (start -2.62 -4.62) (end 24.62 -4.62) (layer F.SilkS) (width 0.12))
  (fp_line (start -2.62 4.62) (end 24.62 4.62) (layer F.SilkS) (width 0.12))
  (fp_line (start -2.62 -4.62) (end -2.62 4.62) (layer F.SilkS) (width 0.12))
  (fp_line (start 24.62 -4.62) (end 24.62 4.62) (layer F.SilkS) (width 0.12))
  (fp_line (start -2.75 -4.75) (end -2.75 4.75) (layer F.CrtYd) (width 0.05))
  (fp_line (start -2.75 4.75) (end 24.75 4.75) (layer F.CrtYd) (width 0.05))
  (fp_line (start 24.75 4.75) (end 24.75 -4.75) (layer F.CrtYd) (width 0.05))
  (fp_line (start 24.75 -4.75) (end -2.75 -4.75) (layer F.CrtYd) (width 0.05))
  (pad 1 thru_hole circle (at 0 0) (size 2.2 2.2) (drill 1.1) (layers *.Cu *.Mask))
  (pad 2 thru_hole circle (at 22 0) (size 2.2 2.2) (drill 1.1) (layers *.Cu *.Mask))
  (fp_text user %R (at 11 0) (layer F.Fab)
    (effects (font (size 1 1) (thickness 0.15)))
  )
  (model ${KIPRJMOD}/kicad_libs_k/models_k.3d/Capacitor_THT_k.3dshapes/C_Rect_L27.0mm_W9.0mm_P22.00mm_k.wrl
    (at (xyz 0 0 0))
    (scale (xyz 1 1 1))
    (rotate (xyz 0 0 0))
  )
)