(module C_Rect_L41.5mm_W40.0mm_P37.50mm_MKS4 (layer F.Cu) (tedit 5AE50EF0)
  (descr "C, Rect series, Radial, pin pitch=37.50mm, , length*width=41.5*40mm^2, Capacitor, http://www.wima.com/EN/WIMA_MKS_4.pdf")
  (tags "C Rect series Radial pin pitch 37.50mm  length 41.5mm width 40mm Capacitor")
  (fp_text reference REF** (at 18.75 -21.25) (layer F.SilkS)
    (effects (font (size 1 1) (thickness 0.15)))
  )
  (fp_text value C_Rect_L41.5mm_W40.0mm_P37.50mm_MKS4 (at 18.75 21.25) (layer F.Fab)
    (effects (font (size 1 1) (thickness 0.15)))
  )
  (fp_line (start -2 -20) (end -2 20) (layer F.Fab) (width 0.1))
  (fp_line (start -2 20) (end 39.5 20) (layer F.Fab) (width 0.1))
  (fp_line (start 39.5 20) (end 39.5 -20) (layer F.Fab) (width 0.1))
  (fp_line (start 39.5 -20) (end -2 -20) (layer F.Fab) (width 0.1))
  (fp_line (start -2.12 -20.12) (end 39.62 -20.12) (layer F.SilkS) (width 0.12))
  (fp_line (start -2.12 20.12) (end 39.62 20.12) (layer F.SilkS) (width 0.12))
  (fp_line (start -2.12 -20.12) (end -2.12 20.12) (layer F.SilkS) (width 0.12))
  (fp_line (start 39.62 -20.12) (end 39.62 20.12) (layer F.SilkS) (width 0.12))
  (fp_line (start -2.25 -20.25) (end -2.25 20.25) (layer F.CrtYd) (width 0.05))
  (fp_line (start -2.25 20.25) (end 39.75 20.25) (layer F.CrtYd) (width 0.05))
  (fp_line (start 39.75 20.25) (end 39.75 -20.25) (layer F.CrtYd) (width 0.05))
  (fp_line (start 39.75 -20.25) (end -2.25 -20.25) (layer F.CrtYd) (width 0.05))
  (pad 1 thru_hole circle (at 0 0) (size 2.8 2.8) (drill 1.4) (layers *.Cu *.Mask))
  (pad 2 thru_hole circle (at 37.5 0) (size 2.8 2.8) (drill 1.4) (layers *.Cu *.Mask))
  (fp_text user %R (at 18.75 0) (layer F.Fab)
    (effects (font (size 1 1) (thickness 0.15)))
  )
  (model ${KIPRJMOD}/kicad_libs_k/models_k.3d/Capacitor_THT_k.3dshapes/C_Rect_L41.5mm_W40.0mm_P37.50mm_MKS4_k.wrl
    (at (xyz 0 0 0))
    (scale (xyz 1 1 1))
    (rotate (xyz 0 0 0))
  )
)