(module C_Rect_L31.5mm_W9.0mm_P27.50mm_MKS4 (layer F.Cu) (tedit 5AE50EF0)
  (descr "C, Rect series, Radial, pin pitch=27.50mm, , length*width=31.5*9mm^2, Capacitor, http://www.wima.com/EN/WIMA_MKS_4.pdf")
  (tags "C Rect series Radial pin pitch 27.50mm  length 31.5mm width 9mm Capacitor")
  (fp_text reference REF** (at 13.75 -5.75) (layer F.SilkS)
    (effects (font (size 1 1) (thickness 0.15)))
  )
  (fp_text value C_Rect_L31.5mm_W9.0mm_P27.50mm_MKS4 (at 13.75 5.75) (layer F.Fab)
    (effects (font (size 1 1) (thickness 0.15)))
  )
  (fp_line (start -2 -4.5) (end -2 4.5) (layer F.Fab) (width 0.1))
  (fp_line (start -2 4.5) (end 29.5 4.5) (layer F.Fab) (width 0.1))
  (fp_line (start 29.5 4.5) (end 29.5 -4.5) (layer F.Fab) (width 0.1))
  (fp_line (start 29.5 -4.5) (end -2 -4.5) (layer F.Fab) (width 0.1))
  (fp_line (start -2.12 -4.62) (end 29.62 -4.62) (layer F.SilkS) (width 0.12))
  (fp_line (start -2.12 4.62) (end 29.62 4.62) (layer F.SilkS) (width 0.12))
  (fp_line (start -2.12 -4.62) (end -2.12 4.62) (layer F.SilkS) (width 0.12))
  (fp_line (start 29.62 -4.62) (end 29.62 4.62) (layer F.SilkS) (width 0.12))
  (fp_line (start -2.25 -4.75) (end -2.25 4.75) (layer F.CrtYd) (width 0.05))
  (fp_line (start -2.25 4.75) (end 29.75 4.75) (layer F.CrtYd) (width 0.05))
  (fp_line (start 29.75 4.75) (end 29.75 -4.75) (layer F.CrtYd) (width 0.05))
  (fp_line (start 29.75 -4.75) (end -2.25 -4.75) (layer F.CrtYd) (width 0.05))
  (pad 1 thru_hole circle (at 0 0) (size 2.4 2.4) (drill 1.2) (layers *.Cu *.Mask))
  (pad 2 thru_hole circle (at 27.5 0) (size 2.4 2.4) (drill 1.2) (layers *.Cu *.Mask))
  (fp_text user %R (at 13.75 0) (layer F.Fab)
    (effects (font (size 1 1) (thickness 0.15)))
  )
  (model ${KIPRJMOD}/kicad_libs_k/models_k.3d/Capacitor_THT_k.3dshapes/C_Rect_L31.5mm_W9.0mm_P27.50mm_MKS4_k.wrl
    (at (xyz 0 0 0))
    (scale (xyz 1 1 1))
    (rotate (xyz 0 0 0))
  )
)