(module C_Rect_L9.0mm_W3.8mm_P7.50mm_MKT (layer F.Cu) (tedit 5AE50EF0)
  (descr "C, Rect series, Radial, pin pitch=7.50mm, , length*width=9*3.8mm^2, Capacitor, https://en.tdk.eu/inf/20/20/db/fc_2009/MKT_B32560_564.pdf")
  (tags "C Rect series Radial pin pitch 7.50mm  length 9mm width 3.8mm Capacitor")
  (fp_text reference REF** (at 3.75 -3.15) (layer F.SilkS)
    (effects (font (size 1 1) (thickness 0.15)))
  )
  (fp_text value C_Rect_L9.0mm_W3.8mm_P7.50mm_MKT (at 3.75 3.15) (layer F.Fab)
    (effects (font (size 1 1) (thickness 0.15)))
  )
  (fp_line (start -0.75 -1.9) (end -0.75 1.9) (layer F.Fab) (width 0.1))
  (fp_line (start -0.75 1.9) (end 8.25 1.9) (layer F.Fab) (width 0.1))
  (fp_line (start 8.25 1.9) (end 8.25 -1.9) (layer F.Fab) (width 0.1))
  (fp_line (start 8.25 -1.9) (end -0.75 -1.9) (layer F.Fab) (width 0.1))
  (fp_line (start -0.87 -2.02) (end 8.37 -2.02) (layer F.SilkS) (width 0.12))
  (fp_line (start -0.87 2.02) (end 8.37 2.02) (layer F.SilkS) (width 0.12))
  (fp_line (start -0.87 -2.02) (end -0.87 -0.665) (layer F.SilkS) (width 0.12))
  (fp_line (start -0.87 0.665) (end -0.87 2.02) (layer F.SilkS) (width 0.12))
  (fp_line (start 8.37 -2.02) (end 8.37 -0.665) (layer F.SilkS) (width 0.12))
  (fp_line (start 8.37 0.665) (end 8.37 2.02) (layer F.SilkS) (width 0.12))
  (fp_line (start -1.05 -2.15) (end -1.05 2.15) (layer F.CrtYd) (width 0.05))
  (fp_line (start -1.05 2.15) (end 8.55 2.15) (layer F.CrtYd) (width 0.05))
  (fp_line (start 8.55 2.15) (end 8.55 -2.15) (layer F.CrtYd) (width 0.05))
  (fp_line (start 8.55 -2.15) (end -1.05 -2.15) (layer F.CrtYd) (width 0.05))
  (pad 1 thru_hole circle (at 0 0) (size 1.6 1.6) (drill 0.8) (layers *.Cu *.Mask))
  (pad 2 thru_hole circle (at 7.5 0) (size 1.6 1.6) (drill 0.8) (layers *.Cu *.Mask))
  (fp_text user %R (at 3.75 0) (layer F.Fab)
    (effects (font (size 1 1) (thickness 0.15)))
  )
  (model ${KIPRJMOD}/kicad_libs_k/models_k.3d/Capacitor_THT_k.3dshapes/C_Rect_L9.0mm_W3.8mm_P7.50mm_MKT_k.wrl
    (at (xyz 0 0 0))
    (scale (xyz 1 1 1))
    (rotate (xyz 0 0 0))
  )
)