(module C_Rect_L7.0mm_W2.0mm_P5.00mm (layer F.Cu) (tedit 5AE50EF0)
  (descr "C, Rect series, Radial, pin pitch=5.00mm, , length*width=7*2mm^2, Capacitor")
  (tags "C Rect series Radial pin pitch 5.00mm  length 7mm width 2mm Capacitor")
  (fp_text reference REF** (at 2.5 -2.25) (layer F.SilkS)
    (effects (font (size 1 1) (thickness 0.15)))
  )
  (fp_text value C_Rect_L7.0mm_W2.0mm_P5.00mm (at 2.5 2.25) (layer F.Fab)
    (effects (font (size 1 1) (thickness 0.15)))
  )
  (fp_line (start -1 -1) (end -1 1) (layer F.Fab) (width 0.1))
  (fp_line (start -1 1) (end 6 1) (layer F.Fab) (width 0.1))
  (fp_line (start 6 1) (end 6 -1) (layer F.Fab) (width 0.1))
  (fp_line (start 6 -1) (end -1 -1) (layer F.Fab) (width 0.1))
  (fp_line (start -1.12 -1.12) (end 6.12 -1.12) (layer F.SilkS) (width 0.12))
  (fp_line (start -1.12 1.12) (end 6.12 1.12) (layer F.SilkS) (width 0.12))
  (fp_line (start -1.12 -1.12) (end -1.12 1.12) (layer F.SilkS) (width 0.12))
  (fp_line (start 6.12 -1.12) (end 6.12 1.12) (layer F.SilkS) (width 0.12))
  (fp_line (start -1.25 -1.25) (end -1.25 1.25) (layer F.CrtYd) (width 0.05))
  (fp_line (start -1.25 1.25) (end 6.25 1.25) (layer F.CrtYd) (width 0.05))
  (fp_line (start 6.25 1.25) (end 6.25 -1.25) (layer F.CrtYd) (width 0.05))
  (fp_line (start 6.25 -1.25) (end -1.25 -1.25) (layer F.CrtYd) (width 0.05))
  (pad 1 thru_hole circle (at 0 0) (size 1.6 1.6) (drill 0.8) (layers *.Cu *.Mask))
  (pad 2 thru_hole circle (at 5 0) (size 1.6 1.6) (drill 0.8) (layers *.Cu *.Mask))
  (fp_text user %R (at 2.5 0) (layer F.Fab)
    (effects (font (size 1 1) (thickness 0.15)))
  )
  (model ${KIPRJMOD}/kicad_libs_k/models_k.3d/Capacitor_THT_k.3dshapes/C_Rect_L7.0mm_W2.0mm_P5.00mm_k.wrl
    (at (xyz 0 0 0))
    (scale (xyz 1 1 1))
    (rotate (xyz 0 0 0))
  )
)