(module C_Rect_L26.5mm_W6.0mm_P22.50mm_MKS4 (layer F.Cu) (tedit 5AE50EF0)
  (descr "C, Rect series, Radial, pin pitch=22.50mm, , length*width=26.5*6mm^2, Capacitor, http://www.wima.com/EN/WIMA_MKS_4.pdf")
  (tags "C Rect series Radial pin pitch 22.50mm  length 26.5mm width 6mm Capacitor")
  (fp_text reference REF** (at 11.25 -4.25) (layer F.SilkS)
    (effects (font (size 1 1) (thickness 0.15)))
  )
  (fp_text value C_Rect_L26.5mm_W6.0mm_P22.50mm_MKS4 (at 11.25 4.25) (layer F.Fab)
    (effects (font (size 1 1) (thickness 0.15)))
  )
  (fp_line (start -2 -3) (end -2 3) (layer F.Fab) (width 0.1))
  (fp_line (start -2 3) (end 24.5 3) (layer F.Fab) (width 0.1))
  (fp_line (start 24.5 3) (end 24.5 -3) (layer F.Fab) (width 0.1))
  (fp_line (start 24.5 -3) (end -2 -3) (layer F.Fab) (width 0.1))
  (fp_line (start -2.12 -3.12) (end 24.62 -3.12) (layer F.SilkS) (width 0.12))
  (fp_line (start -2.12 3.12) (end 24.62 3.12) (layer F.SilkS) (width 0.12))
  (fp_line (start -2.12 -3.12) (end -2.12 3.12) (layer F.SilkS) (width 0.12))
  (fp_line (start 24.62 -3.12) (end 24.62 3.12) (layer F.SilkS) (width 0.12))
  (fp_line (start -2.25 -3.25) (end -2.25 3.25) (layer F.CrtYd) (width 0.05))
  (fp_line (start -2.25 3.25) (end 24.75 3.25) (layer F.CrtYd) (width 0.05))
  (fp_line (start 24.75 3.25) (end 24.75 -3.25) (layer F.CrtYd) (width 0.05))
  (fp_line (start 24.75 -3.25) (end -2.25 -3.25) (layer F.CrtYd) (width 0.05))
  (pad 1 thru_hole circle (at 0 0) (size 2.4 2.4) (drill 1.2) (layers *.Cu *.Mask))
  (pad 2 thru_hole circle (at 22.5 0) (size 2.4 2.4) (drill 1.2) (layers *.Cu *.Mask))
  (fp_text user %R (at 11.25 0) (layer F.Fab)
    (effects (font (size 1 1) (thickness 0.15)))
  )
  (model ${KIPRJMOD}/kicad_libs_k/models_k.3d/Capacitor_THT_k.3dshapes/C_Rect_L26.5mm_W6.0mm_P22.50mm_MKS4_k.wrl
    (at (xyz 0 0 0))
    (scale (xyz 1 1 1))
    (rotate (xyz 0 0 0))
  )
)