(module C_Rect_L10.0mm_W5.0mm_P5.00mm_P7.50mm (layer F.Cu) (tedit 5AE50EF0)
  (descr "C, Rect series, Radial, pin pitch=5.00mm 7.50mm, , length*width=10*5mm^2, Capacitor")
  (tags "C Rect series Radial pin pitch 5.00mm 7.50mm  length 10mm width 5mm Capacitor")
  (fp_text reference REF** (at 3.75 -3.75) (layer F.SilkS)
    (effects (font (size 1 1) (thickness 0.15)))
  )
  (fp_text value C_Rect_L10.0mm_W5.0mm_P5.00mm_P7.50mm (at 3.75 3.75) (layer F.Fab)
    (effects (font (size 1 1) (thickness 0.15)))
  )
  (fp_line (start -1.25 -2.5) (end -1.25 2.5) (layer F.Fab) (width 0.1))
  (fp_line (start -1.25 2.5) (end 8.75 2.5) (layer F.Fab) (width 0.1))
  (fp_line (start 8.75 2.5) (end 8.75 -2.5) (layer F.Fab) (width 0.1))
  (fp_line (start 8.75 -2.5) (end -1.25 -2.5) (layer F.Fab) (width 0.1))
  (fp_line (start -1.37 -2.62) (end 8.87 -2.62) (layer F.SilkS) (width 0.12))
  (fp_line (start -1.37 2.62) (end 8.87 2.62) (layer F.SilkS) (width 0.12))
  (fp_line (start -1.37 -2.62) (end -1.37 2.62) (layer F.SilkS) (width 0.12))
  (fp_line (start 8.87 -2.62) (end 8.87 2.62) (layer F.SilkS) (width 0.12))
  (fp_line (start -1.5 -2.75) (end -1.5 2.75) (layer F.CrtYd) (width 0.05))
  (fp_line (start -1.5 2.75) (end 9 2.75) (layer F.CrtYd) (width 0.05))
  (fp_line (start 9 2.75) (end 9 -2.75) (layer F.CrtYd) (width 0.05))
  (fp_line (start 9 -2.75) (end -1.5 -2.75) (layer F.CrtYd) (width 0.05))
  (pad 1 thru_hole circle (at 1.25 0) (size 1.6 1.6) (drill 0.8) (layers *.Cu *.Mask))
  (pad 2 thru_hole circle (at 6.25 0) (size 1.6 1.6) (drill 0.8) (layers *.Cu *.Mask))
  (pad 1 thru_hole circle (at 0 0) (size 1.6 1.6) (drill 0.8) (layers *.Cu *.Mask))
  (pad 2 thru_hole circle (at 7.5 0) (size 1.6 1.6) (drill 0.8) (layers *.Cu *.Mask))
  (fp_text user %R (at 2.5 0) (layer F.Fab)
    (effects (font (size 1 1) (thickness 0.15)))
  )
  (model ${KIPRJMOD}/kicad_libs_k/models_k.3d/Capacitor_THT_k.3dshapes/C_Rect_L10.0mm_W5.0mm_P5.00mm_P7.50mm_k.wrl
    (at (xyz 0 0 0))
    (scale (xyz 1 1 1))
    (rotate (xyz 0 0 0))
  )
)