(module C_Rect_L10.3mm_W7.2mm_P7.50mm_MKS4 (layer F.Cu) (tedit 5AE50EF0)
  (descr "C, Rect series, Radial, pin pitch=7.50mm, , length*width=10.3*7.2mm^2, Capacitor, http://www.wima.com/EN/WIMA_MKS_4.pdf")
  (tags "C Rect series Radial pin pitch 7.50mm  length 10.3mm width 7.2mm Capacitor")
  (fp_text reference REF** (at 3.75 -4.85) (layer F.SilkS)
    (effects (font (size 1 1) (thickness 0.15)))
  )
  (fp_text value C_Rect_L10.3mm_W7.2mm_P7.50mm_MKS4 (at 3.75 4.85) (layer F.Fab)
    (effects (font (size 1 1) (thickness 0.15)))
  )
  (fp_line (start -1.4 -3.6) (end -1.4 3.6) (layer F.Fab) (width 0.1))
  (fp_line (start -1.4 3.6) (end 8.9 3.6) (layer F.Fab) (width 0.1))
  (fp_line (start 8.9 3.6) (end 8.9 -3.6) (layer F.Fab) (width 0.1))
  (fp_line (start 8.9 -3.6) (end -1.4 -3.6) (layer F.Fab) (width 0.1))
  (fp_line (start -1.52 -3.72) (end 9.02 -3.72) (layer F.SilkS) (width 0.12))
  (fp_line (start -1.52 3.72) (end 9.02 3.72) (layer F.SilkS) (width 0.12))
  (fp_line (start -1.52 -3.72) (end -1.52 3.72) (layer F.SilkS) (width 0.12))
  (fp_line (start 9.02 -3.72) (end 9.02 3.72) (layer F.SilkS) (width 0.12))
  (fp_line (start -1.66 -3.85) (end -1.66 3.85) (layer F.CrtYd) (width 0.05))
  (fp_line (start -1.66 3.85) (end 9.15 3.85) (layer F.CrtYd) (width 0.05))
  (fp_line (start 9.15 3.85) (end 9.15 -3.85) (layer F.CrtYd) (width 0.05))
  (fp_line (start 9.15 -3.85) (end -1.66 -3.85) (layer F.CrtYd) (width 0.05))
  (pad 1 thru_hole circle (at 0 0) (size 2 2) (drill 1) (layers *.Cu *.Mask))
  (pad 2 thru_hole circle (at 7.5 0) (size 2 2) (drill 1) (layers *.Cu *.Mask))
  (fp_text user %R (at 3.75 0) (layer F.Fab)
    (effects (font (size 1 1) (thickness 0.15)))
  )
  (model ${KIPRJMOD}/kicad_libs_k/models_k.3d/Capacitor_THT_k.3dshapes/C_Rect_L10.3mm_W7.2mm_P7.50mm_MKS4_k.wrl
    (at (xyz 0 0 0))
    (scale (xyz 1 1 1))
    (rotate (xyz 0 0 0))
  )
)