(module CP_Axial_L42.0mm_D32.0mm_P45.00mm_Horizontal (layer F.Cu) (tedit 5AE50EF2)
  (descr "CP, Axial series, Axial, Horizontal, pin pitch=45mm, , length*diameter=42*32.0mm^2, Electrolytic Capacitor, , http://www.vishay.com/docs/42037/53d.pdf")
  (tags "CP Axial series Axial Horizontal pin pitch 45mm  length 42mm diameter 32.0mm Electrolytic Capacitor")
  (fp_text reference REF** (at 22.5 -17.12) (layer F.SilkS)
    (effects (font (size 1 1) (thickness 0.15)))
  )
  (fp_text value CP_Axial_L42.0mm_D32.0mm_P45.00mm_Horizontal (at 22.5 17.12) (layer F.Fab)
    (effects (font (size 1 1) (thickness 0.15)))
  )
  (fp_line (start 1.5 -16) (end 1.5 16) (layer F.Fab) (width 0.1))
  (fp_line (start 43.5 -16) (end 43.5 16) (layer F.Fab) (width 0.1))
  (fp_line (start 1.5 -16) (end 3.18 -16) (layer F.Fab) (width 0.1))
  (fp_line (start 3.18 -16) (end 4.08 -15.1) (layer F.Fab) (width 0.1))
  (fp_line (start 4.08 -15.1) (end 4.98 -16) (layer F.Fab) (width 0.1))
  (fp_line (start 4.98 -16) (end 43.5 -16) (layer F.Fab) (width 0.1))
  (fp_line (start 1.5 16) (end 3.18 16) (layer F.Fab) (width 0.1))
  (fp_line (start 3.18 16) (end 4.08 15.1) (layer F.Fab) (width 0.1))
  (fp_line (start 4.08 15.1) (end 4.98 16) (layer F.Fab) (width 0.1))
  (fp_line (start 4.98 16) (end 43.5 16) (layer F.Fab) (width 0.1))
  (fp_line (start 0 0) (end 1.5 0) (layer F.Fab) (width 0.1))
  (fp_line (start 45 0) (end 43.5 0) (layer F.Fab) (width 0.1))
  (fp_line (start 3.2 0) (end 5 0) (layer F.Fab) (width 0.1))
  (fp_line (start 4.1 -0.9) (end 4.1 0.9) (layer F.Fab) (width 0.1))
  (fp_line (start -0.72 -2.6) (end 1.08 -2.6) (layer F.SilkS) (width 0.12))
  (fp_line (start 0.18 -3.5) (end 0.18 -1.7) (layer F.SilkS) (width 0.12))
  (fp_line (start 1.38 -16.12) (end 1.38 16.12) (layer F.SilkS) (width 0.12))
  (fp_line (start 43.62 -16.12) (end 43.62 16.12) (layer F.SilkS) (width 0.12))
  (fp_line (start 1.38 -16.12) (end 3.18 -16.12) (layer F.SilkS) (width 0.12))
  (fp_line (start 3.18 -16.12) (end 4.08 -15.22) (layer F.SilkS) (width 0.12))
  (fp_line (start 4.08 -15.22) (end 4.98 -16.12) (layer F.SilkS) (width 0.12))
  (fp_line (start 4.98 -16.12) (end 43.62 -16.12) (layer F.SilkS) (width 0.12))
  (fp_line (start 1.38 16.12) (end 3.18 16.12) (layer F.SilkS) (width 0.12))
  (fp_line (start 3.18 16.12) (end 4.08 15.22) (layer F.SilkS) (width 0.12))
  (fp_line (start 4.08 15.22) (end 4.98 16.12) (layer F.SilkS) (width 0.12))
  (fp_line (start 4.98 16.12) (end 43.62 16.12) (layer F.SilkS) (width 0.12))
  (fp_line (start -1.45 -16.25) (end -1.45 16.25) (layer F.CrtYd) (width 0.05))
  (fp_line (start -1.45 16.25) (end 46.45 16.25) (layer F.CrtYd) (width 0.05))
  (fp_line (start 46.45 16.25) (end 46.45 -16.25) (layer F.CrtYd) (width 0.05))
  (fp_line (start 46.45 -16.25) (end -1.45 -16.25) (layer F.CrtYd) (width 0.05))
  (pad 1 thru_hole rect (at 0 0) (size 2.4 2.4) (drill 1.2) (layers *.Cu *.Mask))
  (pad 2 thru_hole oval (at 45 0) (size 2.4 2.4) (drill 1.2) (layers *.Cu *.Mask))
  (fp_text user %R (at 22.5 0) (layer F.Fab)
    (effects (font (size 1 1) (thickness 0.15)))
  )
  (model ${KIPRJMOD}/kicad_libs_k/models_k.3d/Capacitor_THT_k.3dshapes/CP_Axial_L42.0mm_D32.0mm_P45.00mm_Horizontal_k.wrl
    (at (xyz 0 0 0))
    (scale (xyz 1 1 1))
    (rotate (xyz 0 0 0))
  )
)