(module CP_Axial_L29.0mm_D10.0mm_P35.00mm_Horizontal (layer F.Cu) (tedit 5AE50EF2)
  (descr "CP, Axial series, Axial, Horizontal, pin pitch=35mm, , length*diameter=29*10mm^2, Electrolytic Capacitor, , http://www.kemet.com/Lists/ProductCatalog/Attachments/424/KEM_AC102.pdf")
  (tags "CP Axial series Axial Horizontal pin pitch 35mm  length 29mm diameter 10mm Electrolytic Capacitor")
  (fp_text reference REF** (at 17.5 -6.12) (layer F.SilkS)
    (effects (font (size 1 1) (thickness 0.15)))
  )
  (fp_text value CP_Axial_L29.0mm_D10.0mm_P35.00mm_Horizontal (at 17.5 6.12) (layer F.Fab)
    (effects (font (size 1 1) (thickness 0.15)))
  )
  (fp_line (start 3 -5) (end 3 5) (layer F.Fab) (width 0.1))
  (fp_line (start 32 -5) (end 32 5) (layer F.Fab) (width 0.1))
  (fp_line (start 3 -5) (end 4.68 -5) (layer F.Fab) (width 0.1))
  (fp_line (start 4.68 -5) (end 5.58 -4.1) (layer F.Fab) (width 0.1))
  (fp_line (start 5.58 -4.1) (end 6.48 -5) (layer F.Fab) (width 0.1))
  (fp_line (start 6.48 -5) (end 32 -5) (layer F.Fab) (width 0.1))
  (fp_line (start 3 5) (end 4.68 5) (layer F.Fab) (width 0.1))
  (fp_line (start 4.68 5) (end 5.58 4.1) (layer F.Fab) (width 0.1))
  (fp_line (start 5.58 4.1) (end 6.48 5) (layer F.Fab) (width 0.1))
  (fp_line (start 6.48 5) (end 32 5) (layer F.Fab) (width 0.1))
  (fp_line (start 0 0) (end 3 0) (layer F.Fab) (width 0.1))
  (fp_line (start 35 0) (end 32 0) (layer F.Fab) (width 0.1))
  (fp_line (start 4.7 0) (end 6.5 0) (layer F.Fab) (width 0.1))
  (fp_line (start 5.6 -0.9) (end 5.6 0.9) (layer F.Fab) (width 0.1))
  (fp_line (start 0.78 -2.6) (end 2.58 -2.6) (layer F.SilkS) (width 0.12))
  (fp_line (start 1.68 -3.5) (end 1.68 -1.7) (layer F.SilkS) (width 0.12))
  (fp_line (start 2.88 -5.12) (end 2.88 5.12) (layer F.SilkS) (width 0.12))
  (fp_line (start 32.12 -5.12) (end 32.12 5.12) (layer F.SilkS) (width 0.12))
  (fp_line (start 2.88 -5.12) (end 4.68 -5.12) (layer F.SilkS) (width 0.12))
  (fp_line (start 4.68 -5.12) (end 5.58 -4.22) (layer F.SilkS) (width 0.12))
  (fp_line (start 5.58 -4.22) (end 6.48 -5.12) (layer F.SilkS) (width 0.12))
  (fp_line (start 6.48 -5.12) (end 32.12 -5.12) (layer F.SilkS) (width 0.12))
  (fp_line (start 2.88 5.12) (end 4.68 5.12) (layer F.SilkS) (width 0.12))
  (fp_line (start 4.68 5.12) (end 5.58 4.22) (layer F.SilkS) (width 0.12))
  (fp_line (start 5.58 4.22) (end 6.48 5.12) (layer F.SilkS) (width 0.12))
  (fp_line (start 6.48 5.12) (end 32.12 5.12) (layer F.SilkS) (width 0.12))
  (fp_line (start 1.44 0) (end 2.88 0) (layer F.SilkS) (width 0.12))
  (fp_line (start 33.56 0) (end 32.12 0) (layer F.SilkS) (width 0.12))
  (fp_line (start -1.45 -5.25) (end -1.45 5.25) (layer F.CrtYd) (width 0.05))
  (fp_line (start -1.45 5.25) (end 36.45 5.25) (layer F.CrtYd) (width 0.05))
  (fp_line (start 36.45 5.25) (end 36.45 -5.25) (layer F.CrtYd) (width 0.05))
  (fp_line (start 36.45 -5.25) (end -1.45 -5.25) (layer F.CrtYd) (width 0.05))
  (pad 1 thru_hole rect (at 0 0) (size 2.4 2.4) (drill 1.2) (layers *.Cu *.Mask))
  (pad 2 thru_hole oval (at 35 0) (size 2.4 2.4) (drill 1.2) (layers *.Cu *.Mask))
  (fp_text user %R (at 17.5 0) (layer F.Fab)
    (effects (font (size 1 1) (thickness 0.15)))
  )
  (model ${KIPRJMOD}/kicad_libs_k/models_k.3d/Capacitor_THT_k.3dshapes/CP_Axial_L29.0mm_D10.0mm_P35.00mm_Horizontal_k.wrl
    (at (xyz 0 0 0))
    (scale (xyz 1 1 1))
    (rotate (xyz 0 0 0))
  )
)