(module CP_Axial_L11.0mm_D5.0mm_P18.00mm_Horizontal (layer F.Cu) (tedit 5AE50EF2)
  (descr "CP, Axial series, Axial, Horizontal, pin pitch=18mm, , length*diameter=11*5mm^2, Electrolytic Capacitor")
  (tags "CP Axial series Axial Horizontal pin pitch 18mm  length 11mm diameter 5mm Electrolytic Capacitor")
  (fp_text reference REF** (at 9 -3.62) (layer F.SilkS)
    (effects (font (size 1 1) (thickness 0.15)))
  )
  (fp_text value CP_Axial_L11.0mm_D5.0mm_P18.00mm_Horizontal (at 9 3.62) (layer F.Fab)
    (effects (font (size 1 1) (thickness 0.15)))
  )
  (fp_line (start 3.5 -2.5) (end 3.5 2.5) (layer F.Fab) (width 0.1))
  (fp_line (start 14.5 -2.5) (end 14.5 2.5) (layer F.Fab) (width 0.1))
  (fp_line (start 3.5 -2.5) (end 5.18 -2.5) (layer F.Fab) (width 0.1))
  (fp_line (start 5.18 -2.5) (end 6.08 -1.6) (layer F.Fab) (width 0.1))
  (fp_line (start 6.08 -1.6) (end 6.98 -2.5) (layer F.Fab) (width 0.1))
  (fp_line (start 6.98 -2.5) (end 14.5 -2.5) (layer F.Fab) (width 0.1))
  (fp_line (start 3.5 2.5) (end 5.18 2.5) (layer F.Fab) (width 0.1))
  (fp_line (start 5.18 2.5) (end 6.08 1.6) (layer F.Fab) (width 0.1))
  (fp_line (start 6.08 1.6) (end 6.98 2.5) (layer F.Fab) (width 0.1))
  (fp_line (start 6.98 2.5) (end 14.5 2.5) (layer F.Fab) (width 0.1))
  (fp_line (start 0 0) (end 3.5 0) (layer F.Fab) (width 0.1))
  (fp_line (start 18 0) (end 14.5 0) (layer F.Fab) (width 0.1))
  (fp_line (start 5.2 0) (end 7 0) (layer F.Fab) (width 0.1))
  (fp_line (start 6.1 -0.9) (end 6.1 0.9) (layer F.Fab) (width 0.1))
  (fp_line (start 1.28 -2.6) (end 3.08 -2.6) (layer F.SilkS) (width 0.12))
  (fp_line (start 2.18 -3.5) (end 2.18 -1.7) (layer F.SilkS) (width 0.12))
  (fp_line (start 3.38 -2.62) (end 3.38 2.62) (layer F.SilkS) (width 0.12))
  (fp_line (start 14.62 -2.62) (end 14.62 2.62) (layer F.SilkS) (width 0.12))
  (fp_line (start 3.38 -2.62) (end 5.18 -2.62) (layer F.SilkS) (width 0.12))
  (fp_line (start 5.18 -2.62) (end 6.08 -1.72) (layer F.SilkS) (width 0.12))
  (fp_line (start 6.08 -1.72) (end 6.98 -2.62) (layer F.SilkS) (width 0.12))
  (fp_line (start 6.98 -2.62) (end 14.62 -2.62) (layer F.SilkS) (width 0.12))
  (fp_line (start 3.38 2.62) (end 5.18 2.62) (layer F.SilkS) (width 0.12))
  (fp_line (start 5.18 2.62) (end 6.08 1.72) (layer F.SilkS) (width 0.12))
  (fp_line (start 6.08 1.72) (end 6.98 2.62) (layer F.SilkS) (width 0.12))
  (fp_line (start 6.98 2.62) (end 14.62 2.62) (layer F.SilkS) (width 0.12))
  (fp_line (start 1.44 0) (end 3.38 0) (layer F.SilkS) (width 0.12))
  (fp_line (start 16.56 0) (end 14.62 0) (layer F.SilkS) (width 0.12))
  (fp_line (start -1.45 -2.75) (end -1.45 2.75) (layer F.CrtYd) (width 0.05))
  (fp_line (start -1.45 2.75) (end 19.45 2.75) (layer F.CrtYd) (width 0.05))
  (fp_line (start 19.45 2.75) (end 19.45 -2.75) (layer F.CrtYd) (width 0.05))
  (fp_line (start 19.45 -2.75) (end -1.45 -2.75) (layer F.CrtYd) (width 0.05))
  (pad 1 thru_hole rect (at 0 0) (size 2.4 2.4) (drill 1.2) (layers *.Cu *.Mask))
  (pad 2 thru_hole oval (at 18 0) (size 2.4 2.4) (drill 1.2) (layers *.Cu *.Mask))
  (fp_text user %R (at 9 0) (layer F.Fab)
    (effects (font (size 1 1) (thickness 0.15)))
  )
  (model ${KIPRJMOD}/kicad_libs_k/models_k.3d/Capacitor_THT_k.3dshapes/CP_Axial_L11.0mm_D5.0mm_P18.00mm_Horizontal_k.wrl
    (at (xyz 0 0 0))
    (scale (xyz 1 1 1))
    (rotate (xyz 0 0 0))
  )
)