(module CP_Axial_L18.0mm_D6.5mm_P25.00mm_Horizontal (layer F.Cu) (tedit 5AE50EF2)
  (descr "CP, Axial series, Axial, Horizontal, pin pitch=25mm, , length*diameter=18*6.5mm^2, Electrolytic Capacitor, , http://www.vishay.com/docs/28325/021asm.pdf")
  (tags "CP Axial series Axial Horizontal pin pitch 25mm  length 18mm diameter 6.5mm Electrolytic Capacitor")
  (fp_text reference REF** (at 12.5 -4.37) (layer F.SilkS)
    (effects (font (size 1 1) (thickness 0.15)))
  )
  (fp_text value CP_Axial_L18.0mm_D6.5mm_P25.00mm_Horizontal (at 12.5 4.37) (layer F.Fab)
    (effects (font (size 1 1) (thickness 0.15)))
  )
  (fp_line (start 3.5 -3.25) (end 3.5 3.25) (layer F.Fab) (width 0.1))
  (fp_line (start 21.5 -3.25) (end 21.5 3.25) (layer F.Fab) (width 0.1))
  (fp_line (start 3.5 -3.25) (end 5.18 -3.25) (layer F.Fab) (width 0.1))
  (fp_line (start 5.18 -3.25) (end 6.08 -2.35) (layer F.Fab) (width 0.1))
  (fp_line (start 6.08 -2.35) (end 6.98 -3.25) (layer F.Fab) (width 0.1))
  (fp_line (start 6.98 -3.25) (end 21.5 -3.25) (layer F.Fab) (width 0.1))
  (fp_line (start 3.5 3.25) (end 5.18 3.25) (layer F.Fab) (width 0.1))
  (fp_line (start 5.18 3.25) (end 6.08 2.35) (layer F.Fab) (width 0.1))
  (fp_line (start 6.08 2.35) (end 6.98 3.25) (layer F.Fab) (width 0.1))
  (fp_line (start 6.98 3.25) (end 21.5 3.25) (layer F.Fab) (width 0.1))
  (fp_line (start 0 0) (end 3.5 0) (layer F.Fab) (width 0.1))
  (fp_line (start 25 0) (end 21.5 0) (layer F.Fab) (width 0.1))
  (fp_line (start 5.2 0) (end 7 0) (layer F.Fab) (width 0.1))
  (fp_line (start 6.1 -0.9) (end 6.1 0.9) (layer F.Fab) (width 0.1))
  (fp_line (start 1.28 -2.6) (end 3.08 -2.6) (layer F.SilkS) (width 0.12))
  (fp_line (start 2.18 -3.5) (end 2.18 -1.7) (layer F.SilkS) (width 0.12))
  (fp_line (start 3.38 -3.37) (end 3.38 3.37) (layer F.SilkS) (width 0.12))
  (fp_line (start 21.62 -3.37) (end 21.62 3.37) (layer F.SilkS) (width 0.12))
  (fp_line (start 3.38 -3.37) (end 5.18 -3.37) (layer F.SilkS) (width 0.12))
  (fp_line (start 5.18 -3.37) (end 6.08 -2.47) (layer F.SilkS) (width 0.12))
  (fp_line (start 6.08 -2.47) (end 6.98 -3.37) (layer F.SilkS) (width 0.12))
  (fp_line (start 6.98 -3.37) (end 21.62 -3.37) (layer F.SilkS) (width 0.12))
  (fp_line (start 3.38 3.37) (end 5.18 3.37) (layer F.SilkS) (width 0.12))
  (fp_line (start 5.18 3.37) (end 6.08 2.47) (layer F.SilkS) (width 0.12))
  (fp_line (start 6.08 2.47) (end 6.98 3.37) (layer F.SilkS) (width 0.12))
  (fp_line (start 6.98 3.37) (end 21.62 3.37) (layer F.SilkS) (width 0.12))
  (fp_line (start 1.44 0) (end 3.38 0) (layer F.SilkS) (width 0.12))
  (fp_line (start 23.56 0) (end 21.62 0) (layer F.SilkS) (width 0.12))
  (fp_line (start -1.45 -3.5) (end -1.45 3.5) (layer F.CrtYd) (width 0.05))
  (fp_line (start -1.45 3.5) (end 26.45 3.5) (layer F.CrtYd) (width 0.05))
  (fp_line (start 26.45 3.5) (end 26.45 -3.5) (layer F.CrtYd) (width 0.05))
  (fp_line (start 26.45 -3.5) (end -1.45 -3.5) (layer F.CrtYd) (width 0.05))
  (pad 1 thru_hole rect (at 0 0) (size 2.4 2.4) (drill 1.2) (layers *.Cu *.Mask))
  (pad 2 thru_hole oval (at 25 0) (size 2.4 2.4) (drill 1.2) (layers *.Cu *.Mask))
  (fp_text user %R (at 12.5 0) (layer F.Fab)
    (effects (font (size 1 1) (thickness 0.15)))
  )
  (model ${KIPRJMOD}/kicad_libs_k/models_k.3d/Capacitor_THT_k.3dshapes/CP_Axial_L18.0mm_D6.5mm_P25.00mm_Horizontal_k.wrl
    (at (xyz 0 0 0))
    (scale (xyz 1 1 1))
    (rotate (xyz 0 0 0))
  )
)