(module CP_Axial_L80.0mm_D29.0mm_P85.00mm_Horizontal (layer F.Cu) (tedit 5AE50EF2)
  (descr "CP, Axial series, Axial, Horizontal, pin pitch=85mm, , length*diameter=80*29.0mm^2, Electrolytic Capacitor, , http://www.vishay.com/docs/42037/53d.pdf")
  (tags "CP Axial series Axial Horizontal pin pitch 85mm  length 80mm diameter 29.0mm Electrolytic Capacitor")
  (fp_text reference REF** (at 42.5 -15.62) (layer F.SilkS)
    (effects (font (size 1 1) (thickness 0.15)))
  )
  (fp_text value CP_Axial_L80.0mm_D29.0mm_P85.00mm_Horizontal (at 42.5 15.62) (layer F.Fab)
    (effects (font (size 1 1) (thickness 0.15)))
  )
  (fp_line (start 2.5 -14.5) (end 2.5 14.5) (layer F.Fab) (width 0.1))
  (fp_line (start 82.5 -14.5) (end 82.5 14.5) (layer F.Fab) (width 0.1))
  (fp_line (start 2.5 -14.5) (end 4.18 -14.5) (layer F.Fab) (width 0.1))
  (fp_line (start 4.18 -14.5) (end 5.08 -13.6) (layer F.Fab) (width 0.1))
  (fp_line (start 5.08 -13.6) (end 5.98 -14.5) (layer F.Fab) (width 0.1))
  (fp_line (start 5.98 -14.5) (end 82.5 -14.5) (layer F.Fab) (width 0.1))
  (fp_line (start 2.5 14.5) (end 4.18 14.5) (layer F.Fab) (width 0.1))
  (fp_line (start 4.18 14.5) (end 5.08 13.6) (layer F.Fab) (width 0.1))
  (fp_line (start 5.08 13.6) (end 5.98 14.5) (layer F.Fab) (width 0.1))
  (fp_line (start 5.98 14.5) (end 82.5 14.5) (layer F.Fab) (width 0.1))
  (fp_line (start 0 0) (end 2.5 0) (layer F.Fab) (width 0.1))
  (fp_line (start 85 0) (end 82.5 0) (layer F.Fab) (width 0.1))
  (fp_line (start 4.2 0) (end 6 0) (layer F.Fab) (width 0.1))
  (fp_line (start 5.1 -0.9) (end 5.1 0.9) (layer F.Fab) (width 0.1))
  (fp_line (start 0.28 -2.6) (end 2.08 -2.6) (layer F.SilkS) (width 0.12))
  (fp_line (start 1.18 -3.5) (end 1.18 -1.7) (layer F.SilkS) (width 0.12))
  (fp_line (start 2.38 -14.62) (end 2.38 14.62) (layer F.SilkS) (width 0.12))
  (fp_line (start 82.62 -14.62) (end 82.62 14.62) (layer F.SilkS) (width 0.12))
  (fp_line (start 2.38 -14.62) (end 4.18 -14.62) (layer F.SilkS) (width 0.12))
  (fp_line (start 4.18 -14.62) (end 5.08 -13.72) (layer F.SilkS) (width 0.12))
  (fp_line (start 5.08 -13.72) (end 5.98 -14.62) (layer F.SilkS) (width 0.12))
  (fp_line (start 5.98 -14.62) (end 82.62 -14.62) (layer F.SilkS) (width 0.12))
  (fp_line (start 2.38 14.62) (end 4.18 14.62) (layer F.SilkS) (width 0.12))
  (fp_line (start 4.18 14.62) (end 5.08 13.72) (layer F.SilkS) (width 0.12))
  (fp_line (start 5.08 13.72) (end 5.98 14.62) (layer F.SilkS) (width 0.12))
  (fp_line (start 5.98 14.62) (end 82.62 14.62) (layer F.SilkS) (width 0.12))
  (fp_line (start 1.44 0) (end 2.38 0) (layer F.SilkS) (width 0.12))
  (fp_line (start 83.56 0) (end 82.62 0) (layer F.SilkS) (width 0.12))
  (fp_line (start -1.45 -14.75) (end -1.45 14.75) (layer F.CrtYd) (width 0.05))
  (fp_line (start -1.45 14.75) (end 86.45 14.75) (layer F.CrtYd) (width 0.05))
  (fp_line (start 86.45 14.75) (end 86.45 -14.75) (layer F.CrtYd) (width 0.05))
  (fp_line (start 86.45 -14.75) (end -1.45 -14.75) (layer F.CrtYd) (width 0.05))
  (pad 1 thru_hole rect (at 0 0) (size 2.4 2.4) (drill 1.2) (layers *.Cu *.Mask))
  (pad 2 thru_hole oval (at 85 0) (size 2.4 2.4) (drill 1.2) (layers *.Cu *.Mask))
  (fp_text user %R (at 42.5 0) (layer F.Fab)
    (effects (font (size 1 1) (thickness 0.15)))
  )
  (model ${KIPRJMOD}/kicad_libs_k/models_k.3d/Capacitor_THT_k.3dshapes/CP_Axial_L80.0mm_D29.0mm_P85.00mm_Horizontal_k.wrl
    (at (xyz 0 0 0))
    (scale (xyz 1 1 1))
    (rotate (xyz 0 0 0))
  )
)