(module CP_Radial_Tantal_D5.5mm_P5.00mm (layer F.Cu) (tedit 5AE50EF0)
  (descr "CP, Radial_Tantal series, Radial, pin pitch=5.00mm, , diameter=5.5mm, Tantal Electrolytic Capacitor, http://cdn-reichelt.de/documents/datenblatt/B300/TANTAL-TB-Serie%23.pdf")
  (tags "CP Radial_Tantal series Radial pin pitch 5.00mm  diameter 5.5mm Tantal Electrolytic Capacitor")
  (fp_text reference REF** (at 2.5 -4) (layer F.SilkS)
    (effects (font (size 1 1) (thickness 0.15)))
  )
  (fp_text value CP_Radial_Tantal_D5.5mm_P5.00mm (at 2.5 4) (layer F.Fab)
    (effects (font (size 1 1) (thickness 0.15)))
  )
  (fp_arc (start 2.5 0) (end -0.167077 -1.06) (angle 136.650411) (layer F.SilkS) (width 0.12))
  (fp_arc (start 2.5 0) (end -0.167077 1.06) (angle -136.650411) (layer F.SilkS) (width 0.12))
  (fp_circle (center 2.5 0) (end 5.25 0) (layer F.Fab) (width 0.1))
  (fp_circle (center 2.5 0) (end 6.22 0) (layer F.CrtYd) (width 0.05))
  (fp_line (start 0.150869 -1.1975) (end 0.700869 -1.1975) (layer F.Fab) (width 0.1))
  (fp_line (start 0.425869 -1.4725) (end 0.425869 -0.9225) (layer F.Fab) (width 0.1))
  (fp_line (start -0.572262 -1.615) (end -0.022262 -1.615) (layer F.SilkS) (width 0.12))
  (fp_line (start -0.297262 -1.89) (end -0.297262 -1.34) (layer F.SilkS) (width 0.12))
  (pad 1 thru_hole rect (at 0 0) (size 1.6 1.6) (drill 0.8) (layers *.Cu *.Mask))
  (pad 2 thru_hole circle (at 5 0) (size 1.6 1.6) (drill 0.8) (layers *.Cu *.Mask))
  (fp_text user %R (at 2.5 0) (layer F.Fab)
    (effects (font (size 1 1) (thickness 0.15)))
  )
  (model ${KIPRJMOD}/kicad_libs_k/models_k.3d/Capacitor_THT_k.3dshapes/CP_Radial_Tantal_D5.5mm_P5.00mm_k.wrl
    (at (xyz 0 0 0))
    (scale (xyz 1 1 1))
    (rotate (xyz 0 0 0))
  )
)