(module CP_Radial_D10.0mm_P2.50mm (layer F.Cu) (tedit 5AE50EF1)
  (descr "CP, Radial series, Radial, pin pitch=2.50mm, , diameter=10mm, Electrolytic Capacitor")
  (tags "CP Radial series Radial pin pitch 2.50mm  diameter 10mm Electrolytic Capacitor")
  (fp_text reference REF** (at 1.25 -6.25) (layer F.SilkS)
    (effects (font (size 1 1) (thickness 0.15)))
  )
  (fp_text value CP_Radial_D10.0mm_P2.50mm (at 1.25 6.25) (layer F.Fab)
    (effects (font (size 1 1) (thickness 0.15)))
  )
  (fp_circle (center 1.25 0) (end 6.25 0) (layer F.Fab) (width 0.1))
  (fp_circle (center 1.25 0) (end 6.37 0) (layer F.SilkS) (width 0.12))
  (fp_circle (center 1.25 0) (end 6.5 0) (layer F.CrtYd) (width 0.05))
  (fp_line (start -3.038861 -2.1875) (end -2.038861 -2.1875) (layer F.Fab) (width 0.1))
  (fp_line (start -2.538861 -2.6875) (end -2.538861 -1.6875) (layer F.Fab) (width 0.1))
  (fp_line (start 1.25 -5.08) (end 1.25 5.08) (layer F.SilkS) (width 0.12))
  (fp_line (start 1.29 -5.08) (end 1.29 5.08) (layer F.SilkS) (width 0.12))
  (fp_line (start 1.33 -5.08) (end 1.33 5.08) (layer F.SilkS) (width 0.12))
  (fp_line (start 1.37 -5.079) (end 1.37 5.079) (layer F.SilkS) (width 0.12))
  (fp_line (start 1.41 -5.078) (end 1.41 5.078) (layer F.SilkS) (width 0.12))
  (fp_line (start 1.45 -5.077) (end 1.45 5.077) (layer F.SilkS) (width 0.12))
  (fp_line (start 1.49 -5.075) (end 1.49 -1.04) (layer F.SilkS) (width 0.12))
  (fp_line (start 1.49 1.04) (end 1.49 5.075) (layer F.SilkS) (width 0.12))
  (fp_line (start 1.53 -5.073) (end 1.53 -1.04) (layer F.SilkS) (width 0.12))
  (fp_line (start 1.53 1.04) (end 1.53 5.073) (layer F.SilkS) (width 0.12))
  (fp_line (start 1.57 -5.07) (end 1.57 -1.04) (layer F.SilkS) (width 0.12))
  (fp_line (start 1.57 1.04) (end 1.57 5.07) (layer F.SilkS) (width 0.12))
  (fp_line (start 1.61 -5.068) (end 1.61 -1.04) (layer F.SilkS) (width 0.12))
  (fp_line (start 1.61 1.04) (end 1.61 5.068) (layer F.SilkS) (width 0.12))
  (fp_line (start 1.65 -5.065) (end 1.65 -1.04) (layer F.SilkS) (width 0.12))
  (fp_line (start 1.65 1.04) (end 1.65 5.065) (layer F.SilkS) (width 0.12))
  (fp_line (start 1.69 -5.062) (end 1.69 -1.04) (layer F.SilkS) (width 0.12))
  (fp_line (start 1.69 1.04) (end 1.69 5.062) (layer F.SilkS) (width 0.12))
  (fp_line (start 1.73 -5.058) (end 1.73 -1.04) (layer F.SilkS) (width 0.12))
  (fp_line (start 1.73 1.04) (end 1.73 5.058) (layer F.SilkS) (width 0.12))
  (fp_line (start 1.77 -5.054) (end 1.77 -1.04) (layer F.SilkS) (width 0.12))
  (fp_line (start 1.77 1.04) (end 1.77 5.054) (layer F.SilkS) (width 0.12))
  (fp_line (start 1.81 -5.05) (end 1.81 -1.04) (layer F.SilkS) (width 0.12))
  (fp_line (start 1.81 1.04) (end 1.81 5.05) (layer F.SilkS) (width 0.12))
  (fp_line (start 1.85 -5.045) (end 1.85 -1.04) (layer F.SilkS) (width 0.12))
  (fp_line (start 1.85 1.04) (end 1.85 5.045) (layer F.SilkS) (width 0.12))
  (fp_line (start 1.89 -5.04) (end 1.89 -1.04) (layer F.SilkS) (width 0.12))
  (fp_line (start 1.89 1.04) (end 1.89 5.04) (layer F.SilkS) (width 0.12))
  (fp_line (start 1.93 -5.035) (end 1.93 -1.04) (layer F.SilkS) (width 0.12))
  (fp_line (start 1.93 1.04) (end 1.93 5.035) (layer F.SilkS) (width 0.12))
  (fp_line (start 1.971 -5.03) (end 1.971 -1.04) (layer F.SilkS) (width 0.12))
  (fp_line (start 1.971 1.04) (end 1.971 5.03) (layer F.SilkS) (width 0.12))
  (fp_line (start 2.011 -5.024) (end 2.011 -1.04) (layer F.SilkS) (width 0.12))
  (fp_line (start 2.011 1.04) (end 2.011 5.024) (layer F.SilkS) (width 0.12))
  (fp_line (start 2.051 -5.018) (end 2.051 -1.04) (layer F.SilkS) (width 0.12))
  (fp_line (start 2.051 1.04) (end 2.051 5.018) (layer F.SilkS) (width 0.12))
  (fp_line (start 2.091 -5.011) (end 2.091 -1.04) (layer F.SilkS) (width 0.12))
  (fp_line (start 2.091 1.04) (end 2.091 5.011) (layer F.SilkS) (width 0.12))
  (fp_line (start 2.131 -5.004) (end 2.131 -1.04) (layer F.SilkS) (width 0.12))
  (fp_line (start 2.131 1.04) (end 2.131 5.004) (layer F.SilkS) (width 0.12))
  (fp_line (start 2.171 -4.997) (end 2.171 -1.04) (layer F.SilkS) (width 0.12))
  (fp_line (start 2.171 1.04) (end 2.171 4.997) (layer F.SilkS) (width 0.12))
  (fp_line (start 2.211 -4.99) (end 2.211 -1.04) (layer F.SilkS) (width 0.12))
  (fp_line (start 2.211 1.04) (end 2.211 4.99) (layer F.SilkS) (width 0.12))
  (fp_line (start 2.251 -4.982) (end 2.251 -1.04) (layer F.SilkS) (width 0.12))
  (fp_line (start 2.251 1.04) (end 2.251 4.982) (layer F.SilkS) (width 0.12))
  (fp_line (start 2.291 -4.974) (end 2.291 -1.04) (layer F.SilkS) (width 0.12))
  (fp_line (start 2.291 1.04) (end 2.291 4.974) (layer F.SilkS) (width 0.12))
  (fp_line (start 2.331 -4.965) (end 2.331 -1.04) (layer F.SilkS) (width 0.12))
  (fp_line (start 2.331 1.04) (end 2.331 4.965) (layer F.SilkS) (width 0.12))
  (fp_line (start 2.371 -4.956) (end 2.371 -1.04) (layer F.SilkS) (width 0.12))
  (fp_line (start 2.371 1.04) (end 2.371 4.956) (layer F.SilkS) (width 0.12))
  (fp_line (start 2.411 -4.947) (end 2.411 -1.04) (layer F.SilkS) (width 0.12))
  (fp_line (start 2.411 1.04) (end 2.411 4.947) (layer F.SilkS) (width 0.12))
  (fp_line (start 2.451 -4.938) (end 2.451 -1.04) (layer F.SilkS) (width 0.12))
  (fp_line (start 2.451 1.04) (end 2.451 4.938) (layer F.SilkS) (width 0.12))
  (fp_line (start 2.491 -4.928) (end 2.491 -1.04) (layer F.SilkS) (width 0.12))
  (fp_line (start 2.491 1.04) (end 2.491 4.928) (layer F.SilkS) (width 0.12))
  (fp_line (start 2.531 -4.918) (end 2.531 -1.04) (layer F.SilkS) (width 0.12))
  (fp_line (start 2.531 1.04) (end 2.531 4.918) (layer F.SilkS) (width 0.12))
  (fp_line (start 2.571 -4.907) (end 2.571 -1.04) (layer F.SilkS) (width 0.12))
  (fp_line (start 2.571 1.04) (end 2.571 4.907) (layer F.SilkS) (width 0.12))
  (fp_line (start 2.611 -4.897) (end 2.611 -1.04) (layer F.SilkS) (width 0.12))
  (fp_line (start 2.611 1.04) (end 2.611 4.897) (layer F.SilkS) (width 0.12))
  (fp_line (start 2.651 -4.885) (end 2.651 -1.04) (layer F.SilkS) (width 0.12))
  (fp_line (start 2.651 1.04) (end 2.651 4.885) (layer F.SilkS) (width 0.12))
  (fp_line (start 2.691 -4.874) (end 2.691 -1.04) (layer F.SilkS) (width 0.12))
  (fp_line (start 2.691 1.04) (end 2.691 4.874) (layer F.SilkS) (width 0.12))
  (fp_line (start 2.731 -4.862) (end 2.731 -1.04) (layer F.SilkS) (width 0.12))
  (fp_line (start 2.731 1.04) (end 2.731 4.862) (layer F.SilkS) (width 0.12))
  (fp_line (start 2.771 -4.85) (end 2.771 -1.04) (layer F.SilkS) (width 0.12))
  (fp_line (start 2.771 1.04) (end 2.771 4.85) (layer F.SilkS) (width 0.12))
  (fp_line (start 2.811 -4.837) (end 2.811 -1.04) (layer F.SilkS) (width 0.12))
  (fp_line (start 2.811 1.04) (end 2.811 4.837) (layer F.SilkS) (width 0.12))
  (fp_line (start 2.851 -4.824) (end 2.851 -1.04) (layer F.SilkS) (width 0.12))
  (fp_line (start 2.851 1.04) (end 2.851 4.824) (layer F.SilkS) (width 0.12))
  (fp_line (start 2.891 -4.811) (end 2.891 -1.04) (layer F.SilkS) (width 0.12))
  (fp_line (start 2.891 1.04) (end 2.891 4.811) (layer F.SilkS) (width 0.12))
  (fp_line (start 2.931 -4.797) (end 2.931 -1.04) (layer F.SilkS) (width 0.12))
  (fp_line (start 2.931 1.04) (end 2.931 4.797) (layer F.SilkS) (width 0.12))
  (fp_line (start 2.971 -4.783) (end 2.971 -1.04) (layer F.SilkS) (width 0.12))
  (fp_line (start 2.971 1.04) (end 2.971 4.783) (layer F.SilkS) (width 0.12))
  (fp_line (start 3.011 -4.768) (end 3.011 -1.04) (layer F.SilkS) (width 0.12))
  (fp_line (start 3.011 1.04) (end 3.011 4.768) (layer F.SilkS) (width 0.12))
  (fp_line (start 3.051 -4.754) (end 3.051 -1.04) (layer F.SilkS) (width 0.12))
  (fp_line (start 3.051 1.04) (end 3.051 4.754) (layer F.SilkS) (width 0.12))
  (fp_line (start 3.091 -4.738) (end 3.091 -1.04) (layer F.SilkS) (width 0.12))
  (fp_line (start 3.091 1.04) (end 3.091 4.738) (layer F.SilkS) (width 0.12))
  (fp_line (start 3.131 -4.723) (end 3.131 -1.04) (layer F.SilkS) (width 0.12))
  (fp_line (start 3.131 1.04) (end 3.131 4.723) (layer F.SilkS) (width 0.12))
  (fp_line (start 3.171 -4.707) (end 3.171 -1.04) (layer F.SilkS) (width 0.12))
  (fp_line (start 3.171 1.04) (end 3.171 4.707) (layer F.SilkS) (width 0.12))
  (fp_line (start 3.211 -4.69) (end 3.211 -1.04) (layer F.SilkS) (width 0.12))
  (fp_line (start 3.211 1.04) (end 3.211 4.69) (layer F.SilkS) (width 0.12))
  (fp_line (start 3.251 -4.674) (end 3.251 -1.04) (layer F.SilkS) (width 0.12))
  (fp_line (start 3.251 1.04) (end 3.251 4.674) (layer F.SilkS) (width 0.12))
  (fp_line (start 3.291 -4.657) (end 3.291 -1.04) (layer F.SilkS) (width 0.12))
  (fp_line (start 3.291 1.04) (end 3.291 4.657) (layer F.SilkS) (width 0.12))
  (fp_line (start 3.331 -4.639) (end 3.331 -1.04) (layer F.SilkS) (width 0.12))
  (fp_line (start 3.331 1.04) (end 3.331 4.639) (layer F.SilkS) (width 0.12))
  (fp_line (start 3.371 -4.621) (end 3.371 -1.04) (layer F.SilkS) (width 0.12))
  (fp_line (start 3.371 1.04) (end 3.371 4.621) (layer F.SilkS) (width 0.12))
  (fp_line (start 3.411 -4.603) (end 3.411 -1.04) (layer F.SilkS) (width 0.12))
  (fp_line (start 3.411 1.04) (end 3.411 4.603) (layer F.SilkS) (width 0.12))
  (fp_line (start 3.451 -4.584) (end 3.451 -1.04) (layer F.SilkS) (width 0.12))
  (fp_line (start 3.451 1.04) (end 3.451 4.584) (layer F.SilkS) (width 0.12))
  (fp_line (start 3.491 -4.564) (end 3.491 -1.04) (layer F.SilkS) (width 0.12))
  (fp_line (start 3.491 1.04) (end 3.491 4.564) (layer F.SilkS) (width 0.12))
  (fp_line (start 3.531 -4.545) (end 3.531 -1.04) (layer F.SilkS) (width 0.12))
  (fp_line (start 3.531 1.04) (end 3.531 4.545) (layer F.SilkS) (width 0.12))
  (fp_line (start 3.571 -4.525) (end 3.571 4.525) (layer F.SilkS) (width 0.12))
  (fp_line (start 3.611 -4.504) (end 3.611 4.504) (layer F.SilkS) (width 0.12))
  (fp_line (start 3.651 -4.483) (end 3.651 4.483) (layer F.SilkS) (width 0.12))
  (fp_line (start 3.691 -4.462) (end 3.691 4.462) (layer F.SilkS) (width 0.12))
  (fp_line (start 3.731 -4.44) (end 3.731 4.44) (layer F.SilkS) (width 0.12))
  (fp_line (start 3.771 -4.417) (end 3.771 4.417) (layer F.SilkS) (width 0.12))
  (fp_line (start 3.811 -4.395) (end 3.811 4.395) (layer F.SilkS) (width 0.12))
  (fp_line (start 3.851 -4.371) (end 3.851 4.371) (layer F.SilkS) (width 0.12))
  (fp_line (start 3.891 -4.347) (end 3.891 4.347) (layer F.SilkS) (width 0.12))
  (fp_line (start 3.931 -4.323) (end 3.931 4.323) (layer F.SilkS) (width 0.12))
  (fp_line (start 3.971 -4.298) (end 3.971 4.298) (layer F.SilkS) (width 0.12))
  (fp_line (start 4.011 -4.273) (end 4.011 4.273) (layer F.SilkS) (width 0.12))
  (fp_line (start 4.051 -4.247) (end 4.051 4.247) (layer F.SilkS) (width 0.12))
  (fp_line (start 4.091 -4.221) (end 4.091 4.221) (layer F.SilkS) (width 0.12))
  (fp_line (start 4.131 -4.194) (end 4.131 4.194) (layer F.SilkS) (width 0.12))
  (fp_line (start 4.171 -4.166) (end 4.171 4.166) (layer F.SilkS) (width 0.12))
  (fp_line (start 4.211 -4.138) (end 4.211 4.138) (layer F.SilkS) (width 0.12))
  (fp_line (start 4.251 -4.11) (end 4.251 4.11) (layer F.SilkS) (width 0.12))
  (fp_line (start 4.291 -4.08) (end 4.291 4.08) (layer F.SilkS) (width 0.12))
  (fp_line (start 4.331 -4.05) (end 4.331 4.05) (layer F.SilkS) (width 0.12))
  (fp_line (start 4.371 -4.02) (end 4.371 4.02) (layer F.SilkS) (width 0.12))
  (fp_line (start 4.411 -3.989) (end 4.411 3.989) (layer F.SilkS) (width 0.12))
  (fp_line (start 4.451 -3.957) (end 4.451 3.957) (layer F.SilkS) (width 0.12))
  (fp_line (start 4.491 -3.925) (end 4.491 3.925) (layer F.SilkS) (width 0.12))
  (fp_line (start 4.531 -3.892) (end 4.531 3.892) (layer F.SilkS) (width 0.12))
  (fp_line (start 4.571 -3.858) (end 4.571 3.858) (layer F.SilkS) (width 0.12))
  (fp_line (start 4.611 -3.824) (end 4.611 3.824) (layer F.SilkS) (width 0.12))
  (fp_line (start 4.651 -3.789) (end 4.651 3.789) (layer F.SilkS) (width 0.12))
  (fp_line (start 4.691 -3.753) (end 4.691 3.753) (layer F.SilkS) (width 0.12))
  (fp_line (start 4.731 -3.716) (end 4.731 3.716) (layer F.SilkS) (width 0.12))
  (fp_line (start 4.771 -3.679) (end 4.771 3.679) (layer F.SilkS) (width 0.12))
  (fp_line (start 4.811 -3.64) (end 4.811 3.64) (layer F.SilkS) (width 0.12))
  (fp_line (start 4.851 -3.601) (end 4.851 3.601) (layer F.SilkS) (width 0.12))
  (fp_line (start 4.891 -3.561) (end 4.891 3.561) (layer F.SilkS) (width 0.12))
  (fp_line (start 4.931 -3.52) (end 4.931 3.52) (layer F.SilkS) (width 0.12))
  (fp_line (start 4.971 -3.478) (end 4.971 3.478) (layer F.SilkS) (width 0.12))
  (fp_line (start 5.011 -3.436) (end 5.011 3.436) (layer F.SilkS) (width 0.12))
  (fp_line (start 5.051 -3.392) (end 5.051 3.392) (layer F.SilkS) (width 0.12))
  (fp_line (start 5.091 -3.347) (end 5.091 3.347) (layer F.SilkS) (width 0.12))
  (fp_line (start 5.131 -3.301) (end 5.131 3.301) (layer F.SilkS) (width 0.12))
  (fp_line (start 5.171 -3.254) (end 5.171 3.254) (layer F.SilkS) (width 0.12))
  (fp_line (start 5.211 -3.206) (end 5.211 3.206) (layer F.SilkS) (width 0.12))
  (fp_line (start 5.251 -3.156) (end 5.251 3.156) (layer F.SilkS) (width 0.12))
  (fp_line (start 5.291 -3.106) (end 5.291 3.106) (layer F.SilkS) (width 0.12))
  (fp_line (start 5.331 -3.054) (end 5.331 3.054) (layer F.SilkS) (width 0.12))
  (fp_line (start 5.371 -3) (end 5.371 3) (layer F.SilkS) (width 0.12))
  (fp_line (start 5.411 -2.945) (end 5.411 2.945) (layer F.SilkS) (width 0.12))
  (fp_line (start 5.451 -2.889) (end 5.451 2.889) (layer F.SilkS) (width 0.12))
  (fp_line (start 5.491 -2.83) (end 5.491 2.83) (layer F.SilkS) (width 0.12))
  (fp_line (start 5.531 -2.77) (end 5.531 2.77) (layer F.SilkS) (width 0.12))
  (fp_line (start 5.571 -2.709) (end 5.571 2.709) (layer F.SilkS) (width 0.12))
  (fp_line (start 5.611 -2.645) (end 5.611 2.645) (layer F.SilkS) (width 0.12))
  (fp_line (start 5.651 -2.579) (end 5.651 2.579) (layer F.SilkS) (width 0.12))
  (fp_line (start 5.691 -2.51) (end 5.691 2.51) (layer F.SilkS) (width 0.12))
  (fp_line (start 5.731 -2.439) (end 5.731 2.439) (layer F.SilkS) (width 0.12))
  (fp_line (start 5.771 -2.365) (end 5.771 2.365) (layer F.SilkS) (width 0.12))
  (fp_line (start 5.811 -2.289) (end 5.811 2.289) (layer F.SilkS) (width 0.12))
  (fp_line (start 5.851 -2.209) (end 5.851 2.209) (layer F.SilkS) (width 0.12))
  (fp_line (start 5.891 -2.125) (end 5.891 2.125) (layer F.SilkS) (width 0.12))
  (fp_line (start 5.931 -2.037) (end 5.931 2.037) (layer F.SilkS) (width 0.12))
  (fp_line (start 5.971 -1.944) (end 5.971 1.944) (layer F.SilkS) (width 0.12))
  (fp_line (start 6.011 -1.846) (end 6.011 1.846) (layer F.SilkS) (width 0.12))
  (fp_line (start 6.051 -1.742) (end 6.051 1.742) (layer F.SilkS) (width 0.12))
  (fp_line (start 6.091 -1.63) (end 6.091 1.63) (layer F.SilkS) (width 0.12))
  (fp_line (start 6.131 -1.51) (end 6.131 1.51) (layer F.SilkS) (width 0.12))
  (fp_line (start 6.171 -1.378) (end 6.171 1.378) (layer F.SilkS) (width 0.12))
  (fp_line (start 6.211 -1.23) (end 6.211 1.23) (layer F.SilkS) (width 0.12))
  (fp_line (start 6.251 -1.062) (end 6.251 1.062) (layer F.SilkS) (width 0.12))
  (fp_line (start 6.291 -0.862) (end 6.291 0.862) (layer F.SilkS) (width 0.12))
  (fp_line (start 6.331 -0.599) (end 6.331 0.599) (layer F.SilkS) (width 0.12))
  (fp_line (start -4.229646 -2.875) (end -3.229646 -2.875) (layer F.SilkS) (width 0.12))
  (fp_line (start -3.729646 -3.375) (end -3.729646 -2.375) (layer F.SilkS) (width 0.12))
  (pad 1 thru_hole rect (at 0 0) (size 1.6 1.6) (drill 0.8) (layers *.Cu *.Mask))
  (pad 2 thru_hole circle (at 2.5 0) (size 1.6 1.6) (drill 0.8) (layers *.Cu *.Mask))
  (fp_text user %R (at 1.25 0) (layer F.Fab)
    (effects (font (size 1 1) (thickness 0.15)))
  )
  (model ${KIPRJMOD}/kicad_libs_k/models_k.3d/Capacitor_THT_k.3dshapes/CP_Radial_D10.0mm_P2.50mm_k.wrl
    (at (xyz 0 0 0))
    (scale (xyz 1 1 1))
    (rotate (xyz 0 0 0))
  )
)