(module CP_Radial_Tantal_D5.0mm_P2.50mm (layer F.Cu) (tedit 5AE50EF0)
  (descr "CP, Radial_Tantal series, Radial, pin pitch=2.50mm, , diameter=5.0mm, Tantal Electrolytic Capacitor, http://cdn-reichelt.de/documents/datenblatt/B300/TANTAL-TB-Serie%23.pdf")
  (tags "CP Radial_Tantal series Radial pin pitch 2.50mm  diameter 5.0mm Tantal Electrolytic Capacitor")
  (fp_text reference REF** (at 1.25 -3.75) (layer F.SilkS)
    (effects (font (size 1 1) (thickness 0.15)))
  )
  (fp_text value CP_Radial_Tantal_D5.0mm_P2.50mm (at 1.25 3.75) (layer F.Fab)
    (effects (font (size 1 1) (thickness 0.15)))
  )
  (fp_circle (center 1.25 0) (end 3.75 0) (layer F.Fab) (width 0.1))
  (fp_circle (center 1.25 0) (end 3.87 0) (layer F.SilkS) (width 0.12))
  (fp_circle (center 1.25 0) (end 4 0) (layer F.CrtYd) (width 0.05))
  (fp_line (start -0.883605 -1.0875) (end -0.383605 -1.0875) (layer F.Fab) (width 0.1))
  (fp_line (start -0.633605 -1.3375) (end -0.633605 -0.8375) (layer F.Fab) (width 0.1))
  (fp_line (start -1.554775 -1.475) (end -1.054775 -1.475) (layer F.SilkS) (width 0.12))
  (fp_line (start -1.304775 -1.725) (end -1.304775 -1.225) (layer F.SilkS) (width 0.12))
  (pad 1 thru_hole rect (at 0 0) (size 1.6 1.6) (drill 0.8) (layers *.Cu *.Mask))
  (pad 2 thru_hole circle (at 2.5 0) (size 1.6 1.6) (drill 0.8) (layers *.Cu *.Mask))
  (fp_text user %R (at 1.25 0) (layer F.Fab)
    (effects (font (size 1 1) (thickness 0.15)))
  )
  (model ${KIPRJMOD}/kicad_libs_k/models_k.3d/Capacitor_THT_k.3dshapes/CP_Radial_Tantal_D5.0mm_P2.50mm_k.wrl
    (at (xyz 0 0 0))
    (scale (xyz 1 1 1))
    (rotate (xyz 0 0 0))
  )
)