(module Hirose_FH12-17S-0.5SH_1x17-1MP_P0.50mm_Horizontal (layer F.Cu) (tedit 5AEE0F8A)
  (descr "Molex FH12, FFC/FPC connector, FH12-17S-0.5SH, 17 Pins per row (https://www.hirose.com/product/en/products/FH12/FH12-24S-0.5SH(55)/), generated with kicad-footprint-generator")
  (tags "connector Hirose  top entry")
  (attr smd)
  (fp_text reference REF** (at 0 -3.7) (layer F.SilkS)
    (effects (font (size 1 1) (thickness 0.15)))
  )
  (fp_text value Hirose_FH12-17S-0.5SH_1x17-1MP_P0.50mm_Horizontal (at 0 5.6) (layer F.Fab)
    (effects (font (size 1 1) (thickness 0.15)))
  )
  (fp_line (start 0 -1.2) (end -5.8 -1.2) (layer F.Fab) (width 0.1))
  (fp_line (start -5.8 -1.2) (end -5.8 3.4) (layer F.Fab) (width 0.1))
  (fp_line (start -5.8 3.4) (end -5.2 3.4) (layer F.Fab) (width 0.1))
  (fp_line (start -5.2 3.4) (end -5.2 3.7) (layer F.Fab) (width 0.1))
  (fp_line (start -5.2 3.7) (end -5.7 3.7) (layer F.Fab) (width 0.1))
  (fp_line (start -5.7 3.7) (end -5.7 4.4) (layer F.Fab) (width 0.1))
  (fp_line (start -5.7 4.4) (end 0 4.4) (layer F.Fab) (width 0.1))
  (fp_line (start 0 -1.2) (end 5.8 -1.2) (layer F.Fab) (width 0.1))
  (fp_line (start 5.8 -1.2) (end 5.8 3.4) (layer F.Fab) (width 0.1))
  (fp_line (start 5.8 3.4) (end 5.2 3.4) (layer F.Fab) (width 0.1))
  (fp_line (start 5.2 3.4) (end 5.2 3.7) (layer F.Fab) (width 0.1))
  (fp_line (start 5.2 3.7) (end 5.7 3.7) (layer F.Fab) (width 0.1))
  (fp_line (start 5.7 3.7) (end 5.7 4.4) (layer F.Fab) (width 0.1))
  (fp_line (start 5.7 4.4) (end 0 4.4) (layer F.Fab) (width 0.1))
  (fp_line (start -4.41 -1.3) (end -5.9 -1.3) (layer F.SilkS) (width 0.12))
  (fp_line (start -5.9 -1.3) (end -5.9 0.04) (layer F.SilkS) (width 0.12))
  (fp_line (start 4.41 -1.3) (end 5.9 -1.3) (layer F.SilkS) (width 0.12))
  (fp_line (start 5.9 -1.3) (end 5.9 0.04) (layer F.SilkS) (width 0.12))
  (fp_line (start -5.9 2.76) (end -5.9 4.5) (layer F.SilkS) (width 0.12))
  (fp_line (start -5.9 4.5) (end 5.9 4.5) (layer F.SilkS) (width 0.12))
  (fp_line (start 5.9 4.5) (end 5.9 2.76) (layer F.SilkS) (width 0.12))
  (fp_line (start -4.41 -1.3) (end -4.41 -2.5) (layer F.SilkS) (width 0.12))
  (fp_line (start -4.5 -1.2) (end -4 -0.492893) (layer F.Fab) (width 0.1))
  (fp_line (start -4 -0.492893) (end -3.5 -1.2) (layer F.Fab) (width 0.1))
  (fp_line (start -7.3 -3) (end -7.3 4.9) (layer F.CrtYd) (width 0.05))
  (fp_line (start -7.3 4.9) (end 7.3 4.9) (layer F.CrtYd) (width 0.05))
  (fp_line (start 7.3 4.9) (end 7.3 -3) (layer F.CrtYd) (width 0.05))
  (fp_line (start 7.3 -3) (end -7.3 -3) (layer F.CrtYd) (width 0.05))
  (pad MP smd rect (at 5.9 1.4) (size 1.8 2.2) (layers F.Cu F.Mask F.Paste))
  (pad MP smd rect (at -5.9 1.4) (size 1.8 2.2) (layers F.Cu F.Mask F.Paste))
  (pad 1 smd rect (at -4 -1.85) (size 0.3 1.3) (layers F.Cu F.Mask F.Paste))
  (pad 2 smd rect (at -3.5 -1.85) (size 0.3 1.3) (layers F.Cu F.Mask F.Paste))
  (pad 3 smd rect (at -3 -1.85) (size 0.3 1.3) (layers F.Cu F.Mask F.Paste))
  (pad 4 smd rect (at -2.5 -1.85) (size 0.3 1.3) (layers F.Cu F.Mask F.Paste))
  (pad 5 smd rect (at -2 -1.85) (size 0.3 1.3) (layers F.Cu F.Mask F.Paste))
  (pad 6 smd rect (at -1.5 -1.85) (size 0.3 1.3) (layers F.Cu F.Mask F.Paste))
  (pad 7 smd rect (at -1 -1.85) (size 0.3 1.3) (layers F.Cu F.Mask F.Paste))
  (pad 8 smd rect (at -0.5 -1.85) (size 0.3 1.3) (layers F.Cu F.Mask F.Paste))
  (pad 9 smd rect (at 0 -1.85) (size 0.3 1.3) (layers F.Cu F.Mask F.Paste))
  (pad 10 smd rect (at 0.5 -1.85) (size 0.3 1.3) (layers F.Cu F.Mask F.Paste))
  (pad 11 smd rect (at 1 -1.85) (size 0.3 1.3) (layers F.Cu F.Mask F.Paste))
  (pad 12 smd rect (at 1.5 -1.85) (size 0.3 1.3) (layers F.Cu F.Mask F.Paste))
  (pad 13 smd rect (at 2 -1.85) (size 0.3 1.3) (layers F.Cu F.Mask F.Paste))
  (pad 14 smd rect (at 2.5 -1.85) (size 0.3 1.3) (layers F.Cu F.Mask F.Paste))
  (pad 15 smd rect (at 3 -1.85) (size 0.3 1.3) (layers F.Cu F.Mask F.Paste))
  (pad 16 smd rect (at 3.5 -1.85) (size 0.3 1.3) (layers F.Cu F.Mask F.Paste))
  (pad 17 smd rect (at 4 -1.85) (size 0.3 1.3) (layers F.Cu F.Mask F.Paste))
  (fp_text user %R (at 0 3.7) (layer F.Fab)
    (effects (font (size 1 1) (thickness 0.15)))
  )
  (model ${KIPRJMOD}/kicad_libs_k/models_k.3d/Connector_FFC-FPC_k.3dshapes/Hirose_FH12-17S-0.5SH_1x17-1MP_P0.50mm_Horizontal_k.wrl
    (at (xyz 0 0 0))
    (scale (xyz 1 1 1))
    (rotate (xyz 0 0 0))
  )
)