(module JAE_FF0825SA1_2Rows-25Pins_P0.40mm_Horizontal (layer F.Cu) (tedit 5A209C62)
  (descr "Molex JAE 0.2mm pitch, 1mm overall height FFC/FPC connector, FF0825SA1, 25 Circuits (http://www.jae.com/z-en/pdf_download_exec.cfm?param=SJ108178.pdf), generated with kicad-footprint-generator")
  (tags "connector JAE  top entry")
  (attr smd)
  (fp_text reference REF** (at 0.15 -4.72) (layer F.SilkS)
    (effects (font (size 1 1) (thickness 0.15)))
  )
  (fp_text value JAE_FF0825SA1_2Rows-25Pins_P0.40mm_Horizontal (at 0.15 4.72) (layer F.Fab)
    (effects (font (size 1 1) (thickness 0.15)))
  )
  (fp_line (start -1.275 -3.525) (end -1.275 3.525) (layer F.Fab) (width 0.1))
  (fp_line (start -1.275 3.525) (end 1.575 3.525) (layer F.Fab) (width 0.1))
  (fp_line (start 1.575 3.525) (end 1.575 -3.525) (layer F.Fab) (width 0.1))
  (fp_line (start 1.575 -3.525) (end -1.275 -3.525) (layer F.Fab) (width 0.1))
  (fp_line (start 1.575 -3.425) (end 1.955 -2.425) (layer F.Fab) (width 0.1))
  (fp_line (start 1.955 -2.425) (end 1.955 2.425) (layer F.Fab) (width 0.1))
  (fp_line (start 1.955 2.425) (end 1.575 3.425) (layer F.Fab) (width 0.1))
  (fp_line (start -1.385 2.75) (end -1.385 3.635) (layer F.SilkS) (width 0.12))
  (fp_line (start -1.385 3.635) (end 1.685 3.635) (layer F.SilkS) (width 0.12))
  (fp_line (start 1.685 3.635) (end 1.685 3.535) (layer F.SilkS) (width 0.12))
  (fp_line (start 1.685 3.535) (end 2.065 2.535) (layer F.SilkS) (width 0.12))
  (fp_line (start 2.065 2.535) (end 2.065 0) (layer F.SilkS) (width 0.12))
  (fp_line (start -1.385 -2.75) (end -1.385 -3.635) (layer F.SilkS) (width 0.12))
  (fp_line (start -1.385 -3.635) (end 1.685 -3.635) (layer F.SilkS) (width 0.12))
  (fp_line (start 1.685 -3.635) (end 1.685 -3.535) (layer F.SilkS) (width 0.12))
  (fp_line (start 1.685 -3.535) (end 2.065 -2.535) (layer F.SilkS) (width 0.12))
  (fp_line (start 2.065 -2.535) (end 2.065 0) (layer F.SilkS) (width 0.12))
  (fp_line (start -2.097132 -2.55) (end -1.885 -2.4) (layer F.SilkS) (width 0.12))
  (fp_line (start -1.885 -2.4) (end -2.097132 -2.25) (layer F.SilkS) (width 0.12))
  (fp_line (start -2.097132 -2.25) (end -2.097132 -2.55) (layer F.SilkS) (width 0.12))
  (fp_line (start -1.275 -2.7) (end -0.850736 -2.4) (layer F.Fab) (width 0.1))
  (fp_line (start -0.850736 -2.4) (end -1.275 -2.1) (layer F.Fab) (width 0.1))
  (fp_line (start -2.12 -4.02) (end -2.12 4.02) (layer F.CrtYd) (width 0.05))
  (fp_line (start -2.12 4.02) (end 2.46 4.02) (layer F.CrtYd) (width 0.05))
  (fp_line (start 2.46 4.02) (end 2.46 -4.02) (layer F.CrtYd) (width 0.05))
  (fp_line (start 2.46 -4.02) (end -2.12 -4.02) (layer F.CrtYd) (width 0.05))
  (pad 1 smd rect (at -1.35 -2.4) (size 0.55 0.18) (layers F.Cu F.Mask F.Paste))
  (pad 3 smd rect (at -1.35 -2) (size 0.55 0.18) (layers F.Cu F.Mask F.Paste))
  (pad 5 smd rect (at -1.35 -1.6) (size 0.55 0.18) (layers F.Cu F.Mask F.Paste))
  (pad 7 smd rect (at -1.35 -1.2) (size 0.55 0.18) (layers F.Cu F.Mask F.Paste))
  (pad 9 smd rect (at -1.35 -0.8) (size 0.55 0.18) (layers F.Cu F.Mask F.Paste))
  (pad 11 smd rect (at -1.35 -0.4) (size 0.55 0.18) (layers F.Cu F.Mask F.Paste))
  (pad 13 smd rect (at -1.35 0) (size 0.55 0.18) (layers F.Cu F.Mask F.Paste))
  (pad 15 smd rect (at -1.35 0.4) (size 0.55 0.18) (layers F.Cu F.Mask F.Paste))
  (pad 17 smd rect (at -1.35 0.8) (size 0.55 0.18) (layers F.Cu F.Mask F.Paste))
  (pad 19 smd rect (at -1.35 1.2) (size 0.55 0.18) (layers F.Cu F.Mask F.Paste))
  (pad 21 smd rect (at -1.35 1.6) (size 0.55 0.18) (layers F.Cu F.Mask F.Paste))
  (pad 23 smd rect (at -1.35 2) (size 0.55 0.18) (layers F.Cu F.Mask F.Paste))
  (pad 25 smd rect (at -1.35 2.4) (size 0.55 0.18) (layers F.Cu F.Mask F.Paste))
  (pad 2 smd rect (at 1.275 -2.2) (size 0.7 0.18) (layers F.Cu F.Mask F.Paste))
  (pad 4 smd rect (at 1.275 -1.8) (size 0.7 0.18) (layers F.Cu F.Mask F.Paste))
  (pad 6 smd rect (at 1.275 -1.4) (size 0.7 0.18) (layers F.Cu F.Mask F.Paste))
  (pad 8 smd rect (at 1.275 -1) (size 0.7 0.18) (layers F.Cu F.Mask F.Paste))
  (pad 10 smd rect (at 1.275 -0.6) (size 0.7 0.18) (layers F.Cu F.Mask F.Paste))
  (pad 12 smd rect (at 1.275 -0.2) (size 0.7 0.18) (layers F.Cu F.Mask F.Paste))
  (pad 14 smd rect (at 1.275 0.2) (size 0.7 0.18) (layers F.Cu F.Mask F.Paste))
  (pad 16 smd rect (at 1.275 0.6) (size 0.7 0.18) (layers F.Cu F.Mask F.Paste))
  (pad 18 smd rect (at 1.275 1) (size 0.7 0.18) (layers F.Cu F.Mask F.Paste))
  (pad 20 smd rect (at 1.275 1.4) (size 0.7 0.18) (layers F.Cu F.Mask F.Paste))
  (pad 22 smd rect (at 1.275 1.8) (size 0.7 0.18) (layers F.Cu F.Mask F.Paste))
  (pad 24 smd rect (at 1.275 2.2) (size 0.7 0.18) (layers F.Cu F.Mask F.Paste))
  (fp_text user %R (at 1.02 0 90) (layer F.Fab)
    (effects (font (size 0.71 0.71) (thickness 0.11)))
  )
  (model ${KIPRJMOD}/kicad_libs_k/models_k.3d/Connector_FFC-FPC_k.3dshapes/JAE_FF0825SA1_2Rows-25Pins_P0.40mm_Horizontal_k.wrl
    (at (xyz 0 0 0))
    (scale (xyz 1 1 1))
    (rotate (xyz 0 0 0))
  )
)