(module Molex_54132-5033_1x50-1MP_P0.5mm_Horizontal (layer F.Cu) (tedit 5AC9D763)
  (descr "Molex FFC/FPC connector, 50 bottom-side contacts, 0.5mm pitch, 2.0mm height, https://www.molex.com/pdm_docs/sd/541325033_sd.pdf")
  (tags "FFC FPC")
  (attr smd)
  (fp_text reference REF** (at 0 -3.75) (layer F.SilkS)
    (effects (font (size 1 1) (thickness 0.15)))
  )
  (fp_text value Molex_54132-5033_1x50-1MP_P0.5mm_Horizontal (at 0 7) (layer F.Fab)
    (effects (font (size 1 1) (thickness 0.15)))
  )
  (fp_text user %R (at 0 0.85) (layer F.Fab)
    (effects (font (size 1 1) (thickness 0.15)))
  )
  (fp_line (start -14.65 -1.35) (end 14.65 -1.35) (layer F.Fab) (width 0.1))
  (fp_line (start -14.65 -1.35) (end -14.65 2.6) (layer F.Fab) (width 0.1))
  (fp_line (start 14.65 -1.35) (end 14.65 2.6) (layer F.Fab) (width 0.1))
  (fp_line (start -14.65 2.6) (end 14.65 2.6) (layer F.Fab) (width 0.1))
  (fp_line (start -12.5 -1.35) (end -12.25 -0.85) (layer F.Fab) (width 0.1))
  (fp_line (start -12.25 -0.85) (end -12 -1.35) (layer F.Fab) (width 0.1))
  (fp_line (start -15.25 3.65) (end 15.25 3.65) (layer F.Fab) (width 0.1))
  (fp_line (start -15.25 2.65) (end -15.25 3.65) (layer F.Fab) (width 0.1))
  (fp_line (start -15.25 2.65) (end -14.65 2.65) (layer F.Fab) (width 0.1))
  (fp_line (start -14.65 2.6) (end -14.65 2.65) (layer F.Fab) (width 0.1))
  (fp_line (start 15.25 2.65) (end 15.25 3.65) (layer F.Fab) (width 0.1))
  (fp_line (start 14.65 2.65) (end 15.25 2.65) (layer F.Fab) (width 0.1))
  (fp_line (start 14.65 2.6) (end 14.65 2.65) (layer F.Fab) (width 0.1))
  (fp_line (start -15.25 5.2) (end 15.25 5.2) (layer F.Fab) (width 0.1))
  (fp_line (start -15.25 4.2) (end -15.25 5.2) (layer F.Fab) (width 0.1))
  (fp_line (start 15.25 4.2) (end 15.25 5.2) (layer F.Fab) (width 0.1))
  (fp_line (start 14.65 4.2) (end 15.25 4.2) (layer F.Fab) (width 0.1))
  (fp_line (start -15.25 4.2) (end -14.65 4.2) (layer F.Fab) (width 0.1))
  (fp_line (start -14.65 3.65) (end -14.65 4.2) (layer F.Fab) (width 0.1))
  (fp_line (start 14.65 3.65) (end 14.65 4.2) (layer F.Fab) (width 0.1))
  (fp_line (start -12.66 -1.41) (end -14.71 -1.41) (layer F.SilkS) (width 0.12))
  (fp_line (start -12.66 -1.41) (end -12.66 -2.19) (layer F.SilkS) (width 0.12))
  (fp_line (start -14.71 -1.41) (end -14.71 -0.41) (layer F.SilkS) (width 0.12))
  (fp_line (start 14.71 -1.41) (end 14.71 -0.41) (layer F.SilkS) (width 0.12))
  (fp_line (start 14.71 -1.41) (end 12.66 -1.41) (layer F.SilkS) (width 0.12))
  (fp_line (start 14.71 2.59) (end 15.31 2.59) (layer F.SilkS) (width 0.12))
  (fp_line (start 14.71 2.59) (end 14.71 2.51) (layer F.SilkS) (width 0.12))
  (fp_line (start 15.31 2.59) (end 15.31 3.71) (layer F.SilkS) (width 0.12))
  (fp_line (start 15.31 3.71) (end -15.31 3.71) (layer F.SilkS) (width 0.12))
  (fp_line (start -15.31 2.59) (end -15.31 3.71) (layer F.SilkS) (width 0.12))
  (fp_line (start -15.31 2.59) (end -14.71 2.59) (layer F.SilkS) (width 0.12))
  (fp_line (start -14.71 2.59) (end -14.71 2.51) (layer F.SilkS) (width 0.12))
  (fp_line (start -16.05 -2.75) (end 16.05 -2.75) (layer F.CrtYd) (width 0.05))
  (fp_line (start -16.05 -2.75) (end -16.05 5.7) (layer F.CrtYd) (width 0.05))
  (fp_line (start 16.05 5.7) (end 16.05 -2.75) (layer F.CrtYd) (width 0.05))
  (fp_line (start 16.05 5.7) (end -16.05 5.7) (layer F.CrtYd) (width 0.05))
  (pad 1 smd rect (at -12.25 -1.65) (size 0.3 1.2) (layers F.Cu F.Paste F.Mask))
  (pad 2 smd rect (at -11.75 -1.65) (size 0.3 1.2) (layers F.Cu F.Paste F.Mask))
  (pad 3 smd rect (at -11.25 -1.65) (size 0.3 1.2) (layers F.Cu F.Paste F.Mask))
  (pad 4 smd rect (at -10.75 -1.65) (size 0.3 1.2) (layers F.Cu F.Paste F.Mask))
  (pad 5 smd rect (at -10.25 -1.65) (size 0.3 1.2) (layers F.Cu F.Paste F.Mask))
  (pad 6 smd rect (at -9.75 -1.65) (size 0.3 1.2) (layers F.Cu F.Paste F.Mask))
  (pad 7 smd rect (at -9.25 -1.65) (size 0.3 1.2) (layers F.Cu F.Paste F.Mask))
  (pad 8 smd rect (at -8.75 -1.65) (size 0.3 1.2) (layers F.Cu F.Paste F.Mask))
  (pad 9 smd rect (at -8.25 -1.65) (size 0.3 1.2) (layers F.Cu F.Paste F.Mask))
  (pad 10 smd rect (at -7.75 -1.65) (size 0.3 1.2) (layers F.Cu F.Paste F.Mask))
  (pad 11 smd rect (at -7.25 -1.65) (size 0.3 1.2) (layers F.Cu F.Paste F.Mask))
  (pad 12 smd rect (at -6.75 -1.65) (size 0.3 1.2) (layers F.Cu F.Paste F.Mask))
  (pad 13 smd rect (at -6.25 -1.65) (size 0.3 1.2) (layers F.Cu F.Paste F.Mask))
  (pad 14 smd rect (at -5.75 -1.65) (size 0.3 1.2) (layers F.Cu F.Paste F.Mask))
  (pad 15 smd rect (at -5.25 -1.65) (size 0.3 1.2) (layers F.Cu F.Paste F.Mask))
  (pad 16 smd rect (at -4.75 -1.65) (size 0.3 1.2) (layers F.Cu F.Paste F.Mask))
  (pad 17 smd rect (at -4.25 -1.65) (size 0.3 1.2) (layers F.Cu F.Paste F.Mask))
  (pad 18 smd rect (at -3.75 -1.65) (size 0.3 1.2) (layers F.Cu F.Paste F.Mask))
  (pad 19 smd rect (at -3.25 -1.65) (size 0.3 1.2) (layers F.Cu F.Paste F.Mask))
  (pad 20 smd rect (at -2.75 -1.65) (size 0.3 1.2) (layers F.Cu F.Paste F.Mask))
  (pad 21 smd rect (at -2.25 -1.65) (size 0.3 1.2) (layers F.Cu F.Paste F.Mask))
  (pad 22 smd rect (at -1.75 -1.65) (size 0.3 1.2) (layers F.Cu F.Paste F.Mask))
  (pad 23 smd rect (at -1.25 -1.65) (size 0.3 1.2) (layers F.Cu F.Paste F.Mask))
  (pad 24 smd rect (at -0.75 -1.65) (size 0.3 1.2) (layers F.Cu F.Paste F.Mask))
  (pad 25 smd rect (at -0.25 -1.65) (size 0.3 1.2) (layers F.Cu F.Paste F.Mask))
  (pad 26 smd rect (at 0.25 -1.65) (size 0.3 1.2) (layers F.Cu F.Paste F.Mask))
  (pad 27 smd rect (at 0.75 -1.65) (size 0.3 1.2) (layers F.Cu F.Paste F.Mask))
  (pad 28 smd rect (at 1.25 -1.65) (size 0.3 1.2) (layers F.Cu F.Paste F.Mask))
  (pad 29 smd rect (at 1.75 -1.65) (size 0.3 1.2) (layers F.Cu F.Paste F.Mask))
  (pad 30 smd rect (at 2.25 -1.65) (size 0.3 1.2) (layers F.Cu F.Paste F.Mask))
  (pad 31 smd rect (at 2.75 -1.65) (size 0.3 1.2) (layers F.Cu F.Paste F.Mask))
  (pad 32 smd rect (at 3.25 -1.65) (size 0.3 1.2) (layers F.Cu F.Paste F.Mask))
  (pad 33 smd rect (at 3.75 -1.65) (size 0.3 1.2) (layers F.Cu F.Paste F.Mask))
  (pad 34 smd rect (at 4.25 -1.65) (size 0.3 1.2) (layers F.Cu F.Paste F.Mask))
  (pad 35 smd rect (at 4.75 -1.65) (size 0.3 1.2) (layers F.Cu F.Paste F.Mask))
  (pad 36 smd rect (at 5.25 -1.65) (size 0.3 1.2) (layers F.Cu F.Paste F.Mask))
  (pad 37 smd rect (at 5.75 -1.65) (size 0.3 1.2) (layers F.Cu F.Paste F.Mask))
  (pad 38 smd rect (at 6.25 -1.65) (size 0.3 1.2) (layers F.Cu F.Paste F.Mask))
  (pad 39 smd rect (at 6.75 -1.65) (size 0.3 1.2) (layers F.Cu F.Paste F.Mask))
  (pad 40 smd rect (at 7.25 -1.65) (size 0.3 1.2) (layers F.Cu F.Paste F.Mask))
  (pad 41 smd rect (at 7.75 -1.65) (size 0.3 1.2) (layers F.Cu F.Paste F.Mask))
  (pad 42 smd rect (at 8.25 -1.65) (size 0.3 1.2) (layers F.Cu F.Paste F.Mask))
  (pad 43 smd rect (at 8.75 -1.65) (size 0.3 1.2) (layers F.Cu F.Paste F.Mask))
  (pad 44 smd rect (at 9.25 -1.65) (size 0.3 1.2) (layers F.Cu F.Paste F.Mask))
  (pad 45 smd rect (at 9.75 -1.65) (size 0.3 1.2) (layers F.Cu F.Paste F.Mask))
  (pad 46 smd rect (at 10.25 -1.65) (size 0.3 1.2) (layers F.Cu F.Paste F.Mask))
  (pad 47 smd rect (at 10.75 -1.65) (size 0.3 1.2) (layers F.Cu F.Paste F.Mask))
  (pad 48 smd rect (at 11.25 -1.65) (size 0.3 1.2) (layers F.Cu F.Paste F.Mask))
  (pad 49 smd rect (at 11.75 -1.65) (size 0.3 1.2) (layers F.Cu F.Paste F.Mask))
  (pad 50 smd rect (at 12.25 -1.65) (size 0.3 1.2) (layers F.Cu F.Paste F.Mask))
  (pad MP smd rect (at -13.95 1.05) (size 1.6 2.4) (layers F.Cu F.Paste F.Mask))
  (pad MP smd rect (at 13.95 1.05) (size 1.6 2.4) (layers F.Cu F.Paste F.Mask))
  (pad MP smd rect (at -14.35 1.45) (size 2.4 1.6) (layers F.Cu F.Paste F.Mask))
  (pad MP smd rect (at 14.35 1.45) (size 2.4 1.6) (layers F.Cu F.Paste F.Mask))
  (model ${KIPRJMOD}/kicad_libs_k/models_k.3d/Connector_FFC-FPC_k.3dshapes/Molex_54132-5033_1x50-1MP_P0.5mm_Horizontal_k.wrl
    (at (xyz 0 0 0))
    (scale (xyz 1 1 1))
    (rotate (xyz 0 0 0))
  )
)
