(module TE_1-84952-0_1x10_P1.0mm_Horizontal (layer F.Cu) (tedit 5A1F0765)
  (descr "TE FPC connector, 10 bottom-side contacts, 1.0mm pitch, 1.0mm height, SMT, http://www.te.com/commerce/DocumentDelivery/DDEController?Action=srchrtrv&DocNm=84952&DocType=Customer+Drawing&DocLang=English&DocFormat=pdf&PartCntxt=84952-4")
  (tags "te fpc 84952")
  (attr smd)
  (fp_text reference REF** (at 0 -4) (layer F.SilkS)
    (effects (font (size 1 1) (thickness 0.15)))
  )
  (fp_text value TE_1-84952-0_1x10_P1.0mm_Horizontal (at 0 7.7) (layer F.Fab)
    (effects (font (size 1 1) (thickness 0.15)))
  )
  (fp_line (start -7.935 -0.8) (end 7.935 -0.8) (layer F.Fab) (width 0.1))
  (fp_line (start 7.935 -0.8) (end 7.935 3.71) (layer F.Fab) (width 0.1))
  (fp_line (start 7.935 3.71) (end 8.96 3.71) (layer F.Fab) (width 0.1))
  (fp_line (start 8.96 3.71) (end 8.96 4.6) (layer F.Fab) (width 0.1))
  (fp_line (start 8.96 4.6) (end -8.96 4.6) (layer F.Fab) (width 0.1))
  (fp_line (start -8.96 4.6) (end -8.96 3.71) (layer F.Fab) (width 0.1))
  (fp_line (start -8.96 3.71) (end -7.935 3.71) (layer F.Fab) (width 0.1))
  (fp_line (start -7.935 3.71) (end -7.935 -0.8) (layer F.Fab) (width 0.1))
  (fp_line (start -5 -0.8) (end -4.5 0.2) (layer F.Fab) (width 0.1))
  (fp_line (start -4.5 0.2) (end -4 -0.8) (layer F.Fab) (width 0.1))
  (fp_line (start 7.935 4.6) (end 7.935 5.61) (layer F.Fab) (width 0.1))
  (fp_line (start 7.935 5.61) (end 8.96 5.61) (layer F.Fab) (width 0.1))
  (fp_line (start 8.96 5.61) (end 8.96 6.5) (layer F.Fab) (width 0.1))
  (fp_line (start 8.96 6.5) (end -8.96 6.5) (layer F.Fab) (width 0.1))
  (fp_line (start -8.96 6.5) (end -8.96 5.61) (layer F.Fab) (width 0.1))
  (fp_line (start -8.96 5.61) (end -7.935 5.61) (layer F.Fab) (width 0.1))
  (fp_line (start -7.935 5.61) (end -7.935 4.6) (layer F.Fab) (width 0.1))
  (fp_line (start 8.045 3.06) (end 8.045 3.6) (layer F.SilkS) (width 0.12))
  (fp_line (start 8.045 3.6) (end 9.07 3.6) (layer F.SilkS) (width 0.12))
  (fp_line (start 9.07 3.6) (end 9.07 4.71) (layer F.SilkS) (width 0.12))
  (fp_line (start 9.07 4.71) (end -9.07 4.71) (layer F.SilkS) (width 0.12))
  (fp_line (start -9.07 4.71) (end -9.07 3.6) (layer F.SilkS) (width 0.12))
  (fp_line (start -9.07 3.6) (end -8.045 3.6) (layer F.SilkS) (width 0.12))
  (fp_line (start -8.045 3.6) (end -8.045 3.06) (layer F.SilkS) (width 0.12))
  (fp_line (start -5.89 -0.91) (end -5.065 -0.91) (layer F.SilkS) (width 0.12))
  (fp_line (start -5.065 -0.91) (end -5.065 -2.71) (layer F.SilkS) (width 0.12))
  (fp_line (start 5.065 -0.91) (end 5.89 -0.91) (layer F.SilkS) (width 0.12))
  (fp_line (start -9.46 -3.3) (end -9.46 7) (layer F.CrtYd) (width 0.05))
  (fp_line (start -9.46 7) (end 9.46 7) (layer F.CrtYd) (width 0.05))
  (fp_line (start 9.46 7) (end 9.46 -3.3) (layer F.CrtYd) (width 0.05))
  (fp_line (start 9.46 -3.3) (end -9.46 -3.3) (layer F.CrtYd) (width 0.05))
  (pad 1 smd rect (at -4.5 -1.8) (size 0.61 2) (layers F.Cu F.Mask F.Paste))
  (pad 2 smd rect (at -3.5 -1.8) (size 0.61 2) (layers F.Cu F.Mask F.Paste))
  (pad 3 smd rect (at -2.5 -1.8) (size 0.61 2) (layers F.Cu F.Mask F.Paste))
  (pad 4 smd rect (at -1.5 -1.8) (size 0.61 2) (layers F.Cu F.Mask F.Paste))
  (pad 5 smd rect (at -0.5 -1.8) (size 0.61 2) (layers F.Cu F.Mask F.Paste))
  (pad 6 smd rect (at 0.5 -1.8) (size 0.61 2) (layers F.Cu F.Mask F.Paste))
  (pad 7 smd rect (at 1.5 -1.8) (size 0.61 2) (layers F.Cu F.Mask F.Paste))
  (pad 8 smd rect (at 2.5 -1.8) (size 0.61 2) (layers F.Cu F.Mask F.Paste))
  (pad 9 smd rect (at 3.5 -1.8) (size 0.61 2) (layers F.Cu F.Mask F.Paste))
  (pad 10 smd rect (at 4.5 -1.8) (size 0.61 2) (layers F.Cu F.Mask F.Paste))
  (pad "" smd rect (at -7.49 1) (size 2.68 3.6) (layers F.Cu F.Mask F.Paste))
  (pad "" smd rect (at 7.49 1) (size 2.68 3.6) (layers F.Cu F.Mask F.Paste))
  (fp_text user %R (at 0 1.9) (layer F.Fab)
    (effects (font (size 1 1) (thickness 0.15)))
  )
  (model ${KIPRJMOD}/kicad_libs_k/models_k.3d/Connector_FFC-FPC_k.3dshapes/TE_1-84952-0_1x10_P1.0mm_Horizontal_k.wrl
    (at (xyz 0 0 0))
    (scale (xyz 1 1 1))
    (rotate (xyz 0 0 0))
  )
)