(module TE_2-84952-8_1x28_P1.0mm_Horizontal (layer F.Cu) (tedit 5A1F0765)
  (descr "TE FPC connector, 28 bottom-side contacts, 1.0mm pitch, 1.0mm height, SMT, http://www.te.com/commerce/DocumentDelivery/DDEController?Action=srchrtrv&DocNm=84952&DocType=Customer+Drawing&DocLang=English&DocFormat=pdf&PartCntxt=84952-4")
  (tags "te fpc 84952")
  (attr smd)
  (fp_text reference REF** (at 0 -4) (layer F.SilkS)
    (effects (font (size 1 1) (thickness 0.15)))
  )
  (fp_text value TE_2-84952-8_1x28_P1.0mm_Horizontal (at 0 7.7) (layer F.Fab)
    (effects (font (size 1 1) (thickness 0.15)))
  )
  (fp_line (start -16.935 -0.8) (end 16.935 -0.8) (layer F.Fab) (width 0.1))
  (fp_line (start 16.935 -0.8) (end 16.935 3.71) (layer F.Fab) (width 0.1))
  (fp_line (start 16.935 3.71) (end 17.96 3.71) (layer F.Fab) (width 0.1))
  (fp_line (start 17.96 3.71) (end 17.96 4.6) (layer F.Fab) (width 0.1))
  (fp_line (start 17.96 4.6) (end -17.96 4.6) (layer F.Fab) (width 0.1))
  (fp_line (start -17.96 4.6) (end -17.96 3.71) (layer F.Fab) (width 0.1))
  (fp_line (start -17.96 3.71) (end -16.935 3.71) (layer F.Fab) (width 0.1))
  (fp_line (start -16.935 3.71) (end -16.935 -0.8) (layer F.Fab) (width 0.1))
  (fp_line (start -14 -0.8) (end -13.5 0.2) (layer F.Fab) (width 0.1))
  (fp_line (start -13.5 0.2) (end -13 -0.8) (layer F.Fab) (width 0.1))
  (fp_line (start 16.935 4.6) (end 16.935 5.61) (layer F.Fab) (width 0.1))
  (fp_line (start 16.935 5.61) (end 17.96 5.61) (layer F.Fab) (width 0.1))
  (fp_line (start 17.96 5.61) (end 17.96 6.5) (layer F.Fab) (width 0.1))
  (fp_line (start 17.96 6.5) (end -17.96 6.5) (layer F.Fab) (width 0.1))
  (fp_line (start -17.96 6.5) (end -17.96 5.61) (layer F.Fab) (width 0.1))
  (fp_line (start -17.96 5.61) (end -16.935 5.61) (layer F.Fab) (width 0.1))
  (fp_line (start -16.935 5.61) (end -16.935 4.6) (layer F.Fab) (width 0.1))
  (fp_line (start 17.045 3.06) (end 17.045 3.6) (layer F.SilkS) (width 0.12))
  (fp_line (start 17.045 3.6) (end 18.07 3.6) (layer F.SilkS) (width 0.12))
  (fp_line (start 18.07 3.6) (end 18.07 4.71) (layer F.SilkS) (width 0.12))
  (fp_line (start 18.07 4.71) (end -18.07 4.71) (layer F.SilkS) (width 0.12))
  (fp_line (start -18.07 4.71) (end -18.07 3.6) (layer F.SilkS) (width 0.12))
  (fp_line (start -18.07 3.6) (end -17.045 3.6) (layer F.SilkS) (width 0.12))
  (fp_line (start -17.045 3.6) (end -17.045 3.06) (layer F.SilkS) (width 0.12))
  (fp_line (start -14.89 -0.91) (end -14.065 -0.91) (layer F.SilkS) (width 0.12))
  (fp_line (start -14.065 -0.91) (end -14.065 -2.71) (layer F.SilkS) (width 0.12))
  (fp_line (start 14.065 -0.91) (end 14.89 -0.91) (layer F.SilkS) (width 0.12))
  (fp_line (start -18.46 -3.3) (end -18.46 7) (layer F.CrtYd) (width 0.05))
  (fp_line (start -18.46 7) (end 18.46 7) (layer F.CrtYd) (width 0.05))
  (fp_line (start 18.46 7) (end 18.46 -3.3) (layer F.CrtYd) (width 0.05))
  (fp_line (start 18.46 -3.3) (end -18.46 -3.3) (layer F.CrtYd) (width 0.05))
  (pad 1 smd rect (at -13.5 -1.8) (size 0.61 2) (layers F.Cu F.Mask F.Paste))
  (pad 2 smd rect (at -12.5 -1.8) (size 0.61 2) (layers F.Cu F.Mask F.Paste))
  (pad 3 smd rect (at -11.5 -1.8) (size 0.61 2) (layers F.Cu F.Mask F.Paste))
  (pad 4 smd rect (at -10.5 -1.8) (size 0.61 2) (layers F.Cu F.Mask F.Paste))
  (pad 5 smd rect (at -9.5 -1.8) (size 0.61 2) (layers F.Cu F.Mask F.Paste))
  (pad 6 smd rect (at -8.5 -1.8) (size 0.61 2) (layers F.Cu F.Mask F.Paste))
  (pad 7 smd rect (at -7.5 -1.8) (size 0.61 2) (layers F.Cu F.Mask F.Paste))
  (pad 8 smd rect (at -6.5 -1.8) (size 0.61 2) (layers F.Cu F.Mask F.Paste))
  (pad 9 smd rect (at -5.5 -1.8) (size 0.61 2) (layers F.Cu F.Mask F.Paste))
  (pad 10 smd rect (at -4.5 -1.8) (size 0.61 2) (layers F.Cu F.Mask F.Paste))
  (pad 11 smd rect (at -3.5 -1.8) (size 0.61 2) (layers F.Cu F.Mask F.Paste))
  (pad 12 smd rect (at -2.5 -1.8) (size 0.61 2) (layers F.Cu F.Mask F.Paste))
  (pad 13 smd rect (at -1.5 -1.8) (size 0.61 2) (layers F.Cu F.Mask F.Paste))
  (pad 14 smd rect (at -0.5 -1.8) (size 0.61 2) (layers F.Cu F.Mask F.Paste))
  (pad 15 smd rect (at 0.5 -1.8) (size 0.61 2) (layers F.Cu F.Mask F.Paste))
  (pad 16 smd rect (at 1.5 -1.8) (size 0.61 2) (layers F.Cu F.Mask F.Paste))
  (pad 17 smd rect (at 2.5 -1.8) (size 0.61 2) (layers F.Cu F.Mask F.Paste))
  (pad 18 smd rect (at 3.5 -1.8) (size 0.61 2) (layers F.Cu F.Mask F.Paste))
  (pad 19 smd rect (at 4.5 -1.8) (size 0.61 2) (layers F.Cu F.Mask F.Paste))
  (pad 20 smd rect (at 5.5 -1.8) (size 0.61 2) (layers F.Cu F.Mask F.Paste))
  (pad 21 smd rect (at 6.5 -1.8) (size 0.61 2) (layers F.Cu F.Mask F.Paste))
  (pad 22 smd rect (at 7.5 -1.8) (size 0.61 2) (layers F.Cu F.Mask F.Paste))
  (pad 23 smd rect (at 8.5 -1.8) (size 0.61 2) (layers F.Cu F.Mask F.Paste))
  (pad 24 smd rect (at 9.5 -1.8) (size 0.61 2) (layers F.Cu F.Mask F.Paste))
  (pad 25 smd rect (at 10.5 -1.8) (size 0.61 2) (layers F.Cu F.Mask F.Paste))
  (pad 26 smd rect (at 11.5 -1.8) (size 0.61 2) (layers F.Cu F.Mask F.Paste))
  (pad 27 smd rect (at 12.5 -1.8) (size 0.61 2) (layers F.Cu F.Mask F.Paste))
  (pad 28 smd rect (at 13.5 -1.8) (size 0.61 2) (layers F.Cu F.Mask F.Paste))
  (pad "" smd rect (at -16.49 1) (size 2.68 3.6) (layers F.Cu F.Mask F.Paste))
  (pad "" smd rect (at 16.49 1) (size 2.68 3.6) (layers F.Cu F.Mask F.Paste))
  (fp_text user %R (at 0 1.9) (layer F.Fab)
    (effects (font (size 1 1) (thickness 0.15)))
  )
  (model ${KIPRJMOD}/kicad_libs_k/models_k.3d/Connector_FFC-FPC_k.3dshapes/TE_2-84952-8_1x28_P1.0mm_Horizontal_k.wrl
    (at (xyz 0 0 0))
    (scale (xyz 1 1 1))
    (rotate (xyz 0 0 0))
  )
)