(module TE_84952-9_1x09_P1.0mm_Horizontal (layer F.Cu) (tedit 5A1F0765)
  (descr "TE FPC connector, 09 bottom-side contacts, 1.0mm pitch, 1.0mm height, SMT, http://www.te.com/commerce/DocumentDelivery/DDEController?Action=srchrtrv&DocNm=84952&DocType=Customer+Drawing&DocLang=English&DocFormat=pdf&PartCntxt=84952-4")
  (tags "te fpc 84952")
  (attr smd)
  (fp_text reference REF** (at 0 -4) (layer F.SilkS)
    (effects (font (size 1 1) (thickness 0.15)))
  )
  (fp_text value TE_84952-9_1x09_P1.0mm_Horizontal (at 0 7.7) (layer F.Fab)
    (effects (font (size 1 1) (thickness 0.15)))
  )
  (fp_line (start -7.435 -0.8) (end 7.435 -0.8) (layer F.Fab) (width 0.1))
  (fp_line (start 7.435 -0.8) (end 7.435 3.71) (layer F.Fab) (width 0.1))
  (fp_line (start 7.435 3.71) (end 8.46 3.71) (layer F.Fab) (width 0.1))
  (fp_line (start 8.46 3.71) (end 8.46 4.6) (layer F.Fab) (width 0.1))
  (fp_line (start 8.46 4.6) (end -8.46 4.6) (layer F.Fab) (width 0.1))
  (fp_line (start -8.46 4.6) (end -8.46 3.71) (layer F.Fab) (width 0.1))
  (fp_line (start -8.46 3.71) (end -7.435 3.71) (layer F.Fab) (width 0.1))
  (fp_line (start -7.435 3.71) (end -7.435 -0.8) (layer F.Fab) (width 0.1))
  (fp_line (start -4.5 -0.8) (end -4 0.2) (layer F.Fab) (width 0.1))
  (fp_line (start -4 0.2) (end -3.5 -0.8) (layer F.Fab) (width 0.1))
  (fp_line (start 7.435 4.6) (end 7.435 5.61) (layer F.Fab) (width 0.1))
  (fp_line (start 7.435 5.61) (end 8.46 5.61) (layer F.Fab) (width 0.1))
  (fp_line (start 8.46 5.61) (end 8.46 6.5) (layer F.Fab) (width 0.1))
  (fp_line (start 8.46 6.5) (end -8.46 6.5) (layer F.Fab) (width 0.1))
  (fp_line (start -8.46 6.5) (end -8.46 5.61) (layer F.Fab) (width 0.1))
  (fp_line (start -8.46 5.61) (end -7.435 5.61) (layer F.Fab) (width 0.1))
  (fp_line (start -7.435 5.61) (end -7.435 4.6) (layer F.Fab) (width 0.1))
  (fp_line (start 7.545 3.06) (end 7.545 3.6) (layer F.SilkS) (width 0.12))
  (fp_line (start 7.545 3.6) (end 8.57 3.6) (layer F.SilkS) (width 0.12))
  (fp_line (start 8.57 3.6) (end 8.57 4.71) (layer F.SilkS) (width 0.12))
  (fp_line (start 8.57 4.71) (end -8.57 4.71) (layer F.SilkS) (width 0.12))
  (fp_line (start -8.57 4.71) (end -8.57 3.6) (layer F.SilkS) (width 0.12))
  (fp_line (start -8.57 3.6) (end -7.545 3.6) (layer F.SilkS) (width 0.12))
  (fp_line (start -7.545 3.6) (end -7.545 3.06) (layer F.SilkS) (width 0.12))
  (fp_line (start -5.39 -0.91) (end -4.565 -0.91) (layer F.SilkS) (width 0.12))
  (fp_line (start -4.565 -0.91) (end -4.565 -2.71) (layer F.SilkS) (width 0.12))
  (fp_line (start 4.565 -0.91) (end 5.39 -0.91) (layer F.SilkS) (width 0.12))
  (fp_line (start -8.96 -3.3) (end -8.96 7) (layer F.CrtYd) (width 0.05))
  (fp_line (start -8.96 7) (end 8.96 7) (layer F.CrtYd) (width 0.05))
  (fp_line (start 8.96 7) (end 8.96 -3.3) (layer F.CrtYd) (width 0.05))
  (fp_line (start 8.96 -3.3) (end -8.96 -3.3) (layer F.CrtYd) (width 0.05))
  (pad 1 smd rect (at -4 -1.8) (size 0.61 2) (layers F.Cu F.Mask F.Paste))
  (pad 2 smd rect (at -3 -1.8) (size 0.61 2) (layers F.Cu F.Mask F.Paste))
  (pad 3 smd rect (at -2 -1.8) (size 0.61 2) (layers F.Cu F.Mask F.Paste))
  (pad 4 smd rect (at -1 -1.8) (size 0.61 2) (layers F.Cu F.Mask F.Paste))
  (pad 5 smd rect (at 0 -1.8) (size 0.61 2) (layers F.Cu F.Mask F.Paste))
  (pad 6 smd rect (at 1 -1.8) (size 0.61 2) (layers F.Cu F.Mask F.Paste))
  (pad 7 smd rect (at 2 -1.8) (size 0.61 2) (layers F.Cu F.Mask F.Paste))
  (pad 8 smd rect (at 3 -1.8) (size 0.61 2) (layers F.Cu F.Mask F.Paste))
  (pad 9 smd rect (at 4 -1.8) (size 0.61 2) (layers F.Cu F.Mask F.Paste))
  (pad "" smd rect (at -6.99 1) (size 2.68 3.6) (layers F.Cu F.Mask F.Paste))
  (pad "" smd rect (at 6.99 1) (size 2.68 3.6) (layers F.Cu F.Mask F.Paste))
  (fp_text user %R (at 0 1.9) (layer F.Fab)
    (effects (font (size 1 1) (thickness 0.15)))
  )
  (model ${KIPRJMOD}/kicad_libs_k/models_k.3d/Connector_FFC-FPC_k.3dshapes/TE_84952-9_1x09_P1.0mm_Horizontal_k.wrl
    (at (xyz 0 0 0))
    (scale (xyz 1 1 1))
    (rotate (xyz 0 0 0))
  )
)