(module Wuerth_WIRL-WIFS_Calypso_WIFI_2610011025000 (layer F.Cu) (tedit 5FBF73A2)
  (descr "Calypso - Wi-Fi Radio Module WIRL-WIFS Calypso WIFI module T&R")
  (fp_text reference Ref** (at 1.35 -11.8) (layer F.SilkS)
    (effects (font (size 1.2065 1.2065) (thickness 0.1016)) (justify bottom))
  )
  (fp_text value Val** (at -2.95 12.3) (layer F.Fab)
    (effects (font (size 1.2065 1.2065) (thickness 0.1016)) (justify left bottom))
  )
  (fp_line (start 15.25 -11) (end -8.5 -11) (layer F.CrtYd) (width 0.12))
  (fp_line (start 15.25 10.75) (end 15.25 -11) (layer F.CrtYd) (width 0.12))
  (fp_line (start -8.5 10.75) (end 15.25 10.75) (layer F.CrtYd) (width 0.12))
  (fp_line (start -8.55 22.5) (end -8.55 -22.5) (layer Dwgs.User) (width 0.12))
  (fp_line (start -26.25 22.5) (end -8.55 22.5) (layer Dwgs.User) (width 0.12))
  (fp_line (start -26.25 -22.5) (end -26.25 22.5) (layer Dwgs.User) (width 0.12))
  (fp_line (start -8.55 -22.5) (end -26.25 -22.5) (layer Dwgs.User) (width 0.12))
  (fp_line (start -8.5 9.5) (end -8.5 -9.5) (layer F.Fab) (width 0.127))
  (fp_line (start -19.9 -9.6) (end -19.5 -10) (layer F.Fab) (width 0.127))
  (fp_line (start -19.9 -9.6) (end -19.5 -9.2) (layer F.Fab) (width 0.127))
  (fp_line (start -13.9 -16) (end -14.4 -15.5) (layer F.Fab) (width 0.127))
  (fp_line (start -13.9 -16) (end -13.4 -15.5) (layer F.Fab) (width 0.127))
  (fp_line (start -13.9 -9.6) (end -19.9 -9.6) (layer F.Fab) (width 0.127))
  (fp_line (start -13.9 -9.6) (end -13.9 -16) (layer F.Fab) (width 0.127))
  (fp_line (start -13.9 15.6) (end -14.3 15.2) (layer F.Fab) (width 0.127))
  (fp_line (start -13.9 15.6) (end -13.5 15.2) (layer F.Fab) (width 0.127))
  (fp_line (start -20.3 9.6) (end -19.8 10.1) (layer F.Fab) (width 0.127))
  (fp_line (start -20.3 9.6) (end -19.8 9.1) (layer F.Fab) (width 0.127))
  (fp_line (start -13.9 9.6) (end -13.9 15.6) (layer F.Fab) (width 0.127))
  (fp_line (start -13.9 9.6) (end -20.3 9.6) (layer F.Fab) (width 0.127))
  (fp_circle (center -8.65 10.9) (end -8.45 10.9) (layer F.SilkS) (width 0.4))
  (fp_line (start 13.85 -9.6) (end 13.85 -6.85) (layer F.SilkS) (width 0.2))
  (fp_line (start 11.2 -9.6) (end 13.85 -9.6) (layer F.SilkS) (width 0.2))
  (fp_line (start 13.85 9.6) (end 13.85 6.85) (layer F.SilkS) (width 0.2))
  (fp_line (start 11.2 9.6) (end 13.85 9.6) (layer F.SilkS) (width 0.2))
  (fp_line (start -13.85 9.6) (end -8.5 9.6) (layer F.SilkS) (width 0.2))
  (fp_line (start -13.85 -9.6) (end -13.85 9.6) (layer F.SilkS) (width 0.2))
  (fp_line (start -7 -9.6) (end -13.85 -9.6) (layer F.SilkS) (width 0.2))
  (fp_line (start -13.75 9.5) (end -13.75 -9.5) (layer F.Fab) (width 0.127))
  (fp_line (start -8.5 9.5) (end -13.75 9.5) (layer F.Fab) (width 0.127))
  (fp_line (start 13.75 9.5) (end -8.5 9.5) (layer F.Fab) (width 0.127))
  (fp_line (start 13.75 -9.5) (end 13.75 9.5) (layer F.Fab) (width 0.127))
  (fp_line (start -8.5 -9.5) (end 13.75 -9.5) (layer F.Fab) (width 0.127))
  (fp_line (start -13.75 -9.5) (end -8.5 -9.5) (layer F.Fab) (width 0.127))
  (fp_text user 12.5mm (at -18.8 -10.1) (layer F.Fab)
    (effects (font (size 0.57912 0.57912) (thickness 0.048768)) (justify left bottom))
  )
  (fp_text user 12.5mm (at -13.5 -15.2 90) (layer F.Fab)
    (effects (font (size 0.57912 0.57912) (thickness 0.048768)) (justify right top))
  )
  (fp_text user 12.5mm (at -14.4 14.5 90) (layer F.Fab)
    (effects (font (size 0.57912 0.57912) (thickness 0.048768)) (justify left bottom))
  )
  (fp_text user 12.5mm (at -19.5 9.2) (layer F.Fab)
    (effects (font (size 0.57912 0.57912) (thickness 0.048768)) (justify left bottom))
  )
  (pad 34 smd rect (at -6.15 -9.25) (size 0.8 1.5) (layers F.Cu F.Paste F.Mask)
    (solder_mask_margin 0.1016))
  (pad 33 smd rect (at -4.65 -9.25) (size 0.8 1.5) (layers F.Cu F.Paste F.Mask)
    (solder_mask_margin 0.1016))
  (pad 32 smd rect (at -3.15 -9.25) (size 0.8 1.5) (layers F.Cu F.Paste F.Mask)
    (solder_mask_margin 0.1016))
  (pad 31 smd rect (at -1.65 -9.25) (size 0.8 1.5) (layers F.Cu F.Paste F.Mask)
    (solder_mask_margin 0.1016))
  (pad 30 smd rect (at -0.15 -9.25) (size 0.8 1.5) (layers F.Cu F.Paste F.Mask)
    (solder_mask_margin 0.1016))
  (pad 29 smd rect (at 1.35 -9.25) (size 0.8 1.5) (layers F.Cu F.Paste F.Mask)
    (solder_mask_margin 0.1016))
  (pad 28 smd rect (at 2.85 -9.25) (size 0.8 1.5) (layers F.Cu F.Paste F.Mask)
    (solder_mask_margin 0.1016))
  (pad 27 smd rect (at 4.35 -9.25) (size 0.8 1.5) (layers F.Cu F.Paste F.Mask)
    (solder_mask_margin 0.1016))
  (pad 26 smd rect (at 5.85 -9.25) (size 0.8 1.5) (layers F.Cu F.Paste F.Mask)
    (solder_mask_margin 0.1016))
  (pad 25 smd rect (at 7.35 -9.25) (size 0.8 1.5) (layers F.Cu F.Paste F.Mask)
    (solder_mask_margin 0.1016))
  (pad 24 smd rect (at 8.85 -9.25) (size 0.8 1.5) (layers F.Cu F.Paste F.Mask)
    (solder_mask_margin 0.1016))
  (pad 23 smd rect (at 10.35 -9.25) (size 0.8 1.5) (layers F.Cu F.Paste F.Mask)
    (solder_mask_margin 0.1016))
  (pad 22 smd rect (at 13.5 -6 90) (size 0.8 1.5) (layers F.Cu F.Paste F.Mask)
    (solder_mask_margin 0.1016))
  (pad 21 smd rect (at 13.5 -4.5 90) (size 0.8 1.5) (layers F.Cu F.Paste F.Mask)
    (solder_mask_margin 0.1016))
  (pad 20 smd rect (at 13.5 -3 90) (size 0.8 1.5) (layers F.Cu F.Paste F.Mask)
    (solder_mask_margin 0.1016))
  (pad 19 smd rect (at 13.5 -1.5 90) (size 0.8 1.5) (layers F.Cu F.Paste F.Mask)
    (solder_mask_margin 0.1016))
  (pad 18 smd rect (at 13.5 0 90) (size 0.8 1.5) (layers F.Cu F.Paste F.Mask)
    (solder_mask_margin 0.1016))
  (pad 17 smd rect (at 13.5 1.5 90) (size 0.8 1.5) (layers F.Cu F.Paste F.Mask)
    (solder_mask_margin 0.1016))
  (pad 16 smd rect (at 13.5 3 90) (size 0.8 1.5) (layers F.Cu F.Paste F.Mask)
    (solder_mask_margin 0.1016))
  (pad 15 smd rect (at 13.5 4.5 90) (size 0.8 1.5) (layers F.Cu F.Paste F.Mask)
    (solder_mask_margin 0.1016))
  (pad 14 smd rect (at 13.5 6 90) (size 0.8 1.5) (layers F.Cu F.Paste F.Mask)
    (solder_mask_margin 0.1016))
  (pad 13 smd rect (at 10.35 9.25) (size 0.8 1.5) (layers F.Cu F.Paste F.Mask)
    (solder_mask_margin 0.1016))
  (pad 12 smd rect (at 8.85 9.25) (size 0.8 1.5) (layers F.Cu F.Paste F.Mask)
    (solder_mask_margin 0.1016))
  (pad 11 smd rect (at 7.35 9.25) (size 0.8 1.5) (layers F.Cu F.Paste F.Mask)
    (solder_mask_margin 0.1016))
  (pad 10 smd rect (at 5.85 9.25) (size 0.8 1.5) (layers F.Cu F.Paste F.Mask)
    (solder_mask_margin 0.1016))
  (pad 9 smd rect (at 4.35 9.25) (size 0.8 1.5) (layers F.Cu F.Paste F.Mask)
    (solder_mask_margin 0.1016))
  (pad 8 smd rect (at 2.85 9.25) (size 0.8 1.5) (layers F.Cu F.Paste F.Mask)
    (solder_mask_margin 0.1016))
  (pad 7 smd rect (at 1.35 9.25) (size 0.8 1.5) (layers F.Cu F.Paste F.Mask)
    (solder_mask_margin 0.1016))
  (pad 6 smd rect (at -0.15 9.25) (size 0.8 1.5) (layers F.Cu F.Paste F.Mask)
    (solder_mask_margin 0.1016))
  (pad 5 smd rect (at -1.65 9.25) (size 0.8 1.5) (layers F.Cu F.Paste F.Mask)
    (solder_mask_margin 0.1016))
  (pad 4 smd rect (at -3.15 9.25) (size 0.8 1.5) (layers F.Cu F.Paste F.Mask)
    (solder_mask_margin 0.1016))
  (pad 3 smd rect (at -4.65 9.25) (size 0.8 1.5) (layers F.Cu F.Paste F.Mask)
    (solder_mask_margin 0.1016))
  (pad 2 smd rect (at -6.15 9.25) (size 0.8 1.5) (layers F.Cu F.Paste F.Mask)
    (solder_mask_margin 0.1016))
  (pad 1 smd rect (at -7.65 9.25) (size 0.8 1.5) (layers F.Cu F.Paste F.Mask)
    (solder_mask_margin 0.1016))
  (model ${KIPRJMOD}/kicad_libs_k/models_k.3d/Module_HF.3dshapes/Wuerth_WIRL-WIFS_Calypso_WIFI_2610011025000.stp
    (offset (xyz 13.75 -9.5 1))
    (scale (xyz 1 1 1))
    (rotate (xyz 0 0 -90))
  )
)
