(module Wago_734-164_1x04_P3.50mm_Horizontal (layer F.Cu) (tedit 5A1F4400)
  (descr "Molex 734 Male header (for PCBs); Angled solder pin 1 x 1 mm, 734-164 , 4 Pins (http://www.farnell.com/datasheets/2157639.pdf), generated with kicad-footprint-generator")
  (tags "connector Wago  top entry")
  (fp_text reference REF** (at 5.4 -2.2) (layer F.SilkS)
    (effects (font (size 1 1) (thickness 0.15)))
  )
  (fp_text value Wago_734-164_1x04_P3.50mm_Horizontal (at 5.4 10.5) (layer F.Fab)
    (effects (font (size 1 1) (thickness 0.15)))
  )
  (fp_line (start -2.8 -1) (end -2.8 9.3) (layer F.Fab) (width 0.1))
  (fp_line (start -2.8 9.3) (end 13.6 9.3) (layer F.Fab) (width 0.1))
  (fp_line (start 13.6 9.3) (end 13.6 -1) (layer F.Fab) (width 0.1))
  (fp_line (start 13.6 -1) (end -2.8 -1) (layer F.Fab) (width 0.1))
  (fp_line (start -1.26 -1.11) (end -2.91 -1.11) (layer F.SilkS) (width 0.12))
  (fp_line (start -2.91 -1.11) (end -2.91 9.41) (layer F.SilkS) (width 0.12))
  (fp_line (start -2.91 9.41) (end 13.71 9.41) (layer F.SilkS) (width 0.12))
  (fp_line (start 13.71 9.41) (end 13.71 -1.11) (layer F.SilkS) (width 0.12))
  (fp_line (start 13.71 -1.11) (end 11.76 -1.11) (layer F.SilkS) (width 0.12))
  (fp_line (start 1.26 -1.11) (end 2.24 -1.11) (layer F.SilkS) (width 0.12))
  (fp_line (start 4.76 -1.11) (end 5.74 -1.11) (layer F.SilkS) (width 0.12))
  (fp_line (start 8.26 -1.11) (end 9.24 -1.11) (layer F.SilkS) (width 0.12))
  (fp_line (start -3.21 1) (end -3.21 -1.41) (layer F.SilkS) (width 0.12))
  (fp_line (start -3.21 -1.41) (end -1.26 -1.41) (layer F.SilkS) (width 0.12))
  (fp_line (start -0.5 -1) (end 0 -0.292893) (layer F.Fab) (width 0.1))
  (fp_line (start 0 -0.292893) (end 0.5 -1) (layer F.Fab) (width 0.1))
  (fp_line (start -3.3 -1.5) (end -3.3 9.8) (layer F.CrtYd) (width 0.05))
  (fp_line (start -3.3 9.8) (end 14.1 9.8) (layer F.CrtYd) (width 0.05))
  (fp_line (start 14.1 9.8) (end 14.1 -1.5) (layer F.CrtYd) (width 0.05))
  (fp_line (start 14.1 -1.5) (end -3.3 -1.5) (layer F.CrtYd) (width 0.05))
  (pad 1 thru_hole rect (at 0 0) (size 2 2.6) (drill 1.6) (layers *.Cu *.Mask))
  (pad 2 thru_hole oval (at 3.5 0) (size 2 2.6) (drill 1.6) (layers *.Cu *.Mask))
  (pad 3 thru_hole oval (at 7 0) (size 2 2.6) (drill 1.6) (layers *.Cu *.Mask))
  (pad 4 thru_hole oval (at 10.5 0) (size 2 2.6) (drill 1.6) (layers *.Cu *.Mask))
  (fp_text user %R (at 5.4 8.6) (layer F.Fab)
    (effects (font (size 1 1) (thickness 0.15)))
  )
  (model ${KIPRJMOD}/kicad_libs_k/models_k.3d/Connector_Wago_k.3dshapes/Wago_734-164_1x04_P3.50mm_Horizontal_k.wrl
    (at (xyz 0 0 0))
    (scale (xyz 1 1 1))
    (rotate (xyz 0 0 0))
  )
)