(module Wago_734-139_1x09_P3.50mm_Vertical (layer F.Cu) (tedit 5A1F3EED)
  (descr "Molex 734 Male header (for PCBs); Straight solder pin 1 x 1 mm, 734-139 , 9 Pins (http://www.farnell.com/datasheets/2157639.pdf), generated with kicad-footprint-generator")
  (tags "connector Wago  side entry")
  (fp_text reference REF** (at 14.15 -5.35) (layer F.SilkS)
    (effects (font (size 1 1) (thickness 0.15)))
  )
  (fp_text value Wago_734-139_1x09_P3.50mm_Vertical (at 14.15 5.55) (layer F.Fab)
    (effects (font (size 1 1) (thickness 0.15)))
  )
  (fp_line (start -2.8 -4.15) (end -2.8 4.35) (layer F.Fab) (width 0.1))
  (fp_line (start -2.8 4.35) (end 31.1 4.35) (layer F.Fab) (width 0.1))
  (fp_line (start 31.1 4.35) (end 31.1 -4.15) (layer F.Fab) (width 0.1))
  (fp_line (start 31.1 -4.15) (end -2.8 -4.15) (layer F.Fab) (width 0.1))
  (fp_line (start -2.91 -4.26) (end -2.91 4.46) (layer F.SilkS) (width 0.12))
  (fp_line (start -2.91 4.46) (end 31.21 4.46) (layer F.SilkS) (width 0.12))
  (fp_line (start 31.21 4.46) (end 31.21 -4.26) (layer F.SilkS) (width 0.12))
  (fp_line (start 31.21 -4.26) (end -2.91 -4.26) (layer F.SilkS) (width 0.12))
  (fp_line (start -2.3 -2.65) (end -2.3 2.85) (layer F.SilkS) (width 0.12))
  (fp_line (start -2.3 2.85) (end 0 2.85) (layer F.SilkS) (width 0.12))
  (fp_line (start 0 2.85) (end 0 3.85) (layer F.SilkS) (width 0.12))
  (fp_line (start 0 3.85) (end 2.6 3.85) (layer F.SilkS) (width 0.12))
  (fp_line (start 2.6 3.85) (end 2.6 2.85) (layer F.SilkS) (width 0.12))
  (fp_line (start 2.6 2.85) (end 28 2.85) (layer F.SilkS) (width 0.12))
  (fp_line (start 28 2.85) (end 28 3.85) (layer F.SilkS) (width 0.12))
  (fp_line (start 28 3.85) (end 30.6 3.85) (layer F.SilkS) (width 0.12))
  (fp_line (start 30.6 3.85) (end 30.6 -2.65) (layer F.SilkS) (width 0.12))
  (fp_line (start 30.6 -2.65) (end -2.3 -2.65) (layer F.SilkS) (width 0.12))
  (fp_line (start -3.21 -2.15) (end -3.21 -4.56) (layer F.SilkS) (width 0.12))
  (fp_line (start -3.21 -4.56) (end -0.8 -4.56) (layer F.SilkS) (width 0.12))
  (fp_line (start -0.5 -4.15) (end 0 -3.442893) (layer F.Fab) (width 0.1))
  (fp_line (start 0 -3.442893) (end 0.5 -4.15) (layer F.Fab) (width 0.1))
  (fp_line (start -3.3 -4.65) (end -3.3 4.85) (layer F.CrtYd) (width 0.05))
  (fp_line (start -3.3 4.85) (end 31.6 4.85) (layer F.CrtYd) (width 0.05))
  (fp_line (start 31.6 4.85) (end 31.6 -4.65) (layer F.CrtYd) (width 0.05))
  (fp_line (start 31.6 -4.65) (end -3.3 -4.65) (layer F.CrtYd) (width 0.05))
  (pad 1 thru_hole rect (at 0 0) (size 2 2.6) (drill 1.6) (layers *.Cu *.Mask))
  (pad 2 thru_hole oval (at 3.5 0) (size 2 2.6) (drill 1.6) (layers *.Cu *.Mask))
  (pad 3 thru_hole oval (at 7 0) (size 2 2.6) (drill 1.6) (layers *.Cu *.Mask))
  (pad 4 thru_hole oval (at 10.5 0) (size 2 2.6) (drill 1.6) (layers *.Cu *.Mask))
  (pad 5 thru_hole oval (at 14 0) (size 2 2.6) (drill 1.6) (layers *.Cu *.Mask))
  (pad 6 thru_hole oval (at 17.5 0) (size 2 2.6) (drill 1.6) (layers *.Cu *.Mask))
  (pad 7 thru_hole oval (at 21 0) (size 2 2.6) (drill 1.6) (layers *.Cu *.Mask))
  (pad 8 thru_hole oval (at 24.5 0) (size 2 2.6) (drill 1.6) (layers *.Cu *.Mask))
  (pad 9 thru_hole oval (at 28 0) (size 2 2.6) (drill 1.6) (layers *.Cu *.Mask))
  (fp_text user %R (at 14.15 3.65) (layer F.Fab)
    (effects (font (size 1 1) (thickness 0.15)))
  )
  (model ${KIPRJMOD}/kicad_libs_k/models_k.3d/Connector_Wago_k.3dshapes/Wago_734-139_1x09_P3.50mm_Vertical_k.wrl
    (at (xyz 0 0 0))
    (scale (xyz 1 1 1))
    (rotate (xyz 0 0 0))
  )
)