(module Multicomp_MC9A12-2634_2x13_P2.54mm_Vertical (layer F.Cu) (tedit 5A16A5B2)
  (descr http://www.farnell.com/datasheets/1520732.pdf)
  (tags "connector multicomp MC9A MC9A12")
  (fp_text reference REF** (at -3 -7) (layer F.SilkS)
    (effects (font (size 1 1) (thickness 0.15)))
  )
  (fp_text value Multicomp_MC9A12-2634_2x13_P2.54mm_Vertical (at 15.24 5) (layer F.Fab)
    (effects (font (size 1 1) (thickness 0.15)))
  )
  (fp_text user %R (at 15.24 -1.27) (layer F.Fab)
    (effects (font (size 1 1) (thickness 0.15)))
  )
  (fp_line (start -5.07 3.2) (end -5.07 -5.74) (layer F.SilkS) (width 0.15))
  (fp_line (start -5.07 -5.74) (end 35.55 -5.74) (layer F.SilkS) (width 0.15))
  (fp_line (start 35.55 -5.74) (end 35.55 3.2) (layer F.SilkS) (width 0.15))
  (fp_line (start 35.55 3.2) (end -5.07 3.2) (layer F.SilkS) (width 0.15))
  (fp_line (start 13.015 3.2) (end 13.015 1.9) (layer F.SilkS) (width 0.15))
  (fp_line (start 13.015 1.9) (end -3.87 1.9) (layer F.SilkS) (width 0.15))
  (fp_line (start -3.87 1.9) (end -3.87 -4.44) (layer F.SilkS) (width 0.15))
  (fp_line (start -3.87 -4.44) (end 34.35 -4.44) (layer F.SilkS) (width 0.15))
  (fp_line (start 34.35 -4.44) (end 34.35 1.9) (layer F.SilkS) (width 0.15))
  (fp_line (start 34.35 1.9) (end 17.465 1.9) (layer F.SilkS) (width 0.15))
  (fp_line (start 17.465 1.9) (end 17.465 3.2) (layer F.SilkS) (width 0.15))
  (fp_line (start 14.99 -5.74) (end 14.99 -5.94) (layer F.SilkS) (width 0.15))
  (fp_line (start 14.99 -5.94) (end 15.49 -5.94) (layer F.SilkS) (width 0.15))
  (fp_line (start 15.49 -5.94) (end 15.49 -5.74) (layer F.SilkS) (width 0.15))
  (fp_line (start 14.99 -5.84) (end 15.49 -5.84) (layer F.SilkS) (width 0.15))
  (fp_line (start 32.63 -5.74) (end 32.63 -5.94) (layer F.SilkS) (width 0.15))
  (fp_line (start 32.63 -5.94) (end 33.13 -5.94) (layer F.SilkS) (width 0.15))
  (fp_line (start 33.13 -5.94) (end 33.13 -5.74) (layer F.SilkS) (width 0.15))
  (fp_line (start 32.63 -5.84) (end 33.13 -5.84) (layer F.SilkS) (width 0.15))
  (fp_line (start -2.65 -5.74) (end -2.65 -5.94) (layer F.SilkS) (width 0.15))
  (fp_line (start -2.65 -5.94) (end -2.15 -5.94) (layer F.SilkS) (width 0.15))
  (fp_line (start -2.15 -5.94) (end -2.15 -5.74) (layer F.SilkS) (width 0.15))
  (fp_line (start -2.65 -5.84) (end -2.15 -5.84) (layer F.SilkS) (width 0.15))
  (fp_line (start -2.2 0.6) (end -2.2 -0.6) (layer F.SilkS) (width 0.15))
  (fp_line (start -2.2 -0.6) (end -1.6 0) (layer F.SilkS) (width 0.15))
  (fp_line (start -1.6 0) (end -2.2 0.6) (layer F.SilkS) (width 0.15))
  (fp_line (start -5.55 3.7) (end -5.55 -6.25) (layer F.CrtYd) (width 0.05))
  (fp_line (start -5.55 -6.25) (end 36.05 -6.25) (layer F.CrtYd) (width 0.05))
  (fp_line (start 36.05 -6.25) (end 36.05 3.7) (layer F.CrtYd) (width 0.05))
  (fp_line (start 36.05 3.7) (end -5.55 3.7) (layer F.CrtYd) (width 0.05))
  (pad 1 thru_hole rect (at 0 0) (size 1.7 1.7) (drill 1) (layers *.Cu *.Mask))
  (pad 2 thru_hole circle (at 0 -2.54) (size 1.7 1.7) (drill 1) (layers *.Cu *.Mask))
  (pad 3 thru_hole circle (at 2.54 0) (size 1.7 1.7) (drill 1) (layers *.Cu *.Mask))
  (pad 4 thru_hole circle (at 2.54 -2.54) (size 1.7 1.7) (drill 1) (layers *.Cu *.Mask))
  (pad 5 thru_hole circle (at 5.08 0) (size 1.7 1.7) (drill 1) (layers *.Cu *.Mask))
  (pad 6 thru_hole circle (at 5.08 -2.54) (size 1.7 1.7) (drill 1) (layers *.Cu *.Mask))
  (pad 7 thru_hole circle (at 7.62 0) (size 1.7 1.7) (drill 1) (layers *.Cu *.Mask))
  (pad 8 thru_hole circle (at 7.62 -2.54) (size 1.7 1.7) (drill 1) (layers *.Cu *.Mask))
  (pad 9 thru_hole circle (at 10.16 0) (size 1.7 1.7) (drill 1) (layers *.Cu *.Mask))
  (pad 10 thru_hole circle (at 10.16 -2.54) (size 1.7 1.7) (drill 1) (layers *.Cu *.Mask))
  (pad 11 thru_hole circle (at 12.7 0) (size 1.7 1.7) (drill 1) (layers *.Cu *.Mask))
  (pad 12 thru_hole circle (at 12.7 -2.54) (size 1.7 1.7) (drill 1) (layers *.Cu *.Mask))
  (pad 13 thru_hole circle (at 15.24 0) (size 1.7 1.7) (drill 1) (layers *.Cu *.Mask))
  (pad 14 thru_hole circle (at 15.24 -2.54) (size 1.7 1.7) (drill 1) (layers *.Cu *.Mask))
  (pad 15 thru_hole circle (at 17.78 0) (size 1.7 1.7) (drill 1) (layers *.Cu *.Mask))
  (pad 16 thru_hole circle (at 17.78 -2.54) (size 1.7 1.7) (drill 1) (layers *.Cu *.Mask))
  (pad 17 thru_hole circle (at 20.32 0) (size 1.7 1.7) (drill 1) (layers *.Cu *.Mask))
  (pad 18 thru_hole circle (at 20.32 -2.54) (size 1.7 1.7) (drill 1) (layers *.Cu *.Mask))
  (pad 19 thru_hole circle (at 22.86 0) (size 1.7 1.7) (drill 1) (layers *.Cu *.Mask))
  (pad 20 thru_hole circle (at 22.86 -2.54) (size 1.7 1.7) (drill 1) (layers *.Cu *.Mask))
  (pad 21 thru_hole circle (at 25.4 0) (size 1.7 1.7) (drill 1) (layers *.Cu *.Mask))
  (pad 22 thru_hole circle (at 25.4 -2.54) (size 1.7 1.7) (drill 1) (layers *.Cu *.Mask))
  (pad 23 thru_hole circle (at 27.94 0) (size 1.7 1.7) (drill 1) (layers *.Cu *.Mask))
  (pad 24 thru_hole circle (at 27.94 -2.54) (size 1.7 1.7) (drill 1) (layers *.Cu *.Mask))
  (pad 25 thru_hole circle (at 30.48 0) (size 1.7 1.7) (drill 1) (layers *.Cu *.Mask))
  (pad 26 thru_hole circle (at 30.48 -2.54) (size 1.7 1.7) (drill 1) (layers *.Cu *.Mask))
  (model ${KIPRJMOD}/kicad_libs_k/models_k.3d/Connector_Multicomp_k.3dshapes/Multicomp_MC9A12-2634_2x13_P2.54mm_Vertical_k.wrl
    (at (xyz 0 0 0))
    (scale (xyz 1 1 1))
    (rotate (xyz 0 0 0))
  )
)
