(module Multicomp_MC9A12-6034_2x30_P2.54mm_Vertical (layer F.Cu) (tedit 5A16A5B3)
  (descr http://www.farnell.com/datasheets/1520732.pdf)
  (tags "connector multicomp MC9A MC9A12")
  (fp_text reference REF** (at -3 -7) (layer F.SilkS)
    (effects (font (size 1 1) (thickness 0.15)))
  )
  (fp_text value Multicomp_MC9A12-6034_2x30_P2.54mm_Vertical (at 36.83 5) (layer F.Fab)
    (effects (font (size 1 1) (thickness 0.15)))
  )
  (fp_text user %R (at 36.83 -1.27) (layer F.Fab)
    (effects (font (size 1 1) (thickness 0.15)))
  )
  (fp_line (start -5.07 3.2) (end -5.07 -5.74) (layer F.SilkS) (width 0.15))
  (fp_line (start -5.07 -5.74) (end 78.73 -5.74) (layer F.SilkS) (width 0.15))
  (fp_line (start 78.73 -5.74) (end 78.73 3.2) (layer F.SilkS) (width 0.15))
  (fp_line (start 78.73 3.2) (end -5.07 3.2) (layer F.SilkS) (width 0.15))
  (fp_line (start 23.205 3.2) (end 23.205 1.9) (layer F.SilkS) (width 0.15))
  (fp_line (start 23.205 1.9) (end -3.87 1.9) (layer F.SilkS) (width 0.15))
  (fp_line (start -3.87 1.9) (end -3.87 -4.44) (layer F.SilkS) (width 0.15))
  (fp_line (start -3.87 -4.44) (end 77.53 -4.44) (layer F.SilkS) (width 0.15))
  (fp_line (start 77.53 -4.44) (end 77.53 1.9) (layer F.SilkS) (width 0.15))
  (fp_line (start 77.53 1.9) (end 50.455 1.9) (layer F.SilkS) (width 0.15))
  (fp_line (start 50.455 1.9) (end 50.455 3.2) (layer F.SilkS) (width 0.15))
  (fp_line (start 27.305 3.2) (end 27.305 1.9) (layer F.SilkS) (width 0.15))
  (fp_line (start 27.305 1.9) (end 34.605 1.9) (layer F.SilkS) (width 0.15))
  (fp_line (start 34.605 1.9) (end 34.605 3.2) (layer F.SilkS) (width 0.15))
  (fp_line (start 46.355 3.2) (end 46.355 1.9) (layer F.SilkS) (width 0.15))
  (fp_line (start 46.355 1.9) (end 39.055 1.9) (layer F.SilkS) (width 0.15))
  (fp_line (start 39.055 1.9) (end 39.055 3.2) (layer F.SilkS) (width 0.15))
  (fp_line (start 36.58 -5.74) (end 36.58 -5.94) (layer F.SilkS) (width 0.15))
  (fp_line (start 36.58 -5.94) (end 37.08 -5.94) (layer F.SilkS) (width 0.15))
  (fp_line (start 37.08 -5.94) (end 37.08 -5.74) (layer F.SilkS) (width 0.15))
  (fp_line (start 36.58 -5.84) (end 37.08 -5.84) (layer F.SilkS) (width 0.15))
  (fp_line (start 75.81 -5.74) (end 75.81 -5.94) (layer F.SilkS) (width 0.15))
  (fp_line (start 75.81 -5.94) (end 76.31 -5.94) (layer F.SilkS) (width 0.15))
  (fp_line (start 76.31 -5.94) (end 76.31 -5.74) (layer F.SilkS) (width 0.15))
  (fp_line (start 75.81 -5.84) (end 76.31 -5.84) (layer F.SilkS) (width 0.15))
  (fp_line (start -2.65 -5.74) (end -2.65 -5.94) (layer F.SilkS) (width 0.15))
  (fp_line (start -2.65 -5.94) (end -2.15 -5.94) (layer F.SilkS) (width 0.15))
  (fp_line (start -2.15 -5.94) (end -2.15 -5.74) (layer F.SilkS) (width 0.15))
  (fp_line (start -2.65 -5.84) (end -2.15 -5.84) (layer F.SilkS) (width 0.15))
  (fp_line (start -2.2 0.6) (end -2.2 -0.6) (layer F.SilkS) (width 0.15))
  (fp_line (start -2.2 -0.6) (end -1.6 0) (layer F.SilkS) (width 0.15))
  (fp_line (start -1.6 0) (end -2.2 0.6) (layer F.SilkS) (width 0.15))
  (fp_line (start -5.55 3.7) (end -5.55 -6.25) (layer F.CrtYd) (width 0.05))
  (fp_line (start -5.55 -6.25) (end 79.25 -6.25) (layer F.CrtYd) (width 0.05))
  (fp_line (start 79.25 -6.25) (end 79.25 3.7) (layer F.CrtYd) (width 0.05))
  (fp_line (start 79.25 3.7) (end -5.55 3.7) (layer F.CrtYd) (width 0.05))
  (pad 1 thru_hole rect (at 0 0) (size 1.7 1.7) (drill 1) (layers *.Cu *.Mask))
  (pad 2 thru_hole circle (at 0 -2.54) (size 1.7 1.7) (drill 1) (layers *.Cu *.Mask))
  (pad 3 thru_hole circle (at 2.54 0) (size 1.7 1.7) (drill 1) (layers *.Cu *.Mask))
  (pad 4 thru_hole circle (at 2.54 -2.54) (size 1.7 1.7) (drill 1) (layers *.Cu *.Mask))
  (pad 5 thru_hole circle (at 5.08 0) (size 1.7 1.7) (drill 1) (layers *.Cu *.Mask))
  (pad 6 thru_hole circle (at 5.08 -2.54) (size 1.7 1.7) (drill 1) (layers *.Cu *.Mask))
  (pad 7 thru_hole circle (at 7.62 0) (size 1.7 1.7) (drill 1) (layers *.Cu *.Mask))
  (pad 8 thru_hole circle (at 7.62 -2.54) (size 1.7 1.7) (drill 1) (layers *.Cu *.Mask))
  (pad 9 thru_hole circle (at 10.16 0) (size 1.7 1.7) (drill 1) (layers *.Cu *.Mask))
  (pad 10 thru_hole circle (at 10.16 -2.54) (size 1.7 1.7) (drill 1) (layers *.Cu *.Mask))
  (pad 11 thru_hole circle (at 12.7 0) (size 1.7 1.7) (drill 1) (layers *.Cu *.Mask))
  (pad 12 thru_hole circle (at 12.7 -2.54) (size 1.7 1.7) (drill 1) (layers *.Cu *.Mask))
  (pad 13 thru_hole circle (at 15.24 0) (size 1.7 1.7) (drill 1) (layers *.Cu *.Mask))
  (pad 14 thru_hole circle (at 15.24 -2.54) (size 1.7 1.7) (drill 1) (layers *.Cu *.Mask))
  (pad 15 thru_hole circle (at 17.78 0) (size 1.7 1.7) (drill 1) (layers *.Cu *.Mask))
  (pad 16 thru_hole circle (at 17.78 -2.54) (size 1.7 1.7) (drill 1) (layers *.Cu *.Mask))
  (pad 17 thru_hole circle (at 20.32 0) (size 1.7 1.7) (drill 1) (layers *.Cu *.Mask))
  (pad 18 thru_hole circle (at 20.32 -2.54) (size 1.7 1.7) (drill 1) (layers *.Cu *.Mask))
  (pad 19 thru_hole circle (at 22.86 0) (size 1.7 1.7) (drill 1) (layers *.Cu *.Mask))
  (pad 20 thru_hole circle (at 22.86 -2.54) (size 1.7 1.7) (drill 1) (layers *.Cu *.Mask))
  (pad 21 thru_hole circle (at 25.4 0) (size 1.7 1.7) (drill 1) (layers *.Cu *.Mask))
  (pad 22 thru_hole circle (at 25.4 -2.54) (size 1.7 1.7) (drill 1) (layers *.Cu *.Mask))
  (pad 23 thru_hole circle (at 27.94 0) (size 1.7 1.7) (drill 1) (layers *.Cu *.Mask))
  (pad 24 thru_hole circle (at 27.94 -2.54) (size 1.7 1.7) (drill 1) (layers *.Cu *.Mask))
  (pad 25 thru_hole circle (at 30.48 0) (size 1.7 1.7) (drill 1) (layers *.Cu *.Mask))
  (pad 26 thru_hole circle (at 30.48 -2.54) (size 1.7 1.7) (drill 1) (layers *.Cu *.Mask))
  (pad 27 thru_hole circle (at 33.02 0) (size 1.7 1.7) (drill 1) (layers *.Cu *.Mask))
  (pad 28 thru_hole circle (at 33.02 -2.54) (size 1.7 1.7) (drill 1) (layers *.Cu *.Mask))
  (pad 29 thru_hole circle (at 35.56 0) (size 1.7 1.7) (drill 1) (layers *.Cu *.Mask))
  (pad 30 thru_hole circle (at 35.56 -2.54) (size 1.7 1.7) (drill 1) (layers *.Cu *.Mask))
  (pad 31 thru_hole circle (at 38.1 0) (size 1.7 1.7) (drill 1) (layers *.Cu *.Mask))
  (pad 32 thru_hole circle (at 38.1 -2.54) (size 1.7 1.7) (drill 1) (layers *.Cu *.Mask))
  (pad 33 thru_hole circle (at 40.64 0) (size 1.7 1.7) (drill 1) (layers *.Cu *.Mask))
  (pad 34 thru_hole circle (at 40.64 -2.54) (size 1.7 1.7) (drill 1) (layers *.Cu *.Mask))
  (pad 35 thru_hole circle (at 43.18 0) (size 1.7 1.7) (drill 1) (layers *.Cu *.Mask))
  (pad 36 thru_hole circle (at 43.18 -2.54) (size 1.7 1.7) (drill 1) (layers *.Cu *.Mask))
  (pad 37 thru_hole circle (at 45.72 0) (size 1.7 1.7) (drill 1) (layers *.Cu *.Mask))
  (pad 38 thru_hole circle (at 45.72 -2.54) (size 1.7 1.7) (drill 1) (layers *.Cu *.Mask))
  (pad 39 thru_hole circle (at 48.26 0) (size 1.7 1.7) (drill 1) (layers *.Cu *.Mask))
  (pad 40 thru_hole circle (at 48.26 -2.54) (size 1.7 1.7) (drill 1) (layers *.Cu *.Mask))
  (pad 41 thru_hole circle (at 50.8 0) (size 1.7 1.7) (drill 1) (layers *.Cu *.Mask))
  (pad 42 thru_hole circle (at 50.8 -2.54) (size 1.7 1.7) (drill 1) (layers *.Cu *.Mask))
  (pad 43 thru_hole circle (at 53.34 0) (size 1.7 1.7) (drill 1) (layers *.Cu *.Mask))
  (pad 44 thru_hole circle (at 53.34 -2.54) (size 1.7 1.7) (drill 1) (layers *.Cu *.Mask))
  (pad 45 thru_hole circle (at 55.88 0) (size 1.7 1.7) (drill 1) (layers *.Cu *.Mask))
  (pad 46 thru_hole circle (at 55.88 -2.54) (size 1.7 1.7) (drill 1) (layers *.Cu *.Mask))
  (pad 47 thru_hole circle (at 58.42 0) (size 1.7 1.7) (drill 1) (layers *.Cu *.Mask))
  (pad 48 thru_hole circle (at 58.42 -2.54) (size 1.7 1.7) (drill 1) (layers *.Cu *.Mask))
  (pad 49 thru_hole circle (at 60.96 0) (size 1.7 1.7) (drill 1) (layers *.Cu *.Mask))
  (pad 50 thru_hole circle (at 60.96 -2.54) (size 1.7 1.7) (drill 1) (layers *.Cu *.Mask))
  (pad 51 thru_hole circle (at 63.5 0) (size 1.7 1.7) (drill 1) (layers *.Cu *.Mask))
  (pad 52 thru_hole circle (at 63.5 -2.54) (size 1.7 1.7) (drill 1) (layers *.Cu *.Mask))
  (pad 53 thru_hole circle (at 66.04 0) (size 1.7 1.7) (drill 1) (layers *.Cu *.Mask))
  (pad 54 thru_hole circle (at 66.04 -2.54) (size 1.7 1.7) (drill 1) (layers *.Cu *.Mask))
  (pad 55 thru_hole circle (at 68.58 0) (size 1.7 1.7) (drill 1) (layers *.Cu *.Mask))
  (pad 56 thru_hole circle (at 68.58 -2.54) (size 1.7 1.7) (drill 1) (layers *.Cu *.Mask))
  (pad 57 thru_hole circle (at 71.12 0) (size 1.7 1.7) (drill 1) (layers *.Cu *.Mask))
  (pad 58 thru_hole circle (at 71.12 -2.54) (size 1.7 1.7) (drill 1) (layers *.Cu *.Mask))
  (pad 59 thru_hole circle (at 73.66 0) (size 1.7 1.7) (drill 1) (layers *.Cu *.Mask))
  (pad 60 thru_hole circle (at 73.66 -2.54) (size 1.7 1.7) (drill 1) (layers *.Cu *.Mask))
  (model ${KIPRJMOD}/kicad_libs_k/models_k.3d/Connector_Multicomp_k.3dshapes/Multicomp_MC9A12-6034_2x30_P2.54mm_Vertical_k.wrl
    (at (xyz 0 0 0))
    (scale (xyz 1 1 1))
    (rotate (xyz 0 0 0))
  )
)
