(module Multicomp_MC9A22-5034_2x25_P2.54mm_Horizontal (layer F.Cu) (tedit 5A16A5B3)
  (descr http://www.farnell.com/cad/360651.pdf)
  (tags "connector multicomp MC9A MC9A22")
  (fp_text reference REF** (at -3 -15) (layer F.SilkS)
    (effects (font (size 1 1) (thickness 0.15)))
  )
  (fp_text value Multicomp_MC9A22-5034_2x25_P2.54mm_Horizontal (at 30.48 -5.5) (layer F.Fab)
    (effects (font (size 1 1) (thickness 0.15)))
  )
  (fp_text user %R (at 30.48 -1.27) (layer F.Fab)
    (effects (font (size 1 1) (thickness 0.15)))
  )
  (fp_line (start -5.07 -4.34) (end -5.07 -13.24) (layer F.SilkS) (width 0.15))
  (fp_line (start -5.07 -13.24) (end 66.03 -13.24) (layer F.SilkS) (width 0.15))
  (fp_line (start 66.03 -13.24) (end 66.03 -4.34) (layer F.SilkS) (width 0.15))
  (fp_line (start 66.03 -4.34) (end -5.07 -4.34) (layer F.SilkS) (width 0.15))
  (fp_line (start 28.255 -13.24) (end 28.255 -6.64) (layer F.SilkS) (width 0.15))
  (fp_line (start 28.255 -6.64) (end 32.705 -6.64) (layer F.SilkS) (width 0.15))
  (fp_line (start 32.705 -6.64) (end 32.705 -13.24) (layer F.SilkS) (width 0.15))
  (fp_line (start 30.08 -6.64) (end 30.08 -12.84) (layer F.SilkS) (width 0.15))
  (fp_line (start 30.08 -12.84) (end 30.28 -13.04) (layer F.SilkS) (width 0.15))
  (fp_line (start 30.28 -13.04) (end 30.68 -13.04) (layer F.SilkS) (width 0.15))
  (fp_line (start 30.68 -13.04) (end 30.88 -12.84) (layer F.SilkS) (width 0.15))
  (fp_line (start 30.88 -12.84) (end 30.88 -6.64) (layer F.SilkS) (width 0.15))
  (fp_line (start -1 -12.5) (end 1 -12.5) (layer F.SilkS) (width 0.15))
  (fp_line (start 1 -12.5) (end 0 -11) (layer F.SilkS) (width 0.15))
  (fp_line (start 0 -11) (end -1 -12.5) (layer F.SilkS) (width 0.15))
  (fp_line (start -5.55 1.35) (end -5.55 -13.75) (layer F.CrtYd) (width 0.05))
  (fp_line (start -5.55 -13.75) (end 66.55 -13.75) (layer F.CrtYd) (width 0.05))
  (fp_line (start 66.55 -13.75) (end 66.55 1.35) (layer F.CrtYd) (width 0.05))
  (fp_line (start 66.55 1.35) (end -5.55 1.35) (layer F.CrtYd) (width 0.05))
  (fp_line (start -0.4 -1.1) (end -0.4 -1.44) (layer F.SilkS) (width 0.15))
  (fp_line (start 0.4 -1.1) (end 0.4 -1.44) (layer F.SilkS) (width 0.15))
  (fp_line (start -0.4 -3.64) (end -0.4 -4.34) (layer F.SilkS) (width 0.15))
  (fp_line (start 0.4 -3.64) (end 0.4 -4.34) (layer F.SilkS) (width 0.15))
  (fp_line (start 2.14 -1.1) (end 2.14 -1.44) (layer F.SilkS) (width 0.15))
  (fp_line (start 2.94 -1.1) (end 2.94 -1.44) (layer F.SilkS) (width 0.15))
  (fp_line (start 2.14 -3.64) (end 2.14 -4.34) (layer F.SilkS) (width 0.15))
  (fp_line (start 2.94 -3.64) (end 2.94 -4.34) (layer F.SilkS) (width 0.15))
  (fp_line (start 4.68 -1.1) (end 4.68 -1.44) (layer F.SilkS) (width 0.15))
  (fp_line (start 5.48 -1.1) (end 5.48 -1.44) (layer F.SilkS) (width 0.15))
  (fp_line (start 4.68 -3.64) (end 4.68 -4.34) (layer F.SilkS) (width 0.15))
  (fp_line (start 5.48 -3.64) (end 5.48 -4.34) (layer F.SilkS) (width 0.15))
  (fp_line (start 7.22 -1.1) (end 7.22 -1.44) (layer F.SilkS) (width 0.15))
  (fp_line (start 8.02 -1.1) (end 8.02 -1.44) (layer F.SilkS) (width 0.15))
  (fp_line (start 7.22 -3.64) (end 7.22 -4.34) (layer F.SilkS) (width 0.15))
  (fp_line (start 8.02 -3.64) (end 8.02 -4.34) (layer F.SilkS) (width 0.15))
  (fp_line (start 9.76 -1.1) (end 9.76 -1.44) (layer F.SilkS) (width 0.15))
  (fp_line (start 10.56 -1.1) (end 10.56 -1.44) (layer F.SilkS) (width 0.15))
  (fp_line (start 9.76 -3.64) (end 9.76 -4.34) (layer F.SilkS) (width 0.15))
  (fp_line (start 10.56 -3.64) (end 10.56 -4.34) (layer F.SilkS) (width 0.15))
  (fp_line (start 12.3 -1.1) (end 12.3 -1.44) (layer F.SilkS) (width 0.15))
  (fp_line (start 13.1 -1.1) (end 13.1 -1.44) (layer F.SilkS) (width 0.15))
  (fp_line (start 12.3 -3.64) (end 12.3 -4.34) (layer F.SilkS) (width 0.15))
  (fp_line (start 13.1 -3.64) (end 13.1 -4.34) (layer F.SilkS) (width 0.15))
  (fp_line (start 14.84 -1.1) (end 14.84 -1.44) (layer F.SilkS) (width 0.15))
  (fp_line (start 15.64 -1.1) (end 15.64 -1.44) (layer F.SilkS) (width 0.15))
  (fp_line (start 14.84 -3.64) (end 14.84 -4.34) (layer F.SilkS) (width 0.15))
  (fp_line (start 15.64 -3.64) (end 15.64 -4.34) (layer F.SilkS) (width 0.15))
  (fp_line (start 17.38 -1.1) (end 17.38 -1.44) (layer F.SilkS) (width 0.15))
  (fp_line (start 18.18 -1.1) (end 18.18 -1.44) (layer F.SilkS) (width 0.15))
  (fp_line (start 17.38 -3.64) (end 17.38 -4.34) (layer F.SilkS) (width 0.15))
  (fp_line (start 18.18 -3.64) (end 18.18 -4.34) (layer F.SilkS) (width 0.15))
  (fp_line (start 19.92 -1.1) (end 19.92 -1.44) (layer F.SilkS) (width 0.15))
  (fp_line (start 20.72 -1.1) (end 20.72 -1.44) (layer F.SilkS) (width 0.15))
  (fp_line (start 19.92 -3.64) (end 19.92 -4.34) (layer F.SilkS) (width 0.15))
  (fp_line (start 20.72 -3.64) (end 20.72 -4.34) (layer F.SilkS) (width 0.15))
  (fp_line (start 22.46 -1.1) (end 22.46 -1.44) (layer F.SilkS) (width 0.15))
  (fp_line (start 23.26 -1.1) (end 23.26 -1.44) (layer F.SilkS) (width 0.15))
  (fp_line (start 22.46 -3.64) (end 22.46 -4.34) (layer F.SilkS) (width 0.15))
  (fp_line (start 23.26 -3.64) (end 23.26 -4.34) (layer F.SilkS) (width 0.15))
  (fp_line (start 25 -1.1) (end 25 -1.44) (layer F.SilkS) (width 0.15))
  (fp_line (start 25.8 -1.1) (end 25.8 -1.44) (layer F.SilkS) (width 0.15))
  (fp_line (start 25 -3.64) (end 25 -4.34) (layer F.SilkS) (width 0.15))
  (fp_line (start 25.8 -3.64) (end 25.8 -4.34) (layer F.SilkS) (width 0.15))
  (fp_line (start 27.54 -1.1) (end 27.54 -1.44) (layer F.SilkS) (width 0.15))
  (fp_line (start 28.34 -1.1) (end 28.34 -1.44) (layer F.SilkS) (width 0.15))
  (fp_line (start 27.54 -3.64) (end 27.54 -4.34) (layer F.SilkS) (width 0.15))
  (fp_line (start 28.34 -3.64) (end 28.34 -4.34) (layer F.SilkS) (width 0.15))
  (fp_line (start 30.08 -1.1) (end 30.08 -1.44) (layer F.SilkS) (width 0.15))
  (fp_line (start 30.88 -1.1) (end 30.88 -1.44) (layer F.SilkS) (width 0.15))
  (fp_line (start 30.08 -3.64) (end 30.08 -4.34) (layer F.SilkS) (width 0.15))
  (fp_line (start 30.88 -3.64) (end 30.88 -4.34) (layer F.SilkS) (width 0.15))
  (fp_line (start 32.62 -1.1) (end 32.62 -1.44) (layer F.SilkS) (width 0.15))
  (fp_line (start 33.42 -1.1) (end 33.42 -1.44) (layer F.SilkS) (width 0.15))
  (fp_line (start 32.62 -3.64) (end 32.62 -4.34) (layer F.SilkS) (width 0.15))
  (fp_line (start 33.42 -3.64) (end 33.42 -4.34) (layer F.SilkS) (width 0.15))
  (fp_line (start 35.16 -1.1) (end 35.16 -1.44) (layer F.SilkS) (width 0.15))
  (fp_line (start 35.96 -1.1) (end 35.96 -1.44) (layer F.SilkS) (width 0.15))
  (fp_line (start 35.16 -3.64) (end 35.16 -4.34) (layer F.SilkS) (width 0.15))
  (fp_line (start 35.96 -3.64) (end 35.96 -4.34) (layer F.SilkS) (width 0.15))
  (fp_line (start 37.7 -1.1) (end 37.7 -1.44) (layer F.SilkS) (width 0.15))
  (fp_line (start 38.5 -1.1) (end 38.5 -1.44) (layer F.SilkS) (width 0.15))
  (fp_line (start 37.7 -3.64) (end 37.7 -4.34) (layer F.SilkS) (width 0.15))
  (fp_line (start 38.5 -3.64) (end 38.5 -4.34) (layer F.SilkS) (width 0.15))
  (fp_line (start 40.24 -1.1) (end 40.24 -1.44) (layer F.SilkS) (width 0.15))
  (fp_line (start 41.04 -1.1) (end 41.04 -1.44) (layer F.SilkS) (width 0.15))
  (fp_line (start 40.24 -3.64) (end 40.24 -4.34) (layer F.SilkS) (width 0.15))
  (fp_line (start 41.04 -3.64) (end 41.04 -4.34) (layer F.SilkS) (width 0.15))
  (fp_line (start 42.78 -1.1) (end 42.78 -1.44) (layer F.SilkS) (width 0.15))
  (fp_line (start 43.58 -1.1) (end 43.58 -1.44) (layer F.SilkS) (width 0.15))
  (fp_line (start 42.78 -3.64) (end 42.78 -4.34) (layer F.SilkS) (width 0.15))
  (fp_line (start 43.58 -3.64) (end 43.58 -4.34) (layer F.SilkS) (width 0.15))
  (fp_line (start 45.32 -1.1) (end 45.32 -1.44) (layer F.SilkS) (width 0.15))
  (fp_line (start 46.12 -1.1) (end 46.12 -1.44) (layer F.SilkS) (width 0.15))
  (fp_line (start 45.32 -3.64) (end 45.32 -4.34) (layer F.SilkS) (width 0.15))
  (fp_line (start 46.12 -3.64) (end 46.12 -4.34) (layer F.SilkS) (width 0.15))
  (fp_line (start 47.86 -1.1) (end 47.86 -1.44) (layer F.SilkS) (width 0.15))
  (fp_line (start 48.66 -1.1) (end 48.66 -1.44) (layer F.SilkS) (width 0.15))
  (fp_line (start 47.86 -3.64) (end 47.86 -4.34) (layer F.SilkS) (width 0.15))
  (fp_line (start 48.66 -3.64) (end 48.66 -4.34) (layer F.SilkS) (width 0.15))
  (fp_line (start 50.4 -1.1) (end 50.4 -1.44) (layer F.SilkS) (width 0.15))
  (fp_line (start 51.2 -1.1) (end 51.2 -1.44) (layer F.SilkS) (width 0.15))
  (fp_line (start 50.4 -3.64) (end 50.4 -4.34) (layer F.SilkS) (width 0.15))
  (fp_line (start 51.2 -3.64) (end 51.2 -4.34) (layer F.SilkS) (width 0.15))
  (fp_line (start 52.94 -1.1) (end 52.94 -1.44) (layer F.SilkS) (width 0.15))
  (fp_line (start 53.74 -1.1) (end 53.74 -1.44) (layer F.SilkS) (width 0.15))
  (fp_line (start 52.94 -3.64) (end 52.94 -4.34) (layer F.SilkS) (width 0.15))
  (fp_line (start 53.74 -3.64) (end 53.74 -4.34) (layer F.SilkS) (width 0.15))
  (fp_line (start 55.48 -1.1) (end 55.48 -1.44) (layer F.SilkS) (width 0.15))
  (fp_line (start 56.28 -1.1) (end 56.28 -1.44) (layer F.SilkS) (width 0.15))
  (fp_line (start 55.48 -3.64) (end 55.48 -4.34) (layer F.SilkS) (width 0.15))
  (fp_line (start 56.28 -3.64) (end 56.28 -4.34) (layer F.SilkS) (width 0.15))
  (fp_line (start 58.02 -1.1) (end 58.02 -1.44) (layer F.SilkS) (width 0.15))
  (fp_line (start 58.82 -1.1) (end 58.82 -1.44) (layer F.SilkS) (width 0.15))
  (fp_line (start 58.02 -3.64) (end 58.02 -4.34) (layer F.SilkS) (width 0.15))
  (fp_line (start 58.82 -3.64) (end 58.82 -4.34) (layer F.SilkS) (width 0.15))
  (fp_line (start 60.56 -1.1) (end 60.56 -1.44) (layer F.SilkS) (width 0.15))
  (fp_line (start 61.36 -1.1) (end 61.36 -1.44) (layer F.SilkS) (width 0.15))
  (fp_line (start 60.56 -3.64) (end 60.56 -4.34) (layer F.SilkS) (width 0.15))
  (fp_line (start 61.36 -3.64) (end 61.36 -4.34) (layer F.SilkS) (width 0.15))
  (pad 1 thru_hole rect (at 0 0) (size 1.7 1.7) (drill 1) (layers *.Cu *.Mask))
  (pad 2 thru_hole circle (at 0 -2.54) (size 1.7 1.7) (drill 1) (layers *.Cu *.Mask))
  (pad 3 thru_hole circle (at 2.54 0) (size 1.7 1.7) (drill 1) (layers *.Cu *.Mask))
  (pad 4 thru_hole circle (at 2.54 -2.54) (size 1.7 1.7) (drill 1) (layers *.Cu *.Mask))
  (pad 5 thru_hole circle (at 5.08 0) (size 1.7 1.7) (drill 1) (layers *.Cu *.Mask))
  (pad 6 thru_hole circle (at 5.08 -2.54) (size 1.7 1.7) (drill 1) (layers *.Cu *.Mask))
  (pad 7 thru_hole circle (at 7.62 0) (size 1.7 1.7) (drill 1) (layers *.Cu *.Mask))
  (pad 8 thru_hole circle (at 7.62 -2.54) (size 1.7 1.7) (drill 1) (layers *.Cu *.Mask))
  (pad 9 thru_hole circle (at 10.16 0) (size 1.7 1.7) (drill 1) (layers *.Cu *.Mask))
  (pad 10 thru_hole circle (at 10.16 -2.54) (size 1.7 1.7) (drill 1) (layers *.Cu *.Mask))
  (pad 11 thru_hole circle (at 12.7 0) (size 1.7 1.7) (drill 1) (layers *.Cu *.Mask))
  (pad 12 thru_hole circle (at 12.7 -2.54) (size 1.7 1.7) (drill 1) (layers *.Cu *.Mask))
  (pad 13 thru_hole circle (at 15.24 0) (size 1.7 1.7) (drill 1) (layers *.Cu *.Mask))
  (pad 14 thru_hole circle (at 15.24 -2.54) (size 1.7 1.7) (drill 1) (layers *.Cu *.Mask))
  (pad 15 thru_hole circle (at 17.78 0) (size 1.7 1.7) (drill 1) (layers *.Cu *.Mask))
  (pad 16 thru_hole circle (at 17.78 -2.54) (size 1.7 1.7) (drill 1) (layers *.Cu *.Mask))
  (pad 17 thru_hole circle (at 20.32 0) (size 1.7 1.7) (drill 1) (layers *.Cu *.Mask))
  (pad 18 thru_hole circle (at 20.32 -2.54) (size 1.7 1.7) (drill 1) (layers *.Cu *.Mask))
  (pad 19 thru_hole circle (at 22.86 0) (size 1.7 1.7) (drill 1) (layers *.Cu *.Mask))
  (pad 20 thru_hole circle (at 22.86 -2.54) (size 1.7 1.7) (drill 1) (layers *.Cu *.Mask))
  (pad 21 thru_hole circle (at 25.4 0) (size 1.7 1.7) (drill 1) (layers *.Cu *.Mask))
  (pad 22 thru_hole circle (at 25.4 -2.54) (size 1.7 1.7) (drill 1) (layers *.Cu *.Mask))
  (pad 23 thru_hole circle (at 27.94 0) (size 1.7 1.7) (drill 1) (layers *.Cu *.Mask))
  (pad 24 thru_hole circle (at 27.94 -2.54) (size 1.7 1.7) (drill 1) (layers *.Cu *.Mask))
  (pad 25 thru_hole circle (at 30.48 0) (size 1.7 1.7) (drill 1) (layers *.Cu *.Mask))
  (pad 26 thru_hole circle (at 30.48 -2.54) (size 1.7 1.7) (drill 1) (layers *.Cu *.Mask))
  (pad 27 thru_hole circle (at 33.02 0) (size 1.7 1.7) (drill 1) (layers *.Cu *.Mask))
  (pad 28 thru_hole circle (at 33.02 -2.54) (size 1.7 1.7) (drill 1) (layers *.Cu *.Mask))
  (pad 29 thru_hole circle (at 35.56 0) (size 1.7 1.7) (drill 1) (layers *.Cu *.Mask))
  (pad 30 thru_hole circle (at 35.56 -2.54) (size 1.7 1.7) (drill 1) (layers *.Cu *.Mask))
  (pad 31 thru_hole circle (at 38.1 0) (size 1.7 1.7) (drill 1) (layers *.Cu *.Mask))
  (pad 32 thru_hole circle (at 38.1 -2.54) (size 1.7 1.7) (drill 1) (layers *.Cu *.Mask))
  (pad 33 thru_hole circle (at 40.64 0) (size 1.7 1.7) (drill 1) (layers *.Cu *.Mask))
  (pad 34 thru_hole circle (at 40.64 -2.54) (size 1.7 1.7) (drill 1) (layers *.Cu *.Mask))
  (pad 35 thru_hole circle (at 43.18 0) (size 1.7 1.7) (drill 1) (layers *.Cu *.Mask))
  (pad 36 thru_hole circle (at 43.18 -2.54) (size 1.7 1.7) (drill 1) (layers *.Cu *.Mask))
  (pad 37 thru_hole circle (at 45.72 0) (size 1.7 1.7) (drill 1) (layers *.Cu *.Mask))
  (pad 38 thru_hole circle (at 45.72 -2.54) (size 1.7 1.7) (drill 1) (layers *.Cu *.Mask))
  (pad 39 thru_hole circle (at 48.26 0) (size 1.7 1.7) (drill 1) (layers *.Cu *.Mask))
  (pad 40 thru_hole circle (at 48.26 -2.54) (size 1.7 1.7) (drill 1) (layers *.Cu *.Mask))
  (pad 41 thru_hole circle (at 50.8 0) (size 1.7 1.7) (drill 1) (layers *.Cu *.Mask))
  (pad 42 thru_hole circle (at 50.8 -2.54) (size 1.7 1.7) (drill 1) (layers *.Cu *.Mask))
  (pad 43 thru_hole circle (at 53.34 0) (size 1.7 1.7) (drill 1) (layers *.Cu *.Mask))
  (pad 44 thru_hole circle (at 53.34 -2.54) (size 1.7 1.7) (drill 1) (layers *.Cu *.Mask))
  (pad 45 thru_hole circle (at 55.88 0) (size 1.7 1.7) (drill 1) (layers *.Cu *.Mask))
  (pad 46 thru_hole circle (at 55.88 -2.54) (size 1.7 1.7) (drill 1) (layers *.Cu *.Mask))
  (pad 47 thru_hole circle (at 58.42 0) (size 1.7 1.7) (drill 1) (layers *.Cu *.Mask))
  (pad 48 thru_hole circle (at 58.42 -2.54) (size 1.7 1.7) (drill 1) (layers *.Cu *.Mask))
  (pad 49 thru_hole circle (at 60.96 0) (size 1.7 1.7) (drill 1) (layers *.Cu *.Mask))
  (pad 50 thru_hole circle (at 60.96 -2.54) (size 1.7 1.7) (drill 1) (layers *.Cu *.Mask))
  (model ${KIPRJMOD}/kicad_libs_k/models_k.3d/Connector_Multicomp_k.3dshapes/Multicomp_MC9A22-5034_2x25_P2.54mm_Horizontal_k.wrl
    (at (xyz 0 0 0))
    (scale (xyz 1 1 1))
    (rotate (xyz 0 0 0))
  )
)
