(module PhoenixContact_GMSTBV_2,5_6-GF-7,62_1x06_P7.62mm_Vertical_ThreadedFlange (layer F.Cu) (tedit 5A00FA1F)
  (descr "Generic Phoenix Contact connector footprint for: GMSTBV_2,5/6-GF-7,62; number of pins: 06; pin pitch: 7.62mm; Vertical; threaded flange || order number: 1829196 12A 630V")
  (tags "phoenix_contact connector GMSTBV_01x06_GF_7.62mm")
  (fp_text reference REF** (at 19.05 -5.8) (layer F.SilkS)
    (effects (font (size 1 1) (thickness 0.15)))
  )
  (fp_text value PhoenixContact_GMSTBV_2,5_6-GF-7,62_1x06_P7.62mm_Vertical_ThreadedFlange (at 19.05 4.8) (layer F.Fab)
    (effects (font (size 1 1) (thickness 0.15)))
  )
  (fp_arc (start 0 0.55) (end -2 2.2) (angle -100.5) (layer F.SilkS) (width 0.12))
  (fp_arc (start 7.62 0.55) (end 5.62 2.2) (angle -100.5) (layer F.SilkS) (width 0.12))
  (fp_arc (start 15.24 0.55) (end 13.24 2.2) (angle -100.5) (layer F.SilkS) (width 0.12))
  (fp_arc (start 22.86 0.55) (end 20.86 2.2) (angle -100.5) (layer F.SilkS) (width 0.12))
  (fp_arc (start 30.48 0.55) (end 28.48 2.2) (angle -100.5) (layer F.SilkS) (width 0.12))
  (fp_arc (start 38.1 0.55) (end 36.1 2.2) (angle -100.5) (layer F.SilkS) (width 0.12))
  (fp_circle (center -6.1 0) (end -4.2 0) (layer F.SilkS) (width 0.12))
  (fp_circle (center 44.2 0) (end 46.1 0) (layer F.SilkS) (width 0.12))
  (fp_circle (center -6.1 0) (end -5.1 0) (layer F.SilkS) (width 0.12))
  (fp_circle (center 44.2 0) (end 45.2 0) (layer F.SilkS) (width 0.12))
  (fp_line (start -9.18 -4.88) (end -9.18 3.88) (layer F.SilkS) (width 0.12))
  (fp_line (start -9.18 3.88) (end 47.28 3.88) (layer F.SilkS) (width 0.12))
  (fp_line (start 47.28 3.88) (end 47.28 -4.88) (layer F.SilkS) (width 0.12))
  (fp_line (start 47.28 -4.88) (end -9.18 -4.88) (layer F.SilkS) (width 0.12))
  (fp_line (start -9.1 -4.8) (end -9.1 3.8) (layer F.Fab) (width 0.1))
  (fp_line (start -9.1 3.8) (end 47.2 3.8) (layer F.Fab) (width 0.1))
  (fp_line (start 47.2 3.8) (end 47.2 -4.8) (layer F.Fab) (width 0.1))
  (fp_line (start 47.2 -4.8) (end -9.1 -4.8) (layer F.Fab) (width 0.1))
  (fp_line (start -9.18 -4.1) (end -7.18 -4.1) (layer F.SilkS) (width 0.12))
  (fp_line (start 47.28 -4.1) (end 45.28 -4.1) (layer F.SilkS) (width 0.12))
  (fp_line (start 1 -4.1) (end 6.62 -4.1) (layer F.SilkS) (width 0.12))
  (fp_line (start 8.62 -4.1) (end 14.24 -4.1) (layer F.SilkS) (width 0.12))
  (fp_line (start 16.24 -4.1) (end 21.86 -4.1) (layer F.SilkS) (width 0.12))
  (fp_line (start 23.86 -4.1) (end 29.48 -4.1) (layer F.SilkS) (width 0.12))
  (fp_line (start 31.48 -4.1) (end 37.1 -4.1) (layer F.SilkS) (width 0.12))
  (fp_line (start -7.1 -3.1) (end -7.1 -4.88) (layer F.SilkS) (width 0.12))
  (fp_line (start -7.1 -4.88) (end -5.1 -4.88) (layer F.SilkS) (width 0.12))
  (fp_line (start -5.1 -4.88) (end -5.1 -3.1) (layer F.SilkS) (width 0.12))
  (fp_line (start -5.1 -3.1) (end -7.1 -3.1) (layer F.SilkS) (width 0.12))
  (fp_line (start 43.2 -3.1) (end 43.2 -4.88) (layer F.SilkS) (width 0.12))
  (fp_line (start 43.2 -4.88) (end 45.2 -4.88) (layer F.SilkS) (width 0.12))
  (fp_line (start 45.2 -4.88) (end 45.2 -3.1) (layer F.SilkS) (width 0.12))
  (fp_line (start 45.2 -3.1) (end 43.2 -3.1) (layer F.SilkS) (width 0.12))
  (fp_line (start -5.1 -4.1) (end -1 -4.1) (layer F.SilkS) (width 0.12))
  (fp_line (start 39.1 -4.1) (end 43.2 -4.1) (layer F.SilkS) (width 0.12))
  (fp_line (start -1 -3.1) (end -1 -4.88) (layer F.SilkS) (width 0.12))
  (fp_line (start -1 -4.88) (end 1 -4.88) (layer F.SilkS) (width 0.12))
  (fp_line (start 1 -4.88) (end 1 -3.1) (layer F.SilkS) (width 0.12))
  (fp_line (start 1 -3.1) (end -1 -3.1) (layer F.SilkS) (width 0.12))
  (fp_line (start 6.62 -3.1) (end 6.62 -4.88) (layer F.SilkS) (width 0.12))
  (fp_line (start 6.62 -4.88) (end 8.62 -4.88) (layer F.SilkS) (width 0.12))
  (fp_line (start 8.62 -4.88) (end 8.62 -3.1) (layer F.SilkS) (width 0.12))
  (fp_line (start 8.62 -3.1) (end 6.62 -3.1) (layer F.SilkS) (width 0.12))
  (fp_line (start 14.24 -3.1) (end 14.24 -4.88) (layer F.SilkS) (width 0.12))
  (fp_line (start 14.24 -4.88) (end 16.24 -4.88) (layer F.SilkS) (width 0.12))
  (fp_line (start 16.24 -4.88) (end 16.24 -3.1) (layer F.SilkS) (width 0.12))
  (fp_line (start 16.24 -3.1) (end 14.24 -3.1) (layer F.SilkS) (width 0.12))
  (fp_line (start 21.86 -3.1) (end 21.86 -4.88) (layer F.SilkS) (width 0.12))
  (fp_line (start 21.86 -4.88) (end 23.86 -4.88) (layer F.SilkS) (width 0.12))
  (fp_line (start 23.86 -4.88) (end 23.86 -3.1) (layer F.SilkS) (width 0.12))
  (fp_line (start 23.86 -3.1) (end 21.86 -3.1) (layer F.SilkS) (width 0.12))
  (fp_line (start 29.48 -3.1) (end 29.48 -4.88) (layer F.SilkS) (width 0.12))
  (fp_line (start 29.48 -4.88) (end 31.48 -4.88) (layer F.SilkS) (width 0.12))
  (fp_line (start 31.48 -4.88) (end 31.48 -3.1) (layer F.SilkS) (width 0.12))
  (fp_line (start 31.48 -3.1) (end 29.48 -3.1) (layer F.SilkS) (width 0.12))
  (fp_line (start 37.1 -3.1) (end 37.1 -4.88) (layer F.SilkS) (width 0.12))
  (fp_line (start 37.1 -4.88) (end 39.1 -4.88) (layer F.SilkS) (width 0.12))
  (fp_line (start 39.1 -4.88) (end 39.1 -3.1) (layer F.SilkS) (width 0.12))
  (fp_line (start 39.1 -3.1) (end 37.1 -3.1) (layer F.SilkS) (width 0.12))
  (fp_line (start 2 2.2) (end 5.62 2.2) (layer F.SilkS) (width 0.12))
  (fp_line (start 9.62 2.2) (end 13.24 2.2) (layer F.SilkS) (width 0.12))
  (fp_line (start 17.24 2.2) (end 20.86 2.2) (layer F.SilkS) (width 0.12))
  (fp_line (start 24.86 2.2) (end 28.48 2.2) (layer F.SilkS) (width 0.12))
  (fp_line (start 32.48 2.2) (end 36.1 2.2) (layer F.SilkS) (width 0.12))
  (fp_line (start -2 2.2) (end -3.01 2.2) (layer F.SilkS) (width 0.12))
  (fp_line (start -3.01 2.2) (end -3.01 -3.1) (layer F.SilkS) (width 0.12))
  (fp_line (start -3.01 -3.1) (end 41.11 -3.1) (layer F.SilkS) (width 0.12))
  (fp_line (start 41.11 -3.1) (end 41.11 2.2) (layer F.SilkS) (width 0.12))
  (fp_line (start 41.11 2.2) (end 40.1 2.2) (layer F.SilkS) (width 0.12))
  (fp_line (start -9.6 -5.3) (end -9.6 4.3) (layer F.CrtYd) (width 0.05))
  (fp_line (start -9.6 4.3) (end 47.7 4.3) (layer F.CrtYd) (width 0.05))
  (fp_line (start 47.7 4.3) (end 47.7 -5.3) (layer F.CrtYd) (width 0.05))
  (fp_line (start 47.7 -5.3) (end -9.6 -5.3) (layer F.CrtYd) (width 0.05))
  (fp_line (start 0.3 -5.68) (end 0 -5.08) (layer F.SilkS) (width 0.12))
  (fp_line (start 0 -5.08) (end -0.3 -5.68) (layer F.SilkS) (width 0.12))
  (fp_line (start -0.3 -5.68) (end 0.3 -5.68) (layer F.SilkS) (width 0.12))
  (fp_line (start 0.5 -3.55) (end 0 -2.55) (layer F.Fab) (width 0.1))
  (fp_line (start 0 -2.55) (end -0.5 -3.55) (layer F.Fab) (width 0.1))
  (fp_line (start -0.5 -3.55) (end 0.5 -3.55) (layer F.Fab) (width 0.1))
  (pad 1 thru_hole rect (at 0 0) (size 2.1 3.6) (drill 1.4) (layers *.Cu *.Mask))
  (pad 2 thru_hole oval (at 7.62 0) (size 2.1 3.6) (drill 1.4) (layers *.Cu *.Mask))
  (pad 3 thru_hole oval (at 15.24 0) (size 2.1 3.6) (drill 1.4) (layers *.Cu *.Mask))
  (pad 4 thru_hole oval (at 22.86 0) (size 2.1 3.6) (drill 1.4) (layers *.Cu *.Mask))
  (pad 5 thru_hole oval (at 30.48 0) (size 2.1 3.6) (drill 1.4) (layers *.Cu *.Mask))
  (pad 6 thru_hole oval (at 38.1 0) (size 2.1 3.6) (drill 1.4) (layers *.Cu *.Mask))
  (fp_text user %R (at 19.05 -3) (layer F.Fab)
    (effects (font (size 1 1) (thickness 0.15)))
  )
  (model ${KIPRJMOD}/kicad_libs_k/models_k.3d/Connector_Phoenix_MSTB_k.3dshapes/PhoenixContact_GMSTBV_2,5_6-GF-7,62_1x06_P7.62mm_Vertical_ThreadedFlange_k.wrl
    (at (xyz 0 0 0))
    (scale (xyz 1 1 1))
    (rotate (xyz 0 0 0))
  )
)