(module PhoenixContact_MSTBV_2,5_4-GF-5,08_1x04_P5.08mm_Vertical_ThreadedFlange_MountHole (layer F.Cu) (tedit 5A00FA1F)
  (descr "Generic Phoenix Contact connector footprint for: MSTBV_2,5/4-GF-5,08; number of pins: 04; pin pitch: 5.08mm; Vertical; threaded flange; footprint includes mount hole for mounting screw: ISO 1481-ST 2.2x6.5 C or ISO 7049-ST 2.2x6.5 C (http://www.fasteners.eu/standards/ISO/7049/) || order number: 1777099 12A || order number: 1924541 16A (HC)")
  (tags "phoenix_contact connector MSTBV_01x04_GF_5.08mm_MH")
  (fp_text reference REF** (at 7.62 -5.8) (layer F.SilkS)
    (effects (font (size 1 1) (thickness 0.15)))
  )
  (fp_text value PhoenixContact_MSTBV_2,5_4-GF-5,08_1x04_P5.08mm_Vertical_ThreadedFlange_MountHole (at 7.62 4.8) (layer F.Fab)
    (effects (font (size 1 1) (thickness 0.15)))
  )
  (fp_arc (start 0 0.55) (end -2 2.2) (angle -100.5) (layer F.SilkS) (width 0.12))
  (fp_arc (start 5.08 0.55) (end 3.08 2.2) (angle -100.5) (layer F.SilkS) (width 0.12))
  (fp_arc (start 10.16 0.55) (end 8.16 2.2) (angle -100.5) (layer F.SilkS) (width 0.12))
  (fp_arc (start 15.24 0.55) (end 13.24 2.2) (angle -100.5) (layer F.SilkS) (width 0.12))
  (fp_circle (center -5.08 0) (end -3.18 0) (layer F.SilkS) (width 0.12))
  (fp_circle (center 20.32 0) (end 22.22 0) (layer F.SilkS) (width 0.12))
  (fp_circle (center -5.08 0) (end -2.9 0) (layer B.SilkS) (width 0.12))
  (fp_circle (center 20.32 0) (end 22.5 0) (layer B.SilkS) (width 0.12))
  (fp_circle (center 20.32 0) (end 22.42 0) (layer B.Fab) (width 0.1))
  (fp_circle (center -5.08 0) (end -2.98 0) (layer B.Fab) (width 0.1))
  (fp_circle (center 20.32 0) (end 22.92 0) (layer B.CrtYd) (width 0.05))
  (fp_circle (center -5.08 0) (end -2.48 0) (layer B.CrtYd) (width 0.05))
  (fp_line (start -7.7 -4.88) (end -7.7 3.88) (layer F.SilkS) (width 0.12))
  (fp_line (start -7.7 3.88) (end 22.94 3.88) (layer F.SilkS) (width 0.12))
  (fp_line (start 22.94 3.88) (end 22.94 -4.88) (layer F.SilkS) (width 0.12))
  (fp_line (start 22.94 -4.88) (end -7.7 -4.88) (layer F.SilkS) (width 0.12))
  (fp_line (start -7.62 -4.8) (end -7.62 3.8) (layer F.Fab) (width 0.1))
  (fp_line (start -7.62 3.8) (end 22.86 3.8) (layer F.Fab) (width 0.1))
  (fp_line (start 22.86 3.8) (end 22.86 -4.8) (layer F.Fab) (width 0.1))
  (fp_line (start 22.86 -4.8) (end -7.62 -4.8) (layer F.Fab) (width 0.1))
  (fp_line (start -7.7 -4.1) (end -6.16 -4.1) (layer F.SilkS) (width 0.12))
  (fp_line (start 22.94 -4.1) (end 21.4 -4.1) (layer F.SilkS) (width 0.12))
  (fp_line (start 1 -4.1) (end 4.08 -4.1) (layer F.SilkS) (width 0.12))
  (fp_line (start 6.08 -4.1) (end 9.16 -4.1) (layer F.SilkS) (width 0.12))
  (fp_line (start 11.16 -4.1) (end 14.24 -4.1) (layer F.SilkS) (width 0.12))
  (fp_line (start -6.08 -3.1) (end -6.08 -4.88) (layer F.SilkS) (width 0.12))
  (fp_line (start -6.08 -4.88) (end -4.08 -4.88) (layer F.SilkS) (width 0.12))
  (fp_line (start -4.08 -4.88) (end -4.08 -3.1) (layer F.SilkS) (width 0.12))
  (fp_line (start -4.08 -3.1) (end -6.08 -3.1) (layer F.SilkS) (width 0.12))
  (fp_line (start 19.32 -3.1) (end 19.32 -4.88) (layer F.SilkS) (width 0.12))
  (fp_line (start 19.32 -4.88) (end 21.32 -4.88) (layer F.SilkS) (width 0.12))
  (fp_line (start 21.32 -4.88) (end 21.32 -3.1) (layer F.SilkS) (width 0.12))
  (fp_line (start 21.32 -3.1) (end 19.32 -3.1) (layer F.SilkS) (width 0.12))
  (fp_line (start -4.08 -4.1) (end -1 -4.1) (layer F.SilkS) (width 0.12))
  (fp_line (start 16.24 -4.1) (end 19.32 -4.1) (layer F.SilkS) (width 0.12))
  (fp_line (start -1 -3.1) (end -1 -4.88) (layer F.SilkS) (width 0.12))
  (fp_line (start -1 -4.88) (end 1 -4.88) (layer F.SilkS) (width 0.12))
  (fp_line (start 1 -4.88) (end 1 -3.1) (layer F.SilkS) (width 0.12))
  (fp_line (start 1 -3.1) (end -1 -3.1) (layer F.SilkS) (width 0.12))
  (fp_line (start 4.08 -3.1) (end 4.08 -4.88) (layer F.SilkS) (width 0.12))
  (fp_line (start 4.08 -4.88) (end 6.08 -4.88) (layer F.SilkS) (width 0.12))
  (fp_line (start 6.08 -4.88) (end 6.08 -3.1) (layer F.SilkS) (width 0.12))
  (fp_line (start 6.08 -3.1) (end 4.08 -3.1) (layer F.SilkS) (width 0.12))
  (fp_line (start 9.16 -3.1) (end 9.16 -4.88) (layer F.SilkS) (width 0.12))
  (fp_line (start 9.16 -4.88) (end 11.16 -4.88) (layer F.SilkS) (width 0.12))
  (fp_line (start 11.16 -4.88) (end 11.16 -3.1) (layer F.SilkS) (width 0.12))
  (fp_line (start 11.16 -3.1) (end 9.16 -3.1) (layer F.SilkS) (width 0.12))
  (fp_line (start 14.24 -3.1) (end 14.24 -4.88) (layer F.SilkS) (width 0.12))
  (fp_line (start 14.24 -4.88) (end 16.24 -4.88) (layer F.SilkS) (width 0.12))
  (fp_line (start 16.24 -4.88) (end 16.24 -3.1) (layer F.SilkS) (width 0.12))
  (fp_line (start 16.24 -3.1) (end 14.24 -3.1) (layer F.SilkS) (width 0.12))
  (fp_line (start 2 2.2) (end 3.08 2.2) (layer F.SilkS) (width 0.12))
  (fp_line (start 7.08 2.2) (end 8.16 2.2) (layer F.SilkS) (width 0.12))
  (fp_line (start 12.16 2.2) (end 13.24 2.2) (layer F.SilkS) (width 0.12))
  (fp_line (start -2 2.2) (end -2.74 2.2) (layer F.SilkS) (width 0.12))
  (fp_line (start -2.74 2.2) (end -2.74 -3.1) (layer F.SilkS) (width 0.12))
  (fp_line (start -2.74 -3.1) (end 17.98 -3.1) (layer F.SilkS) (width 0.12))
  (fp_line (start 17.98 -3.1) (end 17.98 2.2) (layer F.SilkS) (width 0.12))
  (fp_line (start 17.98 2.2) (end 17.24 2.2) (layer F.SilkS) (width 0.12))
  (fp_line (start -8.12 -5.3) (end -8.12 4.3) (layer F.CrtYd) (width 0.05))
  (fp_line (start -8.12 4.3) (end 23.36 4.3) (layer F.CrtYd) (width 0.05))
  (fp_line (start 23.36 4.3) (end 23.36 -5.3) (layer F.CrtYd) (width 0.05))
  (fp_line (start 23.36 -5.3) (end -8.12 -5.3) (layer F.CrtYd) (width 0.05))
  (fp_line (start 0.3 -5.68) (end 0 -5.08) (layer F.SilkS) (width 0.12))
  (fp_line (start 0 -5.08) (end -0.3 -5.68) (layer F.SilkS) (width 0.12))
  (fp_line (start -0.3 -5.68) (end 0.3 -5.68) (layer F.SilkS) (width 0.12))
  (fp_line (start 0.5 -3.55) (end 0 -2.55) (layer F.Fab) (width 0.1))
  (fp_line (start 0 -2.55) (end -0.5 -3.55) (layer F.Fab) (width 0.1))
  (fp_line (start -0.5 -3.55) (end 0.5 -3.55) (layer F.Fab) (width 0.1))
  (pad 1 thru_hole rect (at 0 0) (size 2.08 3.6) (drill 1.4) (layers *.Cu *.Mask))
  (pad 2 thru_hole oval (at 5.08 0) (size 2.08 3.6) (drill 1.4) (layers *.Cu *.Mask))
  (pad 3 thru_hole oval (at 10.16 0) (size 2.08 3.6) (drill 1.4) (layers *.Cu *.Mask))
  (pad 4 thru_hole oval (at 15.24 0) (size 2.08 3.6) (drill 1.4) (layers *.Cu *.Mask))
  (pad "" np_thru_hole circle (at -5.08 0) (size 2.4 2.4) (drill 2.4) (layers *.Cu *.Mask))
  (pad "" np_thru_hole circle (at 20.32 0) (size 2.4 2.4) (drill 2.4) (layers *.Cu *.Mask))
  (fp_text user %R (at 7.62 -3) (layer F.Fab)
    (effects (font (size 1 1) (thickness 0.15)))
  )
  (model ${KIPRJMOD}/kicad_libs_k/models_k.3d/Connector_Phoenix_MSTB_k.3dshapes/PhoenixContact_MSTBV_2,5_4-GF-5,08_1x04_P5.08mm_Vertical_ThreadedFlange_MountHole_k.wrl
    (at (xyz 0 0 0))
    (scale (xyz 1 1 1))
    (rotate (xyz 0 0 0))
  )
)