(module PhoenixContact_MSTB_2,5_3-GF-5,08_1x03_P5.08mm_Horizontal_ThreadedFlange (layer F.Cu) (tedit 5A00FA1E)
  (descr "Generic Phoenix Contact connector footprint for: MSTB_2,5/3-GF-5,08; number of pins: 03; pin pitch: 5.08mm; Angled; threaded flange || order number: 1776511 12A || order number: 1924091 16A (HC)")
  (tags "phoenix_contact connector MSTB_01x03_GF_5.08mm")
  (fp_text reference REF** (at 5.08 -3) (layer F.SilkS)
    (effects (font (size 1 1) (thickness 0.15)))
  )
  (fp_text value PhoenixContact_MSTB_2,5_3-GF-5,08_1x03_P5.08mm_Horizontal_ThreadedFlange (at 5.08 11) (layer F.Fab)
    (effects (font (size 1 1) (thickness 0.15)))
  )
  (fp_line (start -7.7 -2.08) (end -7.7 10.08) (layer F.SilkS) (width 0.12))
  (fp_line (start -7.7 10.08) (end 17.86 10.08) (layer F.SilkS) (width 0.12))
  (fp_line (start 17.86 10.08) (end 17.86 -2.08) (layer F.SilkS) (width 0.12))
  (fp_line (start 17.86 -2.08) (end -7.7 -2.08) (layer F.SilkS) (width 0.12))
  (fp_line (start -7.62 -2) (end -7.62 10) (layer F.Fab) (width 0.1))
  (fp_line (start -7.62 10) (end 17.78 10) (layer F.Fab) (width 0.1))
  (fp_line (start 17.78 10) (end 17.78 -2) (layer F.Fab) (width 0.1))
  (fp_line (start 17.78 -2) (end -7.62 -2) (layer F.Fab) (width 0.1))
  (fp_line (start -7.7 8.58) (end -7.7 6.78) (layer F.SilkS) (width 0.12))
  (fp_line (start -7.7 6.78) (end 17.86 6.78) (layer F.SilkS) (width 0.12))
  (fp_line (start 17.86 6.78) (end 17.86 8.58) (layer F.SilkS) (width 0.12))
  (fp_line (start 17.86 8.58) (end -7.7 8.58) (layer F.SilkS) (width 0.12))
  (fp_line (start -6.08 10.08) (end -4.08 10.08) (layer F.SilkS) (width 0.12))
  (fp_line (start -4.08 10.08) (end -4.33 8.58) (layer F.SilkS) (width 0.12))
  (fp_line (start -4.33 8.58) (end -5.83 8.58) (layer F.SilkS) (width 0.12))
  (fp_line (start -5.83 8.58) (end -6.08 10.08) (layer F.SilkS) (width 0.12))
  (fp_line (start 14.24 10.08) (end 16.24 10.08) (layer F.SilkS) (width 0.12))
  (fp_line (start 16.24 10.08) (end 15.99 8.58) (layer F.SilkS) (width 0.12))
  (fp_line (start 15.99 8.58) (end 14.49 8.58) (layer F.SilkS) (width 0.12))
  (fp_line (start 14.49 8.58) (end 14.24 10.08) (layer F.SilkS) (width 0.12))
  (fp_line (start -1 10.08) (end 1 10.08) (layer F.SilkS) (width 0.12))
  (fp_line (start 1 10.08) (end 0.75 8.58) (layer F.SilkS) (width 0.12))
  (fp_line (start 0.75 8.58) (end -0.75 8.58) (layer F.SilkS) (width 0.12))
  (fp_line (start -0.75 8.58) (end -1 10.08) (layer F.SilkS) (width 0.12))
  (fp_line (start 4.08 10.08) (end 6.08 10.08) (layer F.SilkS) (width 0.12))
  (fp_line (start 6.08 10.08) (end 5.83 8.58) (layer F.SilkS) (width 0.12))
  (fp_line (start 5.83 8.58) (end 4.33 8.58) (layer F.SilkS) (width 0.12))
  (fp_line (start 4.33 8.58) (end 4.08 10.08) (layer F.SilkS) (width 0.12))
  (fp_line (start 9.16 10.08) (end 11.16 10.08) (layer F.SilkS) (width 0.12))
  (fp_line (start 11.16 10.08) (end 10.91 8.58) (layer F.SilkS) (width 0.12))
  (fp_line (start 10.91 8.58) (end 9.41 8.58) (layer F.SilkS) (width 0.12))
  (fp_line (start 9.41 8.58) (end 9.16 10.08) (layer F.SilkS) (width 0.12))
  (fp_line (start -8.12 -2.5) (end -8.12 10.5) (layer F.CrtYd) (width 0.05))
  (fp_line (start -8.12 10.5) (end 18.28 10.5) (layer F.CrtYd) (width 0.05))
  (fp_line (start 18.28 10.5) (end 18.28 -2.5) (layer F.CrtYd) (width 0.05))
  (fp_line (start 18.28 -2.5) (end -8.12 -2.5) (layer F.CrtYd) (width 0.05))
  (fp_line (start 0.3 -2.88) (end 0 -2.28) (layer F.SilkS) (width 0.12))
  (fp_line (start 0 -2.28) (end -0.3 -2.88) (layer F.SilkS) (width 0.12))
  (fp_line (start -0.3 -2.88) (end 0.3 -2.88) (layer F.SilkS) (width 0.12))
  (fp_line (start 0.95 -2) (end 0 -0.5) (layer F.Fab) (width 0.1))
  (fp_line (start 0 -0.5) (end -0.95 -2) (layer F.Fab) (width 0.1))
  (pad 1 thru_hole rect (at 0 0) (size 2.08 3.6) (drill 1.4) (layers *.Cu *.Mask))
  (pad 2 thru_hole oval (at 5.08 0) (size 2.08 3.6) (drill 1.4) (layers *.Cu *.Mask))
  (pad 3 thru_hole oval (at 10.16 0) (size 2.08 3.6) (drill 1.4) (layers *.Cu *.Mask))
  (fp_text user %R (at 5.08 3) (layer F.Fab)
    (effects (font (size 1 1) (thickness 0.15)))
  )
  (model ${KIPRJMOD}/kicad_libs_k/models_k.3d/Connector_Phoenix_MSTB_k.3dshapes/PhoenixContact_MSTB_2,5_3-GF-5,08_1x03_P5.08mm_Horizontal_ThreadedFlange_k.wrl
    (at (xyz 0 0 0))
    (scale (xyz 1 1 1))
    (rotate (xyz 0 0 0))
  )
)