(module PhoenixContact_GMSTB_2,5_7-GF-7,62_1x07_P7.62mm_Horizontal_ThreadedFlange_MountHole (layer F.Cu) (tedit 5A00FA1F)
  (descr "Generic Phoenix Contact connector footprint for: GMSTB_2,5/7-GF-7,62; number of pins: 07; pin pitch: 7.62mm; Angled; threaded flange; footprint includes mount hole for mounting screw: ISO 1481-ST 2.2x6.5 C or ISO 7049-ST 2.2x6.5 C (http://www.fasteners.eu/standards/ISO/7049/) || order number: 1806274 12A 630V")
  (tags "phoenix_contact connector GMSTB_01x07_GF_7.62mm_MH")
  (fp_text reference REF** (at 22.86 -3) (layer F.SilkS)
    (effects (font (size 1 1) (thickness 0.15)))
  )
  (fp_text value PhoenixContact_GMSTB_2,5_7-GF-7,62_1x07_P7.62mm_Horizontal_ThreadedFlange_MountHole (at 22.86 11) (layer F.Fab)
    (effects (font (size 1 1) (thickness 0.15)))
  )
  (fp_circle (center -6.1 2.5) (end -3.92 2.5) (layer B.SilkS) (width 0.12))
  (fp_circle (center 51.82 2.5) (end 54 2.5) (layer B.SilkS) (width 0.12))
  (fp_circle (center 51.82 2.5) (end 53.92 2.5) (layer B.Fab) (width 0.1))
  (fp_circle (center -6.1 2.5) (end -4 2.5) (layer B.Fab) (width 0.1))
  (fp_circle (center 51.82 2.5) (end 54.42 2.5) (layer B.CrtYd) (width 0.05))
  (fp_circle (center -6.1 2.5) (end -3.5 2.5) (layer B.CrtYd) (width 0.05))
  (fp_line (start -9.18 -2.08) (end -9.18 10.08) (layer F.SilkS) (width 0.12))
  (fp_line (start -9.18 10.08) (end 54.9 10.08) (layer F.SilkS) (width 0.12))
  (fp_line (start 54.9 10.08) (end 54.9 -2.08) (layer F.SilkS) (width 0.12))
  (fp_line (start 54.9 -2.08) (end -9.18 -2.08) (layer F.SilkS) (width 0.12))
  (fp_line (start -9.1 -2) (end -9.1 10) (layer F.Fab) (width 0.1))
  (fp_line (start -9.1 10) (end 54.82 10) (layer F.Fab) (width 0.1))
  (fp_line (start 54.82 10) (end 54.82 -2) (layer F.Fab) (width 0.1))
  (fp_line (start 54.82 -2) (end -9.1 -2) (layer F.Fab) (width 0.1))
  (fp_line (start -9.18 8.58) (end -9.18 6.78) (layer F.SilkS) (width 0.12))
  (fp_line (start -9.18 6.78) (end 54.9 6.78) (layer F.SilkS) (width 0.12))
  (fp_line (start 54.9 6.78) (end 54.9 8.58) (layer F.SilkS) (width 0.12))
  (fp_line (start 54.9 8.58) (end -9.18 8.58) (layer F.SilkS) (width 0.12))
  (fp_line (start -7.1 10.08) (end -5.1 10.08) (layer F.SilkS) (width 0.12))
  (fp_line (start -5.1 10.08) (end -5.35 8.58) (layer F.SilkS) (width 0.12))
  (fp_line (start -5.35 8.58) (end -6.85 8.58) (layer F.SilkS) (width 0.12))
  (fp_line (start -6.85 8.58) (end -7.1 10.08) (layer F.SilkS) (width 0.12))
  (fp_line (start 50.82 10.08) (end 52.82 10.08) (layer F.SilkS) (width 0.12))
  (fp_line (start 52.82 10.08) (end 52.57 8.58) (layer F.SilkS) (width 0.12))
  (fp_line (start 52.57 8.58) (end 51.07 8.58) (layer F.SilkS) (width 0.12))
  (fp_line (start 51.07 8.58) (end 50.82 10.08) (layer F.SilkS) (width 0.12))
  (fp_line (start -1 10.08) (end 1 10.08) (layer F.SilkS) (width 0.12))
  (fp_line (start 1 10.08) (end 0.75 8.58) (layer F.SilkS) (width 0.12))
  (fp_line (start 0.75 8.58) (end -0.75 8.58) (layer F.SilkS) (width 0.12))
  (fp_line (start -0.75 8.58) (end -1 10.08) (layer F.SilkS) (width 0.12))
  (fp_line (start 6.62 10.08) (end 8.62 10.08) (layer F.SilkS) (width 0.12))
  (fp_line (start 8.62 10.08) (end 8.37 8.58) (layer F.SilkS) (width 0.12))
  (fp_line (start 8.37 8.58) (end 6.87 8.58) (layer F.SilkS) (width 0.12))
  (fp_line (start 6.87 8.58) (end 6.62 10.08) (layer F.SilkS) (width 0.12))
  (fp_line (start 14.24 10.08) (end 16.24 10.08) (layer F.SilkS) (width 0.12))
  (fp_line (start 16.24 10.08) (end 15.99 8.58) (layer F.SilkS) (width 0.12))
  (fp_line (start 15.99 8.58) (end 14.49 8.58) (layer F.SilkS) (width 0.12))
  (fp_line (start 14.49 8.58) (end 14.24 10.08) (layer F.SilkS) (width 0.12))
  (fp_line (start 21.86 10.08) (end 23.86 10.08) (layer F.SilkS) (width 0.12))
  (fp_line (start 23.86 10.08) (end 23.61 8.58) (layer F.SilkS) (width 0.12))
  (fp_line (start 23.61 8.58) (end 22.11 8.58) (layer F.SilkS) (width 0.12))
  (fp_line (start 22.11 8.58) (end 21.86 10.08) (layer F.SilkS) (width 0.12))
  (fp_line (start 29.48 10.08) (end 31.48 10.08) (layer F.SilkS) (width 0.12))
  (fp_line (start 31.48 10.08) (end 31.23 8.58) (layer F.SilkS) (width 0.12))
  (fp_line (start 31.23 8.58) (end 29.73 8.58) (layer F.SilkS) (width 0.12))
  (fp_line (start 29.73 8.58) (end 29.48 10.08) (layer F.SilkS) (width 0.12))
  (fp_line (start 37.1 10.08) (end 39.1 10.08) (layer F.SilkS) (width 0.12))
  (fp_line (start 39.1 10.08) (end 38.85 8.58) (layer F.SilkS) (width 0.12))
  (fp_line (start 38.85 8.58) (end 37.35 8.58) (layer F.SilkS) (width 0.12))
  (fp_line (start 37.35 8.58) (end 37.1 10.08) (layer F.SilkS) (width 0.12))
  (fp_line (start 44.72 10.08) (end 46.72 10.08) (layer F.SilkS) (width 0.12))
  (fp_line (start 46.72 10.08) (end 46.47 8.58) (layer F.SilkS) (width 0.12))
  (fp_line (start 46.47 8.58) (end 44.97 8.58) (layer F.SilkS) (width 0.12))
  (fp_line (start 44.97 8.58) (end 44.72 10.08) (layer F.SilkS) (width 0.12))
  (fp_line (start -9.6 -2.5) (end -9.6 10.5) (layer F.CrtYd) (width 0.05))
  (fp_line (start -9.6 10.5) (end 55.32 10.5) (layer F.CrtYd) (width 0.05))
  (fp_line (start 55.32 10.5) (end 55.32 -2.5) (layer F.CrtYd) (width 0.05))
  (fp_line (start 55.32 -2.5) (end -9.6 -2.5) (layer F.CrtYd) (width 0.05))
  (fp_line (start 0.3 -2.88) (end 0 -2.28) (layer F.SilkS) (width 0.12))
  (fp_line (start 0 -2.28) (end -0.3 -2.88) (layer F.SilkS) (width 0.12))
  (fp_line (start -0.3 -2.88) (end 0.3 -2.88) (layer F.SilkS) (width 0.12))
  (fp_line (start 0.95 -2) (end 0 -0.5) (layer F.Fab) (width 0.1))
  (fp_line (start 0 -0.5) (end -0.95 -2) (layer F.Fab) (width 0.1))
  (pad 1 thru_hole rect (at 0 0) (size 2.1 3.6) (drill 1.4) (layers *.Cu *.Mask))
  (pad 2 thru_hole oval (at 7.62 0) (size 2.1 3.6) (drill 1.4) (layers *.Cu *.Mask))
  (pad 3 thru_hole oval (at 15.24 0) (size 2.1 3.6) (drill 1.4) (layers *.Cu *.Mask))
  (pad 4 thru_hole oval (at 22.86 0) (size 2.1 3.6) (drill 1.4) (layers *.Cu *.Mask))
  (pad 5 thru_hole oval (at 30.48 0) (size 2.1 3.6) (drill 1.4) (layers *.Cu *.Mask))
  (pad 6 thru_hole oval (at 38.1 0) (size 2.1 3.6) (drill 1.4) (layers *.Cu *.Mask))
  (pad 7 thru_hole oval (at 45.72 0) (size 2.1 3.6) (drill 1.4) (layers *.Cu *.Mask))
  (pad "" np_thru_hole circle (at -6.1 2.5) (size 2.4 2.4) (drill 2.4) (layers *.Cu *.Mask))
  (pad "" np_thru_hole circle (at 51.82 2.5) (size 2.4 2.4) (drill 2.4) (layers *.Cu *.Mask))
  (fp_text user %R (at 22.86 3) (layer F.Fab)
    (effects (font (size 1 1) (thickness 0.15)))
  )
  (model ${KIPRJMOD}/kicad_libs_k/models_k.3d/Connector_Phoenix_MSTB_k.3dshapes/PhoenixContact_GMSTB_2,5_7-GF-7,62_1x07_P7.62mm_Horizontal_ThreadedFlange_MountHole_k.wrl
    (at (xyz 0 0 0))
    (scale (xyz 1 1 1))
    (rotate (xyz 0 0 0))
  )
)