(module PhoenixContact_GMSTBA_2,5_2-G-7,62_1x02_P7.62mm_Horizontal (layer F.Cu) (tedit 5A00FA1F)
  (descr "Generic Phoenix Contact connector footprint for: GMSTBA_2,5/2-G-7,62; number of pins: 02; pin pitch: 7.62mm; Angled || order number: 1766233 12A 630V")
  (tags "phoenix_contact connector GMSTBA_01x02_G_7.62mm")
  (fp_text reference REF** (at 4.81 -3) (layer F.SilkS)
    (effects (font (size 1 1) (thickness 0.15)))
  )
  (fp_text value PhoenixContact_GMSTBA_2,5_2-G-7,62_1x02_P7.62mm_Horizontal (at 3.81 11) (layer F.Fab)
    (effects (font (size 1 1) (thickness 0.15)))
  )
  (fp_line (start -3.89 -2.08) (end -3.89 10.08) (layer F.SilkS) (width 0.12))
  (fp_line (start -3.89 10.08) (end 11.51 10.08) (layer F.SilkS) (width 0.12))
  (fp_line (start 11.51 10.08) (end 11.51 -2.08) (layer F.SilkS) (width 0.12))
  (fp_line (start 11.51 -2.08) (end -3.89 -2.08) (layer F.SilkS) (width 0.12))
  (fp_line (start -3.81 -2) (end -3.81 10) (layer F.Fab) (width 0.1))
  (fp_line (start -3.81 10) (end 11.43 10) (layer F.Fab) (width 0.1))
  (fp_line (start 11.43 10) (end 11.43 -2) (layer F.Fab) (width 0.1))
  (fp_line (start 11.43 -2) (end -3.81 -2) (layer F.Fab) (width 0.1))
  (fp_line (start -3.89 8.58) (end -3.89 6.78) (layer F.SilkS) (width 0.12))
  (fp_line (start -3.89 6.78) (end 11.51 6.78) (layer F.SilkS) (width 0.12))
  (fp_line (start 11.51 6.78) (end 11.51 8.58) (layer F.SilkS) (width 0.12))
  (fp_line (start 11.51 8.58) (end -3.89 8.58) (layer F.SilkS) (width 0.12))
  (fp_line (start -1 10.08) (end 1 10.08) (layer F.SilkS) (width 0.12))
  (fp_line (start 1 10.08) (end 0.75 8.58) (layer F.SilkS) (width 0.12))
  (fp_line (start 0.75 8.58) (end -0.75 8.58) (layer F.SilkS) (width 0.12))
  (fp_line (start -0.75 8.58) (end -1 10.08) (layer F.SilkS) (width 0.12))
  (fp_line (start 6.62 10.08) (end 8.62 10.08) (layer F.SilkS) (width 0.12))
  (fp_line (start 8.62 10.08) (end 8.37 8.58) (layer F.SilkS) (width 0.12))
  (fp_line (start 8.37 8.58) (end 6.87 8.58) (layer F.SilkS) (width 0.12))
  (fp_line (start 6.87 8.58) (end 6.62 10.08) (layer F.SilkS) (width 0.12))
  (fp_line (start -4.31 -2.5) (end -4.31 10.5) (layer F.CrtYd) (width 0.05))
  (fp_line (start -4.31 10.5) (end 11.93 10.5) (layer F.CrtYd) (width 0.05))
  (fp_line (start 11.93 10.5) (end 11.93 -2.5) (layer F.CrtYd) (width 0.05))
  (fp_line (start 11.93 -2.5) (end -4.31 -2.5) (layer F.CrtYd) (width 0.05))
  (fp_line (start 0.3 -2.88) (end 0 -2.28) (layer F.SilkS) (width 0.12))
  (fp_line (start 0 -2.28) (end -0.3 -2.88) (layer F.SilkS) (width 0.12))
  (fp_line (start -0.3 -2.88) (end 0.3 -2.88) (layer F.SilkS) (width 0.12))
  (fp_line (start 0.95 -2) (end 0 -0.5) (layer F.Fab) (width 0.1))
  (fp_line (start 0 -0.5) (end -0.95 -2) (layer F.Fab) (width 0.1))
  (pad 1 thru_hole rect (at 0 0) (size 2.1 3.6) (drill 1.4) (layers *.Cu *.Mask))
  (pad 2 thru_hole oval (at 7.62 0) (size 2.1 3.6) (drill 1.4) (layers *.Cu *.Mask))
  (fp_text user %R (at 4.81 3) (layer F.Fab)
    (effects (font (size 1 1) (thickness 0.15)))
  )
  (model ${KIPRJMOD}/kicad_libs_k/models_k.3d/Connector_Phoenix_MSTB_k.3dshapes/PhoenixContact_GMSTBA_2,5_2-G-7,62_1x02_P7.62mm_Horizontal_k.wrl
    (at (xyz 0 0 0))
    (scale (xyz 1 1 1))
    (rotate (xyz 0 0 0))
  )
)