(module PhoenixContact_GMSTBVA_2,5_12-G_1x12_P7.50mm_Vertical (layer F.Cu) (tedit 5A00FA1F)
  (descr "Generic Phoenix Contact connector footprint for: GMSTBVA_2,5/12-G; number of pins: 12; pin pitch: 7.50mm; Vertical || order number: 1766767 12A 630V")
  (tags "phoenix_contact connector GMSTBVA_01x12_G_7.50mm")
  (fp_text reference REF** (at 41.25 -5.8) (layer F.SilkS)
    (effects (font (size 1 1) (thickness 0.15)))
  )
  (fp_text value PhoenixContact_GMSTBVA_2,5_12-G_1x12_P7.50mm_Vertical (at 41.25 4.8) (layer F.Fab)
    (effects (font (size 1 1) (thickness 0.15)))
  )
  (fp_arc (start 0 0.55) (end -2 2.2) (angle -100.5) (layer F.SilkS) (width 0.12))
  (fp_arc (start 7.5 0.55) (end 5.5 2.2) (angle -100.5) (layer F.SilkS) (width 0.12))
  (fp_arc (start 15 0.55) (end 13 2.2) (angle -100.5) (layer F.SilkS) (width 0.12))
  (fp_arc (start 22.5 0.55) (end 20.5 2.2) (angle -100.5) (layer F.SilkS) (width 0.12))
  (fp_arc (start 30 0.55) (end 28 2.2) (angle -100.5) (layer F.SilkS) (width 0.12))
  (fp_arc (start 37.5 0.55) (end 35.5 2.2) (angle -100.5) (layer F.SilkS) (width 0.12))
  (fp_arc (start 45 0.55) (end 43 2.2) (angle -100.5) (layer F.SilkS) (width 0.12))
  (fp_arc (start 52.5 0.55) (end 50.5 2.2) (angle -100.5) (layer F.SilkS) (width 0.12))
  (fp_arc (start 60 0.55) (end 58 2.2) (angle -100.5) (layer F.SilkS) (width 0.12))
  (fp_arc (start 67.5 0.55) (end 65.5 2.2) (angle -100.5) (layer F.SilkS) (width 0.12))
  (fp_arc (start 75 0.55) (end 73 2.2) (angle -100.5) (layer F.SilkS) (width 0.12))
  (fp_arc (start 82.5 0.55) (end 80.5 2.2) (angle -100.5) (layer F.SilkS) (width 0.12))
  (fp_line (start -3.83 -4.88) (end -3.83 3.88) (layer F.SilkS) (width 0.12))
  (fp_line (start -3.83 3.88) (end 86.33 3.88) (layer F.SilkS) (width 0.12))
  (fp_line (start 86.33 3.88) (end 86.33 -4.88) (layer F.SilkS) (width 0.12))
  (fp_line (start 86.33 -4.88) (end -3.83 -4.88) (layer F.SilkS) (width 0.12))
  (fp_line (start -3.75 -4.8) (end -3.75 3.8) (layer F.Fab) (width 0.1))
  (fp_line (start -3.75 3.8) (end 86.25 3.8) (layer F.Fab) (width 0.1))
  (fp_line (start 86.25 3.8) (end 86.25 -4.8) (layer F.Fab) (width 0.1))
  (fp_line (start 86.25 -4.8) (end -3.75 -4.8) (layer F.Fab) (width 0.1))
  (fp_line (start -3.83 -4.1) (end -1.08 -4.1) (layer F.SilkS) (width 0.12))
  (fp_line (start 86.33 -4.1) (end 83.58 -4.1) (layer F.SilkS) (width 0.12))
  (fp_line (start 1 -4.1) (end 6.5 -4.1) (layer F.SilkS) (width 0.12))
  (fp_line (start 8.5 -4.1) (end 14 -4.1) (layer F.SilkS) (width 0.12))
  (fp_line (start 16 -4.1) (end 21.5 -4.1) (layer F.SilkS) (width 0.12))
  (fp_line (start 23.5 -4.1) (end 29 -4.1) (layer F.SilkS) (width 0.12))
  (fp_line (start 31 -4.1) (end 36.5 -4.1) (layer F.SilkS) (width 0.12))
  (fp_line (start 38.5 -4.1) (end 44 -4.1) (layer F.SilkS) (width 0.12))
  (fp_line (start 46 -4.1) (end 51.5 -4.1) (layer F.SilkS) (width 0.12))
  (fp_line (start 53.5 -4.1) (end 59 -4.1) (layer F.SilkS) (width 0.12))
  (fp_line (start 61 -4.1) (end 66.5 -4.1) (layer F.SilkS) (width 0.12))
  (fp_line (start 68.5 -4.1) (end 74 -4.1) (layer F.SilkS) (width 0.12))
  (fp_line (start 76 -4.1) (end 81.5 -4.1) (layer F.SilkS) (width 0.12))
  (fp_line (start -1 -3.1) (end -1 -4.88) (layer F.SilkS) (width 0.12))
  (fp_line (start -1 -4.88) (end 1 -4.88) (layer F.SilkS) (width 0.12))
  (fp_line (start 1 -4.88) (end 1 -3.1) (layer F.SilkS) (width 0.12))
  (fp_line (start 1 -3.1) (end -1 -3.1) (layer F.SilkS) (width 0.12))
  (fp_line (start 6.5 -3.1) (end 6.5 -4.88) (layer F.SilkS) (width 0.12))
  (fp_line (start 6.5 -4.88) (end 8.5 -4.88) (layer F.SilkS) (width 0.12))
  (fp_line (start 8.5 -4.88) (end 8.5 -3.1) (layer F.SilkS) (width 0.12))
  (fp_line (start 8.5 -3.1) (end 6.5 -3.1) (layer F.SilkS) (width 0.12))
  (fp_line (start 14 -3.1) (end 14 -4.88) (layer F.SilkS) (width 0.12))
  (fp_line (start 14 -4.88) (end 16 -4.88) (layer F.SilkS) (width 0.12))
  (fp_line (start 16 -4.88) (end 16 -3.1) (layer F.SilkS) (width 0.12))
  (fp_line (start 16 -3.1) (end 14 -3.1) (layer F.SilkS) (width 0.12))
  (fp_line (start 21.5 -3.1) (end 21.5 -4.88) (layer F.SilkS) (width 0.12))
  (fp_line (start 21.5 -4.88) (end 23.5 -4.88) (layer F.SilkS) (width 0.12))
  (fp_line (start 23.5 -4.88) (end 23.5 -3.1) (layer F.SilkS) (width 0.12))
  (fp_line (start 23.5 -3.1) (end 21.5 -3.1) (layer F.SilkS) (width 0.12))
  (fp_line (start 29 -3.1) (end 29 -4.88) (layer F.SilkS) (width 0.12))
  (fp_line (start 29 -4.88) (end 31 -4.88) (layer F.SilkS) (width 0.12))
  (fp_line (start 31 -4.88) (end 31 -3.1) (layer F.SilkS) (width 0.12))
  (fp_line (start 31 -3.1) (end 29 -3.1) (layer F.SilkS) (width 0.12))
  (fp_line (start 36.5 -3.1) (end 36.5 -4.88) (layer F.SilkS) (width 0.12))
  (fp_line (start 36.5 -4.88) (end 38.5 -4.88) (layer F.SilkS) (width 0.12))
  (fp_line (start 38.5 -4.88) (end 38.5 -3.1) (layer F.SilkS) (width 0.12))
  (fp_line (start 38.5 -3.1) (end 36.5 -3.1) (layer F.SilkS) (width 0.12))
  (fp_line (start 44 -3.1) (end 44 -4.88) (layer F.SilkS) (width 0.12))
  (fp_line (start 44 -4.88) (end 46 -4.88) (layer F.SilkS) (width 0.12))
  (fp_line (start 46 -4.88) (end 46 -3.1) (layer F.SilkS) (width 0.12))
  (fp_line (start 46 -3.1) (end 44 -3.1) (layer F.SilkS) (width 0.12))
  (fp_line (start 51.5 -3.1) (end 51.5 -4.88) (layer F.SilkS) (width 0.12))
  (fp_line (start 51.5 -4.88) (end 53.5 -4.88) (layer F.SilkS) (width 0.12))
  (fp_line (start 53.5 -4.88) (end 53.5 -3.1) (layer F.SilkS) (width 0.12))
  (fp_line (start 53.5 -3.1) (end 51.5 -3.1) (layer F.SilkS) (width 0.12))
  (fp_line (start 59 -3.1) (end 59 -4.88) (layer F.SilkS) (width 0.12))
  (fp_line (start 59 -4.88) (end 61 -4.88) (layer F.SilkS) (width 0.12))
  (fp_line (start 61 -4.88) (end 61 -3.1) (layer F.SilkS) (width 0.12))
  (fp_line (start 61 -3.1) (end 59 -3.1) (layer F.SilkS) (width 0.12))
  (fp_line (start 66.5 -3.1) (end 66.5 -4.88) (layer F.SilkS) (width 0.12))
  (fp_line (start 66.5 -4.88) (end 68.5 -4.88) (layer F.SilkS) (width 0.12))
  (fp_line (start 68.5 -4.88) (end 68.5 -3.1) (layer F.SilkS) (width 0.12))
  (fp_line (start 68.5 -3.1) (end 66.5 -3.1) (layer F.SilkS) (width 0.12))
  (fp_line (start 74 -3.1) (end 74 -4.88) (layer F.SilkS) (width 0.12))
  (fp_line (start 74 -4.88) (end 76 -4.88) (layer F.SilkS) (width 0.12))
  (fp_line (start 76 -4.88) (end 76 -3.1) (layer F.SilkS) (width 0.12))
  (fp_line (start 76 -3.1) (end 74 -3.1) (layer F.SilkS) (width 0.12))
  (fp_line (start 81.5 -3.1) (end 81.5 -4.88) (layer F.SilkS) (width 0.12))
  (fp_line (start 81.5 -4.88) (end 83.5 -4.88) (layer F.SilkS) (width 0.12))
  (fp_line (start 83.5 -4.88) (end 83.5 -3.1) (layer F.SilkS) (width 0.12))
  (fp_line (start 83.5 -3.1) (end 81.5 -3.1) (layer F.SilkS) (width 0.12))
  (fp_line (start 2 2.2) (end 5.5 2.2) (layer F.SilkS) (width 0.12))
  (fp_line (start 9.5 2.2) (end 13 2.2) (layer F.SilkS) (width 0.12))
  (fp_line (start 17 2.2) (end 20.5 2.2) (layer F.SilkS) (width 0.12))
  (fp_line (start 24.5 2.2) (end 28 2.2) (layer F.SilkS) (width 0.12))
  (fp_line (start 32 2.2) (end 35.5 2.2) (layer F.SilkS) (width 0.12))
  (fp_line (start 39.5 2.2) (end 43 2.2) (layer F.SilkS) (width 0.12))
  (fp_line (start 47 2.2) (end 50.5 2.2) (layer F.SilkS) (width 0.12))
  (fp_line (start 54.5 2.2) (end 58 2.2) (layer F.SilkS) (width 0.12))
  (fp_line (start 62 2.2) (end 65.5 2.2) (layer F.SilkS) (width 0.12))
  (fp_line (start 69.5 2.2) (end 73 2.2) (layer F.SilkS) (width 0.12))
  (fp_line (start 77 2.2) (end 80.5 2.2) (layer F.SilkS) (width 0.12))
  (fp_line (start -2 2.2) (end -2.95 2.2) (layer F.SilkS) (width 0.12))
  (fp_line (start -2.95 2.2) (end -2.95 -3.1) (layer F.SilkS) (width 0.12))
  (fp_line (start -2.95 -3.1) (end 85.45 -3.1) (layer F.SilkS) (width 0.12))
  (fp_line (start 85.45 -3.1) (end 85.45 2.2) (layer F.SilkS) (width 0.12))
  (fp_line (start 85.45 2.2) (end 84.5 2.2) (layer F.SilkS) (width 0.12))
  (fp_line (start -4.25 -5.3) (end -4.25 4.3) (layer F.CrtYd) (width 0.05))
  (fp_line (start -4.25 4.3) (end 86.75 4.3) (layer F.CrtYd) (width 0.05))
  (fp_line (start 86.75 4.3) (end 86.75 -5.3) (layer F.CrtYd) (width 0.05))
  (fp_line (start 86.75 -5.3) (end -4.25 -5.3) (layer F.CrtYd) (width 0.05))
  (fp_line (start 0.3 -5.68) (end 0 -5.08) (layer F.SilkS) (width 0.12))
  (fp_line (start 0 -5.08) (end -0.3 -5.68) (layer F.SilkS) (width 0.12))
  (fp_line (start -0.3 -5.68) (end 0.3 -5.68) (layer F.SilkS) (width 0.12))
  (fp_line (start 0.5 -3.55) (end 0 -2.55) (layer F.Fab) (width 0.1))
  (fp_line (start 0 -2.55) (end -0.5 -3.55) (layer F.Fab) (width 0.1))
  (fp_line (start -0.5 -3.55) (end 0.5 -3.55) (layer F.Fab) (width 0.1))
  (pad 1 thru_hole rect (at 0 0) (size 2 3.6) (drill 1.4) (layers *.Cu *.Mask))
  (pad 2 thru_hole oval (at 7.5 0) (size 2 3.6) (drill 1.4) (layers *.Cu *.Mask))
  (pad 3 thru_hole oval (at 15 0) (size 2 3.6) (drill 1.4) (layers *.Cu *.Mask))
  (pad 4 thru_hole oval (at 22.5 0) (size 2 3.6) (drill 1.4) (layers *.Cu *.Mask))
  (pad 5 thru_hole oval (at 30 0) (size 2 3.6) (drill 1.4) (layers *.Cu *.Mask))
  (pad 6 thru_hole oval (at 37.5 0) (size 2 3.6) (drill 1.4) (layers *.Cu *.Mask))
  (pad 7 thru_hole oval (at 45 0) (size 2 3.6) (drill 1.4) (layers *.Cu *.Mask))
  (pad 8 thru_hole oval (at 52.5 0) (size 2 3.6) (drill 1.4) (layers *.Cu *.Mask))
  (pad 9 thru_hole oval (at 60 0) (size 2 3.6) (drill 1.4) (layers *.Cu *.Mask))
  (pad 10 thru_hole oval (at 67.5 0) (size 2 3.6) (drill 1.4) (layers *.Cu *.Mask))
  (pad 11 thru_hole oval (at 75 0) (size 2 3.6) (drill 1.4) (layers *.Cu *.Mask))
  (pad 12 thru_hole oval (at 82.5 0) (size 2 3.6) (drill 1.4) (layers *.Cu *.Mask))
  (fp_text user %R (at 41.25 -3) (layer F.Fab)
    (effects (font (size 1 1) (thickness 0.15)))
  )
  (model ${KIPRJMOD}/kicad_libs_k/models_k.3d/Connector_Phoenix_MSTB_k.3dshapes/PhoenixContact_GMSTBVA_2,5_12-G_1x12_P7.50mm_Vertical_k.wrl
    (at (xyz 0 0 0))
    (scale (xyz 1 1 1))
    (rotate (xyz 0 0 0))
  )
)