(module PhoenixContact_MSTBVA_2,5_5-G_1x05_P5.00mm_Vertical (layer F.Cu) (tedit 5A00FA1D)
  (descr "Generic Phoenix Contact connector footprint for: MSTBVA_2,5/5-G; number of pins: 05; pin pitch: 5.00mm; Vertical || order number: 1755545 12A || order number: 1924224 16A (HC)")
  (tags "phoenix_contact connector MSTBVA_01x05_G_5.00mm")
  (fp_text reference REF** (at 10 -5.8) (layer F.SilkS)
    (effects (font (size 1 1) (thickness 0.15)))
  )
  (fp_text value PhoenixContact_MSTBVA_2,5_5-G_1x05_P5.00mm_Vertical (at 10 4.8) (layer F.Fab)
    (effects (font (size 1 1) (thickness 0.15)))
  )
  (fp_arc (start 0 0.55) (end -2 2.2) (angle -100.5) (layer F.SilkS) (width 0.12))
  (fp_arc (start 5 0.55) (end 3 2.2) (angle -100.5) (layer F.SilkS) (width 0.12))
  (fp_arc (start 10 0.55) (end 8 2.2) (angle -100.5) (layer F.SilkS) (width 0.12))
  (fp_arc (start 15 0.55) (end 13 2.2) (angle -100.5) (layer F.SilkS) (width 0.12))
  (fp_arc (start 20 0.55) (end 18 2.2) (angle -100.5) (layer F.SilkS) (width 0.12))
  (fp_line (start -3.58 -4.88) (end -3.58 3.88) (layer F.SilkS) (width 0.12))
  (fp_line (start -3.58 3.88) (end 23.58 3.88) (layer F.SilkS) (width 0.12))
  (fp_line (start 23.58 3.88) (end 23.58 -4.88) (layer F.SilkS) (width 0.12))
  (fp_line (start 23.58 -4.88) (end -3.58 -4.88) (layer F.SilkS) (width 0.12))
  (fp_line (start -3.5 -4.8) (end -3.5 3.8) (layer F.Fab) (width 0.1))
  (fp_line (start -3.5 3.8) (end 23.5 3.8) (layer F.Fab) (width 0.1))
  (fp_line (start 23.5 3.8) (end 23.5 -4.8) (layer F.Fab) (width 0.1))
  (fp_line (start 23.5 -4.8) (end -3.5 -4.8) (layer F.Fab) (width 0.1))
  (fp_line (start -3.58 -4.1) (end -1.08 -4.1) (layer F.SilkS) (width 0.12))
  (fp_line (start 23.58 -4.1) (end 21.08 -4.1) (layer F.SilkS) (width 0.12))
  (fp_line (start 1 -4.1) (end 4 -4.1) (layer F.SilkS) (width 0.12))
  (fp_line (start 6 -4.1) (end 9 -4.1) (layer F.SilkS) (width 0.12))
  (fp_line (start 11 -4.1) (end 14 -4.1) (layer F.SilkS) (width 0.12))
  (fp_line (start 16 -4.1) (end 19 -4.1) (layer F.SilkS) (width 0.12))
  (fp_line (start -1 -3.1) (end -1 -4.88) (layer F.SilkS) (width 0.12))
  (fp_line (start -1 -4.88) (end 1 -4.88) (layer F.SilkS) (width 0.12))
  (fp_line (start 1 -4.88) (end 1 -3.1) (layer F.SilkS) (width 0.12))
  (fp_line (start 1 -3.1) (end -1 -3.1) (layer F.SilkS) (width 0.12))
  (fp_line (start 4 -3.1) (end 4 -4.88) (layer F.SilkS) (width 0.12))
  (fp_line (start 4 -4.88) (end 6 -4.88) (layer F.SilkS) (width 0.12))
  (fp_line (start 6 -4.88) (end 6 -3.1) (layer F.SilkS) (width 0.12))
  (fp_line (start 6 -3.1) (end 4 -3.1) (layer F.SilkS) (width 0.12))
  (fp_line (start 9 -3.1) (end 9 -4.88) (layer F.SilkS) (width 0.12))
  (fp_line (start 9 -4.88) (end 11 -4.88) (layer F.SilkS) (width 0.12))
  (fp_line (start 11 -4.88) (end 11 -3.1) (layer F.SilkS) (width 0.12))
  (fp_line (start 11 -3.1) (end 9 -3.1) (layer F.SilkS) (width 0.12))
  (fp_line (start 14 -3.1) (end 14 -4.88) (layer F.SilkS) (width 0.12))
  (fp_line (start 14 -4.88) (end 16 -4.88) (layer F.SilkS) (width 0.12))
  (fp_line (start 16 -4.88) (end 16 -3.1) (layer F.SilkS) (width 0.12))
  (fp_line (start 16 -3.1) (end 14 -3.1) (layer F.SilkS) (width 0.12))
  (fp_line (start 19 -3.1) (end 19 -4.88) (layer F.SilkS) (width 0.12))
  (fp_line (start 19 -4.88) (end 21 -4.88) (layer F.SilkS) (width 0.12))
  (fp_line (start 21 -4.88) (end 21 -3.1) (layer F.SilkS) (width 0.12))
  (fp_line (start 21 -3.1) (end 19 -3.1) (layer F.SilkS) (width 0.12))
  (fp_line (start 2 2.2) (end 3 2.2) (layer F.SilkS) (width 0.12))
  (fp_line (start 7 2.2) (end 8 2.2) (layer F.SilkS) (width 0.12))
  (fp_line (start 12 2.2) (end 13 2.2) (layer F.SilkS) (width 0.12))
  (fp_line (start 17 2.2) (end 18 2.2) (layer F.SilkS) (width 0.12))
  (fp_line (start -2 2.2) (end -2.7 2.2) (layer F.SilkS) (width 0.12))
  (fp_line (start -2.7 2.2) (end -2.7 -3.1) (layer F.SilkS) (width 0.12))
  (fp_line (start -2.7 -3.1) (end 22.7 -3.1) (layer F.SilkS) (width 0.12))
  (fp_line (start 22.7 -3.1) (end 22.7 2.2) (layer F.SilkS) (width 0.12))
  (fp_line (start 22.7 2.2) (end 22 2.2) (layer F.SilkS) (width 0.12))
  (fp_line (start -4 -5.3) (end -4 4.3) (layer F.CrtYd) (width 0.05))
  (fp_line (start -4 4.3) (end 24 4.3) (layer F.CrtYd) (width 0.05))
  (fp_line (start 24 4.3) (end 24 -5.3) (layer F.CrtYd) (width 0.05))
  (fp_line (start 24 -5.3) (end -4 -5.3) (layer F.CrtYd) (width 0.05))
  (fp_line (start 0.3 -5.68) (end 0 -5.08) (layer F.SilkS) (width 0.12))
  (fp_line (start 0 -5.08) (end -0.3 -5.68) (layer F.SilkS) (width 0.12))
  (fp_line (start -0.3 -5.68) (end 0.3 -5.68) (layer F.SilkS) (width 0.12))
  (fp_line (start 0.5 -3.55) (end 0 -2.55) (layer F.Fab) (width 0.1))
  (fp_line (start 0 -2.55) (end -0.5 -3.55) (layer F.Fab) (width 0.1))
  (fp_line (start -0.5 -3.55) (end 0.5 -3.55) (layer F.Fab) (width 0.1))
  (pad 1 thru_hole rect (at 0 0) (size 2 3.6) (drill 1.4) (layers *.Cu *.Mask))
  (pad 2 thru_hole oval (at 5 0) (size 2 3.6) (drill 1.4) (layers *.Cu *.Mask))
  (pad 3 thru_hole oval (at 10 0) (size 2 3.6) (drill 1.4) (layers *.Cu *.Mask))
  (pad 4 thru_hole oval (at 15 0) (size 2 3.6) (drill 1.4) (layers *.Cu *.Mask))
  (pad 5 thru_hole oval (at 20 0) (size 2 3.6) (drill 1.4) (layers *.Cu *.Mask))
  (fp_text user %R (at 10 -3) (layer F.Fab)
    (effects (font (size 1 1) (thickness 0.15)))
  )
  (model ${KIPRJMOD}/kicad_libs_k/models_k.3d/Connector_Phoenix_MSTB_k.3dshapes/PhoenixContact_MSTBVA_2,5_5-G_1x05_P5.00mm_Vertical_k.wrl
    (at (xyz 0 0 0))
    (scale (xyz 1 1 1))
    (rotate (xyz 0 0 0))
  )
)