(module PhoenixContact_MSTBV_2,5_5-GF_1x05_P5.00mm_Vertical_ThreadedFlange_MountHole (layer F.Cu) (tedit 5A00FA1E)
  (descr "Generic Phoenix Contact connector footprint for: MSTBV_2,5/5-GF; number of pins: 05; pin pitch: 5.00mm; Vertical; threaded flange; footprint includes mount hole for mounting screw: ISO 1481-ST 2.2x6.5 C or ISO 7049-ST 2.2x6.5 C (http://www.fasteners.eu/standards/ISO/7049/) || order number: 1776919 12A || order number: 1924444 16A (HC)")
  (tags "phoenix_contact connector MSTBV_01x05_GF_5.00mm_MH")
  (fp_text reference REF** (at 10 -5.8) (layer F.SilkS)
    (effects (font (size 1 1) (thickness 0.15)))
  )
  (fp_text value PhoenixContact_MSTBV_2,5_5-GF_1x05_P5.00mm_Vertical_ThreadedFlange_MountHole (at 10 4.8) (layer F.Fab)
    (effects (font (size 1 1) (thickness 0.15)))
  )
  (fp_arc (start 0 0.55) (end -2 2.2) (angle -100.5) (layer F.SilkS) (width 0.12))
  (fp_arc (start 5 0.55) (end 3 2.2) (angle -100.5) (layer F.SilkS) (width 0.12))
  (fp_arc (start 10 0.55) (end 8 2.2) (angle -100.5) (layer F.SilkS) (width 0.12))
  (fp_arc (start 15 0.55) (end 13 2.2) (angle -100.5) (layer F.SilkS) (width 0.12))
  (fp_arc (start 20 0.55) (end 18 2.2) (angle -100.5) (layer F.SilkS) (width 0.12))
  (fp_circle (center -5 0) (end -3.1 0) (layer F.SilkS) (width 0.12))
  (fp_circle (center 25 0) (end 26.9 0) (layer F.SilkS) (width 0.12))
  (fp_circle (center -5 0) (end -2.82 0) (layer B.SilkS) (width 0.12))
  (fp_circle (center 25 0) (end 27.18 0) (layer B.SilkS) (width 0.12))
  (fp_circle (center 25 0) (end 27.1 0) (layer B.Fab) (width 0.1))
  (fp_circle (center -5 0) (end -2.9 0) (layer B.Fab) (width 0.1))
  (fp_circle (center 25 0) (end 27.6 0) (layer B.CrtYd) (width 0.05))
  (fp_circle (center -5 0) (end -2.4 0) (layer B.CrtYd) (width 0.05))
  (fp_line (start -7.58 -4.88) (end -7.58 3.88) (layer F.SilkS) (width 0.12))
  (fp_line (start -7.58 3.88) (end 27.58 3.88) (layer F.SilkS) (width 0.12))
  (fp_line (start 27.58 3.88) (end 27.58 -4.88) (layer F.SilkS) (width 0.12))
  (fp_line (start 27.58 -4.88) (end -7.58 -4.88) (layer F.SilkS) (width 0.12))
  (fp_line (start -7.5 -4.8) (end -7.5 3.8) (layer F.Fab) (width 0.1))
  (fp_line (start -7.5 3.8) (end 27.5 3.8) (layer F.Fab) (width 0.1))
  (fp_line (start 27.5 3.8) (end 27.5 -4.8) (layer F.Fab) (width 0.1))
  (fp_line (start 27.5 -4.8) (end -7.5 -4.8) (layer F.Fab) (width 0.1))
  (fp_line (start -7.58 -4.1) (end -6.08 -4.1) (layer F.SilkS) (width 0.12))
  (fp_line (start 27.58 -4.1) (end 26.08 -4.1) (layer F.SilkS) (width 0.12))
  (fp_line (start 1 -4.1) (end 4 -4.1) (layer F.SilkS) (width 0.12))
  (fp_line (start 6 -4.1) (end 9 -4.1) (layer F.SilkS) (width 0.12))
  (fp_line (start 11 -4.1) (end 14 -4.1) (layer F.SilkS) (width 0.12))
  (fp_line (start 16 -4.1) (end 19 -4.1) (layer F.SilkS) (width 0.12))
  (fp_line (start -6 -3.1) (end -6 -4.88) (layer F.SilkS) (width 0.12))
  (fp_line (start -6 -4.88) (end -4 -4.88) (layer F.SilkS) (width 0.12))
  (fp_line (start -4 -4.88) (end -4 -3.1) (layer F.SilkS) (width 0.12))
  (fp_line (start -4 -3.1) (end -6 -3.1) (layer F.SilkS) (width 0.12))
  (fp_line (start 24 -3.1) (end 24 -4.88) (layer F.SilkS) (width 0.12))
  (fp_line (start 24 -4.88) (end 26 -4.88) (layer F.SilkS) (width 0.12))
  (fp_line (start 26 -4.88) (end 26 -3.1) (layer F.SilkS) (width 0.12))
  (fp_line (start 26 -3.1) (end 24 -3.1) (layer F.SilkS) (width 0.12))
  (fp_line (start -4 -4.1) (end -1 -4.1) (layer F.SilkS) (width 0.12))
  (fp_line (start 21 -4.1) (end 24 -4.1) (layer F.SilkS) (width 0.12))
  (fp_line (start -1 -3.1) (end -1 -4.88) (layer F.SilkS) (width 0.12))
  (fp_line (start -1 -4.88) (end 1 -4.88) (layer F.SilkS) (width 0.12))
  (fp_line (start 1 -4.88) (end 1 -3.1) (layer F.SilkS) (width 0.12))
  (fp_line (start 1 -3.1) (end -1 -3.1) (layer F.SilkS) (width 0.12))
  (fp_line (start 4 -3.1) (end 4 -4.88) (layer F.SilkS) (width 0.12))
  (fp_line (start 4 -4.88) (end 6 -4.88) (layer F.SilkS) (width 0.12))
  (fp_line (start 6 -4.88) (end 6 -3.1) (layer F.SilkS) (width 0.12))
  (fp_line (start 6 -3.1) (end 4 -3.1) (layer F.SilkS) (width 0.12))
  (fp_line (start 9 -3.1) (end 9 -4.88) (layer F.SilkS) (width 0.12))
  (fp_line (start 9 -4.88) (end 11 -4.88) (layer F.SilkS) (width 0.12))
  (fp_line (start 11 -4.88) (end 11 -3.1) (layer F.SilkS) (width 0.12))
  (fp_line (start 11 -3.1) (end 9 -3.1) (layer F.SilkS) (width 0.12))
  (fp_line (start 14 -3.1) (end 14 -4.88) (layer F.SilkS) (width 0.12))
  (fp_line (start 14 -4.88) (end 16 -4.88) (layer F.SilkS) (width 0.12))
  (fp_line (start 16 -4.88) (end 16 -3.1) (layer F.SilkS) (width 0.12))
  (fp_line (start 16 -3.1) (end 14 -3.1) (layer F.SilkS) (width 0.12))
  (fp_line (start 19 -3.1) (end 19 -4.88) (layer F.SilkS) (width 0.12))
  (fp_line (start 19 -4.88) (end 21 -4.88) (layer F.SilkS) (width 0.12))
  (fp_line (start 21 -4.88) (end 21 -3.1) (layer F.SilkS) (width 0.12))
  (fp_line (start 21 -3.1) (end 19 -3.1) (layer F.SilkS) (width 0.12))
  (fp_line (start 2 2.2) (end 3 2.2) (layer F.SilkS) (width 0.12))
  (fp_line (start 7 2.2) (end 8 2.2) (layer F.SilkS) (width 0.12))
  (fp_line (start 12 2.2) (end 13 2.2) (layer F.SilkS) (width 0.12))
  (fp_line (start 17 2.2) (end 18 2.2) (layer F.SilkS) (width 0.12))
  (fp_line (start -2 2.2) (end -2.7 2.2) (layer F.SilkS) (width 0.12))
  (fp_line (start -2.7 2.2) (end -2.7 -3.1) (layer F.SilkS) (width 0.12))
  (fp_line (start -2.7 -3.1) (end 22.7 -3.1) (layer F.SilkS) (width 0.12))
  (fp_line (start 22.7 -3.1) (end 22.7 2.2) (layer F.SilkS) (width 0.12))
  (fp_line (start 22.7 2.2) (end 22 2.2) (layer F.SilkS) (width 0.12))
  (fp_line (start -8 -5.3) (end -8 4.3) (layer F.CrtYd) (width 0.05))
  (fp_line (start -8 4.3) (end 28 4.3) (layer F.CrtYd) (width 0.05))
  (fp_line (start 28 4.3) (end 28 -5.3) (layer F.CrtYd) (width 0.05))
  (fp_line (start 28 -5.3) (end -8 -5.3) (layer F.CrtYd) (width 0.05))
  (fp_line (start 0.3 -5.68) (end 0 -5.08) (layer F.SilkS) (width 0.12))
  (fp_line (start 0 -5.08) (end -0.3 -5.68) (layer F.SilkS) (width 0.12))
  (fp_line (start -0.3 -5.68) (end 0.3 -5.68) (layer F.SilkS) (width 0.12))
  (fp_line (start 0.5 -3.55) (end 0 -2.55) (layer F.Fab) (width 0.1))
  (fp_line (start 0 -2.55) (end -0.5 -3.55) (layer F.Fab) (width 0.1))
  (fp_line (start -0.5 -3.55) (end 0.5 -3.55) (layer F.Fab) (width 0.1))
  (pad 1 thru_hole rect (at 0 0) (size 2 3.6) (drill 1.4) (layers *.Cu *.Mask))
  (pad 2 thru_hole oval (at 5 0) (size 2 3.6) (drill 1.4) (layers *.Cu *.Mask))
  (pad 3 thru_hole oval (at 10 0) (size 2 3.6) (drill 1.4) (layers *.Cu *.Mask))
  (pad 4 thru_hole oval (at 15 0) (size 2 3.6) (drill 1.4) (layers *.Cu *.Mask))
  (pad 5 thru_hole oval (at 20 0) (size 2 3.6) (drill 1.4) (layers *.Cu *.Mask))
  (pad "" np_thru_hole circle (at -5 0) (size 2.4 2.4) (drill 2.4) (layers *.Cu *.Mask))
  (pad "" np_thru_hole circle (at 25 0) (size 2.4 2.4) (drill 2.4) (layers *.Cu *.Mask))
  (fp_text user %R (at 10 -3) (layer F.Fab)
    (effects (font (size 1 1) (thickness 0.15)))
  )
  (model ${KIPRJMOD}/kicad_libs_k/models_k.3d/Connector_Phoenix_MSTB_k.3dshapes/PhoenixContact_MSTBV_2,5_5-GF_1x05_P5.00mm_Vertical_ThreadedFlange_MountHole_k.wrl
    (at (xyz 0 0 0))
    (scale (xyz 1 1 1))
    (rotate (xyz 0 0 0))
  )
)