(module PhoenixContact_GMSTBVA_2,5_3-G_1x03_P7.50mm_Vertical (layer F.Cu) (tedit 5A00FA1F)
  (descr "Generic Phoenix Contact connector footprint for: GMSTBVA_2,5/3-G; number of pins: 03; pin pitch: 7.50mm; Vertical || order number: 1766673 12A 630V")
  (tags "phoenix_contact connector GMSTBVA_01x03_G_7.50mm")
  (fp_text reference REF** (at 7.5 -5.8) (layer F.SilkS)
    (effects (font (size 1 1) (thickness 0.15)))
  )
  (fp_text value PhoenixContact_GMSTBVA_2,5_3-G_1x03_P7.50mm_Vertical (at 7.5 4.8) (layer F.Fab)
    (effects (font (size 1 1) (thickness 0.15)))
  )
  (fp_arc (start 0 0.55) (end -2 2.2) (angle -100.5) (layer F.SilkS) (width 0.12))
  (fp_arc (start 7.5 0.55) (end 5.5 2.2) (angle -100.5) (layer F.SilkS) (width 0.12))
  (fp_arc (start 15 0.55) (end 13 2.2) (angle -100.5) (layer F.SilkS) (width 0.12))
  (fp_line (start -3.83 -4.88) (end -3.83 3.88) (layer F.SilkS) (width 0.12))
  (fp_line (start -3.83 3.88) (end 18.83 3.88) (layer F.SilkS) (width 0.12))
  (fp_line (start 18.83 3.88) (end 18.83 -4.88) (layer F.SilkS) (width 0.12))
  (fp_line (start 18.83 -4.88) (end -3.83 -4.88) (layer F.SilkS) (width 0.12))
  (fp_line (start -3.75 -4.8) (end -3.75 3.8) (layer F.Fab) (width 0.1))
  (fp_line (start -3.75 3.8) (end 18.75 3.8) (layer F.Fab) (width 0.1))
  (fp_line (start 18.75 3.8) (end 18.75 -4.8) (layer F.Fab) (width 0.1))
  (fp_line (start 18.75 -4.8) (end -3.75 -4.8) (layer F.Fab) (width 0.1))
  (fp_line (start -3.83 -4.1) (end -1.08 -4.1) (layer F.SilkS) (width 0.12))
  (fp_line (start 18.83 -4.1) (end 16.08 -4.1) (layer F.SilkS) (width 0.12))
  (fp_line (start 1 -4.1) (end 6.5 -4.1) (layer F.SilkS) (width 0.12))
  (fp_line (start 8.5 -4.1) (end 14 -4.1) (layer F.SilkS) (width 0.12))
  (fp_line (start -1 -3.1) (end -1 -4.88) (layer F.SilkS) (width 0.12))
  (fp_line (start -1 -4.88) (end 1 -4.88) (layer F.SilkS) (width 0.12))
  (fp_line (start 1 -4.88) (end 1 -3.1) (layer F.SilkS) (width 0.12))
  (fp_line (start 1 -3.1) (end -1 -3.1) (layer F.SilkS) (width 0.12))
  (fp_line (start 6.5 -3.1) (end 6.5 -4.88) (layer F.SilkS) (width 0.12))
  (fp_line (start 6.5 -4.88) (end 8.5 -4.88) (layer F.SilkS) (width 0.12))
  (fp_line (start 8.5 -4.88) (end 8.5 -3.1) (layer F.SilkS) (width 0.12))
  (fp_line (start 8.5 -3.1) (end 6.5 -3.1) (layer F.SilkS) (width 0.12))
  (fp_line (start 14 -3.1) (end 14 -4.88) (layer F.SilkS) (width 0.12))
  (fp_line (start 14 -4.88) (end 16 -4.88) (layer F.SilkS) (width 0.12))
  (fp_line (start 16 -4.88) (end 16 -3.1) (layer F.SilkS) (width 0.12))
  (fp_line (start 16 -3.1) (end 14 -3.1) (layer F.SilkS) (width 0.12))
  (fp_line (start 2 2.2) (end 5.5 2.2) (layer F.SilkS) (width 0.12))
  (fp_line (start 9.5 2.2) (end 13 2.2) (layer F.SilkS) (width 0.12))
  (fp_line (start -2 2.2) (end -2.95 2.2) (layer F.SilkS) (width 0.12))
  (fp_line (start -2.95 2.2) (end -2.95 -3.1) (layer F.SilkS) (width 0.12))
  (fp_line (start -2.95 -3.1) (end 17.95 -3.1) (layer F.SilkS) (width 0.12))
  (fp_line (start 17.95 -3.1) (end 17.95 2.2) (layer F.SilkS) (width 0.12))
  (fp_line (start 17.95 2.2) (end 17 2.2) (layer F.SilkS) (width 0.12))
  (fp_line (start -4.25 -5.3) (end -4.25 4.3) (layer F.CrtYd) (width 0.05))
  (fp_line (start -4.25 4.3) (end 19.25 4.3) (layer F.CrtYd) (width 0.05))
  (fp_line (start 19.25 4.3) (end 19.25 -5.3) (layer F.CrtYd) (width 0.05))
  (fp_line (start 19.25 -5.3) (end -4.25 -5.3) (layer F.CrtYd) (width 0.05))
  (fp_line (start 0.3 -5.68) (end 0 -5.08) (layer F.SilkS) (width 0.12))
  (fp_line (start 0 -5.08) (end -0.3 -5.68) (layer F.SilkS) (width 0.12))
  (fp_line (start -0.3 -5.68) (end 0.3 -5.68) (layer F.SilkS) (width 0.12))
  (fp_line (start 0.5 -3.55) (end 0 -2.55) (layer F.Fab) (width 0.1))
  (fp_line (start 0 -2.55) (end -0.5 -3.55) (layer F.Fab) (width 0.1))
  (fp_line (start -0.5 -3.55) (end 0.5 -3.55) (layer F.Fab) (width 0.1))
  (pad 1 thru_hole rect (at 0 0) (size 2 3.6) (drill 1.4) (layers *.Cu *.Mask))
  (pad 2 thru_hole oval (at 7.5 0) (size 2 3.6) (drill 1.4) (layers *.Cu *.Mask))
  (pad 3 thru_hole oval (at 15 0) (size 2 3.6) (drill 1.4) (layers *.Cu *.Mask))
  (fp_text user %R (at 7.5 -3) (layer F.Fab)
    (effects (font (size 1 1) (thickness 0.15)))
  )
  (model ${KIPRJMOD}/kicad_libs_k/models_k.3d/Connector_Phoenix_MSTB_k.3dshapes/PhoenixContact_GMSTBVA_2,5_3-G_1x03_P7.50mm_Vertical_k.wrl
    (at (xyz 0 0 0))
    (scale (xyz 1 1 1))
    (rotate (xyz 0 0 0))
  )
)