(module PhoenixContact_MSTB_2,5_9-GF_1x09_P5.00mm_Horizontal_ThreadedFlange (layer F.Cu) (tedit 5A00FA1D)
  (descr "Generic Phoenix Contact connector footprint for: MSTB_2,5/9-GF; number of pins: 09; pin pitch: 5.00mm; Angled; threaded flange || order number: 1776760 12A || order number: 1924046 16A (HC)")
  (tags "phoenix_contact connector MSTB_01x09_GF_5.00mm")
  (fp_text reference REF** (at 20 -3) (layer F.SilkS)
    (effects (font (size 1 1) (thickness 0.15)))
  )
  (fp_text value PhoenixContact_MSTB_2,5_9-GF_1x09_P5.00mm_Horizontal_ThreadedFlange (at 20 11) (layer F.Fab)
    (effects (font (size 1 1) (thickness 0.15)))
  )
  (fp_line (start -7.58 -2.08) (end -7.58 10.08) (layer F.SilkS) (width 0.12))
  (fp_line (start -7.58 10.08) (end 47.58 10.08) (layer F.SilkS) (width 0.12))
  (fp_line (start 47.58 10.08) (end 47.58 -2.08) (layer F.SilkS) (width 0.12))
  (fp_line (start 47.58 -2.08) (end -7.58 -2.08) (layer F.SilkS) (width 0.12))
  (fp_line (start -7.5 -2) (end -7.5 10) (layer F.Fab) (width 0.1))
  (fp_line (start -7.5 10) (end 47.5 10) (layer F.Fab) (width 0.1))
  (fp_line (start 47.5 10) (end 47.5 -2) (layer F.Fab) (width 0.1))
  (fp_line (start 47.5 -2) (end -7.5 -2) (layer F.Fab) (width 0.1))
  (fp_line (start -7.58 8.58) (end -7.58 6.78) (layer F.SilkS) (width 0.12))
  (fp_line (start -7.58 6.78) (end 47.58 6.78) (layer F.SilkS) (width 0.12))
  (fp_line (start 47.58 6.78) (end 47.58 8.58) (layer F.SilkS) (width 0.12))
  (fp_line (start 47.58 8.58) (end -7.58 8.58) (layer F.SilkS) (width 0.12))
  (fp_line (start -6 10.08) (end -4 10.08) (layer F.SilkS) (width 0.12))
  (fp_line (start -4 10.08) (end -4.25 8.58) (layer F.SilkS) (width 0.12))
  (fp_line (start -4.25 8.58) (end -5.75 8.58) (layer F.SilkS) (width 0.12))
  (fp_line (start -5.75 8.58) (end -6 10.08) (layer F.SilkS) (width 0.12))
  (fp_line (start 44 10.08) (end 46 10.08) (layer F.SilkS) (width 0.12))
  (fp_line (start 46 10.08) (end 45.75 8.58) (layer F.SilkS) (width 0.12))
  (fp_line (start 45.75 8.58) (end 44.25 8.58) (layer F.SilkS) (width 0.12))
  (fp_line (start 44.25 8.58) (end 44 10.08) (layer F.SilkS) (width 0.12))
  (fp_line (start -1 10.08) (end 1 10.08) (layer F.SilkS) (width 0.12))
  (fp_line (start 1 10.08) (end 0.75 8.58) (layer F.SilkS) (width 0.12))
  (fp_line (start 0.75 8.58) (end -0.75 8.58) (layer F.SilkS) (width 0.12))
  (fp_line (start -0.75 8.58) (end -1 10.08) (layer F.SilkS) (width 0.12))
  (fp_line (start 4 10.08) (end 6 10.08) (layer F.SilkS) (width 0.12))
  (fp_line (start 6 10.08) (end 5.75 8.58) (layer F.SilkS) (width 0.12))
  (fp_line (start 5.75 8.58) (end 4.25 8.58) (layer F.SilkS) (width 0.12))
  (fp_line (start 4.25 8.58) (end 4 10.08) (layer F.SilkS) (width 0.12))
  (fp_line (start 9 10.08) (end 11 10.08) (layer F.SilkS) (width 0.12))
  (fp_line (start 11 10.08) (end 10.75 8.58) (layer F.SilkS) (width 0.12))
  (fp_line (start 10.75 8.58) (end 9.25 8.58) (layer F.SilkS) (width 0.12))
  (fp_line (start 9.25 8.58) (end 9 10.08) (layer F.SilkS) (width 0.12))
  (fp_line (start 14 10.08) (end 16 10.08) (layer F.SilkS) (width 0.12))
  (fp_line (start 16 10.08) (end 15.75 8.58) (layer F.SilkS) (width 0.12))
  (fp_line (start 15.75 8.58) (end 14.25 8.58) (layer F.SilkS) (width 0.12))
  (fp_line (start 14.25 8.58) (end 14 10.08) (layer F.SilkS) (width 0.12))
  (fp_line (start 19 10.08) (end 21 10.08) (layer F.SilkS) (width 0.12))
  (fp_line (start 21 10.08) (end 20.75 8.58) (layer F.SilkS) (width 0.12))
  (fp_line (start 20.75 8.58) (end 19.25 8.58) (layer F.SilkS) (width 0.12))
  (fp_line (start 19.25 8.58) (end 19 10.08) (layer F.SilkS) (width 0.12))
  (fp_line (start 24 10.08) (end 26 10.08) (layer F.SilkS) (width 0.12))
  (fp_line (start 26 10.08) (end 25.75 8.58) (layer F.SilkS) (width 0.12))
  (fp_line (start 25.75 8.58) (end 24.25 8.58) (layer F.SilkS) (width 0.12))
  (fp_line (start 24.25 8.58) (end 24 10.08) (layer F.SilkS) (width 0.12))
  (fp_line (start 29 10.08) (end 31 10.08) (layer F.SilkS) (width 0.12))
  (fp_line (start 31 10.08) (end 30.75 8.58) (layer F.SilkS) (width 0.12))
  (fp_line (start 30.75 8.58) (end 29.25 8.58) (layer F.SilkS) (width 0.12))
  (fp_line (start 29.25 8.58) (end 29 10.08) (layer F.SilkS) (width 0.12))
  (fp_line (start 34 10.08) (end 36 10.08) (layer F.SilkS) (width 0.12))
  (fp_line (start 36 10.08) (end 35.75 8.58) (layer F.SilkS) (width 0.12))
  (fp_line (start 35.75 8.58) (end 34.25 8.58) (layer F.SilkS) (width 0.12))
  (fp_line (start 34.25 8.58) (end 34 10.08) (layer F.SilkS) (width 0.12))
  (fp_line (start 39 10.08) (end 41 10.08) (layer F.SilkS) (width 0.12))
  (fp_line (start 41 10.08) (end 40.75 8.58) (layer F.SilkS) (width 0.12))
  (fp_line (start 40.75 8.58) (end 39.25 8.58) (layer F.SilkS) (width 0.12))
  (fp_line (start 39.25 8.58) (end 39 10.08) (layer F.SilkS) (width 0.12))
  (fp_line (start -8 -2.5) (end -8 10.5) (layer F.CrtYd) (width 0.05))
  (fp_line (start -8 10.5) (end 48 10.5) (layer F.CrtYd) (width 0.05))
  (fp_line (start 48 10.5) (end 48 -2.5) (layer F.CrtYd) (width 0.05))
  (fp_line (start 48 -2.5) (end -8 -2.5) (layer F.CrtYd) (width 0.05))
  (fp_line (start 0.3 -2.88) (end 0 -2.28) (layer F.SilkS) (width 0.12))
  (fp_line (start 0 -2.28) (end -0.3 -2.88) (layer F.SilkS) (width 0.12))
  (fp_line (start -0.3 -2.88) (end 0.3 -2.88) (layer F.SilkS) (width 0.12))
  (fp_line (start 0.95 -2) (end 0 -0.5) (layer F.Fab) (width 0.1))
  (fp_line (start 0 -0.5) (end -0.95 -2) (layer F.Fab) (width 0.1))
  (pad 1 thru_hole rect (at 0 0) (size 2 3.6) (drill 1.4) (layers *.Cu *.Mask))
  (pad 2 thru_hole oval (at 5 0) (size 2 3.6) (drill 1.4) (layers *.Cu *.Mask))
  (pad 3 thru_hole oval (at 10 0) (size 2 3.6) (drill 1.4) (layers *.Cu *.Mask))
  (pad 4 thru_hole oval (at 15 0) (size 2 3.6) (drill 1.4) (layers *.Cu *.Mask))
  (pad 5 thru_hole oval (at 20 0) (size 2 3.6) (drill 1.4) (layers *.Cu *.Mask))
  (pad 6 thru_hole oval (at 25 0) (size 2 3.6) (drill 1.4) (layers *.Cu *.Mask))
  (pad 7 thru_hole oval (at 30 0) (size 2 3.6) (drill 1.4) (layers *.Cu *.Mask))
  (pad 8 thru_hole oval (at 35 0) (size 2 3.6) (drill 1.4) (layers *.Cu *.Mask))
  (pad 9 thru_hole oval (at 40 0) (size 2 3.6) (drill 1.4) (layers *.Cu *.Mask))
  (fp_text user %R (at 20 3) (layer F.Fab)
    (effects (font (size 1 1) (thickness 0.15)))
  )
  (model ${KIPRJMOD}/kicad_libs_k/models_k.3d/Connector_Phoenix_MSTB_k.3dshapes/PhoenixContact_MSTB_2,5_9-GF_1x09_P5.00mm_Horizontal_ThreadedFlange_k.wrl
    (at (xyz 0 0 0))
    (scale (xyz 1 1 1))
    (rotate (xyz 0 0 0))
  )
)