(module PhoenixContact_MSTBVA_2,5_15-G_1x15_P5.00mm_Vertical (layer F.Cu) (tedit 5A00FA1E)
  (descr "Generic Phoenix Contact connector footprint for: MSTBVA_2,5/15-G; number of pins: 15; pin pitch: 5.00mm; Vertical || order number: 1755639 12A")
  (tags "phoenix_contact connector MSTBVA_01x15_G_5.00mm")
  (fp_text reference REF** (at 35 -5.8) (layer F.SilkS)
    (effects (font (size 1 1) (thickness 0.15)))
  )
  (fp_text value PhoenixContact_MSTBVA_2,5_15-G_1x15_P5.00mm_Vertical (at 35 4.8) (layer F.Fab)
    (effects (font (size 1 1) (thickness 0.15)))
  )
  (fp_arc (start 0 0.55) (end -2 2.2) (angle -100.5) (layer F.SilkS) (width 0.12))
  (fp_arc (start 5 0.55) (end 3 2.2) (angle -100.5) (layer F.SilkS) (width 0.12))
  (fp_arc (start 10 0.55) (end 8 2.2) (angle -100.5) (layer F.SilkS) (width 0.12))
  (fp_arc (start 15 0.55) (end 13 2.2) (angle -100.5) (layer F.SilkS) (width 0.12))
  (fp_arc (start 20 0.55) (end 18 2.2) (angle -100.5) (layer F.SilkS) (width 0.12))
  (fp_arc (start 25 0.55) (end 23 2.2) (angle -100.5) (layer F.SilkS) (width 0.12))
  (fp_arc (start 30 0.55) (end 28 2.2) (angle -100.5) (layer F.SilkS) (width 0.12))
  (fp_arc (start 35 0.55) (end 33 2.2) (angle -100.5) (layer F.SilkS) (width 0.12))
  (fp_arc (start 40 0.55) (end 38 2.2) (angle -100.5) (layer F.SilkS) (width 0.12))
  (fp_arc (start 45 0.55) (end 43 2.2) (angle -100.5) (layer F.SilkS) (width 0.12))
  (fp_arc (start 50 0.55) (end 48 2.2) (angle -100.5) (layer F.SilkS) (width 0.12))
  (fp_arc (start 55 0.55) (end 53 2.2) (angle -100.5) (layer F.SilkS) (width 0.12))
  (fp_arc (start 60 0.55) (end 58 2.2) (angle -100.5) (layer F.SilkS) (width 0.12))
  (fp_arc (start 65 0.55) (end 63 2.2) (angle -100.5) (layer F.SilkS) (width 0.12))
  (fp_arc (start 70 0.55) (end 68 2.2) (angle -100.5) (layer F.SilkS) (width 0.12))
  (fp_line (start -3.58 -4.88) (end -3.58 3.88) (layer F.SilkS) (width 0.12))
  (fp_line (start -3.58 3.88) (end 73.58 3.88) (layer F.SilkS) (width 0.12))
  (fp_line (start 73.58 3.88) (end 73.58 -4.88) (layer F.SilkS) (width 0.12))
  (fp_line (start 73.58 -4.88) (end -3.58 -4.88) (layer F.SilkS) (width 0.12))
  (fp_line (start -3.5 -4.8) (end -3.5 3.8) (layer F.Fab) (width 0.1))
  (fp_line (start -3.5 3.8) (end 73.5 3.8) (layer F.Fab) (width 0.1))
  (fp_line (start 73.5 3.8) (end 73.5 -4.8) (layer F.Fab) (width 0.1))
  (fp_line (start 73.5 -4.8) (end -3.5 -4.8) (layer F.Fab) (width 0.1))
  (fp_line (start -3.58 -4.1) (end -1.08 -4.1) (layer F.SilkS) (width 0.12))
  (fp_line (start 73.58 -4.1) (end 71.08 -4.1) (layer F.SilkS) (width 0.12))
  (fp_line (start 1 -4.1) (end 4 -4.1) (layer F.SilkS) (width 0.12))
  (fp_line (start 6 -4.1) (end 9 -4.1) (layer F.SilkS) (width 0.12))
  (fp_line (start 11 -4.1) (end 14 -4.1) (layer F.SilkS) (width 0.12))
  (fp_line (start 16 -4.1) (end 19 -4.1) (layer F.SilkS) (width 0.12))
  (fp_line (start 21 -4.1) (end 24 -4.1) (layer F.SilkS) (width 0.12))
  (fp_line (start 26 -4.1) (end 29 -4.1) (layer F.SilkS) (width 0.12))
  (fp_line (start 31 -4.1) (end 34 -4.1) (layer F.SilkS) (width 0.12))
  (fp_line (start 36 -4.1) (end 39 -4.1) (layer F.SilkS) (width 0.12))
  (fp_line (start 41 -4.1) (end 44 -4.1) (layer F.SilkS) (width 0.12))
  (fp_line (start 46 -4.1) (end 49 -4.1) (layer F.SilkS) (width 0.12))
  (fp_line (start 51 -4.1) (end 54 -4.1) (layer F.SilkS) (width 0.12))
  (fp_line (start 56 -4.1) (end 59 -4.1) (layer F.SilkS) (width 0.12))
  (fp_line (start 61 -4.1) (end 64 -4.1) (layer F.SilkS) (width 0.12))
  (fp_line (start 66 -4.1) (end 69 -4.1) (layer F.SilkS) (width 0.12))
  (fp_line (start -1 -3.1) (end -1 -4.88) (layer F.SilkS) (width 0.12))
  (fp_line (start -1 -4.88) (end 1 -4.88) (layer F.SilkS) (width 0.12))
  (fp_line (start 1 -4.88) (end 1 -3.1) (layer F.SilkS) (width 0.12))
  (fp_line (start 1 -3.1) (end -1 -3.1) (layer F.SilkS) (width 0.12))
  (fp_line (start 4 -3.1) (end 4 -4.88) (layer F.SilkS) (width 0.12))
  (fp_line (start 4 -4.88) (end 6 -4.88) (layer F.SilkS) (width 0.12))
  (fp_line (start 6 -4.88) (end 6 -3.1) (layer F.SilkS) (width 0.12))
  (fp_line (start 6 -3.1) (end 4 -3.1) (layer F.SilkS) (width 0.12))
  (fp_line (start 9 -3.1) (end 9 -4.88) (layer F.SilkS) (width 0.12))
  (fp_line (start 9 -4.88) (end 11 -4.88) (layer F.SilkS) (width 0.12))
  (fp_line (start 11 -4.88) (end 11 -3.1) (layer F.SilkS) (width 0.12))
  (fp_line (start 11 -3.1) (end 9 -3.1) (layer F.SilkS) (width 0.12))
  (fp_line (start 14 -3.1) (end 14 -4.88) (layer F.SilkS) (width 0.12))
  (fp_line (start 14 -4.88) (end 16 -4.88) (layer F.SilkS) (width 0.12))
  (fp_line (start 16 -4.88) (end 16 -3.1) (layer F.SilkS) (width 0.12))
  (fp_line (start 16 -3.1) (end 14 -3.1) (layer F.SilkS) (width 0.12))
  (fp_line (start 19 -3.1) (end 19 -4.88) (layer F.SilkS) (width 0.12))
  (fp_line (start 19 -4.88) (end 21 -4.88) (layer F.SilkS) (width 0.12))
  (fp_line (start 21 -4.88) (end 21 -3.1) (layer F.SilkS) (width 0.12))
  (fp_line (start 21 -3.1) (end 19 -3.1) (layer F.SilkS) (width 0.12))
  (fp_line (start 24 -3.1) (end 24 -4.88) (layer F.SilkS) (width 0.12))
  (fp_line (start 24 -4.88) (end 26 -4.88) (layer F.SilkS) (width 0.12))
  (fp_line (start 26 -4.88) (end 26 -3.1) (layer F.SilkS) (width 0.12))
  (fp_line (start 26 -3.1) (end 24 -3.1) (layer F.SilkS) (width 0.12))
  (fp_line (start 29 -3.1) (end 29 -4.88) (layer F.SilkS) (width 0.12))
  (fp_line (start 29 -4.88) (end 31 -4.88) (layer F.SilkS) (width 0.12))
  (fp_line (start 31 -4.88) (end 31 -3.1) (layer F.SilkS) (width 0.12))
  (fp_line (start 31 -3.1) (end 29 -3.1) (layer F.SilkS) (width 0.12))
  (fp_line (start 34 -3.1) (end 34 -4.88) (layer F.SilkS) (width 0.12))
  (fp_line (start 34 -4.88) (end 36 -4.88) (layer F.SilkS) (width 0.12))
  (fp_line (start 36 -4.88) (end 36 -3.1) (layer F.SilkS) (width 0.12))
  (fp_line (start 36 -3.1) (end 34 -3.1) (layer F.SilkS) (width 0.12))
  (fp_line (start 39 -3.1) (end 39 -4.88) (layer F.SilkS) (width 0.12))
  (fp_line (start 39 -4.88) (end 41 -4.88) (layer F.SilkS) (width 0.12))
  (fp_line (start 41 -4.88) (end 41 -3.1) (layer F.SilkS) (width 0.12))
  (fp_line (start 41 -3.1) (end 39 -3.1) (layer F.SilkS) (width 0.12))
  (fp_line (start 44 -3.1) (end 44 -4.88) (layer F.SilkS) (width 0.12))
  (fp_line (start 44 -4.88) (end 46 -4.88) (layer F.SilkS) (width 0.12))
  (fp_line (start 46 -4.88) (end 46 -3.1) (layer F.SilkS) (width 0.12))
  (fp_line (start 46 -3.1) (end 44 -3.1) (layer F.SilkS) (width 0.12))
  (fp_line (start 49 -3.1) (end 49 -4.88) (layer F.SilkS) (width 0.12))
  (fp_line (start 49 -4.88) (end 51 -4.88) (layer F.SilkS) (width 0.12))
  (fp_line (start 51 -4.88) (end 51 -3.1) (layer F.SilkS) (width 0.12))
  (fp_line (start 51 -3.1) (end 49 -3.1) (layer F.SilkS) (width 0.12))
  (fp_line (start 54 -3.1) (end 54 -4.88) (layer F.SilkS) (width 0.12))
  (fp_line (start 54 -4.88) (end 56 -4.88) (layer F.SilkS) (width 0.12))
  (fp_line (start 56 -4.88) (end 56 -3.1) (layer F.SilkS) (width 0.12))
  (fp_line (start 56 -3.1) (end 54 -3.1) (layer F.SilkS) (width 0.12))
  (fp_line (start 59 -3.1) (end 59 -4.88) (layer F.SilkS) (width 0.12))
  (fp_line (start 59 -4.88) (end 61 -4.88) (layer F.SilkS) (width 0.12))
  (fp_line (start 61 -4.88) (end 61 -3.1) (layer F.SilkS) (width 0.12))
  (fp_line (start 61 -3.1) (end 59 -3.1) (layer F.SilkS) (width 0.12))
  (fp_line (start 64 -3.1) (end 64 -4.88) (layer F.SilkS) (width 0.12))
  (fp_line (start 64 -4.88) (end 66 -4.88) (layer F.SilkS) (width 0.12))
  (fp_line (start 66 -4.88) (end 66 -3.1) (layer F.SilkS) (width 0.12))
  (fp_line (start 66 -3.1) (end 64 -3.1) (layer F.SilkS) (width 0.12))
  (fp_line (start 69 -3.1) (end 69 -4.88) (layer F.SilkS) (width 0.12))
  (fp_line (start 69 -4.88) (end 71 -4.88) (layer F.SilkS) (width 0.12))
  (fp_line (start 71 -4.88) (end 71 -3.1) (layer F.SilkS) (width 0.12))
  (fp_line (start 71 -3.1) (end 69 -3.1) (layer F.SilkS) (width 0.12))
  (fp_line (start 2 2.2) (end 3 2.2) (layer F.SilkS) (width 0.12))
  (fp_line (start 7 2.2) (end 8 2.2) (layer F.SilkS) (width 0.12))
  (fp_line (start 12 2.2) (end 13 2.2) (layer F.SilkS) (width 0.12))
  (fp_line (start 17 2.2) (end 18 2.2) (layer F.SilkS) (width 0.12))
  (fp_line (start 22 2.2) (end 23 2.2) (layer F.SilkS) (width 0.12))
  (fp_line (start 27 2.2) (end 28 2.2) (layer F.SilkS) (width 0.12))
  (fp_line (start 32 2.2) (end 33 2.2) (layer F.SilkS) (width 0.12))
  (fp_line (start 37 2.2) (end 38 2.2) (layer F.SilkS) (width 0.12))
  (fp_line (start 42 2.2) (end 43 2.2) (layer F.SilkS) (width 0.12))
  (fp_line (start 47 2.2) (end 48 2.2) (layer F.SilkS) (width 0.12))
  (fp_line (start 52 2.2) (end 53 2.2) (layer F.SilkS) (width 0.12))
  (fp_line (start 57 2.2) (end 58 2.2) (layer F.SilkS) (width 0.12))
  (fp_line (start 62 2.2) (end 63 2.2) (layer F.SilkS) (width 0.12))
  (fp_line (start 67 2.2) (end 68 2.2) (layer F.SilkS) (width 0.12))
  (fp_line (start -2 2.2) (end -2.7 2.2) (layer F.SilkS) (width 0.12))
  (fp_line (start -2.7 2.2) (end -2.7 -3.1) (layer F.SilkS) (width 0.12))
  (fp_line (start -2.7 -3.1) (end 72.7 -3.1) (layer F.SilkS) (width 0.12))
  (fp_line (start 72.7 -3.1) (end 72.7 2.2) (layer F.SilkS) (width 0.12))
  (fp_line (start 72.7 2.2) (end 72 2.2) (layer F.SilkS) (width 0.12))
  (fp_line (start -4 -5.3) (end -4 4.3) (layer F.CrtYd) (width 0.05))
  (fp_line (start -4 4.3) (end 74 4.3) (layer F.CrtYd) (width 0.05))
  (fp_line (start 74 4.3) (end 74 -5.3) (layer F.CrtYd) (width 0.05))
  (fp_line (start 74 -5.3) (end -4 -5.3) (layer F.CrtYd) (width 0.05))
  (fp_line (start 0.3 -5.68) (end 0 -5.08) (layer F.SilkS) (width 0.12))
  (fp_line (start 0 -5.08) (end -0.3 -5.68) (layer F.SilkS) (width 0.12))
  (fp_line (start -0.3 -5.68) (end 0.3 -5.68) (layer F.SilkS) (width 0.12))
  (fp_line (start 0.5 -3.55) (end 0 -2.55) (layer F.Fab) (width 0.1))
  (fp_line (start 0 -2.55) (end -0.5 -3.55) (layer F.Fab) (width 0.1))
  (fp_line (start -0.5 -3.55) (end 0.5 -3.55) (layer F.Fab) (width 0.1))
  (pad 1 thru_hole rect (at 0 0) (size 2 3.6) (drill 1.4) (layers *.Cu *.Mask))
  (pad 2 thru_hole oval (at 5 0) (size 2 3.6) (drill 1.4) (layers *.Cu *.Mask))
  (pad 3 thru_hole oval (at 10 0) (size 2 3.6) (drill 1.4) (layers *.Cu *.Mask))
  (pad 4 thru_hole oval (at 15 0) (size 2 3.6) (drill 1.4) (layers *.Cu *.Mask))
  (pad 5 thru_hole oval (at 20 0) (size 2 3.6) (drill 1.4) (layers *.Cu *.Mask))
  (pad 6 thru_hole oval (at 25 0) (size 2 3.6) (drill 1.4) (layers *.Cu *.Mask))
  (pad 7 thru_hole oval (at 30 0) (size 2 3.6) (drill 1.4) (layers *.Cu *.Mask))
  (pad 8 thru_hole oval (at 35 0) (size 2 3.6) (drill 1.4) (layers *.Cu *.Mask))
  (pad 9 thru_hole oval (at 40 0) (size 2 3.6) (drill 1.4) (layers *.Cu *.Mask))
  (pad 10 thru_hole oval (at 45 0) (size 2 3.6) (drill 1.4) (layers *.Cu *.Mask))
  (pad 11 thru_hole oval (at 50 0) (size 2 3.6) (drill 1.4) (layers *.Cu *.Mask))
  (pad 12 thru_hole oval (at 55 0) (size 2 3.6) (drill 1.4) (layers *.Cu *.Mask))
  (pad 13 thru_hole oval (at 60 0) (size 2 3.6) (drill 1.4) (layers *.Cu *.Mask))
  (pad 14 thru_hole oval (at 65 0) (size 2 3.6) (drill 1.4) (layers *.Cu *.Mask))
  (pad 15 thru_hole oval (at 70 0) (size 2 3.6) (drill 1.4) (layers *.Cu *.Mask))
  (fp_text user %R (at 35 -3) (layer F.Fab)
    (effects (font (size 1 1) (thickness 0.15)))
  )
  (model ${KIPRJMOD}/kicad_libs_k/models_k.3d/Connector_Phoenix_MSTB_k.3dshapes/PhoenixContact_MSTBVA_2,5_15-G_1x15_P5.00mm_Vertical_k.wrl
    (at (xyz 0 0 0))
    (scale (xyz 1 1 1))
    (rotate (xyz 0 0 0))
  )
)