(module PhoenixContact_MSTBV_2,5_8-GF-5,08_1x08_P5.08mm_Vertical_ThreadedFlange (layer F.Cu) (tedit 5A00FA1E)
  (descr "Generic Phoenix Contact connector footprint for: MSTBV_2,5/8-GF-5,08; number of pins: 08; pin pitch: 5.08mm; Vertical; threaded flange || order number: 1777138 12A || order number: 1924583 16A (HC)")
  (tags "phoenix_contact connector MSTBV_01x08_GF_5.08mm")
  (fp_text reference REF** (at 17.78 -5.8) (layer F.SilkS)
    (effects (font (size 1 1) (thickness 0.15)))
  )
  (fp_text value PhoenixContact_MSTBV_2,5_8-GF-5,08_1x08_P5.08mm_Vertical_ThreadedFlange (at 17.78 4.8) (layer F.Fab)
    (effects (font (size 1 1) (thickness 0.15)))
  )
  (fp_arc (start 0 0.55) (end -2 2.2) (angle -100.5) (layer F.SilkS) (width 0.12))
  (fp_arc (start 5.08 0.55) (end 3.08 2.2) (angle -100.5) (layer F.SilkS) (width 0.12))
  (fp_arc (start 10.16 0.55) (end 8.16 2.2) (angle -100.5) (layer F.SilkS) (width 0.12))
  (fp_arc (start 15.24 0.55) (end 13.24 2.2) (angle -100.5) (layer F.SilkS) (width 0.12))
  (fp_arc (start 20.32 0.55) (end 18.32 2.2) (angle -100.5) (layer F.SilkS) (width 0.12))
  (fp_arc (start 25.4 0.55) (end 23.4 2.2) (angle -100.5) (layer F.SilkS) (width 0.12))
  (fp_arc (start 30.48 0.55) (end 28.48 2.2) (angle -100.5) (layer F.SilkS) (width 0.12))
  (fp_arc (start 35.56 0.55) (end 33.56 2.2) (angle -100.5) (layer F.SilkS) (width 0.12))
  (fp_circle (center -5.08 0) (end -3.18 0) (layer F.SilkS) (width 0.12))
  (fp_circle (center 40.64 0) (end 42.54 0) (layer F.SilkS) (width 0.12))
  (fp_circle (center -5.08 0) (end -4.08 0) (layer F.SilkS) (width 0.12))
  (fp_circle (center 40.64 0) (end 41.64 0) (layer F.SilkS) (width 0.12))
  (fp_line (start -7.7 -4.88) (end -7.7 3.88) (layer F.SilkS) (width 0.12))
  (fp_line (start -7.7 3.88) (end 43.26 3.88) (layer F.SilkS) (width 0.12))
  (fp_line (start 43.26 3.88) (end 43.26 -4.88) (layer F.SilkS) (width 0.12))
  (fp_line (start 43.26 -4.88) (end -7.7 -4.88) (layer F.SilkS) (width 0.12))
  (fp_line (start -7.62 -4.8) (end -7.62 3.8) (layer F.Fab) (width 0.1))
  (fp_line (start -7.62 3.8) (end 43.18 3.8) (layer F.Fab) (width 0.1))
  (fp_line (start 43.18 3.8) (end 43.18 -4.8) (layer F.Fab) (width 0.1))
  (fp_line (start 43.18 -4.8) (end -7.62 -4.8) (layer F.Fab) (width 0.1))
  (fp_line (start -7.7 -4.1) (end -6.16 -4.1) (layer F.SilkS) (width 0.12))
  (fp_line (start 43.26 -4.1) (end 41.72 -4.1) (layer F.SilkS) (width 0.12))
  (fp_line (start 1 -4.1) (end 4.08 -4.1) (layer F.SilkS) (width 0.12))
  (fp_line (start 6.08 -4.1) (end 9.16 -4.1) (layer F.SilkS) (width 0.12))
  (fp_line (start 11.16 -4.1) (end 14.24 -4.1) (layer F.SilkS) (width 0.12))
  (fp_line (start 16.24 -4.1) (end 19.32 -4.1) (layer F.SilkS) (width 0.12))
  (fp_line (start 21.32 -4.1) (end 24.4 -4.1) (layer F.SilkS) (width 0.12))
  (fp_line (start 26.4 -4.1) (end 29.48 -4.1) (layer F.SilkS) (width 0.12))
  (fp_line (start 31.48 -4.1) (end 34.56 -4.1) (layer F.SilkS) (width 0.12))
  (fp_line (start -6.08 -3.1) (end -6.08 -4.88) (layer F.SilkS) (width 0.12))
  (fp_line (start -6.08 -4.88) (end -4.08 -4.88) (layer F.SilkS) (width 0.12))
  (fp_line (start -4.08 -4.88) (end -4.08 -3.1) (layer F.SilkS) (width 0.12))
  (fp_line (start -4.08 -3.1) (end -6.08 -3.1) (layer F.SilkS) (width 0.12))
  (fp_line (start 39.64 -3.1) (end 39.64 -4.88) (layer F.SilkS) (width 0.12))
  (fp_line (start 39.64 -4.88) (end 41.64 -4.88) (layer F.SilkS) (width 0.12))
  (fp_line (start 41.64 -4.88) (end 41.64 -3.1) (layer F.SilkS) (width 0.12))
  (fp_line (start 41.64 -3.1) (end 39.64 -3.1) (layer F.SilkS) (width 0.12))
  (fp_line (start -4.08 -4.1) (end -1 -4.1) (layer F.SilkS) (width 0.12))
  (fp_line (start 36.56 -4.1) (end 39.64 -4.1) (layer F.SilkS) (width 0.12))
  (fp_line (start -1 -3.1) (end -1 -4.88) (layer F.SilkS) (width 0.12))
  (fp_line (start -1 -4.88) (end 1 -4.88) (layer F.SilkS) (width 0.12))
  (fp_line (start 1 -4.88) (end 1 -3.1) (layer F.SilkS) (width 0.12))
  (fp_line (start 1 -3.1) (end -1 -3.1) (layer F.SilkS) (width 0.12))
  (fp_line (start 4.08 -3.1) (end 4.08 -4.88) (layer F.SilkS) (width 0.12))
  (fp_line (start 4.08 -4.88) (end 6.08 -4.88) (layer F.SilkS) (width 0.12))
  (fp_line (start 6.08 -4.88) (end 6.08 -3.1) (layer F.SilkS) (width 0.12))
  (fp_line (start 6.08 -3.1) (end 4.08 -3.1) (layer F.SilkS) (width 0.12))
  (fp_line (start 9.16 -3.1) (end 9.16 -4.88) (layer F.SilkS) (width 0.12))
  (fp_line (start 9.16 -4.88) (end 11.16 -4.88) (layer F.SilkS) (width 0.12))
  (fp_line (start 11.16 -4.88) (end 11.16 -3.1) (layer F.SilkS) (width 0.12))
  (fp_line (start 11.16 -3.1) (end 9.16 -3.1) (layer F.SilkS) (width 0.12))
  (fp_line (start 14.24 -3.1) (end 14.24 -4.88) (layer F.SilkS) (width 0.12))
  (fp_line (start 14.24 -4.88) (end 16.24 -4.88) (layer F.SilkS) (width 0.12))
  (fp_line (start 16.24 -4.88) (end 16.24 -3.1) (layer F.SilkS) (width 0.12))
  (fp_line (start 16.24 -3.1) (end 14.24 -3.1) (layer F.SilkS) (width 0.12))
  (fp_line (start 19.32 -3.1) (end 19.32 -4.88) (layer F.SilkS) (width 0.12))
  (fp_line (start 19.32 -4.88) (end 21.32 -4.88) (layer F.SilkS) (width 0.12))
  (fp_line (start 21.32 -4.88) (end 21.32 -3.1) (layer F.SilkS) (width 0.12))
  (fp_line (start 21.32 -3.1) (end 19.32 -3.1) (layer F.SilkS) (width 0.12))
  (fp_line (start 24.4 -3.1) (end 24.4 -4.88) (layer F.SilkS) (width 0.12))
  (fp_line (start 24.4 -4.88) (end 26.4 -4.88) (layer F.SilkS) (width 0.12))
  (fp_line (start 26.4 -4.88) (end 26.4 -3.1) (layer F.SilkS) (width 0.12))
  (fp_line (start 26.4 -3.1) (end 24.4 -3.1) (layer F.SilkS) (width 0.12))
  (fp_line (start 29.48 -3.1) (end 29.48 -4.88) (layer F.SilkS) (width 0.12))
  (fp_line (start 29.48 -4.88) (end 31.48 -4.88) (layer F.SilkS) (width 0.12))
  (fp_line (start 31.48 -4.88) (end 31.48 -3.1) (layer F.SilkS) (width 0.12))
  (fp_line (start 31.48 -3.1) (end 29.48 -3.1) (layer F.SilkS) (width 0.12))
  (fp_line (start 34.56 -3.1) (end 34.56 -4.88) (layer F.SilkS) (width 0.12))
  (fp_line (start 34.56 -4.88) (end 36.56 -4.88) (layer F.SilkS) (width 0.12))
  (fp_line (start 36.56 -4.88) (end 36.56 -3.1) (layer F.SilkS) (width 0.12))
  (fp_line (start 36.56 -3.1) (end 34.56 -3.1) (layer F.SilkS) (width 0.12))
  (fp_line (start 2 2.2) (end 3.08 2.2) (layer F.SilkS) (width 0.12))
  (fp_line (start 7.08 2.2) (end 8.16 2.2) (layer F.SilkS) (width 0.12))
  (fp_line (start 12.16 2.2) (end 13.24 2.2) (layer F.SilkS) (width 0.12))
  (fp_line (start 17.24 2.2) (end 18.32 2.2) (layer F.SilkS) (width 0.12))
  (fp_line (start 22.32 2.2) (end 23.4 2.2) (layer F.SilkS) (width 0.12))
  (fp_line (start 27.4 2.2) (end 28.48 2.2) (layer F.SilkS) (width 0.12))
  (fp_line (start 32.48 2.2) (end 33.56 2.2) (layer F.SilkS) (width 0.12))
  (fp_line (start -2 2.2) (end -2.74 2.2) (layer F.SilkS) (width 0.12))
  (fp_line (start -2.74 2.2) (end -2.74 -3.1) (layer F.SilkS) (width 0.12))
  (fp_line (start -2.74 -3.1) (end 38.3 -3.1) (layer F.SilkS) (width 0.12))
  (fp_line (start 38.3 -3.1) (end 38.3 2.2) (layer F.SilkS) (width 0.12))
  (fp_line (start 38.3 2.2) (end 37.56 2.2) (layer F.SilkS) (width 0.12))
  (fp_line (start -8.12 -5.3) (end -8.12 4.3) (layer F.CrtYd) (width 0.05))
  (fp_line (start -8.12 4.3) (end 43.68 4.3) (layer F.CrtYd) (width 0.05))
  (fp_line (start 43.68 4.3) (end 43.68 -5.3) (layer F.CrtYd) (width 0.05))
  (fp_line (start 43.68 -5.3) (end -8.12 -5.3) (layer F.CrtYd) (width 0.05))
  (fp_line (start 0.3 -5.68) (end 0 -5.08) (layer F.SilkS) (width 0.12))
  (fp_line (start 0 -5.08) (end -0.3 -5.68) (layer F.SilkS) (width 0.12))
  (fp_line (start -0.3 -5.68) (end 0.3 -5.68) (layer F.SilkS) (width 0.12))
  (fp_line (start 0.5 -3.55) (end 0 -2.55) (layer F.Fab) (width 0.1))
  (fp_line (start 0 -2.55) (end -0.5 -3.55) (layer F.Fab) (width 0.1))
  (fp_line (start -0.5 -3.55) (end 0.5 -3.55) (layer F.Fab) (width 0.1))
  (pad 1 thru_hole rect (at 0 0) (size 2.08 3.6) (drill 1.4) (layers *.Cu *.Mask))
  (pad 2 thru_hole oval (at 5.08 0) (size 2.08 3.6) (drill 1.4) (layers *.Cu *.Mask))
  (pad 3 thru_hole oval (at 10.16 0) (size 2.08 3.6) (drill 1.4) (layers *.Cu *.Mask))
  (pad 4 thru_hole oval (at 15.24 0) (size 2.08 3.6) (drill 1.4) (layers *.Cu *.Mask))
  (pad 5 thru_hole oval (at 20.32 0) (size 2.08 3.6) (drill 1.4) (layers *.Cu *.Mask))
  (pad 6 thru_hole oval (at 25.4 0) (size 2.08 3.6) (drill 1.4) (layers *.Cu *.Mask))
  (pad 7 thru_hole oval (at 30.48 0) (size 2.08 3.6) (drill 1.4) (layers *.Cu *.Mask))
  (pad 8 thru_hole oval (at 35.56 0) (size 2.08 3.6) (drill 1.4) (layers *.Cu *.Mask))
  (fp_text user %R (at 17.78 -3) (layer F.Fab)
    (effects (font (size 1 1) (thickness 0.15)))
  )
  (model ${KIPRJMOD}/kicad_libs_k/models_k.3d/Connector_Phoenix_MSTB_k.3dshapes/PhoenixContact_MSTBV_2,5_8-GF-5,08_1x08_P5.08mm_Vertical_ThreadedFlange_k.wrl
    (at (xyz 0 0 0))
    (scale (xyz 1 1 1))
    (rotate (xyz 0 0 0))
  )
)