(module IDC-Header_2x30_P2.54mm_Vertical (layer F.Cu) (tedit 59DE1351)
  (descr "Through hole straight IDC box header, 2x30, 2.54mm pitch, double rows")
  (tags "Through hole IDC box header THT 2x30 2.54mm double row")
  (fp_text reference REF** (at 1.27 -6.604) (layer F.SilkS)
    (effects (font (size 1 1) (thickness 0.15)))
  )
  (fp_text value IDC-Header_2x30_P2.54mm_Vertical (at 1.27 80.264) (layer F.Fab)
    (effects (font (size 1 1) (thickness 0.15)))
  )
  (fp_text user %R (at 1.27 36.83) (layer F.Fab)
    (effects (font (size 1 1) (thickness 0.15)))
  )
  (fp_line (start 5.695 -5.1) (end 5.695 78.76) (layer F.Fab) (width 0.1))
  (fp_line (start 5.145 -4.56) (end 5.145 78.2) (layer F.Fab) (width 0.1))
  (fp_line (start -3.155 -5.1) (end -3.155 78.76) (layer F.Fab) (width 0.1))
  (fp_line (start -2.605 -4.56) (end -2.605 34.58) (layer F.Fab) (width 0.1))
  (fp_line (start -2.605 39.08) (end -2.605 78.2) (layer F.Fab) (width 0.1))
  (fp_line (start -2.605 34.58) (end -3.155 34.58) (layer F.Fab) (width 0.1))
  (fp_line (start -2.605 39.08) (end -3.155 39.08) (layer F.Fab) (width 0.1))
  (fp_line (start 5.695 -5.1) (end -3.155 -5.1) (layer F.Fab) (width 0.1))
  (fp_line (start 5.145 -4.56) (end -2.605 -4.56) (layer F.Fab) (width 0.1))
  (fp_line (start 5.695 78.76) (end -3.155 78.76) (layer F.Fab) (width 0.1))
  (fp_line (start 5.145 78.2) (end -2.605 78.2) (layer F.Fab) (width 0.1))
  (fp_line (start 5.695 -5.1) (end 5.145 -4.56) (layer F.Fab) (width 0.1))
  (fp_line (start 5.695 78.76) (end 5.145 78.2) (layer F.Fab) (width 0.1))
  (fp_line (start -3.155 -5.1) (end -2.605 -4.56) (layer F.Fab) (width 0.1))
  (fp_line (start -3.155 78.76) (end -2.605 78.2) (layer F.Fab) (width 0.1))
  (fp_line (start 5.95 -5.35) (end 5.95 79.01) (layer F.CrtYd) (width 0.05))
  (fp_line (start 5.95 79.01) (end -3.41 79.01) (layer F.CrtYd) (width 0.05))
  (fp_line (start -3.41 79.01) (end -3.41 -5.35) (layer F.CrtYd) (width 0.05))
  (fp_line (start -3.41 -5.35) (end 5.95 -5.35) (layer F.CrtYd) (width 0.05))
  (fp_line (start 5.945 -5.35) (end 5.945 79.01) (layer F.SilkS) (width 0.12))
  (fp_line (start 5.945 79.01) (end -3.405 79.01) (layer F.SilkS) (width 0.12))
  (fp_line (start -3.405 79.01) (end -3.405 -5.35) (layer F.SilkS) (width 0.12))
  (fp_line (start -3.405 -5.35) (end 5.945 -5.35) (layer F.SilkS) (width 0.12))
  (fp_line (start -3.655 -5.6) (end -3.655 -3.06) (layer F.SilkS) (width 0.12))
  (fp_line (start -3.655 -5.6) (end -1.115 -5.6) (layer F.SilkS) (width 0.12))
  (pad 1 thru_hole rect (at 0 0) (size 1.7272 1.7272) (drill 1.016) (layers *.Cu *.Mask))
  (pad 2 thru_hole oval (at 2.54 0) (size 1.7272 1.7272) (drill 1.016) (layers *.Cu *.Mask))
  (pad 3 thru_hole oval (at 0 2.54) (size 1.7272 1.7272) (drill 1.016) (layers *.Cu *.Mask))
  (pad 4 thru_hole oval (at 2.54 2.54) (size 1.7272 1.7272) (drill 1.016) (layers *.Cu *.Mask))
  (pad 5 thru_hole oval (at 0 5.08) (size 1.7272 1.7272) (drill 1.016) (layers *.Cu *.Mask))
  (pad 6 thru_hole oval (at 2.54 5.08) (size 1.7272 1.7272) (drill 1.016) (layers *.Cu *.Mask))
  (pad 7 thru_hole oval (at 0 7.62) (size 1.7272 1.7272) (drill 1.016) (layers *.Cu *.Mask))
  (pad 8 thru_hole oval (at 2.54 7.62) (size 1.7272 1.7272) (drill 1.016) (layers *.Cu *.Mask))
  (pad 9 thru_hole oval (at 0 10.16) (size 1.7272 1.7272) (drill 1.016) (layers *.Cu *.Mask))
  (pad 10 thru_hole oval (at 2.54 10.16) (size 1.7272 1.7272) (drill 1.016) (layers *.Cu *.Mask))
  (pad 11 thru_hole oval (at 0 12.7) (size 1.7272 1.7272) (drill 1.016) (layers *.Cu *.Mask))
  (pad 12 thru_hole oval (at 2.54 12.7) (size 1.7272 1.7272) (drill 1.016) (layers *.Cu *.Mask))
  (pad 13 thru_hole oval (at 0 15.24) (size 1.7272 1.7272) (drill 1.016) (layers *.Cu *.Mask))
  (pad 14 thru_hole oval (at 2.54 15.24) (size 1.7272 1.7272) (drill 1.016) (layers *.Cu *.Mask))
  (pad 15 thru_hole oval (at 0 17.78) (size 1.7272 1.7272) (drill 1.016) (layers *.Cu *.Mask))
  (pad 16 thru_hole oval (at 2.54 17.78) (size 1.7272 1.7272) (drill 1.016) (layers *.Cu *.Mask))
  (pad 17 thru_hole oval (at 0 20.32) (size 1.7272 1.7272) (drill 1.016) (layers *.Cu *.Mask))
  (pad 18 thru_hole oval (at 2.54 20.32) (size 1.7272 1.7272) (drill 1.016) (layers *.Cu *.Mask))
  (pad 19 thru_hole oval (at 0 22.86) (size 1.7272 1.7272) (drill 1.016) (layers *.Cu *.Mask))
  (pad 20 thru_hole oval (at 2.54 22.86) (size 1.7272 1.7272) (drill 1.016) (layers *.Cu *.Mask))
  (pad 21 thru_hole oval (at 0 25.4) (size 1.7272 1.7272) (drill 1.016) (layers *.Cu *.Mask))
  (pad 22 thru_hole oval (at 2.54 25.4) (size 1.7272 1.7272) (drill 1.016) (layers *.Cu *.Mask))
  (pad 23 thru_hole oval (at 0 27.94) (size 1.7272 1.7272) (drill 1.016) (layers *.Cu *.Mask))
  (pad 24 thru_hole oval (at 2.54 27.94) (size 1.7272 1.7272) (drill 1.016) (layers *.Cu *.Mask))
  (pad 25 thru_hole oval (at 0 30.48) (size 1.7272 1.7272) (drill 1.016) (layers *.Cu *.Mask))
  (pad 26 thru_hole oval (at 2.54 30.48) (size 1.7272 1.7272) (drill 1.016) (layers *.Cu *.Mask))
  (pad 27 thru_hole oval (at 0 33.02) (size 1.7272 1.7272) (drill 1.016) (layers *.Cu *.Mask))
  (pad 28 thru_hole oval (at 2.54 33.02) (size 1.7272 1.7272) (drill 1.016) (layers *.Cu *.Mask))
  (pad 29 thru_hole oval (at 0 35.56) (size 1.7272 1.7272) (drill 1.016) (layers *.Cu *.Mask))
  (pad 30 thru_hole oval (at 2.54 35.56) (size 1.7272 1.7272) (drill 1.016) (layers *.Cu *.Mask))
  (pad 31 thru_hole oval (at 0 38.1) (size 1.7272 1.7272) (drill 1.016) (layers *.Cu *.Mask))
  (pad 32 thru_hole oval (at 2.54 38.1) (size 1.7272 1.7272) (drill 1.016) (layers *.Cu *.Mask))
  (pad 33 thru_hole oval (at 0 40.64) (size 1.7272 1.7272) (drill 1.016) (layers *.Cu *.Mask))
  (pad 34 thru_hole oval (at 2.54 40.64) (size 1.7272 1.7272) (drill 1.016) (layers *.Cu *.Mask))
  (pad 35 thru_hole oval (at 0 43.18) (size 1.7272 1.7272) (drill 1.016) (layers *.Cu *.Mask))
  (pad 36 thru_hole oval (at 2.54 43.18) (size 1.7272 1.7272) (drill 1.016) (layers *.Cu *.Mask))
  (pad 37 thru_hole oval (at 0 45.72) (size 1.7272 1.7272) (drill 1.016) (layers *.Cu *.Mask))
  (pad 38 thru_hole oval (at 2.54 45.72) (size 1.7272 1.7272) (drill 1.016) (layers *.Cu *.Mask))
  (pad 39 thru_hole oval (at 0 48.26) (size 1.7272 1.7272) (drill 1.016) (layers *.Cu *.Mask))
  (pad 40 thru_hole oval (at 2.54 48.26) (size 1.7272 1.7272) (drill 1.016) (layers *.Cu *.Mask))
  (pad 41 thru_hole oval (at 0 50.8) (size 1.7272 1.7272) (drill 1.016) (layers *.Cu *.Mask))
  (pad 42 thru_hole oval (at 2.54 50.8) (size 1.7272 1.7272) (drill 1.016) (layers *.Cu *.Mask))
  (pad 43 thru_hole oval (at 0 53.34) (size 1.7272 1.7272) (drill 1.016) (layers *.Cu *.Mask))
  (pad 44 thru_hole oval (at 2.54 53.34) (size 1.7272 1.7272) (drill 1.016) (layers *.Cu *.Mask))
  (pad 45 thru_hole oval (at 0 55.88) (size 1.7272 1.7272) (drill 1.016) (layers *.Cu *.Mask))
  (pad 46 thru_hole oval (at 2.54 55.88) (size 1.7272 1.7272) (drill 1.016) (layers *.Cu *.Mask))
  (pad 47 thru_hole oval (at 0 58.42) (size 1.7272 1.7272) (drill 1.016) (layers *.Cu *.Mask))
  (pad 48 thru_hole oval (at 2.54 58.42) (size 1.7272 1.7272) (drill 1.016) (layers *.Cu *.Mask))
  (pad 49 thru_hole oval (at 0 60.96) (size 1.7272 1.7272) (drill 1.016) (layers *.Cu *.Mask))
  (pad 50 thru_hole oval (at 2.54 60.96) (size 1.7272 1.7272) (drill 1.016) (layers *.Cu *.Mask))
  (pad 51 thru_hole oval (at 0 63.5) (size 1.7272 1.7272) (drill 1.016) (layers *.Cu *.Mask))
  (pad 52 thru_hole oval (at 2.54 63.5) (size 1.7272 1.7272) (drill 1.016) (layers *.Cu *.Mask))
  (pad 53 thru_hole oval (at 0 66.04) (size 1.7272 1.7272) (drill 1.016) (layers *.Cu *.Mask))
  (pad 54 thru_hole oval (at 2.54 66.04) (size 1.7272 1.7272) (drill 1.016) (layers *.Cu *.Mask))
  (pad 55 thru_hole oval (at 0 68.58) (size 1.7272 1.7272) (drill 1.016) (layers *.Cu *.Mask))
  (pad 56 thru_hole oval (at 2.54 68.58) (size 1.7272 1.7272) (drill 1.016) (layers *.Cu *.Mask))
  (pad 57 thru_hole oval (at 0 71.12) (size 1.7272 1.7272) (drill 1.016) (layers *.Cu *.Mask))
  (pad 58 thru_hole oval (at 2.54 71.12) (size 1.7272 1.7272) (drill 1.016) (layers *.Cu *.Mask))
  (pad 59 thru_hole oval (at 0 73.66) (size 1.7272 1.7272) (drill 1.016) (layers *.Cu *.Mask))
  (pad 60 thru_hole oval (at 2.54 73.66) (size 1.7272 1.7272) (drill 1.016) (layers *.Cu *.Mask))
  (model ${KIPRJMOD}/kicad_libs_k/models_k.3d/Connector_IDC_k.3dshapes/IDC-Header_2x30_P2.54mm_Vertical_k.wrl
    (at (xyz 0 0 0))
    (scale (xyz 1 1 1))
    (rotate (xyz 0 0 0))
  )
)
