(module IDC-Header_2x25_P2.54mm_Horizontal (layer F.Cu) (tedit 59DE2418)
  (descr "Through hole angled IDC box header, 2x25, 2.54mm pitch, double rows")
  (tags "Through hole IDC box header THT 2x25 2.54mm double row")
  (fp_text reference REF** (at 6.105 -6.35) (layer F.SilkS)
    (effects (font (size 1 1) (thickness 0.15)))
  )
  (fp_text value IDC-Header_2x25_P2.54mm_Horizontal (at 6.105 67.564) (layer F.Fab)
    (effects (font (size 1 1) (thickness 0.15)))
  )
  (fp_text user %R (at 8.805 30.48 90) (layer F.Fab)
    (effects (font (size 1 1) (thickness 0.15)))
  )
  (fp_line (start -0.32 -0.32) (end -0.32 0.32) (layer F.Fab) (width 0.1))
  (fp_line (start -0.32 0.32) (end 4.38 0.32) (layer F.Fab) (width 0.1))
  (fp_line (start -0.32 10.48) (end 4.38 10.48) (layer F.Fab) (width 0.1))
  (fp_line (start -0.32 12.38) (end -0.32 13.02) (layer F.Fab) (width 0.1))
  (fp_line (start -0.32 13.02) (end 4.38 13.02) (layer F.Fab) (width 0.1))
  (fp_line (start -0.32 14.92) (end -0.32 15.56) (layer F.Fab) (width 0.1))
  (fp_line (start -0.32 15.56) (end 4.38 15.56) (layer F.Fab) (width 0.1))
  (fp_line (start -0.32 17.46) (end -0.32 18.1) (layer F.Fab) (width 0.1))
  (fp_line (start -0.32 18.1) (end 4.38 18.1) (layer F.Fab) (width 0.1))
  (fp_line (start -0.32 2.22) (end -0.32 2.86) (layer F.Fab) (width 0.1))
  (fp_line (start -0.32 2.86) (end 4.38 2.86) (layer F.Fab) (width 0.1))
  (fp_line (start -0.32 20) (end -0.32 20.64) (layer F.Fab) (width 0.1))
  (fp_line (start -0.32 20.64) (end 4.38 20.64) (layer F.Fab) (width 0.1))
  (fp_line (start -0.32 22.54) (end -0.32 23.18) (layer F.Fab) (width 0.1))
  (fp_line (start -0.32 23.18) (end 4.38 23.18) (layer F.Fab) (width 0.1))
  (fp_line (start -0.32 25.08) (end -0.32 25.72) (layer F.Fab) (width 0.1))
  (fp_line (start -0.32 25.72) (end 4.38 25.72) (layer F.Fab) (width 0.1))
  (fp_line (start -0.32 27.62) (end -0.32 28.26) (layer F.Fab) (width 0.1))
  (fp_line (start -0.32 28.26) (end 4.38 28.26) (layer F.Fab) (width 0.1))
  (fp_line (start -0.32 30.16) (end -0.32 30.8) (layer F.Fab) (width 0.1))
  (fp_line (start -0.32 30.8) (end 4.38 30.8) (layer F.Fab) (width 0.1))
  (fp_line (start -0.32 32.7) (end -0.32 33.34) (layer F.Fab) (width 0.1))
  (fp_line (start -0.32 33.34) (end 4.38 33.34) (layer F.Fab) (width 0.1))
  (fp_line (start -0.32 35.24) (end -0.32 35.88) (layer F.Fab) (width 0.1))
  (fp_line (start -0.32 35.88) (end 4.38 35.88) (layer F.Fab) (width 0.1))
  (fp_line (start -0.32 37.78) (end -0.32 38.42) (layer F.Fab) (width 0.1))
  (fp_line (start -0.32 38.42) (end 4.38 38.42) (layer F.Fab) (width 0.1))
  (fp_line (start -0.32 4.76) (end -0.32 5.4) (layer F.Fab) (width 0.1))
  (fp_line (start -0.32 40.32) (end -0.32 40.96) (layer F.Fab) (width 0.1))
  (fp_line (start -0.32 40.96) (end 4.38 40.96) (layer F.Fab) (width 0.1))
  (fp_line (start -0.32 42.86) (end -0.32 43.5) (layer F.Fab) (width 0.1))
  (fp_line (start -0.32 43.5) (end 4.38 43.5) (layer F.Fab) (width 0.1))
  (fp_line (start -0.32 45.4) (end -0.32 46.04) (layer F.Fab) (width 0.1))
  (fp_line (start -0.32 46.04) (end 4.38 46.04) (layer F.Fab) (width 0.1))
  (fp_line (start -0.32 47.94) (end -0.32 48.58) (layer F.Fab) (width 0.1))
  (fp_line (start -0.32 48.58) (end 4.38 48.58) (layer F.Fab) (width 0.1))
  (fp_line (start -0.32 5.4) (end 4.38 5.4) (layer F.Fab) (width 0.1))
  (fp_line (start -0.32 50.48) (end -0.32 51.12) (layer F.Fab) (width 0.1))
  (fp_line (start -0.32 51.12) (end 4.38 51.12) (layer F.Fab) (width 0.1))
  (fp_line (start -0.32 53.02) (end -0.32 53.66) (layer F.Fab) (width 0.1))
  (fp_line (start -0.32 53.66) (end 4.38 53.66) (layer F.Fab) (width 0.1))
  (fp_line (start -0.32 55.56) (end -0.32 56.2) (layer F.Fab) (width 0.1))
  (fp_line (start -0.32 56.2) (end 4.38 56.2) (layer F.Fab) (width 0.1))
  (fp_line (start -0.32 58.1) (end -0.32 58.74) (layer F.Fab) (width 0.1))
  (fp_line (start -0.32 58.74) (end 4.38 58.74) (layer F.Fab) (width 0.1))
  (fp_line (start -0.32 60.64) (end -0.32 61.28) (layer F.Fab) (width 0.1))
  (fp_line (start -0.32 61.28) (end 4.38 61.28) (layer F.Fab) (width 0.1))
  (fp_line (start -0.32 7.3) (end -0.32 7.94) (layer F.Fab) (width 0.1))
  (fp_line (start -0.32 7.94) (end 4.38 7.94) (layer F.Fab) (width 0.1))
  (fp_line (start -0.32 9.84) (end -0.32 10.48) (layer F.Fab) (width 0.1))
  (fp_line (start 13.23 66.06) (end 13.23 -5.1) (layer F.Fab) (width 0.1))
  (fp_line (start 4.38 -0.32) (end -0.32 -0.32) (layer F.Fab) (width 0.1))
  (fp_line (start 4.38 -4.1) (end 5.38 -5.1) (layer F.Fab) (width 0.1))
  (fp_line (start 4.38 12.38) (end -0.32 12.38) (layer F.Fab) (width 0.1))
  (fp_line (start 4.38 14.92) (end -0.32 14.92) (layer F.Fab) (width 0.1))
  (fp_line (start 4.38 17.46) (end -0.32 17.46) (layer F.Fab) (width 0.1))
  (fp_line (start 4.38 2.22) (end -0.32 2.22) (layer F.Fab) (width 0.1))
  (fp_line (start 4.38 20) (end -0.32 20) (layer F.Fab) (width 0.1))
  (fp_line (start 4.38 22.54) (end -0.32 22.54) (layer F.Fab) (width 0.1))
  (fp_line (start 4.38 25.08) (end -0.32 25.08) (layer F.Fab) (width 0.1))
  (fp_line (start 4.38 27.62) (end -0.32 27.62) (layer F.Fab) (width 0.1))
  (fp_line (start 4.38 28.23) (end 13.23 28.23) (layer F.Fab) (width 0.1))
  (fp_line (start 4.38 30.16) (end -0.32 30.16) (layer F.Fab) (width 0.1))
  (fp_line (start 4.38 32.7) (end -0.32 32.7) (layer F.Fab) (width 0.1))
  (fp_line (start 4.38 32.73) (end 13.23 32.73) (layer F.Fab) (width 0.1))
  (fp_line (start 4.38 35.24) (end -0.32 35.24) (layer F.Fab) (width 0.1))
  (fp_line (start 4.38 37.78) (end -0.32 37.78) (layer F.Fab) (width 0.1))
  (fp_line (start 4.38 4.76) (end -0.32 4.76) (layer F.Fab) (width 0.1))
  (fp_line (start 4.38 40.32) (end -0.32 40.32) (layer F.Fab) (width 0.1))
  (fp_line (start 4.38 42.86) (end -0.32 42.86) (layer F.Fab) (width 0.1))
  (fp_line (start 4.38 45.4) (end -0.32 45.4) (layer F.Fab) (width 0.1))
  (fp_line (start 4.38 47.94) (end -0.32 47.94) (layer F.Fab) (width 0.1))
  (fp_line (start 4.38 50.48) (end -0.32 50.48) (layer F.Fab) (width 0.1))
  (fp_line (start 4.38 53.02) (end -0.32 53.02) (layer F.Fab) (width 0.1))
  (fp_line (start 4.38 55.56) (end -0.32 55.56) (layer F.Fab) (width 0.1))
  (fp_line (start 4.38 58.1) (end -0.32 58.1) (layer F.Fab) (width 0.1))
  (fp_line (start 4.38 60.64) (end -0.32 60.64) (layer F.Fab) (width 0.1))
  (fp_line (start 4.38 66.06) (end 13.23 66.06) (layer F.Fab) (width 0.1))
  (fp_line (start 4.38 66.06) (end 4.38 -4.1) (layer F.Fab) (width 0.1))
  (fp_line (start 4.38 7.3) (end -0.32 7.3) (layer F.Fab) (width 0.1))
  (fp_line (start 4.38 9.84) (end -0.32 9.84) (layer F.Fab) (width 0.1))
  (fp_line (start 5.38 -5.1) (end 13.23 -5.1) (layer F.Fab) (width 0.1))
  (fp_line (start -1.27 -1.27) (end -1.27 0) (layer F.SilkS) (width 0.12))
  (fp_line (start 0 -1.27) (end -1.27 -1.27) (layer F.SilkS) (width 0.12))
  (fp_line (start 13.48 -5.35) (end 13.48 66.31) (layer F.SilkS) (width 0.12))
  (fp_line (start 4.13 -5.35) (end 13.48 -5.35) (layer F.SilkS) (width 0.12))
  (fp_line (start 4.13 28.23) (end 13.48 28.23) (layer F.SilkS) (width 0.12))
  (fp_line (start 4.13 32.73) (end 13.48 32.73) (layer F.SilkS) (width 0.12))
  (fp_line (start 4.13 66.31) (end 13.48 66.31) (layer F.SilkS) (width 0.12))
  (fp_line (start 4.13 66.31) (end 4.13 -5.35) (layer F.SilkS) (width 0.12))
  (fp_line (start -1.12 -5.35) (end 13.48 -5.35) (layer F.CrtYd) (width 0.05))
  (fp_line (start -1.12 66.31) (end -1.12 -5.35) (layer F.CrtYd) (width 0.05))
  (fp_line (start 13.48 -5.35) (end 13.48 66.31) (layer F.CrtYd) (width 0.05))
  (fp_line (start 13.48 66.31) (end -1.12 66.31) (layer F.CrtYd) (width 0.05))
  (pad 1 thru_hole rect (at 0 0) (size 1.7272 1.7272) (drill 1.016) (layers *.Cu *.Mask))
  (pad 2 thru_hole oval (at 2.54 0) (size 1.7272 1.7272) (drill 1.016) (layers *.Cu *.Mask))
  (pad 3 thru_hole oval (at 0 2.54) (size 1.7272 1.7272) (drill 1.016) (layers *.Cu *.Mask))
  (pad 4 thru_hole oval (at 2.54 2.54) (size 1.7272 1.7272) (drill 1.016) (layers *.Cu *.Mask))
  (pad 5 thru_hole oval (at 0 5.08) (size 1.7272 1.7272) (drill 1.016) (layers *.Cu *.Mask))
  (pad 6 thru_hole oval (at 2.54 5.08) (size 1.7272 1.7272) (drill 1.016) (layers *.Cu *.Mask))
  (pad 7 thru_hole oval (at 0 7.62) (size 1.7272 1.7272) (drill 1.016) (layers *.Cu *.Mask))
  (pad 8 thru_hole oval (at 2.54 7.62) (size 1.7272 1.7272) (drill 1.016) (layers *.Cu *.Mask))
  (pad 9 thru_hole oval (at 0 10.16) (size 1.7272 1.7272) (drill 1.016) (layers *.Cu *.Mask))
  (pad 10 thru_hole oval (at 2.54 10.16) (size 1.7272 1.7272) (drill 1.016) (layers *.Cu *.Mask))
  (pad 11 thru_hole oval (at 0 12.7) (size 1.7272 1.7272) (drill 1.016) (layers *.Cu *.Mask))
  (pad 12 thru_hole oval (at 2.54 12.7) (size 1.7272 1.7272) (drill 1.016) (layers *.Cu *.Mask))
  (pad 13 thru_hole oval (at 0 15.24) (size 1.7272 1.7272) (drill 1.016) (layers *.Cu *.Mask))
  (pad 14 thru_hole oval (at 2.54 15.24) (size 1.7272 1.7272) (drill 1.016) (layers *.Cu *.Mask))
  (pad 15 thru_hole oval (at 0 17.78) (size 1.7272 1.7272) (drill 1.016) (layers *.Cu *.Mask))
  (pad 16 thru_hole oval (at 2.54 17.78) (size 1.7272 1.7272) (drill 1.016) (layers *.Cu *.Mask))
  (pad 17 thru_hole oval (at 0 20.32) (size 1.7272 1.7272) (drill 1.016) (layers *.Cu *.Mask))
  (pad 18 thru_hole oval (at 2.54 20.32) (size 1.7272 1.7272) (drill 1.016) (layers *.Cu *.Mask))
  (pad 19 thru_hole oval (at 0 22.86) (size 1.7272 1.7272) (drill 1.016) (layers *.Cu *.Mask))
  (pad 20 thru_hole oval (at 2.54 22.86) (size 1.7272 1.7272) (drill 1.016) (layers *.Cu *.Mask))
  (pad 21 thru_hole oval (at 0 25.4) (size 1.7272 1.7272) (drill 1.016) (layers *.Cu *.Mask))
  (pad 22 thru_hole oval (at 2.54 25.4) (size 1.7272 1.7272) (drill 1.016) (layers *.Cu *.Mask))
  (pad 23 thru_hole oval (at 0 27.94) (size 1.7272 1.7272) (drill 1.016) (layers *.Cu *.Mask))
  (pad 24 thru_hole oval (at 2.54 27.94) (size 1.7272 1.7272) (drill 1.016) (layers *.Cu *.Mask))
  (pad 25 thru_hole oval (at 0 30.48) (size 1.7272 1.7272) (drill 1.016) (layers *.Cu *.Mask))
  (pad 26 thru_hole oval (at 2.54 30.48) (size 1.7272 1.7272) (drill 1.016) (layers *.Cu *.Mask))
  (pad 27 thru_hole oval (at 0 33.02) (size 1.7272 1.7272) (drill 1.016) (layers *.Cu *.Mask))
  (pad 28 thru_hole oval (at 2.54 33.02) (size 1.7272 1.7272) (drill 1.016) (layers *.Cu *.Mask))
  (pad 29 thru_hole oval (at 0 35.56) (size 1.7272 1.7272) (drill 1.016) (layers *.Cu *.Mask))
  (pad 30 thru_hole oval (at 2.54 35.56) (size 1.7272 1.7272) (drill 1.016) (layers *.Cu *.Mask))
  (pad 31 thru_hole oval (at 0 38.1) (size 1.7272 1.7272) (drill 1.016) (layers *.Cu *.Mask))
  (pad 32 thru_hole oval (at 2.54 38.1) (size 1.7272 1.7272) (drill 1.016) (layers *.Cu *.Mask))
  (pad 33 thru_hole oval (at 0 40.64) (size 1.7272 1.7272) (drill 1.016) (layers *.Cu *.Mask))
  (pad 34 thru_hole oval (at 2.54 40.64) (size 1.7272 1.7272) (drill 1.016) (layers *.Cu *.Mask))
  (pad 35 thru_hole oval (at 0 43.18) (size 1.7272 1.7272) (drill 1.016) (layers *.Cu *.Mask))
  (pad 36 thru_hole oval (at 2.54 43.18) (size 1.7272 1.7272) (drill 1.016) (layers *.Cu *.Mask))
  (pad 37 thru_hole oval (at 0 45.72) (size 1.7272 1.7272) (drill 1.016) (layers *.Cu *.Mask))
  (pad 38 thru_hole oval (at 2.54 45.72) (size 1.7272 1.7272) (drill 1.016) (layers *.Cu *.Mask))
  (pad 39 thru_hole oval (at 0 48.26) (size 1.7272 1.7272) (drill 1.016) (layers *.Cu *.Mask))
  (pad 40 thru_hole oval (at 2.54 48.26) (size 1.7272 1.7272) (drill 1.016) (layers *.Cu *.Mask))
  (pad 41 thru_hole oval (at 0 50.8) (size 1.7272 1.7272) (drill 1.016) (layers *.Cu *.Mask))
  (pad 42 thru_hole oval (at 2.54 50.8) (size 1.7272 1.7272) (drill 1.016) (layers *.Cu *.Mask))
  (pad 43 thru_hole oval (at 0 53.34) (size 1.7272 1.7272) (drill 1.016) (layers *.Cu *.Mask))
  (pad 44 thru_hole oval (at 2.54 53.34) (size 1.7272 1.7272) (drill 1.016) (layers *.Cu *.Mask))
  (pad 45 thru_hole oval (at 0 55.88) (size 1.7272 1.7272) (drill 1.016) (layers *.Cu *.Mask))
  (pad 46 thru_hole oval (at 2.54 55.88) (size 1.7272 1.7272) (drill 1.016) (layers *.Cu *.Mask))
  (pad 47 thru_hole oval (at 0 58.42) (size 1.7272 1.7272) (drill 1.016) (layers *.Cu *.Mask))
  (pad 48 thru_hole oval (at 2.54 58.42) (size 1.7272 1.7272) (drill 1.016) (layers *.Cu *.Mask))
  (pad 49 thru_hole oval (at 0 60.96) (size 1.7272 1.7272) (drill 1.016) (layers *.Cu *.Mask))
  (pad 50 thru_hole oval (at 2.54 60.96) (size 1.7272 1.7272) (drill 1.016) (layers *.Cu *.Mask))
  (model ${KIPRJMOD}/kicad_libs_k/models_k.3d/Connector_IDC_k.3dshapes/IDC-Header_2x25_P2.54mm_Horizontal_k.wrl
    (at (xyz 0 0 0))
    (scale (xyz 1 1 1))
    (rotate (xyz 0 0 0))
  )
)
