(module IDC-Header_2x17_P2.54mm_Horizontal_Lock (layer F.Cu) (tedit 5A29A8A3)
  (descr "Connector IDC Locked, 10 contacts, compatible header: PANCON HE10 (Series 50, (https://www.reboul.fr/storage/00003af6.pdf)")
  (tags "connector idc locked")
  (fp_text reference REF** (at 12.5 20.4 270) (layer F.SilkS)
    (effects (font (size 1 1) (thickness 0.15)))
  )
  (fp_text value IDC-Header_2x17_P2.54mm_Horizontal_Lock (at -2.54 19.05 270) (layer F.Fab)
    (effects (font (size 1 1) (thickness 0.15)))
  )
  (fp_text user %R (at 10.16 20.574 90) (layer F.Fab)
    (effects (font (size 1 1) (thickness 0.15)))
  )
  (fp_line (start -2.54 0.254) (end -2.032 0) (layer F.SilkS) (width 0.12))
  (fp_line (start -2.54 -0.254) (end -2.54 0.254) (layer F.SilkS) (width 0.12))
  (fp_line (start -2.032 0) (end -2.54 -0.254) (layer F.SilkS) (width 0.12))
  (fp_line (start -1.4 -10.95) (end 5.7 -10.95) (layer F.SilkS) (width 0.12))
  (fp_line (start -1.4 51.55) (end 5.8 51.55) (layer F.SilkS) (width 0.12))
  (fp_line (start 5.8 51.55) (end 15.95 49) (layer F.SilkS) (width 0.12))
  (fp_line (start 15.95 49) (end 15.95 45.05) (layer F.SilkS) (width 0.12))
  (fp_line (start 15.95 45.05) (end 11.5 43.75) (layer F.SilkS) (width 0.12))
  (fp_line (start 11.5 43.75) (end 11.5 -3.1) (layer F.SilkS) (width 0.12))
  (fp_line (start 11.5 -3.1) (end 15.95 -4.35) (layer F.SilkS) (width 0.12))
  (fp_line (start 15.95 -4.35) (end 15.95 -8.35) (layer F.SilkS) (width 0.12))
  (fp_line (start 15.95 -8.35) (end 5.7 -10.95) (layer F.SilkS) (width 0.12))
  (fp_line (start 3.3 44.2) (end 4.57 45.47) (layer F.Fab) (width 0.1))
  (fp_line (start 4.57 45.47) (end 4.57 47.5) (layer F.Fab) (width 0.1))
  (fp_line (start 4.57 47.5) (end 3.3 48.77) (layer F.Fab) (width 0.1))
  (fp_line (start 3.3 -8.13) (end 4.57 -6.86) (layer F.Fab) (width 0.1))
  (fp_line (start 4.57 -6.86) (end 4.57 -4.83) (layer F.Fab) (width 0.1))
  (fp_line (start 4.57 -4.83) (end 3.3 -3.56) (layer F.Fab) (width 0.1))
  (fp_line (start -1.27 -3.56) (end 3.3 -3.56) (layer F.Fab) (width 0.1))
  (fp_line (start -1.27 -10.79) (end -1.27 51.44) (layer F.Fab) (width 0.1))
  (fp_line (start -1.27 51.44) (end 5.71 51.44) (layer F.Fab) (width 0.1))
  (fp_line (start 5.71 51.44) (end 15.88 48.89) (layer F.Fab) (width 0.1))
  (fp_line (start 5.71 -10.79) (end -1.27 -10.79) (layer F.Fab) (width 0.1))
  (fp_line (start 15.88 -8.25) (end 5.71 -10.79) (layer F.Fab) (width 0.1))
  (fp_line (start -1.27 -8.13) (end 3.3 -8.13) (layer F.Fab) (width 0.1))
  (fp_line (start -1.27 44.2) (end 3.3 44.2) (layer F.Fab) (width 0.1))
  (fp_line (start 3.3 48.77) (end -1.27 48.77) (layer F.Fab) (width 0.1))
  (fp_line (start 0 0) (end -1.27 1.27) (layer F.Fab) (width 0.1))
  (fp_line (start -1.27 -1.27) (end 0 0) (layer F.Fab) (width 0.1))
  (fp_line (start 11.43 -3.18) (end 11.43 43.81) (layer F.Fab) (width 0.1))
  (fp_line (start 15.88 -8.25) (end 15.88 -4.45) (layer F.Fab) (width 0.1))
  (fp_line (start 15.88 -4.45) (end 11.43 -3.18) (layer F.Fab) (width 0.1))
  (fp_line (start 15.88 48.89) (end 15.88 45.09) (layer F.Fab) (width 0.1))
  (fp_line (start 15.88 45.09) (end 11.43 43.81) (layer F.Fab) (width 0.1))
  (fp_line (start 16.12 -11.04) (end 16.12 51.69) (layer F.CrtYd) (width 0.05))
  (fp_line (start 16.12 -11.04) (end -1.52 -11.04) (layer F.CrtYd) (width 0.05))
  (fp_line (start -1.52 51.69) (end 16.12 51.69) (layer F.CrtYd) (width 0.05))
  (fp_line (start -1.52 51.69) (end -1.52 -11.04) (layer F.CrtYd) (width 0.05))
  (fp_line (start -1.39 51.55) (end -1.39 -10.91) (layer F.SilkS) (width 0.12))
  (pad "" thru_hole circle (at 1.78 -5.84 270) (size 3.05 3.05) (drill 2.54) (layers *.Cu *.Mask))
  (pad "" thru_hole circle (at 1.78 46.48 270) (size 3.05 3.05) (drill 2.54) (layers *.Cu *.Mask))
  (pad 1 thru_hole rect (at 0 0 270) (size 1.52 1.52) (drill 0.81) (layers *.Cu *.Mask))
  (pad 2 thru_hole circle (at 2.54 0 270) (size 1.52 1.52) (drill 0.81) (layers *.Cu *.Mask))
  (pad 3 thru_hole circle (at 0 2.54 270) (size 1.52 1.52) (drill 0.81) (layers *.Cu *.Mask))
  (pad 4 thru_hole circle (at 2.54 2.54 270) (size 1.52 1.52) (drill 0.81) (layers *.Cu *.Mask))
  (pad 5 thru_hole circle (at 0 5.08 270) (size 1.52 1.52) (drill 0.81) (layers *.Cu *.Mask))
  (pad 6 thru_hole circle (at 2.54 5.08 270) (size 1.52 1.52) (drill 0.81) (layers *.Cu *.Mask))
  (pad 7 thru_hole circle (at 0 7.62 270) (size 1.52 1.52) (drill 0.81) (layers *.Cu *.Mask))
  (pad 8 thru_hole circle (at 2.54 7.62 270) (size 1.52 1.52) (drill 0.81) (layers *.Cu *.Mask))
  (pad 9 thru_hole circle (at 0 10.16 270) (size 1.52 1.52) (drill 0.81) (layers *.Cu *.Mask))
  (pad 10 thru_hole circle (at 2.54 10.16 270) (size 1.52 1.52) (drill 0.81) (layers *.Cu *.Mask))
  (pad 11 thru_hole circle (at 0 12.7 270) (size 1.52 1.52) (drill 0.81) (layers *.Cu *.Mask))
  (pad 12 thru_hole circle (at 2.54 12.7 270) (size 1.52 1.52) (drill 0.81) (layers *.Cu *.Mask))
  (pad 13 thru_hole circle (at 0 15.24 270) (size 1.52 1.52) (drill 0.81) (layers *.Cu *.Mask))
  (pad 14 thru_hole circle (at 2.54 15.24 270) (size 1.52 1.52) (drill 0.81) (layers *.Cu *.Mask))
  (pad 15 thru_hole circle (at 0 17.78 270) (size 1.52 1.52) (drill 0.81) (layers *.Cu *.Mask))
  (pad 16 thru_hole circle (at 2.54 17.78 270) (size 1.52 1.52) (drill 0.81) (layers *.Cu *.Mask))
  (pad 17 thru_hole circle (at 0 20.32 270) (size 1.52 1.52) (drill 0.81) (layers *.Cu *.Mask))
  (pad 18 thru_hole circle (at 2.54 20.32 270) (size 1.52 1.52) (drill 0.81) (layers *.Cu *.Mask))
  (pad 19 thru_hole circle (at 0 22.86 270) (size 1.52 1.52) (drill 0.81) (layers *.Cu *.Mask))
  (pad 20 thru_hole circle (at 2.54 22.86 270) (size 1.52 1.52) (drill 0.81) (layers *.Cu *.Mask))
  (pad 21 thru_hole circle (at 0 25.4 270) (size 1.52 1.52) (drill 0.81) (layers *.Cu *.Mask))
  (pad 22 thru_hole circle (at 2.54 25.4 270) (size 1.52 1.52) (drill 0.81) (layers *.Cu *.Mask))
  (pad 23 thru_hole circle (at 0 27.94 270) (size 1.52 1.52) (drill 0.81) (layers *.Cu *.Mask))
  (pad 24 thru_hole circle (at 2.54 27.94 270) (size 1.52 1.52) (drill 0.81) (layers *.Cu *.Mask))
  (pad 25 thru_hole circle (at 0 30.48 270) (size 1.52 1.52) (drill 0.81) (layers *.Cu *.Mask))
  (pad 26 thru_hole circle (at 2.54 30.48 270) (size 1.52 1.52) (drill 0.81) (layers *.Cu *.Mask))
  (pad 27 thru_hole circle (at 0 33.02 270) (size 1.52 1.52) (drill 0.81) (layers *.Cu *.Mask))
  (pad 28 thru_hole circle (at 2.54 33.02 270) (size 1.52 1.52) (drill 0.81) (layers *.Cu *.Mask))
  (pad 29 thru_hole circle (at 0 35.56 270) (size 1.52 1.52) (drill 0.81) (layers *.Cu *.Mask))
  (pad 30 thru_hole circle (at 2.54 35.56 270) (size 1.52 1.52) (drill 0.81) (layers *.Cu *.Mask))
  (pad 31 thru_hole circle (at 0 38.1 270) (size 1.52 1.52) (drill 0.81) (layers *.Cu *.Mask))
  (pad 32 thru_hole circle (at 2.54 38.1 270) (size 1.52 1.52) (drill 0.81) (layers *.Cu *.Mask))
  (pad 33 thru_hole circle (at 0 40.64 270) (size 1.52 1.52) (drill 0.81) (layers *.Cu *.Mask))
  (pad 34 thru_hole circle (at 2.54 40.64 270) (size 1.52 1.52) (drill 0.81) (layers *.Cu *.Mask))
  (model ${KIPRJMOD}/kicad_libs_k/models_k.3d/Connector_IDC_k.3dshapes/IDC-Header_2x17_P2.54mm_Horizontal_Lock_k.wrl
    (at (xyz 0 0 0))
    (scale (xyz 1 1 1))
    (rotate (xyz 0 0 0))
  )
)
