(module IDC-Header_2x05_P2.54mm_Vertical (layer F.Cu) (tedit 59DE0611)
  (descr "Through hole straight IDC box header, 2x05, 2.54mm pitch, double rows")
  (tags "Through hole IDC box header THT 2x05 2.54mm double row")
  (fp_text reference REF** (at 1.27 -6.604) (layer F.SilkS)
    (effects (font (size 1 1) (thickness 0.15)))
  )
  (fp_text value IDC-Header_2x05_P2.54mm_Vertical (at 1.27 16.764) (layer F.Fab)
    (effects (font (size 1 1) (thickness 0.15)))
  )
  (fp_text user %R (at 1.27 5.08) (layer F.Fab)
    (effects (font (size 1 1) (thickness 0.15)))
  )
  (fp_line (start 5.695 -5.1) (end 5.695 15.26) (layer F.Fab) (width 0.1))
  (fp_line (start 5.145 -4.56) (end 5.145 14.7) (layer F.Fab) (width 0.1))
  (fp_line (start -3.155 -5.1) (end -3.155 15.26) (layer F.Fab) (width 0.1))
  (fp_line (start -2.605 -4.56) (end -2.605 2.83) (layer F.Fab) (width 0.1))
  (fp_line (start -2.605 7.33) (end -2.605 14.7) (layer F.Fab) (width 0.1))
  (fp_line (start -2.605 2.83) (end -3.155 2.83) (layer F.Fab) (width 0.1))
  (fp_line (start -2.605 7.33) (end -3.155 7.33) (layer F.Fab) (width 0.1))
  (fp_line (start 5.695 -5.1) (end -3.155 -5.1) (layer F.Fab) (width 0.1))
  (fp_line (start 5.145 -4.56) (end -2.605 -4.56) (layer F.Fab) (width 0.1))
  (fp_line (start 5.695 15.26) (end -3.155 15.26) (layer F.Fab) (width 0.1))
  (fp_line (start 5.145 14.7) (end -2.605 14.7) (layer F.Fab) (width 0.1))
  (fp_line (start 5.695 -5.1) (end 5.145 -4.56) (layer F.Fab) (width 0.1))
  (fp_line (start 5.695 15.26) (end 5.145 14.7) (layer F.Fab) (width 0.1))
  (fp_line (start -3.155 -5.1) (end -2.605 -4.56) (layer F.Fab) (width 0.1))
  (fp_line (start -3.155 15.26) (end -2.605 14.7) (layer F.Fab) (width 0.1))
  (fp_line (start 5.95 -5.35) (end 5.95 15.51) (layer F.CrtYd) (width 0.05))
  (fp_line (start 5.95 15.51) (end -3.41 15.51) (layer F.CrtYd) (width 0.05))
  (fp_line (start -3.41 15.51) (end -3.41 -5.35) (layer F.CrtYd) (width 0.05))
  (fp_line (start -3.41 -5.35) (end 5.95 -5.35) (layer F.CrtYd) (width 0.05))
  (fp_line (start 5.945 -5.35) (end 5.945 15.51) (layer F.SilkS) (width 0.12))
  (fp_line (start 5.945 15.51) (end -3.405 15.51) (layer F.SilkS) (width 0.12))
  (fp_line (start -3.405 15.51) (end -3.405 -5.35) (layer F.SilkS) (width 0.12))
  (fp_line (start -3.405 -5.35) (end 5.945 -5.35) (layer F.SilkS) (width 0.12))
  (fp_line (start -3.655 -5.6) (end -3.655 -3.06) (layer F.SilkS) (width 0.12))
  (fp_line (start -3.655 -5.6) (end -1.115 -5.6) (layer F.SilkS) (width 0.12))
  (pad 1 thru_hole rect (at 0 0) (size 1.7272 1.7272) (drill 1.016) (layers *.Cu *.Mask))
  (pad 2 thru_hole oval (at 2.54 0) (size 1.7272 1.7272) (drill 1.016) (layers *.Cu *.Mask))
  (pad 3 thru_hole oval (at 0 2.54) (size 1.7272 1.7272) (drill 1.016) (layers *.Cu *.Mask))
  (pad 4 thru_hole oval (at 2.54 2.54) (size 1.7272 1.7272) (drill 1.016) (layers *.Cu *.Mask))
  (pad 5 thru_hole oval (at 0 5.08) (size 1.7272 1.7272) (drill 1.016) (layers *.Cu *.Mask))
  (pad 6 thru_hole oval (at 2.54 5.08) (size 1.7272 1.7272) (drill 1.016) (layers *.Cu *.Mask))
  (pad 7 thru_hole oval (at 0 7.62) (size 1.7272 1.7272) (drill 1.016) (layers *.Cu *.Mask))
  (pad 8 thru_hole oval (at 2.54 7.62) (size 1.7272 1.7272) (drill 1.016) (layers *.Cu *.Mask))
  (pad 9 thru_hole oval (at 0 10.16) (size 1.7272 1.7272) (drill 1.016) (layers *.Cu *.Mask))
  (pad 10 thru_hole oval (at 2.54 10.16) (size 1.7272 1.7272) (drill 1.016) (layers *.Cu *.Mask))
  (model ${KIPRJMOD}/kicad_libs_k/models_k.3d/Connector_IDC_k.3dshapes/IDC-Header_2x05_P2.54mm_Vertical_k.wrl
    (at (xyz 0 0 0))
    (scale (xyz 1 1 1))
    (rotate (xyz 0 0 0))
  )
)
