(module IDC-Header_2x05_P2.54mm_Horizontal_Lock (layer F.Cu) (tedit 5A29916D)
  (descr "Connector IDC Locked, 10 contacts, compatible header: PANCON HE10 (Series 50, (https://www.reboul.fr/storage/00003af6.pdf)")
  (tags "connector idc locked")
  (fp_text reference REF** (at 12.6 4.75 90) (layer F.SilkS)
    (effects (font (size 1 1) (thickness 0.15)))
  )
  (fp_text value IDC-Header_2x05_P2.54mm_Horizontal_Lock (at -2.3 3.95 90) (layer F.Fab)
    (effects (font (size 1 1) (thickness 0.15)))
  )
  (fp_text user %R (at 10.16 4.445 90) (layer F.Fab)
    (effects (font (size 1 1) (thickness 0.15)))
  )
  (fp_line (start 0 0) (end -1.27 1.27) (layer F.Fab) (width 0.1))
  (fp_line (start -1.27 -1.27) (end 0 0) (layer F.Fab) (width 0.1))
  (fp_line (start -1.4 20.45) (end 5.7 20.45) (layer F.SilkS) (width 0.12))
  (fp_line (start 5.7 20.45) (end 16 17.25) (layer F.SilkS) (width 0.12))
  (fp_line (start 16 17.25) (end 16 13.25) (layer F.SilkS) (width 0.12))
  (fp_line (start 16 13.25) (end 11.55 11.35) (layer F.SilkS) (width 0.12))
  (fp_line (start 11.55 11.35) (end 11.55 -1.2) (layer F.SilkS) (width 0.12))
  (fp_line (start 11.55 -1.2) (end 16 -3.1) (layer F.SilkS) (width 0.12))
  (fp_line (start 16 -3.1) (end 16 -7.05) (layer F.SilkS) (width 0.12))
  (fp_line (start 16 -7.05) (end 5.75 -10.3) (layer F.SilkS) (width 0.12))
  (fp_line (start 5.75 -10.3) (end -1.4 -10.3) (layer F.SilkS) (width 0.12))
  (fp_line (start -1.27 13.72) (end 3.3 13.72) (layer F.Fab) (width 0.1))
  (fp_line (start 3.3 13.72) (end 4.57 14.99) (layer F.Fab) (width 0.1))
  (fp_line (start 4.57 14.99) (end 4.57 17.02) (layer F.Fab) (width 0.1))
  (fp_line (start 4.57 17.02) (end 3.3 18.29) (layer F.Fab) (width 0.1))
  (fp_line (start 3.3 18.29) (end -1.27 18.29) (layer F.Fab) (width 0.1))
  (fp_line (start -1.27 -8.13) (end 3.3 -8.13) (layer F.Fab) (width 0.1))
  (fp_line (start 3.3 -8.13) (end 4.57 -6.86) (layer F.Fab) (width 0.1))
  (fp_line (start 4.57 -6.86) (end 4.57 -4.57) (layer F.Fab) (width 0.1))
  (fp_line (start 4.57 -4.57) (end 3.3 -3.3) (layer F.Fab) (width 0.1))
  (fp_line (start 3.3 -3.3) (end -1.27 -3.3) (layer F.Fab) (width 0.1))
  (fp_line (start -1.27 -10.16) (end 5.71 -10.16) (layer F.Fab) (width 0.1))
  (fp_line (start 5.71 -10.16) (end 15.88 -6.98) (layer F.Fab) (width 0.1))
  (fp_line (start 15.88 -6.98) (end 15.88 -3.18) (layer F.Fab) (width 0.1))
  (fp_line (start -1.27 -10.16) (end -1.27 20.32) (layer F.Fab) (width 0.1))
  (fp_line (start -1.27 20.32) (end 5.71 20.32) (layer F.Fab) (width 0.1))
  (fp_line (start 5.71 20.32) (end 15.88 17.14) (layer F.Fab) (width 0.1))
  (fp_line (start 15.88 17.14) (end 15.88 13.34) (layer F.Fab) (width 0.1))
  (fp_line (start 15.88 13.34) (end 11.43 11.43) (layer F.Fab) (width 0.1))
  (fp_line (start 11.43 11.43) (end 11.43 -1.27) (layer F.Fab) (width 0.1))
  (fp_line (start 15.88 -3.18) (end 11.43 -1.27) (layer F.Fab) (width 0.1))
  (fp_line (start -1.52 20.57) (end -1.52 -10.41) (layer F.CrtYd) (width 0.05))
  (fp_line (start -1.52 20.57) (end 16.12 20.57) (layer F.CrtYd) (width 0.05))
  (fp_line (start 16.12 -10.41) (end -1.52 -10.41) (layer F.CrtYd) (width 0.05))
  (fp_line (start 16.12 -10.41) (end 16.12 20.57) (layer F.CrtYd) (width 0.05))
  (fp_line (start -1.39 20.44) (end -1.39 -10.28) (layer F.SilkS) (width 0.12))
  (pad "" thru_hole circle (at 1.78 16 90) (size 3.05 3.05) (drill 2.54) (layers *.Cu *.Mask))
  (pad "" thru_hole circle (at 1.78 -5.84 90) (size 3.05 3.05) (drill 2.54) (layers *.Cu *.Mask))
  (pad 1 thru_hole rect (at 0 0 90) (size 1.52 1.52) (drill 0.81) (layers *.Cu *.Mask))
  (pad 2 thru_hole circle (at 2.54 0 90) (size 1.52 1.52) (drill 0.81) (layers *.Cu *.Mask))
  (pad 3 thru_hole circle (at 0 2.54 90) (size 1.52 1.52) (drill 0.81) (layers *.Cu *.Mask))
  (pad 4 thru_hole circle (at 2.54 2.54 90) (size 1.52 1.52) (drill 0.81) (layers *.Cu *.Mask))
  (pad 5 thru_hole circle (at 0 5.08 90) (size 1.52 1.52) (drill 0.81) (layers *.Cu *.Mask))
  (pad 6 thru_hole circle (at 2.54 5.08 90) (size 1.52 1.52) (drill 0.81) (layers *.Cu *.Mask))
  (pad 7 thru_hole circle (at 0 7.62 90) (size 1.52 1.52) (drill 0.81) (layers *.Cu *.Mask))
  (pad 8 thru_hole circle (at 2.54 7.62 90) (size 1.52 1.52) (drill 0.81) (layers *.Cu *.Mask))
  (pad 9 thru_hole circle (at 0 10.16 90) (size 1.52 1.52) (drill 0.81) (layers *.Cu *.Mask))
  (pad 10 thru_hole circle (at 2.54 10.16 90) (size 1.52 1.52) (drill 0.81) (layers *.Cu *.Mask))
  (model ${KIPRJMOD}/kicad_libs_k/models_k.3d/Connector_IDC_k.3dshapes/IDC-Header_2x05_P2.54mm_Horizontal_Lock_k.wrl
    (at (xyz 0 0 0))
    (scale (xyz 1 1 1))
    (rotate (xyz 0 0 0))
  )
)
