(module IDC-Header_2x07_P2.54mm_Vertical_Lock (layer F.Cu) (tedit 5A29A8A3)
  (descr "Connector IDC Locked, 10 contacts, compatible header: PANCON HE10 (Series 50, (https://www.reboul.fr/storage/00003af6.pdf)")
  (tags "connector idc locked")
  (fp_text reference REF** (at 7.11 7.62 270) (layer F.SilkS)
    (effects (font (size 1 1) (thickness 0.15)))
  )
  (fp_text value IDC-Header_2x07_P2.54mm_Vertical_Lock (at -4.318 7.62 270) (layer F.Fab)
    (effects (font (size 1 1) (thickness 0.15)))
  )
  (fp_text user %R (at 3.81 7.62 90) (layer F.Fab)
    (effects (font (size 1 1) (thickness 0.15)))
  )
  (fp_line (start -4.318 0.254) (end -3.81 0) (layer F.SilkS) (width 0.12))
  (fp_line (start -4.318 -0.254) (end -4.318 0.254) (layer F.SilkS) (width 0.12))
  (fp_line (start -3.81 0) (end -4.318 -0.254) (layer F.SilkS) (width 0.12))
  (fp_line (start -1.016 0) (end -2.286 1.016) (layer F.Fab) (width 0.1))
  (fp_line (start -2.286 -0.762) (end -1.016 0) (layer F.Fab) (width 0.1))
  (fp_line (start 5.59 -11.18) (end 5.59 26.16) (layer F.Fab) (width 0.1))
  (fp_line (start 5.59 26.16) (end -3.05 26.16) (layer F.Fab) (width 0.1))
  (fp_line (start -3.05 26.16) (end -3.05 -11.18) (layer F.Fab) (width 0.1))
  (fp_line (start -3.05 5.08) (end -2.29 5.08) (layer F.Fab) (width 0.1))
  (fp_line (start -2.29 5.08) (end -2.29 -3.81) (layer F.Fab) (width 0.1))
  (fp_line (start -2.29 -3.81) (end 4.83 -3.81) (layer F.Fab) (width 0.1))
  (fp_line (start 4.83 -3.81) (end 4.83 19.05) (layer F.Fab) (width 0.1))
  (fp_line (start 4.83 19.05) (end -2.29 19.05) (layer F.Fab) (width 0.1))
  (fp_line (start -2.29 19.05) (end -2.29 10.16) (layer F.Fab) (width 0.1))
  (fp_line (start -2.29 10.16) (end -3.05 10.16) (layer F.Fab) (width 0.1))
  (fp_line (start -3.05 -11.18) (end 5.59 -11.18) (layer F.Fab) (width 0.1))
  (fp_line (start 5.84 -11.87) (end 5.84 27.11) (layer F.CrtYd) (width 0.05))
  (fp_line (start 5.84 -11.87) (end -3.3 -11.87) (layer F.CrtYd) (width 0.05))
  (fp_line (start -3.3 27.11) (end 5.84 27.11) (layer F.CrtYd) (width 0.05))
  (fp_line (start -3.3 27.11) (end -3.3 -11.87) (layer F.CrtYd) (width 0.05))
  (fp_line (start 5.71 -11.74) (end 5.71 26.98) (layer F.SilkS) (width 0.12))
  (fp_line (start 5.71 -11.74) (end -3.17 -11.74) (layer F.SilkS) (width 0.12))
  (fp_line (start -3.17 26.98) (end 5.71 26.98) (layer F.SilkS) (width 0.12))
  (fp_line (start -3.17 26.98) (end -3.17 -11.74) (layer F.SilkS) (width 0.12))
  (pad "" thru_hole circle (at 1.27 -8.89 270) (size 5.46 5.46) (drill 2.69) (layers *.Cu *.Mask))
  (pad "" thru_hole circle (at 1.27 24.13 270) (size 5.46 5.46) (drill 2.69) (layers *.Cu *.Mask))
  (pad 1 thru_hole rect (at 0 0 270) (size 1.52 1.52) (drill 0.91) (layers *.Cu *.Mask))
  (pad 2 thru_hole circle (at 2.54 0 270) (size 1.52 1.52) (drill 0.91) (layers *.Cu *.Mask))
  (pad 3 thru_hole circle (at 0 2.54 270) (size 1.52 1.52) (drill 0.91) (layers *.Cu *.Mask))
  (pad 4 thru_hole circle (at 2.54 2.54 270) (size 1.52 1.52) (drill 0.91) (layers *.Cu *.Mask))
  (pad 5 thru_hole circle (at 0 5.08 270) (size 1.52 1.52) (drill 0.91) (layers *.Cu *.Mask))
  (pad 6 thru_hole circle (at 2.54 5.08 270) (size 1.52 1.52) (drill 0.91) (layers *.Cu *.Mask))
  (pad 7 thru_hole circle (at 0 7.62 270) (size 1.52 1.52) (drill 0.91) (layers *.Cu *.Mask))
  (pad 8 thru_hole circle (at 2.54 7.62 270) (size 1.52 1.52) (drill 0.91) (layers *.Cu *.Mask))
  (pad 9 thru_hole circle (at 0 10.16 270) (size 1.52 1.52) (drill 0.91) (layers *.Cu *.Mask))
  (pad 10 thru_hole circle (at 2.54 10.16 270) (size 1.52 1.52) (drill 0.91) (layers *.Cu *.Mask))
  (pad 11 thru_hole circle (at 0 12.7 270) (size 1.52 1.52) (drill 0.91) (layers *.Cu *.Mask))
  (pad 12 thru_hole circle (at 2.54 12.7 270) (size 1.52 1.52) (drill 0.91) (layers *.Cu *.Mask))
  (pad 13 thru_hole circle (at 0 15.24 270) (size 1.52 1.52) (drill 0.91) (layers *.Cu *.Mask))
  (pad 14 thru_hole circle (at 2.54 15.24 270) (size 1.52 1.52) (drill 0.91) (layers *.Cu *.Mask))
  (model ${KIPRJMOD}/kicad_libs_k/models_k.3d/Connector_IDC_k.3dshapes/IDC-Header_2x07_P2.54mm_Vertical_Lock_k.wrl
    (at (xyz 0 0 0))
    (scale (xyz 1 1 1))
    (rotate (xyz 0 0 0))
  )
)
