(module IDC-Header_2x13_P2.54mm_Vertical_Lock (layer F.Cu) (tedit 5A29A8A3)
  (descr "Connector IDC Locked, 10 contacts, compatible header: PANCON HE10 (Series 50, (https://www.reboul.fr/storage/00003af6.pdf)")
  (tags "connector idc locked")
  (fp_text reference REF** (at 6.858 15.24 270) (layer F.SilkS)
    (effects (font (size 1 1) (thickness 0.15)))
  )
  (fp_text value IDC-Header_2x13_P2.54mm_Vertical_Lock (at -4.826 14.732 270) (layer F.Fab)
    (effects (font (size 1 1) (thickness 0.15)))
  )
  (fp_text user %R (at 3.81 15.24 90) (layer F.Fab)
    (effects (font (size 1 1) (thickness 0.15)))
  )
  (fp_line (start -1.016 0) (end -2.286 0.762) (layer F.Fab) (width 0.1))
  (fp_line (start -2.286 -0.762) (end -1.016 0) (layer F.Fab) (width 0.1))
  (fp_line (start -4.064 0.254) (end -4.064 -0.254) (layer F.SilkS) (width 0.12))
  (fp_line (start -3.556 0) (end -4.064 0.254) (layer F.SilkS) (width 0.12))
  (fp_line (start -4.064 -0.254) (end -3.556 0) (layer F.SilkS) (width 0.12))
  (fp_line (start 5.59 -10.92) (end -3.05 -10.92) (layer F.Fab) (width 0.1))
  (fp_line (start -3.05 -10.92) (end -3.05 41.4) (layer F.Fab) (width 0.1))
  (fp_line (start -3.05 41.4) (end 5.59 41.4) (layer F.Fab) (width 0.1))
  (fp_line (start 5.59 41.4) (end 5.59 -10.92) (layer F.Fab) (width 0.1))
  (fp_line (start -3.05 13.46) (end -2.29 13.46) (layer F.Fab) (width 0.1))
  (fp_line (start -2.29 13.46) (end -2.29 -3.81) (layer F.Fab) (width 0.1))
  (fp_line (start -2.29 -3.81) (end 4.83 -3.81) (layer F.Fab) (width 0.1))
  (fp_line (start 4.83 -3.81) (end 4.83 34.29) (layer F.Fab) (width 0.1))
  (fp_line (start 4.83 34.29) (end -2.29 34.29) (layer F.Fab) (width 0.1))
  (fp_line (start -2.29 34.29) (end -2.29 17.02) (layer F.Fab) (width 0.1))
  (fp_line (start -2.29 17.02) (end -3.05 17.02) (layer F.Fab) (width 0.1))
  (fp_line (start 5.84 -11.87) (end 5.84 42.35) (layer F.CrtYd) (width 0.05))
  (fp_line (start 5.84 -11.87) (end -3.3 -11.87) (layer F.CrtYd) (width 0.05))
  (fp_line (start -3.3 42.35) (end 5.84 42.35) (layer F.CrtYd) (width 0.05))
  (fp_line (start -3.3 42.35) (end -3.3 -11.87) (layer F.CrtYd) (width 0.05))
  (fp_line (start 5.71 -11.74) (end 5.71 42.22) (layer F.SilkS) (width 0.12))
  (fp_line (start 5.71 -11.74) (end -3.17 -11.74) (layer F.SilkS) (width 0.12))
  (fp_line (start -3.17 42.22) (end 5.71 42.22) (layer F.SilkS) (width 0.12))
  (fp_line (start -3.17 42.22) (end -3.17 -11.74) (layer F.SilkS) (width 0.12))
  (pad 1 thru_hole rect (at 0 0 270) (size 1.52 1.52) (drill 0.91) (layers *.Cu *.Mask))
  (pad 2 thru_hole circle (at 2.54 0 270) (size 1.52 1.52) (drill 0.91) (layers *.Cu *.Mask))
  (pad 3 thru_hole circle (at 0 2.54 270) (size 1.52 1.52) (drill 0.91) (layers *.Cu *.Mask))
  (pad 4 thru_hole circle (at 2.54 2.54 270) (size 1.52 1.52) (drill 0.91) (layers *.Cu *.Mask))
  (pad 5 thru_hole circle (at 0 5.08 270) (size 1.52 1.52) (drill 0.91) (layers *.Cu *.Mask))
  (pad 6 thru_hole circle (at 2.54 5.08 270) (size 1.52 1.52) (drill 0.91) (layers *.Cu *.Mask))
  (pad 7 thru_hole circle (at 0 7.62 270) (size 1.52 1.52) (drill 0.91) (layers *.Cu *.Mask))
  (pad 8 thru_hole circle (at 2.54 7.62 270) (size 1.52 1.52) (drill 0.91) (layers *.Cu *.Mask))
  (pad 9 thru_hole circle (at 0 10.16 270) (size 1.52 1.52) (drill 0.91) (layers *.Cu *.Mask))
  (pad 10 thru_hole circle (at 2.54 10.16 270) (size 1.52 1.52) (drill 0.91) (layers *.Cu *.Mask))
  (pad 11 thru_hole circle (at 0 12.7 270) (size 1.52 1.52) (drill 0.91) (layers *.Cu *.Mask))
  (pad 12 thru_hole circle (at 2.54 12.7 270) (size 1.52 1.52) (drill 0.91) (layers *.Cu *.Mask))
  (pad 13 thru_hole circle (at 0 15.24 270) (size 1.52 1.52) (drill 0.91) (layers *.Cu *.Mask))
  (pad 14 thru_hole circle (at 2.54 15.24 270) (size 1.52 1.52) (drill 0.91) (layers *.Cu *.Mask))
  (pad 15 thru_hole circle (at 0 17.78 270) (size 1.52 1.52) (drill 0.91) (layers *.Cu *.Mask))
  (pad 16 thru_hole circle (at 2.54 17.78 270) (size 1.52 1.52) (drill 0.91) (layers *.Cu *.Mask))
  (pad 17 thru_hole circle (at 0 20.32 270) (size 1.52 1.52) (drill 0.91) (layers *.Cu *.Mask))
  (pad 18 thru_hole circle (at 2.54 20.32 270) (size 1.52 1.52) (drill 0.91) (layers *.Cu *.Mask))
  (pad 19 thru_hole circle (at 0 22.86 270) (size 1.52 1.52) (drill 0.91) (layers *.Cu *.Mask))
  (pad 20 thru_hole circle (at 2.54 22.86 270) (size 1.52 1.52) (drill 0.91) (layers *.Cu *.Mask))
  (pad "" thru_hole circle (at 1.02 -8.89 270) (size 5.46 5.46) (drill 2.69) (layers *.Cu *.Mask))
  (pad 21 thru_hole circle (at 0 25.4 270) (size 1.52 1.52) (drill 0.91) (layers *.Cu *.Mask))
  (pad 22 thru_hole circle (at 2.54 25.4 270) (size 1.52 1.52) (drill 0.91) (layers *.Cu *.Mask))
  (pad 23 thru_hole circle (at 0 27.94 270) (size 1.52 1.52) (drill 0.91) (layers *.Cu *.Mask))
  (pad 24 thru_hole circle (at 2.54 27.94 270) (size 1.52 1.52) (drill 0.91) (layers *.Cu *.Mask))
  (pad 25 thru_hole circle (at 0 30.48 270) (size 1.52 1.52) (drill 0.91) (layers *.Cu *.Mask))
  (pad 26 thru_hole circle (at 2.54 30.48 270) (size 1.52 1.52) (drill 0.91) (layers *.Cu *.Mask))
  (pad "" thru_hole circle (at 1.02 39.37 270) (size 5.46 5.46) (drill 2.69) (layers *.Cu *.Mask))
  (model ${KIPRJMOD}/kicad_libs_k/models_k.3d/Connector_IDC_k.3dshapes/IDC-Header_2x13_P2.54mm_Vertical_Lock_k.wrl
    (at (xyz 0 0 0))
    (scale (xyz 1 1 1))
    (rotate (xyz 0 0 0))
  )
)
