(module WS-DITU_rev19b-418121270805 (layer F.Cu) (tedit 200000)
  (attr smd)
  (fp_text reference >NAME (at 0.0381 -7.20344) (layer F.SilkS)
    (effects (font (size 1.27 1.27) (thickness 0.1016)))
  )
  (fp_text value >VALUE (at 0.40894 7.03326) (layer F.SilkS)
    (effects (font (size 1.27 1.27) (thickness 0.1016)))
  )
  (fp_line (start -6.8199 -3.0988) (end -6.8199 3.0988) (layer Dwgs.User) (width 0.09906))
  (fp_line (start 6.8199 -3.0988) (end 6.8199 3.0988) (layer Dwgs.User) (width 0.09906))
  (fp_line (start -6.8199 -3.0988) (end 6.8199 -3.0988) (layer Dwgs.User) (width 0.09906))
  (fp_line (start -6.8199 3.0988) (end 6.8199 3.0988) (layer Dwgs.User) (width 0.09906))
  (fp_line (start -6.09854 -3.19786) (end -6.91896 -3.19786) (layer F.SilkS) (width 0.19812))
  (fp_line (start -6.91896 -3.19786) (end -6.91896 3.19786) (layer F.SilkS) (width 0.19812))
  (fp_line (start -6.91896 3.19786) (end -6.09854 3.19786) (layer F.SilkS) (width 0.19812))
  (fp_line (start 6.09854 -3.19786) (end 6.91896 -3.19786) (layer F.SilkS) (width 0.19812))
  (fp_line (start 6.91896 -3.19786) (end 6.91896 3.19786) (layer F.SilkS) (width 0.19812))
  (fp_line (start 6.91896 3.19786) (end 6.09854 3.19786) (layer F.SilkS) (width 0.19812))
  (fp_line (start -1.4986 -3.19786) (end -0.99822 -3.19786) (layer F.SilkS) (width 0.19812))
  (fp_line (start -4.0386 -3.19786) (end -3.53822 -3.19786) (layer F.SilkS) (width 0.19812))
  (fp_line (start 1.03886 -3.19786) (end 1.53924 -3.19786) (layer F.SilkS) (width 0.19812))
  (fp_line (start 3.57886 -3.19786) (end 4.07924 -3.19786) (layer F.SilkS) (width 0.19812))
  (fp_line (start -1.4986 3.19786) (end -0.99822 3.19786) (layer F.SilkS) (width 0.19812))
  (fp_line (start -4.0386 3.19786) (end -3.53822 3.19786) (layer F.SilkS) (width 0.19812))
  (fp_line (start 1.03886 3.19786) (end 1.53924 3.19786) (layer F.SilkS) (width 0.19812))
  (fp_line (start 3.57886 3.19786) (end 4.07924 3.19786) (layer F.SilkS) (width 0.19812))
  (fp_poly (pts (xy -7.11962 -5.69976) (xy 7.11962 -5.69976) (xy 7.11962 5.69976) (xy -7.11962 5.69976)
    (xy -7.11962 -5.69976)) (layer Dwgs.User) (width 0.09906))
  (fp_circle (center -6.1976 3.49758) (end -6.1976 3.44932) (layer F.SilkS) (width 0.19812))
  (fp_text user 1 (at -4.97332 2.06248) (layer Dwgs.User)
    (effects (font (size 1.27 1.27) (thickness 0.1016)))
  )
  (pad 1 smd rect (at -5.08 4.39928) (size 1.09982 2.19964) (layers F.Cu F.Paste F.Mask))
  (pad 2 smd rect (at -2.54 4.39928) (size 1.09982 2.19964) (layers F.Cu F.Paste F.Mask))
  (pad 3 smd rect (at 0 4.39928) (size 1.09982 2.19964) (layers F.Cu F.Paste F.Mask))
  (pad 4 smd rect (at 2.54 4.39928) (size 1.09982 2.19964) (layers F.Cu F.Paste F.Mask))
  (pad 5 smd rect (at 5.08 4.39928) (size 1.09982 2.19964) (layers F.Cu F.Paste F.Mask))
  (pad A1 smd rect (at -5.08 -4.39928) (size 1.09982 2.19964) (layers F.Cu F.Paste F.Mask))
  (pad A2 smd rect (at -2.54 -4.39928) (size 1.09982 2.19964) (layers F.Cu F.Paste F.Mask))
  (pad A3 smd rect (at 0 -4.39928) (size 1.09982 2.19964) (layers F.Cu F.Paste F.Mask))
  (pad A4 smd rect (at 2.54 -4.39928) (size 1.09982 2.19964) (layers F.Cu F.Paste F.Mask))
  (pad A5 smd rect (at 5.08 -4.39928) (size 1.09982 2.19964) (layers F.Cu F.Paste F.Mask))
)
