(module WS-DITU_rev19b-431183015816 (layer F.Cu) (tedit 200000)
  (descr "WS-TSS-5X5 MM J-BEND SMD TACT SWITCH WITH GROUND TERMINAL, 4 PINS")
  (tags "WS-TSS-5X5 MM J-BEND SMD TACT SWITCH WITH GROUND TERMINAL, 4 PINS")
  (attr smd)
  (fp_text reference >NAME (at 0.05588 -3.9116) (layer F.SilkS)
    (effects (font (size 0.8128 0.8128) (thickness 0.0762)))
  )
  (fp_text value >VALUE (at 0.2921 3.67792) (layer F.SilkS)
    (effects (font (size 0.8128 0.8128) (thickness 0.0762)))
  )
  (fp_line (start -2.49936 -2.49936) (end 2.49936 -2.49936) (layer Dwgs.User) (width 0.127))
  (fp_line (start 2.49936 -2.49936) (end 2.49936 2.49936) (layer Dwgs.User) (width 0.127))
  (fp_line (start 2.49936 2.49936) (end -2.49936 2.49936) (layer Dwgs.User) (width 0.127))
  (fp_line (start -2.49936 2.49936) (end -2.49936 -2.49936) (layer Dwgs.User) (width 0.127))
  (fp_line (start -0.7493 -2.49936) (end -2.49936 -2.49936) (layer F.SilkS) (width 0.127))
  (fp_line (start -2.49936 -2.49936) (end -2.49936 -2.33934) (layer F.SilkS) (width 0.127))
  (fp_line (start 0.67818 -2.49936) (end 2.49936 -2.49936) (layer F.SilkS) (width 0.127))
  (fp_line (start 2.49936 -2.49936) (end 2.49936 -2.32918) (layer F.SilkS) (width 0.127))
  (fp_line (start -2.49936 -1.33858) (end -2.49936 1.32842) (layer F.SilkS) (width 0.127))
  (fp_line (start 2.49936 -1.3081) (end 2.49936 1.3589) (layer F.SilkS) (width 0.127))
  (fp_line (start -2.49936 2.3495) (end -2.49936 2.49936) (layer F.SilkS) (width 0.127))
  (fp_line (start -2.49936 2.49936) (end -0.68834 2.49936) (layer F.SilkS) (width 0.127))
  (fp_line (start 2.49936 2.35966) (end 2.49936 2.49936) (layer F.SilkS) (width 0.127))
  (fp_line (start 2.49936 2.49936) (end 0.6985 2.49936) (layer F.SilkS) (width 0.127))
  (fp_poly (pts (xy -2.89814 -2.89814) (xy 2.89814 -2.89814) (xy 2.89814 2.89814) (xy -2.89814 2.89814)
    (xy -2.89814 -2.89814)) (layer Dwgs.User) (width 0.127))
  (fp_circle (center -2.79908 2.59842) (end -2.79908 2.55016) (layer F.SilkS) (width 0.19812))
  (fp_text user 1 (at -1.2319 1.73228) (layer Dwgs.User)
    (effects (font (size 0.8128 0.8128) (thickness 0.0762)))
  )
  (fp_text user 2 (at -1.2319 -1.7653) (layer Dwgs.User)
    (effects (font (size 0.8128 0.8128) (thickness 0.0762)))
  )
  (fp_text user 4 (at 1.56464 -1.7653) (layer Dwgs.User)
    (effects (font (size 0.8128 0.8128) (thickness 0.0762)))
  )
  (fp_text user 3 (at 1.46558 1.73228) (layer Dwgs.User)
    (effects (font (size 0.8128 0.8128) (thickness 0.0762)))
  )
  (pad 1 smd rect (at -2.2987 1.84912) (size 0.79756 0.59944) (layers F.Cu F.Paste F.Mask))
  (pad 2 smd rect (at -2.2987 -1.84912) (size 0.79756 0.59944) (layers F.Cu F.Paste F.Mask))
  (pad 3 smd rect (at 2.2987 1.84912) (size 0.79756 0.59944) (layers F.Cu F.Paste F.Mask))
  (pad 4 smd rect (at 2.2987 -1.84912) (size 0.79756 0.59944) (layers F.Cu F.Paste F.Mask))
  (pad GND1 smd rect (at 0 -2.52476) (size 0.99822 0.44958) (layers F.Cu F.Paste F.Mask))
  (pad GND2 smd rect (at 0 2.52476) (size 0.99822 0.44958) (layers F.Cu F.Paste F.Mask))
)
