(module WS-DITU_rev19b-418127160901 (layer F.Cu) (tedit 200000)
  (descr WS-DITV)
  (tags WS-DITV)
  (attr virtual)
  (fp_text reference >NAME (at 0.1397 -5.87502) (layer F.SilkS)
    (effects (font (size 0.8128 0.8128) (thickness 0.0762)))
  )
  (fp_text value >VALUE (at 1.00838 5.82168) (layer F.SilkS)
    (effects (font (size 0.8128 0.8128) (thickness 0.0762)))
  )
  (fp_line (start -1.7399 -3.0988) (end 1.7399 -3.0988) (layer Dwgs.User) (width 0.127))
  (fp_line (start 1.7399 -3.0988) (end 1.7399 3.0988) (layer Dwgs.User) (width 0.127))
  (fp_line (start 1.7399 3.0988) (end -1.7399 3.0988) (layer Dwgs.User) (width 0.127))
  (fp_line (start -1.7399 3.0988) (end -1.7399 -3.0988) (layer Dwgs.User) (width 0.127))
  (fp_line (start -0.54864 -3.0988) (end -1.7399 -3.0988) (layer F.SilkS) (width 0.127))
  (fp_line (start -1.7399 -3.0988) (end -1.7399 3.0988) (layer F.SilkS) (width 0.127))
  (fp_line (start -1.7399 3.0988) (end -0.62992 3.0988) (layer F.SilkS) (width 0.127))
  (fp_line (start 0.52832 -3.0988) (end 1.7399 -3.0988) (layer F.SilkS) (width 0.127))
  (fp_line (start 1.7399 -3.0988) (end 1.7399 3.0988) (layer F.SilkS) (width 0.127))
  (fp_line (start 1.7399 3.0988) (end 0.6096 3.0988) (layer F.SilkS) (width 0.127))
  (fp_poly (pts (xy -1.98882 -4.7498) (xy 1.98882 -4.7498) (xy 1.98882 4.99872) (xy -1.98882 4.99872)
    (xy -1.98882 -4.7498)) (layer Dwgs.User) (width 0.127))
  (fp_circle (center -1.39954 3.49758) (end -1.39954 3.44932) (layer F.SilkS) (width 0.19812))
  (fp_text user 1 (at 0.23368 1.56464) (layer Dwgs.User)
    (effects (font (size 1.27 1.27) (thickness 0.1016)))
  )
  (pad 1 thru_hole circle (at 0 3.81) (size 1.30556 1.30556) (drill 0.79756) (layers *.Cu *.Paste *.Mask))
  (pad A1 thru_hole circle (at 0 -3.81) (size 1.30556 1.30556) (drill 0.79756) (layers *.Cu *.Paste *.Mask))
)
