(module WS-DITU_rev19b-WS-ENTV_4820XX514001 (layer F.Cu) (tedit 200000)
  (attr virtual)
  (fp_text reference >NAME (at -0.09906 -8.18896) (layer F.SilkS)
    (effects (font (size 1.778 1.778) (thickness 0.1524)))
  )
  (fp_text value >VALUE (at 1.2319 8.20928) (layer F.SilkS)
    (effects (font (size 1.778 1.778) (thickness 0.1524)))
  )
  (fp_line (start -7.24916 -5.84962) (end 6.49986 -5.84962) (layer Dwgs.User) (width 0.09906))
  (fp_line (start 6.49986 -5.84962) (end 6.49986 -2.89814) (layer Dwgs.User) (width 0.09906))
  (fp_line (start 6.49986 -2.89814) (end 6.49986 -2.09804) (layer Dwgs.User) (width 0.09906))
  (fp_line (start 6.49986 -2.09804) (end 6.49986 -0.39878) (layer Dwgs.User) (width 0.09906))
  (fp_line (start 6.49986 -0.39878) (end 6.49986 0.39878) (layer Dwgs.User) (width 0.09906))
  (fp_line (start 6.49986 0.39878) (end 6.49986 2.09804) (layer Dwgs.User) (width 0.09906))
  (fp_line (start 6.49986 2.09804) (end 6.49986 2.89814) (layer Dwgs.User) (width 0.09906))
  (fp_line (start 6.49986 2.89814) (end 6.49986 5.84962) (layer Dwgs.User) (width 0.09906))
  (fp_line (start 6.49986 5.84962) (end -7.24916 5.84962) (layer Dwgs.User) (width 0.09906))
  (fp_line (start -7.24916 5.84962) (end -7.24916 -5.84962) (layer Dwgs.User) (width 0.09906))
  (fp_line (start 6.49986 -2.89814) (end 7.59968 -2.89814) (layer Dwgs.User) (width 0.09906))
  (fp_line (start 7.59968 -2.89814) (end 7.59968 -2.09804) (layer Dwgs.User) (width 0.09906))
  (fp_line (start 7.59968 -2.09804) (end 6.49986 -2.09804) (layer Dwgs.User) (width 0.09906))
  (fp_line (start 6.49986 -0.39878) (end 7.59968 -0.39878) (layer Dwgs.User) (width 0.09906))
  (fp_line (start 7.59968 -0.39878) (end 7.59968 0.39878) (layer Dwgs.User) (width 0.09906))
  (fp_line (start 7.59968 0.39878) (end 6.49986 0.39878) (layer Dwgs.User) (width 0.09906))
  (fp_line (start 6.49986 2.09804) (end 7.59968 2.09804) (layer Dwgs.User) (width 0.09906))
  (fp_line (start 7.59968 2.09804) (end 7.59968 2.89814) (layer Dwgs.User) (width 0.09906))
  (fp_line (start 7.59968 2.89814) (end 6.49986 2.89814) (layer Dwgs.User) (width 0.09906))
  (fp_line (start -1.29794 -5.5499) (end 1.29794 -5.5499) (layer Dwgs.User) (width 0.09906))
  (fp_line (start 1.29794 -5.5499) (end 1.29794 -3.74904) (layer Dwgs.User) (width 0.09906))
  (fp_line (start 1.29794 -3.74904) (end -1.29794 -3.74904) (layer Dwgs.User) (width 0.09906))
  (fp_line (start -1.29794 -3.74904) (end -1.29794 -5.5499) (layer Dwgs.User) (width 0.09906))
  (fp_line (start -2.19964 -5.94868) (end -7.34822 -5.94868) (layer F.SilkS) (width 0.19812))
  (fp_line (start -7.34822 -5.94868) (end -7.34822 -3.69824) (layer F.SilkS) (width 0.19812))
  (fp_line (start 2.19964 -5.94868) (end 6.59892 -5.94868) (layer F.SilkS) (width 0.19812))
  (fp_line (start 6.59892 -5.94868) (end 6.59892 -3.29946) (layer F.SilkS) (width 0.19812))
  (fp_line (start 6.59892 -1.69926) (end 6.59892 -0.79756) (layer F.SilkS) (width 0.19812))
  (fp_line (start 6.59892 0.79756) (end 6.59892 1.69926) (layer F.SilkS) (width 0.19812))
  (fp_line (start 6.59892 3.29946) (end 6.59892 5.94868) (layer F.SilkS) (width 0.19812))
  (fp_line (start 6.59892 5.94868) (end 2.19964 5.94868) (layer F.SilkS) (width 0.19812))
  (fp_line (start -7.34822 3.59918) (end -7.34822 5.94868) (layer F.SilkS) (width 0.19812))
  (fp_line (start -7.34822 5.94868) (end -2.19964 5.94868) (layer F.SilkS) (width 0.19812))
  (fp_line (start -7.34822 -1.39954) (end -7.34822 1.39954) (layer F.SilkS) (width 0.19812))
  (fp_line (start -1.29794 3.74904) (end 1.29794 3.74904) (layer Dwgs.User) (width 0.09906))
  (fp_line (start 1.29794 3.74904) (end 1.29794 5.5499) (layer Dwgs.User) (width 0.09906))
  (fp_line (start 1.29794 5.5499) (end -1.29794 5.5499) (layer Dwgs.User) (width 0.09906))
  (fp_line (start -1.29794 5.5499) (end -1.29794 3.74904) (layer Dwgs.User) (width 0.09906))
  (fp_poly (pts (xy -7.99846 -6.2484) (xy 8.79856 -6.2484) (xy 8.79856 6.2484) (xy -7.99846 6.2484)
    (xy -7.99846 -6.2484)) (layer Dwgs.User) (width 0.09906))
  (fp_poly (pts (xy -1.79832 -6.04774) (xy 1.79832 -6.04774) (xy 1.79832 -3.24866) (xy -1.79832 -3.24866)
    (xy -1.79832 -6.04774)) (layer B.Mask) (width 0.09906))
  (fp_poly (pts (xy -1.79832 -6.04774) (xy 1.79832 -6.04774) (xy 1.79832 -3.24866) (xy -1.79832 -3.24866)
    (xy -1.79832 -6.04774)) (layer F.Mask) (width 0.09906))
  (fp_poly (pts (xy -1.79832 3.24866) (xy 1.79832 3.24866) (xy 1.79832 6.04774) (xy -1.79832 6.04774)
    (xy -1.79832 3.24866)) (layer B.Mask) (width 0.09906))
  (fp_poly (pts (xy -1.79832 3.24866) (xy 1.79832 3.24866) (xy 1.79832 6.04774) (xy -1.79832 6.04774)
    (xy -1.79832 3.24866)) (layer F.Mask) (width 0.09906))
  (fp_poly (pts (xy -1.69926 -5.94868) (xy 1.69926 -5.94868) (xy 1.69926 -3.34772) (xy -1.69926 -3.34772)
    (xy -1.69926 -5.94868)) (layer B.Adhes) (width 0.09906))
  (fp_poly (pts (xy -1.69926 3.34772) (xy 1.69926 3.34772) (xy 1.69926 5.94868) (xy -1.69926 5.94868)
    (xy -1.69926 3.34772)) (layer B.Adhes) (width 0.09906))
  (fp_circle (center 0 0) (end 0 -2.99974) (layer Dwgs.User) (width 0.09906))
  (fp_text user 1 (at -4.58978 2.89052) (layer F.SilkS)
    (effects (font (size 1.016 1.016) (thickness 0.0762)))
  )
  (fp_text user A (at 5.50672 2.49174) (layer F.SilkS)
    (effects (font (size 1.016 1.016) (thickness 0.0762)))
  )
  (fp_text user C (at 5.50672 -0.00762) (layer F.SilkS)
    (effects (font (size 1.016 1.016) (thickness 0.0762)))
  )
  (fp_text user B (at 5.50672 -2.40792) (layer F.SilkS)
    (effects (font (size 1.016 1.016) (thickness 0.0762)))
  )
  (fp_text user 2 (at -4.69138 -2.50698) (layer F.SilkS)
    (effects (font (size 1.016 1.016) (thickness 0.0762)))
  )
  (fp_text user "cutout area" (at 0.57404 -4.55168) (layer F.SilkS)
    (effects (font (size 0.3048 0.3048) (thickness 0.0254)))
  )
  (fp_text user "cutout area" (at 0.57404 4.74726) (layer F.SilkS)
    (effects (font (size 0.3048 0.3048) (thickness 0.0254)))
  )
  (fp_text user "For Bracket Terminal (Square Cut-out), please open layer 17 & 46\n" (at 33.87598 11.99388) (layer Dwgs.User)
    (effects (font (size 0.6096 0.6096) (thickness 0.0508)))
  )
  (pad 1 thru_hole circle (at -6.9977 2.49936) (size 1.50622 1.50622) (drill 0.99822) (layers *.Cu *.Paste *.Mask))
  (pad 2 thru_hole circle (at -6.9977 -2.49936) (size 1.50622 1.50622) (drill 0.99822) (layers *.Cu *.Paste *.Mask))
  (pad A thru_hole circle (at 7.49808 2.49936) (size 1.50622 1.50622) (drill 0.99822) (layers *.Cu *.Paste *.Mask))
  (pad B thru_hole circle (at 7.49808 -2.49936) (size 1.50622 1.50622) (drill 0.99822) (layers *.Cu *.Paste *.Mask))
  (pad C thru_hole circle (at 7.49808 0) (size 1.50622 1.50622) (drill 0.99822) (layers *.Cu *.Paste *.Mask))
  (pad C1 thru_hole circle (at 7.49808 0) (size 1.50622 1.50622) (drill 0.99822) (layers *.Cu *.Paste *.Mask))
  (pad Z1 thru_hole rect (at 0 -4.6482) (size 2.69748 2.69748) (drill 1.79832) (layers *.Cu *.Paste *.Mask))
  (pad Z2 thru_hole rect (at 0 4.6482) (size 2.69748 2.69748) (drill 1.79832) (layers *.Cu *.Paste *.Mask))
)
