(module WS-DITU_rev19b-430453025836 (layer F.Cu) (tedit 200000)
  (descr "WS-TSW-6X6 MM WASHABLE J-BEND SMD TACT SWITCH,4 PINS")
  (tags "WS-TSW-6X6 MM WASHABLE J-BEND SMD TACT SWITCH,4 PINS")
  (attr smd)
  (fp_text reference >NAME (at -0.26162 -4.75996) (layer F.SilkS)
    (effects (font (size 1.27 1.27) (thickness 0.1016)))
  )
  (fp_text value >VALUE (at 0.26162 4.5466) (layer F.SilkS)
    (effects (font (size 1.27 1.27) (thickness 0.1016)))
  )
  (fp_line (start -3.0988 -3.0988) (end -3.0988 3.0988) (layer Dwgs.User) (width 0.127))
  (fp_line (start -3.0988 3.0988) (end 3.0988 3.0988) (layer F.SilkS) (width 0.127))
  (fp_line (start 3.0988 3.0988) (end 3.0988 -3.0988) (layer Dwgs.User) (width 0.127))
  (fp_line (start 3.0988 -3.0988) (end -3.0988 -3.0988) (layer F.SilkS) (width 0.127))
  (fp_line (start -3.0988 -1.00838) (end -3.0988 1.06934) (layer F.SilkS) (width 0.127))
  (fp_line (start 3.0988 -1.01854) (end 3.0988 1.05918) (layer F.SilkS) (width 0.127))
  (fp_poly (pts (xy -4.37896 -3.34772) (xy 4.37896 -3.34772) (xy 4.37896 3.34772) (xy -4.37896 3.34772)
    (xy -4.37896 -3.34772)) (layer Dwgs.User) (width 0.127))
  (fp_circle (center -3.59918 -3.19786) (end -3.59918 -3.24612) (layer F.SilkS) (width 0.19812))
  (fp_text user 1 (at -1.40462 -2.03962) (layer Dwgs.User)
    (effects (font (size 1.27 1.27) (thickness 0.1016)))
  )
  (fp_text user 4 (at 2.03962 1.905) (layer Dwgs.User)
    (effects (font (size 1.27 1.27) (thickness 0.1016)))
  )
  (fp_text user 2 (at 1.84404 -2.03962) (layer Dwgs.User)
    (effects (font (size 1.27 1.27) (thickness 0.1016)))
  )
  (fp_text user 3 (at -1.65354 1.95834) (layer Dwgs.User)
    (effects (font (size 1.27 1.27) (thickness 0.1016)))
  )
  (pad 1 smd rect (at -3.34772 -1.99898) (size 1.69926 1.39954) (layers F.Cu F.Paste F.Mask))
  (pad 2 smd rect (at 3.34772 -1.99898) (size 1.69926 1.39954) (layers F.Cu F.Paste F.Mask))
  (pad 3 smd rect (at -3.34772 1.99898) (size 1.69926 1.39954) (layers F.Cu F.Paste F.Mask))
  (pad 4 smd rect (at 3.34772 1.99898) (size 1.69926 1.39954) (layers F.Cu F.Paste F.Mask))
)
