(module WS-DITU_rev19b-430451031836 (layer F.Cu) (tedit 200000)
  (descr "WS-TSW-6X6 MM WASHABLE SMD TACT SWITCH,4 PINS")
  (tags "WS-TSW-6X6 MM WASHABLE SMD TACT SWITCH,4 PINS")
  (attr smd)
  (fp_text reference >NAME (at 0.18796 -4.6101) (layer F.SilkS)
    (effects (font (size 1.27 1.27) (thickness 0.1016)))
  )
  (fp_text value >VALUE (at 0.56134 4.44754) (layer F.SilkS)
    (effects (font (size 1.27 1.27) (thickness 0.1016)))
  )
  (fp_line (start -3.0988 -3.0988) (end -3.0988 3.0988) (layer Dwgs.User) (width 0.127))
  (fp_line (start -3.0988 3.0988) (end 3.0988 3.0988) (layer F.SilkS) (width 0.127))
  (fp_line (start 3.0988 3.0988) (end 3.0988 -3.0988) (layer Dwgs.User) (width 0.127))
  (fp_line (start 3.0988 -3.0988) (end -3.0988 -3.0988) (layer F.SilkS) (width 0.127))
  (fp_line (start -3.0988 -1.0287) (end -3.0988 1.01854) (layer F.SilkS) (width 0.127))
  (fp_line (start 3.0988 -1.00838) (end 3.0988 1.03886) (layer F.SilkS) (width 0.127))
  (fp_poly (pts (xy -5.08 -3.34772) (xy 5.08 -3.34772) (xy 5.08 3.34772) (xy -5.08 3.34772)
    (xy -5.08 -3.34772)) (layer Dwgs.User) (width 0.127))
  (fp_circle (center -3.59918 -3.19786) (end -3.59918 -3.24612) (layer F.SilkS) (width 0.19812))
  (fp_text user 1 (at -1.1049 -2.03962) (layer Dwgs.User)
    (effects (font (size 1.27 1.27) (thickness 0.1016)))
  )
  (fp_text user 4 (at 1.83896 1.8034) (layer Dwgs.User)
    (effects (font (size 1.27 1.27) (thickness 0.1016)))
  )
  (fp_text user 2 (at 1.69418 -2.13868) (layer Dwgs.User)
    (effects (font (size 1.27 1.27) (thickness 0.1016)))
  )
  (fp_text user 3 (at -1.0033 1.75768) (layer Dwgs.User)
    (effects (font (size 1.27 1.27) (thickness 0.1016)))
  )
  (pad 1 smd rect (at -3.49758 -1.99898) (size 1.99898 1.39954) (layers F.Cu F.Paste F.Mask))
  (pad 2 smd rect (at 3.49758 -1.99898) (size 1.99898 1.39954) (layers F.Cu F.Paste F.Mask))
  (pad 3 smd rect (at -3.49758 1.99898) (size 1.99898 1.39954) (layers F.Cu F.Paste F.Mask))
  (pad 4 smd rect (at 3.49758 1.99898) (size 1.99898 1.39954) (layers F.Cu F.Paste F.Mask))
)
