(module WS-DITU_rev19b-418121270808 (layer F.Cu) (tedit 200000)
  (attr smd)
  (fp_text reference >NAME (at 0.1397 -7.31266) (layer F.SilkS)
    (effects (font (size 1.27 1.27) (thickness 0.1016)))
  )
  (fp_text value >VALUE (at 0.9398 6.94436) (layer F.SilkS)
    (effects (font (size 1.27 1.27) (thickness 0.1016)))
  )
  (fp_line (start -10.6299 -3.0988) (end -10.6299 3.0988) (layer Dwgs.User) (width 0.09906))
  (fp_line (start 10.6299 -3.0988) (end 10.6299 3.0988) (layer Dwgs.User) (width 0.09906))
  (fp_line (start -10.6299 -3.0988) (end 10.6299 -3.0988) (layer Dwgs.User) (width 0.09906))
  (fp_line (start -10.6299 3.0988) (end 10.6299 3.0988) (layer Dwgs.User) (width 0.09906))
  (fp_line (start -9.89838 -3.19786) (end -10.72896 -3.19786) (layer F.SilkS) (width 0.19812))
  (fp_line (start -10.72896 -3.19786) (end -10.72896 3.19786) (layer F.SilkS) (width 0.19812))
  (fp_line (start -10.72896 3.19786) (end -9.89838 3.19786) (layer F.SilkS) (width 0.19812))
  (fp_line (start 9.89838 -3.19786) (end 10.72896 -3.19786) (layer F.SilkS) (width 0.19812))
  (fp_line (start 10.72896 -3.19786) (end 10.72896 3.19786) (layer F.SilkS) (width 0.19812))
  (fp_line (start 10.72896 3.19786) (end 9.89838 3.19786) (layer F.SilkS) (width 0.19812))
  (fp_line (start -7.8994 -3.19786) (end -7.39902 -3.19786) (layer F.SilkS) (width 0.19812))
  (fp_line (start -7.8994 3.19786) (end -7.29996 3.19786) (layer F.SilkS) (width 0.19812))
  (fp_line (start -5.3594 -3.19786) (end -4.85902 -3.19786) (layer F.SilkS) (width 0.19812))
  (fp_line (start -2.8194 -3.19786) (end -2.31902 -3.19786) (layer F.SilkS) (width 0.19812))
  (fp_line (start -0.2794 -3.19786) (end 0.21844 -3.19786) (layer F.SilkS) (width 0.19812))
  (fp_line (start 2.25806 -3.19786) (end 2.75844 -3.19786) (layer F.SilkS) (width 0.19812))
  (fp_line (start 4.79806 -3.19786) (end 5.29844 -3.19786) (layer F.SilkS) (width 0.19812))
  (fp_line (start 7.33806 -3.19786) (end 7.83844 -3.19786) (layer F.SilkS) (width 0.19812))
  (fp_line (start -5.3594 3.19786) (end -4.75996 3.19786) (layer F.SilkS) (width 0.19812))
  (fp_line (start -2.8194 3.19786) (end -2.21996 3.19786) (layer F.SilkS) (width 0.19812))
  (fp_line (start -0.2794 3.19786) (end 0.3175 3.19786) (layer F.SilkS) (width 0.19812))
  (fp_line (start 2.25806 3.19786) (end 2.8575 3.19786) (layer F.SilkS) (width 0.19812))
  (fp_line (start 4.79806 3.19786) (end 5.3975 3.19786) (layer F.SilkS) (width 0.19812))
  (fp_line (start 7.33806 3.19786) (end 7.9375 3.19786) (layer F.SilkS) (width 0.19812))
  (fp_poly (pts (xy -10.92962 -5.69976) (xy 10.92962 -5.69976) (xy 10.92962 5.69976) (xy -10.92962 5.69976)
    (xy -10.92962 -5.69976)) (layer Dwgs.User) (width 0.09906))
  (fp_circle (center -10.09904 3.59918) (end -10.09904 3.55092) (layer F.SilkS) (width 0.19812))
  (fp_text user 1 (at -8.78332 1.6637) (layer Dwgs.User)
    (effects (font (size 1.27 1.27) (thickness 0.1016)))
  )
  (pad 1 smd rect (at -8.89 4.39928) (size 1.09982 2.19964) (layers F.Cu F.Paste F.Mask))
  (pad 2 smd rect (at -6.35 4.39928) (size 1.09982 2.19964) (layers F.Cu F.Paste F.Mask))
  (pad 3 smd rect (at -3.81 4.39928) (size 1.09982 2.19964) (layers F.Cu F.Paste F.Mask))
  (pad 4 smd rect (at -1.27 4.39928) (size 1.09982 2.19964) (layers F.Cu F.Paste F.Mask))
  (pad 5 smd rect (at 1.27 4.39928) (size 1.09982 2.19964) (layers F.Cu F.Paste F.Mask))
  (pad 6 smd rect (at 3.81 4.39928) (size 1.09982 2.19964) (layers F.Cu F.Paste F.Mask))
  (pad 7 smd rect (at 6.35 4.39928) (size 1.09982 2.19964) (layers F.Cu F.Paste F.Mask))
  (pad 8 smd rect (at 8.89 4.39928) (size 1.09982 2.19964) (layers F.Cu F.Paste F.Mask))
  (pad A1 smd rect (at -8.89 -4.39928) (size 1.09982 2.19964) (layers F.Cu F.Paste F.Mask))
  (pad A2 smd rect (at -6.35 -4.39928) (size 1.09982 2.19964) (layers F.Cu F.Paste F.Mask))
  (pad A3 smd rect (at -3.81 -4.39928) (size 1.09982 2.19964) (layers F.Cu F.Paste F.Mask))
  (pad A4 smd rect (at -1.27 -4.39928) (size 1.09982 2.19964) (layers F.Cu F.Paste F.Mask))
  (pad A5 smd rect (at 1.27 -4.39928) (size 1.09982 2.19964) (layers F.Cu F.Paste F.Mask))
  (pad A6 smd rect (at 3.81 -4.39928) (size 1.09982 2.19964) (layers F.Cu F.Paste F.Mask))
  (pad A7 smd rect (at 6.35 -4.39928) (size 1.09982 2.19964) (layers F.Cu F.Paste F.Mask))
  (pad A8 smd rect (at 8.89 -4.39928) (size 1.09982 2.19964) (layers F.Cu F.Paste F.Mask))
)
