(module WS-DITU_rev19b-450404015514 (layer F.Cu) (tedit 200000)
  (attr smd)
  (fp_text reference >NAME (at -0.09906 -4.33324) (layer F.SilkS)
    (effects (font (size 1.27 1.27) (thickness 0.1016)))
  )
  (fp_text value >VALUE (at 1.10998 3.66268) (layer F.SilkS)
    (effects (font (size 1.27 1.27) (thickness 0.1016)))
  )
  (fp_line (start -3.34772 -2.84988) (end 3.34772 -2.84988) (layer Dwgs.User) (width 0.127))
  (fp_line (start 3.34772 -2.84988) (end 3.34772 1.34874) (layer Dwgs.User) (width 0.127))
  (fp_line (start 3.34772 1.34874) (end -3.34772 1.34874) (layer Dwgs.User) (width 0.127))
  (fp_line (start -3.34772 1.34874) (end -3.34772 -2.84988) (layer Dwgs.User) (width 0.127))
  (fp_line (start -3.34772 -1.34874) (end 3.34772 -1.34874) (layer Dwgs.User) (width 0.127))
  (fp_line (start -3.34772 -0.54864) (end -3.34772 0.54864) (layer F.SilkS) (width 0.127))
  (fp_line (start 3.34772 -0.54864) (end 3.34772 0.54864) (layer F.SilkS) (width 0.127))
  (fp_line (start -3.048 1.34874) (end 3.048 1.34874) (layer F.SilkS) (width 0.127))
  (fp_line (start -3.02768 -1.34874) (end 3.02768 -1.34874) (layer F.SilkS) (width 0.127))
  (fp_poly (pts (xy -4.49834 -3.0988) (xy 4.49834 -3.0988) (xy 4.49834 2.74828) (xy -4.49834 2.74828)
    (xy -4.49834 -3.0988)) (layer Dwgs.User) (width 0.127))
  (fp_circle (center 1.4986 1.69926) (end 1.4986 1.651) (layer F.SilkS) (width 0.19812))
  (fp_text user 1 (at 3.30454 2.19456) (layer Dwgs.User)
    (effects (font (size 0.6096 0.6096) (thickness 0.0508)))
  )
  (fp_text user 2 (at 0.35306 2.19456) (layer Dwgs.User)
    (effects (font (size 0.6096 0.6096) (thickness 0.0508)))
  )
  (fp_text user 3 (at -2.94386 2.19456) (layer Dwgs.User)
    (effects (font (size 0.6096 0.6096) (thickness 0.0508)))
  )
  (pad 1 smd rect (at 2.2479 2.04978 90) (size 1.09982 0.6985) (layers F.Cu F.Paste F.Mask))
  (pad 2 smd rect (at -0.7493 2.04978 90) (size 1.09982 0.6985) (layers F.Cu F.Paste F.Mask))
  (pad 3 smd rect (at -2.2479 2.04978 90) (size 1.09982 0.6985) (layers F.Cu F.Paste F.Mask))
  (pad Z1 smd rect (at -3.74904 -1.14808) (size 0.99822 0.79756) (layers F.Cu F.Paste F.Mask))
  (pad Z2 smd rect (at 3.74904 -1.14808) (size 0.99822 0.79756) (layers F.Cu F.Paste F.Mask))
  (pad Z3 smd rect (at 3.74904 1.14808) (size 0.99822 0.79756) (layers F.Cu F.Paste F.Mask))
  (pad Z4 smd rect (at -3.74904 1.14808) (size 0.99822 0.79756) (layers F.Cu F.Paste F.Mask))
  (pad "" np_thru_hole circle (at -1.4986 0) (size 0.89916 0.89916) (drill 0.89916) (layers *.Cu *.Mask))
  (pad "" np_thru_hole circle (at 1.4986 0) (size 0.89916 0.89916) (drill 0.89916) (layers *.Cu *.Mask))
)
