(module WS-DITU_rev19b-418121160810 (layer F.Cu) (tedit 200000)
  (descr "WS-IC-2.54 MM SMALL COMPACT SMD DIP SWITCH WITH TOP TAPE,20 PINS,10 POLES")
  (tags "WS-IC-2.54 MM SMALL COMPACT SMD DIP SWITCH WITH TOP TAPE,20 PINS,10 POLES")
  (attr smd)
  (fp_text reference >NAME (at 1.27254 -7.47522) (layer F.SilkS)
    (effects (font (size 1.27 1.27) (thickness 0.1016)))
  )
  (fp_text value >VALUE (at 1.3716 7.14756) (layer F.SilkS)
    (effects (font (size 1.27 1.27) (thickness 0.1016)))
  )
  (fp_line (start 13.1699 3.0988) (end 13.1699 -3.0988) (layer F.SilkS) (width 0.127))
  (fp_line (start -13.1699 3.0988) (end 13.1699 3.0988) (layer F.SilkS) (width 0.127))
  (fp_line (start -13.1699 -3.0988) (end -13.1699 3.0988) (layer F.SilkS) (width 0.127))
  (fp_line (start 13.1699 -3.0988) (end -13.1699 -3.0988) (layer F.SilkS) (width 0.127))
  (fp_poly (pts (xy -13.41882 -5.79882) (xy 13.41882 -5.79882) (xy 13.41882 5.79882) (xy -13.41882 5.79882)
    (xy -13.41882 -5.79882)) (layer Dwgs.User) (width 0.127))
  (fp_circle (center -12.49934 3.49758) (end -12.49934 3.44932) (layer F.SilkS) (width 0.19812))
  (fp_text user 1 (at -11.22934 1.50368) (layer Dwgs.User)
    (effects (font (size 1.27 1.27) (thickness 0.1016)))
  )
  (pad 1 smd rect (at -11.43 4.39928) (size 1.09982 2.19964) (layers F.Cu F.Paste F.Mask))
  (pad 2 smd rect (at -8.89 4.39928) (size 1.09982 2.19964) (layers F.Cu F.Paste F.Mask))
  (pad 3 smd rect (at -6.35 4.39928) (size 1.09982 2.19964) (layers F.Cu F.Paste F.Mask))
  (pad 4 smd rect (at -3.81 4.39928) (size 1.09982 2.19964) (layers F.Cu F.Paste F.Mask))
  (pad 5 smd rect (at -1.27 4.39928) (size 1.09982 2.19964) (layers F.Cu F.Paste F.Mask))
  (pad 6 smd rect (at 1.27 4.39928) (size 1.09982 2.19964) (layers F.Cu F.Paste F.Mask))
  (pad 7 smd rect (at 3.81 4.39928) (size 1.09982 2.19964) (layers F.Cu F.Paste F.Mask))
  (pad 8 smd rect (at 6.35 4.39928) (size 1.09982 2.19964) (layers F.Cu F.Paste F.Mask))
  (pad 9 smd rect (at 8.89 4.39928) (size 1.09982 2.19964) (layers F.Cu F.Paste F.Mask))
  (pad 10 smd rect (at 11.43 4.39928) (size 1.09982 2.19964) (layers F.Cu F.Paste F.Mask))
  (pad A1 smd rect (at -11.43 -4.39928) (size 1.09982 2.19964) (layers F.Cu F.Paste F.Mask))
  (pad A2 smd rect (at -8.89 -4.39928) (size 1.09982 2.19964) (layers F.Cu F.Paste F.Mask))
  (pad A3 smd rect (at -6.35 -4.39928) (size 1.09982 2.19964) (layers F.Cu F.Paste F.Mask))
  (pad A4 smd rect (at -3.81 -4.39928) (size 1.09982 2.19964) (layers F.Cu F.Paste F.Mask))
  (pad A5 smd rect (at -1.27 -4.39928) (size 1.09982 2.19964) (layers F.Cu F.Paste F.Mask))
  (pad A6 smd rect (at 1.27 -4.39928) (size 1.09982 2.19964) (layers F.Cu F.Paste F.Mask))
  (pad A7 smd rect (at 3.81 -4.39928) (size 1.09982 2.19964) (layers F.Cu F.Paste F.Mask))
  (pad A8 smd rect (at 6.35 -4.39928) (size 1.09982 2.19964) (layers F.Cu F.Paste F.Mask))
  (pad A9 smd rect (at 8.89 -4.39928) (size 1.09982 2.19964) (layers F.Cu F.Paste F.Mask))
  (pad A10 smd rect (at 11.43 -4.39928) (size 1.09982 2.19964) (layers F.Cu F.Paste F.Mask))
)
