(module WS-DITU_rev19b-416131160804 (layer F.Cu) (tedit 200000)
  (descr "WS-DISV SMD VERSION FLAT ACTUATOR WITH TOP TAPE SEALED")
  (tags "WS-DISV SMD VERSION FLAT ACTUATOR WITH TOP TAPE SEALED")
  (attr smd)
  (fp_text reference >NAME (at 0.26162 -5.60578) (layer F.SilkS)
    (effects (font (size 0.8128 0.8128) (thickness 0.0762)))
  )
  (fp_text value >VALUE (at 0.15748 5.49148) (layer F.SilkS)
    (effects (font (size 0.8128 0.8128) (thickness 0.0762)))
  )
  (fp_line (start -3.1242 -2.89814) (end -3.1242 2.89814) (layer F.SilkS) (width 0.127))
  (fp_line (start 3.1242 -2.89814) (end 3.1242 2.89814) (layer F.SilkS) (width 0.127))
  (fp_line (start -3.1242 -2.89814) (end 3.1242 -2.89814) (layer F.SilkS) (width 0.127))
  (fp_line (start -3.1242 2.89814) (end 3.1242 2.89814) (layer F.SilkS) (width 0.127))
  (fp_poly (pts (xy -3.37312 -4.59994) (xy 3.37312 -4.59994) (xy 3.37312 4.59994) (xy -3.37312 4.59994)
    (xy -3.37312 -4.59994)) (layer Dwgs.User) (width 0.127))
  (fp_circle (center -2.69748 3.29946) (end -2.69748 3.2512) (layer F.SilkS) (width 0.19812))
  (fp_text user 1 (at -1.63322 1.6129) (layer Dwgs.User)
    (effects (font (size 1.27 1.27) (thickness 0.1016)))
  )
  (pad 1 smd rect (at -1.905 3.81) (size 0.75946 1.27) (layers F.Cu F.Paste F.Mask))
  (pad 2 smd rect (at -0.635 3.81) (size 0.75946 1.27) (layers F.Cu F.Paste F.Mask))
  (pad 3 smd rect (at 0.635 3.81) (size 0.75946 1.27) (layers F.Cu F.Paste F.Mask))
  (pad 4 smd rect (at 1.905 3.81) (size 0.75946 1.27) (layers F.Cu F.Paste F.Mask))
  (pad A1 smd rect (at -1.905 -3.81) (size 0.75946 1.27) (layers F.Cu F.Paste F.Mask))
  (pad A2 smd rect (at -0.635 -3.81) (size 0.75946 1.27) (layers F.Cu F.Paste F.Mask))
  (pad A3 smd rect (at 0.635 -3.81) (size 0.75946 1.27) (layers F.Cu F.Paste F.Mask))
  (pad A4 smd rect (at 1.905 -3.81) (size 0.75946 1.27) (layers F.Cu F.Paste F.Mask))
)
