(module WS-DITU_rev19b-418121160804 (layer F.Cu) (tedit 200000)
  (descr "WS-IC-2.54 MM SMALL COMPACT SMD DIP SWITCH WITH TOP TAPE,8 PINS,4 POLES")
  (tags "WS-IC-2.54 MM SMALL COMPACT SMD DIP SWITCH WITH TOP TAPE,8 PINS,4 POLES")
  (attr smd)
  (fp_text reference >NAME (at -0.10668 -7.37362) (layer F.SilkS)
    (effects (font (size 1.27 1.27) (thickness 0.1016)))
  )
  (fp_text value >VALUE (at 0.2921 7.04596) (layer F.SilkS)
    (effects (font (size 1.27 1.27) (thickness 0.1016)))
  )
  (fp_line (start 5.5499 3.0988) (end 5.5499 -3.0988) (layer F.SilkS) (width 0.127))
  (fp_line (start -5.5499 3.0988) (end 5.5499 3.0988) (layer F.SilkS) (width 0.127))
  (fp_line (start -5.5499 -3.0988) (end -5.5499 3.0988) (layer F.SilkS) (width 0.127))
  (fp_line (start 5.5499 -3.0988) (end -5.5499 -3.0988) (layer F.SilkS) (width 0.127))
  (fp_poly (pts (xy -5.79882 -5.79882) (xy 5.79882 -5.79882) (xy 5.79882 5.79882) (xy -5.79882 5.79882)
    (xy -5.79882 -5.79882)) (layer Dwgs.User) (width 0.127))
  (fp_circle (center -4.89966 3.69824) (end -4.89966 3.64998) (layer F.SilkS) (width 0.19812))
  (fp_text user 1 (at -3.7084 1.60274) (layer Dwgs.User)
    (effects (font (size 1.27 1.27) (thickness 0.1016)))
  )
  (pad 1 smd rect (at -3.81 4.39928) (size 1.09982 2.19964) (layers F.Cu F.Paste F.Mask))
  (pad 2 smd rect (at -1.27 4.39928) (size 1.09982 2.19964) (layers F.Cu F.Paste F.Mask))
  (pad 3 smd rect (at 1.27 4.39928) (size 1.09982 2.19964) (layers F.Cu F.Paste F.Mask))
  (pad 4 smd rect (at 3.81 4.39928) (size 1.09982 2.19964) (layers F.Cu F.Paste F.Mask))
  (pad A1 smd rect (at -3.81 -4.39928) (size 1.09982 2.19964) (layers F.Cu F.Paste F.Mask))
  (pad A2 smd rect (at -1.27 -4.39928) (size 1.09982 2.19964) (layers F.Cu F.Paste F.Mask))
  (pad A3 smd rect (at 1.27 -4.39928) (size 1.09982 2.19964) (layers F.Cu F.Paste F.Mask))
  (pad A4 smd rect (at 3.81 -4.39928) (size 1.09982 2.19964) (layers F.Cu F.Paste F.Mask))
)
