(module WS-DITU_rev19b-418121270803 (layer F.Cu) (tedit 200000)
  (attr smd)
  (fp_text reference >NAME (at -0.39878 -6.83514) (layer F.SilkS)
    (effects (font (size 0.8128 0.8128) (thickness 0.0762)))
  )
  (fp_text value >VALUE (at 0.46736 6.62178) (layer F.SilkS)
    (effects (font (size 0.8128 0.8128) (thickness 0.0762)))
  )
  (fp_line (start -4.2799 -3.0988) (end -4.2799 3.0988) (layer Dwgs.User) (width 0.09906))
  (fp_line (start 4.2799 -3.0988) (end 4.2799 3.0988) (layer Dwgs.User) (width 0.09906))
  (fp_line (start -4.2799 -3.0988) (end 4.2799 -3.0988) (layer Dwgs.User) (width 0.09906))
  (fp_line (start -4.2799 3.0988) (end 4.2799 3.0988) (layer Dwgs.User) (width 0.09906))
  (fp_line (start -3.49758 -3.19786) (end -4.37896 -3.19786) (layer F.SilkS) (width 0.19812))
  (fp_line (start -4.37896 -3.19786) (end -4.37896 3.19786) (layer F.SilkS) (width 0.19812))
  (fp_line (start -4.37896 3.19786) (end -3.49758 3.19786) (layer F.SilkS) (width 0.19812))
  (fp_line (start -1.59766 3.19786) (end -0.99822 3.19786) (layer F.SilkS) (width 0.19812))
  (fp_line (start 0.99822 3.19786) (end 1.59766 3.19786) (layer F.SilkS) (width 0.19812))
  (fp_line (start 0.99822 -3.19786) (end 1.59766 -3.19786) (layer F.SilkS) (width 0.19812))
  (fp_line (start -1.59766 -3.19786) (end -0.99822 -3.19786) (layer F.SilkS) (width 0.19812))
  (fp_line (start 3.49758 -3.19786) (end 4.37896 -3.19786) (layer F.SilkS) (width 0.19812))
  (fp_line (start 4.37896 -3.19786) (end 4.37896 3.19786) (layer F.SilkS) (width 0.19812))
  (fp_line (start 4.37896 3.19786) (end 3.49758 3.19786) (layer F.SilkS) (width 0.19812))
  (fp_poly (pts (xy -4.57962 -5.69976) (xy 4.57962 -5.69976) (xy 4.57962 5.69976) (xy -4.57962 5.69976)
    (xy -4.57962 -5.69976)) (layer Dwgs.User) (width 0.09906))
  (fp_circle (center -3.69824 3.69824) (end -3.69824 3.64998) (layer F.SilkS) (width 0.19812))
  (fp_text user 1 (at -2.43332 1.76276) (layer Dwgs.User)
    (effects (font (size 1.27 1.27) (thickness 0.1016)))
  )
  (pad 1 smd rect (at -2.54 4.39928) (size 1.09982 2.19964) (layers F.Cu F.Paste F.Mask))
  (pad 2 smd rect (at 0 4.39928) (size 1.09982 2.19964) (layers F.Cu F.Paste F.Mask))
  (pad 3 smd rect (at 2.54 4.39928) (size 1.09982 2.19964) (layers F.Cu F.Paste F.Mask))
  (pad A1 smd rect (at -2.54 -4.39928) (size 1.09982 2.19964) (layers F.Cu F.Paste F.Mask))
  (pad A2 smd rect (at 0 -4.39928) (size 1.09982 2.19964) (layers F.Cu F.Paste F.Mask))
  (pad A3 smd rect (at 2.54 -4.39928) (size 1.09982 2.19964) (layers F.Cu F.Paste F.Mask))
)
