(module WS-DITU_rev19b-429427320904 (layer F.Cu) (tedit 200000)
  (attr virtual)
  (fp_text reference >NAME (at 0.27432 -4.9149) (layer F.SilkS)
    (effects (font (size 1.27 1.27) (thickness 0.1016)))
  )
  (fp_text value >VALUE (at 1.17856 10.42416) (layer F.SilkS)
    (effects (font (size 1.27 1.27) (thickness 0.1016)))
  )
  (fp_line (start -4.99872 -2.9591) (end 4.99872 -2.9591) (layer Dwgs.User) (width 0.127))
  (fp_line (start 4.99872 -2.9591) (end 4.99872 9.33958) (layer F.SilkS) (width 0.127))
  (fp_line (start 4.99872 9.33958) (end -4.99872 9.33958) (layer F.SilkS) (width 0.127))
  (fp_line (start -4.99872 9.33958) (end -4.99872 -2.9591) (layer F.SilkS) (width 0.127))
  (fp_line (start -3.66776 -2.9591) (end -4.99872 -2.9591) (layer F.SilkS) (width 0.127))
  (fp_line (start 4.99872 -2.9591) (end 3.6576 -2.9591) (layer F.SilkS) (width 0.127))
  (fp_poly (pts (xy -5.24764 -3.49758) (xy 5.24764 -3.49758) (xy 5.24764 9.5885) (xy -5.24764 9.5885)
    (xy -5.24764 -3.49758)) (layer Dwgs.User) (width 0.127))
  (fp_circle (center 3.99796 3.29946) (end 3.99796 3.2512) (layer F.SilkS) (width 0.19812))
  (fp_text user 1 (at 2.8829 4.36372) (layer Dwgs.User)
    (effects (font (size 1.27 1.27) (thickness 0.1016)))
  )
  (fp_text user 2 (at -2.36474 -0.635) (layer Dwgs.User)
    (effects (font (size 1.27 1.27) (thickness 0.1016)))
  )
  (pad 1 thru_hole circle (at 2.54 2.54) (size 1.50622 1.50622) (drill 0.99822) (layers *.Cu *.Paste *.Mask))
  (pad 2 thru_hole circle (at -2.54 -2.54) (size 1.50622 1.50622) (drill 0.99822) (layers *.Cu *.Paste *.Mask))
  (pad C thru_hole circle (at 0 2.54) (size 1.50622 1.50622) (drill 0.99822) (layers *.Cu *.Paste *.Mask))
  (pad C1 thru_hole circle (at 0 -2.54) (size 1.50622 1.50622) (drill 0.99822) (layers *.Cu *.Paste *.Mask))
  (pad Z1 thru_hole circle (at 2.54 -2.54) (size 1.50622 1.50622) (drill 0.99822) (layers *.Cu *.Paste *.Mask))
  (pad Z2 thru_hole circle (at -2.54 2.54) (size 1.50622 1.50622) (drill 0.99822) (layers *.Cu *.Paste *.Mask))
)
