(module WS-DITU_rev19b-428527320910 (layer F.Cu) (tedit 200000)
  (descr "WS-RAT-10X10 MM WASHABLE THT ROTARY SWITCH,6 PINS,10 POSITIONS")
  (tags "WS-RAT-10X10 MM WASHABLE THT ROTARY SWITCH,6 PINS,10 POSITIONS")
  (attr virtual)
  (fp_text reference >NAME (at -0.08128 -6.78942) (layer F.SilkS)
    (effects (font (size 1.27 1.27) (thickness 0.1016)))
  )
  (fp_text value >VALUE (at 0.01778 6.12648) (layer F.SilkS)
    (effects (font (size 1.27 1.27) (thickness 0.1016)))
  )
  (fp_line (start 4.99872 4.99872) (end 4.99872 -4.99872) (layer F.SilkS) (width 0.127))
  (fp_line (start -4.99872 4.99872) (end 4.99872 4.99872) (layer F.SilkS) (width 0.127))
  (fp_line (start 4.99872 -4.99872) (end -4.99872 -4.99872) (layer F.SilkS) (width 0.127))
  (fp_line (start -4.99872 -4.99872) (end -4.99872 4.99872) (layer F.SilkS) (width 0.127))
  (fp_poly (pts (xy -5.24764 -5.24764) (xy 5.24764 -5.24764) (xy 5.24764 5.24764) (xy -5.24764 5.24764)
    (xy -5.24764 -5.24764)) (layer Dwgs.User) (width 0.127))
  (fp_circle (center -4.09956 4.49834) (end -4.09956 4.45008) (layer F.SilkS) (width 0.19812))
  (fp_text user 1 (at -2.33934 2.00914) (layer Dwgs.User)
    (effects (font (size 1.27 1.27) (thickness 0.1016)))
  )
  (fp_text user 4 (at 2.73812 1.70942) (layer Dwgs.User)
    (effects (font (size 1.27 1.27) (thickness 0.1016)))
  )
  (fp_text user 2 (at 2.93878 -2.00914) (layer Dwgs.User)
    (effects (font (size 1.27 1.27) (thickness 0.1016)))
  )
  (fp_text user 8 (at -2.4384 -2.1082) (layer Dwgs.User)
    (effects (font (size 1.27 1.27) (thickness 0.1016)))
  )
  (fp_text user C2 (at 0.23368 -2.2098) (layer Dwgs.User)
    (effects (font (size 1.27 1.27) (thickness 0.1016)))
  )
  (fp_text user C1 (at 0.03302 1.80848) (layer Dwgs.User)
    (effects (font (size 1.27 1.27) (thickness 0.1016)))
  )
  (pad 1 thru_hole circle (at -2.54 3.81) (size 1.50622 1.50622) (drill 0.99822) (layers *.Cu *.Paste *.Mask))
  (pad 2 thru_hole circle (at 2.54 -3.81) (size 1.50622 1.50622) (drill 0.99822) (layers *.Cu *.Paste *.Mask))
  (pad 4 thru_hole circle (at 2.54 3.81) (size 1.50622 1.50622) (drill 0.99822) (layers *.Cu *.Paste *.Mask))
  (pad 8 thru_hole circle (at -2.54 -3.81) (size 1.50622 1.50622) (drill 0.99822) (layers *.Cu *.Paste *.Mask))
  (pad C1 thru_hole circle (at 0 3.81) (size 1.50622 1.50622) (drill 0.99822) (layers *.Cu *.Paste *.Mask))
  (pad C2 thru_hole circle (at 0 -3.81) (size 1.50622 1.50622) (drill 0.99822) (layers *.Cu *.Paste *.Mask))
)
