(module WS-DITU_rev19b-418127160909 (layer F.Cu) (tedit 200000)
  (descr WS-DITV)
  (tags WS-DITV)
  (attr virtual)
  (fp_text reference >NAME (at 0.73914 -6.37794) (layer F.SilkS)
    (effects (font (size 1.27 1.27) (thickness 0.1016)))
  )
  (fp_text value >VALUE (at 1.4732 6.40842) (layer F.SilkS)
    (effects (font (size 1.27 1.27) (thickness 0.1016)))
  )
  (fp_line (start -11.8999 -3.0988) (end 11.8999 -3.0988) (layer Dwgs.User) (width 0.127))
  (fp_line (start 11.8999 -3.0988) (end 11.8999 3.0988) (layer Dwgs.User) (width 0.127))
  (fp_line (start 11.8999 3.0988) (end -11.8999 3.0988) (layer Dwgs.User) (width 0.127))
  (fp_line (start -11.8999 3.0988) (end -11.8999 -3.0988) (layer Dwgs.User) (width 0.127))
  (fp_line (start -10.668 -3.0988) (end -11.8999 -3.0988) (layer F.SilkS) (width 0.127))
  (fp_line (start -11.8999 -3.0988) (end -11.8999 3.0988) (layer F.SilkS) (width 0.127))
  (fp_line (start -11.8999 3.0988) (end -10.64768 3.0988) (layer F.SilkS) (width 0.127))
  (fp_line (start 10.74928 -3.0988) (end 11.8999 -3.0988) (layer F.SilkS) (width 0.127))
  (fp_line (start 11.8999 -3.0988) (end 11.8999 3.0988) (layer F.SilkS) (width 0.127))
  (fp_line (start 11.8999 3.0988) (end 10.6299 3.0988) (layer F.SilkS) (width 0.127))
  (fp_line (start -9.61898 -3.0988) (end -8.11784 -3.0988) (layer F.SilkS) (width 0.127))
  (fp_line (start -7.11962 -3.0988) (end -5.61848 -3.0988) (layer F.SilkS) (width 0.127))
  (fp_line (start -9.61898 3.0988) (end -8.21944 3.0988) (layer F.SilkS) (width 0.127))
  (fp_line (start -7.01802 3.0988) (end -5.61848 3.0988) (layer F.SilkS) (width 0.127))
  (fp_line (start -4.57962 -3.0988) (end -3.07848 -3.0988) (layer F.SilkS) (width 0.127))
  (fp_line (start -2.03962 -3.0988) (end -0.53848 -3.0988) (layer F.SilkS) (width 0.127))
  (fp_line (start -4.47802 3.0988) (end -3.07848 3.0988) (layer F.SilkS) (width 0.127))
  (fp_line (start -1.93802 3.0988) (end -0.53848 3.0988) (layer F.SilkS) (width 0.127))
  (fp_line (start 0.49784 -3.0988) (end 1.99898 -3.0988) (layer F.SilkS) (width 0.127))
  (fp_line (start 0.59944 3.0988) (end 1.99898 3.0988) (layer F.SilkS) (width 0.127))
  (fp_line (start 3.03784 -3.0988) (end 4.53898 -3.0988) (layer F.SilkS) (width 0.127))
  (fp_line (start 3.13944 3.0988) (end 4.53898 3.0988) (layer F.SilkS) (width 0.127))
  (fp_line (start 5.57784 -3.0988) (end 7.07898 -3.0988) (layer F.SilkS) (width 0.127))
  (fp_line (start 5.67944 3.0988) (end 7.07898 3.0988) (layer F.SilkS) (width 0.127))
  (fp_line (start 8.11784 -3.0988) (end 9.61898 -3.0988) (layer F.SilkS) (width 0.127))
  (fp_line (start 8.21944 3.0988) (end 9.61898 3.0988) (layer F.SilkS) (width 0.127))
  (fp_poly (pts (xy -12.14882 -4.7498) (xy 12.14882 -4.7498) (xy 12.14882 4.99872) (xy -12.14882 4.99872)
    (xy -12.14882 -4.7498)) (layer Dwgs.User) (width 0.127))
  (fp_circle (center -11.69924 3.59918) (end -11.69924 3.55092) (layer F.SilkS) (width 0.19812))
  (fp_text user 1 (at -10.02284 1.46304) (layer Dwgs.User)
    (effects (font (size 1.27 1.27) (thickness 0.1016)))
  )
  (pad 1 thru_hole circle (at -10.16 3.81) (size 1.30556 1.30556) (drill 0.79756) (layers *.Cu *.Paste *.Mask))
  (pad 2 thru_hole circle (at -7.62 3.81) (size 1.30556 1.30556) (drill 0.79756) (layers *.Cu *.Paste *.Mask))
  (pad 3 thru_hole circle (at -5.08 3.81) (size 1.30556 1.30556) (drill 0.79756) (layers *.Cu *.Paste *.Mask))
  (pad 4 thru_hole circle (at -2.54 3.81) (size 1.30556 1.30556) (drill 0.79756) (layers *.Cu *.Paste *.Mask))
  (pad 5 thru_hole circle (at 0 3.81) (size 1.30556 1.30556) (drill 0.79756) (layers *.Cu *.Paste *.Mask))
  (pad 6 thru_hole circle (at 2.54 3.81) (size 1.30556 1.30556) (drill 0.79756) (layers *.Cu *.Paste *.Mask))
  (pad 7 thru_hole circle (at 5.08 3.81) (size 1.30556 1.30556) (drill 0.79756) (layers *.Cu *.Paste *.Mask))
  (pad 8 thru_hole circle (at 7.62 3.81) (size 1.30556 1.30556) (drill 0.79756) (layers *.Cu *.Paste *.Mask))
  (pad 9 thru_hole circle (at 10.16 3.81) (size 1.30556 1.30556) (drill 0.79756) (layers *.Cu *.Paste *.Mask))
  (pad A1 thru_hole circle (at -10.16 -3.81) (size 1.30556 1.30556) (drill 0.79756) (layers *.Cu *.Paste *.Mask))
  (pad A2 thru_hole circle (at -7.62 -3.81) (size 1.30556 1.30556) (drill 0.79756) (layers *.Cu *.Paste *.Mask))
  (pad A3 thru_hole circle (at -5.08 -3.81) (size 1.30556 1.30556) (drill 0.79756) (layers *.Cu *.Paste *.Mask))
  (pad A4 thru_hole circle (at -2.54 -3.81) (size 1.30556 1.30556) (drill 0.79756) (layers *.Cu *.Paste *.Mask))
  (pad A5 thru_hole circle (at 0 -3.81) (size 1.30556 1.30556) (drill 0.79756) (layers *.Cu *.Paste *.Mask))
  (pad A6 thru_hole circle (at 2.54 -3.81) (size 1.30556 1.30556) (drill 0.79756) (layers *.Cu *.Paste *.Mask))
  (pad A7 thru_hole circle (at 5.08 -3.81) (size 1.30556 1.30556) (drill 0.79756) (layers *.Cu *.Paste *.Mask))
  (pad A8 thru_hole circle (at 7.62 -3.81) (size 1.30556 1.30556) (drill 0.79756) (layers *.Cu *.Paste *.Mask))
  (pad A9 thru_hole circle (at 10.16 -3.81) (size 1.30556 1.30556) (drill 0.79756) (layers *.Cu *.Paste *.Mask))
)
