(module WS-DITU_rev19b-434381035816 (layer F.Cu) (tedit 200000)
  (descr "WS-TASU SMT TACT SWITCH 6.2X3.0 MM SIDE PUSH")
  (tags "WS-TASU SMT TACT SWITCH 6.2X3.0 MM SIDE PUSH")
  (attr smd)
  (fp_text reference >NAME (at 0 -2.30124) (layer F.SilkS)
    (effects (font (size 0.4064 0.4064) (thickness 0.0254)))
  )
  (fp_text value >VALUE (at 0.11684 2.39522) (layer F.SilkS)
    (effects (font (size 0.4064 0.4064) (thickness 0.0254)))
  )
  (fp_line (start -2.54762 1.64846) (end 2.54762 1.64846) (layer Dwgs.User) (width 0.09906))
  (fp_line (start 2.54762 1.64846) (end 2.54762 0.38862) (layer Dwgs.User) (width 0.09906))
  (fp_line (start 1.74752 0) (end -1.74752 0) (layer Dwgs.User) (width 0.09906))
  (fp_line (start -2.54762 0.38862) (end -2.54762 1.64846) (layer Dwgs.User) (width 0.09906))
  (fp_line (start -3.0988 1.64846) (end 3.0988 1.64846) (layer Dwgs.User) (width 0.09906))
  (fp_line (start 3.0988 1.64846) (end 3.0988 -1.34874) (layer Dwgs.User) (width 0.09906))
  (fp_line (start 3.0988 -1.34874) (end -3.0988 -1.34874) (layer Dwgs.User) (width 0.09906))
  (fp_line (start -3.0988 -1.34874) (end -3.0988 1.64846) (layer Dwgs.User) (width 0.09906))
  (fp_line (start -1.19888 -1.4478) (end 1.19888 -1.4478) (layer F.SilkS) (width 0.19812))
  (fp_line (start -3.19786 1.4986) (end -3.19786 1.74752) (layer F.SilkS) (width 0.19812))
  (fp_line (start -3.19786 1.74752) (end -2.89814 1.74752) (layer F.SilkS) (width 0.19812))
  (fp_line (start 3.19786 1.4986) (end 3.19786 1.74752) (layer F.SilkS) (width 0.19812))
  (fp_line (start 3.19786 1.74752) (end 2.89814 1.74752) (layer F.SilkS) (width 0.19812))
  (fp_poly (pts (xy -3.69824 -1.79832) (xy 3.69824 -1.79832) (xy 3.69824 1.94818) (xy -3.69824 1.94818)
    (xy -3.69824 -1.79832)) (layer Dwgs.User) (width 0.09906))
  (fp_arc (start -2.04978 0.39878) (end -2.54762 0.38862) (angle 125.7) (layer Dwgs.User) (width 0.09906))
  (fp_arc (start 2.04978 0.39878) (end 1.74752 0) (angle 125.7) (layer Dwgs.User) (width 0.09906))
  (fp_text user "Board Cutout" (at 0.63754 0.79502) (layer F.SilkS)
    (effects (font (size 0.4064 0.4064) (thickness 0.0254)))
  )
  (fp_text user "Board Cutout" (at 0.63754 0.79502) (layer Dwgs.User)
    (effects (font (size 0.4064 0.4064) (thickness 0.0254)))
  )
  (pad 1 smd rect (at -2.2733 -0.89916) (size 1.4478 1.09982) (layers F.Cu F.Paste F.Mask))
  (pad 2 smd rect (at 2.2733 -0.89916) (size 1.4478 1.09982) (layers F.Cu F.Paste F.Mask))
  (pad Z1 smd rect (at -3.19786 0.7747) (size 0.59944 0.84836) (layers F.Cu F.Paste F.Mask))
  (pad Z2 smd rect (at 3.19786 0.7747) (size 0.59944 0.84836) (layers F.Cu F.Paste F.Mask))
)
