(module WS-DITU_rev19b-430481035816 (layer F.Cu) (tedit 200000)
  (descr "WS-TASV 6X6MM WASHABLE TACT SWITCH,")
  (tags "WS-TASV 6X6MM WASHABLE TACT SWITCH,")
  (attr smd)
  (fp_text reference >NAME (at -0.29972 -4.63296) (layer F.SilkS)
    (effects (font (size 1.27 1.27) (thickness 0.1016)))
  )
  (fp_text value >VALUE (at 0.90932 4.56438) (layer F.SilkS)
    (effects (font (size 1.27 1.27) (thickness 0.1016)))
  )
  (fp_line (start -3.0988 -3.0988) (end 3.0988 -3.0988) (layer Dwgs.User) (width 0.127))
  (fp_line (start 3.0988 -3.0988) (end 3.0988 3.0988) (layer Dwgs.User) (width 0.127))
  (fp_line (start 3.0988 3.0988) (end -3.0988 3.0988) (layer Dwgs.User) (width 0.127))
  (fp_line (start -3.0988 3.0988) (end -3.0988 -3.0988) (layer Dwgs.User) (width 0.127))
  (fp_line (start -3.0988 -2.89814) (end -3.0988 -3.0988) (layer F.SilkS) (width 0.127))
  (fp_line (start -3.0988 -3.0988) (end 3.0988 -3.0988) (layer F.SilkS) (width 0.127))
  (fp_line (start 3.0988 -3.0988) (end 3.0988 -2.89814) (layer F.SilkS) (width 0.127))
  (fp_line (start -3.0988 -1.09982) (end -3.0988 1.09982) (layer F.SilkS) (width 0.127))
  (fp_line (start 3.0988 -1.09982) (end 3.0988 1.09982) (layer F.SilkS) (width 0.127))
  (fp_line (start -3.0988 2.89814) (end -3.0988 3.0988) (layer F.SilkS) (width 0.127))
  (fp_line (start -3.0988 3.0988) (end 3.0988 3.0988) (layer F.SilkS) (width 0.127))
  (fp_line (start 3.0988 3.0988) (end 3.0988 2.89814) (layer F.SilkS) (width 0.127))
  (fp_poly (pts (xy -4.7498 -3.34772) (xy 4.7498 -3.34772) (xy 4.7498 3.34772) (xy -4.7498 3.34772)
    (xy -4.7498 -3.34772)) (layer Dwgs.User) (width 0.127))
  (fp_circle (center -3.59918 -3.0988) (end -3.59918 -3.14706) (layer F.SilkS) (width 0.19812))
  (fp_text user 1 (at -1.6129 -2.1336) (layer Dwgs.User)
    (effects (font (size 1.27 1.27) (thickness 0.1016)))
  )
  (fp_text user 2 (at 2.1336 -2.1336) (layer Dwgs.User)
    (effects (font (size 1.27 1.27) (thickness 0.1016)))
  )
  (fp_text user 4 (at 1.88468 1.86436) (layer Dwgs.User)
    (effects (font (size 1.27 1.27) (thickness 0.1016)))
  )
  (pad 1 smd rect (at -3.49758 -1.99898) (size 1.99898 1.39954) (layers F.Cu F.Paste F.Mask))
  (pad 2 smd rect (at 3.49758 -1.99898) (size 1.99898 1.39954) (layers F.Cu F.Paste F.Mask))
  (pad 3 smd rect (at -3.49758 1.99898) (size 1.99898 1.39954) (layers F.Cu F.Paste F.Mask))
  (pad 4 smd rect (at 3.49758 1.99898) (size 1.99898 1.39954) (layers F.Cu F.Paste F.Mask))
)
