(module WS-DITU_rev19b-434111043826 (layer F.Cu) (tedit 200000)
  (descr "WS-TRS-6X3.5 MM SMD TACT SWITCH, 2 PINS")
  (tags "WS-TRS-6X3.5 MM SMD TACT SWITCH, 2 PINS")
  (attr smd)
  (fp_text reference >NAME (at -0.15494 -3.302) (layer F.SilkS)
    (effects (font (size 1.27 1.27) (thickness 0.1016)))
  )
  (fp_text value >VALUE (at 0.45212 3.04038) (layer F.SilkS)
    (effects (font (size 1.27 1.27) (thickness 0.1016)))
  )
  (fp_line (start -2.99974 1.74752) (end 2.99974 1.74752) (layer F.SilkS) (width 0.127))
  (fp_line (start 2.99974 1.74752) (end 2.99974 -1.74752) (layer Dwgs.User) (width 0.127))
  (fp_line (start 2.99974 -1.74752) (end -2.99974 -1.74752) (layer F.SilkS) (width 0.127))
  (fp_line (start -2.99974 -1.74752) (end -2.99974 1.74752) (layer Dwgs.User) (width 0.127))
  (fp_line (start -2.99974 -0.95758) (end -2.99974 -1.74752) (layer F.SilkS) (width 0.127))
  (fp_line (start 2.99974 -0.94996) (end 2.99974 -1.7399) (layer F.SilkS) (width 0.127))
  (fp_line (start -2.99974 0.94996) (end -2.99974 1.7399) (layer F.SilkS) (width 0.127))
  (fp_line (start 2.99974 0.95758) (end 2.99974 1.74752) (layer F.SilkS) (width 0.127))
  (fp_poly (pts (xy -4.699 -1.99898) (xy 4.79806 -1.99898) (xy 4.79806 1.99898) (xy -4.699 1.99898)
    (xy -4.699 -1.99898)) (layer Dwgs.User) (width 0.127))
  (fp_text user 1 (at -0.71374 -0.13462) (layer Dwgs.User)
    (effects (font (size 1.27 1.27) (thickness 0.1016)))
  )
  (pad 1 smd rect (at -3.34772 0) (size 2.2987 1.4986) (layers F.Cu F.Paste F.Mask))
  (pad 2 smd rect (at 3.34772 0) (size 2.2987 1.4986) (layers F.Cu F.Paste F.Mask))
)
