(module WS-DITU_rev19b-418127270902 (layer F.Cu) (tedit 200000)
  (descr WS-DITV)
  (tags WS-DITV)
  (attr virtual)
  (fp_text reference >NAME (at -0.00762 -5.74548) (layer F.SilkS)
    (effects (font (size 0.8128 0.8128) (thickness 0.0762)))
  )
  (fp_text value >VALUE (at 0.65786 5.8928) (layer F.SilkS)
    (effects (font (size 0.8128 0.8128) (thickness 0.0762)))
  )
  (fp_line (start -3.0099 -3.0988) (end 3.0099 -3.0988) (layer Dwgs.User) (width 0.127))
  (fp_line (start 3.0099 -3.0988) (end 3.0099 3.0988) (layer Dwgs.User) (width 0.127))
  (fp_line (start 3.0099 3.0988) (end -3.0099 3.0988) (layer Dwgs.User) (width 0.127))
  (fp_line (start -3.0099 3.0988) (end -3.0099 -3.0988) (layer Dwgs.User) (width 0.127))
  (fp_line (start -1.81864 -3.0988) (end -3.0099 -3.0988) (layer F.SilkS) (width 0.127))
  (fp_line (start -3.0099 -3.0988) (end -3.0099 3.0988) (layer F.SilkS) (width 0.127))
  (fp_line (start -3.0099 3.0988) (end -1.89992 3.0988) (layer F.SilkS) (width 0.127))
  (fp_line (start 1.79832 -3.0988) (end 3.0099 -3.0988) (layer F.SilkS) (width 0.127))
  (fp_line (start 3.0099 -3.0988) (end 3.0099 3.0988) (layer F.SilkS) (width 0.127))
  (fp_line (start 3.0099 3.0988) (end 1.8796 3.0988) (layer F.SilkS) (width 0.127))
  (fp_line (start -0.6985 -3.0988) (end 0.6985 -3.0988) (layer F.SilkS) (width 0.127))
  (fp_line (start -0.6985 3.0988) (end 0.6985 3.0988) (layer F.SilkS) (width 0.127))
  (fp_poly (pts (xy 3.25882 -4.99872) (xy 3.25882 4.99872) (xy -3.25882 4.99872) (xy -3.25882 -4.99872)
    (xy 3.25882 -4.99872)) (layer Dwgs.User) (width 0.127))
  (fp_circle (center -2.69748 3.49758) (end -2.69748 3.44932) (layer F.SilkS) (width 0.19812))
  (fp_text user 1 (at -1.13284 1.86436) (layer Dwgs.User)
    (effects (font (size 1.27 1.27) (thickness 0.1016)))
  )
  (pad 1 thru_hole circle (at -1.27 3.81) (size 1.30556 1.30556) (drill 0.79756) (layers *.Cu *.Paste *.Mask))
  (pad 2 thru_hole circle (at 1.27 3.81) (size 1.30556 1.30556) (drill 0.79756) (layers *.Cu *.Paste *.Mask))
  (pad A1 thru_hole circle (at -1.27 -3.81) (size 1.30556 1.30556) (drill 0.79756) (layers *.Cu *.Paste *.Mask))
  (pad A2 thru_hole circle (at 1.27 -3.81) (size 1.30556 1.30556) (drill 0.79756) (layers *.Cu *.Paste *.Mask))
)
