(module WS-DITU_rev19b-418121160805 (layer F.Cu) (tedit 200000)
  (descr "WS-IC-2.54 MM SMALL COMPACT SMD DIP SWITCH WITH TOP TAPE,10 PINS,5 POLES")
  (tags "WS-IC-2.54 MM SMALL COMPACT SMD DIP SWITCH WITH TOP TAPE,10 PINS,5 POLES")
  (attr smd)
  (fp_text reference >NAME (at 0.02286 -7.27456) (layer F.SilkS)
    (effects (font (size 1.27 1.27) (thickness 0.1016)))
  )
  (fp_text value >VALUE (at 0.32258 7.04596) (layer F.SilkS)
    (effects (font (size 1.27 1.27) (thickness 0.1016)))
  )
  (fp_line (start 6.8199 3.0988) (end 6.8199 -3.0988) (layer F.SilkS) (width 0.127))
  (fp_line (start -6.8199 3.0988) (end 6.8199 3.0988) (layer F.SilkS) (width 0.127))
  (fp_line (start -6.8199 -3.0988) (end -6.8199 3.0988) (layer F.SilkS) (width 0.127))
  (fp_line (start 6.8199 -3.0988) (end -6.8199 -3.0988) (layer F.SilkS) (width 0.127))
  (fp_poly (pts (xy -7.06882 -5.79882) (xy 7.06882 -5.79882) (xy 7.06882 5.79882) (xy -7.06882 5.79882)
    (xy -7.06882 -5.79882)) (layer Dwgs.User) (width 0.127))
  (fp_circle (center -6.09854 3.39852) (end -6.09854 3.35026) (layer F.SilkS) (width 0.19812))
  (fp_text user 1 (at -4.9784 1.60274) (layer Dwgs.User)
    (effects (font (size 1.27 1.27) (thickness 0.1016)))
  )
  (pad 1 smd rect (at -5.08 4.39928) (size 1.09982 2.19964) (layers F.Cu F.Paste F.Mask))
  (pad 2 smd rect (at -2.54 4.39928) (size 1.09982 2.19964) (layers F.Cu F.Paste F.Mask))
  (pad 3 smd rect (at 0 4.39928) (size 1.09982 2.19964) (layers F.Cu F.Paste F.Mask))
  (pad 4 smd rect (at 2.54 4.39928) (size 1.09982 2.19964) (layers F.Cu F.Paste F.Mask))
  (pad 5 smd rect (at 5.08 4.39928) (size 1.09982 2.19964) (layers F.Cu F.Paste F.Mask))
  (pad A1 smd rect (at -5.08 -4.39928) (size 1.09982 2.19964) (layers F.Cu F.Paste F.Mask))
  (pad A2 smd rect (at -2.54 -4.39928) (size 1.09982 2.19964) (layers F.Cu F.Paste F.Mask))
  (pad A3 smd rect (at 0 -4.39928) (size 1.09982 2.19964) (layers F.Cu F.Paste F.Mask))
  (pad A4 smd rect (at 2.54 -4.39928) (size 1.09982 2.19964) (layers F.Cu F.Paste F.Mask))
  (pad A5 smd rect (at 5.08 -4.39928) (size 1.09982 2.19964) (layers F.Cu F.Paste F.Mask))
)
