(module WS-DITU_rev19b-418217270910A (layer F.Cu) (tedit 5E53EF69)
  (attr virtual)
  (fp_text reference >NAME (at 1.40462 -3.94462) (layer F.SilkS)
    (effects (font (size 1.27 1.27) (thickness 0.1016)))
  )
  (fp_text value >VALUE (at 0.76962 9.02462) (layer F.SilkS)
    (effects (font (size 1.27 1.27) (thickness 0.1016)))
  )
  (fp_line (start -13.19784 2.26822) (end 13.19784 2.26822) (layer F.SilkS) (width 0.127))
  (fp_line (start 13.19784 2.26822) (end 13.19784 2.39776) (layer F.SilkS) (width 0.127))
  (fp_line (start 13.19784 2.39776) (end 13.19784 7.5692) (layer F.SilkS) (width 0.127))
  (fp_line (start 13.19784 7.5692) (end -13.19784 7.5692) (layer F.SilkS) (width 0.127))
  (fp_line (start -13.19784 7.5692) (end -13.19784 2.26822) (layer F.SilkS) (width 0.127))
  (fp_line (start -13.19784 2.26822) (end -13.19784 -2.1082) (layer F.SilkS) (width 0.127))
  (fp_line (start -13.19784 -2.1082) (end 13.19784 -2.1082) (layer F.SilkS) (width 0.127))
  (fp_line (start 13.19784 -2.1082) (end 13.19784 2.26822) (layer F.SilkS) (width 0.127))
  (fp_poly (pts (xy -13.4493 -2.35966) (xy 13.4493 -2.35966) (xy 13.4493 7.81812) (xy -13.4493 7.81812)
    (xy -13.4493 -2.35966)) (layer Dwgs.User) (width 0.127))
  (fp_text user 1 (at -11.3538 3.99288) (layer Dwgs.User)
    (effects (font (size 1.27 1.27) (thickness 0.1016)))
  )
  (fp_text user 1 (at -11.3538 3.99288) (layer F.SilkS)
    (effects (font (size 1.27 1.27) (thickness 0.1016)))
  )
  (pad 1 thru_hole circle (at -11.43 1.27) (size 1.30556 1.30556) (drill 0.79756) (layers *.Cu *.Mask))
  (pad 2 thru_hole circle (at -8.89 1.27) (size 1.30556 1.30556) (drill 0.79756) (layers *.Cu *.Mask))
  (pad 3 thru_hole circle (at -6.35 1.27) (size 1.30556 1.30556) (drill 0.79756) (layers *.Cu *.Mask))
  (pad 4 thru_hole circle (at -3.81 1.27) (size 1.30556 1.30556) (drill 0.79756) (layers *.Cu *.Mask))
  (pad 5 thru_hole circle (at -1.27 1.27) (size 1.30556 1.30556) (drill 0.79756) (layers *.Cu *.Mask))
  (pad 6 thru_hole circle (at 1.27 1.27) (size 1.30556 1.30556) (drill 0.79756) (layers *.Cu *.Mask))
  (pad 7 thru_hole circle (at 3.81 1.27) (size 1.30556 1.30556) (drill 0.79756) (layers *.Cu *.Mask))
  (pad 8 thru_hole circle (at 6.35 1.27) (size 1.30556 1.30556) (drill 0.79756) (layers *.Cu *.Mask))
  (pad 9 thru_hole circle (at 8.89 1.27) (size 1.30556 1.30556) (drill 0.79756) (layers *.Cu *.Mask))
  (pad 10 thru_hole circle (at 11.43 1.27) (size 1.30556 1.30556) (drill 0.79756) (layers *.Cu *.Mask))
  (pad A1 thru_hole circle (at -11.43 -1.27) (size 1.30556 1.30556) (drill 0.79756) (layers *.Cu *.Mask))
  (pad A2 thru_hole circle (at -8.89 -1.27) (size 1.30556 1.30556) (drill 0.79756) (layers *.Cu *.Mask))
  (pad A3 thru_hole circle (at -6.35 -1.27) (size 1.30556 1.30556) (drill 0.79756) (layers *.Cu *.Mask))
  (pad A4 thru_hole circle (at -3.81 -1.27) (size 1.30556 1.30556) (drill 0.79756) (layers *.Cu *.Mask))
  (pad A5 thru_hole circle (at -1.27 -1.27) (size 1.30556 1.30556) (drill 0.79756) (layers *.Cu *.Mask))
  (pad A6 thru_hole circle (at 1.27 -1.27) (size 1.30556 1.30556) (drill 0.79756) (layers *.Cu *.Mask))
  (pad A7 thru_hole circle (at 3.81 -1.27) (size 1.30556 1.30556) (drill 0.79756) (layers *.Cu *.Mask))
  (pad A8 thru_hole circle (at 6.35 -1.27) (size 1.30556 1.30556) (drill 0.79756) (layers *.Cu *.Mask))
  (pad A9 thru_hole circle (at 8.89 -1.27) (size 1.30556 1.30556) (drill 0.79756) (layers *.Cu *.Mask))
  (pad A10 thru_hole circle (at 11.43 -1.27) (size 1.30556 1.30556) (drill 0.79756) (layers *.Cu *.Mask))
)
