(module WS-DITU_rev19b-434123050836 (layer F.Cu) (tedit 200000)
  (descr "WS-TRS-6X3.5 MM J-BEND SMD TACT SWITCH, 2 PINS")
  (tags "WS-TRS-6X3.5 MM J-BEND SMD TACT SWITCH, 2 PINS")
  (attr smd)
  (fp_text reference >NAME (at -0.0635 -3.31216) (layer F.SilkS)
    (effects (font (size 1.27 1.27) (thickness 0.1016)))
  )
  (fp_text value >VALUE (at 0.3937 3.04038) (layer F.SilkS)
    (effects (font (size 1.27 1.27) (thickness 0.1016)))
  )
  (fp_line (start -2.99974 1.74752) (end 2.99974 1.74752) (layer F.SilkS) (width 0.127))
  (fp_line (start 2.99974 1.74752) (end 2.99974 -1.74752) (layer Dwgs.User) (width 0.127))
  (fp_line (start 2.99974 -1.74752) (end -2.99974 -1.74752) (layer F.SilkS) (width 0.127))
  (fp_line (start -2.99974 -1.74752) (end -2.99974 1.74752) (layer Dwgs.User) (width 0.127))
  (fp_line (start -2.99974 -0.95758) (end -2.99974 -1.74752) (layer F.SilkS) (width 0.127))
  (fp_line (start 2.99974 -0.94996) (end 2.99974 -1.7399) (layer F.SilkS) (width 0.127))
  (fp_line (start -2.99974 0.94996) (end -2.99974 1.7399) (layer F.SilkS) (width 0.127))
  (fp_line (start 2.99974 0.95758) (end 2.99974 1.74752) (layer F.SilkS) (width 0.127))
  (fp_poly (pts (xy -3.99796 -1.99898) (xy 3.99796 -1.99898) (xy 3.99796 1.99898) (xy -3.99796 1.99898)
    (xy -3.99796 -1.99898)) (layer Dwgs.User) (width 0.127))
  (fp_text user 1 (at -0.71374 -0.13462) (layer Dwgs.User)
    (effects (font (size 1.27 1.27) (thickness 0.1016)))
  )
  (pad 1 smd rect (at -2.69748 0) (size 1.99898 1.4986) (layers F.Cu F.Paste F.Mask))
  (pad 2 smd rect (at 2.69748 0) (size 1.99898 1.4986) (layers F.Cu F.Paste F.Mask))
)
