(module WS-DITU_rev19b-418121160801 (layer F.Cu) (tedit 200000)
  (descr "WS-IC-2.54 MM SMALL COMPACT SMD DIP SWITCH WITH TOP TAPE,2 PINS,1 POLES")
  (tags "WS-IC-2.54 MM SMALL COMPACT SMD DIP SWITCH WITH TOP TAPE,2 PINS,1 POLES")
  (attr smd)
  (fp_text reference >NAME (at 0.02794 -6.9469) (layer F.SilkS)
    (effects (font (size 0.8128 0.8128) (thickness 0.0762)))
  )
  (fp_text value >VALUE (at 0.3302 6.77672) (layer F.SilkS)
    (effects (font (size 0.8128 0.8128) (thickness 0.0762)))
  )
  (fp_line (start 1.7399 3.0988) (end 1.7399 -3.0988) (layer F.SilkS) (width 0.127))
  (fp_line (start -1.7399 3.0988) (end 1.7399 3.0988) (layer F.SilkS) (width 0.127))
  (fp_line (start -1.7399 -3.0988) (end -1.7399 3.0988) (layer F.SilkS) (width 0.127))
  (fp_line (start 1.7399 -3.0988) (end -1.7399 -3.0988) (layer F.SilkS) (width 0.127))
  (fp_poly (pts (xy -1.88976 -5.79882) (xy 1.88976 -5.79882) (xy 1.88976 5.79882) (xy -1.88976 5.79882)
    (xy -1.88976 -5.79882)) (layer Dwgs.User) (width 0.127))
  (fp_circle (center -0.99822 3.39852) (end -0.99822 3.35026) (layer F.SilkS) (width 0.19812))
  (fp_text user 1 (at 0.19812 1.50368) (layer Dwgs.User)
    (effects (font (size 1.27 1.27) (thickness 0.1016)))
  )
  (pad 1 smd rect (at 0 4.39928) (size 1.09982 2.19964) (layers F.Cu F.Paste F.Mask))
  (pad A1 smd rect (at 0 -4.39928) (size 1.09982 2.19964) (layers F.Cu F.Paste F.Mask))
)
