(module WS-DITU_rev19b-418121270809 (layer F.Cu) (tedit 200000)
  (attr smd)
  (fp_text reference >NAME (at -0.15748 -7.48284) (layer F.SilkS)
    (effects (font (size 1.27 1.27) (thickness 0.1016)))
  )
  (fp_text value >VALUE (at 0.30988 7.2136) (layer F.SilkS)
    (effects (font (size 1.27 1.27) (thickness 0.1016)))
  )
  (fp_line (start -11.8999 -3.0988) (end -11.8999 3.0988) (layer Dwgs.User) (width 0.09906))
  (fp_line (start 11.8999 -3.0988) (end 11.8999 3.0988) (layer Dwgs.User) (width 0.09906))
  (fp_line (start -11.8999 -3.0988) (end 11.8999 -3.0988) (layer Dwgs.User) (width 0.09906))
  (fp_line (start -11.8999 3.0988) (end 11.8999 3.0988) (layer Dwgs.User) (width 0.09906))
  (fp_line (start -11.19886 -3.19786) (end -11.99896 -3.19786) (layer F.SilkS) (width 0.19812))
  (fp_line (start -11.99896 -3.19786) (end -11.99896 3.19786) (layer F.SilkS) (width 0.19812))
  (fp_line (start -11.99896 3.19786) (end -11.19886 3.19786) (layer F.SilkS) (width 0.19812))
  (fp_line (start 11.19886 -3.19786) (end 11.99896 -3.19786) (layer F.SilkS) (width 0.19812))
  (fp_line (start 11.99896 -3.19786) (end 11.99896 3.19786) (layer F.SilkS) (width 0.19812))
  (fp_line (start 11.99896 3.19786) (end 11.19886 3.19786) (layer F.SilkS) (width 0.19812))
  (fp_line (start -9.19988 -3.19786) (end -8.5979 -3.19786) (layer F.SilkS) (width 0.19812))
  (fp_line (start -9.19988 3.19786) (end -8.5979 3.19786) (layer F.SilkS) (width 0.19812))
  (fp_line (start -6.65988 -3.19786) (end -6.0579 -3.19786) (layer F.SilkS) (width 0.19812))
  (fp_line (start -4.11988 -3.19786) (end -3.5179 -3.19786) (layer F.SilkS) (width 0.19812))
  (fp_line (start -1.57988 -3.19786) (end -0.9779 -3.19786) (layer F.SilkS) (width 0.19812))
  (fp_line (start 0.95758 -3.19786) (end 1.55956 -3.19786) (layer F.SilkS) (width 0.19812))
  (fp_line (start 3.49758 -3.19786) (end 4.09956 -3.19786) (layer F.SilkS) (width 0.19812))
  (fp_line (start 6.03758 -3.19786) (end 6.63956 -3.19786) (layer F.SilkS) (width 0.19812))
  (fp_line (start 8.57758 -3.19786) (end 9.17956 -3.19786) (layer F.SilkS) (width 0.19812))
  (fp_line (start -6.65988 3.19786) (end -6.0579 3.19786) (layer F.SilkS) (width 0.19812))
  (fp_line (start -4.11988 3.19786) (end -3.5179 3.19786) (layer F.SilkS) (width 0.19812))
  (fp_line (start -1.57988 3.19786) (end -0.9779 3.19786) (layer F.SilkS) (width 0.19812))
  (fp_line (start 0.95758 3.19786) (end 1.55956 3.19786) (layer F.SilkS) (width 0.19812))
  (fp_line (start 3.49758 3.19786) (end 4.09956 3.19786) (layer F.SilkS) (width 0.19812))
  (fp_line (start 6.03758 3.19786) (end 6.63956 3.19786) (layer F.SilkS) (width 0.19812))
  (fp_line (start 8.57758 3.19786) (end 9.17956 3.19786) (layer F.SilkS) (width 0.19812))
  (fp_poly (pts (xy -12.19962 -5.69976) (xy 12.19962 -5.69976) (xy 12.19962 5.69976) (xy -12.19962 5.69976)
    (xy -12.19962 -5.69976)) (layer Dwgs.User) (width 0.127))
  (fp_circle (center -11.19886 3.59918) (end -11.19886 3.55092) (layer F.SilkS) (width 0.19812))
  (fp_text user 1 (at -9.85266 1.76276) (layer Dwgs.User)
    (effects (font (size 1.27 1.27) (thickness 0.1016)))
  )
  (pad 1 smd rect (at -10.16 4.39928) (size 1.09982 2.19964) (layers F.Cu F.Paste F.Mask))
  (pad 2 smd rect (at -7.62 4.39928) (size 1.09982 2.19964) (layers F.Cu F.Paste F.Mask))
  (pad 3 smd rect (at -5.08 4.39928) (size 1.09982 2.19964) (layers F.Cu F.Paste F.Mask))
  (pad 4 smd rect (at -2.54 4.39928) (size 1.09982 2.19964) (layers F.Cu F.Paste F.Mask))
  (pad 5 smd rect (at 0 4.39928) (size 1.09982 2.19964) (layers F.Cu F.Paste F.Mask))
  (pad 6 smd rect (at 2.54 4.39928) (size 1.09982 2.19964) (layers F.Cu F.Paste F.Mask))
  (pad 7 smd rect (at 5.08 4.39928) (size 1.09982 2.19964) (layers F.Cu F.Paste F.Mask))
  (pad 8 smd rect (at 7.62 4.39928) (size 1.09982 2.19964) (layers F.Cu F.Paste F.Mask))
  (pad 9 smd rect (at 10.16 4.39928) (size 1.09982 2.19964) (layers F.Cu F.Paste F.Mask))
  (pad A1 smd rect (at -10.16 -4.39928) (size 1.09982 2.19964) (layers F.Cu F.Paste F.Mask))
  (pad A2 smd rect (at -7.62 -4.39928) (size 1.09982 2.19964) (layers F.Cu F.Paste F.Mask))
  (pad A3 smd rect (at -5.08 -4.39928) (size 1.09982 2.19964) (layers F.Cu F.Paste F.Mask))
  (pad A4 smd rect (at -2.54 -4.39928) (size 1.09982 2.19964) (layers F.Cu F.Paste F.Mask))
  (pad A5 smd rect (at 0 -4.39928) (size 1.09982 2.19964) (layers F.Cu F.Paste F.Mask))
  (pad A6 smd rect (at 2.54 -4.39928) (size 1.09982 2.19964) (layers F.Cu F.Paste F.Mask))
  (pad A7 smd rect (at 5.08 -4.39928) (size 1.09982 2.19964) (layers F.Cu F.Paste F.Mask))
  (pad A8 smd rect (at 7.62 -4.39928) (size 1.09982 2.19964) (layers F.Cu F.Paste F.Mask))
  (pad A9 smd rect (at 10.16 -4.39928) (size 1.09982 2.19964) (layers F.Cu F.Paste F.Mask))
)
