(module WS-PBTL_rev19b-461011220101 (layer F.Cu) (tedit 200000)
  (descr "WS-DESV, 4.7X3.8MM DETECT SWITCH, RIGHT SIDE OPERATION, SMD VERSION")
  (tags "WS-DESV, 4.7X3.8MM DETECT SWITCH, RIGHT SIDE OPERATION, SMD VERSION")
  (attr smd)
  (fp_text reference >NAME (at -0.29972 -3.6957) (layer F.SilkS)
    (effects (font (size 0.8128 0.8128) (thickness 0.0762)))
  )
  (fp_text value >VALUE (at -0.24892 3.5433) (layer F.SilkS)
    (effects (font (size 0.8128 0.8128) (thickness 0.0762)))
  )
  (fp_line (start 2.44856 -2.2479) (end 2.44856 2.2479) (layer F.SilkS) (width 0.127))
  (fp_line (start -2.44856 2.2479) (end -2.44856 -2.2479) (layer F.SilkS) (width 0.127))
  (fp_line (start -2.44856 -2.2479) (end 2.44856 -2.2479) (layer Dwgs.User) (width 0.127))
  (fp_line (start 2.44856 -2.2479) (end 2.44856 2.2479) (layer Dwgs.User) (width 0.127))
  (fp_line (start 2.44856 2.2479) (end -2.44856 2.2479) (layer Dwgs.User) (width 0.127))
  (fp_line (start -2.44856 2.2479) (end -2.44856 -2.2479) (layer Dwgs.User) (width 0.127))
  (fp_line (start -1.99898 -2.2479) (end -2.44856 -2.2479) (layer F.SilkS) (width 0.127))
  (fp_line (start -0.37846 -2.2479) (end 0.38862 -2.2479) (layer F.SilkS) (width 0.127))
  (fp_line (start 1.99898 -2.2479) (end 2.44856 -2.2479) (layer F.SilkS) (width 0.127))
  (fp_line (start -1.97866 2.2479) (end -2.44856 2.2479) (layer F.SilkS) (width 0.127))
  (fp_line (start -0.39878 2.2479) (end 0.38862 2.2479) (layer F.SilkS) (width 0.127))
  (fp_line (start 1.99898 2.2479) (end 2.44856 2.2479) (layer F.SilkS) (width 0.127))
  (fp_poly (pts (xy -2.69748 -2.74828) (xy 2.69748 -2.74828) (xy 2.69748 2.74828) (xy -2.69748 2.74828)
    (xy -2.69748 -2.74828)) (layer Dwgs.User) (width 0.127))
  (fp_circle (center -2.19964 -2.59842) (end -2.19964 -2.64668) (layer F.SilkS) (width 0.19812))
  (fp_text user 1 (at -1.1938 -1.30302) (layer Dwgs.User)
    (effects (font (size 0.6096 0.6096) (thickness 0.0508)))
  )
  (fp_text user 2 (at 1.30302 -1.30302) (layer Dwgs.User)
    (effects (font (size 0.6096 0.6096) (thickness 0.0508)))
  )
  (fp_text user 3 (at -1.1938 0.94488) (layer Dwgs.User)
    (effects (font (size 0.6096 0.6096) (thickness 0.0508)))
  )
  (fp_text user 4 (at 1.30302 0.94488) (layer Dwgs.User)
    (effects (font (size 0.6096 0.6096) (thickness 0.0508)))
  )
  (pad 1 smd rect (at -1.19888 -2.14884) (size 1.19888 0.79756) (layers F.Cu F.Paste F.Mask))
  (pad 2 smd rect (at 1.19888 -2.14884) (size 1.19888 0.79756) (layers F.Cu F.Paste F.Mask))
  (pad 3 smd rect (at -1.19888 2.14884) (size 1.19888 0.79756) (layers F.Cu F.Paste F.Mask))
  (pad 4 smd rect (at 1.19888 2.14884) (size 1.19888 0.79756) (layers F.Cu F.Paste F.Mask))
)
