(module WS-PBTL_rev19b-418121160803 (layer F.Cu) (tedit 200000)
  (descr "WS-IC-2.54 MM SMALL COMPACT SMD DIP SWITCH WITH TOP TAPE,6 PINS,3 POLES")
  (tags "WS-IC-2.54 MM SMALL COMPACT SMD DIP SWITCH WITH TOP TAPE,6 PINS,3 POLES")
  (attr smd)
  (fp_text reference >NAME (at -0.41148 -7.1755) (layer F.SilkS)
    (effects (font (size 1.27 1.27) (thickness 0.1016)))
  )
  (fp_text value >VALUE (at 0.46228 6.9469) (layer F.SilkS)
    (effects (font (size 1.27 1.27) (thickness 0.1016)))
  )
  (fp_line (start 4.2799 3.20802) (end 4.2799 -3.0988) (layer F.SilkS) (width 0.127))
  (fp_line (start -4.2799 3.20802) (end 4.2799 3.20802) (layer F.SilkS) (width 0.127))
  (fp_line (start -4.2799 -3.0988) (end -4.2799 3.20802) (layer F.SilkS) (width 0.127))
  (fp_line (start 4.2799 -3.0988) (end -4.2799 -3.0988) (layer F.SilkS) (width 0.127))
  (fp_poly (pts (xy -4.52882 -5.79882) (xy 4.52882 -5.79882) (xy 4.52882 5.79882) (xy -4.52882 5.79882)
    (xy -4.52882 -5.79882)) (layer Dwgs.User) (width 0.127))
  (fp_circle (center -3.59918 3.49758) (end -3.59918 3.44932) (layer F.SilkS) (width 0.19812))
  (fp_text user 1 (at -2.4384 1.60274) (layer Dwgs.User)
    (effects (font (size 1.27 1.27) (thickness 0.1016)))
  )
  (pad 1 smd rect (at -2.54 4.39928) (size 1.09982 2.19964) (layers F.Cu F.Paste F.Mask))
  (pad 2 smd rect (at 0 4.39928) (size 1.09982 2.19964) (layers F.Cu F.Paste F.Mask))
  (pad 3 smd rect (at 2.54 4.39928) (size 1.09982 2.19964) (layers F.Cu F.Paste F.Mask))
  (pad A1 smd rect (at -2.54 -4.39928) (size 1.09982 2.19964) (layers F.Cu F.Paste F.Mask))
  (pad A2 smd rect (at 0 -4.39928) (size 1.09982 2.19964) (layers F.Cu F.Paste F.Mask))
  (pad A3 smd rect (at 2.54 -4.39928) (size 1.09982 2.19964) (layers F.Cu F.Paste F.Mask))
)
