(module WS-PBTL_rev19b-418121270801 (layer F.Cu) (tedit 200000)
  (attr smd)
  (fp_text reference >NAME (at -0.19812 -6.76402) (layer F.SilkS)
    (effects (font (size 0.8128 0.8128) (thickness 0.0762)))
  )
  (fp_text value >VALUE (at 0.13716 6.75132) (layer F.SilkS)
    (effects (font (size 0.8128 0.8128) (thickness 0.0762)))
  )
  (fp_line (start -1.7399 -3.0988) (end -1.7399 3.0988) (layer Dwgs.User) (width 0.09906))
  (fp_line (start 1.7399 -3.0988) (end 1.7399 3.0988) (layer Dwgs.User) (width 0.09906))
  (fp_line (start -1.7399 -3.0988) (end 1.7399 -3.0988) (layer Dwgs.User) (width 0.09906))
  (fp_line (start -1.7399 3.0988) (end 1.7399 3.0988) (layer Dwgs.User) (width 0.09906))
  (fp_line (start -0.99822 -3.19786) (end -1.83896 -3.19786) (layer F.SilkS) (width 0.19812))
  (fp_line (start -1.83896 -3.19786) (end -1.83896 3.19786) (layer F.SilkS) (width 0.19812))
  (fp_line (start -1.83896 3.19786) (end -0.99822 3.19786) (layer F.SilkS) (width 0.19812))
  (fp_line (start 0.99822 -3.19786) (end 1.83896 -3.19786) (layer F.SilkS) (width 0.19812))
  (fp_line (start 1.83896 -3.19786) (end 1.83896 3.19786) (layer F.SilkS) (width 0.19812))
  (fp_line (start 1.83896 3.19786) (end 0.99822 3.19786) (layer F.SilkS) (width 0.19812))
  (fp_poly (pts (xy -2.03962 -5.69976) (xy 2.03962 -5.69976) (xy 2.03962 5.69976) (xy -2.03962 5.69976)
    (xy -2.03962 -5.69976)) (layer Dwgs.User) (width 0.09906))
  (fp_circle (center -1.4986 3.49758) (end -1.4986 3.44932) (layer F.SilkS) (width 0.19812))
  (fp_text user 1 (at -0.16256 1.76276) (layer Dwgs.User)
    (effects (font (size 1.27 1.27) (thickness 0.1016)))
  )
  (pad 1 smd rect (at 0 4.39928) (size 1.09982 2.19964) (layers F.Cu F.Paste F.Mask))
  (pad A1 smd rect (at 0 -4.39928) (size 1.09982 2.19964) (layers F.Cu F.Paste F.Mask))
)
