(module WS-PBTL_rev19b-430456043736 (layer F.Cu) (tedit 200000)
  (descr "WS-TSW, 12*12MM HORIZONTAL TYPE WASHABLE TACT SWITCH, ,THT,  4 PINS, HEIGHT 4.3MM, ROUND SALMON ACTUATOR, 360GF")
  (tags "WS-TSW, 12*12MM HORIZONTAL TYPE WASHABLE TACT SWITCH, ,THT,  4 PINS, HEIGHT 4.3MM, ROUND SALMON ACTUATOR, 360GF")
  (attr virtual)
  (fp_text reference >NAME (at 0.59944 -7.55142) (layer F.SilkS)
    (effects (font (size 1.27 1.27) (thickness 0.1016)))
  )
  (fp_text value >VALUE (at 0.31496 7.19074) (layer F.SilkS)
    (effects (font (size 1.27 1.27) (thickness 0.1016)))
  )
  (fp_line (start 5.99948 -5.99948) (end 5.99948 5.99948) (layer Dwgs.User) (width 0.127))
  (fp_line (start 5.99948 5.99948) (end -5.99948 5.99948) (layer F.SilkS) (width 0.127))
  (fp_line (start -5.99948 5.99948) (end -5.99948 -5.99948) (layer Dwgs.User) (width 0.127))
  (fp_line (start -5.99948 -5.99948) (end 5.99948 -5.99948) (layer F.SilkS) (width 0.127))
  (fp_line (start -5.99948 -3.68808) (end -5.99948 -5.99948) (layer F.SilkS) (width 0.127))
  (fp_line (start 5.99948 -3.63982) (end 5.99948 -5.99948) (layer F.SilkS) (width 0.127))
  (fp_line (start -5.99948 1.23952) (end -5.99948 -1.3081) (layer F.SilkS) (width 0.127))
  (fp_line (start 5.99948 1.29794) (end 5.99948 -1.24968) (layer F.SilkS) (width 0.127))
  (fp_line (start -5.99948 3.78968) (end -5.99948 5.99948) (layer F.SilkS) (width 0.127))
  (fp_line (start 5.99948 3.78968) (end 5.99948 5.99948) (layer F.SilkS) (width 0.127))
  (fp_poly (pts (xy -7.49808 -6.2484) (xy 7.49808 -6.2484) (xy 7.49808 6.2484) (xy -7.49808 6.2484)
    (xy -7.49808 -6.2484)) (layer Dwgs.User) (width 0.127))
  (fp_circle (center -6.59892 -3.8989) (end -6.59892 -3.94716) (layer F.SilkS) (width 0.19812))
  (fp_text user 1 (at -3.96494 -2.63398) (layer Dwgs.User)
    (effects (font (size 1.27 1.27) (thickness 0.1016)))
  )
  (fp_text user 2 (at 4.63296 -2.63398) (layer Dwgs.User)
    (effects (font (size 1.27 1.27) (thickness 0.1016)))
  )
  (fp_text user 3 (at -3.96494 2.36474) (layer Dwgs.User)
    (effects (font (size 1.27 1.27) (thickness 0.1016)))
  )
  (fp_text user 4 (at 4.43484 2.36474) (layer Dwgs.User)
    (effects (font (size 1.27 1.27) (thickness 0.1016)))
  )
  (pad 1 thru_hole circle (at -6.2484 -2.49936) (size 1.79832 1.79832) (drill 1.19888) (layers *.Cu *.Paste *.Mask))
  (pad 2 thru_hole circle (at 6.2484 -2.49936) (size 1.79832 1.79832) (drill 1.19888) (layers *.Cu *.Paste *.Mask))
  (pad 3 thru_hole circle (at -6.2484 2.49936) (size 1.79832 1.79832) (drill 1.19888) (layers *.Cu *.Paste *.Mask))
  (pad 4 thru_hole circle (at 6.2484 2.49936) (size 1.79832 1.79832) (drill 1.19888) (layers *.Cu *.Paste *.Mask))
)
