(module WS-PBTL_rev19b-428521420910 (layer F.Cu) (tedit 200000)
  (descr "WS-RSS-10X10 MM WASHABLE SMD ROTARY SWITCH,6 PINS,10 POSITION")
  (tags "WS-RSS-10X10 MM WASHABLE SMD ROTARY SWITCH,6 PINS,10 POSITION")
  (attr smd)
  (fp_text reference >NAME (at 0.32766 -8.87476) (layer F.SilkS)
    (effects (font (size 1.27 1.27) (thickness 0.1016)))
  )
  (fp_text value >VALUE (at 0.86106 8.78332) (layer F.SilkS)
    (effects (font (size 1.27 1.27) (thickness 0.1016)))
  )
  (fp_line (start -4.99872 -4.99872) (end -4.99872 4.99872) (layer F.SilkS) (width 0.127))
  (fp_line (start -4.99872 4.99872) (end 4.99872 4.99872) (layer Dwgs.User) (width 0.127))
  (fp_line (start 4.99872 4.99872) (end 4.99872 -4.99872) (layer F.SilkS) (width 0.127))
  (fp_line (start 4.99872 -4.99872) (end -4.99872 -4.99872) (layer Dwgs.User) (width 0.127))
  (fp_line (start -3.38836 -4.99872) (end -4.99872 -4.99872) (layer F.SilkS) (width 0.127))
  (fp_line (start -1.75768 -4.99872) (end -0.80772 -4.99872) (layer F.SilkS) (width 0.127))
  (fp_line (start 0.80772 -4.99872) (end 1.72974 -4.99872) (layer F.SilkS) (width 0.127))
  (fp_line (start 3.34772 -4.99872) (end 4.99872 -4.99872) (layer F.SilkS) (width 0.127))
  (fp_line (start -3.45948 4.99872) (end -4.99872 4.99872) (layer F.SilkS) (width 0.127))
  (fp_line (start -1.71958 4.99872) (end -0.80772 4.99872) (layer F.SilkS) (width 0.127))
  (fp_line (start 0.8382 4.99872) (end 1.71958 4.99872) (layer F.SilkS) (width 0.127))
  (fp_line (start 3.3782 4.99872) (end 4.99872 4.99872) (layer F.SilkS) (width 0.127))
  (fp_poly (pts (xy -5.24764 -7.49808) (xy 5.24764 -7.49808) (xy 5.24764 7.49808) (xy -5.24764 7.49808)
    (xy -5.24764 -7.49808)) (layer Dwgs.User) (width 0.127))
  (fp_circle (center -3.79984 5.4991) (end -3.79984 5.45084) (layer F.SilkS) (width 0.19812))
  (fp_text user 1 (at -2.23774 3.30962) (layer Dwgs.User)
    (effects (font (size 1.27 1.27) (thickness 0.1016)))
  )
  (fp_text user 4 (at 2.83972 3.30962) (layer Dwgs.User)
    (effects (font (size 1.27 1.27) (thickness 0.1016)))
  )
  (fp_text user 2 (at 2.73812 -3.50774) (layer Dwgs.User)
    (effects (font (size 1.27 1.27) (thickness 0.1016)))
  )
  (fp_text user 8 (at -2.33934 -3.50774) (layer Dwgs.User)
    (effects (font (size 1.27 1.27) (thickness 0.1016)))
  )
  (fp_text user C2 (at 0.23368 -3.60934) (layer Dwgs.User)
    (effects (font (size 1.27 1.27) (thickness 0.1016)))
  )
  (fp_text user C1 (at 0.635 3.20802) (layer Dwgs.User)
    (effects (font (size 1.27 1.27) (thickness 0.1016)))
  )
  (pad 1 smd rect (at -2.54 5.99948) (size 1.19888 2.59842) (layers F.Cu F.Paste F.Mask))
  (pad 2 smd rect (at 2.54 -5.99948) (size 1.19888 2.59842) (layers F.Cu F.Paste F.Mask))
  (pad 4 smd rect (at 2.54 5.99948) (size 1.19888 2.59842) (layers F.Cu F.Paste F.Mask))
  (pad 8 smd rect (at -2.54 -5.99948) (size 1.19888 2.59842) (layers F.Cu F.Paste F.Mask))
  (pad C1 smd rect (at 0 5.99948) (size 1.19888 2.59842) (layers F.Cu F.Paste F.Mask))
  (pad C2 smd rect (at 0 -5.99948) (size 1.19888 2.59842) (layers F.Cu F.Paste F.Mask))
)
