(module WS-PBTL_rev19b-434331013822 (layer F.Cu) (tedit 200000)
  (attr smd)
  (fp_text reference >NAME (at -0.09906 -2.85496) (layer F.SilkS)
    (effects (font (size 0.8128 0.8128) (thickness 0.0762)))
  )
  (fp_text value >VALUE (at -0.19812 2.59334) (layer F.SilkS)
    (effects (font (size 0.8128 0.8128) (thickness 0.0762)))
  )
  (fp_line (start -1.74752 -1.77292) (end 1.74752 -1.77292) (layer Dwgs.User) (width 0.127))
  (fp_line (start 1.74752 -1.77292) (end 1.74752 1.77292) (layer Dwgs.User) (width 0.127))
  (fp_line (start 1.74752 1.77292) (end -1.74752 1.77292) (layer Dwgs.User) (width 0.127))
  (fp_line (start -1.74752 1.77292) (end -1.74752 -1.77292) (layer Dwgs.User) (width 0.127))
  (fp_line (start -1.74752 -1.38938) (end -1.74752 -1.77292) (layer F.SilkS) (width 0.127))
  (fp_line (start -1.74752 -1.77292) (end 1.74752 -1.77292) (layer F.SilkS) (width 0.127))
  (fp_line (start 1.74752 -1.77292) (end 1.74752 -1.38938) (layer F.SilkS) (width 0.127))
  (fp_line (start -1.74752 1.43764) (end -1.74752 1.76784) (layer F.SilkS) (width 0.127))
  (fp_line (start -1.74752 1.76784) (end 1.74752 1.76784) (layer F.SilkS) (width 0.127))
  (fp_line (start 1.74752 1.76784) (end 1.74752 1.45796) (layer F.SilkS) (width 0.127))
  (fp_poly (pts (xy -2.99974 -2.02438) (xy 3.24866 -2.02438) (xy 3.24866 2.02438) (xy -2.99974 2.02438)
    (xy -2.99974 -2.02438)) (layer Dwgs.User) (width 0.127))
  (fp_text user 1 (at -0.44196 -0.80518) (layer Dwgs.User)
    (effects (font (size 0.8128 0.8128) (thickness 0.0762)))
  )
  (fp_text user 2 (at 0.75438 -0.80518) (layer Dwgs.User)
    (effects (font (size 0.8128 0.8128) (thickness 0.0762)))
  )
  (fp_text user 3 (at -0.44196 0.69342) (layer Dwgs.User)
    (effects (font (size 0.8128 0.8128) (thickness 0.0762)))
  )
  (fp_text user 4 (at 0.75438 0.59182) (layer Dwgs.User)
    (effects (font (size 0.8128 0.8128) (thickness 0.0762)))
  )
  (pad 1 smd rect (at -1.89992 -0.6985) (size 1.59766 0.99822) (layers F.Cu F.Paste F.Mask))
  (pad 2 smd rect (at 1.89992 -0.6985) (size 1.59766 0.99822) (layers F.Cu F.Paste F.Mask))
  (pad 3 smd rect (at 1.89992 0.6985) (size 1.59766 0.99822) (layers F.Cu F.Paste F.Mask))
  (pad 4 smd rect (at -1.89992 0.6985) (size 1.59766 0.99822) (layers F.Cu F.Paste F.Mask))
  (pad 5 thru_hole circle (at -2.02438 0.79756) (size 0.77978 0.77978) (drill 0.6477) (layers *.Cu *.Paste *.Mask))
  (pad 6 thru_hole circle (at 2.02438 0.79756) (size 0.77978 0.77978) (drill 0.6477) (layers *.Cu *.Paste *.Mask))
)
