(module WS-PBTL_rev19b-418217270903A (layer F.Cu) (tedit 200000)
  (attr virtual)
  (fp_text reference >NAME (at 0.42418 -3.80492) (layer F.SilkS)
    (effects (font (size 1.27 1.27) (thickness 0.1016)))
  )
  (fp_text value >VALUE (at 0.76962 9.02462) (layer F.SilkS)
    (effects (font (size 1.27 1.27) (thickness 0.1016)))
  )
  (fp_line (start -4.4577 2.26822) (end 4.4577 2.26822) (layer F.SilkS) (width 0.127))
  (fp_line (start 4.4577 2.26822) (end 4.4577 7.5692) (layer F.SilkS) (width 0.127))
  (fp_line (start 4.4577 7.5692) (end -4.4577 7.5692) (layer F.SilkS) (width 0.127))
  (fp_line (start -4.4577 7.5692) (end -4.4577 2.26822) (layer F.SilkS) (width 0.127))
  (fp_line (start -4.4577 2.26822) (end -4.4577 -2.1082) (layer F.SilkS) (width 0.127))
  (fp_line (start -4.4577 -2.1082) (end 4.4577 -2.1082) (layer F.SilkS) (width 0.127))
  (fp_line (start 4.4577 -2.1082) (end 4.4577 2.26822) (layer F.SilkS) (width 0.127))
  (fp_poly (pts (xy -4.70916 -2.35966) (xy 4.70916 -2.35966) (xy 4.70916 7.81812) (xy -4.70916 7.81812)
    (xy -4.70916 -2.35966)) (layer Dwgs.User) (width 0.127))
  (fp_text user 1 (at -2.66446 3.19278) (layer Dwgs.User)
    (effects (font (size 1.27 1.27) (thickness 0.1016)))
  )
  (fp_text user 1 (at -2.66446 3.19278) (layer F.SilkS)
    (effects (font (size 1.27 1.27) (thickness 0.1016)))
  )
  (pad 1 thru_hole circle (at -2.54 1.27) (size 1.30556 1.30556) (drill 0.79756) (layers *.Cu *.Paste *.Mask))
  (pad 2 thru_hole circle (at 0 1.27) (size 1.30556 1.30556) (drill 0.79756) (layers *.Cu *.Paste *.Mask))
  (pad 3 thru_hole circle (at 2.54 1.27) (size 1.30556 1.30556) (drill 0.79756) (layers *.Cu *.Paste *.Mask))
  (pad A1 thru_hole circle (at -2.54 -1.27) (size 1.30556 1.30556) (drill 0.79756) (layers *.Cu *.Paste *.Mask))
  (pad A2 thru_hole circle (at 0 -1.27) (size 1.30556 1.30556) (drill 0.79756) (layers *.Cu *.Paste *.Mask))
  (pad A3 thru_hole circle (at 2.54 -1.27) (size 1.30556 1.30556) (drill 0.79756) (layers *.Cu *.Paste *.Mask))
)
