(module WS-PBTL_rev19b-418217270904A (layer F.Cu) (tedit 200000)
  (attr virtual)
  (fp_text reference >NAME (at 0.13462 -3.94462) (layer F.SilkS)
    (effects (font (size 1.27 1.27) (thickness 0.1016)))
  )
  (fp_text value >VALUE (at 0.76962 9.02462) (layer F.SilkS)
    (effects (font (size 1.27 1.27) (thickness 0.1016)))
  )
  (fp_line (start -5.57784 2.26822) (end 5.57784 2.26822) (layer F.SilkS) (width 0.127))
  (fp_line (start 5.57784 2.26822) (end 5.57784 7.5692) (layer F.SilkS) (width 0.127))
  (fp_line (start 5.57784 7.5692) (end -5.57784 7.5692) (layer F.SilkS) (width 0.127))
  (fp_line (start -5.57784 7.5692) (end -5.57784 2.2987) (layer F.SilkS) (width 0.127))
  (fp_line (start -5.57784 2.2987) (end -5.57784 2.26822) (layer F.SilkS) (width 0.127))
  (fp_line (start -5.55752 2.2987) (end -5.57784 2.2987) (layer F.SilkS) (width 0.127))
  (fp_line (start -5.57784 2.26822) (end -5.57784 -2.1082) (layer F.SilkS) (width 0.127))
  (fp_line (start -5.57784 -2.1082) (end 5.57784 -2.1082) (layer F.SilkS) (width 0.127))
  (fp_line (start 5.57784 -2.1082) (end 5.57784 2.26822) (layer F.SilkS) (width 0.127))
  (fp_poly (pts (xy -5.8293 -2.35966) (xy 5.8293 -2.35966) (xy 5.8293 7.81812) (xy -5.8293 7.81812)
    (xy -5.8293 -2.35966)) (layer Dwgs.User) (width 0.127))
  (fp_text user 1 (at -3.63474 3.39344) (layer Dwgs.User)
    (effects (font (size 1.27 1.27) (thickness 0.1016)))
  )
  (fp_text user 1 (at -3.63474 3.39344) (layer F.SilkS)
    (effects (font (size 1.27 1.27) (thickness 0.1016)))
  )
  (pad 1 thru_hole circle (at -3.81 1.27) (size 1.30556 1.30556) (drill 0.79756) (layers *.Cu *.Paste *.Mask))
  (pad 2 thru_hole circle (at -1.27 1.27) (size 1.30556 1.30556) (drill 0.79756) (layers *.Cu *.Paste *.Mask))
  (pad 3 thru_hole circle (at 1.27 1.27) (size 1.30556 1.30556) (drill 0.79756) (layers *.Cu *.Paste *.Mask))
  (pad 4 thru_hole circle (at 3.81 1.27) (size 1.30556 1.30556) (drill 0.79756) (layers *.Cu *.Paste *.Mask))
  (pad A1 thru_hole circle (at -3.81 -1.27) (size 1.30556 1.30556) (drill 0.79756) (layers *.Cu *.Paste *.Mask))
  (pad A2 thru_hole circle (at -1.27 -1.27) (size 1.30556 1.30556) (drill 0.79756) (layers *.Cu *.Paste *.Mask))
  (pad A3 thru_hole circle (at 1.27 -1.27) (size 1.30556 1.30556) (drill 0.79756) (layers *.Cu *.Paste *.Mask))
  (pad A4 thru_hole circle (at 3.81 -1.27) (size 1.30556 1.30556) (drill 0.79756) (layers *.Cu *.Paste *.Mask))
)
