(module WS-PBTL_rev19b-465RG11172501 (layer F.Cu) (tedit 200000)
  (descr "WS-PBTL 15 X 15MM PUSH BUTTON SWITCH WITH INTEGRATED LED, THT VERSION")
  (tags "WS-PBTL 15 X 15MM PUSH BUTTON SWITCH WITH INTEGRATED LED, THT VERSION")
  (attr virtual)
  (fp_text reference >NAME (at 0.03302 -9.02462) (layer F.SilkS)
    (effects (font (size 1.27 1.27) (thickness 0.1016)))
  )
  (fp_text value >VALUE (at 0.59944 8.82396) (layer F.SilkS)
    (effects (font (size 1.27 1.27) (thickness 0.1016)))
  )
  (fp_line (start -7.49808 -7.49808) (end 7.49808 -7.49808) (layer F.SilkS) (width 0.127))
  (fp_line (start 7.49808 -7.49808) (end 7.49808 7.49808) (layer F.SilkS) (width 0.127))
  (fp_line (start 7.49808 7.49808) (end -7.49808 7.49808) (layer F.SilkS) (width 0.127))
  (fp_line (start -7.49808 7.49808) (end -7.49808 -7.49808) (layer F.SilkS) (width 0.127))
  (fp_poly (pts (xy -7.74954 -7.74954) (xy 7.74954 -7.74954) (xy 7.74954 7.74954) (xy -7.74954 7.74954)
    (xy -7.74954 -7.74954)) (layer Dwgs.User) (width 0.127))
  (fp_circle (center -4.59994 5.4991) (end -4.59994 5.45084) (layer F.SilkS) (width 0.19812))
  (fp_text user 1 (at -1.905 4.445) (layer Dwgs.User)
    (effects (font (size 1.27 1.27) (thickness 0.1016)))
  )
  (fp_text user 2 (at 1.905 4.445) (layer Dwgs.User)
    (effects (font (size 1.27 1.27) (thickness 0.1016)))
  )
  (fp_text user LC (at 0.09906 -2.30378) (layer Dwgs.User)
    (effects (font (size 1.27 1.27) (thickness 0.1016)))
  )
  (fp_text user L2 (at 5.17906 -0.33274) (layer Dwgs.User)
    (effects (font (size 1.27 1.27) (thickness 0.1016)))
  )
  (fp_text user L1 (at -4.20878 -0.13462) (layer Dwgs.User)
    (effects (font (size 1.27 1.27) (thickness 0.1016)))
  )
  (pad 1 thru_hole circle (at -3.81 4.49834) (size 1.30556 1.30556) (drill 0.79756) (layers *.Cu *.Paste *.Mask))
  (pad 2 thru_hole circle (at 3.81 4.49834) (size 1.30556 1.30556) (drill 0.79756) (layers *.Cu *.Paste *.Mask))
  (pad L1 thru_hole circle (at -2.54 0) (size 1.2065 1.2065) (drill 0.6985) (layers *.Cu *.Paste *.Mask))
  (pad L2 thru_hole circle (at 2.54 0) (size 1.2065 1.2065) (drill 0.6985) (layers *.Cu *.Paste *.Mask))
  (pad LC thru_hole circle (at 0 0) (size 1.2065 1.2065) (drill 0.6985) (layers *.Cu *.Paste *.Mask))
  (pad "" np_thru_hole circle (at -6.35 -6.35) (size 1.29794 1.29794) (drill 1.29794) (layers *.Cu *.Mask))
  (pad "" np_thru_hole circle (at 6.35 -6.35) (size 1.29794 1.29794) (drill 1.29794) (layers *.Cu *.Mask))
  (pad "" np_thru_hole circle (at 6.35 6.35) (size 1.29794 1.29794) (drill 1.29794) (layers *.Cu *.Mask))
  (pad "" np_thru_hole circle (at -6.35 6.35) (size 1.29794 1.29794) (drill 1.29794) (layers *.Cu *.Mask))
)
