(module WS-PBTL_rev19b-418127270903 (layer F.Cu) (tedit 200000)
  (descr WS-DITV)
  (tags WS-DITV)
  (attr virtual)
  (fp_text reference >NAME (at 0.66294 -6.44398) (layer F.SilkS)
    (effects (font (size 1.27 1.27) (thickness 0.1016)))
  )
  (fp_text value >VALUE (at 0.89916 6.33476) (layer F.SilkS)
    (effects (font (size 1.27 1.27) (thickness 0.1016)))
  )
  (fp_line (start -4.2799 -3.0988) (end 4.2799 -3.0988) (layer Dwgs.User) (width 0.127))
  (fp_line (start 4.2799 -3.0988) (end 4.2799 3.0988) (layer Dwgs.User) (width 0.127))
  (fp_line (start 4.2799 3.0988) (end -4.2799 3.0988) (layer Dwgs.User) (width 0.127))
  (fp_line (start -4.2799 3.0988) (end -4.2799 -3.0988) (layer Dwgs.User) (width 0.127))
  (fp_line (start -3.048 -3.0988) (end -4.2799 -3.0988) (layer F.SilkS) (width 0.127))
  (fp_line (start -4.2799 -3.0988) (end -4.2799 3.0988) (layer F.SilkS) (width 0.127))
  (fp_line (start -4.2799 3.0988) (end -3.02768 3.0988) (layer F.SilkS) (width 0.127))
  (fp_line (start 3.02768 -3.0988) (end 4.2799 -3.0988) (layer F.SilkS) (width 0.127))
  (fp_line (start 4.2799 -3.0988) (end 4.2799 3.0988) (layer F.SilkS) (width 0.127))
  (fp_line (start 4.2799 3.0988) (end 3.10896 3.0988) (layer F.SilkS) (width 0.127))
  (fp_line (start -1.99898 -3.0988) (end -0.49784 -3.0988) (layer F.SilkS) (width 0.127))
  (fp_line (start 0.49784 -3.0988) (end 1.99898 -3.0988) (layer F.SilkS) (width 0.127))
  (fp_line (start -2.09804 3.0988) (end -0.59944 3.0988) (layer F.SilkS) (width 0.127))
  (fp_line (start 0.49784 3.0988) (end 2.09804 3.0988) (layer F.SilkS) (width 0.127))
  (fp_poly (pts (xy 4.52882 -4.99872) (xy 4.52882 4.99872) (xy -4.52882 4.99872) (xy -4.52882 -4.99872)
    (xy 4.52882 -4.99872)) (layer Dwgs.User) (width 0.127))
  (fp_circle (center -3.99796 3.49758) (end -3.99796 3.44932) (layer F.SilkS) (width 0.19812))
  (fp_text user 1 (at -2.40284 1.6637) (layer Dwgs.User)
    (effects (font (size 1.27 1.27) (thickness 0.1016)))
  )
  (pad 1 thru_hole circle (at -2.54 3.81) (size 1.30556 1.30556) (drill 0.79756) (layers *.Cu *.Paste *.Mask))
  (pad 2 thru_hole circle (at 0 3.81) (size 1.30556 1.30556) (drill 0.79756) (layers *.Cu *.Paste *.Mask))
  (pad 3 thru_hole circle (at 2.54 3.81) (size 1.30556 1.30556) (drill 0.79756) (layers *.Cu *.Paste *.Mask))
  (pad A1 thru_hole circle (at -2.54 -3.81) (size 1.30556 1.30556) (drill 0.79756) (layers *.Cu *.Paste *.Mask))
  (pad A2 thru_hole circle (at 0 -3.81) (size 1.30556 1.30556) (drill 0.79756) (layers *.Cu *.Paste *.Mask))
  (pad A3 thru_hole circle (at 2.54 -3.81) (size 1.30556 1.30556) (drill 0.79756) (layers *.Cu *.Paste *.Mask))
)
