(module WS-PBTL_rev19b-428542320811 (layer F.Cu) (tedit 200000)
  (descr "WS-RAS, 7X7 MM WASHABLE SMT ROTARY SWITCH, 6 PINS, 10 POSITIONS, ROUND  ARROW TYPE, ORANGE ACTUATOR, COMPLEMENT CODE")
  (tags "WS-RAS, 7X7 MM WASHABLE SMT ROTARY SWITCH, 6 PINS, 10 POSITIONS, ROUND  ARROW TYPE, ORANGE ACTUATOR, COMPLEMENT CODE")
  (attr smd)
  (fp_text reference >NAME (at 0.36576 -5.36448) (layer F.SilkS)
    (effects (font (size 1.27 1.27) (thickness 0.1016)))
  )
  (fp_text value >VALUE (at 1.00076 4.87426) (layer F.SilkS)
    (effects (font (size 1.27 1.27) (thickness 0.1016)))
  )
  (fp_line (start -3.69824 3.69824) (end 3.69824 3.69824) (layer F.SilkS) (width 0.127))
  (fp_line (start 3.69824 3.69824) (end 3.69824 -3.69824) (layer Dwgs.User) (width 0.127))
  (fp_line (start 3.69824 -3.69824) (end -3.69824 -3.69824) (layer F.SilkS) (width 0.127))
  (fp_line (start -3.69824 -3.69824) (end -3.69824 3.69824) (layer Dwgs.User) (width 0.127))
  (fp_line (start -3.69824 -0.75946) (end -3.69824 -1.8288) (layer F.SilkS) (width 0.127))
  (fp_line (start -3.69824 0.7493) (end -3.69824 1.80848) (layer F.SilkS) (width 0.127))
  (fp_line (start -3.69824 3.24866) (end -3.69824 3.69824) (layer F.SilkS) (width 0.127))
  (fp_line (start 3.69824 3.25882) (end 3.69824 3.69824) (layer F.SilkS) (width 0.127))
  (fp_line (start 3.68808 -0.73914) (end 3.68808 -1.80848) (layer F.SilkS) (width 0.127))
  (fp_line (start 3.69824 1.79832) (end 3.69824 0.72898) (layer F.SilkS) (width 0.127))
  (fp_poly (pts (xy -5.4991 -3.9497) (xy 5.4991 -3.9497) (xy 5.4991 3.9497) (xy -5.4991 3.9497)
    (xy -5.4991 -3.9497)) (layer Dwgs.User) (width 0.127))
  (fp_circle (center -4.29768 -3.49758) (end -4.29768 -3.54584) (layer F.SilkS) (width 0.19812))
  (fp_text user 1 (at -0.96266 -2.63398) (layer Dwgs.User)
    (effects (font (size 1.27 1.27) (thickness 0.1016)))
  )
  (fp_text user 4 (at -0.96266 2.36474) (layer Dwgs.User)
    (effects (font (size 1.27 1.27) (thickness 0.1016)))
  )
  (fp_text user 2 (at 1.63322 2.4638) (layer Dwgs.User)
    (effects (font (size 1.27 1.27) (thickness 0.1016)))
  )
  (fp_text user 8 (at 1.63322 -2.53492) (layer Dwgs.User)
    (effects (font (size 1.27 1.27) (thickness 0.1016)))
  )
  (pad 1 smd rect (at -3.74904 -2.54) (size 2.99974 0.99822) (layers F.Cu F.Paste F.Mask))
  (pad 2 smd rect (at 3.74904 2.54) (size 2.99974 0.99822) (layers F.Cu F.Paste F.Mask))
  (pad 4 smd rect (at -3.74904 2.54) (size 2.99974 0.99822) (layers F.Cu F.Paste F.Mask))
  (pad 8 smd rect (at 3.74904 -2.54) (size 2.99974 0.99822) (layers F.Cu F.Paste F.Mask))
  (pad C1 smd rect (at -3.74904 0) (size 2.99974 0.99822) (layers F.Cu F.Paste F.Mask))
  (pad C2 smd rect (at 3.74904 0) (size 2.99974 0.99822) (layers F.Cu F.Paste F.Mask))
)
