(module WS-PBTL_rev19b-434121025816 (layer F.Cu) (tedit 200000)
  (descr "WS-TRS-6X3.8 MM SMD TACT SWITCH, 2 PINS")
  (tags "WS-TRS-6X3.8 MM SMD TACT SWITCH, 2 PINS")
  (attr smd)
  (fp_text reference >NAME (at -0.31242 -3.39344) (layer F.SilkS)
    (effects (font (size 1.27 1.27) (thickness 0.1016)))
  )
  (fp_text value >VALUE (at 0.4953 3.2004) (layer F.SilkS)
    (effects (font (size 1.27 1.27) (thickness 0.1016)))
  )
  (fp_line (start -2.99974 1.89992) (end 2.99974 1.89992) (layer F.SilkS) (width 0.127))
  (fp_line (start 2.99974 1.89992) (end 2.99974 -1.89992) (layer Dwgs.User) (width 0.127))
  (fp_line (start 2.99974 -1.89992) (end -2.99974 -1.89992) (layer F.SilkS) (width 0.127))
  (fp_line (start -2.99974 -1.89992) (end -2.99974 1.89992) (layer Dwgs.User) (width 0.127))
  (fp_line (start -2.99974 -0.89916) (end -2.99974 -1.89992) (layer F.SilkS) (width 0.127))
  (fp_line (start 2.99974 -0.89916) (end 2.99974 -1.89992) (layer F.SilkS) (width 0.127))
  (fp_line (start -2.99974 1.89992) (end -2.99974 0.89916) (layer F.SilkS) (width 0.127))
  (fp_line (start 2.99974 1.89992) (end 2.99974 0.89916) (layer F.SilkS) (width 0.127))
  (fp_poly (pts (xy -4.19862 -2.14884) (xy 4.19862 -2.14884) (xy 4.19862 2.14884) (xy -4.19862 2.14884)
    (xy -4.19862 -2.14884)) (layer Dwgs.User) (width 0.127))
  (fp_text user 1 (at -1.46304 -0.03302) (layer Dwgs.User)
    (effects (font (size 1.27 1.27) (thickness 0.1016)))
  )
  (pad 1 smd rect (at -3.24866 0) (size 1.4986 1.39954) (layers F.Cu F.Paste F.Mask))
  (pad 2 smd rect (at 3.24866 0) (size 1.4986 1.39954) (layers F.Cu F.Paste F.Mask))
)
