(module WS-PBTL_rev19b-430453035836 (layer F.Cu) (tedit 200000)
  (descr "WS-TASV 6X6MM WASHABLE TACT SWITCH, J-BEND SMD VERSION")
  (tags "WS-TASV 6X6MM WASHABLE TACT SWITCH, J-BEND SMD VERSION")
  (attr smd)
  (fp_text reference >NAME (at 0 -4.73456) (layer F.SilkS)
    (effects (font (size 1.27 1.27) (thickness 0.1016)))
  )
  (fp_text value >VALUE (at 1.00838 4.66344) (layer F.SilkS)
    (effects (font (size 1.27 1.27) (thickness 0.1016)))
  )
  (fp_line (start -3.59918 -3.0988) (end 3.59918 -3.0988) (layer Dwgs.User) (width 0.127))
  (fp_line (start 3.59918 -3.0988) (end 3.59918 3.0988) (layer Dwgs.User) (width 0.127))
  (fp_line (start 3.59918 3.0988) (end -3.59918 3.0988) (layer Dwgs.User) (width 0.127))
  (fp_line (start -3.59918 3.0988) (end -3.59918 -3.0988) (layer Dwgs.User) (width 0.127))
  (fp_line (start -3.59918 -2.89814) (end -3.59918 -3.0988) (layer F.SilkS) (width 0.127))
  (fp_line (start -3.59918 -3.0988) (end 3.59918 -3.0988) (layer F.SilkS) (width 0.127))
  (fp_line (start 3.59918 -3.0988) (end 3.59918 -2.89814) (layer F.SilkS) (width 0.127))
  (fp_line (start -3.59918 -1.09982) (end -3.59918 1.09982) (layer F.SilkS) (width 0.127))
  (fp_line (start 3.59918 -1.09982) (end 3.59918 1.09982) (layer F.SilkS) (width 0.127))
  (fp_line (start -3.59918 2.89814) (end -3.59918 3.0988) (layer F.SilkS) (width 0.127))
  (fp_line (start -3.59918 3.0988) (end 3.59918 3.0988) (layer F.SilkS) (width 0.127))
  (fp_line (start 3.59918 3.0988) (end 3.59918 2.89814) (layer F.SilkS) (width 0.127))
  (fp_poly (pts (xy -4.49834 -3.34772) (xy 4.49834 -3.34772) (xy 4.49834 3.34772) (xy -4.49834 3.34772)
    (xy -4.49834 -3.34772)) (layer Dwgs.User) (width 0.127))
  (fp_circle (center -4.09956 -3.19786) (end -4.09956 -3.24612) (layer F.SilkS) (width 0.19812))
  (fp_text user 1 (at -1.16332 -1.88468) (layer Dwgs.User)
    (effects (font (size 1.27 1.27) (thickness 0.1016)))
  )
  (fp_text user 2 (at 1.83388 -1.88468) (layer Dwgs.User)
    (effects (font (size 1.27 1.27) (thickness 0.1016)))
  )
  (fp_text user 3 (at -1.26492 1.86436) (layer Dwgs.User)
    (effects (font (size 1.27 1.27) (thickness 0.1016)))
  )
  (fp_text user 4 (at 1.78308 1.86436) (layer Dwgs.User)
    (effects (font (size 1.27 1.27) (thickness 0.1016)))
  )
  (pad 1 smd rect (at -3.34772 -1.99898) (size 1.69926 1.39954) (layers F.Cu F.Paste F.Mask))
  (pad 2 smd rect (at 3.34772 -1.99898) (size 1.69926 1.39954) (layers F.Cu F.Paste F.Mask))
  (pad 3 smd rect (at -3.34772 1.99898) (size 1.69926 1.39954) (layers F.Cu F.Paste F.Mask))
  (pad 4 smd rect (at 3.34772 1.99898) (size 1.69926 1.39954) (layers F.Cu F.Paste F.Mask))
)
