(module WS-PBTL_rev19b-418121270802 (layer F.Cu) (tedit 200000)
  (attr smd)
  (fp_text reference >NAME (at -0.15748 -6.96468) (layer F.SilkS)
    (effects (font (size 0.8128 0.8128) (thickness 0.0762)))
  )
  (fp_text value >VALUE (at 0.13716 6.75132) (layer F.SilkS)
    (effects (font (size 0.8128 0.8128) (thickness 0.0762)))
  )
  (fp_line (start -3.0099 -3.0988) (end -3.0099 3.0988) (layer Dwgs.User) (width 0.09906))
  (fp_line (start 3.0099 -3.0988) (end 3.0099 3.0988) (layer Dwgs.User) (width 0.09906))
  (fp_line (start -3.0099 -3.0988) (end 3.0099 -3.0988) (layer Dwgs.User) (width 0.09906))
  (fp_line (start -3.0099 3.0988) (end 3.0099 3.0988) (layer Dwgs.User) (width 0.09906))
  (fp_line (start -2.2987 -3.19786) (end -3.10896 -3.19786) (layer F.SilkS) (width 0.19812))
  (fp_line (start -3.10896 -3.19786) (end -3.10896 3.19786) (layer F.SilkS) (width 0.19812))
  (fp_line (start -3.10896 3.19786) (end -2.2987 3.19786) (layer F.SilkS) (width 0.19812))
  (fp_line (start 2.2987 -3.19786) (end 3.10896 -3.19786) (layer F.SilkS) (width 0.19812))
  (fp_line (start 3.10896 -3.19786) (end 3.10896 3.19786) (layer F.SilkS) (width 0.19812))
  (fp_line (start 3.10896 3.19786) (end 2.2987 3.19786) (layer F.SilkS) (width 0.19812))
  (fp_line (start -0.29972 -3.19786) (end 0.29972 -3.19786) (layer F.SilkS) (width 0.19812))
  (fp_line (start -0.29972 3.19786) (end 0.29972 3.19786) (layer F.SilkS) (width 0.19812))
  (fp_poly (pts (xy -3.30962 -5.69976) (xy 3.30962 -5.69976) (xy 3.30962 5.69976) (xy -3.30962 5.69976)
    (xy -3.30962 -5.69976)) (layer Dwgs.User) (width 0.09906))
  (fp_circle (center -2.49936 3.49758) (end -2.49936 3.44932) (layer F.SilkS) (width 0.19812))
  (fp_text user 1 (at -1.16332 1.76276) (layer Dwgs.User)
    (effects (font (size 1.27 1.27) (thickness 0.1016)))
  )
  (pad 1 smd rect (at -1.27 4.39928) (size 1.09982 2.19964) (layers F.Cu F.Paste F.Mask))
  (pad 2 smd rect (at 1.27 4.39928) (size 1.09982 2.19964) (layers F.Cu F.Paste F.Mask))
  (pad A1 smd rect (at -1.27 -4.39928) (size 1.09982 2.19964) (layers F.Cu F.Paste F.Mask))
  (pad A2 smd rect (at 1.27 -4.39928) (size 1.09982 2.19964) (layers F.Cu F.Paste F.Mask))
)
