(module WS-PBTL_rev19b-418117270904 (layer F.Cu) (tedit 200000)
  (descr "WS-BS 2.54 MM COMPACT THT DIP SWITCH WITH RAISED ACTUATOR, 4 POLE")
  (tags "WS-BS 2.54 MM COMPACT THT DIP SWITCH WITH RAISED ACTUATOR, 4 POLE")
  (attr virtual)
  (fp_text reference >NAME (at 0.97282 -6.70306) (layer F.SilkS)
    (effects (font (size 1.27 1.27) (thickness 0.1016)))
  )
  (fp_text value >VALUE (at 0.6096 6.39826) (layer F.SilkS)
    (effects (font (size 1.27 1.27) (thickness 0.1016)))
  )
  (fp_line (start -5.57784 -4.79806) (end 5.57784 -4.79806) (layer F.SilkS) (width 0.127))
  (fp_line (start 5.57784 -4.79806) (end 5.57784 4.79806) (layer F.SilkS) (width 0.127))
  (fp_line (start 5.57784 4.79806) (end -5.57784 4.79806) (layer F.SilkS) (width 0.127))
  (fp_line (start -5.57784 4.79806) (end -5.57784 -4.79806) (layer F.SilkS) (width 0.127))
  (fp_poly (pts (xy -5.8293 -5.04952) (xy 5.8293 -5.04952) (xy 5.8293 5.04952) (xy -5.8293 5.04952)
    (xy -5.8293 -5.04952)) (layer Dwgs.User) (width 0.127))
  (fp_circle (center -4.79806 4.49834) (end -4.79806 4.45008) (layer F.SilkS) (width 0.19812))
  (fp_text user 1 (at -3.7084 1.80848) (layer Dwgs.User)
    (effects (font (size 1.27 1.27) (thickness 0.1016)))
  )
  (pad 1 thru_hole circle (at -3.81 3.81) (size 1.30556 1.30556) (drill 0.79756) (layers *.Cu *.Paste *.Mask))
  (pad 2 thru_hole circle (at -1.27 3.81) (size 1.30556 1.30556) (drill 0.79756) (layers *.Cu *.Paste *.Mask))
  (pad 3 thru_hole circle (at 1.27 3.81) (size 1.30556 1.30556) (drill 0.79756) (layers *.Cu *.Paste *.Mask))
  (pad 4 thru_hole circle (at 3.81 3.81) (size 1.30556 1.30556) (drill 0.79756) (layers *.Cu *.Paste *.Mask))
  (pad A1 thru_hole circle (at -3.81 -3.81) (size 1.30556 1.30556) (drill 0.79756) (layers *.Cu *.Paste *.Mask))
  (pad A2 thru_hole circle (at -1.27 -3.81) (size 1.30556 1.30556) (drill 0.79756) (layers *.Cu *.Paste *.Mask))
  (pad A3 thru_hole circle (at 1.27 -3.81) (size 1.30556 1.30556) (drill 0.79756) (layers *.Cu *.Paste *.Mask))
  (pad A4 thru_hole circle (at 3.81 -3.81) (size 1.30556 1.30556) (drill 0.79756) (layers *.Cu *.Paste *.Mask))
)
