(module WS-PBTL_rev19b-481RV12172100 (layer F.Cu) (tedit 200000)
  (descr "WS-RPTL 20 X 20MM ROTARY / PUSH BUTTON SWITCH WITH INTEGRATED LED, THT VERSION")
  (tags "WS-RPTL 20 X 20MM ROTARY / PUSH BUTTON SWITCH WITH INTEGRATED LED, THT VERSION")
  (attr virtual)
  (fp_text reference >NAME (at -0.01524 -11.8491) (layer F.SilkS)
    (effects (font (size 1.27 1.27) (thickness 0.1016)))
  )
  (fp_text value >VALUE (at 0.8001 11.62812) (layer F.SilkS)
    (effects (font (size 1.27 1.27) (thickness 0.1016)))
  )
  (fp_line (start -9.87298 -10.1981) (end -9.87298 10.1981) (layer Dwgs.User) (width 0.127))
  (fp_line (start -9.87298 10.1981) (end 9.87298 10.1981) (layer F.SilkS) (width 0.127))
  (fp_line (start 9.87298 10.1981) (end 9.87298 -10.1981) (layer Dwgs.User) (width 0.127))
  (fp_line (start 9.87298 -10.1981) (end -9.87298 -10.1981) (layer F.SilkS) (width 0.127))
  (fp_line (start -9.87298 -6.10362) (end -9.87298 -10.1981) (layer F.SilkS) (width 0.127))
  (fp_line (start 9.87044 -6.1087) (end 9.87044 -10.20572) (layer F.SilkS) (width 0.127))
  (fp_line (start -9.87298 10.19556) (end -9.87298 6.09854) (layer F.SilkS) (width 0.127))
  (fp_line (start 9.87298 10.18794) (end 9.87298 6.09092) (layer F.SilkS) (width 0.127))
  (fp_line (start -9.87552 -3.88874) (end -9.87552 -3.61188) (layer F.SilkS) (width 0.127))
  (fp_line (start -9.87552 -1.39954) (end -9.87552 -1.12268) (layer F.SilkS) (width 0.127))
  (fp_line (start -9.87552 1.10744) (end -9.87552 1.3843) (layer F.SilkS) (width 0.127))
  (fp_line (start -9.87298 3.60934) (end -9.87298 3.8862) (layer F.SilkS) (width 0.127))
  (fp_line (start 9.87552 3.61442) (end 9.87552 3.89128) (layer F.SilkS) (width 0.127))
  (fp_line (start 9.87552 1.1049) (end 9.87552 1.38176) (layer F.SilkS) (width 0.127))
  (fp_line (start 9.87298 -1.39192) (end 9.87298 -1.11252) (layer F.SilkS) (width 0.127))
  (fp_line (start 9.87298 -3.88874) (end 9.87298 -3.61188) (layer F.SilkS) (width 0.127))
  (fp_poly (pts (xy -10.74928 -10.44956) (xy 10.74928 -10.44956) (xy 10.74928 10.44956) (xy -10.74928 10.44956)
    (xy -10.74928 -10.44956)) (layer Dwgs.User) (width 0.127))
  (fp_text user L1 (at -0.92964 -0.13462) (layer Dwgs.User)
    (effects (font (size 1.27 1.27) (thickness 0.1016)))
  )
  (fp_text user 6 (at -7.06374 -5.13334) (layer Dwgs.User)
    (effects (font (size 1.27 1.27) (thickness 0.1016)))
  )
  (fp_text user 5 (at -7.06374 -2.63398) (layer Dwgs.User)
    (effects (font (size 1.27 1.27) (thickness 0.1016)))
  )
  (fp_text user C2 (at -6.42874 -0.13462) (layer Dwgs.User)
    (effects (font (size 1.27 1.27) (thickness 0.1016)))
  )
  (fp_text user 4 (at -7.06374 2.4638) (layer Dwgs.User)
    (effects (font (size 1.27 1.27) (thickness 0.1016)))
  )
  (fp_text user 3 (at -7.06374 4.8641) (layer Dwgs.User)
    (effects (font (size 1.27 1.27) (thickness 0.1016)))
  )
  (fp_text user 2 (at 7.43458 5.06476) (layer Dwgs.User)
    (effects (font (size 1.27 1.27) (thickness 0.1016)))
  )
  (fp_text user 1 (at 7.43458 2.56286) (layer Dwgs.User)
    (effects (font (size 1.27 1.27) (thickness 0.1016)))
  )
  (fp_text user C1 (at 8.06958 0.0635) (layer Dwgs.User)
    (effects (font (size 1.27 1.27) (thickness 0.1016)))
  )
  (fp_text user 8 (at 7.43458 -2.43332) (layer Dwgs.User)
    (effects (font (size 1.27 1.27) (thickness 0.1016)))
  )
  (fp_text user 7 (at 7.43458 -4.93268) (layer Dwgs.User)
    (effects (font (size 1.27 1.27) (thickness 0.1016)))
  )
  (fp_text user 1 (at -2.06248 -5.03428) (layer Dwgs.User)
    (effects (font (size 1.27 1.27) (thickness 0.1016)))
  )
  (fp_text user 2 (at 0.43434 -5.03428) (layer Dwgs.User)
    (effects (font (size 1.27 1.27) (thickness 0.1016)))
  )
  (fp_text user 3 (at 2.9337 -5.03428) (layer Dwgs.User)
    (effects (font (size 1.27 1.27) (thickness 0.1016)))
  )
  (fp_text user 4 (at -2.56286 4.66344) (layer Dwgs.User)
    (effects (font (size 1.27 1.27) (thickness 0.1016)))
  )
  (fp_text user 5 (at -0.0635 4.66344) (layer Dwgs.User)
    (effects (font (size 1.27 1.27) (thickness 0.1016)))
  )
  (fp_text user 6 (at 2.43332 4.66344) (layer Dwgs.User)
    (effects (font (size 1.27 1.27) (thickness 0.1016)))
  )
  (pad L1 thru_hole circle (at -3.8989 0) (size 1.2065 1.2065) (drill 0.6985) (layers *.Cu *.Paste *.Mask))
  (pad L2 thru_hole circle (at 3.8989 0) (size 1.2065 1.2065) (drill 0.6985) (layers *.Cu *.Paste *.Mask))
  (pad PB1 thru_hole circle (at -2.49936 -2.49936) (size 1.40716 1.40716) (drill 0.89916) (layers *.Cu *.Paste *.Mask))
  (pad PB2 thru_hole circle (at 0 -2.49936) (size 1.40716 1.40716) (drill 0.89916) (layers *.Cu *.Paste *.Mask))
  (pad PB3 thru_hole circle (at 2.49936 -2.49936) (size 1.40716 1.40716) (drill 0.89916) (layers *.Cu *.Paste *.Mask))
  (pad PB4 thru_hole circle (at -2.49936 2.49936) (size 1.40716 1.40716) (drill 0.89916) (layers *.Cu *.Paste *.Mask))
  (pad PB5 thru_hole circle (at 0 2.49936) (size 1.40716 1.40716) (drill 0.89916) (layers *.Cu *.Paste *.Mask))
  (pad PB6 thru_hole circle (at 2.49936 2.49936) (size 1.40716 1.40716) (drill 0.89916) (layers *.Cu *.Paste *.Mask))
  (pad R1 thru_hole circle (at 9.64946 2.49936) (size 1.40716 1.40716) (drill 0.89916) (layers *.Cu *.Paste *.Mask))
  (pad R2 thru_hole circle (at 9.64946 4.99872) (size 1.40716 1.40716) (drill 0.89916) (layers *.Cu *.Paste *.Mask))
  (pad R3 thru_hole circle (at -9.64946 4.99872) (size 1.40716 1.40716) (drill 0.89916) (layers *.Cu *.Paste *.Mask))
  (pad R4 thru_hole circle (at -9.64946 2.49936) (size 1.40716 1.40716) (drill 0.89916) (layers *.Cu *.Paste *.Mask))
  (pad R5 thru_hole circle (at -9.64946 -2.49936) (size 1.40716 1.40716) (drill 0.89916) (layers *.Cu *.Paste *.Mask))
  (pad R6 thru_hole circle (at -9.64946 -4.99872) (size 1.40716 1.40716) (drill 0.89916) (layers *.Cu *.Paste *.Mask))
  (pad R7 thru_hole circle (at 9.64946 -4.99872) (size 1.40716 1.40716) (drill 0.89916) (layers *.Cu *.Paste *.Mask))
  (pad R8 thru_hole circle (at 9.64946 -2.49936) (size 1.40716 1.40716) (drill 0.89916) (layers *.Cu *.Paste *.Mask))
  (pad RC1 thru_hole circle (at 9.64946 0) (size 1.40716 1.40716) (drill 0.89916) (layers *.Cu *.Paste *.Mask))
  (pad RC2 thru_hole circle (at -9.64946 0) (size 1.40716 1.40716) (drill 0.89916) (layers *.Cu *.Paste *.Mask))
  (pad "" np_thru_hole circle (at 6.49986 0) (size 1.69926 1.69926) (drill 1.69926) (layers *.Cu *.Mask))
)
