(module WS-PBTL_rev19b-418121270804 (layer F.Cu) (tedit 200000)
  (attr smd)
  (fp_text reference >NAME (at -0.65786 -7.43458) (layer F.SilkS)
    (effects (font (size 1.27 1.27) (thickness 0.1016)))
  )
  (fp_text value >VALUE (at 0.80772 6.96468) (layer F.SilkS)
    (effects (font (size 1.27 1.27) (thickness 0.1016)))
  )
  (fp_line (start -5.5499 -3.0988) (end -5.5499 3.0988) (layer Dwgs.User) (width 0.09906))
  (fp_line (start 5.5499 -3.0988) (end 5.5499 3.0988) (layer Dwgs.User) (width 0.09906))
  (fp_line (start -5.5499 -3.0988) (end 5.5499 -3.0988) (layer Dwgs.User) (width 0.09906))
  (fp_line (start -5.5499 3.0988) (end 5.5499 3.0988) (layer Dwgs.User) (width 0.09906))
  (fp_line (start -4.79806 -3.19786) (end -5.64896 -3.19786) (layer F.SilkS) (width 0.19812))
  (fp_line (start -5.64896 -3.19786) (end -5.64896 3.19786) (layer F.SilkS) (width 0.19812))
  (fp_line (start -5.64896 3.19786) (end -4.79806 3.19786) (layer F.SilkS) (width 0.19812))
  (fp_line (start -0.29972 3.19786) (end 0.29972 3.19786) (layer F.SilkS) (width 0.19812))
  (fp_line (start -0.29972 -3.19786) (end 0.29972 -3.19786) (layer F.SilkS) (width 0.19812))
  (fp_line (start 4.79806 -3.19786) (end 5.64896 -3.19786) (layer F.SilkS) (width 0.19812))
  (fp_line (start 5.64896 -3.19786) (end 5.64896 3.19786) (layer F.SilkS) (width 0.19812))
  (fp_line (start 5.64896 3.19786) (end 4.79806 3.19786) (layer F.SilkS) (width 0.19812))
  (fp_line (start -2.83972 3.19786) (end -2.23774 3.19786) (layer F.SilkS) (width 0.19812))
  (fp_line (start 2.23774 3.19786) (end 2.83972 3.19786) (layer F.SilkS) (width 0.19812))
  (fp_line (start -2.83972 -3.19786) (end -2.23774 -3.19786) (layer F.SilkS) (width 0.19812))
  (fp_line (start 2.23774 -3.19786) (end 2.83972 -3.19786) (layer F.SilkS) (width 0.19812))
  (fp_poly (pts (xy -5.84962 -5.69976) (xy 5.84962 -5.69976) (xy 5.84962 5.69976) (xy -5.84962 5.69976)
    (xy -5.84962 -5.69976)) (layer Dwgs.User) (width 0.09906))
  (fp_circle (center -4.89966 3.49758) (end -4.89966 3.44932) (layer F.SilkS) (width 0.19812))
  (fp_text user 1 (at -3.50266 1.56464) (layer Dwgs.User)
    (effects (font (size 1.27 1.27) (thickness 0.1016)))
  )
  (pad 1 smd rect (at -3.81 4.39928) (size 1.09982 2.19964) (layers F.Cu F.Paste F.Mask))
  (pad 2 smd rect (at -1.27 4.39928) (size 1.09982 2.19964) (layers F.Cu F.Paste F.Mask))
  (pad 3 smd rect (at 1.27 4.39928) (size 1.09982 2.19964) (layers F.Cu F.Paste F.Mask))
  (pad 4 smd rect (at 3.81 4.39928) (size 1.09982 2.19964) (layers F.Cu F.Paste F.Mask))
  (pad A1 smd rect (at -3.81 -4.39928) (size 1.09982 2.19964) (layers F.Cu F.Paste F.Mask))
  (pad A2 smd rect (at -1.27 -4.39928) (size 1.09982 2.19964) (layers F.Cu F.Paste F.Mask))
  (pad A3 smd rect (at 1.27 -4.39928) (size 1.09982 2.19964) (layers F.Cu F.Paste F.Mask))
  (pad A4 smd rect (at 3.81 -4.39928) (size 1.09982 2.19964) (layers F.Cu F.Paste F.Mask))
)
