(module WS-PBTL_rev19b-450302014072 (layer F.Cu) (tedit 200000)
  (descr "WS-SUT, 10MM*2.5MM, SPDT, ON-ON, 2.54MM, RIGHT ANGLE TYPE, THT, MINI SLIDE SWITCH, 3 PINS")
  (tags "WS-SUT, 10MM*2.5MM, SPDT, ON-ON, 2.54MM, RIGHT ANGLE TYPE, THT, MINI SLIDE SWITCH, 3 PINS")
  (attr virtual)
  (fp_text reference >NAME (at -0.2413 -8.11784) (layer F.SilkS)
    (effects (font (size 1.27 1.27) (thickness 0.1016)))
  )
  (fp_text value >VALUE (at 0.2667 2.1463) (layer F.SilkS)
    (effects (font (size 1.27 1.27) (thickness 0.1016)))
  )
  (fp_line (start 4.99872 -6.79958) (end -4.99872 -6.79958) (layer Dwgs.User) (width 0.127))
  (fp_line (start -4.99872 -6.79958) (end -4.99872 -5.3975) (layer Dwgs.User) (width 0.127))
  (fp_line (start -4.99872 -5.3975) (end -4.99872 0) (layer F.SilkS) (width 0.127))
  (fp_line (start -4.99872 -0.01778) (end 4.99872 -0.01778) (layer Dwgs.User) (width 0.127))
  (fp_line (start 4.99872 -0.01778) (end 4.99872 -5.3975) (layer F.SilkS) (width 0.127))
  (fp_line (start 4.99872 -5.3975) (end 4.99872 -6.79958) (layer Dwgs.User) (width 0.127))
  (fp_line (start -3.7084 0) (end -4.99872 0) (layer F.SilkS) (width 0.127))
  (fp_line (start 3.6576 -0.01778) (end 4.99872 -0.01778) (layer F.SilkS) (width 0.127))
  (fp_line (start 1.10998 -0.01778) (end 1.43764 -0.01778) (layer F.SilkS) (width 0.127))
  (fp_line (start -1.42748 -0.01778) (end -1.10998 -0.01778) (layer F.SilkS) (width 0.127))
  (fp_line (start -4.99872 -5.3975) (end 4.99872 -5.3975) (layer F.SilkS) (width 0.127))
  (fp_poly (pts (xy -5.24764 -5.4483) (xy 5.24764 -5.4483) (xy 5.24764 0.99822) (xy -5.24764 0.99822)
    (xy -5.24764 -5.4483)) (layer Dwgs.User) (width 0.127))
  (fp_circle (center -0.6985 0.79756) (end -0.6985 0.7493) (layer F.SilkS) (width 0.19812))
  (fp_text user 1 (at 0.10414 -0.00254) (layer Dwgs.User)
    (effects (font (size 0.6096 0.6096) (thickness 0.0508)))
  )
  (fp_text user 2 (at -2.39268 -0.00254) (layer Dwgs.User)
    (effects (font (size 0.6096 0.6096) (thickness 0.0508)))
  )
  (fp_text user 3 (at 2.6035 -0.00254) (layer Dwgs.User)
    (effects (font (size 0.6096 0.6096) (thickness 0.0508)))
  )
  (pad 1 thru_hole circle (at 0 0) (size 1.30556 1.30556) (drill 0.79756) (layers *.Cu *.Paste *.Mask))
  (pad 2 thru_hole circle (at -2.54 0) (size 1.30556 1.30556) (drill 0.79756) (layers *.Cu *.Paste *.Mask))
  (pad 3 thru_hole circle (at 2.54 0) (size 1.30556 1.30556) (drill 0.79756) (layers *.Cu *.Paste *.Mask))
)
