(module WS-PBTL_rev19b-418127270906 (layer F.Cu) (tedit 200000)
  (descr WS-DITV)
  (tags WS-DITV)
  (attr virtual)
  (fp_text reference >NAME (at 0.8636 -6.75386) (layer F.SilkS)
    (effects (font (size 1.27 1.27) (thickness 0.1016)))
  )
  (fp_text value >VALUE (at 0.72898 6.34492) (layer F.SilkS)
    (effects (font (size 1.27 1.27) (thickness 0.1016)))
  )
  (fp_line (start -8.0899 -3.0988) (end 8.0899 -3.0988) (layer Dwgs.User) (width 0.127))
  (fp_line (start 8.0899 -3.0988) (end 8.0899 3.0988) (layer Dwgs.User) (width 0.127))
  (fp_line (start 8.0899 3.0988) (end -8.0899 3.0988) (layer Dwgs.User) (width 0.127))
  (fp_line (start -8.0899 3.0988) (end -8.0899 -3.0988) (layer Dwgs.User) (width 0.127))
  (fp_line (start -6.858 -3.0988) (end -8.0899 -3.0988) (layer F.SilkS) (width 0.127))
  (fp_line (start -8.0899 -3.0988) (end -8.0899 3.0988) (layer F.SilkS) (width 0.127))
  (fp_line (start -8.0899 3.0988) (end -6.83768 3.0988) (layer F.SilkS) (width 0.127))
  (fp_line (start 6.93928 -3.0988) (end 8.0899 -3.0988) (layer F.SilkS) (width 0.127))
  (fp_line (start 8.0899 -3.0988) (end 8.0899 3.0988) (layer F.SilkS) (width 0.127))
  (fp_line (start 8.0899 3.0988) (end 6.8199 3.0988) (layer F.SilkS) (width 0.127))
  (fp_line (start -5.80898 -3.0988) (end -4.30784 -3.0988) (layer F.SilkS) (width 0.127))
  (fp_line (start -3.30962 -3.0988) (end -1.80848 -3.0988) (layer F.SilkS) (width 0.127))
  (fp_line (start -5.80898 3.0988) (end -4.40944 3.0988) (layer F.SilkS) (width 0.127))
  (fp_line (start -3.20802 3.0988) (end -1.80848 3.0988) (layer F.SilkS) (width 0.127))
  (fp_line (start -0.76962 -3.0988) (end 0.72898 -3.0988) (layer F.SilkS) (width 0.127))
  (fp_line (start 1.76784 -3.0988) (end 3.26898 -3.0988) (layer F.SilkS) (width 0.127))
  (fp_line (start -0.66802 3.0988) (end 0.72898 3.0988) (layer F.SilkS) (width 0.127))
  (fp_line (start 1.86944 3.0988) (end 3.26898 3.0988) (layer F.SilkS) (width 0.127))
  (fp_line (start 4.30784 -3.0988) (end 5.80898 -3.0988) (layer F.SilkS) (width 0.127))
  (fp_line (start 4.40944 3.0988) (end 5.80898 3.0988) (layer F.SilkS) (width 0.127))
  (fp_poly (pts (xy 8.33882 -4.99872) (xy 8.33882 4.99872) (xy -8.33882 4.99872) (xy -8.33882 -4.99872)
    (xy 8.33882 -4.99872)) (layer Dwgs.User) (width 0.127))
  (fp_circle (center -7.7978 3.59918) (end -7.7978 3.55092) (layer F.SilkS) (width 0.19812))
  (fp_text user 1 (at -6.21284 1.46304) (layer Dwgs.User)
    (effects (font (size 1.27 1.27) (thickness 0.1016)))
  )
  (pad 1 thru_hole circle (at -6.35 3.81) (size 1.30556 1.30556) (drill 0.79756) (layers *.Cu *.Paste *.Mask))
  (pad 2 thru_hole circle (at -3.81 3.81) (size 1.30556 1.30556) (drill 0.79756) (layers *.Cu *.Paste *.Mask))
  (pad 3 thru_hole circle (at -1.27 3.81) (size 1.30556 1.30556) (drill 0.79756) (layers *.Cu *.Paste *.Mask))
  (pad 4 thru_hole circle (at 1.27 3.81) (size 1.30556 1.30556) (drill 0.79756) (layers *.Cu *.Paste *.Mask))
  (pad 5 thru_hole circle (at 3.81 3.81) (size 1.30556 1.30556) (drill 0.79756) (layers *.Cu *.Paste *.Mask))
  (pad 6 thru_hole circle (at 6.35 3.81) (size 1.30556 1.30556) (drill 0.79756) (layers *.Cu *.Paste *.Mask))
  (pad A1 thru_hole circle (at -6.35 -3.81) (size 1.30556 1.30556) (drill 0.79756) (layers *.Cu *.Paste *.Mask))
  (pad A2 thru_hole circle (at -3.81 -3.81) (size 1.30556 1.30556) (drill 0.79756) (layers *.Cu *.Paste *.Mask))
  (pad A3 thru_hole circle (at -1.27 -3.81) (size 1.30556 1.30556) (drill 0.79756) (layers *.Cu *.Paste *.Mask))
  (pad A4 thru_hole circle (at 1.27 -3.81) (size 1.30556 1.30556) (drill 0.79756) (layers *.Cu *.Paste *.Mask))
  (pad A5 thru_hole circle (at 3.81 -3.81) (size 1.30556 1.30556) (drill 0.79756) (layers *.Cu *.Paste *.Mask))
  (pad A6 thru_hole circle (at 6.35 -3.81) (size 1.30556 1.30556) (drill 0.79756) (layers *.Cu *.Paste *.Mask))
)
