(module WS-PBTL_rev19b-434351045816 (layer F.Cu) (tedit 200000)
  (descr "WS-TUS-3.5X4.7 MM SIDE PUSH SMD TACT SWITCH, 4 PINS")
  (tags "WS-TUS-3.5X4.7 MM SIDE PUSH SMD TACT SWITCH, 4 PINS")
  (attr smd)
  (fp_text reference >NAME (at -0.21336 -2.81686) (layer F.SilkS)
    (effects (font (size 0.8128 0.8128) (thickness 0.0762)))
  )
  (fp_text value >VALUE (at 4.32308 2.61112) (layer F.SilkS)
    (effects (font (size 0.8128 0.8128) (thickness 0.0762)))
  )
  (fp_line (start 2.3495 1.74752) (end 2.3495 -1.74752) (layer Dwgs.User) (width 0.127))
  (fp_line (start 2.3495 -1.74752) (end -2.3495 -1.74752) (layer F.SilkS) (width 0.127))
  (fp_line (start -2.3495 -1.74752) (end -2.3495 1.74752) (layer Dwgs.User) (width 0.127))
  (fp_line (start 2.3495 1.74752) (end -2.3495 1.74752) (layer F.SilkS) (width 0.127))
  (fp_line (start -2.3495 -1.74752) (end -2.3495 -1.53924) (layer F.SilkS) (width 0.127))
  (fp_line (start 2.3495 -1.74752) (end 2.3495 -1.55956) (layer F.SilkS) (width 0.127))
  (fp_line (start -2.3495 0.15748) (end -2.3495 -0.14986) (layer F.SilkS) (width 0.127))
  (fp_line (start 2.3495 -0.14986) (end 2.3495 0.14986) (layer F.SilkS) (width 0.127))
  (fp_line (start 2.3495 1.53924) (end 2.3495 1.74752) (layer F.SilkS) (width 0.127))
  (fp_line (start -2.3495 1.53924) (end -2.3495 1.74752) (layer F.SilkS) (width 0.127))
  (fp_line (start -1.29794 2.74828) (end 1.29794 2.74828) (layer Dwgs.User) (width 0.127))
  (fp_line (start 1.29794 2.74828) (end 1.29794 1.74752) (layer Dwgs.User) (width 0.127))
  (fp_line (start -1.29794 1.74752) (end -1.29794 2.74828) (layer Dwgs.User) (width 0.127))
  (fp_poly (pts (xy -3.63982 -1.99898) (xy 3.63982 -2.0193) (xy 3.63982 1.99898) (xy -3.63982 1.99898)
    (xy -3.63982 -1.99898)) (layer Dwgs.User) (width 0.127))
  (fp_circle (center 2.89814 -1.79832) (end 2.89814 -1.84658) (layer F.SilkS) (width 0.19812))
  (fp_text user 1 (at 2.00406 -0.80518) (layer Dwgs.User)
    (effects (font (size 0.8128 0.8128) (thickness 0.0762)))
  )
  (fp_text user 3 (at -1.49352 -1.00584) (layer Dwgs.User)
    (effects (font (size 0.8128 0.8128) (thickness 0.0762)))
  )
  (fp_text user 4 (at -1.59258 0.79248) (layer Dwgs.User)
    (effects (font (size 0.8128 0.8128) (thickness 0.0762)))
  )
  (fp_text user 2 (at 1.905 0.79248) (layer Dwgs.User)
    (effects (font (size 0.8128 0.8128) (thickness 0.0762)))
  )
  (fp_text user "PCB EDGE" (at 0.21844 1.24714) (layer Dwgs.User)
    (effects (font (size 0.3048 0.3048) (thickness 0.0254)))
  )
  (fp_text user "SWITCH EDGE" (at 0.19558 2.37236) (layer Dwgs.User)
    (effects (font (size 0.254 0.254) (thickness 0.0254)))
  )
  (pad 1 smd rect (at 2.79908 -0.84836) (size 1.19888 0.99822) (layers F.Cu F.Paste F.Mask))
  (pad 2 smd rect (at 2.79908 0.84836) (size 1.19888 0.99822) (layers F.Cu F.Paste F.Mask))
  (pad 3 smd rect (at -2.79908 -0.84836) (size 1.19888 0.99822) (layers F.Cu F.Paste F.Mask))
  (pad 4 smd rect (at -2.79908 0.84836) (size 1.19888 0.99822) (layers F.Cu F.Paste F.Mask))
)
