(module WS-PBTL_rev19b-418121270810 (layer F.Cu) (tedit 200000)
  (attr smd)
  (fp_text reference >NAME (at -2.09804 -7.15264) (layer F.SilkS)
    (effects (font (size 1.27 1.27) (thickness 0.1016)))
  )
  (fp_text value >VALUE (at 1.3081 7.18312) (layer F.SilkS)
    (effects (font (size 1.27 1.27) (thickness 0.1016)))
  )
  (fp_line (start -13.1699 -3.0988) (end -13.1699 3.0988) (layer Dwgs.User) (width 0.09906))
  (fp_line (start 13.1699 -3.0988) (end 13.1699 3.0988) (layer Dwgs.User) (width 0.09906))
  (fp_line (start -13.1699 -3.0988) (end 13.1699 -3.0988) (layer Dwgs.User) (width 0.09906))
  (fp_line (start -13.1699 3.0988) (end 13.1699 3.0988) (layer Dwgs.User) (width 0.09906))
  (fp_line (start -12.39774 -3.19786) (end -13.26896 -3.19786) (layer F.SilkS) (width 0.19812))
  (fp_line (start -13.26896 -3.19786) (end -13.26896 3.19786) (layer F.SilkS) (width 0.19812))
  (fp_line (start -13.26896 3.19786) (end -12.39774 3.19786) (layer F.SilkS) (width 0.19812))
  (fp_line (start 12.39774 -3.29946) (end 13.26896 -3.29946) (layer F.SilkS) (width 0.19812))
  (fp_line (start 13.26896 -3.29946) (end 13.26896 3.19786) (layer F.SilkS) (width 0.19812))
  (fp_line (start 13.26896 3.19786) (end 12.49934 3.19786) (layer F.SilkS) (width 0.19812))
  (fp_line (start -10.39876 3.19786) (end -9.89838 3.19786) (layer F.SilkS) (width 0.19812))
  (fp_line (start -10.39876 -3.19786) (end -9.89838 -3.19786) (layer F.SilkS) (width 0.19812))
  (fp_line (start -7.85876 -3.19786) (end -7.35838 -3.19786) (layer F.SilkS) (width 0.19812))
  (fp_line (start -5.31876 -3.19786) (end -4.81838 -3.19786) (layer F.SilkS) (width 0.19812))
  (fp_line (start -2.77876 -3.19786) (end -2.27838 -3.19786) (layer F.SilkS) (width 0.19812))
  (fp_line (start -0.23876 -3.19786) (end 0.25908 -3.19786) (layer F.SilkS) (width 0.19812))
  (fp_line (start 2.2987 -3.19786) (end 2.79908 -3.19786) (layer F.SilkS) (width 0.19812))
  (fp_line (start 4.8387 -3.19786) (end 5.33908 -3.19786) (layer F.SilkS) (width 0.19812))
  (fp_line (start 7.3787 -3.19786) (end 7.87908 -3.19786) (layer F.SilkS) (width 0.19812))
  (fp_line (start 9.9187 -3.19786) (end 10.41908 -3.19786) (layer F.SilkS) (width 0.19812))
  (fp_line (start -7.85876 3.19786) (end -7.35838 3.19786) (layer F.SilkS) (width 0.19812))
  (fp_line (start -5.31876 3.19786) (end -4.81838 3.19786) (layer F.SilkS) (width 0.19812))
  (fp_line (start -2.77876 3.19786) (end -2.27838 3.19786) (layer F.SilkS) (width 0.19812))
  (fp_line (start -0.23876 3.19786) (end 0.25908 3.19786) (layer F.SilkS) (width 0.19812))
  (fp_line (start 2.2987 3.19786) (end 2.79908 3.19786) (layer F.SilkS) (width 0.19812))
  (fp_line (start 4.8387 3.19786) (end 5.33908 3.19786) (layer F.SilkS) (width 0.19812))
  (fp_line (start 7.3787 3.19786) (end 7.87908 3.19786) (layer F.SilkS) (width 0.19812))
  (fp_line (start 9.9187 3.19786) (end 10.41908 3.19786) (layer F.SilkS) (width 0.19812))
  (fp_poly (pts (xy -13.46962 -5.69976) (xy 13.46962 -5.69976) (xy 13.46962 5.69976) (xy -13.46962 5.69976)
    (xy -13.46962 -5.69976)) (layer Dwgs.User) (width 0.09906))
  (fp_circle (center -12.49934 3.49758) (end -12.49934 3.44932) (layer F.SilkS) (width 0.19812))
  (fp_text user 1 (at -11.22426 1.76276) (layer Dwgs.User)
    (effects (font (size 1.27 1.27) (thickness 0.1016)))
  )
  (pad 1 smd rect (at -11.43 4.39928) (size 1.09982 2.19964) (layers F.Cu F.Paste F.Mask))
  (pad 2 smd rect (at -8.89 4.39928) (size 1.09982 2.19964) (layers F.Cu F.Paste F.Mask))
  (pad 3 smd rect (at -6.35 4.39928) (size 1.09982 2.19964) (layers F.Cu F.Paste F.Mask))
  (pad 4 smd rect (at -3.81 4.39928) (size 1.09982 2.19964) (layers F.Cu F.Paste F.Mask))
  (pad 5 smd rect (at -1.27 4.39928) (size 1.09982 2.19964) (layers F.Cu F.Paste F.Mask))
  (pad 6 smd rect (at 1.27 4.39928) (size 1.09982 2.19964) (layers F.Cu F.Paste F.Mask))
  (pad 7 smd rect (at 3.81 4.39928) (size 1.09982 2.19964) (layers F.Cu F.Paste F.Mask))
  (pad 8 smd rect (at 6.35 4.39928) (size 1.09982 2.19964) (layers F.Cu F.Paste F.Mask))
  (pad 9 smd rect (at 8.89 4.39928) (size 1.09982 2.19964) (layers F.Cu F.Paste F.Mask))
  (pad 10 smd rect (at 11.43 4.39928) (size 1.09982 2.19964) (layers F.Cu F.Paste F.Mask))
  (pad A1 smd rect (at -11.43 -4.39928) (size 1.09982 2.19964) (layers F.Cu F.Paste F.Mask))
  (pad A2 smd rect (at -8.89 -4.39928) (size 1.09982 2.19964) (layers F.Cu F.Paste F.Mask))
  (pad A3 smd rect (at -6.35 -4.39928) (size 1.09982 2.19964) (layers F.Cu F.Paste F.Mask))
  (pad A4 smd rect (at -3.81 -4.39928) (size 1.09982 2.19964) (layers F.Cu F.Paste F.Mask))
  (pad A5 smd rect (at -1.27 -4.39928) (size 1.09982 2.19964) (layers F.Cu F.Paste F.Mask))
  (pad A6 smd rect (at 1.27 -4.39928) (size 1.09982 2.19964) (layers F.Cu F.Paste F.Mask))
  (pad A7 smd rect (at 3.81 -4.39928) (size 1.09982 2.19964) (layers F.Cu F.Paste F.Mask))
  (pad A8 smd rect (at 6.35 -4.39928) (size 1.09982 2.19964) (layers F.Cu F.Paste F.Mask))
  (pad A9 smd rect (at 8.89 -4.39928) (size 1.09982 2.19964) (layers F.Cu F.Paste F.Mask))
  (pad A10 smd rect (at 11.43 -4.39928) (size 1.09982 2.19964) (layers F.Cu F.Paste F.Mask))
)
