(module WS-PBTL_rev19b-430173003816 (layer F.Cu) (tedit 200000)
  (attr smd)
  (fp_text reference >NAME (at 0 -2.90576) (layer F.SilkS)
    (effects (font (size 0.8128 0.8128) (thickness 0.0762)))
  )
  (fp_text value >VALUE (at 0 2.84226) (layer F.SilkS)
    (effects (font (size 0.8128 0.8128) (thickness 0.0762)))
  )
  (fp_line (start -1.84912 -1.84912) (end 1.84912 -1.84912) (layer Dwgs.User) (width 0.127))
  (fp_line (start 1.84912 -1.84912) (end 1.84912 1.84912) (layer Dwgs.User) (width 0.127))
  (fp_line (start 1.84912 1.84912) (end -1.84912 1.84912) (layer Dwgs.User) (width 0.127))
  (fp_line (start -1.84912 1.84912) (end -1.84912 -1.84912) (layer Dwgs.User) (width 0.127))
  (fp_line (start -0.98806 -1.84912) (end 0.98806 -1.84912) (layer F.SilkS) (width 0.127))
  (fp_line (start -1.01854 1.84912) (end 0.95758 1.84912) (layer F.SilkS) (width 0.127))
  (fp_line (start -1.84912 -0.7493) (end -1.84912 0.7493) (layer F.SilkS) (width 0.127))
  (fp_line (start 1.84912 -0.7493) (end 1.84912 0.7493) (layer F.SilkS) (width 0.127))
  (fp_poly (pts (xy -2.09804 -2.09804) (xy 2.09804 -2.09804) (xy 2.09804 2.09804) (xy -2.09804 2.09804)
    (xy -2.09804 -2.09804)) (layer Dwgs.User) (width 0.127))
  (fp_text user 1 (at -0.69342 -0.80264) (layer F.SilkS)
    (effects (font (size 0.6096 0.6096) (thickness 0.0508)))
  )
  (fp_text user 3 (at 0.80264 -0.80264) (layer F.SilkS)
    (effects (font (size 0.6096 0.6096) (thickness 0.0508)))
  )
  (fp_text user 2 (at -0.3937 1.09474) (layer F.SilkS)
    (effects (font (size 0.6096 0.6096) (thickness 0.0508)))
  )
  (fp_text user 4 (at 0.80264 1.09474) (layer F.SilkS)
    (effects (font (size 0.6096 0.6096) (thickness 0.0508)))
  )
  (pad 1 smd rect (at -1.5494 -1.37414) (size 0.59944 0.6477) (layers F.Cu F.Paste F.Mask))
  (pad 2 smd rect (at -1.5494 1.37414) (size 0.59944 0.6477) (layers F.Cu F.Paste F.Mask))
  (pad 3 smd rect (at 1.5494 -1.37414) (size 0.59944 0.6477) (layers F.Cu F.Paste F.Mask))
  (pad 4 smd rect (at 1.5494 1.37414) (size 0.59944 0.6477) (layers F.Cu F.Paste F.Mask))
)
