(module WS-PBTL_rev19b-416131160805 (layer F.Cu) (tedit 200000)
  (attr smd)
  (fp_text reference >NAME (at 0.12954 -5.50418) (layer F.SilkS)
    (effects (font (size 0.8128 0.8128) (thickness 0.0762)))
  )
  (fp_text value >VALUE (at 0.35814 5.29336) (layer F.SilkS)
    (effects (font (size 0.8128 0.8128) (thickness 0.0762)))
  )
  (fp_line (start -3.7592 -2.89814) (end -3.7592 2.89814) (layer F.SilkS) (width 0.127))
  (fp_line (start 3.7592 -2.89814) (end 3.7592 2.89814) (layer F.SilkS) (width 0.127))
  (fp_line (start -3.7592 -2.89814) (end 3.7592 -2.89814) (layer F.SilkS) (width 0.127))
  (fp_line (start -3.7592 2.89814) (end 3.7592 2.89814) (layer F.SilkS) (width 0.127))
  (fp_poly (pts (xy -4.00812 -4.59994) (xy 4.00812 -4.59994) (xy 4.00812 4.59994) (xy -4.00812 4.59994)
    (xy -4.00812 -4.59994)) (layer Dwgs.User) (width 0.127))
  (fp_circle (center -3.36804 3.99796) (end -3.36804 3.8989) (layer F.SilkS) (width 0.254))
  (fp_text user 1 (at -2.40284 1.6129) (layer Dwgs.User)
    (effects (font (size 1.27 1.27) (thickness 0.1016)))
  )
  (pad 1 smd rect (at -2.54 3.81) (size 0.75946 1.27) (layers F.Cu F.Paste F.Mask))
  (pad 2 smd rect (at -1.27 3.81) (size 0.75946 1.27) (layers F.Cu F.Paste F.Mask))
  (pad 3 smd rect (at 0 3.81) (size 0.75946 1.27) (layers F.Cu F.Paste F.Mask))
  (pad 4 smd rect (at 1.27 3.81) (size 0.75946 1.27) (layers F.Cu F.Paste F.Mask))
  (pad 5 smd rect (at 2.54 3.81) (size 0.75946 1.27) (layers F.Cu F.Paste F.Mask))
  (pad A1 smd rect (at -2.54 -3.81) (size 0.75946 1.27) (layers F.Cu F.Paste F.Mask))
  (pad A2 smd rect (at -1.27 -3.81) (size 0.75946 1.27) (layers F.Cu F.Paste F.Mask))
  (pad A3 smd rect (at 0 -3.81) (size 0.75946 1.27) (layers F.Cu F.Paste F.Mask))
  (pad A4 smd rect (at 1.27 -3.81) (size 0.75946 1.27) (layers F.Cu F.Paste F.Mask))
  (pad A5 smd rect (at 2.54 -3.81) (size 0.75946 1.27) (layers F.Cu F.Paste F.Mask))
)
