(module WS-ROTU_rev19b-418117170906 (layer F.Cu) (tedit 200000)
  (descr "WS-BS 2.54 MM COMPACT THT DIP SWITCH WITH FLAT ACTUATOR, 7 POLE")
  (tags "WS-BS 2.54 MM COMPACT THT DIP SWITCH WITH FLAT ACTUATOR, 7 POLE")
  (attr virtual)
  (fp_text reference >NAME (at 0.03302 -6.70306) (layer F.SilkS)
    (effects (font (size 1.27 1.27) (thickness 0.1016)))
  )
  (fp_text value >VALUE (at 0.76962 6.2992) (layer F.SilkS)
    (effects (font (size 1.27 1.27) (thickness 0.1016)))
  )
  (fp_line (start -8.11784 -4.94792) (end 8.11784 -4.94792) (layer F.SilkS) (width 0.127))
  (fp_line (start 8.11784 -4.94792) (end 8.11784 4.94792) (layer F.SilkS) (width 0.127))
  (fp_line (start 8.11784 4.94792) (end -8.11784 4.94792) (layer F.SilkS) (width 0.127))
  (fp_line (start -8.11784 4.94792) (end -8.11784 -4.94792) (layer F.SilkS) (width 0.127))
  (fp_poly (pts (xy -8.3693 -5.19938) (xy 8.3693 -5.19938) (xy 8.3693 5.19938) (xy -8.3693 5.19938)
    (xy -8.3693 -5.19938)) (layer Dwgs.User) (width 0.127))
  (fp_circle (center -7.29996 4.59994) (end -7.29996 4.55168) (layer F.SilkS) (width 0.19812))
  (fp_text user 1 (at -6.2484 1.80848) (layer Dwgs.User)
    (effects (font (size 1.27 1.27) (thickness 0.1016)))
  )
  (pad 1 thru_hole circle (at -6.35 3.81) (size 1.30556 1.30556) (drill 0.79756) (layers *.Cu *.Paste *.Mask))
  (pad 2 thru_hole circle (at -3.81 3.81) (size 1.30556 1.30556) (drill 0.79756) (layers *.Cu *.Paste *.Mask))
  (pad 3 thru_hole circle (at -1.27 3.81) (size 1.30556 1.30556) (drill 0.79756) (layers *.Cu *.Paste *.Mask))
  (pad 4 thru_hole circle (at 1.27 3.81) (size 1.30556 1.30556) (drill 0.79756) (layers *.Cu *.Paste *.Mask))
  (pad 5 thru_hole circle (at 3.81 3.81) (size 1.30556 1.30556) (drill 0.79756) (layers *.Cu *.Paste *.Mask))
  (pad 6 thru_hole circle (at 6.35 3.81) (size 1.30556 1.30556) (drill 0.79756) (layers *.Cu *.Paste *.Mask))
  (pad 7 thru_hole circle (at 6.35 -3.81) (size 1.30556 1.30556) (drill 0.79756) (layers *.Cu *.Paste *.Mask))
  (pad 8 thru_hole circle (at 3.81 -3.81) (size 1.30556 1.30556) (drill 0.79756) (layers *.Cu *.Paste *.Mask))
  (pad 9 thru_hole circle (at 1.27 -3.81) (size 1.30556 1.30556) (drill 0.79756) (layers *.Cu *.Paste *.Mask))
  (pad 10 thru_hole circle (at -1.27 -3.81) (size 1.30556 1.30556) (drill 0.79756) (layers *.Cu *.Paste *.Mask))
  (pad 11 thru_hole circle (at -3.81 -3.81) (size 1.30556 1.30556) (drill 0.79756) (layers *.Cu *.Paste *.Mask))
  (pad 12 thru_hole circle (at -6.35 -3.81) (size 1.30556 1.30556) (drill 0.79756) (layers *.Cu *.Paste *.Mask))
)
