(module WS-ROTU_rev19b-440GS67082622 (layer F.Cu) (tedit 200000)
  (descr "WS-TLT 12X12MM TACT SWITCH WITH INTEGRATED LED, THT VERSION, 6 PINS")
  (tags "WS-TLT 12X12MM TACT SWITCH WITH INTEGRATED LED, THT VERSION, 6 PINS")
  (attr virtual)
  (fp_text reference >NAME (at 0.6731 -7.67334) (layer F.SilkS)
    (effects (font (size 1.27 1.27) (thickness 0.1016)))
  )
  (fp_text value >VALUE (at 0.80772 7.36346) (layer F.SilkS)
    (effects (font (size 1.27 1.27) (thickness 0.1016)))
  )
  (fp_line (start -5.99948 -5.99948) (end -5.99948 5.99948) (layer Dwgs.User) (width 0.127))
  (fp_line (start -5.99948 5.99948) (end 5.99948 5.99948) (layer F.SilkS) (width 0.127))
  (fp_line (start 5.99948 5.99948) (end 5.99948 -5.99948) (layer Dwgs.User) (width 0.127))
  (fp_line (start 5.99948 -5.99948) (end -5.99948 -5.99948) (layer F.SilkS) (width 0.127))
  (fp_line (start -5.99948 -3.16992) (end -5.99948 -5.99948) (layer F.SilkS) (width 0.127))
  (fp_line (start 5.99948 -3.15976) (end 5.99948 -5.98932) (layer F.SilkS) (width 0.127))
  (fp_line (start -5.99948 -1.95834) (end -5.99948 -0.59944) (layer F.SilkS) (width 0.127))
  (fp_line (start -5.99948 0.59944) (end -5.99948 1.95834) (layer F.SilkS) (width 0.127))
  (fp_line (start 5.99948 0.58928) (end 5.99948 1.94818) (layer F.SilkS) (width 0.127))
  (fp_line (start 5.99948 -1.93802) (end 5.99948 -0.57912) (layer F.SilkS) (width 0.127))
  (fp_line (start -5.99948 3.15976) (end -5.99948 5.99948) (layer F.SilkS) (width 0.127))
  (fp_line (start 5.99948 3.15976) (end 5.99948 5.99948) (layer F.SilkS) (width 0.127))
  (fp_poly (pts (xy -6.2484 -6.2484) (xy 6.2484 -6.2484) (xy 6.2484 6.2484) (xy -6.2484 6.2484)
    (xy -6.2484 -6.2484)) (layer Dwgs.User) (width 0.127))
  (fp_circle (center -5.4991 -3.8989) (end -5.4991 -3.94716) (layer F.SilkS) (width 0.19812))
  (fp_text user A (at -3.16484 -0.08382) (layer Dwgs.User)
    (effects (font (size 1.27 1.27) (thickness 0.1016)))
  )
  (fp_text user B (at 3.43408 0.1143) (layer Dwgs.User)
    (effects (font (size 1.27 1.27) (thickness 0.1016)))
  )
  (fp_text user 1 (at -3.01498 -2.68478) (layer Dwgs.User)
    (effects (font (size 1.27 1.27) (thickness 0.1016)))
  )
  (fp_text user 2 (at -4.7625 4.56438) (layer Dwgs.User)
    (effects (font (size 1.27 1.27) (thickness 0.1016)))
  )
  (fp_text user 3 (at 5.13334 4.46278) (layer Dwgs.User)
    (effects (font (size 1.27 1.27) (thickness 0.1016)))
  )
  (fp_text user 4 (at 3.58394 -2.58318) (layer Dwgs.User)
    (effects (font (size 1.27 1.27) (thickness 0.1016)))
  )
  (pad 1 thru_hole circle (at -5.08 -2.54) (size 1.79832 1.79832) (drill 1.19888) (layers *.Cu *.Paste *.Mask))
  (pad 2 thru_hole circle (at -5.08 2.54) (size 1.79832 1.79832) (drill 1.19888) (layers *.Cu *.Paste *.Mask))
  (pad 3 thru_hole circle (at 5.08 2.54) (size 1.79832 1.79832) (drill 1.19888) (layers *.Cu *.Paste *.Mask))
  (pad 4 thru_hole circle (at 5.08 -2.54) (size 1.79832 1.79832) (drill 1.19888) (layers *.Cu *.Paste *.Mask))
  (pad A thru_hole circle (at -5.08 0) (size 1.79832 1.79832) (drill 1.19888) (layers *.Cu *.Paste *.Mask))
  (pad B thru_hole circle (at 5.08 0) (size 1.79832 1.79832) (drill 1.19888) (layers *.Cu *.Paste *.Mask))
  (pad "" np_thru_hole circle (at -2.54 2.54) (size 0.99822 0.99822) (drill 0.99822) (layers *.Cu *.Mask))
  (pad "" np_thru_hole circle (at 2.54 2.54) (size 0.99822 0.99822) (drill 0.99822) (layers *.Cu *.Mask))
)
