(module WS-ROTU_rev19b-428521520811 (layer F.Cu) (tedit 200000)
  (descr "WS-RCS-10X10 MM WASHABLE SMD ROTARY SWITCH,6 PINS,10 POSITION")
  (tags "WS-RCS-10X10 MM WASHABLE SMD ROTARY SWITCH,6 PINS,10 POSITION")
  (attr smd)
  (fp_text reference >NAME (at 0.42672 -9.07542) (layer F.SilkS)
    (effects (font (size 1.27 1.27) (thickness 0.1016)))
  )
  (fp_text value >VALUE (at -0.03556 8.98144) (layer F.SilkS)
    (effects (font (size 1.27 1.27) (thickness 0.1016)))
  )
  (fp_line (start -4.99872 -4.99872) (end -4.99872 4.99872) (layer Dwgs.User) (width 0.09906))
  (fp_line (start -4.99872 4.99872) (end 4.99872 4.99872) (layer Dwgs.User) (width 0.09906))
  (fp_line (start 4.99872 4.99872) (end 4.99872 -4.99872) (layer Dwgs.User) (width 0.09906))
  (fp_line (start 4.99872 -4.99872) (end -4.99872 -4.99872) (layer Dwgs.User) (width 0.09906))
  (fp_line (start -3.59918 -5.09778) (end -5.09778 -5.09778) (layer F.SilkS) (width 0.19812))
  (fp_line (start -5.09778 -5.09778) (end -5.09778 5.09778) (layer F.SilkS) (width 0.19812))
  (fp_line (start -5.09778 5.09778) (end -3.59918 5.09778) (layer F.SilkS) (width 0.19812))
  (fp_line (start 3.59918 -5.09778) (end 5.09778 -5.09778) (layer F.SilkS) (width 0.19812))
  (fp_line (start 5.09778 -5.09778) (end 5.09778 5.09778) (layer F.SilkS) (width 0.19812))
  (fp_line (start 5.09778 5.09778) (end 3.59918 5.09778) (layer F.SilkS) (width 0.19812))
  (fp_line (start -1.4986 -5.09778) (end -0.99822 -5.09778) (layer F.SilkS) (width 0.19812))
  (fp_line (start 0.99822 -5.09778) (end 1.4986 -5.09778) (layer F.SilkS) (width 0.19812))
  (fp_line (start -1.4986 5.09778) (end -0.99822 5.09778) (layer F.SilkS) (width 0.19812))
  (fp_line (start 0.99822 5.09778) (end 1.4986 5.09778) (layer F.SilkS) (width 0.19812))
  (fp_poly (pts (xy -5.29844 -7.49808) (xy 5.29844 -7.49808) (xy 5.29844 7.49808) (xy -5.29844 7.49808)
    (xy -5.29844 -7.49808)) (layer Dwgs.User) (width 0.127))
  (fp_circle (center -3.79984 5.4991) (end -3.79984 5.45084) (layer F.SilkS) (width 0.19812))
  (fp_circle (center -3.69824 5.59816) (end -3.69824 5.5499) (layer F.SilkS) (width 0.19812))
  (fp_text user 1 (at -2.33934 3.20802) (layer Dwgs.User)
    (effects (font (size 1.27 1.27) (thickness 0.1016)))
  )
  (fp_text user 4 (at 2.73812 3.20802) (layer Dwgs.User)
    (effects (font (size 1.27 1.27) (thickness 0.1016)))
  )
  (fp_text user 2 (at 2.73812 -3.50774) (layer Dwgs.User)
    (effects (font (size 1.27 1.27) (thickness 0.1016)))
  )
  (fp_text user 8 (at -2.54 -3.50774) (layer Dwgs.User)
    (effects (font (size 1.27 1.27) (thickness 0.1016)))
  )
  (fp_text user C2 (at 0.23368 -3.50774) (layer Dwgs.User)
    (effects (font (size 1.27 1.27) (thickness 0.1016)))
  )
  (fp_text user C1 (at 0.43434 3.20802) (layer Dwgs.User)
    (effects (font (size 1.27 1.27) (thickness 0.1016)))
  )
  (pad 1 smd rect (at -2.54 5.99948) (size 1.19888 2.59842) (layers F.Cu F.Paste F.Mask))
  (pad 2 smd rect (at 2.54 -5.99948) (size 1.19888 2.59842) (layers F.Cu F.Paste F.Mask))
  (pad 4 smd rect (at 2.54 5.99948) (size 1.19888 2.59842) (layers F.Cu F.Paste F.Mask))
  (pad 8 smd rect (at -2.54 -5.99948) (size 1.19888 2.59842) (layers F.Cu F.Paste F.Mask))
  (pad C1 smd rect (at 0 5.99948) (size 1.19888 2.59842) (layers F.Cu F.Paste F.Mask))
  (pad C2 smd rect (at 0 -5.99948) (size 1.19888 2.59842) (layers F.Cu F.Paste F.Mask))
)
