(module WS-ROTU_rev19b-465M111172501 (layer F.Cu) (tedit 200000)
  (attr virtual)
  (fp_text reference >NAME (at -0.19812 -9.03478) (layer F.SilkS)
    (effects (font (size 1.27 1.27) (thickness 0.1016)))
  )
  (fp_text value >VALUE (at 1.00838 8.8646) (layer F.SilkS)
    (effects (font (size 1.27 1.27) (thickness 0.1016)))
  )
  (fp_line (start -7.49808 -7.49808) (end 7.49808 -7.49808) (layer F.SilkS) (width 0.19812))
  (fp_line (start 7.49808 -7.49808) (end 7.49808 7.49808) (layer F.SilkS) (width 0.19812))
  (fp_line (start 7.49808 7.49808) (end -7.49808 7.49808) (layer F.SilkS) (width 0.19812))
  (fp_line (start -7.49808 7.49808) (end -7.49808 -7.49808) (layer F.SilkS) (width 0.19812))
  (fp_poly (pts (xy -7.74954 -7.74954) (xy 7.74954 -7.74954) (xy 7.74954 7.74954) (xy -7.74954 7.74954)
    (xy -7.74954 -7.74954)) (layer Dwgs.User) (width 0.19812))
  (fp_text user 1 (at -3.36296 -2.63398) (layer F.SilkS)
    (effects (font (size 1.27 1.27) (thickness 0.1016)))
  )
  (pad 1 thru_hole circle (at -3.81 -4.49834) (size 1.30556 1.30556) (drill 0.79756) (layers *.Cu *.Paste *.Mask))
  (pad 2 thru_hole circle (at 3.81 -4.49834) (size 1.30556 1.30556) (drill 0.79756) (layers *.Cu *.Paste *.Mask))
  (pad L1 thru_hole circle (at 0.79756 1.99898) (size 1.19888 1.19888) (drill 0.79756) (layers *.Cu *.Paste *.Mask))
  (pad L2 thru_hole circle (at 2.2987 1.99898) (size 1.19888 1.19888) (drill 0.79756) (layers *.Cu *.Paste *.Mask))
  (pad L3 thru_hole circle (at 2.2987 -1.99898) (size 1.19888 1.19888) (drill 0.79756) (layers *.Cu *.Paste *.Mask))
  (pad LC thru_hole circle (at 0.79756 -1.99898) (size 1.19888 1.19888) (drill 0.79756) (layers *.Cu *.Paste *.Mask))
  (pad "" np_thru_hole circle (at -6.35 -6.35) (size 1.29794 1.29794) (drill 1.29794) (layers *.Cu *.Mask))
  (pad "" np_thru_hole circle (at 6.35 -6.35) (size 1.29794 1.29794) (drill 1.29794) (layers *.Cu *.Mask))
  (pad "" np_thru_hole circle (at 6.35 6.35) (size 1.29794 1.29794) (drill 1.29794) (layers *.Cu *.Mask))
  (pad "" np_thru_hole circle (at -6.35 6.35) (size 1.29794 1.29794) (drill 1.29794) (layers *.Cu *.Mask))
)
