(module WS-ROTU_rev19b-431256038726 (layer F.Cu) (tedit 200000)
  (descr "WS-TST, 6*6MM RIGHT ANGLE TACT SWITCH,THT, HEIGHT 3.85MM, 4 PINS, WHITE ACTUATOR, 260GF")
  (tags "WS-TST, 6*6MM RIGHT ANGLE TACT SWITCH,THT, HEIGHT 3.85MM, 4 PINS, WHITE ACTUATOR, 260GF")
  (attr virtual)
  (fp_text reference >NAME (at -0.39878 -4.20878) (layer F.SilkS)
    (effects (font (size 1.27 1.27) (thickness 0.1016)))
  )
  (fp_text value >VALUE (at 5.90804 5.0165) (layer F.SilkS)
    (effects (font (size 1.27 1.27) (thickness 0.1016)))
  )
  (fp_line (start -3.69824 -2.74828) (end 3.69824 -2.74828) (layer F.SilkS) (width 0.127))
  (fp_line (start 3.69824 -2.74828) (end 3.69824 3.79984) (layer Dwgs.User) (width 0.127))
  (fp_line (start -3.69824 3.79984) (end -3.69824 -2.74828) (layer Dwgs.User) (width 0.127))
  (fp_line (start -3.69824 3.79984) (end 3.69824 3.79984) (layer F.SilkS) (width 0.127))
  (fp_line (start -3.69824 -0.29972) (end -3.69824 3.79984) (layer F.SilkS) (width 0.127))
  (fp_line (start 3.69824 -0.29972) (end 3.69824 3.79984) (layer F.SilkS) (width 0.127))
  (fp_line (start -1.74752 3.79984) (end -1.74752 5.09778) (layer Dwgs.User) (width 0.127))
  (fp_line (start -1.74752 5.09778) (end 1.74752 5.09778) (layer Dwgs.User) (width 0.127))
  (fp_line (start 1.74752 5.09778) (end 1.74752 3.79984) (layer Dwgs.User) (width 0.127))
  (fp_line (start -3.69824 -2.35966) (end -3.69824 -2.74828) (layer F.SilkS) (width 0.127))
  (fp_line (start 3.69824 -2.35966) (end 3.69824 -2.74828) (layer F.SilkS) (width 0.127))
  (fp_poly (pts (xy -4.79806 -2.99974) (xy 4.79806 -2.99974) (xy 4.79806 4.04876) (xy -4.79806 4.04876)
    (xy -4.79806 -2.99974)) (layer Dwgs.User) (width 0.127))
  (fp_circle (center -4.19862 -2.39776) (end -4.19862 -2.44602) (layer F.SilkS) (width 0.19812))
  (fp_text user 1 (at -1.26492 -1.73482) (layer Dwgs.User)
    (effects (font (size 1.27 1.27) (thickness 0.1016)))
  )
  (fp_text user 2 (at -1.36398 2.36474) (layer Dwgs.User)
    (effects (font (size 1.27 1.27) (thickness 0.1016)))
  )
  (fp_text user 3 (at 1.63322 2.36474) (layer Dwgs.User)
    (effects (font (size 1.27 1.27) (thickness 0.1016)))
  )
  (fp_text user 4 (at 1.93294 -1.63322) (layer Dwgs.User)
    (effects (font (size 1.27 1.27) (thickness 0.1016)))
  )
  (fp_text user "pcb edge" (at 0.24384 3.48234) (layer Dwgs.User)
    (effects (font (size 0.254 0.254) (thickness 0.0254)))
  )
  (fp_text user "switch edge" (at 0.55626 4.78282) (layer Dwgs.User)
    (effects (font (size 0.254 0.254) (thickness 0.0254)))
  )
  (pad 1 thru_hole circle (at -3.49758 -1.24968) (size 1.50622 1.50622) (drill 0.99822) (layers *.Cu *.Paste *.Mask))
  (pad 2 thru_hole circle (at -2.2479 1.24968) (size 1.50622 1.50622) (drill 0.99822) (layers *.Cu *.Paste *.Mask))
  (pad 3 thru_hole circle (at 2.2479 1.24968) (size 1.50622 1.50622) (drill 0.99822) (layers *.Cu *.Paste *.Mask))
  (pad 4 thru_hole circle (at 3.49758 -1.24968) (size 1.50622 1.50622) (drill 0.99822) (layers *.Cu *.Paste *.Mask))
)
