(module WS-ROTU_rev19b-418117170901 (layer F.Cu) (tedit 200000)
  (descr "WS-BS 2.54 MM COMPACT THT DIP SWITCH WITH FLAT ACTUATOR, 1 POLE")
  (tags "WS-BS 2.54 MM COMPACT THT DIP SWITCH WITH FLAT ACTUATOR, 1 POLE")
  (attr virtual)
  (fp_text reference >NAME (at -0.33782 -6.3754) (layer F.SilkS)
    (effects (font (size 0.8128 0.8128) (thickness 0.0762)))
  )
  (fp_text value >VALUE (at 0.29718 6.20776) (layer F.SilkS)
    (effects (font (size 0.8128 0.8128) (thickness 0.0762)))
  )
  (fp_line (start -1.9177 -4.94792) (end 1.9177 -4.94792) (layer F.SilkS) (width 0.127))
  (fp_line (start 1.9177 -4.94792) (end 1.9177 4.94792) (layer F.SilkS) (width 0.127))
  (fp_line (start 1.9177 4.94792) (end -1.9177 4.94792) (layer F.SilkS) (width 0.127))
  (fp_line (start -1.9177 4.94792) (end -1.9177 -4.94792) (layer F.SilkS) (width 0.127))
  (fp_poly (pts (xy -2.16916 -5.19938) (xy 2.16916 -5.19938) (xy 2.16916 5.19938) (xy -2.16916 5.19938)
    (xy -2.16916 -5.19938)) (layer Dwgs.User) (width 0.127))
  (fp_circle (center -0.89916 4.49834) (end -0.89916 4.45008) (layer F.SilkS) (width 0.19812))
  (fp_text user 1 (at 0.09906 2.00914) (layer Dwgs.User)
    (effects (font (size 1.27 1.27) (thickness 0.1016)))
  )
  (pad 1 thru_hole circle (at 0 3.81) (size 1.30556 1.30556) (drill 0.79756) (layers *.Cu *.Paste *.Mask))
  (pad A1 thru_hole circle (at 0 -3.81) (size 1.30556 1.30556) (drill 0.79756) (layers *.Cu *.Paste *.Mask))
)
