(module WS-ROTU_rev19b-47101726814X_1.5MM (layer F.Cu) (tedit 200000)
  (attr virtual)
  (fp_text reference >NAME (at 0 -13.335) (layer F.SilkS)
    (effects (font (size 1.27 1.27) (thickness 0.1016)))
  )
  (fp_text value >VALUE (at 0.25908 13.46454) (layer F.SilkS)
    (effects (font (size 1.27 1.27) (thickness 0.1016)))
  )
  (fp_line (start -1.09982 -10.9982) (end -1.09982 -10.04824) (layer Dwgs.User) (width 0.09906))
  (fp_line (start -1.09982 10.04824) (end -1.09982 10.9982) (layer Dwgs.User) (width 0.09906))
  (fp_line (start 1.09982 -10.9982) (end 1.09982 -10.04824) (layer Dwgs.User) (width 0.09906))
  (fp_line (start 1.09982 10.04824) (end 1.09982 10.9982) (layer Dwgs.User) (width 0.09906))
  (fp_line (start -1.09982 -10.9982) (end 1.09982 -10.9982) (layer Dwgs.User) (width 0.09906))
  (fp_line (start -1.09982 10.9982) (end 1.09982 10.9982) (layer Dwgs.User) (width 0.09906))
  (fp_line (start -10.09904 -2.09804) (end -9.4996 -2.09804) (layer Dwgs.User) (width 0.09906))
  (fp_line (start 9.4996 -2.09804) (end 10.09904 -2.09804) (layer Dwgs.User) (width 0.09906))
  (fp_line (start -10.09904 2.09804) (end -9.4996 2.09804) (layer Dwgs.User) (width 0.09906))
  (fp_line (start 9.4996 2.09804) (end 10.09904 2.09804) (layer Dwgs.User) (width 0.09906))
  (fp_line (start -10.09904 -2.09804) (end -10.09904 2.09804) (layer Dwgs.User) (width 0.09906))
  (fp_line (start 10.09904 -2.09804) (end 10.09904 2.09804) (layer Dwgs.User) (width 0.09906))
  (fp_line (start -9.4996 -2.09804) (end -9.4996 -3.429) (layer Dwgs.User) (width 0.09906))
  (fp_line (start -9.4996 2.09804) (end -9.4996 3.429) (layer Dwgs.User) (width 0.09906))
  (fp_line (start 9.4996 -2.09804) (end 9.4996 -3.429) (layer Dwgs.User) (width 0.09906))
  (fp_line (start 9.4996 2.09804) (end 9.4996 3.429) (layer Dwgs.User) (width 0.09906))
  (fp_poly (pts (xy 0 -12.04976) (xy 1.2573 -11.98372) (xy 2.50444 -11.7856) (xy 3.72364 -11.45794)
    (xy 4.89966 -11.00582) (xy 6.02488 -10.43432) (xy 7.08152 -9.74852) (xy 8.06196 -8.9535)
    (xy 8.9535 -8.06196) (xy 9.74852 -7.08152) (xy 10.43432 -6.02488) (xy 11.00582 -4.89966)
    (xy 11.45794 -3.72364) (xy 11.7856 -2.50444) (xy 11.98372 -1.2573) (xy 12.04976 0)
    (xy 11.98372 1.2573) (xy 11.7856 2.50444) (xy 11.45794 3.72364) (xy 11.00582 4.89966)
    (xy 10.43432 6.02488) (xy 9.74852 7.08152) (xy 8.9535 8.06196) (xy 8.06196 8.9535)
    (xy 7.08152 9.74852) (xy 6.02488 10.43432) (xy 4.89966 11.00582) (xy 3.72364 11.45794)
    (xy 2.50444 11.7856) (xy 1.2573 11.98372) (xy 0 12.04976) (xy -1.2573 11.98372)
    (xy -2.50444 11.7856) (xy -3.72364 11.45794) (xy -4.89966 11.00582) (xy -6.02488 10.43432)
    (xy -7.08152 9.74852) (xy -8.06196 8.9535) (xy -8.9535 8.06196) (xy -9.74852 7.08152)
    (xy -10.43432 6.02488) (xy -11.00582 4.89966) (xy -11.45794 3.72364) (xy -11.7856 2.50444)
    (xy -11.98372 1.2573) (xy -12.04976 0) (xy -11.98372 -1.2573) (xy -11.7856 -2.50444)
    (xy -11.45794 -3.72364) (xy -11.00582 -4.89966) (xy -10.43432 -6.02488) (xy -9.74852 -7.08152)
    (xy -8.9535 -8.06196) (xy -8.06196 -8.9535) (xy -7.08152 -9.74852) (xy -6.02488 -10.43432)
    (xy -4.89966 -11.00582) (xy -3.72364 -11.45794) (xy -2.50444 -11.7856) (xy -1.2573 -11.98372)
    (xy 0 -12.04976)) (layer Dwgs.User) (width 0.09906))
  (fp_circle (center 0 0) (end 0 -11.8491) (layer F.SilkS) (width 0.19812))
  (fp_circle (center 0 0) (end 0 -11.7475) (layer Dwgs.User) (width 0.09906))
  (fp_arc (start 0 0) (end -1.09982 10.04824) (angle 63.7) (layer Dwgs.User) (width 0.09906))
  (fp_arc (start 0 0) (end 9.4996 3.44932) (angle 63.7) (layer Dwgs.User) (width 0.09906))
  (fp_arc (start 0 0) (end 1.09982 -10.04824) (angle 63.7) (layer Dwgs.User) (width 0.09906))
  (fp_arc (start 0 0) (end -9.4996 -3.44932) (angle 63.7) (layer Dwgs.User) (width 0.09906))
  (fp_text user "PCB Cutout Area" (at 2.2225 -0.03302) (layer F.SilkS)
    (effects (font (size 1.27 1.27) (thickness 0.1016)))
  )
  (fp_text user "PCB Cutout Area" (at 2.2225 -0.03302) (layer Dwgs.User)
    (effects (font (size 1.27 1.27) (thickness 0.1016)))
  )
  (pad 1A thru_hole circle (at 1.99898 -1.99898) (size 1.30556 1.30556) (drill 0.79756) (layers *.Cu *.Paste *.Mask))
  (pad 1B thru_hole circle (at 1.99898 1.99898) (size 1.30556 1.30556) (drill 0.79756) (layers *.Cu *.Paste *.Mask))
  (pad 2A thru_hole circle (at -1.99898 -1.99898) (size 1.30556 1.30556) (drill 0.79756) (layers *.Cu *.Paste *.Mask))
  (pad 2B thru_hole circle (at -1.99898 1.99898) (size 1.30556 1.30556) (drill 0.79756) (layers *.Cu *.Paste *.Mask))
)
