(module WS-ROTU_rev19b-465031772505 (layer F.Cu) (tedit 200000)
  (descr "WS-PBTU, 9.8X18.5MM RIGHT ANGLE TYPE, THT, SPDT, WITH BRACKET DESIGN")
  (tags "WS-PBTU, 9.8X18.5MM RIGHT ANGLE TYPE, THT, SPDT, WITH BRACKET DESIGN")
  (attr virtual)
  (fp_text reference >NAME (at 0.09906 -5.07492) (layer F.SilkS)
    (effects (font (size 1.27 1.27) (thickness 0.1016)))
  )
  (fp_text value >VALUE (at 0.47752 18.09496) (layer F.SilkS)
    (effects (font (size 1.27 1.27) (thickness 0.1016)))
  )
  (fp_line (start 4.89966 -1.75768) (end 4.89966 6.83768) (layer F.SilkS) (width 0.127))
  (fp_line (start -4.89966 6.83768) (end -4.89966 -1.75768) (layer F.SilkS) (width 0.127))
  (fp_line (start -4.89966 -1.75768) (end 4.89966 -1.75768) (layer F.SilkS) (width 0.127))
  (fp_line (start -4.89966 6.83768) (end -4.89966 16.7386) (layer Dwgs.User) (width 0.127))
  (fp_line (start -4.89966 16.7386) (end 4.89966 16.7386) (layer Dwgs.User) (width 0.127))
  (fp_line (start 4.89966 16.7386) (end 4.89966 6.83768) (layer Dwgs.User) (width 0.127))
  (fp_line (start -4.89966 6.83768) (end 4.89966 6.83768) (layer F.SilkS) (width 0.127))
  (fp_poly (pts (xy -5.14858 -3.81) (xy 5.14858 -3.81) (xy 5.14858 16.98752) (xy -5.14858 16.98752)
    (xy -5.14858 -3.81)) (layer Dwgs.User) (width 0.127))
  (fp_circle (center -3.79984 -2.09804) (end -3.79984 -2.1463) (layer F.SilkS) (width 0.19812))
  (fp_text user 1 (at -2.33934 -0.73914) (layer Dwgs.User)
    (effects (font (size 0.8128 0.8128) (thickness 0.0762)))
  )
  (fp_text user 2 (at 0.16002 -0.8382) (layer Dwgs.User)
    (effects (font (size 0.8128 0.8128) (thickness 0.0762)))
  )
  (fp_text user 3 (at 2.65938 -0.93726) (layer Dwgs.User)
    (effects (font (size 0.8128 0.8128) (thickness 0.0762)))
  )
  (pad 1 thru_hole circle (at -2.54 -2.54) (size 1.30556 1.30556) (drill 0.79756) (layers *.Cu *.Paste *.Mask))
  (pad 2 thru_hole circle (at 0 -2.54) (size 1.30556 1.30556) (drill 0.79756) (layers *.Cu *.Paste *.Mask))
  (pad 3 thru_hole circle (at 2.54 -2.54) (size 1.30556 1.30556) (drill 0.79756) (layers *.Cu *.Paste *.Mask))
  (pad 4 thru_hole circle (at -2.54 2.54) (size 1.30556 1.30556) (drill 0.79756) (layers *.Cu *.Paste *.Mask))
  (pad 5 thru_hole circle (at 2.54 2.54) (size 1.30556 1.30556) (drill 0.79756) (layers *.Cu *.Paste *.Mask))
)
