(module WS-ROTU_rev19b-430476085716 (layer F.Cu) (tedit 200000)
  (descr "WS-TSW, 12*12MM HORIZONTAL TYPE WASHABLE TACT SWITCH, ,THT,  4 PINS, HEIGHT 8.5MM, ROUND BLACK ACTUATOR, 160GF")
  (tags "WS-TSW, 12*12MM HORIZONTAL TYPE WASHABLE TACT SWITCH, ,THT,  4 PINS, HEIGHT 8.5MM, ROUND BLACK ACTUATOR, 160GF")
  (attr virtual)
  (fp_text reference >NAME (at 1.43002 -7.64032) (layer F.SilkS)
    (effects (font (size 1.27 1.27) (thickness 0.1016)))
  )
  (fp_text value >VALUE (at 0.76454 7.35076) (layer F.SilkS)
    (effects (font (size 1.27 1.27) (thickness 0.1016)))
  )
  (fp_line (start 5.99948 -5.99948) (end 5.99948 5.99948) (layer Dwgs.User) (width 0.127))
  (fp_line (start 5.99948 5.99948) (end -5.99948 5.99948) (layer F.SilkS) (width 0.127))
  (fp_line (start -5.99948 5.99948) (end -5.99948 -5.99948) (layer Dwgs.User) (width 0.127))
  (fp_line (start -5.99948 -5.99948) (end 5.99948 -5.99948) (layer F.SilkS) (width 0.127))
  (fp_line (start -5.99948 -3.59918) (end -5.99948 -5.99948) (layer F.SilkS) (width 0.127))
  (fp_line (start -5.99948 -1.29794) (end -5.99948 1.39954) (layer F.SilkS) (width 0.127))
  (fp_line (start 5.99948 -1.39954) (end 5.99948 1.29794) (layer F.SilkS) (width 0.127))
  (fp_line (start 5.99948 -3.59918) (end 5.99948 -5.99948) (layer F.SilkS) (width 0.127))
  (fp_line (start -5.99948 3.59918) (end -5.99948 5.99948) (layer F.SilkS) (width 0.127))
  (fp_line (start 5.99948 3.59918) (end 5.99948 5.99948) (layer F.SilkS) (width 0.127))
  (fp_poly (pts (xy -7.49808 -6.2484) (xy 7.49808 -6.2484) (xy 7.49808 6.2484) (xy -7.49808 6.2484)
    (xy -7.49808 -6.2484)) (layer Dwgs.User) (width 0.127))
  (fp_text user 1 (at -3.76428 -2.53492) (layer Dwgs.User)
    (effects (font (size 1.27 1.27) (thickness 0.1016)))
  )
  (fp_text user 2 (at 4.63296 -2.63398) (layer Dwgs.User)
    (effects (font (size 1.27 1.27) (thickness 0.1016)))
  )
  (fp_text user 3 (at -3.66268 2.36474) (layer Dwgs.User)
    (effects (font (size 1.27 1.27) (thickness 0.1016)))
  )
  (fp_text user 4 (at 4.63296 2.36474) (layer Dwgs.User)
    (effects (font (size 1.27 1.27) (thickness 0.1016)))
  )
  (pad 1 thru_hole circle (at -6.2484 -2.49936) (size 1.79832 1.79832) (drill 1.19888) (layers *.Cu *.Paste *.Mask))
  (pad 2 thru_hole circle (at 6.2484 -2.49936) (size 1.79832 1.79832) (drill 1.19888) (layers *.Cu *.Paste *.Mask))
  (pad 3 thru_hole circle (at -6.2484 2.49936) (size 1.79832 1.79832) (drill 1.19888) (layers *.Cu *.Paste *.Mask))
  (pad 4 thru_hole circle (at 6.2484 2.49936) (size 1.79832 1.79832) (drill 1.19888) (layers *.Cu *.Paste *.Mask))
)
