(module WS-ROTU_rev19b-463093370402 (layer F.Cu) (tedit 200000)
  (attr virtual)
  (fp_text reference >NAME (at 0.39878 -4.63296) (layer F.SilkS)
    (effects (font (size 1.27 1.27) (thickness 0.1016)))
  )
  (fp_text value >VALUE (at 0.90932 4.26466) (layer F.SilkS)
    (effects (font (size 1.27 1.27) (thickness 0.1016)))
  )
  (fp_line (start -6.39826 -2.89814) (end 6.39826 -2.89814) (layer Dwgs.User) (width 0.09906))
  (fp_line (start 6.39826 -2.89814) (end 6.39826 2.89814) (layer Dwgs.User) (width 0.09906))
  (fp_line (start 6.39826 2.89814) (end -6.39826 2.89814) (layer Dwgs.User) (width 0.09906))
  (fp_line (start -6.39826 2.89814) (end -6.39826 -2.89814) (layer Dwgs.User) (width 0.09906))
  (fp_line (start -6.49986 -2.99974) (end 6.49986 -2.99974) (layer F.SilkS) (width 0.19812))
  (fp_line (start 6.49986 -2.99974) (end 6.49986 2.99974) (layer F.SilkS) (width 0.19812))
  (fp_line (start 6.49986 2.99974) (end -6.49986 2.99974) (layer F.SilkS) (width 0.19812))
  (fp_line (start -6.49986 2.99974) (end -6.49986 -2.99974) (layer F.SilkS) (width 0.19812))
  (fp_poly (pts (xy -6.69798 -3.19786) (xy 6.69798 -3.19786) (xy 6.69798 3.19786) (xy -6.69798 3.19786)
    (xy -6.69798 -3.19786)) (layer Dwgs.User) (width 0.09906))
  (fp_text user COM (at -4.98348 1.89484) (layer F.SilkS)
    (effects (font (size 0.6096 0.6096) (thickness 0.0508)))
  )
  (fp_text user NO (at 0.00762 1.89484) (layer F.SilkS)
    (effects (font (size 0.6096 0.6096) (thickness 0.0508)))
  )
  (fp_text user NC (at 5.10794 1.89484) (layer F.SilkS)
    (effects (font (size 0.6096 0.6096) (thickness 0.0508)))
  )
  (pad 1 thru_hole circle (at -5.08 0) (size 1.79832 1.79832) (drill 1.19888) (layers *.Cu *.Paste *.Mask))
  (pad 2 thru_hole circle (at 0 0) (size 1.79832 1.79832) (drill 1.19888) (layers *.Cu *.Paste *.Mask))
  (pad 3 thru_hole circle (at 5.08 0) (size 1.79832 1.79832) (drill 1.19888) (layers *.Cu *.Paste *.Mask))
)
