(module WS-ROTU_rev19b-418117170907 (layer F.Cu) (tedit 200000)
  (descr "WS-BS 2.54 MM COMPACT THT DIP SWITCH WITH FLAT ACTUATOR, 7 POLE")
  (tags "WS-BS 2.54 MM COMPACT THT DIP SWITCH WITH FLAT ACTUATOR, 7 POLE")
  (attr virtual)
  (fp_text reference >NAME (at 0.56388 -6.90372) (layer F.SilkS)
    (effects (font (size 1.27 1.27) (thickness 0.1016)))
  )
  (fp_text value >VALUE (at 0.29972 6.49986) (layer F.SilkS)
    (effects (font (size 1.27 1.27) (thickness 0.1016)))
  )
  (fp_line (start -9.5377 -4.94792) (end 9.5377 -4.94792) (layer F.SilkS) (width 0.127))
  (fp_line (start 9.5377 -4.94792) (end 9.5377 4.94792) (layer F.SilkS) (width 0.127))
  (fp_line (start 9.5377 4.94792) (end -9.5377 4.94792) (layer F.SilkS) (width 0.127))
  (fp_line (start -9.5377 4.94792) (end -9.5377 -4.94792) (layer F.SilkS) (width 0.127))
  (fp_poly (pts (xy -9.78916 -5.19938) (xy 9.78916 -5.19938) (xy 9.78916 5.19938) (xy -9.78916 5.19938)
    (xy -9.78916 -5.19938)) (layer Dwgs.User) (width 0.127))
  (fp_circle (center -8.5979 4.49834) (end -8.5979 4.45008) (layer F.SilkS) (width 0.19812))
  (fp_text user 1 (at -7.41934 1.80848) (layer Dwgs.User)
    (effects (font (size 1.27 1.27) (thickness 0.1016)))
  )
  (pad 1 thru_hole circle (at -7.62 3.81) (size 1.30556 1.30556) (drill 0.79756) (layers *.Cu *.Paste *.Mask))
  (pad 2 thru_hole circle (at -5.08 3.81) (size 1.30556 1.30556) (drill 0.79756) (layers *.Cu *.Paste *.Mask))
  (pad 3 thru_hole circle (at -2.54 3.81) (size 1.30556 1.30556) (drill 0.79756) (layers *.Cu *.Paste *.Mask))
  (pad 4 thru_hole circle (at 0 3.81) (size 1.30556 1.30556) (drill 0.79756) (layers *.Cu *.Paste *.Mask))
  (pad 5 thru_hole circle (at 2.54 3.81) (size 1.30556 1.30556) (drill 0.79756) (layers *.Cu *.Paste *.Mask))
  (pad 6 thru_hole circle (at 5.08 3.81) (size 1.30556 1.30556) (drill 0.79756) (layers *.Cu *.Paste *.Mask))
  (pad 7 thru_hole circle (at 7.62 3.81) (size 1.30556 1.30556) (drill 0.79756) (layers *.Cu *.Paste *.Mask))
  (pad 8 thru_hole circle (at 7.62 -3.81) (size 1.30556 1.30556) (drill 0.79756) (layers *.Cu *.Paste *.Mask))
  (pad 9 thru_hole circle (at 5.08 -3.81) (size 1.30556 1.30556) (drill 0.79756) (layers *.Cu *.Paste *.Mask))
  (pad 10 thru_hole circle (at 2.54 -3.81) (size 1.30556 1.30556) (drill 0.79756) (layers *.Cu *.Paste *.Mask))
  (pad 11 thru_hole circle (at 0 -3.81) (size 1.30556 1.30556) (drill 0.79756) (layers *.Cu *.Paste *.Mask))
  (pad 12 thru_hole circle (at -2.54 -3.81) (size 1.30556 1.30556) (drill 0.79756) (layers *.Cu *.Paste *.Mask))
  (pad 13 thru_hole circle (at -5.08 -3.81) (size 1.30556 1.30556) (drill 0.79756) (layers *.Cu *.Paste *.Mask))
  (pad 14 thru_hole circle (at -7.62 -3.81) (size 1.30556 1.30556) (drill 0.79756) (layers *.Cu *.Paste *.Mask))
)
