(module WS-ROTU_rev19b-4307X30XX8XX (layer F.Cu) (tedit 200000)
  (attr smd)
  (fp_text reference >NAME (at 0.39878 -4.63296) (layer F.SilkS)
    (effects (font (size 1.27 1.27) (thickness 0.1016)))
  )
  (fp_text value >VALUE (at 1.00838 4.26466) (layer F.SilkS)
    (effects (font (size 1.27 1.27) (thickness 0.1016)))
  )
  (fp_line (start -3.0988 -3.0988) (end 3.0988 -3.0988) (layer F.SilkS) (width 0.127))
  (fp_line (start 3.0988 -3.0988) (end 3.0988 3.0988) (layer Dwgs.User) (width 0.127))
  (fp_line (start 3.0988 3.0988) (end -3.0988 3.0988) (layer F.SilkS) (width 0.127))
  (fp_line (start -3.0988 3.0988) (end -3.0988 -3.0988) (layer Dwgs.User) (width 0.127))
  (fp_line (start -3.0988 -2.69748) (end -3.0988 -3.0988) (layer F.SilkS) (width 0.127))
  (fp_line (start 3.0988 -2.69748) (end 3.0988 -3.0988) (layer F.SilkS) (width 0.127))
  (fp_line (start -3.0988 -1.29794) (end -3.0988 1.29794) (layer F.SilkS) (width 0.127))
  (fp_line (start 3.0988 -1.29794) (end 3.0988 1.29794) (layer F.SilkS) (width 0.127))
  (fp_line (start -3.0988 2.69748) (end -3.0988 3.0988) (layer F.SilkS) (width 0.127))
  (fp_line (start 3.0988 2.69748) (end 3.0988 3.0988) (layer F.SilkS) (width 0.127))
  (fp_poly (pts (xy -4.39928 -3.34772) (xy 4.39928 -3.34772) (xy 4.39928 3.34772) (xy -4.39928 3.34772)
    (xy -4.39928 -3.34772)) (layer Dwgs.User) (width 0.127))
  (fp_text user 1 (at -0.49276 -2.10566) (layer F.SilkS)
    (effects (font (size 0.8128 0.8128) (thickness 0.0762)))
  )
  (fp_text user 1 (at -0.49276 -2.10566) (layer Dwgs.User)
    (effects (font (size 0.8128 0.8128) (thickness 0.0762)))
  )
  (fp_text user 2 (at 1.1049 -2.10566) (layer Dwgs.User)
    (effects (font (size 0.8128 0.8128) (thickness 0.0762)))
  )
  (fp_text user 3 (at -0.69342 1.8923) (layer Dwgs.User)
    (effects (font (size 0.8128 0.8128) (thickness 0.0762)))
  )
  (fp_text user 4 (at 0.90424 1.8923) (layer Dwgs.User)
    (effects (font (size 0.8128 0.8128) (thickness 0.0762)))
  )
  (pad 1 smd rect (at -2.87274 -1.99898) (size 2.74828 0.99822) (layers F.Cu F.Paste F.Mask))
  (pad 2 smd rect (at 2.87274 -1.99898) (size 2.74828 0.99822) (layers F.Cu F.Paste F.Mask))
  (pad 3 smd rect (at -2.87274 1.99898) (size 2.74828 0.99822) (layers F.Cu F.Paste F.Mask))
  (pad 4 smd rect (at 2.87274 1.99898) (size 2.74828 0.99822) (layers F.Cu F.Paste F.Mask))
)
