(module WS-ROTU_rev19b-418217270902A (layer F.Cu) (tedit 200000)
  (attr virtual)
  (fp_text reference >NAME (at 0.53086 -3.57632) (layer F.SilkS)
    (effects (font (size 0.8128 0.8128) (thickness 0.0762)))
  )
  (fp_text value >VALUE (at 0.51816 8.55218) (layer F.SilkS)
    (effects (font (size 0.8128 0.8128) (thickness 0.0762)))
  )
  (fp_line (start -3.03784 2.26822) (end 3.03784 2.26822) (layer F.SilkS) (width 0.127))
  (fp_line (start 3.03784 2.26822) (end 3.03784 7.5692) (layer F.SilkS) (width 0.127))
  (fp_line (start 3.03784 7.5692) (end -3.03784 7.5692) (layer F.SilkS) (width 0.127))
  (fp_line (start -3.03784 7.5692) (end -3.03784 2.26822) (layer F.SilkS) (width 0.127))
  (fp_line (start -3.02768 2.30886) (end -3.03784 2.30886) (layer F.SilkS) (width 0.127))
  (fp_line (start -3.03784 2.30886) (end -3.03784 -2.1082) (layer F.SilkS) (width 0.127))
  (fp_line (start -3.03784 -2.1082) (end 3.03784 -2.1082) (layer F.SilkS) (width 0.127))
  (fp_line (start 3.03784 -2.1082) (end 3.03784 2.26822) (layer F.SilkS) (width 0.127))
  (fp_poly (pts (xy -3.2893 -2.35966) (xy 3.2893 -2.35966) (xy 3.2893 7.81812) (xy -3.2893 7.81812)
    (xy -3.2893 -2.35966)) (layer Dwgs.User) (width 0.127))
  (fp_text user 1 (at -1.39446 3.29438) (layer Dwgs.User)
    (effects (font (size 1.27 1.27) (thickness 0.1016)))
  )
  (fp_text user 1 (at -1.39446 3.29438) (layer F.SilkS)
    (effects (font (size 1.27 1.27) (thickness 0.1016)))
  )
  (pad 1 thru_hole circle (at -1.27 1.27) (size 1.30556 1.30556) (drill 0.79756) (layers *.Cu *.Paste *.Mask))
  (pad 2 thru_hole circle (at 1.27 1.27) (size 1.30556 1.30556) (drill 0.79756) (layers *.Cu *.Paste *.Mask))
  (pad A1 thru_hole circle (at -1.27 -1.27) (size 1.30556 1.30556) (drill 0.79756) (layers *.Cu *.Paste *.Mask))
  (pad A2 thru_hole circle (at 1.27 -1.27) (size 1.30556 1.30556) (drill 0.79756) (layers *.Cu *.Paste *.Mask))
)
