(module "WS-ROTU_rev19b-471005264153(4.0-5.0)" (layer F.Cu) (tedit 200000)
  (attr virtual)
  (fp_text reference >NAME (at -0.09906 -10.8331) (layer F.SilkS)
    (effects (font (size 1.27 1.27) (thickness 0.1016)))
  )
  (fp_text value >VALUE (at 0.80772 10.4648) (layer F.SilkS)
    (effects (font (size 1.27 1.27) (thickness 0.1016)))
  )
  (fp_line (start -13.99794 -6.89864) (end 13.99794 -6.89864) (layer Dwgs.User) (width 0.19812))
  (fp_line (start 13.99794 -6.89864) (end 13.99794 6.89864) (layer Dwgs.User) (width 0.19812))
  (fp_line (start 13.99794 6.89864) (end -13.99794 6.89864) (layer Dwgs.User) (width 0.19812))
  (fp_line (start -13.99794 6.89864) (end -13.99794 -6.89864) (layer Dwgs.User) (width 0.19812))
  (fp_line (start -15.748 -9.24814) (end 15.748 -9.24814) (layer F.SilkS) (width 0.19812))
  (fp_line (start 15.748 -9.24814) (end 15.748 9.24814) (layer F.SilkS) (width 0.19812))
  (fp_line (start 15.748 9.24814) (end -15.748 9.24814) (layer F.SilkS) (width 0.19812))
  (fp_line (start -15.748 9.24814) (end -15.748 -9.24814) (layer F.SilkS) (width 0.19812))
  (fp_poly (pts (xy -15.94866 -9.4488) (xy 15.94866 -9.4488) (xy 15.94866 9.4488) (xy -15.94866 9.4488)
    (xy -15.94866 -9.4488)) (layer Dwgs.User) (width 0.09906))
  (fp_text user "PCB Cutout Area" (at 2.77368 3.36296) (layer F.SilkS)
    (effects (font (size 1.27 1.27) (thickness 0.1016)))
  )
  (pad 1 thru_hole circle (at 4.99872 0) (size 1.30556 1.30556) (drill 0.79756) (layers *.Cu *.Paste *.Mask))
  (pad 2 thru_hole circle (at -4.99872 0) (size 1.30556 1.30556) (drill 0.79756) (layers *.Cu *.Paste *.Mask))
)
