(module WS-ROTU_rev19b-418121160807 (layer F.Cu) (tedit 200000)
  (descr "WS-IC-2.54 MM SMALL COMPACT SMD DIP SWITCH WITH TOP TAPE,14 PINS,7 POLES")
  (tags "WS-IC-2.54 MM SMALL COMPACT SMD DIP SWITCH WITH TOP TAPE,14 PINS,7 POLES")
  (attr smd)
  (fp_text reference >NAME (at -0.31496 -7.27456) (layer F.SilkS)
    (effects (font (size 1.27 1.27) (thickness 0.1016)))
  )
  (fp_text value >VALUE (at 0.78232 6.9469) (layer F.SilkS)
    (effects (font (size 1.27 1.27) (thickness 0.1016)))
  )
  (fp_line (start 9.3599 3.0988) (end 9.3599 -3.0988) (layer F.SilkS) (width 0.127))
  (fp_line (start -9.3599 3.0988) (end 9.3599 3.0988) (layer F.SilkS) (width 0.127))
  (fp_line (start -9.3599 -3.0988) (end -9.3599 3.0988) (layer F.SilkS) (width 0.127))
  (fp_line (start 9.3599 -3.0988) (end -9.3599 -3.0988) (layer F.SilkS) (width 0.127))
  (fp_poly (pts (xy -9.60882 -5.79882) (xy 9.60882 -5.79882) (xy 9.60882 5.79882) (xy -9.60882 5.79882)
    (xy -9.60882 -5.79882)) (layer Dwgs.User) (width 0.127))
  (fp_circle (center -8.6995 3.49758) (end -8.6995 3.44932) (layer F.SilkS) (width 0.19812))
  (fp_text user 1 (at -7.5184 1.50368) (layer Dwgs.User)
    (effects (font (size 1.27 1.27) (thickness 0.1016)))
  )
  (pad 1 smd rect (at -7.62 4.39928) (size 1.09982 2.19964) (layers F.Cu F.Paste F.Mask))
  (pad 2 smd rect (at -5.08 4.39928) (size 1.09982 2.19964) (layers F.Cu F.Paste F.Mask))
  (pad 3 smd rect (at -2.54 4.39928) (size 1.09982 2.19964) (layers F.Cu F.Paste F.Mask))
  (pad 4 smd rect (at 0 4.39928) (size 1.09982 2.19964) (layers F.Cu F.Paste F.Mask))
  (pad 5 smd rect (at 2.54 4.39928) (size 1.09982 2.19964) (layers F.Cu F.Paste F.Mask))
  (pad 6 smd rect (at 5.08 4.39928) (size 1.09982 2.19964) (layers F.Cu F.Paste F.Mask))
  (pad 7 smd rect (at 7.62 4.39928) (size 1.09982 2.19964) (layers F.Cu F.Paste F.Mask))
  (pad A1 smd rect (at -7.62 -4.39928) (size 1.09982 2.19964) (layers F.Cu F.Paste F.Mask))
  (pad A2 smd rect (at -5.08 -4.39928) (size 1.09982 2.19964) (layers F.Cu F.Paste F.Mask))
  (pad A3 smd rect (at -2.54 -4.39928) (size 1.09982 2.19964) (layers F.Cu F.Paste F.Mask))
  (pad A4 smd rect (at 0 -4.39928) (size 1.09982 2.19964) (layers F.Cu F.Paste F.Mask))
  (pad A5 smd rect (at 2.54 -4.39928) (size 1.09982 2.19964) (layers F.Cu F.Paste F.Mask))
  (pad A6 smd rect (at 5.08 -4.39928) (size 1.09982 2.19964) (layers F.Cu F.Paste F.Mask))
  (pad A7 smd rect (at 7.62 -4.39928) (size 1.09982 2.19964) (layers F.Cu F.Paste F.Mask))
)
