(module D_0805_2012Metric_Pad1.12x1.40mm_HandSolder (layer F.Cu) (tedit 5AC5DB75)
  (descr "Diode SMD 0805 (2012 Metric), square (rectangular) end terminal, IPC_7351 nominal, (Body size source: http://www.tortai-tech.com/upload/download/2011102023233369053.pdf), generated with kicad-footprint-generator")
  (tags "diode handsolder")
  (attr smd)
  (fp_text reference REF** (at 0 -1.65) (layer F.SilkS)
    (effects (font (size 1 1) (thickness 0.15)))
  )
  (fp_text value D_0805_2012Metric_Pad1.12x1.40mm_HandSolder (at 0 1.65) (layer F.Fab)
    (effects (font (size 1 1) (thickness 0.15)))
  )
  (fp_line (start 1 -0.6) (end -0.7 -0.6) (layer F.Fab) (width 0.1))
  (fp_line (start -0.7 -0.6) (end -1 -0.3) (layer F.Fab) (width 0.1))
  (fp_line (start -1 -0.3) (end -1 0.6) (layer F.Fab) (width 0.1))
  (fp_line (start -1 0.6) (end 1 0.6) (layer F.Fab) (width 0.1))
  (fp_line (start 1 0.6) (end 1 -0.6) (layer F.Fab) (width 0.1))
  (fp_line (start 1 -0.96) (end -1.7 -0.96) (layer F.SilkS) (width 0.12))
  (fp_line (start -1.7 -0.96) (end -1.7 0.96) (layer F.SilkS) (width 0.12))
  (fp_line (start -1.7 0.96) (end 1 0.96) (layer F.SilkS) (width 0.12))
  (fp_line (start -1.69 0.95) (end -1.69 -0.95) (layer F.CrtYd) (width 0.05))
  (fp_line (start -1.69 -0.95) (end 1.69 -0.95) (layer F.CrtYd) (width 0.05))
  (fp_line (start 1.69 -0.95) (end 1.69 0.95) (layer F.CrtYd) (width 0.05))
  (fp_line (start 1.69 0.95) (end -1.69 0.95) (layer F.CrtYd) (width 0.05))
  (pad 1 smd rect (at -0.88 0) (size 1.12 1.4) (layers F.Cu F.Mask F.Paste))
  (pad 2 smd rect (at 0.88 0) (size 1.12 1.4) (layers F.Cu F.Mask F.Paste))
  (fp_text user %R (at 0 0) (layer F.Fab)
    (effects (font (size 0.5 0.5) (thickness 0.08)))
  )
  (model ${KIPRJMOD}/kicad_libs_k/models_k.3d/Diode_SMD_k.3dshapes/D_0805_2012Metric_k.wrl
    (at (xyz 0 0 0))
    (scale (xyz 1 1 1))
    (rotate (xyz 0 0 0))
  )
)