(module D_2010_5025Metric_Castellated (layer F.Cu) (tedit 5B301BBE)
  (descr "Diode SMD 2010 (5025 Metric), castellated end terminal, IPC_7351 nominal, (Body size source: http://www.tortai-tech.com/upload/download/2011102023233369053.pdf), generated with kicad-footprint-generator")
  (tags "diode castellated")
  (attr smd)
  (fp_text reference REF** (at 0 -2.22) (layer F.SilkS)
    (effects (font (size 1 1) (thickness 0.15)))
  )
  (fp_text value D_2010_5025Metric_Castellated (at 0 2.22) (layer F.Fab)
    (effects (font (size 1 1) (thickness 0.15)))
  )
  (fp_line (start 2.5 -1.25) (end -1.875 -1.25) (layer F.Fab) (width 0.1))
  (fp_line (start -1.875 -1.25) (end -2.5 -0.625) (layer F.Fab) (width 0.1))
  (fp_line (start -2.5 -0.625) (end -2.5 1.25) (layer F.Fab) (width 0.1))
  (fp_line (start -2.5 1.25) (end 2.5 1.25) (layer F.Fab) (width 0.1))
  (fp_line (start 2.5 1.25) (end 2.5 -1.25) (layer F.Fab) (width 0.1))
  (fp_line (start 2.5 -1.535) (end -3.385 -1.535) (layer F.SilkS) (width 0.12))
  (fp_line (start -3.385 -1.535) (end -3.385 1.535) (layer F.SilkS) (width 0.12))
  (fp_line (start -3.385 1.535) (end 2.5 1.535) (layer F.SilkS) (width 0.12))
  (fp_line (start -3.38 1.52) (end -3.38 -1.52) (layer F.CrtYd) (width 0.05))
  (fp_line (start -3.38 -1.52) (end 3.38 -1.52) (layer F.CrtYd) (width 0.05))
  (fp_line (start 3.38 -1.52) (end 3.38 1.52) (layer F.CrtYd) (width 0.05))
  (fp_line (start 3.38 1.52) (end -3.38 1.52) (layer F.CrtYd) (width 0.05))
  (pad 1 smd roundrect (at -2.275 0) (size 1.7 2.55) (layers F.Cu F.Mask F.Paste) (roundrect_rratio 0.147059))
  (pad 2 smd roundrect (at 2.275 0) (size 1.7 2.55) (layers F.Cu F.Mask F.Paste) (roundrect_rratio 0.147059))
  (fp_text user %R (at 0 0) (layer F.Fab)
    (effects (font (size 1 1) (thickness 0.15)))
  )
  (model ${KIPRJMOD}/kicad_libs_k/models_k.3d/Diode_SMD_k.3dshapes/D_2010_5025Metric_Castellated_k.wrl
    (at (xyz 0 0 0))
    (scale (xyz 1 1 1))
    (rotate (xyz 0 0 0))
  )
)