(module D_Powermite_AK (layer F.Cu) (tedit 59B1DBE6)
  (descr "Microsemi Powermite SMD power package (https://www.microsemi.com/packaging-information/partpackage/details?pid=5339, https://www.onsemi.com/pub/Collateral/457-04.PDF)")
  (tags Powermite)
  (attr smd)
  (fp_text reference REF** (at 0 -2.2) (layer F.SilkS)
    (effects (font (size 1 1) (thickness 0.15)))
  )
  (fp_text value D_Powermite_AK (at 0 2.2) (layer F.Fab)
    (effects (font (size 1 1) (thickness 0.15)))
  )
  (fp_text user %R (at -0.4 -0.5) (layer F.Fab)
    (effects (font (size 0.4 0.4) (thickness 0.06)))
  )
  (fp_line (start -0.25 0) (end 0 0) (layer F.Fab) (width 0.1))
  (fp_line (start -0.25 -0.2) (end -0.55 0) (layer F.Fab) (width 0.1))
  (fp_line (start -0.25 0.2) (end -0.25 -0.2) (layer F.Fab) (width 0.1))
  (fp_line (start -0.55 0) (end -0.25 0.2) (layer F.Fab) (width 0.1))
  (fp_line (start -0.55 0) (end -0.8 0) (layer F.Fab) (width 0.1))
  (fp_line (start -0.55 0.2) (end -0.55 -0.2) (layer F.Fab) (width 0.1))
  (fp_line (start -2.29 -1.52) (end -2.29 1.52) (layer F.CrtYd) (width 0.05))
  (fp_line (start 0.89 -1.52) (end -2.29 -1.52) (layer F.CrtYd) (width 0.05))
  (fp_line (start 0.89 -0.89) (end 0.89 -1.52) (layer F.CrtYd) (width 0.05))
  (fp_line (start 2.29 -0.89) (end 0.89 -0.89) (layer F.CrtYd) (width 0.05))
  (fp_line (start 2.29 0.89) (end 2.29 -0.89) (layer F.CrtYd) (width 0.05))
  (fp_line (start 0.89 0.89) (end 2.29 0.89) (layer F.CrtYd) (width 0.05))
  (fp_line (start 0.89 1.52) (end 0.89 0.89) (layer F.CrtYd) (width 0.05))
  (fp_line (start -2.29 1.52) (end 0.89 1.52) (layer F.CrtYd) (width 0.05))
  (fp_line (start -1.345 0.43) (end -1.88 0.43) (layer F.Fab) (width 0.1))
  (fp_line (start -1.88 0.43) (end -1.88 -0.43) (layer F.Fab) (width 0.1))
  (fp_line (start -1.88 -0.43) (end -1.345 -0.43) (layer F.Fab) (width 0.1))
  (fp_line (start 0.555 0.95) (end 0.555 -0.95) (layer F.Fab) (width 0.1))
  (fp_line (start 0.555 -0.95) (end -1.345 -0.95) (layer F.Fab) (width 0.1))
  (fp_line (start -1.345 -0.95) (end -1.345 0.95) (layer F.Fab) (width 0.1))
  (fp_line (start -1.345 0.95) (end 0.555 0.95) (layer F.Fab) (width 0.1))
  (fp_line (start 1.97 0.265) (end 1.97 -0.265) (layer F.Fab) (width 0.1))
  (fp_line (start 1.97 -0.265) (end 0.555 -0.265) (layer F.Fab) (width 0.1))
  (fp_line (start 1.97 0.265) (end 0.555 0.265) (layer F.Fab) (width 0.1))
  (fp_line (start 1.1 0.385) (end 0.8 0.385) (layer F.SilkS) (width 0.12))
  (fp_line (start 1.1 -0.385) (end 0.8 -0.385) (layer F.SilkS) (width 0.12))
  (fp_line (start -0.25 0) (end 0 0) (layer F.Fab) (width 0.1))
  (fp_line (start -0.25 -0.2) (end -0.55 0) (layer F.Fab) (width 0.1))
  (fp_line (start -0.25 0.2) (end -0.25 -0.2) (layer F.Fab) (width 0.1))
  (fp_line (start -0.55 0) (end -0.25 0.2) (layer F.Fab) (width 0.1))
  (fp_line (start -0.55 0) (end -0.8 0) (layer F.Fab) (width 0.1))
  (fp_line (start -0.55 0.2) (end -0.55 -0.2) (layer F.Fab) (width 0.1))
  (pad 2 smd rect (at 1.6525 0) (size 0.762 1.27) (layers F.Cu F.Paste F.Mask))
  (pad 1 smd rect (at -0.6985 0) (size 2.67 2.54) (layers F.Cu F.Paste F.Mask))
  (model ${KIPRJMOD}/kicad_libs_k/models_k.3d/Diode_SMD_k.3dshapes/D_Powermite_AK_k.wrl
    (at (xyz 0 0 0))
    (scale (xyz 1 1 1))
    (rotate (xyz 0 0 0))
  )
)
