(module D_QFN_3.3x3.3mm_P0.65mm (layer F.Cu) (tedit 5ABD850D)
  (attr smd)
  (descr "QFN, diode, 3.3x3.3x1mm (https://www.wolfspeed.com/media/downloads/846/C3D1P7060Q.pdf)")
  (tags "diode qfn 3.3")
  (fp_text reference REF** (at 0 -2.8) (layer F.SilkS)
    (effects (font (size 1 1) (thickness 0.15)))
  )
  (fp_text value D_QFN_3.3x3.3mm_P0.65mm (at 0 2.8) (layer F.Fab)
    (effects (font (size 1 1) (thickness 0.15)))
  )
  (fp_line (start -1.65 -1.65) (end 1.65 -1.65) (layer F.Fab) (width 0.1))
  (fp_line (start 1.65 -1.65) (end 1.65 1.65) (layer F.Fab) (width 0.1))
  (fp_line (start 1.65 1.65) (end -1.65 1.65) (layer F.Fab) (width 0.1))
  (fp_line (start -1.65 1.65) (end -1.65 -1.65) (layer F.Fab) (width 0.1))
  (fp_line (start 0.5 0.75) (end 1.25 0.75) (layer F.Fab) (width 0.1))
  (fp_line (start -0.5 0.75) (end -1.25 0.75) (layer F.Fab) (width 0.1))
  (fp_line (start -0.5 0.25) (end -0.5 1.25) (layer F.Fab) (width 0.1))
  (fp_line (start 0.5 1.25) (end -0.5 0.75) (layer F.Fab) (width 0.1))
  (fp_line (start 0.5 0.25) (end 0.5 1.25) (layer F.Fab) (width 0.1))
  (fp_line (start -0.5 0.75) (end 0.5 0.25) (layer F.Fab) (width 0.1))
  (fp_text user %R (at 0 -0.75) (layer F.Fab)
    (effects (font (size 0.8 0.8) (thickness 0.12)))
  )
  (fp_line (start -2.05 -2.05) (end 2.05 -2.05) (layer F.CrtYd) (width 0.05))
  (fp_line (start 2.05 2.05) (end 2.05 -2.05) (layer F.CrtYd) (width 0.05))
  (fp_line (start -2.05 2.05) (end -2.05 -2.05) (layer F.CrtYd) (width 0.05))
  (fp_line (start -2.05 2.05) (end 2.05 2.05) (layer F.CrtYd) (width 0.05))
  (fp_line (start -1.76 -1.76) (end -1.08 -1.76) (layer F.SilkS) (width 0.12))
  (fp_line (start -1.76 -1.76) (end -1.76 -1.38) (layer F.SilkS) (width 0.12))
  (fp_line (start 0.29 -1.76) (end 1.76 -1.76) (layer F.SilkS) (width 0.12))
  (fp_line (start 0.29 1.76) (end 1.76 1.76) (layer F.SilkS) (width 0.12))
  (fp_line (start -1.76 1.76) (end -1.08 1.76) (layer F.SilkS) (width 0.12))
  (fp_line (start -1.76 1.76) (end -1.76 1.38) (layer F.SilkS) (width 0.12))
  (fp_line (start 1.76 1.76) (end 1.76 1.38) (layer F.SilkS) (width 0.12))
  (fp_line (start 1.76 -1.76) (end 1.76 -1.38) (layer F.SilkS) (width 0.12))
  (pad 1 smd custom (at -0.645 0) (size 0.5 0.5) (layers F.Cu F.Paste F.Mask)
    (zone_connect 0)
    (options (clearance outline) (anchor rect))
    (primitives
      (gr_poly (pts
         (xy 1.155 -1.195) (xy 0.755 -1.195) (xy 0.755 -1.8) (xy -0.255 -1.8) (xy -0.255 -1.195)
         (xy -1.155 -1.195) (xy -1.155 -0.755) (xy -0.655 -0.755) (xy -0.655 -0.545) (xy -1.155 -0.545)
         (xy -1.155 -0.105) (xy -0.655 -0.105) (xy -0.655 0.105) (xy -1.155 0.105) (xy -1.155 0.545)
         (xy -0.655 0.545) (xy -0.655 0.755) (xy -1.155 0.755) (xy -1.155 1.195) (xy -0.255 1.195)
         (xy -0.255 1.8) (xy 0.755 1.8) (xy 0.755 1.195) (xy 1.155 1.195)) (width 0))
    ))
  (pad "" smd rect (at 1.4 -0.975) (size 0.8 0.44) (layers F.Cu F.Paste F.Mask))
  (pad 2 smd custom (at 1.4 0.325) (size 0.4 0.4) (layers F.Cu F.Paste F.Mask)
    (zone_connect 0)
    (options (clearance outline) (anchor rect))
    (primitives
      (gr_poly (pts
         (xy -0.4 -0.87) (xy 0.4 -0.87) (xy 0.4 -0.43) (xy 0.1 -0.43) (xy 0.1 -0.22)
         (xy 0.4 -0.22) (xy 0.4 0.22) (xy 0.1 0.22) (xy 0.1 0.43) (xy 0.4 0.43)
         (xy 0.4 0.87) (xy -0.4 0.87)) (width 0))
    ))
  (model ${KIPRJMOD}/kicad_libs_k/models_k.3d/Diode_SMD_k.3dshapes/D_QFN_3.3x3.3mm_P0.65mm_k.wrl
    (at (xyz 0 0 0))
    (scale (xyz 1 1 1))
    (rotate (xyz 0 0 0))
  )
)
