(module D_SMC_Handsoldering (layer F.Cu) (tedit 58642B03)
  (descr "Diode SMC (DO-214AB) Handsoldering")
  (tags "Diode SMC (DO-214AB) Handsoldering")
  (attr smd)
  (fp_text reference REF** (at 0 -4.1) (layer F.SilkS)
    (effects (font (size 1 1) (thickness 0.15)))
  )
  (fp_text value D_SMC_Handsoldering (at 0 4.2) (layer F.Fab)
    (effects (font (size 1 1) (thickness 0.15)))
  )
  (fp_text user %R (at 0 -1.5) (layer F.Fab)
    (effects (font (size 1 1) (thickness 0.15)))
  )
  (fp_line (start -6.8 3.25) (end -6.8 -3.25) (layer F.SilkS) (width 0.12))
  (fp_line (start 3.55 3.1) (end -3.55 3.1) (layer F.Fab) (width 0.1))
  (fp_line (start -3.55 3.1) (end -3.55 -3.1) (layer F.Fab) (width 0.1))
  (fp_line (start 3.55 -3.1) (end 3.55 3.1) (layer F.Fab) (width 0.1))
  (fp_line (start 3.55 -3.1) (end -3.55 -3.1) (layer F.Fab) (width 0.1))
  (fp_line (start -6.9 -3.35) (end 6.9 -3.35) (layer F.CrtYd) (width 0.05))
  (fp_line (start 6.9 -3.35) (end 6.9 3.35) (layer F.CrtYd) (width 0.05))
  (fp_line (start 6.9 3.35) (end -6.9 3.35) (layer F.CrtYd) (width 0.05))
  (fp_line (start -6.9 3.35) (end -6.9 -3.35) (layer F.CrtYd) (width 0.05))
  (fp_line (start -0.64944 0.00102) (end -1.55114 0.00102) (layer F.Fab) (width 0.1))
  (fp_line (start 0.50118 0.00102) (end 1.4994 0.00102) (layer F.Fab) (width 0.1))
  (fp_line (start -0.64944 -0.79908) (end -0.64944 0.80112) (layer F.Fab) (width 0.1))
  (fp_line (start 0.50118 0.75032) (end 0.50118 -0.79908) (layer F.Fab) (width 0.1))
  (fp_line (start -0.64944 0.00102) (end 0.50118 0.75032) (layer F.Fab) (width 0.1))
  (fp_line (start -0.64944 0.00102) (end 0.50118 -0.79908) (layer F.Fab) (width 0.1))
  (fp_line (start -6.8 3.25) (end 4.4 3.25) (layer F.SilkS) (width 0.12))
  (fp_line (start -6.8 -3.25) (end 4.4 -3.25) (layer F.SilkS) (width 0.12))
  (pad 1 smd rect (at -4.4 0 90) (size 3.3 4.5) (layers F.Cu F.Paste F.Mask))
  (pad 2 smd rect (at 4.4 0 90) (size 3.3 4.5) (layers F.Cu F.Paste F.Mask))
  (model ${KIPRJMOD}/kicad_libs_k/models_k.3d/Diode_SMD_k.3dshapes/D_SMC_k.wrl
    (at (xyz 0 0 0))
    (scale (xyz 1 1 1))
    (rotate (xyz 0 0 0))
  )
)
