(module Diode_Bridge_Diotec_ABS (layer F.Cu) (tedit 5A4F6D53)
  (descr "SMD diode bridge ABS (Diotec), see https://diotec.com/tl_files/diotec/files/pdf/datasheets/abs2.pdf")
  (tags "ABS MBLS")
  (attr smd)
  (fp_text reference REF** (at 0 -3.7) (layer F.SilkS)
    (effects (font (size 1 1) (thickness 0.15)))
  )
  (fp_text value Diode_Bridge_Diotec_ABS (at 0 3.7) (layer F.Fab)
    (effects (font (size 1 1) (thickness 0.15)))
  )
  (fp_text user %R (at 0 -0.065) (layer F.Fab)
    (effects (font (size 1 1) (thickness 0.15)))
  )
  (fp_line (start 2.3 -2.4) (end 2.3 -2.6) (layer F.SilkS) (width 0.12))
  (fp_line (start 2.3 -2.6) (end -3.5 -2.6) (layer F.SilkS) (width 0.12))
  (fp_line (start 2.3 2.4) (end 2.3 2.6) (layer F.SilkS) (width 0.12))
  (fp_line (start 2.3 2.6) (end -2.3 2.6) (layer F.SilkS) (width 0.12))
  (fp_line (start -2.3 2.6) (end -2.3 2.4) (layer F.SilkS) (width 0.12))
  (fp_line (start 2.3 -1.5) (end 2.3 1.5) (layer F.SilkS) (width 0.12))
  (fp_line (start -2.3 1.5) (end -2.3 -1.5) (layer F.SilkS) (width 0.12))
  (fp_line (start -2.2 2.5) (end 2.2 2.5) (layer F.Fab) (width 0.12))
  (fp_line (start 2.2 2.5) (end 2.2 -2.5) (layer F.Fab) (width 0.12))
  (fp_line (start 2.2 -2.5) (end -1.8 -2.5) (layer F.Fab) (width 0.12))
  (fp_line (start -1.8 -2.5) (end -2.2 -2) (layer F.Fab) (width 0.12))
  (fp_line (start -2.2 -2) (end -2.2 2.5) (layer F.Fab) (width 0.12))
  (fp_line (start -3.72 -2.75) (end 3.73 -2.75) (layer F.CrtYd) (width 0.05))
  (fp_line (start -3.72 -2.75) (end -3.72 2.75) (layer F.CrtYd) (width 0.05))
  (fp_line (start 3.73 2.75) (end 3.73 -2.75) (layer F.CrtYd) (width 0.05))
  (fp_line (start 3.73 2.75) (end -3.72 2.75) (layer F.CrtYd) (width 0.05))
  (pad 1 smd rect (at -2.975 -2) (size 1 0.7) (layers F.Cu F.Paste F.Mask))
  (pad 2 smd rect (at -2.975 2) (size 1 0.7) (layers F.Cu F.Paste F.Mask))
  (pad 3 smd rect (at 2.975 2) (size 1 0.7) (layers F.Cu F.Paste F.Mask))
  (pad 4 smd rect (at 2.975 -2) (size 1 0.7) (layers F.Cu F.Paste F.Mask))
  (model ${KIPRJMOD}/kicad_libs_k/models_k.3d/Diode_SMD_k.3dshapes/Diode_Bridge_Diotec_ABS_k.wrl
    (at (xyz 0 0 0))
    (scale (xyz 1 1 1))
    (rotate (xyz 0 0 0))
  )
)
