(module Hirose_DF13-03P-1.25DSA_1x03_P1.25mm_Vertical (layer F.Cu) (tedit 5A1C63DE)
  (descr "Molex DF13 through hole, DF13-03P-1.25DSA, 3 Pins per row (https://www.hirose.com/product/en/products/DF13/DF13-2P-1.25DSA%2850%29/), generated with kicad-footprint-generator")
  (tags "connector Hirose  side entry")
  (fp_text reference REF** (at 1.25 -3.4) (layer F.SilkS)
    (effects (font (size 1 1) (thickness 0.15)))
  )
  (fp_text value Hirose_DF13-03P-1.25DSA_1x03_P1.25mm_Vertical (at 1.25 2.4) (layer F.Fab)
    (effects (font (size 1 1) (thickness 0.15)))
  )
  (fp_line (start -1.45 -2.2) (end -1.45 1.2) (layer F.Fab) (width 0.1))
  (fp_line (start -1.45 1.2) (end 3.95 1.2) (layer F.Fab) (width 0.1))
  (fp_line (start 3.95 1.2) (end 3.95 -2.2) (layer F.Fab) (width 0.1))
  (fp_line (start 3.95 -2.2) (end -1.45 -2.2) (layer F.Fab) (width 0.1))
  (fp_line (start -1.55 -2.3) (end -1.55 1.3) (layer F.SilkS) (width 0.12))
  (fp_line (start -1.55 1.3) (end 4.05 1.3) (layer F.SilkS) (width 0.12))
  (fp_line (start 4.05 1.3) (end 4.05 -2.3) (layer F.SilkS) (width 0.12))
  (fp_line (start 4.05 -2.3) (end -1.55 -2.3) (layer F.SilkS) (width 0.12))
  (fp_line (start -1.86 -0.3) (end -1.86 1.61) (layer F.SilkS) (width 0.12))
  (fp_line (start -1.86 1.61) (end 0.05 1.61) (layer F.SilkS) (width 0.12))
  (fp_line (start -0.5 1.2) (end 0 0.492893) (layer F.Fab) (width 0.1))
  (fp_line (start 0 0.492893) (end 0.5 1.2) (layer F.Fab) (width 0.1))
  (fp_line (start -1.55 0) (end -1.25 0) (layer F.SilkS) (width 0.12))
  (fp_line (start -1.25 0) (end -1.25 1) (layer F.SilkS) (width 0.12))
  (fp_line (start -1.25 1) (end 3.75 1) (layer F.SilkS) (width 0.12))
  (fp_line (start 3.75 1) (end 3.75 0) (layer F.SilkS) (width 0.12))
  (fp_line (start 3.75 0) (end 4.05 0) (layer F.SilkS) (width 0.12))
  (fp_line (start -1.55 -0.75) (end -1.25 -0.75) (layer F.SilkS) (width 0.12))
  (fp_line (start -1.25 -0.75) (end -1.25 -1.85) (layer F.SilkS) (width 0.12))
  (fp_line (start -1.25 -1.85) (end -0.95 -1.85) (layer F.SilkS) (width 0.12))
  (fp_line (start -0.95 -1.85) (end -0.95 -2.3) (layer F.SilkS) (width 0.12))
  (fp_line (start 4.05 -0.75) (end 3.75 -0.75) (layer F.SilkS) (width 0.12))
  (fp_line (start 3.75 -0.75) (end 3.75 -1.85) (layer F.SilkS) (width 0.12))
  (fp_line (start 3.75 -1.85) (end 3.45 -1.85) (layer F.SilkS) (width 0.12))
  (fp_line (start 3.45 -1.85) (end 3.45 -2.3) (layer F.SilkS) (width 0.12))
  (fp_line (start -0.95 -1.85) (end 0.25 -1.85) (layer F.SilkS) (width 0.12))
  (fp_line (start 0.25 -1.85) (end 0.25 -2.15) (layer F.SilkS) (width 0.12))
  (fp_line (start 0.25 -2.15) (end 1 -2.15) (layer F.SilkS) (width 0.12))
  (fp_line (start 1 -2.15) (end 1 -1.85) (layer F.SilkS) (width 0.12))
  (fp_line (start 1 -1.85) (end 1.5 -1.85) (layer F.SilkS) (width 0.12))
  (fp_line (start 1.5 -1.85) (end 1.5 -2.15) (layer F.SilkS) (width 0.12))
  (fp_line (start 1.5 -2.15) (end 2.25 -2.15) (layer F.SilkS) (width 0.12))
  (fp_line (start 2.25 -2.15) (end 2.25 -1.85) (layer F.SilkS) (width 0.12))
  (fp_line (start 2.25 -1.85) (end 3.45 -1.85) (layer F.SilkS) (width 0.12))
  (fp_line (start -1.95 -2.7) (end -1.95 1.7) (layer F.CrtYd) (width 0.05))
  (fp_line (start -1.95 1.7) (end 4.45 1.7) (layer F.CrtYd) (width 0.05))
  (fp_line (start 4.45 1.7) (end 4.45 -2.7) (layer F.CrtYd) (width 0.05))
  (fp_line (start 4.45 -2.7) (end -1.95 -2.7) (layer F.CrtYd) (width 0.05))
  (pad 1 thru_hole rect (at 0 0) (size 0.9 1.4) (drill 0.6) (layers *.Cu *.Mask))
  (pad 2 thru_hole oval (at 1.25 0) (size 0.9 1.4) (drill 0.6) (layers *.Cu *.Mask))
  (pad 3 thru_hole oval (at 2.5 0) (size 0.9 1.4) (drill 0.6) (layers *.Cu *.Mask))
  (fp_text user %R (at 1.25 -1.5) (layer F.Fab)
    (effects (font (size 1 1) (thickness 0.15)))
  )
  (model ${KIPRJMOD}/kicad_libs_k/models_k.3d/Connector_Hirose_k.3dshapes/Hirose_DF13-03P-1.25DSA_1x03_P1.25mm_Vertical_k.wrl
    (at (xyz 0 0 0))
    (scale (xyz 1 1 1))
    (rotate (xyz 0 0 0))
  )
)