(module Hirose_DF13-09P-1.25DS_1x09_P1.25mm_Horizontal (layer F.Cu) (tedit 5A1C63E0)
  (descr "Molex DF13 through hole, DF13-09P-1.25DS, 9 Pins per row (https://www.hirose.com/product/en/products/DF13/DF13-4P-1.25DS%2820%29/), generated with kicad-footprint-generator")
  (tags "connector Hirose  top entry")
  (fp_text reference REF** (at 5 -5.7) (layer F.SilkS)
    (effects (font (size 1 1) (thickness 0.15)))
  )
  (fp_text value Hirose_DF13-09P-1.25DS_1x09_P1.25mm_Horizontal (at 5 2.1) (layer F.Fab)
    (effects (font (size 1 1) (thickness 0.15)))
  )
  (fp_line (start -1.45 -4.5) (end -1.45 0.9) (layer F.Fab) (width 0.1))
  (fp_line (start -1.45 0.9) (end 11.45 0.9) (layer F.Fab) (width 0.1))
  (fp_line (start 11.45 0.9) (end 11.45 -4.5) (layer F.Fab) (width 0.1))
  (fp_line (start 11.45 -4.5) (end -1.45 -4.5) (layer F.Fab) (width 0.1))
  (fp_line (start -0.25 0.96) (end -0.25 1.01) (layer F.SilkS) (width 0.12))
  (fp_line (start -0.25 1.01) (end -1.56 1.01) (layer F.SilkS) (width 0.12))
  (fp_line (start -1.56 1.01) (end -1.56 -4.61) (layer F.SilkS) (width 0.12))
  (fp_line (start -1.56 -4.61) (end 11.56 -4.61) (layer F.SilkS) (width 0.12))
  (fp_line (start 11.56 -4.61) (end 11.56 1.01) (layer F.SilkS) (width 0.12))
  (fp_line (start 11.56 1.01) (end 10.25 1.01) (layer F.SilkS) (width 0.12))
  (fp_line (start 10.25 1.01) (end 10.25 0.96) (layer F.SilkS) (width 0.12))
  (fp_line (start -1.01 -2.5) (end 11.01 -2.5) (layer F.SilkS) (width 0.12))
  (fp_line (start -1.01 -1) (end 11.01 -1) (layer F.SilkS) (width 0.12))
  (fp_line (start -1.01 -4.61) (end -1.01 1.01) (layer F.SilkS) (width 0.12))
  (fp_line (start 11.01 -4.61) (end 11.01 1.01) (layer F.SilkS) (width 0.12))
  (fp_line (start 0 -2.5) (end -0.15 -2.5) (layer F.SilkS) (width 0.12))
  (fp_line (start -0.15 -2.5) (end -0.15 -3.9625) (layer F.SilkS) (width 0.12))
  (fp_line (start -0.15 -3.9625) (end 0 -4) (layer F.SilkS) (width 0.12))
  (fp_line (start 0 -4) (end 0.15 -3.9625) (layer F.SilkS) (width 0.12))
  (fp_line (start 0.15 -3.9625) (end 0.15 -2.5) (layer F.SilkS) (width 0.12))
  (fp_line (start 0.15 -2.5) (end 0 -2.5) (layer F.SilkS) (width 0.12))
  (fp_line (start 1.25 -2.5) (end 1.1 -2.5) (layer F.SilkS) (width 0.12))
  (fp_line (start 1.1 -2.5) (end 1.1 -3.9625) (layer F.SilkS) (width 0.12))
  (fp_line (start 1.1 -3.9625) (end 1.25 -4) (layer F.SilkS) (width 0.12))
  (fp_line (start 1.25 -4) (end 1.4 -3.9625) (layer F.SilkS) (width 0.12))
  (fp_line (start 1.4 -3.9625) (end 1.4 -2.5) (layer F.SilkS) (width 0.12))
  (fp_line (start 1.4 -2.5) (end 1.25 -2.5) (layer F.SilkS) (width 0.12))
  (fp_line (start 0.25 0.96) (end 0.25 1.01) (layer F.SilkS) (width 0.12))
  (fp_line (start 0.25 1.01) (end 1 1.01) (layer F.SilkS) (width 0.12))
  (fp_line (start 1 1.01) (end 1 0.96) (layer F.SilkS) (width 0.12))
  (fp_line (start 2.5 -2.5) (end 2.35 -2.5) (layer F.SilkS) (width 0.12))
  (fp_line (start 2.35 -2.5) (end 2.35 -3.9625) (layer F.SilkS) (width 0.12))
  (fp_line (start 2.35 -3.9625) (end 2.5 -4) (layer F.SilkS) (width 0.12))
  (fp_line (start 2.5 -4) (end 2.65 -3.9625) (layer F.SilkS) (width 0.12))
  (fp_line (start 2.65 -3.9625) (end 2.65 -2.5) (layer F.SilkS) (width 0.12))
  (fp_line (start 2.65 -2.5) (end 2.5 -2.5) (layer F.SilkS) (width 0.12))
  (fp_line (start 1.5 0.96) (end 1.5 1.01) (layer F.SilkS) (width 0.12))
  (fp_line (start 1.5 1.01) (end 2.25 1.01) (layer F.SilkS) (width 0.12))
  (fp_line (start 2.25 1.01) (end 2.25 0.96) (layer F.SilkS) (width 0.12))
  (fp_line (start 3.75 -2.5) (end 3.6 -2.5) (layer F.SilkS) (width 0.12))
  (fp_line (start 3.6 -2.5) (end 3.6 -3.9625) (layer F.SilkS) (width 0.12))
  (fp_line (start 3.6 -3.9625) (end 3.75 -4) (layer F.SilkS) (width 0.12))
  (fp_line (start 3.75 -4) (end 3.9 -3.9625) (layer F.SilkS) (width 0.12))
  (fp_line (start 3.9 -3.9625) (end 3.9 -2.5) (layer F.SilkS) (width 0.12))
  (fp_line (start 3.9 -2.5) (end 3.75 -2.5) (layer F.SilkS) (width 0.12))
  (fp_line (start 2.75 0.96) (end 2.75 1.01) (layer F.SilkS) (width 0.12))
  (fp_line (start 2.75 1.01) (end 3.5 1.01) (layer F.SilkS) (width 0.12))
  (fp_line (start 3.5 1.01) (end 3.5 0.96) (layer F.SilkS) (width 0.12))
  (fp_line (start 5 -2.5) (end 4.85 -2.5) (layer F.SilkS) (width 0.12))
  (fp_line (start 4.85 -2.5) (end 4.85 -3.9625) (layer F.SilkS) (width 0.12))
  (fp_line (start 4.85 -3.9625) (end 5 -4) (layer F.SilkS) (width 0.12))
  (fp_line (start 5 -4) (end 5.15 -3.9625) (layer F.SilkS) (width 0.12))
  (fp_line (start 5.15 -3.9625) (end 5.15 -2.5) (layer F.SilkS) (width 0.12))
  (fp_line (start 5.15 -2.5) (end 5 -2.5) (layer F.SilkS) (width 0.12))
  (fp_line (start 4 0.96) (end 4 1.01) (layer F.SilkS) (width 0.12))
  (fp_line (start 4 1.01) (end 4.75 1.01) (layer F.SilkS) (width 0.12))
  (fp_line (start 4.75 1.01) (end 4.75 0.96) (layer F.SilkS) (width 0.12))
  (fp_line (start 6.25 -2.5) (end 6.1 -2.5) (layer F.SilkS) (width 0.12))
  (fp_line (start 6.1 -2.5) (end 6.1 -3.9625) (layer F.SilkS) (width 0.12))
  (fp_line (start 6.1 -3.9625) (end 6.25 -4) (layer F.SilkS) (width 0.12))
  (fp_line (start 6.25 -4) (end 6.4 -3.9625) (layer F.SilkS) (width 0.12))
  (fp_line (start 6.4 -3.9625) (end 6.4 -2.5) (layer F.SilkS) (width 0.12))
  (fp_line (start 6.4 -2.5) (end 6.25 -2.5) (layer F.SilkS) (width 0.12))
  (fp_line (start 5.25 0.96) (end 5.25 1.01) (layer F.SilkS) (width 0.12))
  (fp_line (start 5.25 1.01) (end 6 1.01) (layer F.SilkS) (width 0.12))
  (fp_line (start 6 1.01) (end 6 0.96) (layer F.SilkS) (width 0.12))
  (fp_line (start 7.5 -2.5) (end 7.35 -2.5) (layer F.SilkS) (width 0.12))
  (fp_line (start 7.35 -2.5) (end 7.35 -3.9625) (layer F.SilkS) (width 0.12))
  (fp_line (start 7.35 -3.9625) (end 7.5 -4) (layer F.SilkS) (width 0.12))
  (fp_line (start 7.5 -4) (end 7.65 -3.9625) (layer F.SilkS) (width 0.12))
  (fp_line (start 7.65 -3.9625) (end 7.65 -2.5) (layer F.SilkS) (width 0.12))
  (fp_line (start 7.65 -2.5) (end 7.5 -2.5) (layer F.SilkS) (width 0.12))
  (fp_line (start 6.5 0.96) (end 6.5 1.01) (layer F.SilkS) (width 0.12))
  (fp_line (start 6.5 1.01) (end 7.25 1.01) (layer F.SilkS) (width 0.12))
  (fp_line (start 7.25 1.01) (end 7.25 0.96) (layer F.SilkS) (width 0.12))
  (fp_line (start 8.75 -2.5) (end 8.6 -2.5) (layer F.SilkS) (width 0.12))
  (fp_line (start 8.6 -2.5) (end 8.6 -3.9625) (layer F.SilkS) (width 0.12))
  (fp_line (start 8.6 -3.9625) (end 8.75 -4) (layer F.SilkS) (width 0.12))
  (fp_line (start 8.75 -4) (end 8.9 -3.9625) (layer F.SilkS) (width 0.12))
  (fp_line (start 8.9 -3.9625) (end 8.9 -2.5) (layer F.SilkS) (width 0.12))
  (fp_line (start 8.9 -2.5) (end 8.75 -2.5) (layer F.SilkS) (width 0.12))
  (fp_line (start 7.75 0.96) (end 7.75 1.01) (layer F.SilkS) (width 0.12))
  (fp_line (start 7.75 1.01) (end 8.5 1.01) (layer F.SilkS) (width 0.12))
  (fp_line (start 8.5 1.01) (end 8.5 0.96) (layer F.SilkS) (width 0.12))
  (fp_line (start 10 -2.5) (end 9.85 -2.5) (layer F.SilkS) (width 0.12))
  (fp_line (start 9.85 -2.5) (end 9.85 -3.9625) (layer F.SilkS) (width 0.12))
  (fp_line (start 9.85 -3.9625) (end 10 -4) (layer F.SilkS) (width 0.12))
  (fp_line (start 10 -4) (end 10.15 -3.9625) (layer F.SilkS) (width 0.12))
  (fp_line (start 10.15 -3.9625) (end 10.15 -2.5) (layer F.SilkS) (width 0.12))
  (fp_line (start 10.15 -2.5) (end 10 -2.5) (layer F.SilkS) (width 0.12))
  (fp_line (start 9 0.96) (end 9 1.01) (layer F.SilkS) (width 0.12))
  (fp_line (start 9 1.01) (end 9.75 1.01) (layer F.SilkS) (width 0.12))
  (fp_line (start 9.75 1.01) (end 9.75 0.96) (layer F.SilkS) (width 0.12))
  (fp_line (start 0 1.5) (end -0.3 2.1) (layer F.SilkS) (width 0.12))
  (fp_line (start -0.3 2.1) (end 0.3 2.1) (layer F.SilkS) (width 0.12))
  (fp_line (start 0.3 2.1) (end 0 1.5) (layer F.SilkS) (width 0.12))
  (fp_line (start -0.5 0.9) (end 0 0.192893) (layer F.Fab) (width 0.1))
  (fp_line (start 0 0.192893) (end 0.5 0.9) (layer F.Fab) (width 0.1))
  (fp_line (start -1.95 -5) (end -1.95 1.4) (layer F.CrtYd) (width 0.05))
  (fp_line (start -1.95 1.4) (end 11.95 1.4) (layer F.CrtYd) (width 0.05))
  (fp_line (start 11.95 1.4) (end 11.95 -5) (layer F.CrtYd) (width 0.05))
  (fp_line (start 11.95 -5) (end -1.95 -5) (layer F.CrtYd) (width 0.05))
  (pad 1 thru_hole rect (at 0 0) (size 0.9 1.4) (drill 0.6) (layers *.Cu *.Mask))
  (pad 2 thru_hole oval (at 1.25 0) (size 0.9 1.4) (drill 0.6) (layers *.Cu *.Mask))
  (pad 3 thru_hole oval (at 2.5 0) (size 0.9 1.4) (drill 0.6) (layers *.Cu *.Mask))
  (pad 4 thru_hole oval (at 3.75 0) (size 0.9 1.4) (drill 0.6) (layers *.Cu *.Mask))
  (pad 5 thru_hole oval (at 5 0) (size 0.9 1.4) (drill 0.6) (layers *.Cu *.Mask))
  (pad 6 thru_hole oval (at 6.25 0) (size 0.9 1.4) (drill 0.6) (layers *.Cu *.Mask))
  (pad 7 thru_hole oval (at 7.5 0) (size 0.9 1.4) (drill 0.6) (layers *.Cu *.Mask))
  (pad 8 thru_hole oval (at 8.75 0) (size 0.9 1.4) (drill 0.6) (layers *.Cu *.Mask))
  (pad 9 thru_hole oval (at 10 0) (size 0.9 1.4) (drill 0.6) (layers *.Cu *.Mask))
  (fp_text user %R (at 5 -3.8) (layer F.Fab)
    (effects (font (size 1 1) (thickness 0.15)))
  )
  (model ${KIPRJMOD}/kicad_libs_k/models_k.3d/Connector_Hirose_k.3dshapes/Hirose_DF13-09P-1.25DS_1x09_P1.25mm_Horizontal_k.wrl
    (at (xyz 0 0 0))
    (scale (xyz 1 1 1))
    (rotate (xyz 0 0 0))
  )
)