(module Hirose_DF52-2S-0.8H_1x02-1MP_P0.80mm_Horizontal (layer F.Cu) (tedit 5AA48066)
  (descr "Hirose  series connector, DF52-2S-0.8H (https://www.hirose.com/product/en/products/DF52/DF52-3S-0.8H%2821%29/), generated with kicad-footprint-generator")
  (tags "connector Hirose  top entry")
  (attr smd)
  (fp_text reference REF** (at 0 -2.81) (layer F.SilkS)
    (effects (font (size 1 1) (thickness 0.15)))
  )
  (fp_text value Hirose_DF52-2S-0.8H_1x02-1MP_P0.80mm_Horizontal (at 0 2.81) (layer F.Fab)
    (effects (font (size 1 1) (thickness 0.15)))
  )
  (fp_line (start -1.9 -1.26) (end 1.9 -1.26) (layer F.Fab) (width 0.1))
  (fp_line (start -2.01 -0.25) (end -2.01 -1.37) (layer F.SilkS) (width 0.12))
  (fp_line (start -2.01 -1.37) (end -0.91 -1.37) (layer F.SilkS) (width 0.12))
  (fp_line (start -0.91 -1.37) (end -0.91 -1.61) (layer F.SilkS) (width 0.12))
  (fp_line (start 2.01 -0.25) (end 2.01 -1.37) (layer F.SilkS) (width 0.12))
  (fp_line (start 2.01 -1.37) (end 0.91 -1.37) (layer F.SilkS) (width 0.12))
  (fp_line (start -0.94 1.62) (end 0.94 1.62) (layer F.SilkS) (width 0.12))
  (fp_line (start -1.9 1.51) (end 1.9 1.51) (layer F.Fab) (width 0.1))
  (fp_line (start -1.9 -1.26) (end -1.9 1.51) (layer F.Fab) (width 0.1))
  (fp_line (start 1.9 -1.26) (end 1.9 1.51) (layer F.Fab) (width 0.1))
  (fp_line (start -2.6 -2.11) (end -2.6 2.11) (layer F.CrtYd) (width 0.05))
  (fp_line (start -2.6 2.11) (end 2.6 2.11) (layer F.CrtYd) (width 0.05))
  (fp_line (start 2.6 2.11) (end 2.6 -2.11) (layer F.CrtYd) (width 0.05))
  (fp_line (start 2.6 -2.11) (end -2.6 -2.11) (layer F.CrtYd) (width 0.05))
  (fp_line (start -0.9 -1.26) (end -0.4 -0.552893) (layer F.Fab) (width 0.1))
  (fp_line (start -0.4 -0.552893) (end 0.1 -1.26) (layer F.Fab) (width 0.1))
  (fp_line (start -0.65 -2.463553) (end -0.4 -2.11) (layer F.SilkS) (width 0.12))
  (fp_line (start -0.4 -2.11) (end -0.15 -2.463553) (layer F.SilkS) (width 0.12))
  (fp_line (start -0.15 -2.463553) (end -0.65 -2.463553) (layer F.SilkS) (width 0.12))
  (pad 1 smd rect (at -0.4 -1.11) (size 0.5 1) (layers F.Cu F.Mask F.Paste))
  (pad 2 smd rect (at 0.4 -1.11) (size 0.5 1) (layers F.Cu F.Mask F.Paste))
  (pad MP smd rect (at -1.65 0.81) (size 0.9 1.6) (layers F.Cu F.Mask F.Paste))
  (pad MP smd rect (at 1.65 0.81) (size 0.9 1.6) (layers F.Cu F.Mask F.Paste))
  (fp_text user %R (at 0 0.84) (layer F.Fab)
    (effects (font (size 0.95 0.95) (thickness 0.14)))
  )
  (model ${KIPRJMOD}/kicad_libs_k/models_k.3d/Connector_Hirose_k.3dshapes/Hirose_DF52-2S-0.8H_1x02-1MP_P0.80mm_Horizontal_k.wrl
    (at (xyz 0 0 0))
    (scale (xyz 1 1 1))
    (rotate (xyz 0 0 0))
  )
)