(module Hirose_DF63-5P-3.96DSA_1x05_P3.96mm_Horizontal (layer F.Cu) (tedit 5A1C63E5)
  (descr "Molex DF63 through hole, DF63-5P-3.96DSA, 5 Pins per row (https://www.hirose.com/product/en/products/DF63/), generated with kicad-footprint-generator")
  (tags "connector Hirose  top entry")
  (fp_text reference REF** (at 7.92 -5.15) (layer F.SilkS)
    (effects (font (size 1 1) (thickness 0.15)))
  )
  (fp_text value Hirose_DF63-5P-3.96DSA_1x05_P3.96mm_Horizontal (at 7.92 5.25) (layer F.Fab)
    (effects (font (size 1 1) (thickness 0.15)))
  )
  (fp_circle (center 0 -3.75) (end 0.25 -3.75) (layer F.SilkS) (width 0.12))
  (fp_line (start 7.92 4.05) (end -2.35 4.05) (layer F.Fab) (width 0.1))
  (fp_line (start -2.35 4.05) (end -2.35 -3.95) (layer F.Fab) (width 0.1))
  (fp_line (start -2.35 -3.95) (end -1.15 -3.95) (layer F.Fab) (width 0.1))
  (fp_line (start -1.15 -3.95) (end -1.15 -3) (layer F.Fab) (width 0.1))
  (fp_line (start -1.15 -3) (end 7.92 -3) (layer F.Fab) (width 0.1))
  (fp_line (start 7.92 4.05) (end 18.19 4.05) (layer F.Fab) (width 0.1))
  (fp_line (start 18.19 4.05) (end 18.19 -3.95) (layer F.Fab) (width 0.1))
  (fp_line (start 18.19 -3.95) (end 16.99 -3.95) (layer F.Fab) (width 0.1))
  (fp_line (start 16.99 -3.95) (end 16.99 -3) (layer F.Fab) (width 0.1))
  (fp_line (start 16.99 -3) (end 7.92 -3) (layer F.Fab) (width 0.1))
  (fp_line (start 7.92 4.16) (end -2.46 4.16) (layer F.SilkS) (width 0.12))
  (fp_line (start -2.46 4.16) (end -2.46 -4.06) (layer F.SilkS) (width 0.12))
  (fp_line (start -2.46 -4.06) (end -1.04 -4.06) (layer F.SilkS) (width 0.12))
  (fp_line (start -1.04 -4.06) (end -1.04 -3.11) (layer F.SilkS) (width 0.12))
  (fp_line (start -1.04 -3.11) (end 7.92 -3.11) (layer F.SilkS) (width 0.12))
  (fp_line (start 7.92 4.16) (end 18.3 4.16) (layer F.SilkS) (width 0.12))
  (fp_line (start 18.3 4.16) (end 18.3 -4.06) (layer F.SilkS) (width 0.12))
  (fp_line (start 18.3 -4.06) (end 16.88 -4.06) (layer F.SilkS) (width 0.12))
  (fp_line (start 16.88 -4.06) (end 16.88 -3.11) (layer F.SilkS) (width 0.12))
  (fp_line (start 16.88 -3.11) (end 7.92 -3.11) (layer F.SilkS) (width 0.12))
  (fp_line (start 1.98 -3) (end 1.98 4.05) (layer F.Fab) (width 0.1))
  (fp_line (start 5.94 -3) (end 5.94 4.05) (layer F.Fab) (width 0.1))
  (fp_line (start 9.9 -3) (end 9.9 4.05) (layer F.Fab) (width 0.1))
  (fp_line (start 13.86 -3) (end 13.86 4.05) (layer F.Fab) (width 0.1))
  (fp_line (start -1 -3) (end 0 -1.585786) (layer F.Fab) (width 0.1))
  (fp_line (start 0 -1.585786) (end 1 -3) (layer F.Fab) (width 0.1))
  (fp_line (start -2.85 -4.45) (end -2.85 4.55) (layer F.CrtYd) (width 0.05))
  (fp_line (start -2.85 4.55) (end 18.69 4.55) (layer F.CrtYd) (width 0.05))
  (fp_line (start 18.69 4.55) (end 18.69 -4.45) (layer F.CrtYd) (width 0.05))
  (fp_line (start 18.69 -4.45) (end -2.85 -4.45) (layer F.CrtYd) (width 0.05))
  (pad 1 thru_hole rect (at 0 0) (size 2.46 2.8) (drill 1.8) (layers *.Cu *.Mask))
  (pad 2 thru_hole oval (at 3.96 0) (size 2.46 2.8) (drill 1.8) (layers *.Cu *.Mask))
  (pad 3 thru_hole oval (at 7.92 0) (size 2.46 2.8) (drill 1.8) (layers *.Cu *.Mask))
  (pad 4 thru_hole oval (at 11.88 0) (size 2.46 2.8) (drill 1.8) (layers *.Cu *.Mask))
  (pad 5 thru_hole oval (at 15.84 0) (size 2.46 2.8) (drill 1.8) (layers *.Cu *.Mask))
  (pad "" np_thru_hole circle (at -1.5 3.25) (size 1.6 1.6) (drill 1.6) (layers *.Cu *.Mask))
  (fp_text user %R (at 7.92 -3.75) (layer F.Fab)
    (effects (font (size 1 1) (thickness 0.15)))
  )
  (model ${KIPRJMOD}/kicad_libs_k/models_k.3d/Connector_Hirose_k.3dshapes/Hirose_DF63-5P-3.96DSA_1x05_P3.96mm_Horizontal_k.wrl
    (at (xyz 0 0 0))
    (scale (xyz 1 1 1))
    (rotate (xyz 0 0 0))
  )
)