(module TerminalBlock_Dinkle_DT-55-B01X-19_P10.00mm (layer F.Cu) (tedit 5A78168A)
  (descr "Dinkle DT-55-B01X Terminal Block  pitch 10.00mm https://www.dinkle.com/en/terminal/DT-55-B01W-XX")
  (tags "Dinkle DT-55-B01X Terminal Block  pitch 10.00mm")
  (fp_text reference REF** (at 90.08 -10.16) (layer F.SilkS)
    (effects (font (size 1 1) (thickness 0.15)))
  )
  (fp_text value TerminalBlock_Dinkle_DT-55-B01X-19_P10.00mm (at 90.08 10.16) (layer F.Fab)
    (effects (font (size 1 1) (thickness 0.15)))
  )
  (fp_line (start -4.4 -7.75) (end -6 -6.15) (layer F.Fab) (width 0.1))
  (fp_line (start -6 7.75) (end -4.4 7.75) (layer F.Fab) (width 0.1))
  (fp_line (start 184.4 7.75) (end 186.0 7.75) (layer F.Fab) (width 0.1))
  (fp_line (start 184.4 -7.75) (end 186.0 -7.75) (layer F.Fab) (width 0.1))
  (fp_line (start 184.4 -7.75) (end 184.4 7.75) (layer F.Fab) (width 0.1))
  (fp_line (start -4.4 -7.75) (end -4.4 7.75) (layer F.Fab) (width 0.1))
  (fp_line (start -6 -7.75) (end -4.4 -7.75) (layer F.Fab) (width 0.1))
  (fp_line (start 186.0 -7.75) (end 186.0 7.75) (layer F.Fab) (width 0.1))
  (fp_line (start -6 -7.75) (end -6 7.75) (layer F.Fab) (width 0.1))
  (fp_line (start -6.35 -8.1) (end -3.85 -8.1) (layer F.SilkS) (width 0.12))
  (fp_line (start -6.35 -5.6) (end -6.35 -8.1) (layer F.SilkS) (width 0.12))
  (fp_line (start -6.1 -7.85) (end 186.1 -7.85) (layer F.SilkS) (width 0.12))
  (fp_line (start 186.1 -7.85) (end 186.1 7.85) (layer F.SilkS) (width 0.12))
  (fp_line (start -6.1 7.85) (end 186.1 7.85) (layer F.SilkS) (width 0.12))
  (fp_line (start -6.1 7.85) (end -6.1 -7.85) (layer F.SilkS) (width 0.12))
  (fp_line (start 186.5 -8.25) (end 186.5 8.25) (layer F.CrtYd) (width 0.05))
  (fp_line (start -6.5 8.25) (end 186.5 8.25) (layer F.CrtYd) (width 0.05))
  (fp_line (start -6.5 8.25) (end -6.5 -8.25) (layer F.CrtYd) (width 0.05))
  (fp_line (start -6.5 -8.25) (end 186.5 -8.25) (layer F.CrtYd) (width 0.05))
  
  (fp_line (start -4.4 7) (end 4.4 7) (layer F.Fab) (width 0.1))
  (fp_line (start -4.4 6.5) (end 4.4 6.5) (layer F.Fab) (width 0.1))
  (fp_line (start -4.4 4.4) (end 4.4 4.4) (layer F.Fab) (width 0.1))
  (fp_line (start -4.4 -6.5) (end 4.4 -6.5) (layer F.Fab) (width 0.1))
  (fp_line (start -4.4 -4.4) (end 4.4 -4.4) (layer F.Fab) (width 0.1))
  (fp_line (start -4.4 -7) (end 4.4 -7) (layer F.Fab) (width 0.1))
  (fp_line (start -.5 2) (end .5 2) (layer F.Fab) (width 0.1))
  (fp_line (start -.5 -2) (end .5 -2) (layer F.Fab) (width 0.1))
  (fp_circle (center 0 0) (end .5 0.5) (layer F.Fab) (width 0.1))
  (fp_line (start .5 -0.5) (end 2 -0.5) (layer F.Fab) (width 0.1))
  (fp_line (start 2 -0.5) (end 2 0.5) (layer F.Fab) (width 0.1))
  (fp_line (start 2 0.5) (end .5 0.5) (layer F.Fab) (width 0.1))
  (fp_line (start -.5 -0.5) (end -2 -0.5) (layer F.Fab) (width 0.1))
  (fp_line (start -2 -0.5) (end -2 0.5) (layer F.Fab) (width 0.1))
  (fp_line (start -2 0.5) (end -.5 0.5) (layer F.Fab) (width 0.1))
  (fp_line (start .5 0.5) (end .5 4.35) (layer F.Fab) (width 0.1))
  (fp_line (start -.5 0.5) (end -.5 4.35) (layer F.Fab) (width 0.1))
  (fp_line (start .5 -4.35) (end .5 -0.5) (layer F.Fab) (width 0.1))
  (fp_line (start -.5 -4.35) (end -.5 -0.5) (layer F.Fab) (width 0.1))
  (fp_circle (center 0 0) (end 4.4 0) (layer F.Fab) (width 0.1))
  (fp_line (start 4.4 -7.75) (end 4.4 7.75) (layer F.Fab) (width 0.1))
  (fp_line (start 5.6 -7.75) (end 5.6 7.75) (layer F.Fab) (width 0.1))
  (fp_line (start 4.4 -7.75) (end 5.6 -7.75) (layer F.Fab) (width 0.1))
  (fp_line (start 4.4 7.75) (end 5.6 7.75) (layer F.Fab) (width 0.1))
  (fp_line (start 5.6 7) (end 14.4 7) (layer F.Fab) (width 0.1))
  (fp_line (start 5.6 6.5) (end 14.4 6.5) (layer F.Fab) (width 0.1))
  (fp_line (start 5.6 4.4) (end 14.4 4.4) (layer F.Fab) (width 0.1))
  (fp_line (start 5.6 -6.5) (end 14.4 -6.5) (layer F.Fab) (width 0.1))
  (fp_line (start 5.6 -4.4) (end 14.4 -4.4) (layer F.Fab) (width 0.1))
  (fp_line (start 5.6 -7) (end 14.4 -7) (layer F.Fab) (width 0.1))
  (fp_line (start 9.5 2) (end 10.5 2) (layer F.Fab) (width 0.1))
  (fp_line (start 9.5 -2) (end 10.5 -2) (layer F.Fab) (width 0.1))
  (fp_circle (center 10.0 0) (end 10.5 0.5) (layer F.Fab) (width 0.1))
  (fp_line (start 10.5 -0.5) (end 12.0 -0.5) (layer F.Fab) (width 0.1))
  (fp_line (start 12.0 -0.5) (end 12.0 0.5) (layer F.Fab) (width 0.1))
  (fp_line (start 12.0 0.5) (end 10.5 0.5) (layer F.Fab) (width 0.1))
  (fp_line (start 9.5 -0.5) (end 8.0 -0.5) (layer F.Fab) (width 0.1))
  (fp_line (start 8.0 -0.5) (end 8.0 0.5) (layer F.Fab) (width 0.1))
  (fp_line (start 8.0 0.5) (end 9.5 0.5) (layer F.Fab) (width 0.1))
  (fp_line (start 10.5 0.5) (end 10.5 4.35) (layer F.Fab) (width 0.1))
  (fp_line (start 9.5 0.5) (end 9.5 4.35) (layer F.Fab) (width 0.1))
  (fp_line (start 10.5 -4.35) (end 10.5 -0.5) (layer F.Fab) (width 0.1))
  (fp_line (start 9.5 -4.35) (end 9.5 -0.5) (layer F.Fab) (width 0.1))
  (fp_circle (center 10.0 0) (end 14.4 0) (layer F.Fab) (width 0.1))
  (fp_line (start 14.4 -7.75) (end 14.4 7.75) (layer F.Fab) (width 0.1))
  (fp_line (start 15.6 -7.75) (end 15.6 7.75) (layer F.Fab) (width 0.1))
  (fp_line (start 14.4 -7.75) (end 15.6 -7.75) (layer F.Fab) (width 0.1))
  (fp_line (start 14.4 7.75) (end 15.6 7.75) (layer F.Fab) (width 0.1))
  (fp_line (start 15.6 7) (end 24.4 7) (layer F.Fab) (width 0.1))
  (fp_line (start 15.6 6.5) (end 24.4 6.5) (layer F.Fab) (width 0.1))
  (fp_line (start 15.6 4.4) (end 24.4 4.4) (layer F.Fab) (width 0.1))
  (fp_line (start 15.6 -6.5) (end 24.4 -6.5) (layer F.Fab) (width 0.1))
  (fp_line (start 15.6 -4.4) (end 24.4 -4.4) (layer F.Fab) (width 0.1))
  (fp_line (start 15.6 -7) (end 24.4 -7) (layer F.Fab) (width 0.1))
  (fp_line (start 19.5 2) (end 20.5 2) (layer F.Fab) (width 0.1))
  (fp_line (start 19.5 -2) (end 20.5 -2) (layer F.Fab) (width 0.1))
  (fp_circle (center 20.0 0) (end 20.5 0.5) (layer F.Fab) (width 0.1))
  (fp_line (start 20.5 -0.5) (end 22.0 -0.5) (layer F.Fab) (width 0.1))
  (fp_line (start 22.0 -0.5) (end 22.0 0.5) (layer F.Fab) (width 0.1))
  (fp_line (start 22.0 0.5) (end 20.5 0.5) (layer F.Fab) (width 0.1))
  (fp_line (start 19.5 -0.5) (end 18.0 -0.5) (layer F.Fab) (width 0.1))
  (fp_line (start 18.0 -0.5) (end 18.0 0.5) (layer F.Fab) (width 0.1))
  (fp_line (start 18.0 0.5) (end 19.5 0.5) (layer F.Fab) (width 0.1))
  (fp_line (start 20.5 0.5) (end 20.5 4.35) (layer F.Fab) (width 0.1))
  (fp_line (start 19.5 0.5) (end 19.5 4.35) (layer F.Fab) (width 0.1))
  (fp_line (start 20.5 -4.35) (end 20.5 -0.5) (layer F.Fab) (width 0.1))
  (fp_line (start 19.5 -4.35) (end 19.5 -0.5) (layer F.Fab) (width 0.1))
  (fp_circle (center 20.0 0) (end 24.4 0) (layer F.Fab) (width 0.1))
  (fp_line (start 24.4 -7.75) (end 24.4 7.75) (layer F.Fab) (width 0.1))
  (fp_line (start 25.6 -7.75) (end 25.6 7.75) (layer F.Fab) (width 0.1))
  (fp_line (start 24.4 -7.75) (end 25.6 -7.75) (layer F.Fab) (width 0.1))
  (fp_line (start 24.4 7.75) (end 25.6 7.75) (layer F.Fab) (width 0.1))
  (fp_line (start 25.6 7) (end 34.4 7) (layer F.Fab) (width 0.1))
  (fp_line (start 25.6 6.5) (end 34.4 6.5) (layer F.Fab) (width 0.1))
  (fp_line (start 25.6 4.4) (end 34.4 4.4) (layer F.Fab) (width 0.1))
  (fp_line (start 25.6 -6.5) (end 34.4 -6.5) (layer F.Fab) (width 0.1))
  (fp_line (start 25.6 -4.4) (end 34.4 -4.4) (layer F.Fab) (width 0.1))
  (fp_line (start 25.6 -7) (end 34.4 -7) (layer F.Fab) (width 0.1))
  (fp_line (start 29.5 2) (end 30.5 2) (layer F.Fab) (width 0.1))
  (fp_line (start 29.5 -2) (end 30.5 -2) (layer F.Fab) (width 0.1))
  (fp_circle (center 30.0 0) (end 30.5 0.5) (layer F.Fab) (width 0.1))
  (fp_line (start 30.5 -0.5) (end 32.0 -0.5) (layer F.Fab) (width 0.1))
  (fp_line (start 32.0 -0.5) (end 32.0 0.5) (layer F.Fab) (width 0.1))
  (fp_line (start 32.0 0.5) (end 30.5 0.5) (layer F.Fab) (width 0.1))
  (fp_line (start 29.5 -0.5) (end 28.0 -0.5) (layer F.Fab) (width 0.1))
  (fp_line (start 28.0 -0.5) (end 28.0 0.5) (layer F.Fab) (width 0.1))
  (fp_line (start 28.0 0.5) (end 29.5 0.5) (layer F.Fab) (width 0.1))
  (fp_line (start 30.5 0.5) (end 30.5 4.35) (layer F.Fab) (width 0.1))
  (fp_line (start 29.5 0.5) (end 29.5 4.35) (layer F.Fab) (width 0.1))
  (fp_line (start 30.5 -4.35) (end 30.5 -0.5) (layer F.Fab) (width 0.1))
  (fp_line (start 29.5 -4.35) (end 29.5 -0.5) (layer F.Fab) (width 0.1))
  (fp_circle (center 30.0 0) (end 34.4 0) (layer F.Fab) (width 0.1))
  (fp_line (start 34.4 -7.75) (end 34.4 7.75) (layer F.Fab) (width 0.1))
  (fp_line (start 35.6 -7.75) (end 35.6 7.75) (layer F.Fab) (width 0.1))
  (fp_line (start 34.4 -7.75) (end 35.6 -7.75) (layer F.Fab) (width 0.1))
  (fp_line (start 34.4 7.75) (end 35.6 7.75) (layer F.Fab) (width 0.1))
  (fp_line (start 35.6 7) (end 44.4 7) (layer F.Fab) (width 0.1))
  (fp_line (start 35.6 6.5) (end 44.4 6.5) (layer F.Fab) (width 0.1))
  (fp_line (start 35.6 4.4) (end 44.4 4.4) (layer F.Fab) (width 0.1))
  (fp_line (start 35.6 -6.5) (end 44.4 -6.5) (layer F.Fab) (width 0.1))
  (fp_line (start 35.6 -4.4) (end 44.4 -4.4) (layer F.Fab) (width 0.1))
  (fp_line (start 35.6 -7) (end 44.4 -7) (layer F.Fab) (width 0.1))
  (fp_line (start 39.5 2) (end 40.5 2) (layer F.Fab) (width 0.1))
  (fp_line (start 39.5 -2) (end 40.5 -2) (layer F.Fab) (width 0.1))
  (fp_circle (center 40.0 0) (end 40.5 0.5) (layer F.Fab) (width 0.1))
  (fp_line (start 40.5 -0.5) (end 42.0 -0.5) (layer F.Fab) (width 0.1))
  (fp_line (start 42.0 -0.5) (end 42.0 0.5) (layer F.Fab) (width 0.1))
  (fp_line (start 42.0 0.5) (end 40.5 0.5) (layer F.Fab) (width 0.1))
  (fp_line (start 39.5 -0.5) (end 38.0 -0.5) (layer F.Fab) (width 0.1))
  (fp_line (start 38.0 -0.5) (end 38.0 0.5) (layer F.Fab) (width 0.1))
  (fp_line (start 38.0 0.5) (end 39.5 0.5) (layer F.Fab) (width 0.1))
  (fp_line (start 40.5 0.5) (end 40.5 4.35) (layer F.Fab) (width 0.1))
  (fp_line (start 39.5 0.5) (end 39.5 4.35) (layer F.Fab) (width 0.1))
  (fp_line (start 40.5 -4.35) (end 40.5 -0.5) (layer F.Fab) (width 0.1))
  (fp_line (start 39.5 -4.35) (end 39.5 -0.5) (layer F.Fab) (width 0.1))
  (fp_circle (center 40.0 0) (end 44.4 0) (layer F.Fab) (width 0.1))
  (fp_line (start 44.4 -7.75) (end 44.4 7.75) (layer F.Fab) (width 0.1))
  (fp_line (start 45.6 -7.75) (end 45.6 7.75) (layer F.Fab) (width 0.1))
  (fp_line (start 44.4 -7.75) (end 45.6 -7.75) (layer F.Fab) (width 0.1))
  (fp_line (start 44.4 7.75) (end 45.6 7.75) (layer F.Fab) (width 0.1))
  (fp_line (start 45.6 7) (end 54.4 7) (layer F.Fab) (width 0.1))
  (fp_line (start 45.6 6.5) (end 54.4 6.5) (layer F.Fab) (width 0.1))
  (fp_line (start 45.6 4.4) (end 54.4 4.4) (layer F.Fab) (width 0.1))
  (fp_line (start 45.6 -6.5) (end 54.4 -6.5) (layer F.Fab) (width 0.1))
  (fp_line (start 45.6 -4.4) (end 54.4 -4.4) (layer F.Fab) (width 0.1))
  (fp_line (start 45.6 -7) (end 54.4 -7) (layer F.Fab) (width 0.1))
  (fp_line (start 49.5 2) (end 50.5 2) (layer F.Fab) (width 0.1))
  (fp_line (start 49.5 -2) (end 50.5 -2) (layer F.Fab) (width 0.1))
  (fp_circle (center 50.0 0) (end 50.5 0.5) (layer F.Fab) (width 0.1))
  (fp_line (start 50.5 -0.5) (end 52.0 -0.5) (layer F.Fab) (width 0.1))
  (fp_line (start 52.0 -0.5) (end 52.0 0.5) (layer F.Fab) (width 0.1))
  (fp_line (start 52.0 0.5) (end 50.5 0.5) (layer F.Fab) (width 0.1))
  (fp_line (start 49.5 -0.5) (end 48.0 -0.5) (layer F.Fab) (width 0.1))
  (fp_line (start 48.0 -0.5) (end 48.0 0.5) (layer F.Fab) (width 0.1))
  (fp_line (start 48.0 0.5) (end 49.5 0.5) (layer F.Fab) (width 0.1))
  (fp_line (start 50.5 0.5) (end 50.5 4.35) (layer F.Fab) (width 0.1))
  (fp_line (start 49.5 0.5) (end 49.5 4.35) (layer F.Fab) (width 0.1))
  (fp_line (start 50.5 -4.35) (end 50.5 -0.5) (layer F.Fab) (width 0.1))
  (fp_line (start 49.5 -4.35) (end 49.5 -0.5) (layer F.Fab) (width 0.1))
  (fp_circle (center 50.0 0) (end 54.4 0) (layer F.Fab) (width 0.1))
  (fp_line (start 54.4 -7.75) (end 54.4 7.75) (layer F.Fab) (width 0.1))
  (fp_line (start 55.6 -7.75) (end 55.6 7.75) (layer F.Fab) (width 0.1))
  (fp_line (start 54.4 -7.75) (end 55.6 -7.75) (layer F.Fab) (width 0.1))
  (fp_line (start 54.4 7.75) (end 55.6 7.75) (layer F.Fab) (width 0.1))
  (fp_line (start 55.6 7) (end 64.4 7) (layer F.Fab) (width 0.1))
  (fp_line (start 55.6 6.5) (end 64.4 6.5) (layer F.Fab) (width 0.1))
  (fp_line (start 55.6 4.4) (end 64.4 4.4) (layer F.Fab) (width 0.1))
  (fp_line (start 55.6 -6.5) (end 64.4 -6.5) (layer F.Fab) (width 0.1))
  (fp_line (start 55.6 -4.4) (end 64.4 -4.4) (layer F.Fab) (width 0.1))
  (fp_line (start 55.6 -7) (end 64.4 -7) (layer F.Fab) (width 0.1))
  (fp_line (start 59.5 2) (end 60.5 2) (layer F.Fab) (width 0.1))
  (fp_line (start 59.5 -2) (end 60.5 -2) (layer F.Fab) (width 0.1))
  (fp_circle (center 60.0 0) (end 60.5 0.5) (layer F.Fab) (width 0.1))
  (fp_line (start 60.5 -0.5) (end 62.0 -0.5) (layer F.Fab) (width 0.1))
  (fp_line (start 62.0 -0.5) (end 62.0 0.5) (layer F.Fab) (width 0.1))
  (fp_line (start 62.0 0.5) (end 60.5 0.5) (layer F.Fab) (width 0.1))
  (fp_line (start 59.5 -0.5) (end 58.0 -0.5) (layer F.Fab) (width 0.1))
  (fp_line (start 58.0 -0.5) (end 58.0 0.5) (layer F.Fab) (width 0.1))
  (fp_line (start 58.0 0.5) (end 59.5 0.5) (layer F.Fab) (width 0.1))
  (fp_line (start 60.5 0.5) (end 60.5 4.35) (layer F.Fab) (width 0.1))
  (fp_line (start 59.5 0.5) (end 59.5 4.35) (layer F.Fab) (width 0.1))
  (fp_line (start 60.5 -4.35) (end 60.5 -0.5) (layer F.Fab) (width 0.1))
  (fp_line (start 59.5 -4.35) (end 59.5 -0.5) (layer F.Fab) (width 0.1))
  (fp_circle (center 60.0 0) (end 64.4 0) (layer F.Fab) (width 0.1))
  (fp_line (start 64.4 -7.75) (end 64.4 7.75) (layer F.Fab) (width 0.1))
  (fp_line (start 65.6 -7.75) (end 65.6 7.75) (layer F.Fab) (width 0.1))
  (fp_line (start 64.4 -7.75) (end 65.6 -7.75) (layer F.Fab) (width 0.1))
  (fp_line (start 64.4 7.75) (end 65.6 7.75) (layer F.Fab) (width 0.1))
  (fp_line (start 65.6 7) (end 74.4 7) (layer F.Fab) (width 0.1))
  (fp_line (start 65.6 6.5) (end 74.4 6.5) (layer F.Fab) (width 0.1))
  (fp_line (start 65.6 4.4) (end 74.4 4.4) (layer F.Fab) (width 0.1))
  (fp_line (start 65.6 -6.5) (end 74.4 -6.5) (layer F.Fab) (width 0.1))
  (fp_line (start 65.6 -4.4) (end 74.4 -4.4) (layer F.Fab) (width 0.1))
  (fp_line (start 65.6 -7) (end 74.4 -7) (layer F.Fab) (width 0.1))
  (fp_line (start 69.5 2) (end 70.5 2) (layer F.Fab) (width 0.1))
  (fp_line (start 69.5 -2) (end 70.5 -2) (layer F.Fab) (width 0.1))
  (fp_circle (center 70.0 0) (end 70.5 0.5) (layer F.Fab) (width 0.1))
  (fp_line (start 70.5 -0.5) (end 72.0 -0.5) (layer F.Fab) (width 0.1))
  (fp_line (start 72.0 -0.5) (end 72.0 0.5) (layer F.Fab) (width 0.1))
  (fp_line (start 72.0 0.5) (end 70.5 0.5) (layer F.Fab) (width 0.1))
  (fp_line (start 69.5 -0.5) (end 68.0 -0.5) (layer F.Fab) (width 0.1))
  (fp_line (start 68.0 -0.5) (end 68.0 0.5) (layer F.Fab) (width 0.1))
  (fp_line (start 68.0 0.5) (end 69.5 0.5) (layer F.Fab) (width 0.1))
  (fp_line (start 70.5 0.5) (end 70.5 4.35) (layer F.Fab) (width 0.1))
  (fp_line (start 69.5 0.5) (end 69.5 4.35) (layer F.Fab) (width 0.1))
  (fp_line (start 70.5 -4.35) (end 70.5 -0.5) (layer F.Fab) (width 0.1))
  (fp_line (start 69.5 -4.35) (end 69.5 -0.5) (layer F.Fab) (width 0.1))
  (fp_circle (center 70.0 0) (end 74.4 0) (layer F.Fab) (width 0.1))
  (fp_line (start 74.4 -7.75) (end 74.4 7.75) (layer F.Fab) (width 0.1))
  (fp_line (start 75.6 -7.75) (end 75.6 7.75) (layer F.Fab) (width 0.1))
  (fp_line (start 74.4 -7.75) (end 75.6 -7.75) (layer F.Fab) (width 0.1))
  (fp_line (start 74.4 7.75) (end 75.6 7.75) (layer F.Fab) (width 0.1))
  (fp_line (start 75.6 7) (end 84.4 7) (layer F.Fab) (width 0.1))
  (fp_line (start 75.6 6.5) (end 84.4 6.5) (layer F.Fab) (width 0.1))
  (fp_line (start 75.6 4.4) (end 84.4 4.4) (layer F.Fab) (width 0.1))
  (fp_line (start 75.6 -6.5) (end 84.4 -6.5) (layer F.Fab) (width 0.1))
  (fp_line (start 75.6 -4.4) (end 84.4 -4.4) (layer F.Fab) (width 0.1))
  (fp_line (start 75.6 -7) (end 84.4 -7) (layer F.Fab) (width 0.1))
  (fp_line (start 79.5 2) (end 80.5 2) (layer F.Fab) (width 0.1))
  (fp_line (start 79.5 -2) (end 80.5 -2) (layer F.Fab) (width 0.1))
  (fp_circle (center 80.0 0) (end 80.5 0.5) (layer F.Fab) (width 0.1))
  (fp_line (start 80.5 -0.5) (end 82.0 -0.5) (layer F.Fab) (width 0.1))
  (fp_line (start 82.0 -0.5) (end 82.0 0.5) (layer F.Fab) (width 0.1))
  (fp_line (start 82.0 0.5) (end 80.5 0.5) (layer F.Fab) (width 0.1))
  (fp_line (start 79.5 -0.5) (end 78.0 -0.5) (layer F.Fab) (width 0.1))
  (fp_line (start 78.0 -0.5) (end 78.0 0.5) (layer F.Fab) (width 0.1))
  (fp_line (start 78.0 0.5) (end 79.5 0.5) (layer F.Fab) (width 0.1))
  (fp_line (start 80.5 0.5) (end 80.5 4.35) (layer F.Fab) (width 0.1))
  (fp_line (start 79.5 0.5) (end 79.5 4.35) (layer F.Fab) (width 0.1))
  (fp_line (start 80.5 -4.35) (end 80.5 -0.5) (layer F.Fab) (width 0.1))
  (fp_line (start 79.5 -4.35) (end 79.5 -0.5) (layer F.Fab) (width 0.1))
  (fp_circle (center 80.0 0) (end 84.4 0) (layer F.Fab) (width 0.1))
  (fp_line (start 84.4 -7.75) (end 84.4 7.75) (layer F.Fab) (width 0.1))
  (fp_line (start 85.6 -7.75) (end 85.6 7.75) (layer F.Fab) (width 0.1))
  (fp_line (start 84.4 -7.75) (end 85.6 -7.75) (layer F.Fab) (width 0.1))
  (fp_line (start 84.4 7.75) (end 85.6 7.75) (layer F.Fab) (width 0.1))
  (fp_line (start 85.6 7) (end 94.4 7) (layer F.Fab) (width 0.1))
  (fp_line (start 85.6 6.5) (end 94.4 6.5) (layer F.Fab) (width 0.1))
  (fp_line (start 85.6 4.4) (end 94.4 4.4) (layer F.Fab) (width 0.1))
  (fp_line (start 85.6 -6.5) (end 94.4 -6.5) (layer F.Fab) (width 0.1))
  (fp_line (start 85.6 -4.4) (end 94.4 -4.4) (layer F.Fab) (width 0.1))
  (fp_line (start 85.6 -7) (end 94.4 -7) (layer F.Fab) (width 0.1))
  (fp_line (start 89.5 2) (end 90.5 2) (layer F.Fab) (width 0.1))
  (fp_line (start 89.5 -2) (end 90.5 -2) (layer F.Fab) (width 0.1))
  (fp_circle (center 90.0 0) (end 90.5 0.5) (layer F.Fab) (width 0.1))
  (fp_line (start 90.5 -0.5) (end 92.0 -0.5) (layer F.Fab) (width 0.1))
  (fp_line (start 92.0 -0.5) (end 92.0 0.5) (layer F.Fab) (width 0.1))
  (fp_line (start 92.0 0.5) (end 90.5 0.5) (layer F.Fab) (width 0.1))
  (fp_line (start 89.5 -0.5) (end 88.0 -0.5) (layer F.Fab) (width 0.1))
  (fp_line (start 88.0 -0.5) (end 88.0 0.5) (layer F.Fab) (width 0.1))
  (fp_line (start 88.0 0.5) (end 89.5 0.5) (layer F.Fab) (width 0.1))
  (fp_line (start 90.5 0.5) (end 90.5 4.35) (layer F.Fab) (width 0.1))
  (fp_line (start 89.5 0.5) (end 89.5 4.35) (layer F.Fab) (width 0.1))
  (fp_line (start 90.5 -4.35) (end 90.5 -0.5) (layer F.Fab) (width 0.1))
  (fp_line (start 89.5 -4.35) (end 89.5 -0.5) (layer F.Fab) (width 0.1))
  (fp_circle (center 90.0 0) (end 94.4 0) (layer F.Fab) (width 0.1))
  (fp_line (start 94.4 -7.75) (end 94.4 7.75) (layer F.Fab) (width 0.1))
  (fp_line (start 95.6 -7.75) (end 95.6 7.75) (layer F.Fab) (width 0.1))
  (fp_line (start 94.4 -7.75) (end 95.6 -7.75) (layer F.Fab) (width 0.1))
  (fp_line (start 94.4 7.75) (end 95.6 7.75) (layer F.Fab) (width 0.1))
  (fp_line (start 95.6 7) (end 104.4 7) (layer F.Fab) (width 0.1))
  (fp_line (start 95.6 6.5) (end 104.4 6.5) (layer F.Fab) (width 0.1))
  (fp_line (start 95.6 4.4) (end 104.4 4.4) (layer F.Fab) (width 0.1))
  (fp_line (start 95.6 -6.5) (end 104.4 -6.5) (layer F.Fab) (width 0.1))
  (fp_line (start 95.6 -4.4) (end 104.4 -4.4) (layer F.Fab) (width 0.1))
  (fp_line (start 95.6 -7) (end 104.4 -7) (layer F.Fab) (width 0.1))
  (fp_line (start 99.5 2) (end 100.5 2) (layer F.Fab) (width 0.1))
  (fp_line (start 99.5 -2) (end 100.5 -2) (layer F.Fab) (width 0.1))
  (fp_circle (center 100.0 0) (end 100.5 0.5) (layer F.Fab) (width 0.1))
  (fp_line (start 100.5 -0.5) (end 102.0 -0.5) (layer F.Fab) (width 0.1))
  (fp_line (start 102.0 -0.5) (end 102.0 0.5) (layer F.Fab) (width 0.1))
  (fp_line (start 102.0 0.5) (end 100.5 0.5) (layer F.Fab) (width 0.1))
  (fp_line (start 99.5 -0.5) (end 98.0 -0.5) (layer F.Fab) (width 0.1))
  (fp_line (start 98.0 -0.5) (end 98.0 0.5) (layer F.Fab) (width 0.1))
  (fp_line (start 98.0 0.5) (end 99.5 0.5) (layer F.Fab) (width 0.1))
  (fp_line (start 100.5 0.5) (end 100.5 4.35) (layer F.Fab) (width 0.1))
  (fp_line (start 99.5 0.5) (end 99.5 4.35) (layer F.Fab) (width 0.1))
  (fp_line (start 100.5 -4.35) (end 100.5 -0.5) (layer F.Fab) (width 0.1))
  (fp_line (start 99.5 -4.35) (end 99.5 -0.5) (layer F.Fab) (width 0.1))
  (fp_circle (center 100.0 0) (end 104.4 0) (layer F.Fab) (width 0.1))
  (fp_line (start 104.4 -7.75) (end 104.4 7.75) (layer F.Fab) (width 0.1))
  (fp_line (start 105.6 -7.75) (end 105.6 7.75) (layer F.Fab) (width 0.1))
  (fp_line (start 104.4 -7.75) (end 105.6 -7.75) (layer F.Fab) (width 0.1))
  (fp_line (start 104.4 7.75) (end 105.6 7.75) (layer F.Fab) (width 0.1))
  (fp_line (start 105.6 7) (end 114.4 7) (layer F.Fab) (width 0.1))
  (fp_line (start 105.6 6.5) (end 114.4 6.5) (layer F.Fab) (width 0.1))
  (fp_line (start 105.6 4.4) (end 114.4 4.4) (layer F.Fab) (width 0.1))
  (fp_line (start 105.6 -6.5) (end 114.4 -6.5) (layer F.Fab) (width 0.1))
  (fp_line (start 105.6 -4.4) (end 114.4 -4.4) (layer F.Fab) (width 0.1))
  (fp_line (start 105.6 -7) (end 114.4 -7) (layer F.Fab) (width 0.1))
  (fp_line (start 109.5 2) (end 110.5 2) (layer F.Fab) (width 0.1))
  (fp_line (start 109.5 -2) (end 110.5 -2) (layer F.Fab) (width 0.1))
  (fp_circle (center 110.0 0) (end 110.5 0.5) (layer F.Fab) (width 0.1))
  (fp_line (start 110.5 -0.5) (end 112.0 -0.5) (layer F.Fab) (width 0.1))
  (fp_line (start 112.0 -0.5) (end 112.0 0.5) (layer F.Fab) (width 0.1))
  (fp_line (start 112.0 0.5) (end 110.5 0.5) (layer F.Fab) (width 0.1))
  (fp_line (start 109.5 -0.5) (end 108.0 -0.5) (layer F.Fab) (width 0.1))
  (fp_line (start 108.0 -0.5) (end 108.0 0.5) (layer F.Fab) (width 0.1))
  (fp_line (start 108.0 0.5) (end 109.5 0.5) (layer F.Fab) (width 0.1))
  (fp_line (start 110.5 0.5) (end 110.5 4.35) (layer F.Fab) (width 0.1))
  (fp_line (start 109.5 0.5) (end 109.5 4.35) (layer F.Fab) (width 0.1))
  (fp_line (start 110.5 -4.35) (end 110.5 -0.5) (layer F.Fab) (width 0.1))
  (fp_line (start 109.5 -4.35) (end 109.5 -0.5) (layer F.Fab) (width 0.1))
  (fp_circle (center 110.0 0) (end 114.4 0) (layer F.Fab) (width 0.1))
  (fp_line (start 114.4 -7.75) (end 114.4 7.75) (layer F.Fab) (width 0.1))
  (fp_line (start 115.6 -7.75) (end 115.6 7.75) (layer F.Fab) (width 0.1))
  (fp_line (start 114.4 -7.75) (end 115.6 -7.75) (layer F.Fab) (width 0.1))
  (fp_line (start 114.4 7.75) (end 115.6 7.75) (layer F.Fab) (width 0.1))
  (fp_line (start 115.6 7) (end 124.4 7) (layer F.Fab) (width 0.1))
  (fp_line (start 115.6 6.5) (end 124.4 6.5) (layer F.Fab) (width 0.1))
  (fp_line (start 115.6 4.4) (end 124.4 4.4) (layer F.Fab) (width 0.1))
  (fp_line (start 115.6 -6.5) (end 124.4 -6.5) (layer F.Fab) (width 0.1))
  (fp_line (start 115.6 -4.4) (end 124.4 -4.4) (layer F.Fab) (width 0.1))
  (fp_line (start 115.6 -7) (end 124.4 -7) (layer F.Fab) (width 0.1))
  (fp_line (start 119.5 2) (end 120.5 2) (layer F.Fab) (width 0.1))
  (fp_line (start 119.5 -2) (end 120.5 -2) (layer F.Fab) (width 0.1))
  (fp_circle (center 120.0 0) (end 120.5 0.5) (layer F.Fab) (width 0.1))
  (fp_line (start 120.5 -0.5) (end 122.0 -0.5) (layer F.Fab) (width 0.1))
  (fp_line (start 122.0 -0.5) (end 122.0 0.5) (layer F.Fab) (width 0.1))
  (fp_line (start 122.0 0.5) (end 120.5 0.5) (layer F.Fab) (width 0.1))
  (fp_line (start 119.5 -0.5) (end 118.0 -0.5) (layer F.Fab) (width 0.1))
  (fp_line (start 118.0 -0.5) (end 118.0 0.5) (layer F.Fab) (width 0.1))
  (fp_line (start 118.0 0.5) (end 119.5 0.5) (layer F.Fab) (width 0.1))
  (fp_line (start 120.5 0.5) (end 120.5 4.35) (layer F.Fab) (width 0.1))
  (fp_line (start 119.5 0.5) (end 119.5 4.35) (layer F.Fab) (width 0.1))
  (fp_line (start 120.5 -4.35) (end 120.5 -0.5) (layer F.Fab) (width 0.1))
  (fp_line (start 119.5 -4.35) (end 119.5 -0.5) (layer F.Fab) (width 0.1))
  (fp_circle (center 120.0 0) (end 124.4 0) (layer F.Fab) (width 0.1))
  (fp_line (start 124.4 -7.75) (end 124.4 7.75) (layer F.Fab) (width 0.1))
  (fp_line (start 125.6 -7.75) (end 125.6 7.75) (layer F.Fab) (width 0.1))
  (fp_line (start 124.4 -7.75) (end 125.6 -7.75) (layer F.Fab) (width 0.1))
  (fp_line (start 124.4 7.75) (end 125.6 7.75) (layer F.Fab) (width 0.1))
  (fp_line (start 125.6 7) (end 134.4 7) (layer F.Fab) (width 0.1))
  (fp_line (start 125.6 6.5) (end 134.4 6.5) (layer F.Fab) (width 0.1))
  (fp_line (start 125.6 4.4) (end 134.4 4.4) (layer F.Fab) (width 0.1))
  (fp_line (start 125.6 -6.5) (end 134.4 -6.5) (layer F.Fab) (width 0.1))
  (fp_line (start 125.6 -4.4) (end 134.4 -4.4) (layer F.Fab) (width 0.1))
  (fp_line (start 125.6 -7) (end 134.4 -7) (layer F.Fab) (width 0.1))
  (fp_line (start 129.5 2) (end 130.5 2) (layer F.Fab) (width 0.1))
  (fp_line (start 129.5 -2) (end 130.5 -2) (layer F.Fab) (width 0.1))
  (fp_circle (center 130.0 0) (end 130.5 0.5) (layer F.Fab) (width 0.1))
  (fp_line (start 130.5 -0.5) (end 132.0 -0.5) (layer F.Fab) (width 0.1))
  (fp_line (start 132.0 -0.5) (end 132.0 0.5) (layer F.Fab) (width 0.1))
  (fp_line (start 132.0 0.5) (end 130.5 0.5) (layer F.Fab) (width 0.1))
  (fp_line (start 129.5 -0.5) (end 128.0 -0.5) (layer F.Fab) (width 0.1))
  (fp_line (start 128.0 -0.5) (end 128.0 0.5) (layer F.Fab) (width 0.1))
  (fp_line (start 128.0 0.5) (end 129.5 0.5) (layer F.Fab) (width 0.1))
  (fp_line (start 130.5 0.5) (end 130.5 4.35) (layer F.Fab) (width 0.1))
  (fp_line (start 129.5 0.5) (end 129.5 4.35) (layer F.Fab) (width 0.1))
  (fp_line (start 130.5 -4.35) (end 130.5 -0.5) (layer F.Fab) (width 0.1))
  (fp_line (start 129.5 -4.35) (end 129.5 -0.5) (layer F.Fab) (width 0.1))
  (fp_circle (center 130.0 0) (end 134.4 0) (layer F.Fab) (width 0.1))
  (fp_line (start 134.4 -7.75) (end 134.4 7.75) (layer F.Fab) (width 0.1))
  (fp_line (start 135.6 -7.75) (end 135.6 7.75) (layer F.Fab) (width 0.1))
  (fp_line (start 134.4 -7.75) (end 135.6 -7.75) (layer F.Fab) (width 0.1))
  (fp_line (start 134.4 7.75) (end 135.6 7.75) (layer F.Fab) (width 0.1))
  (fp_line (start 135.6 7) (end 144.4 7) (layer F.Fab) (width 0.1))
  (fp_line (start 135.6 6.5) (end 144.4 6.5) (layer F.Fab) (width 0.1))
  (fp_line (start 135.6 4.4) (end 144.4 4.4) (layer F.Fab) (width 0.1))
  (fp_line (start 135.6 -6.5) (end 144.4 -6.5) (layer F.Fab) (width 0.1))
  (fp_line (start 135.6 -4.4) (end 144.4 -4.4) (layer F.Fab) (width 0.1))
  (fp_line (start 135.6 -7) (end 144.4 -7) (layer F.Fab) (width 0.1))
  (fp_line (start 139.5 2) (end 140.5 2) (layer F.Fab) (width 0.1))
  (fp_line (start 139.5 -2) (end 140.5 -2) (layer F.Fab) (width 0.1))
  (fp_circle (center 140.0 0) (end 140.5 0.5) (layer F.Fab) (width 0.1))
  (fp_line (start 140.5 -0.5) (end 142.0 -0.5) (layer F.Fab) (width 0.1))
  (fp_line (start 142.0 -0.5) (end 142.0 0.5) (layer F.Fab) (width 0.1))
  (fp_line (start 142.0 0.5) (end 140.5 0.5) (layer F.Fab) (width 0.1))
  (fp_line (start 139.5 -0.5) (end 138.0 -0.5) (layer F.Fab) (width 0.1))
  (fp_line (start 138.0 -0.5) (end 138.0 0.5) (layer F.Fab) (width 0.1))
  (fp_line (start 138.0 0.5) (end 139.5 0.5) (layer F.Fab) (width 0.1))
  (fp_line (start 140.5 0.5) (end 140.5 4.35) (layer F.Fab) (width 0.1))
  (fp_line (start 139.5 0.5) (end 139.5 4.35) (layer F.Fab) (width 0.1))
  (fp_line (start 140.5 -4.35) (end 140.5 -0.5) (layer F.Fab) (width 0.1))
  (fp_line (start 139.5 -4.35) (end 139.5 -0.5) (layer F.Fab) (width 0.1))
  (fp_circle (center 140.0 0) (end 144.4 0) (layer F.Fab) (width 0.1))
  (fp_line (start 144.4 -7.75) (end 144.4 7.75) (layer F.Fab) (width 0.1))
  (fp_line (start 145.6 -7.75) (end 145.6 7.75) (layer F.Fab) (width 0.1))
  (fp_line (start 144.4 -7.75) (end 145.6 -7.75) (layer F.Fab) (width 0.1))
  (fp_line (start 144.4 7.75) (end 145.6 7.75) (layer F.Fab) (width 0.1))
  (fp_line (start 145.6 7) (end 154.4 7) (layer F.Fab) (width 0.1))
  (fp_line (start 145.6 6.5) (end 154.4 6.5) (layer F.Fab) (width 0.1))
  (fp_line (start 145.6 4.4) (end 154.4 4.4) (layer F.Fab) (width 0.1))
  (fp_line (start 145.6 -6.5) (end 154.4 -6.5) (layer F.Fab) (width 0.1))
  (fp_line (start 145.6 -4.4) (end 154.4 -4.4) (layer F.Fab) (width 0.1))
  (fp_line (start 145.6 -7) (end 154.4 -7) (layer F.Fab) (width 0.1))
  (fp_line (start 149.5 2) (end 150.5 2) (layer F.Fab) (width 0.1))
  (fp_line (start 149.5 -2) (end 150.5 -2) (layer F.Fab) (width 0.1))
  (fp_circle (center 150.0 0) (end 150.5 0.5) (layer F.Fab) (width 0.1))
  (fp_line (start 150.5 -0.5) (end 152.0 -0.5) (layer F.Fab) (width 0.1))
  (fp_line (start 152.0 -0.5) (end 152.0 0.5) (layer F.Fab) (width 0.1))
  (fp_line (start 152.0 0.5) (end 150.5 0.5) (layer F.Fab) (width 0.1))
  (fp_line (start 149.5 -0.5) (end 148.0 -0.5) (layer F.Fab) (width 0.1))
  (fp_line (start 148.0 -0.5) (end 148.0 0.5) (layer F.Fab) (width 0.1))
  (fp_line (start 148.0 0.5) (end 149.5 0.5) (layer F.Fab) (width 0.1))
  (fp_line (start 150.5 0.5) (end 150.5 4.35) (layer F.Fab) (width 0.1))
  (fp_line (start 149.5 0.5) (end 149.5 4.35) (layer F.Fab) (width 0.1))
  (fp_line (start 150.5 -4.35) (end 150.5 -0.5) (layer F.Fab) (width 0.1))
  (fp_line (start 149.5 -4.35) (end 149.5 -0.5) (layer F.Fab) (width 0.1))
  (fp_circle (center 150.0 0) (end 154.4 0) (layer F.Fab) (width 0.1))
  (fp_line (start 154.4 -7.75) (end 154.4 7.75) (layer F.Fab) (width 0.1))
  (fp_line (start 155.6 -7.75) (end 155.6 7.75) (layer F.Fab) (width 0.1))
  (fp_line (start 154.4 -7.75) (end 155.6 -7.75) (layer F.Fab) (width 0.1))
  (fp_line (start 154.4 7.75) (end 155.6 7.75) (layer F.Fab) (width 0.1))
  (fp_line (start 155.6 7) (end 164.4 7) (layer F.Fab) (width 0.1))
  (fp_line (start 155.6 6.5) (end 164.4 6.5) (layer F.Fab) (width 0.1))
  (fp_line (start 155.6 4.4) (end 164.4 4.4) (layer F.Fab) (width 0.1))
  (fp_line (start 155.6 -6.5) (end 164.4 -6.5) (layer F.Fab) (width 0.1))
  (fp_line (start 155.6 -4.4) (end 164.4 -4.4) (layer F.Fab) (width 0.1))
  (fp_line (start 155.6 -7) (end 164.4 -7) (layer F.Fab) (width 0.1))
  (fp_line (start 159.5 2) (end 160.5 2) (layer F.Fab) (width 0.1))
  (fp_line (start 159.5 -2) (end 160.5 -2) (layer F.Fab) (width 0.1))
  (fp_circle (center 160.0 0) (end 160.5 0.5) (layer F.Fab) (width 0.1))
  (fp_line (start 160.5 -0.5) (end 162.0 -0.5) (layer F.Fab) (width 0.1))
  (fp_line (start 162.0 -0.5) (end 162.0 0.5) (layer F.Fab) (width 0.1))
  (fp_line (start 162.0 0.5) (end 160.5 0.5) (layer F.Fab) (width 0.1))
  (fp_line (start 159.5 -0.5) (end 158.0 -0.5) (layer F.Fab) (width 0.1))
  (fp_line (start 158.0 -0.5) (end 158.0 0.5) (layer F.Fab) (width 0.1))
  (fp_line (start 158.0 0.5) (end 159.5 0.5) (layer F.Fab) (width 0.1))
  (fp_line (start 160.5 0.5) (end 160.5 4.35) (layer F.Fab) (width 0.1))
  (fp_line (start 159.5 0.5) (end 159.5 4.35) (layer F.Fab) (width 0.1))
  (fp_line (start 160.5 -4.35) (end 160.5 -0.5) (layer F.Fab) (width 0.1))
  (fp_line (start 159.5 -4.35) (end 159.5 -0.5) (layer F.Fab) (width 0.1))
  (fp_circle (center 160.0 0) (end 164.4 0) (layer F.Fab) (width 0.1))
  (fp_line (start 164.4 -7.75) (end 164.4 7.75) (layer F.Fab) (width 0.1))
  (fp_line (start 165.6 -7.75) (end 165.6 7.75) (layer F.Fab) (width 0.1))
  (fp_line (start 164.4 -7.75) (end 165.6 -7.75) (layer F.Fab) (width 0.1))
  (fp_line (start 164.4 7.75) (end 165.6 7.75) (layer F.Fab) (width 0.1))
  (fp_line (start 165.6 7) (end 174.4 7) (layer F.Fab) (width 0.1))
  (fp_line (start 165.6 6.5) (end 174.4 6.5) (layer F.Fab) (width 0.1))
  (fp_line (start 165.6 4.4) (end 174.4 4.4) (layer F.Fab) (width 0.1))
  (fp_line (start 165.6 -6.5) (end 174.4 -6.5) (layer F.Fab) (width 0.1))
  (fp_line (start 165.6 -4.4) (end 174.4 -4.4) (layer F.Fab) (width 0.1))
  (fp_line (start 165.6 -7) (end 174.4 -7) (layer F.Fab) (width 0.1))
  (fp_line (start 169.5 2) (end 170.5 2) (layer F.Fab) (width 0.1))
  (fp_line (start 169.5 -2) (end 170.5 -2) (layer F.Fab) (width 0.1))
  (fp_circle (center 170.0 0) (end 170.5 0.5) (layer F.Fab) (width 0.1))
  (fp_line (start 170.5 -0.5) (end 172.0 -0.5) (layer F.Fab) (width 0.1))
  (fp_line (start 172.0 -0.5) (end 172.0 0.5) (layer F.Fab) (width 0.1))
  (fp_line (start 172.0 0.5) (end 170.5 0.5) (layer F.Fab) (width 0.1))
  (fp_line (start 169.5 -0.5) (end 168.0 -0.5) (layer F.Fab) (width 0.1))
  (fp_line (start 168.0 -0.5) (end 168.0 0.5) (layer F.Fab) (width 0.1))
  (fp_line (start 168.0 0.5) (end 169.5 0.5) (layer F.Fab) (width 0.1))
  (fp_line (start 170.5 0.5) (end 170.5 4.35) (layer F.Fab) (width 0.1))
  (fp_line (start 169.5 0.5) (end 169.5 4.35) (layer F.Fab) (width 0.1))
  (fp_line (start 170.5 -4.35) (end 170.5 -0.5) (layer F.Fab) (width 0.1))
  (fp_line (start 169.5 -4.35) (end 169.5 -0.5) (layer F.Fab) (width 0.1))
  (fp_circle (center 170.0 0) (end 174.4 0) (layer F.Fab) (width 0.1))
  (fp_line (start 174.4 -7.75) (end 174.4 7.75) (layer F.Fab) (width 0.1))
  (fp_line (start 175.6 -7.75) (end 175.6 7.75) (layer F.Fab) (width 0.1))
  (fp_line (start 174.4 -7.75) (end 175.6 -7.75) (layer F.Fab) (width 0.1))
  (fp_line (start 174.4 7.75) (end 175.6 7.75) (layer F.Fab) (width 0.1))
  (fp_line (start 175.6 7) (end 184.4 7) (layer F.Fab) (width 0.1))
  (fp_line (start 175.6 6.5) (end 184.4 6.5) (layer F.Fab) (width 0.1))
  (fp_line (start 175.6 4.4) (end 184.4 4.4) (layer F.Fab) (width 0.1))
  (fp_line (start 175.6 -6.5) (end 184.4 -6.5) (layer F.Fab) (width 0.1))
  (fp_line (start 175.6 -4.4) (end 184.4 -4.4) (layer F.Fab) (width 0.1))
  (fp_line (start 175.6 -7) (end 184.4 -7) (layer F.Fab) (width 0.1))
  (fp_line (start 179.5 2) (end 180.5 2) (layer F.Fab) (width 0.1))
  (fp_line (start 179.5 -2) (end 180.5 -2) (layer F.Fab) (width 0.1))
  (fp_circle (center 180.0 0) (end 180.5 0.5) (layer F.Fab) (width 0.1))
  (fp_line (start 180.5 -0.5) (end 182.0 -0.5) (layer F.Fab) (width 0.1))
  (fp_line (start 182.0 -0.5) (end 182.0 0.5) (layer F.Fab) (width 0.1))
  (fp_line (start 182.0 0.5) (end 180.5 0.5) (layer F.Fab) (width 0.1))
  (fp_line (start 179.5 -0.5) (end 178.0 -0.5) (layer F.Fab) (width 0.1))
  (fp_line (start 178.0 -0.5) (end 178.0 0.5) (layer F.Fab) (width 0.1))
  (fp_line (start 178.0 0.5) (end 179.5 0.5) (layer F.Fab) (width 0.1))
  (fp_line (start 180.5 0.5) (end 180.5 4.35) (layer F.Fab) (width 0.1))
  (fp_line (start 179.5 0.5) (end 179.5 4.35) (layer F.Fab) (width 0.1))
  (fp_line (start 180.5 -4.35) (end 180.5 -0.5) (layer F.Fab) (width 0.1))
  (fp_line (start 179.5 -4.35) (end 179.5 -0.5) (layer F.Fab) (width 0.1))
  (fp_circle (center 180.0 0) (end 184.4 0) (layer F.Fab) (width 0.1))
  (fp_text user %R (at 90.08 -10.16) (layer F.Fab)
    (effects (font (size 1 1) (thickness 0.15)))
  )
  
  (pad 1 thru_hole rect (at 0 0) (size 3.3 6.6) (drill 2.2) (layers *.Cu *.Mask))
  (pad 2 thru_hole oval (at 10.0 0) (size 3.3 6.6) (drill 2.2) (layers *.Cu *.Mask))
  (pad 3 thru_hole oval (at 20.0 0) (size 3.3 6.6) (drill 2.2) (layers *.Cu *.Mask))
  (pad 4 thru_hole oval (at 30.0 0) (size 3.3 6.6) (drill 2.2) (layers *.Cu *.Mask))
  (pad 5 thru_hole oval (at 40.0 0) (size 3.3 6.6) (drill 2.2) (layers *.Cu *.Mask))
  (pad 6 thru_hole oval (at 50.0 0) (size 3.3 6.6) (drill 2.2) (layers *.Cu *.Mask))
  (pad 7 thru_hole oval (at 60.0 0) (size 3.3 6.6) (drill 2.2) (layers *.Cu *.Mask))
  (pad 8 thru_hole oval (at 70.0 0) (size 3.3 6.6) (drill 2.2) (layers *.Cu *.Mask))
  (pad 9 thru_hole oval (at 80.0 0) (size 3.3 6.6) (drill 2.2) (layers *.Cu *.Mask))
  (pad 10 thru_hole oval (at 90.0 0) (size 3.3 6.6) (drill 2.2) (layers *.Cu *.Mask))
  (pad 11 thru_hole oval (at 100.0 0) (size 3.3 6.6) (drill 2.2) (layers *.Cu *.Mask))
  (pad 12 thru_hole oval (at 110.0 0) (size 3.3 6.6) (drill 2.2) (layers *.Cu *.Mask))
  (pad 13 thru_hole oval (at 120.0 0) (size 3.3 6.6) (drill 2.2) (layers *.Cu *.Mask))
  (pad 14 thru_hole oval (at 130.0 0) (size 3.3 6.6) (drill 2.2) (layers *.Cu *.Mask))
  (pad 15 thru_hole oval (at 140.0 0) (size 3.3 6.6) (drill 2.2) (layers *.Cu *.Mask))
  (pad 16 thru_hole oval (at 150.0 0) (size 3.3 6.6) (drill 2.2) (layers *.Cu *.Mask))
  (pad 17 thru_hole oval (at 160.0 0) (size 3.3 6.6) (drill 2.2) (layers *.Cu *.Mask))
  (pad 18 thru_hole oval (at 170.0 0) (size 3.3 6.6) (drill 2.2) (layers *.Cu *.Mask))
  (pad 19 thru_hole oval (at 180.0 0) (size 3.3 6.6) (drill 2.2) (layers *.Cu *.Mask))
  (model ${KIPRJMOD}/kicad_libs_k/models_k.3d/TerminalBlock_Dinkle_k.3dshapes/TerminalBlock_Dinkle_DT-55-B01X-19_P10.00mm_k.wrl
    (at (xyz 0 0 0))
    (scale (xyz 1 1 1))
    (rotate (xyz 0 0 0))
  )
)
