(module TerminalBlock_Dinkle_DT-55-B01X-09_P10.00mm (layer F.Cu) (tedit 5A78168A)
  (descr "Dinkle DT-55-B01X Terminal Block  pitch 10.00mm https://www.dinkle.com/en/terminal/DT-55-B01W-XX")
  (tags "Dinkle DT-55-B01X Terminal Block  pitch 10.00mm")
  (fp_text reference REF** (at 40.08 -10.16) (layer F.SilkS)
    (effects (font (size 1 1) (thickness 0.15)))
  )
  (fp_text value TerminalBlock_Dinkle_DT-55-B01X-09_P10.00mm (at 40.08 10.16) (layer F.Fab)
    (effects (font (size 1 1) (thickness 0.15)))
  )
  (fp_line (start -4.4 -7.75) (end -6 -6.15) (layer F.Fab) (width 0.1))
  (fp_line (start -6 7.75) (end -4.4 7.75) (layer F.Fab) (width 0.1))
  (fp_line (start 84.4 7.75) (end 86.0 7.75) (layer F.Fab) (width 0.1))
  (fp_line (start 84.4 -7.75) (end 86.0 -7.75) (layer F.Fab) (width 0.1))
  (fp_line (start 84.4 -7.75) (end 84.4 7.75) (layer F.Fab) (width 0.1))
  (fp_line (start -4.4 -7.75) (end -4.4 7.75) (layer F.Fab) (width 0.1))
  (fp_line (start -6 -7.75) (end -4.4 -7.75) (layer F.Fab) (width 0.1))
  (fp_line (start 86.0 -7.75) (end 86.0 7.75) (layer F.Fab) (width 0.1))
  (fp_line (start -6 -7.75) (end -6 7.75) (layer F.Fab) (width 0.1))
  (fp_line (start -6.35 -8.1) (end -3.85 -8.1) (layer F.SilkS) (width 0.12))
  (fp_line (start -6.35 -5.6) (end -6.35 -8.1) (layer F.SilkS) (width 0.12))
  (fp_line (start -6.1 -7.85) (end 86.1 -7.85) (layer F.SilkS) (width 0.12))
  (fp_line (start 86.1 -7.85) (end 86.1 7.85) (layer F.SilkS) (width 0.12))
  (fp_line (start -6.1 7.85) (end 86.1 7.85) (layer F.SilkS) (width 0.12))
  (fp_line (start -6.1 7.85) (end -6.1 -7.85) (layer F.SilkS) (width 0.12))
  (fp_line (start 86.5 -8.25) (end 86.5 8.25) (layer F.CrtYd) (width 0.05))
  (fp_line (start -6.5 8.25) (end 86.5 8.25) (layer F.CrtYd) (width 0.05))
  (fp_line (start -6.5 8.25) (end -6.5 -8.25) (layer F.CrtYd) (width 0.05))
  (fp_line (start -6.5 -8.25) (end 86.5 -8.25) (layer F.CrtYd) (width 0.05))
  
  (fp_line (start -4.4 7) (end 4.4 7) (layer F.Fab) (width 0.1))
  (fp_line (start -4.4 6.5) (end 4.4 6.5) (layer F.Fab) (width 0.1))
  (fp_line (start -4.4 4.4) (end 4.4 4.4) (layer F.Fab) (width 0.1))
  (fp_line (start -4.4 -6.5) (end 4.4 -6.5) (layer F.Fab) (width 0.1))
  (fp_line (start -4.4 -4.4) (end 4.4 -4.4) (layer F.Fab) (width 0.1))
  (fp_line (start -4.4 -7) (end 4.4 -7) (layer F.Fab) (width 0.1))
  (fp_line (start -.5 2) (end .5 2) (layer F.Fab) (width 0.1))
  (fp_line (start -.5 -2) (end .5 -2) (layer F.Fab) (width 0.1))
  (fp_circle (center 0 0) (end .5 0.5) (layer F.Fab) (width 0.1))
  (fp_line (start .5 -0.5) (end 2 -0.5) (layer F.Fab) (width 0.1))
  (fp_line (start 2 -0.5) (end 2 0.5) (layer F.Fab) (width 0.1))
  (fp_line (start 2 0.5) (end .5 0.5) (layer F.Fab) (width 0.1))
  (fp_line (start -.5 -0.5) (end -2 -0.5) (layer F.Fab) (width 0.1))
  (fp_line (start -2 -0.5) (end -2 0.5) (layer F.Fab) (width 0.1))
  (fp_line (start -2 0.5) (end -.5 0.5) (layer F.Fab) (width 0.1))
  (fp_line (start .5 0.5) (end .5 4.35) (layer F.Fab) (width 0.1))
  (fp_line (start -.5 0.5) (end -.5 4.35) (layer F.Fab) (width 0.1))
  (fp_line (start .5 -4.35) (end .5 -0.5) (layer F.Fab) (width 0.1))
  (fp_line (start -.5 -4.35) (end -.5 -0.5) (layer F.Fab) (width 0.1))
  (fp_circle (center 0 0) (end 4.4 0) (layer F.Fab) (width 0.1))
  (fp_line (start 4.4 -7.75) (end 4.4 7.75) (layer F.Fab) (width 0.1))
  (fp_line (start 5.6 -7.75) (end 5.6 7.75) (layer F.Fab) (width 0.1))
  (fp_line (start 4.4 -7.75) (end 5.6 -7.75) (layer F.Fab) (width 0.1))
  (fp_line (start 4.4 7.75) (end 5.6 7.75) (layer F.Fab) (width 0.1))
  (fp_line (start 5.6 7) (end 14.4 7) (layer F.Fab) (width 0.1))
  (fp_line (start 5.6 6.5) (end 14.4 6.5) (layer F.Fab) (width 0.1))
  (fp_line (start 5.6 4.4) (end 14.4 4.4) (layer F.Fab) (width 0.1))
  (fp_line (start 5.6 -6.5) (end 14.4 -6.5) (layer F.Fab) (width 0.1))
  (fp_line (start 5.6 -4.4) (end 14.4 -4.4) (layer F.Fab) (width 0.1))
  (fp_line (start 5.6 -7) (end 14.4 -7) (layer F.Fab) (width 0.1))
  (fp_line (start 9.5 2) (end 10.5 2) (layer F.Fab) (width 0.1))
  (fp_line (start 9.5 -2) (end 10.5 -2) (layer F.Fab) (width 0.1))
  (fp_circle (center 10.0 0) (end 10.5 0.5) (layer F.Fab) (width 0.1))
  (fp_line (start 10.5 -0.5) (end 12.0 -0.5) (layer F.Fab) (width 0.1))
  (fp_line (start 12.0 -0.5) (end 12.0 0.5) (layer F.Fab) (width 0.1))
  (fp_line (start 12.0 0.5) (end 10.5 0.5) (layer F.Fab) (width 0.1))
  (fp_line (start 9.5 -0.5) (end 8.0 -0.5) (layer F.Fab) (width 0.1))
  (fp_line (start 8.0 -0.5) (end 8.0 0.5) (layer F.Fab) (width 0.1))
  (fp_line (start 8.0 0.5) (end 9.5 0.5) (layer F.Fab) (width 0.1))
  (fp_line (start 10.5 0.5) (end 10.5 4.35) (layer F.Fab) (width 0.1))
  (fp_line (start 9.5 0.5) (end 9.5 4.35) (layer F.Fab) (width 0.1))
  (fp_line (start 10.5 -4.35) (end 10.5 -0.5) (layer F.Fab) (width 0.1))
  (fp_line (start 9.5 -4.35) (end 9.5 -0.5) (layer F.Fab) (width 0.1))
  (fp_circle (center 10.0 0) (end 14.4 0) (layer F.Fab) (width 0.1))
  (fp_line (start 14.4 -7.75) (end 14.4 7.75) (layer F.Fab) (width 0.1))
  (fp_line (start 15.6 -7.75) (end 15.6 7.75) (layer F.Fab) (width 0.1))
  (fp_line (start 14.4 -7.75) (end 15.6 -7.75) (layer F.Fab) (width 0.1))
  (fp_line (start 14.4 7.75) (end 15.6 7.75) (layer F.Fab) (width 0.1))
  (fp_line (start 15.6 7) (end 24.4 7) (layer F.Fab) (width 0.1))
  (fp_line (start 15.6 6.5) (end 24.4 6.5) (layer F.Fab) (width 0.1))
  (fp_line (start 15.6 4.4) (end 24.4 4.4) (layer F.Fab) (width 0.1))
  (fp_line (start 15.6 -6.5) (end 24.4 -6.5) (layer F.Fab) (width 0.1))
  (fp_line (start 15.6 -4.4) (end 24.4 -4.4) (layer F.Fab) (width 0.1))
  (fp_line (start 15.6 -7) (end 24.4 -7) (layer F.Fab) (width 0.1))
  (fp_line (start 19.5 2) (end 20.5 2) (layer F.Fab) (width 0.1))
  (fp_line (start 19.5 -2) (end 20.5 -2) (layer F.Fab) (width 0.1))
  (fp_circle (center 20.0 0) (end 20.5 0.5) (layer F.Fab) (width 0.1))
  (fp_line (start 20.5 -0.5) (end 22.0 -0.5) (layer F.Fab) (width 0.1))
  (fp_line (start 22.0 -0.5) (end 22.0 0.5) (layer F.Fab) (width 0.1))
  (fp_line (start 22.0 0.5) (end 20.5 0.5) (layer F.Fab) (width 0.1))
  (fp_line (start 19.5 -0.5) (end 18.0 -0.5) (layer F.Fab) (width 0.1))
  (fp_line (start 18.0 -0.5) (end 18.0 0.5) (layer F.Fab) (width 0.1))
  (fp_line (start 18.0 0.5) (end 19.5 0.5) (layer F.Fab) (width 0.1))
  (fp_line (start 20.5 0.5) (end 20.5 4.35) (layer F.Fab) (width 0.1))
  (fp_line (start 19.5 0.5) (end 19.5 4.35) (layer F.Fab) (width 0.1))
  (fp_line (start 20.5 -4.35) (end 20.5 -0.5) (layer F.Fab) (width 0.1))
  (fp_line (start 19.5 -4.35) (end 19.5 -0.5) (layer F.Fab) (width 0.1))
  (fp_circle (center 20.0 0) (end 24.4 0) (layer F.Fab) (width 0.1))
  (fp_line (start 24.4 -7.75) (end 24.4 7.75) (layer F.Fab) (width 0.1))
  (fp_line (start 25.6 -7.75) (end 25.6 7.75) (layer F.Fab) (width 0.1))
  (fp_line (start 24.4 -7.75) (end 25.6 -7.75) (layer F.Fab) (width 0.1))
  (fp_line (start 24.4 7.75) (end 25.6 7.75) (layer F.Fab) (width 0.1))
  (fp_line (start 25.6 7) (end 34.4 7) (layer F.Fab) (width 0.1))
  (fp_line (start 25.6 6.5) (end 34.4 6.5) (layer F.Fab) (width 0.1))
  (fp_line (start 25.6 4.4) (end 34.4 4.4) (layer F.Fab) (width 0.1))
  (fp_line (start 25.6 -6.5) (end 34.4 -6.5) (layer F.Fab) (width 0.1))
  (fp_line (start 25.6 -4.4) (end 34.4 -4.4) (layer F.Fab) (width 0.1))
  (fp_line (start 25.6 -7) (end 34.4 -7) (layer F.Fab) (width 0.1))
  (fp_line (start 29.5 2) (end 30.5 2) (layer F.Fab) (width 0.1))
  (fp_line (start 29.5 -2) (end 30.5 -2) (layer F.Fab) (width 0.1))
  (fp_circle (center 30.0 0) (end 30.5 0.5) (layer F.Fab) (width 0.1))
  (fp_line (start 30.5 -0.5) (end 32.0 -0.5) (layer F.Fab) (width 0.1))
  (fp_line (start 32.0 -0.5) (end 32.0 0.5) (layer F.Fab) (width 0.1))
  (fp_line (start 32.0 0.5) (end 30.5 0.5) (layer F.Fab) (width 0.1))
  (fp_line (start 29.5 -0.5) (end 28.0 -0.5) (layer F.Fab) (width 0.1))
  (fp_line (start 28.0 -0.5) (end 28.0 0.5) (layer F.Fab) (width 0.1))
  (fp_line (start 28.0 0.5) (end 29.5 0.5) (layer F.Fab) (width 0.1))
  (fp_line (start 30.5 0.5) (end 30.5 4.35) (layer F.Fab) (width 0.1))
  (fp_line (start 29.5 0.5) (end 29.5 4.35) (layer F.Fab) (width 0.1))
  (fp_line (start 30.5 -4.35) (end 30.5 -0.5) (layer F.Fab) (width 0.1))
  (fp_line (start 29.5 -4.35) (end 29.5 -0.5) (layer F.Fab) (width 0.1))
  (fp_circle (center 30.0 0) (end 34.4 0) (layer F.Fab) (width 0.1))
  (fp_line (start 34.4 -7.75) (end 34.4 7.75) (layer F.Fab) (width 0.1))
  (fp_line (start 35.6 -7.75) (end 35.6 7.75) (layer F.Fab) (width 0.1))
  (fp_line (start 34.4 -7.75) (end 35.6 -7.75) (layer F.Fab) (width 0.1))
  (fp_line (start 34.4 7.75) (end 35.6 7.75) (layer F.Fab) (width 0.1))
  (fp_line (start 35.6 7) (end 44.4 7) (layer F.Fab) (width 0.1))
  (fp_line (start 35.6 6.5) (end 44.4 6.5) (layer F.Fab) (width 0.1))
  (fp_line (start 35.6 4.4) (end 44.4 4.4) (layer F.Fab) (width 0.1))
  (fp_line (start 35.6 -6.5) (end 44.4 -6.5) (layer F.Fab) (width 0.1))
  (fp_line (start 35.6 -4.4) (end 44.4 -4.4) (layer F.Fab) (width 0.1))
  (fp_line (start 35.6 -7) (end 44.4 -7) (layer F.Fab) (width 0.1))
  (fp_line (start 39.5 2) (end 40.5 2) (layer F.Fab) (width 0.1))
  (fp_line (start 39.5 -2) (end 40.5 -2) (layer F.Fab) (width 0.1))
  (fp_circle (center 40.0 0) (end 40.5 0.5) (layer F.Fab) (width 0.1))
  (fp_line (start 40.5 -0.5) (end 42.0 -0.5) (layer F.Fab) (width 0.1))
  (fp_line (start 42.0 -0.5) (end 42.0 0.5) (layer F.Fab) (width 0.1))
  (fp_line (start 42.0 0.5) (end 40.5 0.5) (layer F.Fab) (width 0.1))
  (fp_line (start 39.5 -0.5) (end 38.0 -0.5) (layer F.Fab) (width 0.1))
  (fp_line (start 38.0 -0.5) (end 38.0 0.5) (layer F.Fab) (width 0.1))
  (fp_line (start 38.0 0.5) (end 39.5 0.5) (layer F.Fab) (width 0.1))
  (fp_line (start 40.5 0.5) (end 40.5 4.35) (layer F.Fab) (width 0.1))
  (fp_line (start 39.5 0.5) (end 39.5 4.35) (layer F.Fab) (width 0.1))
  (fp_line (start 40.5 -4.35) (end 40.5 -0.5) (layer F.Fab) (width 0.1))
  (fp_line (start 39.5 -4.35) (end 39.5 -0.5) (layer F.Fab) (width 0.1))
  (fp_circle (center 40.0 0) (end 44.4 0) (layer F.Fab) (width 0.1))
  (fp_line (start 44.4 -7.75) (end 44.4 7.75) (layer F.Fab) (width 0.1))
  (fp_line (start 45.6 -7.75) (end 45.6 7.75) (layer F.Fab) (width 0.1))
  (fp_line (start 44.4 -7.75) (end 45.6 -7.75) (layer F.Fab) (width 0.1))
  (fp_line (start 44.4 7.75) (end 45.6 7.75) (layer F.Fab) (width 0.1))
  (fp_line (start 45.6 7) (end 54.4 7) (layer F.Fab) (width 0.1))
  (fp_line (start 45.6 6.5) (end 54.4 6.5) (layer F.Fab) (width 0.1))
  (fp_line (start 45.6 4.4) (end 54.4 4.4) (layer F.Fab) (width 0.1))
  (fp_line (start 45.6 -6.5) (end 54.4 -6.5) (layer F.Fab) (width 0.1))
  (fp_line (start 45.6 -4.4) (end 54.4 -4.4) (layer F.Fab) (width 0.1))
  (fp_line (start 45.6 -7) (end 54.4 -7) (layer F.Fab) (width 0.1))
  (fp_line (start 49.5 2) (end 50.5 2) (layer F.Fab) (width 0.1))
  (fp_line (start 49.5 -2) (end 50.5 -2) (layer F.Fab) (width 0.1))
  (fp_circle (center 50.0 0) (end 50.5 0.5) (layer F.Fab) (width 0.1))
  (fp_line (start 50.5 -0.5) (end 52.0 -0.5) (layer F.Fab) (width 0.1))
  (fp_line (start 52.0 -0.5) (end 52.0 0.5) (layer F.Fab) (width 0.1))
  (fp_line (start 52.0 0.5) (end 50.5 0.5) (layer F.Fab) (width 0.1))
  (fp_line (start 49.5 -0.5) (end 48.0 -0.5) (layer F.Fab) (width 0.1))
  (fp_line (start 48.0 -0.5) (end 48.0 0.5) (layer F.Fab) (width 0.1))
  (fp_line (start 48.0 0.5) (end 49.5 0.5) (layer F.Fab) (width 0.1))
  (fp_line (start 50.5 0.5) (end 50.5 4.35) (layer F.Fab) (width 0.1))
  (fp_line (start 49.5 0.5) (end 49.5 4.35) (layer F.Fab) (width 0.1))
  (fp_line (start 50.5 -4.35) (end 50.5 -0.5) (layer F.Fab) (width 0.1))
  (fp_line (start 49.5 -4.35) (end 49.5 -0.5) (layer F.Fab) (width 0.1))
  (fp_circle (center 50.0 0) (end 54.4 0) (layer F.Fab) (width 0.1))
  (fp_line (start 54.4 -7.75) (end 54.4 7.75) (layer F.Fab) (width 0.1))
  (fp_line (start 55.6 -7.75) (end 55.6 7.75) (layer F.Fab) (width 0.1))
  (fp_line (start 54.4 -7.75) (end 55.6 -7.75) (layer F.Fab) (width 0.1))
  (fp_line (start 54.4 7.75) (end 55.6 7.75) (layer F.Fab) (width 0.1))
  (fp_line (start 55.6 7) (end 64.4 7) (layer F.Fab) (width 0.1))
  (fp_line (start 55.6 6.5) (end 64.4 6.5) (layer F.Fab) (width 0.1))
  (fp_line (start 55.6 4.4) (end 64.4 4.4) (layer F.Fab) (width 0.1))
  (fp_line (start 55.6 -6.5) (end 64.4 -6.5) (layer F.Fab) (width 0.1))
  (fp_line (start 55.6 -4.4) (end 64.4 -4.4) (layer F.Fab) (width 0.1))
  (fp_line (start 55.6 -7) (end 64.4 -7) (layer F.Fab) (width 0.1))
  (fp_line (start 59.5 2) (end 60.5 2) (layer F.Fab) (width 0.1))
  (fp_line (start 59.5 -2) (end 60.5 -2) (layer F.Fab) (width 0.1))
  (fp_circle (center 60.0 0) (end 60.5 0.5) (layer F.Fab) (width 0.1))
  (fp_line (start 60.5 -0.5) (end 62.0 -0.5) (layer F.Fab) (width 0.1))
  (fp_line (start 62.0 -0.5) (end 62.0 0.5) (layer F.Fab) (width 0.1))
  (fp_line (start 62.0 0.5) (end 60.5 0.5) (layer F.Fab) (width 0.1))
  (fp_line (start 59.5 -0.5) (end 58.0 -0.5) (layer F.Fab) (width 0.1))
  (fp_line (start 58.0 -0.5) (end 58.0 0.5) (layer F.Fab) (width 0.1))
  (fp_line (start 58.0 0.5) (end 59.5 0.5) (layer F.Fab) (width 0.1))
  (fp_line (start 60.5 0.5) (end 60.5 4.35) (layer F.Fab) (width 0.1))
  (fp_line (start 59.5 0.5) (end 59.5 4.35) (layer F.Fab) (width 0.1))
  (fp_line (start 60.5 -4.35) (end 60.5 -0.5) (layer F.Fab) (width 0.1))
  (fp_line (start 59.5 -4.35) (end 59.5 -0.5) (layer F.Fab) (width 0.1))
  (fp_circle (center 60.0 0) (end 64.4 0) (layer F.Fab) (width 0.1))
  (fp_line (start 64.4 -7.75) (end 64.4 7.75) (layer F.Fab) (width 0.1))
  (fp_line (start 65.6 -7.75) (end 65.6 7.75) (layer F.Fab) (width 0.1))
  (fp_line (start 64.4 -7.75) (end 65.6 -7.75) (layer F.Fab) (width 0.1))
  (fp_line (start 64.4 7.75) (end 65.6 7.75) (layer F.Fab) (width 0.1))
  (fp_line (start 65.6 7) (end 74.4 7) (layer F.Fab) (width 0.1))
  (fp_line (start 65.6 6.5) (end 74.4 6.5) (layer F.Fab) (width 0.1))
  (fp_line (start 65.6 4.4) (end 74.4 4.4) (layer F.Fab) (width 0.1))
  (fp_line (start 65.6 -6.5) (end 74.4 -6.5) (layer F.Fab) (width 0.1))
  (fp_line (start 65.6 -4.4) (end 74.4 -4.4) (layer F.Fab) (width 0.1))
  (fp_line (start 65.6 -7) (end 74.4 -7) (layer F.Fab) (width 0.1))
  (fp_line (start 69.5 2) (end 70.5 2) (layer F.Fab) (width 0.1))
  (fp_line (start 69.5 -2) (end 70.5 -2) (layer F.Fab) (width 0.1))
  (fp_circle (center 70.0 0) (end 70.5 0.5) (layer F.Fab) (width 0.1))
  (fp_line (start 70.5 -0.5) (end 72.0 -0.5) (layer F.Fab) (width 0.1))
  (fp_line (start 72.0 -0.5) (end 72.0 0.5) (layer F.Fab) (width 0.1))
  (fp_line (start 72.0 0.5) (end 70.5 0.5) (layer F.Fab) (width 0.1))
  (fp_line (start 69.5 -0.5) (end 68.0 -0.5) (layer F.Fab) (width 0.1))
  (fp_line (start 68.0 -0.5) (end 68.0 0.5) (layer F.Fab) (width 0.1))
  (fp_line (start 68.0 0.5) (end 69.5 0.5) (layer F.Fab) (width 0.1))
  (fp_line (start 70.5 0.5) (end 70.5 4.35) (layer F.Fab) (width 0.1))
  (fp_line (start 69.5 0.5) (end 69.5 4.35) (layer F.Fab) (width 0.1))
  (fp_line (start 70.5 -4.35) (end 70.5 -0.5) (layer F.Fab) (width 0.1))
  (fp_line (start 69.5 -4.35) (end 69.5 -0.5) (layer F.Fab) (width 0.1))
  (fp_circle (center 70.0 0) (end 74.4 0) (layer F.Fab) (width 0.1))
  (fp_line (start 74.4 -7.75) (end 74.4 7.75) (layer F.Fab) (width 0.1))
  (fp_line (start 75.6 -7.75) (end 75.6 7.75) (layer F.Fab) (width 0.1))
  (fp_line (start 74.4 -7.75) (end 75.6 -7.75) (layer F.Fab) (width 0.1))
  (fp_line (start 74.4 7.75) (end 75.6 7.75) (layer F.Fab) (width 0.1))
  (fp_line (start 75.6 7) (end 84.4 7) (layer F.Fab) (width 0.1))
  (fp_line (start 75.6 6.5) (end 84.4 6.5) (layer F.Fab) (width 0.1))
  (fp_line (start 75.6 4.4) (end 84.4 4.4) (layer F.Fab) (width 0.1))
  (fp_line (start 75.6 -6.5) (end 84.4 -6.5) (layer F.Fab) (width 0.1))
  (fp_line (start 75.6 -4.4) (end 84.4 -4.4) (layer F.Fab) (width 0.1))
  (fp_line (start 75.6 -7) (end 84.4 -7) (layer F.Fab) (width 0.1))
  (fp_line (start 79.5 2) (end 80.5 2) (layer F.Fab) (width 0.1))
  (fp_line (start 79.5 -2) (end 80.5 -2) (layer F.Fab) (width 0.1))
  (fp_circle (center 80.0 0) (end 80.5 0.5) (layer F.Fab) (width 0.1))
  (fp_line (start 80.5 -0.5) (end 82.0 -0.5) (layer F.Fab) (width 0.1))
  (fp_line (start 82.0 -0.5) (end 82.0 0.5) (layer F.Fab) (width 0.1))
  (fp_line (start 82.0 0.5) (end 80.5 0.5) (layer F.Fab) (width 0.1))
  (fp_line (start 79.5 -0.5) (end 78.0 -0.5) (layer F.Fab) (width 0.1))
  (fp_line (start 78.0 -0.5) (end 78.0 0.5) (layer F.Fab) (width 0.1))
  (fp_line (start 78.0 0.5) (end 79.5 0.5) (layer F.Fab) (width 0.1))
  (fp_line (start 80.5 0.5) (end 80.5 4.35) (layer F.Fab) (width 0.1))
  (fp_line (start 79.5 0.5) (end 79.5 4.35) (layer F.Fab) (width 0.1))
  (fp_line (start 80.5 -4.35) (end 80.5 -0.5) (layer F.Fab) (width 0.1))
  (fp_line (start 79.5 -4.35) (end 79.5 -0.5) (layer F.Fab) (width 0.1))
  (fp_circle (center 80.0 0) (end 84.4 0) (layer F.Fab) (width 0.1))
  (fp_text user %R (at 40.08 -10.16) (layer F.Fab)
    (effects (font (size 1 1) (thickness 0.15)))
  )
  
  (pad 1 thru_hole rect (at 0 0) (size 3.3 6.6) (drill 2.2) (layers *.Cu *.Mask))
  (pad 2 thru_hole oval (at 10.0 0) (size 3.3 6.6) (drill 2.2) (layers *.Cu *.Mask))
  (pad 3 thru_hole oval (at 20.0 0) (size 3.3 6.6) (drill 2.2) (layers *.Cu *.Mask))
  (pad 4 thru_hole oval (at 30.0 0) (size 3.3 6.6) (drill 2.2) (layers *.Cu *.Mask))
  (pad 5 thru_hole oval (at 40.0 0) (size 3.3 6.6) (drill 2.2) (layers *.Cu *.Mask))
  (pad 6 thru_hole oval (at 50.0 0) (size 3.3 6.6) (drill 2.2) (layers *.Cu *.Mask))
  (pad 7 thru_hole oval (at 60.0 0) (size 3.3 6.6) (drill 2.2) (layers *.Cu *.Mask))
  (pad 8 thru_hole oval (at 70.0 0) (size 3.3 6.6) (drill 2.2) (layers *.Cu *.Mask))
  (pad 9 thru_hole oval (at 80.0 0) (size 3.3 6.6) (drill 2.2) (layers *.Cu *.Mask))
  (model ${KIPRJMOD}/kicad_libs_k/models_k.3d/TerminalBlock_Dinkle_k.3dshapes/TerminalBlock_Dinkle_DT-55-B01X-09_P10.00mm_k.wrl
    (at (xyz 0 0 0))
    (scale (xyz 1 1 1))
    (rotate (xyz 0 0 0))
  )
)
