(module PinHeader_1x03_P2.00mm_Vertical_SMD_Pin1Left (layer F.Cu) (tedit 59FED667)
  (descr "surface-mounted straight pin header, 1x03, 2.00mm pitch, single row, style 1 (pin 1 left)")
  (tags "Surface mounted pin header SMD 1x03 2.00mm single row style1 pin1 left")
  (attr smd)
  (fp_text reference REF** (at 0 -4.06) (layer F.SilkS)
    (effects (font (size 1 1) (thickness 0.15)))
  )
  (fp_text value PinHeader_1x03_P2.00mm_Vertical_SMD_Pin1Left (at 0 4.06) (layer F.Fab)
    (effects (font (size 1 1) (thickness 0.15)))
  )
  (fp_line (start 1 3) (end -1 3) (layer F.Fab) (width 0.1))
  (fp_line (start -0.25 -3) (end 1 -3) (layer F.Fab) (width 0.1))
  (fp_line (start -1 3) (end -1 -2.25) (layer F.Fab) (width 0.1))
  (fp_line (start -1 -2.25) (end -0.25 -3) (layer F.Fab) (width 0.1))
  (fp_line (start 1 -3) (end 1 3) (layer F.Fab) (width 0.1))
  (fp_line (start -1 -2.25) (end -2.1 -2.25) (layer F.Fab) (width 0.1))
  (fp_line (start -2.1 -2.25) (end -2.1 -1.75) (layer F.Fab) (width 0.1))
  (fp_line (start -2.1 -1.75) (end -1 -1.75) (layer F.Fab) (width 0.1))
  (fp_line (start -1 1.75) (end -2.1 1.75) (layer F.Fab) (width 0.1))
  (fp_line (start -2.1 1.75) (end -2.1 2.25) (layer F.Fab) (width 0.1))
  (fp_line (start -2.1 2.25) (end -1 2.25) (layer F.Fab) (width 0.1))
  (fp_line (start 1 -0.25) (end 2.1 -0.25) (layer F.Fab) (width 0.1))
  (fp_line (start 2.1 -0.25) (end 2.1 0.25) (layer F.Fab) (width 0.1))
  (fp_line (start 2.1 0.25) (end 1 0.25) (layer F.Fab) (width 0.1))
  (fp_line (start -1.06 -3.06) (end 1.06 -3.06) (layer F.SilkS) (width 0.12))
  (fp_line (start -1.06 3.06) (end 1.06 3.06) (layer F.SilkS) (width 0.12))
  (fp_line (start 1.06 -3.06) (end 1.06 -0.685) (layer F.SilkS) (width 0.12))
  (fp_line (start -1.06 -2.685) (end -2.29 -2.685) (layer F.SilkS) (width 0.12))
  (fp_line (start -1.06 -3.06) (end -1.06 -2.685) (layer F.SilkS) (width 0.12))
  (fp_line (start 1.06 2.685) (end 1.06 3.06) (layer F.SilkS) (width 0.12))
  (fp_line (start 1.06 0.685) (end 1.06 3.06) (layer F.SilkS) (width 0.12))
  (fp_line (start -1.06 -1.315) (end -1.06 1.315) (layer F.SilkS) (width 0.12))
  (fp_line (start -2.85 -3.5) (end -2.85 3.5) (layer F.CrtYd) (width 0.05))
  (fp_line (start -2.85 3.5) (end 2.85 3.5) (layer F.CrtYd) (width 0.05))
  (fp_line (start 2.85 3.5) (end 2.85 -3.5) (layer F.CrtYd) (width 0.05))
  (fp_line (start 2.85 -3.5) (end -2.85 -3.5) (layer F.CrtYd) (width 0.05))
  (pad 1 smd rect (at -1.175 -2) (size 2.35 0.85) (layers F.Cu F.Mask F.Paste))
  (pad 3 smd rect (at -1.175 2) (size 2.35 0.85) (layers F.Cu F.Mask F.Paste))
  (pad 2 smd rect (at 1.175 0) (size 2.35 0.85) (layers F.Cu F.Mask F.Paste))
  (fp_text user %R (at 0 0 90) (layer F.Fab)
    (effects (font (size 1 1) (thickness 0.15)))
  )
  (model ${KIPRJMOD}/kicad_libs_k/models_k.3d/Connector_PinHeader_2.00mm_k.3dshapes/PinHeader_1x03_P2.00mm_Vertical_SMD_Pin1Left_k.wrl
    (at (xyz 0 0 0))
    (scale (xyz 1 1 1))
    (rotate (xyz 0 0 0))
  )
)