(module PinHeader_2x09_P2.00mm_Horizontal (layer F.Cu) (tedit 59FED667)
  (descr "Through hole angled pin header, 2x09, 2.00mm pitch, 4.2mm pin length, double rows")
  (tags "Through hole angled pin header THT 2x09 2.00mm double row")
  (fp_text reference REF** (at 4.1 -2) (layer F.SilkS)
    (effects (font (size 1 1) (thickness 0.15)))
  )
  (fp_text value PinHeader_2x09_P2.00mm_Horizontal (at 4.1 18) (layer F.Fab)
    (effects (font (size 1 1) (thickness 0.15)))
  )
  (fp_line (start 3.875 -1) (end 5 -1) (layer F.Fab) (width 0.1))
  (fp_line (start 5 -1) (end 5 17) (layer F.Fab) (width 0.1))
  (fp_line (start 5 17) (end 3.5 17) (layer F.Fab) (width 0.1))
  (fp_line (start 3.5 17) (end 3.5 -0.625) (layer F.Fab) (width 0.1))
  (fp_line (start 3.5 -0.625) (end 3.875 -1) (layer F.Fab) (width 0.1))
  (fp_line (start -0.25 -0.25) (end 3.5 -0.25) (layer F.Fab) (width 0.1))
  (fp_line (start -0.25 -0.25) (end -0.25 0.25) (layer F.Fab) (width 0.1))
  (fp_line (start -0.25 0.25) (end 3.5 0.25) (layer F.Fab) (width 0.1))
  (fp_line (start 5 -0.25) (end 9.2 -0.25) (layer F.Fab) (width 0.1))
  (fp_line (start 9.2 -0.25) (end 9.2 0.25) (layer F.Fab) (width 0.1))
  (fp_line (start 5 0.25) (end 9.2 0.25) (layer F.Fab) (width 0.1))
  (fp_line (start -0.25 1.75) (end 3.5 1.75) (layer F.Fab) (width 0.1))
  (fp_line (start -0.25 1.75) (end -0.25 2.25) (layer F.Fab) (width 0.1))
  (fp_line (start -0.25 2.25) (end 3.5 2.25) (layer F.Fab) (width 0.1))
  (fp_line (start 5 1.75) (end 9.2 1.75) (layer F.Fab) (width 0.1))
  (fp_line (start 9.2 1.75) (end 9.2 2.25) (layer F.Fab) (width 0.1))
  (fp_line (start 5 2.25) (end 9.2 2.25) (layer F.Fab) (width 0.1))
  (fp_line (start -0.25 3.75) (end 3.5 3.75) (layer F.Fab) (width 0.1))
  (fp_line (start -0.25 3.75) (end -0.25 4.25) (layer F.Fab) (width 0.1))
  (fp_line (start -0.25 4.25) (end 3.5 4.25) (layer F.Fab) (width 0.1))
  (fp_line (start 5 3.75) (end 9.2 3.75) (layer F.Fab) (width 0.1))
  (fp_line (start 9.2 3.75) (end 9.2 4.25) (layer F.Fab) (width 0.1))
  (fp_line (start 5 4.25) (end 9.2 4.25) (layer F.Fab) (width 0.1))
  (fp_line (start -0.25 5.75) (end 3.5 5.75) (layer F.Fab) (width 0.1))
  (fp_line (start -0.25 5.75) (end -0.25 6.25) (layer F.Fab) (width 0.1))
  (fp_line (start -0.25 6.25) (end 3.5 6.25) (layer F.Fab) (width 0.1))
  (fp_line (start 5 5.75) (end 9.2 5.75) (layer F.Fab) (width 0.1))
  (fp_line (start 9.2 5.75) (end 9.2 6.25) (layer F.Fab) (width 0.1))
  (fp_line (start 5 6.25) (end 9.2 6.25) (layer F.Fab) (width 0.1))
  (fp_line (start -0.25 7.75) (end 3.5 7.75) (layer F.Fab) (width 0.1))
  (fp_line (start -0.25 7.75) (end -0.25 8.25) (layer F.Fab) (width 0.1))
  (fp_line (start -0.25 8.25) (end 3.5 8.25) (layer F.Fab) (width 0.1))
  (fp_line (start 5 7.75) (end 9.2 7.75) (layer F.Fab) (width 0.1))
  (fp_line (start 9.2 7.75) (end 9.2 8.25) (layer F.Fab) (width 0.1))
  (fp_line (start 5 8.25) (end 9.2 8.25) (layer F.Fab) (width 0.1))
  (fp_line (start -0.25 9.75) (end 3.5 9.75) (layer F.Fab) (width 0.1))
  (fp_line (start -0.25 9.75) (end -0.25 10.25) (layer F.Fab) (width 0.1))
  (fp_line (start -0.25 10.25) (end 3.5 10.25) (layer F.Fab) (width 0.1))
  (fp_line (start 5 9.75) (end 9.2 9.75) (layer F.Fab) (width 0.1))
  (fp_line (start 9.2 9.75) (end 9.2 10.25) (layer F.Fab) (width 0.1))
  (fp_line (start 5 10.25) (end 9.2 10.25) (layer F.Fab) (width 0.1))
  (fp_line (start -0.25 11.75) (end 3.5 11.75) (layer F.Fab) (width 0.1))
  (fp_line (start -0.25 11.75) (end -0.25 12.25) (layer F.Fab) (width 0.1))
  (fp_line (start -0.25 12.25) (end 3.5 12.25) (layer F.Fab) (width 0.1))
  (fp_line (start 5 11.75) (end 9.2 11.75) (layer F.Fab) (width 0.1))
  (fp_line (start 9.2 11.75) (end 9.2 12.25) (layer F.Fab) (width 0.1))
  (fp_line (start 5 12.25) (end 9.2 12.25) (layer F.Fab) (width 0.1))
  (fp_line (start -0.25 13.75) (end 3.5 13.75) (layer F.Fab) (width 0.1))
  (fp_line (start -0.25 13.75) (end -0.25 14.25) (layer F.Fab) (width 0.1))
  (fp_line (start -0.25 14.25) (end 3.5 14.25) (layer F.Fab) (width 0.1))
  (fp_line (start 5 13.75) (end 9.2 13.75) (layer F.Fab) (width 0.1))
  (fp_line (start 9.2 13.75) (end 9.2 14.25) (layer F.Fab) (width 0.1))
  (fp_line (start 5 14.25) (end 9.2 14.25) (layer F.Fab) (width 0.1))
  (fp_line (start -0.25 15.75) (end 3.5 15.75) (layer F.Fab) (width 0.1))
  (fp_line (start -0.25 15.75) (end -0.25 16.25) (layer F.Fab) (width 0.1))
  (fp_line (start -0.25 16.25) (end 3.5 16.25) (layer F.Fab) (width 0.1))
  (fp_line (start 5 15.75) (end 9.2 15.75) (layer F.Fab) (width 0.1))
  (fp_line (start 9.2 15.75) (end 9.2 16.25) (layer F.Fab) (width 0.1))
  (fp_line (start 5 16.25) (end 9.2 16.25) (layer F.Fab) (width 0.1))
  (fp_line (start 3.44 -1.06) (end 3.44 17.06) (layer F.SilkS) (width 0.12))
  (fp_line (start 3.44 17.06) (end 5.06 17.06) (layer F.SilkS) (width 0.12))
  (fp_line (start 5.06 17.06) (end 5.06 -1.06) (layer F.SilkS) (width 0.12))
  (fp_line (start 5.06 -1.06) (end 3.44 -1.06) (layer F.SilkS) (width 0.12))
  (fp_line (start 5.06 -0.31) (end 9.26 -0.31) (layer F.SilkS) (width 0.12))
  (fp_line (start 9.26 -0.31) (end 9.26 0.31) (layer F.SilkS) (width 0.12))
  (fp_line (start 9.26 0.31) (end 5.06 0.31) (layer F.SilkS) (width 0.12))
  (fp_line (start 5.06 -0.25) (end 9.26 -0.25) (layer F.SilkS) (width 0.12))
  (fp_line (start 5.06 -0.13) (end 9.26 -0.13) (layer F.SilkS) (width 0.12))
  (fp_line (start 5.06 -0.01) (end 9.26 -0.01) (layer F.SilkS) (width 0.12))
  (fp_line (start 5.06 0.11) (end 9.26 0.11) (layer F.SilkS) (width 0.12))
  (fp_line (start 5.06 0.23) (end 9.26 0.23) (layer F.SilkS) (width 0.12))
  (fp_line (start 2.882114 -0.31) (end 3.44 -0.31) (layer F.SilkS) (width 0.12))
  (fp_line (start 2.882114 0.31) (end 3.44 0.31) (layer F.SilkS) (width 0.12))
  (fp_line (start 0.935 -0.31) (end 1.117886 -0.31) (layer F.SilkS) (width 0.12))
  (fp_line (start 0.935 0.31) (end 1.117886 0.31) (layer F.SilkS) (width 0.12))
  (fp_line (start 3.44 1) (end 5.06 1) (layer F.SilkS) (width 0.12))
  (fp_line (start 5.06 1.69) (end 9.26 1.69) (layer F.SilkS) (width 0.12))
  (fp_line (start 9.26 1.69) (end 9.26 2.31) (layer F.SilkS) (width 0.12))
  (fp_line (start 9.26 2.31) (end 5.06 2.31) (layer F.SilkS) (width 0.12))
  (fp_line (start 2.882114 1.69) (end 3.44 1.69) (layer F.SilkS) (width 0.12))
  (fp_line (start 2.882114 2.31) (end 3.44 2.31) (layer F.SilkS) (width 0.12))
  (fp_line (start 0.882114 1.69) (end 1.117886 1.69) (layer F.SilkS) (width 0.12))
  (fp_line (start 0.882114 2.31) (end 1.117886 2.31) (layer F.SilkS) (width 0.12))
  (fp_line (start 3.44 3) (end 5.06 3) (layer F.SilkS) (width 0.12))
  (fp_line (start 5.06 3.69) (end 9.26 3.69) (layer F.SilkS) (width 0.12))
  (fp_line (start 9.26 3.69) (end 9.26 4.31) (layer F.SilkS) (width 0.12))
  (fp_line (start 9.26 4.31) (end 5.06 4.31) (layer F.SilkS) (width 0.12))
  (fp_line (start 2.882114 3.69) (end 3.44 3.69) (layer F.SilkS) (width 0.12))
  (fp_line (start 2.882114 4.31) (end 3.44 4.31) (layer F.SilkS) (width 0.12))
  (fp_line (start 0.882114 3.69) (end 1.117886 3.69) (layer F.SilkS) (width 0.12))
  (fp_line (start 0.882114 4.31) (end 1.117886 4.31) (layer F.SilkS) (width 0.12))
  (fp_line (start 3.44 5) (end 5.06 5) (layer F.SilkS) (width 0.12))
  (fp_line (start 5.06 5.69) (end 9.26 5.69) (layer F.SilkS) (width 0.12))
  (fp_line (start 9.26 5.69) (end 9.26 6.31) (layer F.SilkS) (width 0.12))
  (fp_line (start 9.26 6.31) (end 5.06 6.31) (layer F.SilkS) (width 0.12))
  (fp_line (start 2.882114 5.69) (end 3.44 5.69) (layer F.SilkS) (width 0.12))
  (fp_line (start 2.882114 6.31) (end 3.44 6.31) (layer F.SilkS) (width 0.12))
  (fp_line (start 0.882114 5.69) (end 1.117886 5.69) (layer F.SilkS) (width 0.12))
  (fp_line (start 0.882114 6.31) (end 1.117886 6.31) (layer F.SilkS) (width 0.12))
  (fp_line (start 3.44 7) (end 5.06 7) (layer F.SilkS) (width 0.12))
  (fp_line (start 5.06 7.69) (end 9.26 7.69) (layer F.SilkS) (width 0.12))
  (fp_line (start 9.26 7.69) (end 9.26 8.31) (layer F.SilkS) (width 0.12))
  (fp_line (start 9.26 8.31) (end 5.06 8.31) (layer F.SilkS) (width 0.12))
  (fp_line (start 2.882114 7.69) (end 3.44 7.69) (layer F.SilkS) (width 0.12))
  (fp_line (start 2.882114 8.31) (end 3.44 8.31) (layer F.SilkS) (width 0.12))
  (fp_line (start 0.882114 7.69) (end 1.117886 7.69) (layer F.SilkS) (width 0.12))
  (fp_line (start 0.882114 8.31) (end 1.117886 8.31) (layer F.SilkS) (width 0.12))
  (fp_line (start 3.44 9) (end 5.06 9) (layer F.SilkS) (width 0.12))
  (fp_line (start 5.06 9.69) (end 9.26 9.69) (layer F.SilkS) (width 0.12))
  (fp_line (start 9.26 9.69) (end 9.26 10.31) (layer F.SilkS) (width 0.12))
  (fp_line (start 9.26 10.31) (end 5.06 10.31) (layer F.SilkS) (width 0.12))
  (fp_line (start 2.882114 9.69) (end 3.44 9.69) (layer F.SilkS) (width 0.12))
  (fp_line (start 2.882114 10.31) (end 3.44 10.31) (layer F.SilkS) (width 0.12))
  (fp_line (start 0.882114 9.69) (end 1.117886 9.69) (layer F.SilkS) (width 0.12))
  (fp_line (start 0.882114 10.31) (end 1.117886 10.31) (layer F.SilkS) (width 0.12))
  (fp_line (start 3.44 11) (end 5.06 11) (layer F.SilkS) (width 0.12))
  (fp_line (start 5.06 11.69) (end 9.26 11.69) (layer F.SilkS) (width 0.12))
  (fp_line (start 9.26 11.69) (end 9.26 12.31) (layer F.SilkS) (width 0.12))
  (fp_line (start 9.26 12.31) (end 5.06 12.31) (layer F.SilkS) (width 0.12))
  (fp_line (start 2.882114 11.69) (end 3.44 11.69) (layer F.SilkS) (width 0.12))
  (fp_line (start 2.882114 12.31) (end 3.44 12.31) (layer F.SilkS) (width 0.12))
  (fp_line (start 0.882114 11.69) (end 1.117886 11.69) (layer F.SilkS) (width 0.12))
  (fp_line (start 0.882114 12.31) (end 1.117886 12.31) (layer F.SilkS) (width 0.12))
  (fp_line (start 3.44 13) (end 5.06 13) (layer F.SilkS) (width 0.12))
  (fp_line (start 5.06 13.69) (end 9.26 13.69) (layer F.SilkS) (width 0.12))
  (fp_line (start 9.26 13.69) (end 9.26 14.31) (layer F.SilkS) (width 0.12))
  (fp_line (start 9.26 14.31) (end 5.06 14.31) (layer F.SilkS) (width 0.12))
  (fp_line (start 2.882114 13.69) (end 3.44 13.69) (layer F.SilkS) (width 0.12))
  (fp_line (start 2.882114 14.31) (end 3.44 14.31) (layer F.SilkS) (width 0.12))
  (fp_line (start 0.882114 13.69) (end 1.117886 13.69) (layer F.SilkS) (width 0.12))
  (fp_line (start 0.882114 14.31) (end 1.117886 14.31) (layer F.SilkS) (width 0.12))
  (fp_line (start 3.44 15) (end 5.06 15) (layer F.SilkS) (width 0.12))
  (fp_line (start 5.06 15.69) (end 9.26 15.69) (layer F.SilkS) (width 0.12))
  (fp_line (start 9.26 15.69) (end 9.26 16.31) (layer F.SilkS) (width 0.12))
  (fp_line (start 9.26 16.31) (end 5.06 16.31) (layer F.SilkS) (width 0.12))
  (fp_line (start 2.882114 15.69) (end 3.44 15.69) (layer F.SilkS) (width 0.12))
  (fp_line (start 2.882114 16.31) (end 3.44 16.31) (layer F.SilkS) (width 0.12))
  (fp_line (start 0.882114 15.69) (end 1.117886 15.69) (layer F.SilkS) (width 0.12))
  (fp_line (start 0.882114 16.31) (end 1.117886 16.31) (layer F.SilkS) (width 0.12))
  (fp_line (start -1 0) (end -1 -1) (layer F.SilkS) (width 0.12))
  (fp_line (start -1 -1) (end 0 -1) (layer F.SilkS) (width 0.12))
  (fp_line (start -1.5 -1.5) (end -1.5 17.5) (layer F.CrtYd) (width 0.05))
  (fp_line (start -1.5 17.5) (end 9.7 17.5) (layer F.CrtYd) (width 0.05))
  (fp_line (start 9.7 17.5) (end 9.7 -1.5) (layer F.CrtYd) (width 0.05))
  (fp_line (start 9.7 -1.5) (end -1.5 -1.5) (layer F.CrtYd) (width 0.05))
  (pad 1 thru_hole rect (at 0 0) (size 1.35 1.35) (drill 0.8) (layers *.Cu *.Mask))
  (pad 2 thru_hole oval (at 2 0) (size 1.35 1.35) (drill 0.8) (layers *.Cu *.Mask))
  (pad 3 thru_hole oval (at 0 2) (size 1.35 1.35) (drill 0.8) (layers *.Cu *.Mask))
  (pad 4 thru_hole oval (at 2 2) (size 1.35 1.35) (drill 0.8) (layers *.Cu *.Mask))
  (pad 5 thru_hole oval (at 0 4) (size 1.35 1.35) (drill 0.8) (layers *.Cu *.Mask))
  (pad 6 thru_hole oval (at 2 4) (size 1.35 1.35) (drill 0.8) (layers *.Cu *.Mask))
  (pad 7 thru_hole oval (at 0 6) (size 1.35 1.35) (drill 0.8) (layers *.Cu *.Mask))
  (pad 8 thru_hole oval (at 2 6) (size 1.35 1.35) (drill 0.8) (layers *.Cu *.Mask))
  (pad 9 thru_hole oval (at 0 8) (size 1.35 1.35) (drill 0.8) (layers *.Cu *.Mask))
  (pad 10 thru_hole oval (at 2 8) (size 1.35 1.35) (drill 0.8) (layers *.Cu *.Mask))
  (pad 11 thru_hole oval (at 0 10) (size 1.35 1.35) (drill 0.8) (layers *.Cu *.Mask))
  (pad 12 thru_hole oval (at 2 10) (size 1.35 1.35) (drill 0.8) (layers *.Cu *.Mask))
  (pad 13 thru_hole oval (at 0 12) (size 1.35 1.35) (drill 0.8) (layers *.Cu *.Mask))
  (pad 14 thru_hole oval (at 2 12) (size 1.35 1.35) (drill 0.8) (layers *.Cu *.Mask))
  (pad 15 thru_hole oval (at 0 14) (size 1.35 1.35) (drill 0.8) (layers *.Cu *.Mask))
  (pad 16 thru_hole oval (at 2 14) (size 1.35 1.35) (drill 0.8) (layers *.Cu *.Mask))
  (pad 17 thru_hole oval (at 0 16) (size 1.35 1.35) (drill 0.8) (layers *.Cu *.Mask))
  (pad 18 thru_hole oval (at 2 16) (size 1.35 1.35) (drill 0.8) (layers *.Cu *.Mask))
  (fp_text user %R (at 4.25 8 90) (layer F.Fab)
    (effects (font (size 0.9 0.9) (thickness 0.135)))
  )
  (model ${KIPRJMOD}/kicad_libs_k/models_k.3d/Connector_PinHeader_2.00mm_k.3dshapes/PinHeader_2x09_P2.00mm_Horizontal_k.wrl
    (at (xyz 0 0 0))
    (scale (xyz 1 1 1))
    (rotate (xyz 0 0 0))
  )
)