(module PinHeader_2x23_P2.00mm_Vertical (layer F.Cu) (tedit 59FED667)
  (descr "Through hole straight pin header, 2x23, 2.00mm pitch, double rows")
  (tags "Through hole pin header THT 2x23 2.00mm double row")
  (fp_text reference REF** (at 1 -2.06) (layer F.SilkS)
    (effects (font (size 1 1) (thickness 0.15)))
  )
  (fp_text value PinHeader_2x23_P2.00mm_Vertical (at 1 46.06) (layer F.Fab)
    (effects (font (size 1 1) (thickness 0.15)))
  )
  (fp_line (start 0 -1) (end 3 -1) (layer F.Fab) (width 0.1))
  (fp_line (start 3 -1) (end 3 45) (layer F.Fab) (width 0.1))
  (fp_line (start 3 45) (end -1 45) (layer F.Fab) (width 0.1))
  (fp_line (start -1 45) (end -1 0) (layer F.Fab) (width 0.1))
  (fp_line (start -1 0) (end 0 -1) (layer F.Fab) (width 0.1))
  (fp_line (start -1.06 45.06) (end 3.06 45.06) (layer F.SilkS) (width 0.12))
  (fp_line (start -1.06 1) (end -1.06 45.06) (layer F.SilkS) (width 0.12))
  (fp_line (start 3.06 -1.06) (end 3.06 45.06) (layer F.SilkS) (width 0.12))
  (fp_line (start -1.06 1) (end 1 1) (layer F.SilkS) (width 0.12))
  (fp_line (start 1 1) (end 1 -1.06) (layer F.SilkS) (width 0.12))
  (fp_line (start 1 -1.06) (end 3.06 -1.06) (layer F.SilkS) (width 0.12))
  (fp_line (start -1.06 0) (end -1.06 -1.06) (layer F.SilkS) (width 0.12))
  (fp_line (start -1.06 -1.06) (end 0 -1.06) (layer F.SilkS) (width 0.12))
  (fp_line (start -1.5 -1.5) (end -1.5 45.5) (layer F.CrtYd) (width 0.05))
  (fp_line (start -1.5 45.5) (end 3.5 45.5) (layer F.CrtYd) (width 0.05))
  (fp_line (start 3.5 45.5) (end 3.5 -1.5) (layer F.CrtYd) (width 0.05))
  (fp_line (start 3.5 -1.5) (end -1.5 -1.5) (layer F.CrtYd) (width 0.05))
  (pad 1 thru_hole rect (at 0 0) (size 1.35 1.35) (drill 0.8) (layers *.Cu *.Mask))
  (pad 2 thru_hole oval (at 2 0) (size 1.35 1.35) (drill 0.8) (layers *.Cu *.Mask))
  (pad 3 thru_hole oval (at 0 2) (size 1.35 1.35) (drill 0.8) (layers *.Cu *.Mask))
  (pad 4 thru_hole oval (at 2 2) (size 1.35 1.35) (drill 0.8) (layers *.Cu *.Mask))
  (pad 5 thru_hole oval (at 0 4) (size 1.35 1.35) (drill 0.8) (layers *.Cu *.Mask))
  (pad 6 thru_hole oval (at 2 4) (size 1.35 1.35) (drill 0.8) (layers *.Cu *.Mask))
  (pad 7 thru_hole oval (at 0 6) (size 1.35 1.35) (drill 0.8) (layers *.Cu *.Mask))
  (pad 8 thru_hole oval (at 2 6) (size 1.35 1.35) (drill 0.8) (layers *.Cu *.Mask))
  (pad 9 thru_hole oval (at 0 8) (size 1.35 1.35) (drill 0.8) (layers *.Cu *.Mask))
  (pad 10 thru_hole oval (at 2 8) (size 1.35 1.35) (drill 0.8) (layers *.Cu *.Mask))
  (pad 11 thru_hole oval (at 0 10) (size 1.35 1.35) (drill 0.8) (layers *.Cu *.Mask))
  (pad 12 thru_hole oval (at 2 10) (size 1.35 1.35) (drill 0.8) (layers *.Cu *.Mask))
  (pad 13 thru_hole oval (at 0 12) (size 1.35 1.35) (drill 0.8) (layers *.Cu *.Mask))
  (pad 14 thru_hole oval (at 2 12) (size 1.35 1.35) (drill 0.8) (layers *.Cu *.Mask))
  (pad 15 thru_hole oval (at 0 14) (size 1.35 1.35) (drill 0.8) (layers *.Cu *.Mask))
  (pad 16 thru_hole oval (at 2 14) (size 1.35 1.35) (drill 0.8) (layers *.Cu *.Mask))
  (pad 17 thru_hole oval (at 0 16) (size 1.35 1.35) (drill 0.8) (layers *.Cu *.Mask))
  (pad 18 thru_hole oval (at 2 16) (size 1.35 1.35) (drill 0.8) (layers *.Cu *.Mask))
  (pad 19 thru_hole oval (at 0 18) (size 1.35 1.35) (drill 0.8) (layers *.Cu *.Mask))
  (pad 20 thru_hole oval (at 2 18) (size 1.35 1.35) (drill 0.8) (layers *.Cu *.Mask))
  (pad 21 thru_hole oval (at 0 20) (size 1.35 1.35) (drill 0.8) (layers *.Cu *.Mask))
  (pad 22 thru_hole oval (at 2 20) (size 1.35 1.35) (drill 0.8) (layers *.Cu *.Mask))
  (pad 23 thru_hole oval (at 0 22) (size 1.35 1.35) (drill 0.8) (layers *.Cu *.Mask))
  (pad 24 thru_hole oval (at 2 22) (size 1.35 1.35) (drill 0.8) (layers *.Cu *.Mask))
  (pad 25 thru_hole oval (at 0 24) (size 1.35 1.35) (drill 0.8) (layers *.Cu *.Mask))
  (pad 26 thru_hole oval (at 2 24) (size 1.35 1.35) (drill 0.8) (layers *.Cu *.Mask))
  (pad 27 thru_hole oval (at 0 26) (size 1.35 1.35) (drill 0.8) (layers *.Cu *.Mask))
  (pad 28 thru_hole oval (at 2 26) (size 1.35 1.35) (drill 0.8) (layers *.Cu *.Mask))
  (pad 29 thru_hole oval (at 0 28) (size 1.35 1.35) (drill 0.8) (layers *.Cu *.Mask))
  (pad 30 thru_hole oval (at 2 28) (size 1.35 1.35) (drill 0.8) (layers *.Cu *.Mask))
  (pad 31 thru_hole oval (at 0 30) (size 1.35 1.35) (drill 0.8) (layers *.Cu *.Mask))
  (pad 32 thru_hole oval (at 2 30) (size 1.35 1.35) (drill 0.8) (layers *.Cu *.Mask))
  (pad 33 thru_hole oval (at 0 32) (size 1.35 1.35) (drill 0.8) (layers *.Cu *.Mask))
  (pad 34 thru_hole oval (at 2 32) (size 1.35 1.35) (drill 0.8) (layers *.Cu *.Mask))
  (pad 35 thru_hole oval (at 0 34) (size 1.35 1.35) (drill 0.8) (layers *.Cu *.Mask))
  (pad 36 thru_hole oval (at 2 34) (size 1.35 1.35) (drill 0.8) (layers *.Cu *.Mask))
  (pad 37 thru_hole oval (at 0 36) (size 1.35 1.35) (drill 0.8) (layers *.Cu *.Mask))
  (pad 38 thru_hole oval (at 2 36) (size 1.35 1.35) (drill 0.8) (layers *.Cu *.Mask))
  (pad 39 thru_hole oval (at 0 38) (size 1.35 1.35) (drill 0.8) (layers *.Cu *.Mask))
  (pad 40 thru_hole oval (at 2 38) (size 1.35 1.35) (drill 0.8) (layers *.Cu *.Mask))
  (pad 41 thru_hole oval (at 0 40) (size 1.35 1.35) (drill 0.8) (layers *.Cu *.Mask))
  (pad 42 thru_hole oval (at 2 40) (size 1.35 1.35) (drill 0.8) (layers *.Cu *.Mask))
  (pad 43 thru_hole oval (at 0 42) (size 1.35 1.35) (drill 0.8) (layers *.Cu *.Mask))
  (pad 44 thru_hole oval (at 2 42) (size 1.35 1.35) (drill 0.8) (layers *.Cu *.Mask))
  (pad 45 thru_hole oval (at 0 44) (size 1.35 1.35) (drill 0.8) (layers *.Cu *.Mask))
  (pad 46 thru_hole oval (at 2 44) (size 1.35 1.35) (drill 0.8) (layers *.Cu *.Mask))
  (fp_text user %R (at 1 22 90) (layer F.Fab)
    (effects (font (size 1 1) (thickness 0.15)))
  )
  (model ${KIPRJMOD}/kicad_libs_k/models_k.3d/Connector_PinHeader_2.00mm_k.3dshapes/PinHeader_2x23_P2.00mm_Vertical_k.wrl
    (at (xyz 0 0 0))
    (scale (xyz 1 1 1))
    (rotate (xyz 0 0 0))
  )
)