(module L_1210_3225Metric_Pad1.39x2.70mm_HandSolder (layer F.Cu) (tedit 5AC5DB75)
  (descr "Capacitor SMD 1210 (3225 Metric), square (rectangular) end terminal, IPC_7351 nominal with elongated pad for handsoldering. (Body size source: http://www.tortai-tech.com/upload/download/2011102023233369053.pdf), generated with kicad-footprint-generator")
  (tags "inductor handsolder")
  (attr smd)
  (fp_text reference REF** (at 0 -2.3) (layer F.SilkS)
    (effects (font (size 1 1) (thickness 0.15)))
  )
  (fp_text value L_1210_3225Metric_Pad1.39x2.70mm_HandSolder (at 0 2.3) (layer F.Fab)
    (effects (font (size 1 1) (thickness 0.15)))
  )
  (fp_line (start -1.6 1.25) (end -1.6 -1.25) (layer F.Fab) (width 0.1))
  (fp_line (start -1.6 -1.25) (end 1.6 -1.25) (layer F.Fab) (width 0.1))
  (fp_line (start 1.6 -1.25) (end 1.6 1.25) (layer F.Fab) (width 0.1))
  (fp_line (start 1.6 1.25) (end -1.6 1.25) (layer F.Fab) (width 0.1))
  (fp_line (start -0.5 -1.36) (end 0.5 -1.36) (layer F.SilkS) (width 0.12))
  (fp_line (start -0.5 1.36) (end 0.5 1.36) (layer F.SilkS) (width 0.12))
  (fp_line (start -2.46 1.6) (end -2.46 -1.6) (layer F.CrtYd) (width 0.05))
  (fp_line (start -2.46 -1.6) (end 2.46 -1.6) (layer F.CrtYd) (width 0.05))
  (fp_line (start 2.46 -1.6) (end 2.46 1.6) (layer F.CrtYd) (width 0.05))
  (fp_line (start 2.46 1.6) (end -2.46 1.6) (layer F.CrtYd) (width 0.05))
  (pad 1 smd rect (at -1.5175 0) (size 1.395 2.7) (layers F.Cu F.Mask F.Paste))
  (pad 2 smd rect (at 1.5175 0) (size 1.395 2.7) (layers F.Cu F.Mask F.Paste))
  (fp_text user %R (at 0 0) (layer F.Fab)
    (effects (font (size 0.8 0.8) (thickness 0.12)))
  )
  (model ${KIPRJMOD}/kicad_libs_k/models_k.3d/Inductor_SMD_k.3dshapes/L_1210_3225Metric_k.wrl
    (at (xyz 0 0 0))
    (scale (xyz 1 1 1))
    (rotate (xyz 0 0 0))
  )
)