(module L_2816_7142Metric_Pad2.55x4.50mm_HandSolder (layer F.Cu) (tedit 5AC5DB75)
  (descr "Capacitor SMD 2816 (7142 Metric), square (rectangular) end terminal, IPC_7351 nominal with elongated pad for handsoldering. (Body size from: https://www.vishay.com/docs/30100/wsl.pdf), generated with kicad-footprint-generator")
  (tags "inductor handsolder")
  (attr smd)
  (fp_text reference REF** (at 0 -3.2) (layer F.SilkS)
    (effects (font (size 1 1) (thickness 0.15)))
  )
  (fp_text value L_2816_7142Metric_Pad2.55x4.50mm_HandSolder (at 0 3.2) (layer F.Fab)
    (effects (font (size 1 1) (thickness 0.15)))
  )
  (fp_line (start -3.55 2.1) (end -3.55 -2.1) (layer F.Fab) (width 0.1))
  (fp_line (start -3.55 -2.1) (end 3.55 -2.1) (layer F.Fab) (width 0.1))
  (fp_line (start 3.55 -2.1) (end 3.55 2.1) (layer F.Fab) (width 0.1))
  (fp_line (start 3.55 2.1) (end -3.55 2.1) (layer F.Fab) (width 0.1))
  (fp_line (start -1.33 -2.21) (end 1.33 -2.21) (layer F.SilkS) (width 0.12))
  (fp_line (start -1.33 2.21) (end 1.33 2.21) (layer F.SilkS) (width 0.12))
  (fp_line (start -4.46 2.5) (end -4.46 -2.5) (layer F.CrtYd) (width 0.05))
  (fp_line (start -4.46 -2.5) (end 4.46 -2.5) (layer F.CrtYd) (width 0.05))
  (fp_line (start 4.46 -2.5) (end 4.46 2.5) (layer F.CrtYd) (width 0.05))
  (fp_line (start 4.46 2.5) (end -4.46 2.5) (layer F.CrtYd) (width 0.05))
  (pad 1 smd rect (at -2.9275 0) (size 2.555 4.5) (layers F.Cu F.Mask F.Paste))
  (pad 2 smd rect (at 2.9275 0) (size 2.555 4.5) (layers F.Cu F.Mask F.Paste))
  (fp_text user %R (at 0 0) (layer F.Fab)
    (effects (font (size 1 1) (thickness 0.15)))
  )
  (model ${KIPRJMOD}/kicad_libs_k/models_k.3d/Inductor_SMD_k.3dshapes/L_2816_7142Metric_k.wrl
    (at (xyz 0 0 0))
    (scale (xyz 1 1 1))
    (rotate (xyz 0 0 0))
  )
)