(module L_Bourns-SRR1005 (layer F.Cu) (tedit 5A468CF4)
  (descr "Bourns SRR1005 series SMD inductor")
  (tags "Bourns SRR1005 SMD inductor")
  (attr smd)
  (fp_text reference REF** (at 0.1 6) (layer F.SilkS)
    (effects (font (size 1 1) (thickness 0.15)))
  )
  (fp_text value L_Bourns-SRR1005 (at 0 -6) (layer F.Fab)
    (effects (font (size 1 1) (thickness 0.15)))
  )
  (fp_text user %R (at 0 0) (layer F.Fab)
    (effects (font (size 1 1) (thickness 0.15)))
  )
  (fp_line (start 6.9 -5.25) (end 6.9 5.25) (layer F.CrtYd) (width 0.05))
  (fp_line (start -6.9 5.25) (end 6.9 5.25) (layer F.CrtYd) (width 0.05))
  (fp_line (start -6.35 -1.7) (end -6.35 -2.5) (layer F.Fab) (width 0.1))
  (fp_line (start -6.35 -2.5) (end -2.2 -4.5) (layer F.Fab) (width 0.1))
  (fp_line (start -6.6 -2.65) (end -6.6 -1.7) (layer F.SilkS) (width 0.12))
  (fp_line (start -6.6 -2.65) (end -1.4 -5.1) (layer F.SilkS) (width 0.12))
  (fp_circle (center 0 0) (end 0 -5) (layer F.Fab) (width 0.1))
  (fp_line (start -6.35 2.5) (end -6.35 1.7) (layer F.Fab) (width 0.1))
  (fp_line (start -6.35 2.5) (end -2.2 4.5) (layer F.Fab) (width 0.1))
  (fp_line (start 6.35 -1.7) (end 6.35 -2.5) (layer F.Fab) (width 0.1))
  (fp_line (start 6.35 2.5) (end 6.35 1.7) (layer F.Fab) (width 0.1))
  (fp_line (start 6.35 -2.5) (end 2.2 -4.5) (layer F.Fab) (width 0.1))
  (fp_line (start 6.35 2.5) (end 2.2 4.5) (layer F.Fab) (width 0.1))
  (fp_line (start -6.9 -5.25) (end -6.9 5.25) (layer F.CrtYd) (width 0.05))
  (fp_line (start -6.9 -5.25) (end 6.9 -5.25) (layer F.CrtYd) (width 0.05))
  (fp_line (start 6.6 2.65) (end 6.6 1.7) (layer F.SilkS) (width 0.12))
  (fp_line (start 6.6 2.65) (end 1.4 5.1) (layer F.SilkS) (width 0.12))
  (fp_line (start -6.6 2.65) (end -1.4 5.1) (layer F.SilkS) (width 0.12))
  (fp_line (start 6.6 -2.65) (end 1.4 -5.1) (layer F.SilkS) (width 0.12))
  (fp_line (start -6.6 2.65) (end -6.6 1.7) (layer F.SilkS) (width 0.12))
  (fp_line (start 6.6 -2.65) (end 6.6 -1.7) (layer F.SilkS) (width 0.12))
  (pad 1 smd rect (at -5.15 0) (size 3 2.8) (layers F.Cu F.Paste F.Mask))
  (pad 2 smd rect (at 5.15 0) (size 3 2.8) (layers F.Cu F.Paste F.Mask))
  (model ${KIPRJMOD}/kicad_libs_k/models_k.3d/Inductor_SMD_k.3dshapes/L_Bourns-SRR1005_k.wrl
    (at (xyz 0 0 0))
    (scale (xyz 1 1 1))
    (rotate (xyz 0 0 0))
  )
)
