(module L_Coilcraft_LPS4018 (layer F.Cu) (tedit 5A5CD04D)
  (descr "SMD Inductor Coilcraft LPS4018 https://www.coilcraft.com/misc/lps4018d.html")
  (tags "L Coilcraft LPS4018")
  (attr smd)
  (fp_text reference REF** (at 0 -3) (layer F.SilkS)
    (effects (font (size 1 1) (thickness 0.15)))
  )
  (fp_text value L_Coilcraft_LPS4018 (at 0 3) (layer F.Fab)
    (effects (font (size 1 1) (thickness 0.15)))
  )
  (fp_line (start 1.75 -2.2) (end 2.45 -1.5) (layer F.CrtYd) (width 0.05))
  (fp_line (start -0.49 -2.01) (end 0.49 -2.01) (layer F.SilkS) (width 0.12))
  (fp_line (start 1.2 -1.95) (end 1.95 -1.2) (layer F.Fab) (width 0.1))
  (fp_line (start -1.95 -1.2) (end -1.21 -1.95) (layer F.Fab) (width 0.1))
  (fp_line (start -1.95 1.2) (end -1.2 1.95) (layer F.Fab) (width 0.1))
  (fp_line (start 1.2 1.95) (end 1.95 1.2) (layer F.Fab) (width 0.1))
  (fp_text user %R (at 0 0) (layer F.Fab)
    (effects (font (size 0.8 0.8) (thickness 0.12)))
  )
  (fp_line (start 2.45 -1.5) (end 2.45 1.5) (layer F.CrtYd) (width 0.05))
  (fp_line (start -1.75 -2.2) (end 1.75 -2.2) (layer F.CrtYd) (width 0.05))
  (fp_line (start -1.95 1.2) (end -1.95 -1.2) (layer F.Fab) (width 0.1))
  (fp_line (start 1.2 1.95) (end -1.2 1.95) (layer F.Fab) (width 0.1))
  (fp_line (start 1.95 -1.2) (end 1.95 1.2) (layer F.Fab) (width 0.1))
  (fp_line (start -1.2 -1.95) (end 1.2 -1.95) (layer F.Fab) (width 0.1))
  (fp_line (start -0.49 2.01) (end 0.49 2.01) (layer F.SilkS) (width 0.12))
  (fp_line (start -1.75 -2.2) (end -2.45 -1.5) (layer F.CrtYd) (width 0.05))
  (fp_line (start -2.45 -1.5) (end -2.45 1.5) (layer F.CrtYd) (width 0.05))
  (fp_line (start -1.75 2.2) (end 1.75 2.2) (layer F.CrtYd) (width 0.05))
  (fp_line (start -1.75 2.2) (end -2.45 1.5) (layer F.CrtYd) (width 0.05))
  (fp_line (start 1.75 2.2) (end 2.45 1.5) (layer F.CrtYd) (width 0.05))
  (pad 1 smd rect (at -1.765 0) (size 0.87 2.79) (layers F.Cu F.Paste F.Mask))
  (pad 1 smd rect (at -1.195 -1.5575) (size 0.89 0.775) (layers F.Cu F.Paste F.Mask))
  (pad 1 smd rect (at -1.219 -1.0475 135.7) (size 0.5 0.831) (layers F.Cu F.Paste F.Mask))
  (pad 1 smd rect (at -1.7435 -1.493 134.5) (size 0.5 0.789) (layers F.Cu F.Paste F.Mask))
  (pad 1 smd rect (at -1.7435 1.493 225.5) (size 0.5 0.789) (layers F.Cu F.Paste F.Mask))
  (pad 1 smd rect (at -1.195 1.5575) (size 0.89 0.775) (layers F.Cu F.Paste F.Mask))
  (pad 1 smd rect (at -1.219 1.0475 224.3) (size 0.5 0.831) (layers F.Cu F.Paste F.Mask))
  (pad 2 smd rect (at 1.765 0) (size 0.87 2.79) (layers F.Cu F.Paste F.Mask))
  (pad 2 smd rect (at 1.195 -1.5575) (size 0.89 0.775) (layers F.Cu F.Paste F.Mask))
  (pad 2 smd rect (at 1.219 -1.0475 224.3) (size 0.5 0.831) (layers F.Cu F.Paste F.Mask))
  (pad 2 smd rect (at 1.7435 -1.493 225.5) (size 0.5 0.789) (layers F.Cu F.Paste F.Mask))
  (pad 2 smd rect (at 1.195 1.5575) (size 0.89 0.775) (layers F.Cu F.Paste F.Mask))
  (pad 2 smd rect (at 1.219 1.0475 135.7) (size 0.5 0.831) (layers F.Cu F.Paste F.Mask))
  (pad 2 smd rect (at 1.7435 1.493 134.5) (size 0.5 0.789) (layers F.Cu F.Paste F.Mask))
  (model ${KIPRJMOD}/kicad_libs_k/models_k.3d/Inductor_SMD_k.3dshapes/L_Coilcraft_LPS4018_k.wrl
    (at (xyz 0 0 0))
    (scale (xyz 1 1 1))
    (rotate (xyz 0 0 0))
  )
)
