(module L_Fastron_PISR_Handsoldering (layer F.Cu) (tedit 5990349C)
  (descr "Choke, Drossel, PISR, Fastron, SMD,")
  (tags "Choke Drossel PISR Fastron SMD ")
  (attr smd)
  (fp_text reference REF** (at 0 -8.89) (layer F.SilkS)
    (effects (font (size 1 1) (thickness 0.15)))
  )
  (fp_text value L_Fastron_PISR_Handsoldering (at 0 9) (layer F.Fab)
    (effects (font (size 1 1) (thickness 0.15)))
  )
  (fp_text user %R (at 0 0) (layer F.Fab)
    (effects (font (size 1 1) (thickness 0.15)))
  )
  (fp_line (start -9.6 2.8) (end -9.6 1.8) (layer F.CrtYd) (width 0.05))
  (fp_line (start -9.6 1.8) (end -10.6 1.8) (layer F.CrtYd) (width 0.05))
  (fp_line (start -10.6 1.8) (end -10.6 -1.8) (layer F.CrtYd) (width 0.05))
  (fp_line (start -10.6 -1.8) (end -9.6 -1.8) (layer F.CrtYd) (width 0.05))
  (fp_line (start -9.6 -1.8) (end -9.6 -2.8) (layer F.CrtYd) (width 0.05))
  (fp_line (start 9.6 -2.8) (end 9.6 -1.8) (layer F.CrtYd) (width 0.05))
  (fp_line (start 9.6 -1.8) (end 10.6 -1.8) (layer F.CrtYd) (width 0.05))
  (fp_line (start 10.6 -1.8) (end 10.6 1.8) (layer F.CrtYd) (width 0.05))
  (fp_line (start 10.6 1.8) (end 9.6 1.8) (layer F.CrtYd) (width 0.05))
  (fp_line (start 9.6 1.8) (end 9.6 2.8) (layer F.CrtYd) (width 0.05))
  (fp_line (start -9.6 -2.8) (end -2.6 -7.8) (layer F.CrtYd) (width 0.05))
  (fp_line (start -2.6 -7.8) (end 2.6 -7.8) (layer F.CrtYd) (width 0.05))
  (fp_line (start 2.6 -7.8) (end 9.6 -2.8) (layer F.CrtYd) (width 0.05))
  (fp_line (start 9.6 2.8) (end 2.6 7.8) (layer F.CrtYd) (width 0.05))
  (fp_line (start 2.6 7.8) (end -2.6 7.8) (layer F.CrtYd) (width 0.05))
  (fp_line (start -2.6 7.8) (end -9.6 2.8) (layer F.CrtYd) (width 0.05))
  (fp_line (start 4.1 6.4) (end 9.3 2.6) (layer F.SilkS) (width 0.12))
  (fp_line (start 9.3 2.6) (end 9.3 2.1) (layer F.SilkS) (width 0.12))
  (fp_line (start 4.6 -6.1) (end 9.3 -2.6) (layer F.SilkS) (width 0.12))
  (fp_line (start 9.3 -2.6) (end 9.3 -2.1) (layer F.SilkS) (width 0.12))
  (fp_line (start -9.3 -2.6) (end -4.4 -6.2) (layer F.SilkS) (width 0.12))
  (fp_line (start -9.3 -2.6) (end -9.3 -2.1) (layer F.SilkS) (width 0.12))
  (fp_line (start -5 5.7) (end -9.3 2.6) (layer F.SilkS) (width 0.12))
  (fp_line (start -9.3 2.6) (end -9.3 2.1) (layer F.SilkS) (width 0.12))
  (fp_line (start 0 -0.25) (end 0 0.25) (layer F.Adhes) (width 0.38))
  (fp_line (start -6.35 -2.08) (end -6.05 -2.69) (layer F.Fab) (width 0.1))
  (fp_line (start -6.05 -2.69) (end -5.64 -3.51) (layer F.Fab) (width 0.1))
  (fp_line (start -5.64 -3.51) (end -5.13 -4.22) (layer F.Fab) (width 0.1))
  (fp_line (start -5.13 -4.22) (end -4.42 -4.98) (layer F.Fab) (width 0.1))
  (fp_line (start -4.42 -4.98) (end -3.61 -5.54) (layer F.Fab) (width 0.1))
  (fp_line (start -3.61 -5.54) (end -2.39 -6.15) (layer F.Fab) (width 0.1))
  (fp_line (start -2.39 -6.15) (end -1.37 -6.5) (layer F.Fab) (width 0.1))
  (fp_line (start -1.37 -6.5) (end -0.2 -6.6) (layer F.Fab) (width 0.1))
  (fp_line (start -0.2 -6.6) (end 0.81 -6.6) (layer F.Fab) (width 0.1))
  (fp_line (start 0.81 -6.6) (end 1.93 -6.35) (layer F.Fab) (width 0.1))
  (fp_line (start 1.93 -6.35) (end 2.95 -5.89) (layer F.Fab) (width 0.1))
  (fp_line (start 2.95 -5.89) (end 3.91 -5.33) (layer F.Fab) (width 0.1))
  (fp_line (start 3.91 -5.33) (end 4.83 -4.57) (layer F.Fab) (width 0.1))
  (fp_line (start 4.83 -4.57) (end 5.49 -3.71) (layer F.Fab) (width 0.1))
  (fp_line (start 5.49 -3.71) (end 6.1 -2.59) (layer F.Fab) (width 0.1))
  (fp_line (start 6.1 -2.59) (end 6.3 -2.18) (layer F.Fab) (width 0.1))
  (fp_line (start -6.3 2.08) (end -6.1 2.69) (layer F.Fab) (width 0.1))
  (fp_line (start -6.1 2.69) (end -5.74 3.45) (layer F.Fab) (width 0.1))
  (fp_line (start -5.74 3.45) (end -5.03 4.37) (layer F.Fab) (width 0.1))
  (fp_line (start -5.03 4.37) (end -4.22 5.13) (layer F.Fab) (width 0.1))
  (fp_line (start -4.22 5.13) (end -3.1 5.84) (layer F.Fab) (width 0.1))
  (fp_line (start -3.1 5.84) (end -2.24 6.3) (layer F.Fab) (width 0.1))
  (fp_line (start -2.24 6.3) (end -0.91 6.6) (layer F.Fab) (width 0.1))
  (fp_line (start -0.91 6.6) (end 0.05 6.65) (layer F.Fab) (width 0.1))
  (fp_line (start 0.05 6.65) (end 0.97 6.6) (layer F.Fab) (width 0.1))
  (fp_line (start 0.97 6.6) (end 2.24 6.3) (layer F.Fab) (width 0.1))
  (fp_line (start 2.24 6.3) (end 3.35 5.79) (layer F.Fab) (width 0.1))
  (fp_line (start 3.35 5.79) (end 4.22 5.13) (layer F.Fab) (width 0.1))
  (fp_line (start 4.22 5.13) (end 5.03 4.32) (layer F.Fab) (width 0.1))
  (fp_line (start 5.03 4.32) (end 5.64 3.51) (layer F.Fab) (width 0.1))
  (fp_line (start 5.64 3.51) (end 6.1 2.69) (layer F.Fab) (width 0.1))
  (fp_line (start 6.1 2.69) (end 6.3 2.13) (layer F.Fab) (width 0.1))
  (fp_line (start -4.98 5.59) (end -4.32 6.1) (layer F.Fab) (width 0.1))
  (fp_line (start -4.32 6.1) (end -3.3 6.71) (layer F.Fab) (width 0.1))
  (fp_line (start -3.3 6.71) (end -1.98 7.26) (layer F.Fab) (width 0.1))
  (fp_line (start -1.98 7.26) (end -0.56 7.52) (layer F.Fab) (width 0.1))
  (fp_line (start -0.56 7.52) (end 0.51 7.52) (layer F.Fab) (width 0.1))
  (fp_line (start 0.51 7.52) (end 1.17 7.42) (layer F.Fab) (width 0.1))
  (fp_line (start 1.17 7.42) (end 2.34 7.16) (layer F.Fab) (width 0.1))
  (fp_line (start 2.34 7.16) (end 3.4 6.65) (layer F.Fab) (width 0.1))
  (fp_line (start 3.4 6.65) (end 4.37 6.1) (layer F.Fab) (width 0.1))
  (fp_line (start 4.37 6.1) (end 5.13 5.49) (layer F.Fab) (width 0.1))
  (fp_line (start -4.98 -5.64) (end -4.57 -5.99) (layer F.Fab) (width 0.1))
  (fp_line (start -4.57 -5.99) (end -3.71 -6.55) (layer F.Fab) (width 0.1))
  (fp_line (start -3.71 -6.55) (end -2.84 -7.01) (layer F.Fab) (width 0.1))
  (fp_line (start -2.84 -7.01) (end -1.88 -7.26) (layer F.Fab) (width 0.1))
  (fp_line (start -1.88 -7.26) (end -0.81 -7.52) (layer F.Fab) (width 0.1))
  (fp_line (start -0.81 -7.52) (end 0 -7.52) (layer F.Fab) (width 0.1))
  (fp_line (start 0 -7.52) (end 1.12 -7.47) (layer F.Fab) (width 0.1))
  (fp_line (start 1.12 -7.47) (end 2.34 -7.21) (layer F.Fab) (width 0.1))
  (fp_line (start 2.34 -7.21) (end 3.56 -6.65) (layer F.Fab) (width 0.1))
  (fp_line (start 3.56 -6.65) (end 4.37 -6.15) (layer F.Fab) (width 0.1))
  (fp_line (start 4.37 -6.15) (end 4.93 -5.69) (layer F.Fab) (width 0.1))
  (fp_line (start 9.14 -2.54) (end 4.98 -5.64) (layer F.Fab) (width 0.1))
  (fp_line (start -9.14 -2.54) (end -4.98 -5.64) (layer F.Fab) (width 0.1))
  (fp_line (start -9.14 2.54) (end -4.98 5.59) (layer F.Fab) (width 0.1))
  (fp_line (start 9.14 2.08) (end 9.14 2.54) (layer F.Fab) (width 0.1))
  (fp_line (start 9.14 2.54) (end 4.98 5.59) (layer F.Fab) (width 0.1))
  (fp_line (start -9.14 2.08) (end -9.14 2.54) (layer F.Fab) (width 0.1))
  (fp_line (start -9.14 -2.08) (end -9.14 -2.54) (layer F.Fab) (width 0.1))
  (fp_line (start 9.14 -2.08) (end 9.14 -2.54) (layer F.Fab) (width 0.1))
  (fp_circle (center 0 0) (end 0 1.52) (layer F.Adhes) (width 0.38))
  (fp_circle (center 0 0) (end 0 1.27) (layer F.Adhes) (width 0.38))
  (fp_circle (center 0 0) (end 0 1.02) (layer F.Adhes) (width 0.38))
  (fp_circle (center 0 0) (end 0 0.76) (layer F.Adhes) (width 0.38))
  (fp_circle (center 0 0) (end 0 0.51) (layer F.Adhes) (width 0.38))
  (fp_circle (center 0 0) (end 0 0.25) (layer F.Adhes) (width 0.38))
  (fp_arc (start 0 0) (end 5.25 5.5) (angle 85) (layer F.SilkS) (width 0.12))
  (fp_arc (start 0 0) (end -5.25 -5.5) (angle 85) (layer F.SilkS) (width 0.12))
  (pad 2 smd rect (at -8.33 0) (size 4 3) (layers F.Cu F.Paste F.Mask))
  (pad 1 smd rect (at 8.33 0) (size 4 3) (layers F.Cu F.Paste F.Mask))
  (model ${KIPRJMOD}/kicad_libs_k/models_k.3d/Inductor_SMD_k.3dshapes/L_Fastron_PISR_k.wrl
    (at (xyz 0 0 0))
    (scale (xyz 1 1 1))
    (rotate (xyz 0 0 0))
  )
)
