(module L_Neosid_Ms95a (layer F.Cu) (tedit 5990349C)
  (descr "Neosid,Inductor,Ms95, Ms95a, Ms95T, Festinduktivitaet, SMD,")
  (tags "NeosidInductorMs95 Ms95a Ms95T Festinduktivitaet SMD")
  (attr smd)
  (fp_text reference REF** (at 0 -5.7) (layer F.SilkS)
    (effects (font (size 1 1) (thickness 0.15)))
  )
  (fp_text value L_Neosid_Ms95a (at 0 5.8) (layer F.Fab)
    (effects (font (size 1 1) (thickness 0.15)))
  )
  (fp_text user %R (at 0 0) (layer F.Fab)
    (effects (font (size 1 1) (thickness 0.15)))
  )
  (fp_line (start -4.7 1.5) (end -4.7 2.7) (layer F.Fab) (width 0.1))
  (fp_line (start -4.7 2.7) (end -2.7 4.7) (layer F.Fab) (width 0.1))
  (fp_line (start -2.7 4.9) (end -4.9 2.7) (layer F.SilkS) (width 0.12))
  (fp_line (start -2.7 4.9) (end 2.8 4.9) (layer F.SilkS) (width 0.12))
  (fp_line (start 2.8 4.9) (end 4.9 2.8) (layer F.SilkS) (width 0.12))
  (fp_line (start -4.9 -2.8) (end -2.8 -4.9) (layer F.SilkS) (width 0.12))
  (fp_line (start -2.8 -4.9) (end 2.8 -4.9) (layer F.SilkS) (width 0.12))
  (fp_line (start 2.8 -4.9) (end 4.9 -2.8) (layer F.SilkS) (width 0.12))
  (fp_line (start 4.7 2.8) (end 4.7 1.5) (layer F.Fab) (width 0.1))
  (fp_line (start 4.7 1.5) (end 6.4 1.5) (layer F.Fab) (width 0.1))
  (fp_line (start 6.4 1.5) (end 6.4 -1.5) (layer F.Fab) (width 0.1))
  (fp_line (start 6.4 -1.5) (end 4.7 -1.5) (layer F.Fab) (width 0.1))
  (fp_line (start 4.7 -1.5) (end 4.7 -2.8) (layer F.Fab) (width 0.1))
  (fp_line (start -6.4 -1.5) (end -6.4 1.5) (layer F.Fab) (width 0.1))
  (fp_line (start -6.4 1.5) (end -4.7 1.5) (layer F.Fab) (width 0.1))
  (fp_line (start -6.4 -1.5) (end -4.7 -1.5) (layer F.Fab) (width 0.1))
  (fp_line (start -4.7 -1.5) (end -4.7 -2.8) (layer F.Fab) (width 0.1))
  (fp_line (start 4.7 2.8) (end 2.8 4.7) (layer F.Fab) (width 0.1))
  (fp_line (start 2.8 4.7) (end -2.7 4.7) (layer F.Fab) (width 0.1))
  (fp_line (start 4.7 -2.8) (end 2.8 -4.7) (layer F.Fab) (width 0.1))
  (fp_line (start 2.8 -4.7) (end -2.8 -4.7) (layer F.Fab) (width 0.1))
  (fp_line (start -2.8 -4.7) (end -4.7 -2.8) (layer F.Fab) (width 0.1))
  (fp_line (start -6.95 -4.95) (end 6.95 -4.95) (layer F.CrtYd) (width 0.05))
  (fp_line (start -6.95 -4.95) (end -6.95 4.95) (layer F.CrtYd) (width 0.05))
  (fp_line (start 6.95 4.95) (end 6.95 -4.95) (layer F.CrtYd) (width 0.05))
  (fp_line (start 6.95 4.95) (end -6.95 4.95) (layer F.CrtYd) (width 0.05))
  (pad 1 smd rect (at -5.25 0) (size 2.9 4.5) (layers F.Cu F.Paste F.Mask))
  (pad 2 smd rect (at 5.25 0) (size 2.9 4.5) (layers F.Cu F.Paste F.Mask))
  (model ${KIPRJMOD}/kicad_libs_k/models_k.3d/Inductor_SMD_k.3dshapes/L_Neosid_Ms95a_k.wrl
    (at (xyz 0 0 0))
    (scale (xyz 1 1 1))
    (rotate (xyz 0 0 0))
  )
)
