(module L_Neosid_Ms50T (layer F.Cu) (tedit 59912CAD)
  (descr "Neosid, Power Inductor, Ms50T, SMD, Festinduktivitaet,  high temperature,")
  (tags "Neosid Power Inductor Ms50T SMD Festinduktivitaet high temperature")
  (attr smd)
  (fp_text reference REF** (at 0 -3.1) (layer F.SilkS)
    (effects (font (size 1 1) (thickness 0.15)))
  )
  (fp_text value L_Neosid_Ms50T (at 0 3.2) (layer F.Fab)
    (effects (font (size 1 1) (thickness 0.15)))
  )
  (fp_text user %R (at 0 0 90) (layer F.Fab)
    (effects (font (size 0.8 0.8) (thickness 0.15)))
  )
  (fp_line (start -1.4 2.2) (end 1.4 2.2) (layer F.SilkS) (width 0.12))
  (fp_line (start 1.4 -2.2) (end -1.4 -2.2) (layer F.SilkS) (width 0.12))
  (fp_line (start 1.4 1.2) (end 2.4 1.2) (layer F.Fab) (width 0.1))
  (fp_line (start 2.4 1.2) (end 2.4 -1.2) (layer F.Fab) (width 0.1))
  (fp_line (start 2.4 -1.2) (end 1.4 -1.2) (layer F.Fab) (width 0.1))
  (fp_line (start -2.4 -1.2) (end -2.4 1.2) (layer F.Fab) (width 0.1))
  (fp_line (start -2.4 1.2) (end -1.4 1.2) (layer F.Fab) (width 0.1))
  (fp_line (start -2.4 -1.2) (end -1.4 -1.2) (layer F.Fab) (width 0.1))
  (fp_line (start -1.4 -2) (end -1.4 2) (layer F.Fab) (width 0.1))
  (fp_line (start -1.4 2) (end 1.4 2) (layer F.Fab) (width 0.1))
  (fp_line (start 1.4 2) (end 1.4 -2) (layer F.Fab) (width 0.1))
  (fp_line (start 1.4 -2) (end -1.4 -2) (layer F.Fab) (width 0.1))
  (fp_line (start -3.35 -2.25) (end 3.35 -2.25) (layer F.CrtYd) (width 0.05))
  (fp_line (start -3.35 -2.25) (end -3.35 2.25) (layer F.CrtYd) (width 0.05))
  (fp_line (start 3.35 2.25) (end 3.35 -2.25) (layer F.CrtYd) (width 0.05))
  (fp_line (start 3.35 2.25) (end -3.35 2.25) (layer F.CrtYd) (width 0.05))
  (pad 1 smd rect (at -2.4 0) (size 1.4 2.8) (layers F.Cu F.Paste F.Mask))
  (pad 2 smd rect (at 2.4 0) (size 1.4 2.8) (layers F.Cu F.Paste F.Mask))
  (model ${KIPRJMOD}/kicad_libs_k/models_k.3d/Inductor_SMD_k.3dshapes/L_Neosid_Ms50T_k.wrl
    (at (xyz 0 0 0))
    (scale (xyz 1 1 1))
    (rotate (xyz 0 0 0))
  )
)
