(module L_Neosid_Air-Coil_SML_2turn_HDM0231A (layer F.Cu) (tedit 5990349C)
  (descr "Neosid, Air-Coil, SML, 2turn, HDM0231A,")
  (tags "Neosid Air-Coil SML 2turn HDM0231A")
  (attr smd)
  (fp_text reference REF** (at 0 -5.5) (layer F.SilkS)
    (effects (font (size 1 1) (thickness 0.15)))
  )
  (fp_text value L_Neosid_Air-Coil_SML_2turn_HDM0231A (at 0 5.5) (layer F.Fab)
    (effects (font (size 1 1) (thickness 0.15)))
  )
  (fp_text user %R (at 0 -0.05) (layer F.Fab)
    (effects (font (size 0.7 0.7) (thickness 0.105)))
  )
  (fp_line (start -1.5 3.5) (end -1.5 -1.6) (layer F.Fab) (width 0.1))
  (fp_line (start -1.5 -1.6) (end 0 1.5) (layer F.Fab) (width 0.1))
  (fp_line (start 0 1.5) (end 0.1 -1.5) (layer F.Fab) (width 0.1))
  (fp_line (start 0.1 -1.5) (end 1.5 1.6) (layer F.Fab) (width 0.1))
  (fp_line (start 1.5 1.6) (end 1.5 -3.6) (layer F.Fab) (width 0.1))
  (fp_line (start -2 4.45) (end -0.9 4.45) (layer F.CrtYd) (width 0.05))
  (fp_line (start -0.9 4.45) (end -0.9 2.1) (layer F.CrtYd) (width 0.05))
  (fp_line (start -0.9 2.1) (end 2 2.1) (layer F.CrtYd) (width 0.05))
  (fp_line (start 2 2.1) (end 2 -4.45) (layer F.CrtYd) (width 0.05))
  (fp_line (start 2 -4.45) (end 0.9 -4.45) (layer F.CrtYd) (width 0.05))
  (fp_line (start 0.9 -4.45) (end 0.9 -2.1) (layer F.CrtYd) (width 0.05))
  (fp_line (start 0.9 -2.1) (end -2 -2.1) (layer F.CrtYd) (width 0.05))
  (fp_line (start -2 -2.1) (end -2 4.45) (layer F.CrtYd) (width 0.05))
  (fp_line (start 0 -1.6) (end 1.45 1.6) (layer F.SilkS) (width 0.12))
  (fp_line (start -1.45 -1.6) (end 0 1.6) (layer F.SilkS) (width 0.12))
  (fp_line (start 0 -1.6) (end 0 1.6) (layer F.SilkS) (width 0.12))
  (fp_line (start -1.45 -1.6) (end -1.45 2.25) (layer F.SilkS) (width 0.12))
  (fp_line (start 1.45 1.6) (end 1.45 -2.25) (layer F.SilkS) (width 0.12))
  (pad 1 smd rect (at -1.45 3.45) (size 0.6 1.5) (layers F.Cu F.Paste F.Mask))
  (pad 2 smd rect (at 1.45 -3.45) (size 0.6 1.5) (layers F.Cu F.Paste F.Mask))
  (model ${KIPRJMOD}/kicad_libs_k/models_k.3d/Inductor_SMD_k.3dshapes/L_Neosid_Air-Coil_SML_2turn_HDM0231A_k.wrl
    (at (xyz 0 0 0))
    (scale (xyz 1 1 1))
    (rotate (xyz 0 0 0))
  )
)
