(module L_Sagami_CWR1277C (layer F.Cu) (tedit 5990349C)
  (descr "Sagami power inductor, CWR1242C, H=7.7mm (http://www.sagami-elec.co.jp/file/16Car_SMDCwr.pdf)")
  (tags "inductor sagami cwr12xx smd")
  (attr smd)
  (fp_text reference REF** (at 0 -7.6) (layer F.SilkS)
    (effects (font (size 1 1) (thickness 0.15)))
  )
  (fp_text value L_Sagami_CWR1277C (at 0 7.6) (layer F.Fab)
    (effects (font (size 1 1) (thickness 0.15)))
  )
  (fp_text user %R (at 0 0) (layer F.Fab)
    (effects (font (size 1 1) (thickness 0.1)))
  )
  (fp_line (start 4.61 6.17) (end 6.17 4.61) (layer F.SilkS) (width 0.12))
  (fp_line (start -2 -2) (end -2 2) (layer F.SilkS) (width 0.12))
  (fp_line (start -6.05 4.55) (end -6.05 -4.55) (layer F.Fab) (width 0.1))
  (fp_line (start 4.55 6.05) (end -4.55 6.05) (layer F.Fab) (width 0.1))
  (fp_line (start 6.05 -4.55) (end 6.05 4.55) (layer F.Fab) (width 0.1))
  (fp_line (start -4.55 -6.05) (end 4.55 -6.05) (layer F.Fab) (width 0.1))
  (fp_line (start 4.55 -6.05) (end 6.05 -4.55) (layer F.Fab) (width 0.1))
  (fp_line (start -6.05 4.55) (end -4.55 6.05) (layer F.Fab) (width 0.1))
  (fp_line (start 4.55 6.05) (end 6.05 4.55) (layer F.Fab) (width 0.1))
  (fp_line (start -6.05 -4.55) (end -4.55 -6.05) (layer F.Fab) (width 0.1))
  (fp_line (start 4.61 -6.17) (end 2 -6.17) (layer F.SilkS) (width 0.12))
  (fp_line (start 6.17 -2) (end 6.17 -4.61) (layer F.SilkS) (width 0.12))
  (fp_line (start 6.17 4.61) (end 6.17 2) (layer F.SilkS) (width 0.12))
  (fp_line (start 2 6.17) (end 4.61 6.17) (layer F.SilkS) (width 0.12))
  (fp_line (start -4.61 6.17) (end -2 6.17) (layer F.SilkS) (width 0.12))
  (fp_line (start -6.17 2) (end -6.17 4.61) (layer F.SilkS) (width 0.12))
  (fp_line (start -6.17 -4.61) (end -6.17 -2) (layer F.SilkS) (width 0.12))
  (fp_line (start -4.61 -6.17) (end -2 -6.17) (layer F.SilkS) (width 0.12))
  (fp_line (start -6.9 6.9) (end 6.9 6.9) (layer F.CrtYd) (width 0.05))
  (fp_line (start -6.9 -6.9) (end 6.9 -6.9) (layer F.CrtYd) (width 0.05))
  (fp_line (start 6.9 -6.9) (end 6.9 6.9) (layer F.CrtYd) (width 0.05))
  (fp_line (start -6.9 -6.9) (end -6.9 6.9) (layer F.CrtYd) (width 0.05))
  (fp_line (start 4.61 -6.17) (end 6.17 -4.61) (layer F.SilkS) (width 0.12))
  (fp_line (start -4.61 -6.17) (end -6.17 -4.61) (layer F.SilkS) (width 0.12))
  (fp_line (start -4.61 6.17) (end -6.17 4.61) (layer F.SilkS) (width 0.12))
  (fp_circle (center 0 0) (end 4.25 0) (layer F.Fab) (width 0.1))
  (pad 1 smd rect (at 0 5.35) (size 3.6 2.5) (layers F.Cu F.Paste F.Mask))
  (pad 2 smd rect (at 0 -5.35) (size 3.6 2.5) (layers F.Cu F.Paste F.Mask))
  (pad 1 smd rect (at -5.35 0) (size 2.5 3.6) (layers F.Cu F.Paste F.Mask))
  (pad 2 smd rect (at 5.35 0) (size 2.5 3.6) (layers F.Cu F.Paste F.Mask))
  (model ${KIPRJMOD}/kicad_libs_k/models_k.3d/Inductor_SMD_k.3dshapes/L_Sagami_CWR1277C_k.wrl
    (at (xyz 0 0 0))
    (scale (xyz 1 1 1))
    (rotate (xyz 0 0 0))
  )
)
