(module L_Taiyo-Yuden_NR-24xx_HandSoldering (layer F.Cu) (tedit 5990349C)
  (descr "Inductor, Taiyo Yuden, NR series, Taiyo-Yuden_NR-24xx, 2.4mmx2.4mm")
  (tags "inductor taiyo-yuden nr smd")
  (attr smd)
  (fp_text reference REF** (at 0 -2.2) (layer F.SilkS)
    (effects (font (size 1 1) (thickness 0.15)))
  )
  (fp_text value L_Taiyo-Yuden_NR-24xx_HandSoldering (at 0 2.7) (layer F.Fab)
    (effects (font (size 1 1) (thickness 0.15)))
  )
  (fp_text user %R (at 0 0) (layer F.Fab)
    (effects (font (size 0.5 0.5) (thickness 0.075)))
  )
  (fp_line (start -1.2 0) (end -1.2 -0.725) (layer F.Fab) (width 0.1))
  (fp_line (start -1.2 -0.725) (end -0.725 -1.2) (layer F.Fab) (width 0.1))
  (fp_line (start -0.725 -1.2) (end 0 -1.2) (layer F.Fab) (width 0.1))
  (fp_line (start 1.2 0) (end 1.2 -0.725) (layer F.Fab) (width 0.1))
  (fp_line (start 1.2 -0.725) (end 0.725 -1.2) (layer F.Fab) (width 0.1))
  (fp_line (start 0.725 -1.2) (end 0 -1.2) (layer F.Fab) (width 0.1))
  (fp_line (start 1.2 0) (end 1.2 0.725) (layer F.Fab) (width 0.1))
  (fp_line (start 1.2 0.725) (end 0.725 1.2) (layer F.Fab) (width 0.1))
  (fp_line (start 0.725 1.2) (end 0 1.2) (layer F.Fab) (width 0.1))
  (fp_line (start -1.2 0) (end -1.2 0.725) (layer F.Fab) (width 0.1))
  (fp_line (start -1.2 0.725) (end -0.725 1.2) (layer F.Fab) (width 0.1))
  (fp_line (start -0.725 1.2) (end 0 1.2) (layer F.Fab) (width 0.1))
  (fp_line (start -2.2 -1.3) (end 2.2 -1.3) (layer F.SilkS) (width 0.12))
  (fp_line (start -2.2 1.3) (end 2.2 1.3) (layer F.SilkS) (width 0.12))
  (fp_line (start -2.5 -1.5) (end -2.5 1.5) (layer F.CrtYd) (width 0.05))
  (fp_line (start -2.5 1.5) (end 2.5 1.5) (layer F.CrtYd) (width 0.05))
  (fp_line (start 2.5 1.5) (end 2.5 -1.5) (layer F.CrtYd) (width 0.05))
  (fp_line (start 2.5 -1.5) (end -2.5 -1.5) (layer F.CrtYd) (width 0.05))
  (pad 1 smd rect (at -1.2875 0) (size 1.825 2.2) (layers F.Cu F.Paste F.Mask))
  (pad 2 smd rect (at 1.2875 0) (size 1.825 2.2) (layers F.Cu F.Paste F.Mask))
  (model ${KIPRJMOD}/kicad_libs_k/models_k.3d/Inductor_SMD_k.3dshapes/L_Taiyo-Yuden_NR-24xx_k.wrl
    (at (xyz 0 0 0))
    (scale (xyz 1 1 1))
    (rotate (xyz 0 0 0))
  )
)
