(module L_TracoPower_TCK-141 (layer F.Cu) (tedit 5A3BB4A2)
  (descr "Choke, SMD, 4.0x4.0mm 2.1mm height, https://www.tracopower.com/products/tck141.pdf")
  (tags "Choke SMD")
  (attr smd)
  (fp_text reference REF** (at 0 -3) (layer F.SilkS)
    (effects (font (size 1 1) (thickness 0.15)))
  )
  (fp_text value L_TracoPower_TCK-141 (at 0 3) (layer F.Fab)
    (effects (font (size 1 1) (thickness 0.15)))
  )
  (fp_text user %R (at 0 0) (layer F.Fab)
    (effects (font (size 0.4 0.4) (thickness 0.075)))
  )
  (fp_line (start 2.2 1) (end 2.2 2.2) (layer F.SilkS) (width 0.12))
  (fp_line (start 2.2 2.2) (end -2.2 2.2) (layer F.SilkS) (width 0.12))
  (fp_line (start -2.2 2.2) (end -2.2 1) (layer F.SilkS) (width 0.12))
  (fp_line (start -2.2 -1.1) (end -2.2 -2.2) (layer F.SilkS) (width 0.12))
  (fp_line (start -2.2 -2.2) (end 2.2 -2.2) (layer F.SilkS) (width 0.12))
  (fp_line (start 2.2 -2.2) (end 2.2 -1) (layer F.SilkS) (width 0.12))
  (fp_line (start -3.25 -2.25) (end -3.25 2.25) (layer F.CrtYd) (width 0.05))
  (fp_line (start -3.25 2.25) (end 3.25 2.25) (layer F.CrtYd) (width 0.05))
  (fp_line (start 3.25 2.25) (end 3.25 -2.25) (layer F.CrtYd) (width 0.05))
  (fp_line (start -3.25 -2.25) (end 3.25 -2.25) (layer F.CrtYd) (width 0.05))
  (fp_line (start 2 2) (end 2 1) (layer F.Fab) (width 0.1))
  (fp_line (start 2 -1.95) (end 2 -1) (layer F.Fab) (width 0.1))
  (fp_line (start -2 1.95) (end -2 1) (layer F.Fab) (width 0.1))
  (fp_line (start -2 -2) (end -2 -1) (layer F.Fab) (width 0.1))
  (fp_line (start -2 -2) (end 2 -2) (layer F.Fab) (width 0.1))
  (fp_line (start -2 2) (end 2 2) (layer F.Fab) (width 0.1))
  (fp_arc (start 0 0) (end -1.21 -1.21) (angle 90) (layer F.Fab) (width 0.1))
  (fp_arc (start 0 0) (end 1.21 1.21) (angle 90) (layer F.Fab) (width 0.1))
  (pad 1 smd rect (at -2.05 0) (size 1.9 1.5) (layers F.Cu F.Paste F.Mask))
  (pad 2 smd rect (at 2.05 0) (size 1.9 1.5) (layers F.Cu F.Paste F.Mask))
  (model ${KIPRJMOD}/kicad_libs_k/models_k.3d/Inductor_SMD_k.3dshapes/L_TracoPower_TCK-141_k.wrl
    (at (xyz 0 0 0))
    (scale (xyz 1 1 1))
    (rotate (xyz 0 0 0))
  )
)
