(module L_Wuerth_WE-PD2-Typ-L (layer F.Cu) (tedit 5990349D)
  (descr "Choke, Drossel, WE-PD2, Typ L, Wuerth, SMD,")
  (tags "Choke Drossel WE-PD2 TypL Wuerth SMD ")
  (attr smd)
  (fp_text reference REF** (at 0 -4.75) (layer F.SilkS)
    (effects (font (size 1 1) (thickness 0.15)))
  )
  (fp_text value L_Wuerth_WE-PD2-Typ-L (at 0 5) (layer F.Fab)
    (effects (font (size 1 1) (thickness 0.15)))
  )
  (fp_text user %R (at 0 0) (layer F.Fab)
    (effects (font (size 1 1) (thickness 0.15)))
  )
  (fp_line (start -4.25 -4) (end 4.25 -4) (layer F.CrtYd) (width 0.05))
  (fp_line (start 4.25 -4) (end 4.25 4) (layer F.CrtYd) (width 0.05))
  (fp_line (start 4.25 4) (end -4.25 4) (layer F.CrtYd) (width 0.05))
  (fp_line (start -4.25 4) (end -4.25 -4) (layer F.CrtYd) (width 0.05))
  (fp_line (start -3.1 3.5) (end 3.1 3.5) (layer F.Fab) (width 0.1))
  (fp_line (start 3.1 -3.5) (end -3.1 -3.5) (layer F.Fab) (width 0.1))
  (fp_line (start -0.4 3.8) (end 0.4 3.8) (layer F.SilkS) (width 0.12))
  (fp_line (start -0.4 -3.8) (end 0.45 -3.8) (layer F.SilkS) (width 0.12))
  (fp_arc (start -3.9 0) (end 3.1 -3.5) (angle 53) (layer F.Fab) (width 0.1))
  (fp_arc (start 3.9 0) (end -3.1 3.5) (angle 53) (layer F.Fab) (width 0.1))
  (pad 1 smd rect (at -2.5 0) (size 3 7.5) (layers F.Cu F.Paste F.Mask))
  (pad 2 smd rect (at 2.5 0) (size 3 7.5) (layers F.Cu F.Paste F.Mask))
  (model ${KIPRJMOD}/kicad_libs_k/models_k.3d/Inductor_SMD_k.3dshapes/L_Wuerth_WE-PD2-Typ-L_k.wrl
    (at (xyz 0 0 0))
    (scale (xyz 1 1 1))
    (rotate (xyz 0 0 0))
  )
)
