(module L_Wuerth_HCM-1350 (layer F.Cu) (tedit 5990349D)
  (descr "Inductor, Wuerth Elektronik, Wuerth_HCM-1350, 13.5mmx13.3mm")
  (tags "inductor Wuerth hcm smd")
  (attr smd)
  (fp_text reference REF** (at 0 -7.65) (layer F.SilkS)
    (effects (font (size 1 1) (thickness 0.15)))
  )
  (fp_text value L_Wuerth_HCM-1350 (at 0 8.15) (layer F.Fab)
    (effects (font (size 1 1) (thickness 0.15)))
  )
  (fp_text user %R (at 0 0) (layer F.Fab)
    (effects (font (size 1 1) (thickness 0.15)))
  )
  (fp_line (start -7.25 -7) (end -7.25 7) (layer F.CrtYd) (width 0.05))
  (fp_line (start -7.25 7) (end 7.25 7) (layer F.CrtYd) (width 0.05))
  (fp_line (start 7.25 7) (end 7.25 -7) (layer F.CrtYd) (width 0.05))
  (fp_line (start 7.25 -7) (end -7.25 -7) (layer F.CrtYd) (width 0.05))
  (fp_line (start -6.75 -6.65) (end -6.75 6.65) (layer F.Fab) (width 0.1))
  (fp_line (start -6.75 6.65) (end 6.75 6.65) (layer F.Fab) (width 0.1))
  (fp_line (start 6.75 6.65) (end 6.75 -6.65) (layer F.Fab) (width 0.1))
  (fp_line (start 6.75 -6.65) (end -6.75 -6.65) (layer F.Fab) (width 0.1))
  (fp_line (start -6.85 -3) (end -6.85 -6.75) (layer F.SilkS) (width 0.12))
  (fp_line (start -6.85 -6.75) (end 0 -6.75) (layer F.SilkS) (width 0.12))
  (fp_line (start 6.85 -3) (end 6.85 -6.75) (layer F.SilkS) (width 0.12))
  (fp_line (start 6.85 -6.75) (end 0 -6.75) (layer F.SilkS) (width 0.12))
  (fp_line (start 6.85 3) (end 6.85 6.75) (layer F.SilkS) (width 0.12))
  (fp_line (start 6.85 6.75) (end 0 6.75) (layer F.SilkS) (width 0.12))
  (fp_line (start -6.85 3) (end -6.85 6.75) (layer F.SilkS) (width 0.12))
  (fp_line (start -6.85 6.75) (end 0 6.75) (layer F.SilkS) (width 0.12))
  (pad 1 smd rect (at -5.45 0) (size 2.9 5.4) (layers F.Cu F.Paste F.Mask))
  (pad 2 smd rect (at 5.45 0) (size 2.9 5.4) (layers F.Cu F.Paste F.Mask))
  (model ${KIPRJMOD}/kicad_libs_k/models_k.3d/Inductor_SMD_k.3dshapes/L_Wuerth_HCM-1350_k.wrl
    (at (xyz 0 0 0))
    (scale (xyz 1 1 1))
    (rotate (xyz 0 0 0))
  )
)
