(module L_Wuerth_MAPI-3020 (layer F.Cu) (tedit 5990349D)
  (descr "Inductor, Wuerth Elektronik, Wuerth_MAPI-3020, 3.0mmx3.0mm")
  (tags "inductor Wuerth smd")
  (attr smd)
  (fp_text reference REF** (at 0 -2.7) (layer F.SilkS)
    (effects (font (size 1 1) (thickness 0.15)))
  )
  (fp_text value L_Wuerth_MAPI-3020 (at 0 3.2) (layer F.Fab)
    (effects (font (size 1 1) (thickness 0.15)))
  )
  (fp_text user %R (at 0 0) (layer F.Fab)
    (effects (font (size 0.7 0.7) (thickness 0.105)))
  )
  (fp_line (start -1.5 -1.5) (end -1.5 1.5) (layer F.Fab) (width 0.1))
  (fp_line (start -1.5 1.5) (end 1.5 1.5) (layer F.Fab) (width 0.1))
  (fp_line (start 1.5 1.5) (end 1.5 -1.5) (layer F.Fab) (width 0.1))
  (fp_line (start 1.5 -1.5) (end -1.5 -1.5) (layer F.Fab) (width 0.1))
  (fp_line (start -2.1 -2) (end -2.1 2) (layer F.CrtYd) (width 0.05))
  (fp_line (start -2.1 2) (end 2.1 2) (layer F.CrtYd) (width 0.05))
  (fp_line (start 2.1 2) (end 2.1 -2) (layer F.CrtYd) (width 0.05))
  (fp_line (start 2.1 -2) (end -2.1 -2) (layer F.CrtYd) (width 0.05))
  (fp_line (start -0.2 -1.6) (end 0.2 -1.6) (layer F.SilkS) (width 0.12))
  (fp_line (start -0.2 1.6) (end 0.2 1.6) (layer F.SilkS) (width 0.12))
  (pad 1 smd rect (at -1.075 0) (size 1.35 3.4) (layers F.Cu F.Paste F.Mask))
  (pad 2 smd rect (at 1.075 0) (size 1.35 3.4) (layers F.Cu F.Paste F.Mask))
  (model ${KIPRJMOD}/kicad_libs_k/models_k.3d/Inductor_SMD_k.3dshapes/L_Wuerth_MAPI-3020_k.wrl
    (at (xyz 0 0 0))
    (scale (xyz 1 1 1))
    (rotate (xyz 0 0 0))
  )
)
