(module L_Wuerth_HCI-1030 (layer F.Cu) (tedit 5990349D)
  (descr "Inductor, Wuerth Elektronik, Wuerth_HCI-1030, 10.6mmx10.6mm")
  (tags "inductor Wuerth hci smd")
  (attr smd)
  (fp_text reference REF** (at 0 -6.3) (layer F.SilkS)
    (effects (font (size 1 1) (thickness 0.15)))
  )
  (fp_text value L_Wuerth_HCI-1030 (at 0 6.8) (layer F.Fab)
    (effects (font (size 1 1) (thickness 0.15)))
  )
  (fp_text user %R (at 0 0) (layer F.Fab)
    (effects (font (size 1 1) (thickness 0.15)))
  )
  (fp_line (start -5.3 -5.3) (end -5.3 5.3) (layer F.Fab) (width 0.1))
  (fp_line (start -5.3 5.3) (end 5.3 5.3) (layer F.Fab) (width 0.1))
  (fp_line (start 5.3 5.3) (end 5.3 -5.3) (layer F.Fab) (width 0.1))
  (fp_line (start 5.3 -5.3) (end -5.3 -5.3) (layer F.Fab) (width 0.1))
  (fp_line (start -6 -5.55) (end -6 5.55) (layer F.CrtYd) (width 0.05))
  (fp_line (start -6 5.55) (end 6 5.55) (layer F.CrtYd) (width 0.05))
  (fp_line (start 6 5.55) (end 6 -5.55) (layer F.CrtYd) (width 0.05))
  (fp_line (start 6 -5.55) (end -6 -5.55) (layer F.CrtYd) (width 0.05))
  (fp_line (start -5.4 2.15) (end -5.4 5.4) (layer F.SilkS) (width 0.12))
  (fp_line (start -5.4 5.4) (end 5.4 5.4) (layer F.SilkS) (width 0.12))
  (fp_line (start 5.4 5.4) (end 5.4 2.15) (layer F.SilkS) (width 0.12))
  (fp_line (start -5.4 -2.15) (end -5.4 -5.4) (layer F.SilkS) (width 0.12))
  (fp_line (start -5.4 -5.4) (end 5.4 -5.4) (layer F.SilkS) (width 0.12))
  (fp_line (start 5.4 -5.4) (end 5.4 -2.15) (layer F.SilkS) (width 0.12))
  (pad 1 smd rect (at -3.85 0) (size 3.8 3.5) (layers F.Cu F.Paste F.Mask))
  (pad 2 smd rect (at 3.85 0) (size 3.8 3.5) (layers F.Cu F.Paste F.Mask))
  (model ${KIPRJMOD}/kicad_libs_k/models_k.3d/Inductor_SMD_k.3dshapes/L_Wuerth_HCI-1030_k.wrl
    (at (xyz 0 0 0))
    (scale (xyz 1 1 1))
    (rotate (xyz 0 0 0))
  )
)
