(module L_Wuerth_HCM-7050 (layer F.Cu) (tedit 5990349D)
  (descr "Inductor, Wuerth Elektronik, Wuerth_HCM-7050, 7.2mmx7.0mm")
  (tags "inductor Wuerth hcm smd")
  (attr smd)
  (fp_text reference REF** (at 0 -4.5) (layer F.SilkS)
    (effects (font (size 1 1) (thickness 0.15)))
  )
  (fp_text value L_Wuerth_HCM-7050 (at 0 5) (layer F.Fab)
    (effects (font (size 1 1) (thickness 0.15)))
  )
  (fp_text user %R (at 0 0) (layer F.Fab)
    (effects (font (size 1 1) (thickness 0.15)))
  )
  (fp_line (start -4 -3.85) (end -4 3.85) (layer F.CrtYd) (width 0.05))
  (fp_line (start -4 3.85) (end 4 3.85) (layer F.CrtYd) (width 0.05))
  (fp_line (start 4 3.85) (end 4 -3.85) (layer F.CrtYd) (width 0.05))
  (fp_line (start 4 -3.85) (end -4 -3.85) (layer F.CrtYd) (width 0.05))
  (fp_line (start -3.575 -3.5) (end -3.575 3.5) (layer F.Fab) (width 0.1))
  (fp_line (start -3.575 3.5) (end 3.575 3.5) (layer F.Fab) (width 0.1))
  (fp_line (start 3.575 3.5) (end 3.575 -3.5) (layer F.Fab) (width 0.1))
  (fp_line (start 3.575 -3.5) (end -3.575 -3.5) (layer F.Fab) (width 0.1))
  (fp_line (start -3.675 -1.85) (end -3.675 -3.6) (layer F.SilkS) (width 0.12))
  (fp_line (start -3.675 -3.6) (end 0 -3.6) (layer F.SilkS) (width 0.12))
  (fp_line (start 3.675 -1.85) (end 3.675 -3.6) (layer F.SilkS) (width 0.12))
  (fp_line (start 3.675 -3.6) (end 0 -3.6) (layer F.SilkS) (width 0.12))
  (fp_line (start 3.675 1.85) (end 3.675 3.6) (layer F.SilkS) (width 0.12))
  (fp_line (start 3.675 3.6) (end 0 3.6) (layer F.SilkS) (width 0.12))
  (fp_line (start -3.675 1.85) (end -3.675 3.6) (layer F.SilkS) (width 0.12))
  (fp_line (start -3.675 3.6) (end 0 3.6) (layer F.SilkS) (width 0.12))
  (pad 1 smd rect (at -2.65 0) (size 2 3.1) (layers F.Cu F.Paste F.Mask))
  (pad 2 smd rect (at 2.65 0) (size 2 3.1) (layers F.Cu F.Paste F.Mask))
  (model ${KIPRJMOD}/kicad_libs_k/models_k.3d/Inductor_SMD_k.3dshapes/L_Wuerth_HCM-7050_k.wrl
    (at (xyz 0 0 0))
    (scale (xyz 1 1 1))
    (rotate (xyz 0 0 0))
  )
)
