(module L_Wuerth_WE-PD2-Typ-MS (layer F.Cu) (tedit 5990349D)
  (descr "Choke, Drossel, WE-PD2, Typ MS, Wuerth, SMD,")
  (tags "Choke Drossel WE-PD2 TypMS Wuerth SMD ")
  (attr smd)
  (fp_text reference REF** (at 0 -3.75) (layer F.SilkS)
    (effects (font (size 1 1) (thickness 0.15)))
  )
  (fp_text value L_Wuerth_WE-PD2-Typ-MS (at 0 4) (layer F.Fab)
    (effects (font (size 1 1) (thickness 0.15)))
  )
  (fp_text user %R (at 0 0) (layer F.Fab)
    (effects (font (size 1 1) (thickness 0.15)))
  )
  (fp_line (start -2.2 -2.6) (end 2.2 -2.6) (layer F.Fab) (width 0.1))
  (fp_line (start 2.2 2.6) (end -2.2 2.6) (layer F.Fab) (width 0.1))
  (fp_line (start 3.25 -3) (end 3.25 3) (layer F.CrtYd) (width 0.05))
  (fp_line (start 3.25 3) (end -3.25 3) (layer F.CrtYd) (width 0.05))
  (fp_line (start -3.25 3) (end -3.25 -3) (layer F.CrtYd) (width 0.05))
  (fp_line (start -3.25 -3) (end 3.25 -3) (layer F.CrtYd) (width 0.05))
  (fp_line (start -0.4 2.8) (end 0.4 2.8) (layer F.SilkS) (width 0.12))
  (fp_line (start -0.4 -2.8) (end 0.4 -2.8) (layer F.SilkS) (width 0.12))
  (fp_arc (start -2.9 0) (end 2.3 -2.5) (angle 52) (layer F.Fab) (width 0.1))
  (fp_arc (start 2.9 0) (end -2.3 2.5) (angle 52) (layer F.Fab) (width 0.1))
  (pad 1 smd rect (at -1.93 0) (size 2.15 5.5) (layers F.Cu F.Paste F.Mask))
  (pad 2 smd rect (at 1.93 0) (size 2.15 5.5) (layers F.Cu F.Paste F.Mask))
  (model ${KIPRJMOD}/kicad_libs_k/models_k.3d/Inductor_SMD_k.3dshapes/L_Wuerth_WE-PD2-Typ-MS_k.wrl
    (at (xyz 0 0 0))
    (scale (xyz 1 1 1))
    (rotate (xyz 0 0 0))
  )
)
