(module Relay_DPST_Schrack-RT2-FormA_RM5mm (layer F.Cu) (tedit 5A6353CA)
  (descr "Relay DPST Schrack-RT2 RM5mm 16A 250V AC Form A http://www.te.com/commerce/DocumentDelivery/DDEController?Action=srchrtrv&DocNm=RT2_reflow&DocType=DS&DocLang=EN")
  (tags "Relay DPST Schrack-RT2 RM5mm 16A 250V AC Relay")
  (fp_text reference REF** (at 12.5 -11.5) (layer F.SilkS)
    (effects (font (size 1 1) (thickness 0.15)))
  )
  (fp_text value Relay_DPST_Schrack-RT2-FormA_RM5mm (at 12.192 4.25) (layer F.Fab)
    (effects (font (size 1 1) (thickness 0.15)))
  )
  (fp_line (start -2.75 3) (end -1.25 3) (layer F.SilkS) (width 0.12))
  (fp_line (start -2.75 1.5) (end -2.75 3) (layer F.SilkS) (width 0.12))
  (fp_line (start -2.35 1.6) (end -1.35 2.6) (layer F.Fab) (width 0.1))
  (fp_line (start 26.65 2.6) (end 26.65 -10.1) (layer F.Fab) (width 0.1))
  (fp_line (start 26.65 -10.1) (end -2.35 -10.1) (layer F.Fab) (width 0.1))
  (fp_line (start -2.35 -10.1) (end -2.35 1.6) (layer F.Fab) (width 0.1))
  (fp_text user %R (at 12.065 -3.81 180) (layer F.Fab)
    (effects (font (size 1 1) (thickness 0.15)))
  )
  (fp_line (start 27.1 3.05) (end 27.1 -10.55) (layer F.CrtYd) (width 0.05))
  (fp_line (start -2.8 3.05) (end 27.1 3.05) (layer F.CrtYd) (width 0.05))
  (fp_line (start -2.8 -10.55) (end -2.8 3.05) (layer F.CrtYd) (width 0.05))
  (fp_line (start 27.1 -10.55) (end -2.8 -10.55) (layer F.CrtYd) (width 0.05))
  (fp_line (start 3.81 -6.35) (end 3.81 -7.62) (layer F.SilkS) (width 0.12))
  (fp_line (start 3.81 -7.62) (end 2.54 -7.62) (layer F.SilkS) (width 0.12))
  (fp_line (start 2.54 0) (end 3.81 0) (layer F.SilkS) (width 0.12))
  (fp_line (start 3.81 0) (end 3.81 -1.27) (layer F.SilkS) (width 0.12))
  (fp_line (start 3.81 -1.27) (end 5.08 -1.27) (layer F.SilkS) (width 0.12))
  (fp_line (start 5.08 -1.27) (end 5.08 -6.35) (layer F.SilkS) (width 0.12))
  (fp_line (start 5.08 -6.35) (end 2.54 -6.35) (layer F.SilkS) (width 0.12))
  (fp_line (start 2.54 -6.35) (end 2.54 -1.27) (layer F.SilkS) (width 0.12))
  (fp_line (start 2.54 -1.27) (end 3.81 -1.27) (layer F.SilkS) (width 0.12))
  (fp_line (start 0 -1.27) (end 0 -6.35) (layer F.Fab) (width 0.12))
  (fp_line (start -2.55 -10.3) (end -2.55 2.8) (layer F.SilkS) (width 0.12))
  (fp_line (start 26.85 -10.3) (end -2.55 -10.3) (layer F.SilkS) (width 0.12))
  (fp_line (start 26.85 2.8) (end 26.85 -10.3) (layer F.SilkS) (width 0.12))
  (fp_line (start -2.55 2.8) (end 26.85 2.8) (layer F.SilkS) (width 0.12))
  (fp_line (start -1.35 2.6) (end 26.65 2.6) (layer F.Fab) (width 0.1))
  (fp_line (start 2.54 -2.54) (end 5.08 -3.81) (layer F.SilkS) (width 0.1))
  (pad A1 thru_hole rect (at 0 0 180) (size 3 2) (drill 1.3) (layers *.Cu *.Mask))
  (pad A2 thru_hole oval (at 0 -7.5 180) (size 3 2) (drill 1.3) (layers *.Cu *.Mask))
  (pad 11 thru_hole oval (at 20.3 0 180) (size 2 3) (drill 1.3) (layers *.Cu *.Mask))
  (pad 24 thru_hole oval (at 25.34 -7.5 180) (size 2 3) (drill 1.3) (layers *.Cu *.Mask))
  (pad 21 thru_hole oval (at 20.3 -7.5 180) (size 2 3) (drill 1.3) (layers *.Cu *.Mask))
  (pad 14 thru_hole oval (at 25.34 0 180) (size 2 3) (drill 1.3) (layers *.Cu *.Mask))
  (model ${KIPRJMOD}/kicad_libs_k/models_k.3d/Relay_THT_k.3dshapes/Relay_DPST_Schrack-RT2-FormA_RM5mm_k.wrl
    (at (xyz 0 0 0))
    (scale (xyz 1 1 1))
    (rotate (xyz 0 0 0))
  )
)
