(module Relay_SPDT_SANYOU_SRD_Series_Form_C (layer F.Cu) (tedit 58FA3148)
  (descr "relay Sanyou SRD series Form C http://www.sanyourelay.ca/public/products/pdf/SRD.pdf")
  (tags "relay Sanyu SRD form C")
  (fp_text reference REF** (at 8.1 9.2) (layer F.SilkS)
    (effects (font (size 1 1) (thickness 0.15)))
  )
  (fp_text value Relay_SPDT_SANYOU_SRD_Series_Form_C (at 8 -9.6) (layer F.Fab)
    (effects (font (size 1 1) (thickness 0.15)))
  )
  (fp_line (start -1.4 1.2) (end -1.4 7.8) (layer F.SilkS) (width 0.12))
  (fp_line (start -1.4 -7.8) (end -1.4 -1.2) (layer F.SilkS) (width 0.12))
  (fp_line (start -1.4 -7.8) (end 18.4 -7.8) (layer F.SilkS) (width 0.12))
  (fp_line (start 18.4 -7.8) (end 18.4 7.8) (layer F.SilkS) (width 0.12))
  (fp_line (start 18.4 7.8) (end -1.4 7.8) (layer F.SilkS) (width 0.12))
  (fp_text user 1 (at 0 -2.3) (layer F.Fab)
    (effects (font (size 1 1) (thickness 0.15)))
  )
  (fp_line (start -1.3 -7.7) (end 18.3 -7.7) (layer F.Fab) (width 0.12))
  (fp_line (start 18.3 -7.7) (end 18.3 7.7) (layer F.Fab) (width 0.12))
  (fp_line (start 18.3 7.7) (end -1.3 7.7) (layer F.Fab) (width 0.12))
  (fp_line (start -1.3 7.7) (end -1.3 -7.7) (layer F.Fab) (width 0.12))
  (fp_text user %R (at 7.1 0.025) (layer F.Fab)
    (effects (font (size 1 1) (thickness 0.15)))
  )
  (fp_line (start 18.55 -7.95) (end -1.55 -7.95) (layer F.CrtYd) (width 0.05))
  (fp_line (start -1.55 7.95) (end -1.55 -7.95) (layer F.CrtYd) (width 0.05))
  (fp_line (start 18.55 -7.95) (end 18.55 7.95) (layer F.CrtYd) (width 0.05))
  (fp_line (start -1.55 7.95) (end 18.55 7.95) (layer F.CrtYd) (width 0.05))
  (fp_line (start 14.15 4.2) (end 14.15 1.75) (layer F.SilkS) (width 0.12))
  (fp_line (start 14.15 -4.2) (end 14.15 -1.7) (layer F.SilkS) (width 0.12))
  (fp_line (start 3.55 6.05) (end 6.05 6.05) (layer F.SilkS) (width 0.12))
  (fp_line (start 2.65 0.05) (end 1.85 0.05) (layer F.SilkS) (width 0.12))
  (fp_line (start 6.05 -5.95) (end 3.55 -5.95) (layer F.SilkS) (width 0.12))
  (fp_line (start 9.45 0.05) (end 10.95 0.05) (layer F.SilkS) (width 0.12))
  (fp_line (start 10.95 0.05) (end 15.55 -2.45) (layer F.SilkS) (width 0.12))
  (fp_line (start 9.45 3.65) (end 2.65 3.65) (layer F.SilkS) (width 0.12))
  (fp_line (start 9.45 0.05) (end 9.45 3.65) (layer F.SilkS) (width 0.12))
  (fp_line (start 2.65 0.05) (end 2.65 3.65) (layer F.SilkS) (width 0.12))
  (fp_line (start 6.05 -5.95) (end 6.05 -1.75) (layer F.SilkS) (width 0.12))
  (fp_line (start 6.05 1.85) (end 6.05 6.05) (layer F.SilkS) (width 0.12))
  (fp_line (start 8.05 1.85) (end 4.05 -1.75) (layer F.SilkS) (width 0.12))
  (fp_line (start 4.05 1.85) (end 4.05 -1.75) (layer F.SilkS) (width 0.12))
  (fp_line (start 4.05 -1.75) (end 8.05 -1.75) (layer F.SilkS) (width 0.12))
  (fp_line (start 8.05 -1.75) (end 8.05 1.85) (layer F.SilkS) (width 0.12))
  (fp_line (start 8.05 1.85) (end 4.05 1.85) (layer F.SilkS) (width 0.12))
  (pad 2 thru_hole circle (at 1.95 6.05 90) (size 2.5 2.5) (drill 1) (layers *.Cu *.Mask))
  (pad 3 thru_hole circle (at 14.15 6.05 90) (size 3 3) (drill 1.3) (layers *.Cu *.Mask))
  (pad 4 thru_hole circle (at 14.2 -6 90) (size 3 3) (drill 1.3) (layers *.Cu *.Mask))
  (pad 5 thru_hole circle (at 1.95 -5.95 90) (size 2.5 2.5) (drill 1) (layers *.Cu *.Mask))
  (pad 1 thru_hole circle (at 0 0 90) (size 3 3) (drill 1.3) (layers *.Cu *.Mask))
  (model ${KIPRJMOD}/kicad_libs_k/models_k.3d/Relay_THT_k.3dshapes/Relay_SPDT_SANYOU_SRD_Series_Form_C_k.wrl
    (at (xyz 0 0 0))
    (scale (xyz 1 1 1))
    (rotate (xyz 0 0 0))
  )
)
