(module Relay_SPST_StandexMeder_SIL_Form1A (layer F.Cu) (tedit 5A54B0D5)
  (descr "Standex-Meder SIL-relais, Form 1A, see https://standexelectronics.com/wp-content/uploads/datasheet_reed_relay_SIL.pdf")
  (tags "Standex Meder SIL reed relais")
  (fp_text reference REF** (at 7.75 -3.65) (layer F.SilkS)
    (effects (font (size 1 1) (thickness 0.15)))
  )
  (fp_text value Relay_SPST_StandexMeder_SIL_Form1A (at 7.65 3.55) (layer F.Fab)
    (effects (font (size 1 1) (thickness 0.15)))
  )
  (fp_text user %R (at 7.75 0) (layer F.Fab)
    (effects (font (size 1 1) (thickness 0.15)))
  )
  (fp_line (start -2.55 2.8) (end -2.55 1.8) (layer F.SilkS) (width 0.12))
  (fp_line (start -1.45 2.8) (end -2.55 2.8) (layer F.SilkS) (width 0.12))
  (fp_line (start -2.35 2.6) (end -2.35 -2.6) (layer F.SilkS) (width 0.12))
  (fp_line (start 17.55 2.6) (end -2.35 2.6) (layer F.SilkS) (width 0.12))
  (fp_line (start 17.55 -2.6) (end 17.55 2.6) (layer F.SilkS) (width 0.12))
  (fp_line (start -2.35 -2.6) (end 17.55 -2.6) (layer F.SilkS) (width 0.12))
  (fp_line (start -1.5 2.51674) (end -2.3 1.66674) (layer F.Fab) (width 0.12))
  (fp_line (start 17.5 2.51674) (end -1.5 2.51674) (layer F.Fab) (width 0.12))
  (fp_line (start 17.5 -2.58326) (end 17.5 2.51674) (layer F.Fab) (width 0.12))
  (fp_line (start -2.3 -2.58326) (end 17.5 -2.58326) (layer F.Fab) (width 0.12))
  (fp_line (start -2.3 1.66674) (end -2.3 -2.58326) (layer F.Fab) (width 0.12))
  (fp_line (start -2.55 -2.8) (end 17.75 -2.8) (layer F.CrtYd) (width 0.05))
  (fp_line (start -2.55 -2.8) (end -2.55 2.8) (layer F.CrtYd) (width 0.05))
  (fp_line (start 17.75 2.8) (end 17.75 -2.8) (layer F.CrtYd) (width 0.05))
  (fp_line (start 17.75 2.8) (end -2.55 2.8) (layer F.CrtYd) (width 0.05))
  (pad 7 thru_hole circle (at 15.24 0) (size 1.4 1.4) (drill 0.7) (layers *.Cu *.Mask))
  (pad 5 thru_hole circle (at 10.16 0) (size 1.4 1.4) (drill 0.7) (layers *.Cu *.Mask))
  (pad 3 thru_hole circle (at 5.08 0) (size 1.4 1.4) (drill 0.7) (layers *.Cu *.Mask))
  (pad 1 thru_hole rect (at 0 0) (size 1.4 1.4) (drill 0.7) (layers *.Cu *.Mask))
  (model ${KIPRJMOD}/kicad_libs_k/models_k.3d/Relay_THT_k.3dshapes/Relay_SPST_StandexMeder_SIL_Form1A_k.wrl
    (at (xyz 0 0 0))
    (scale (xyz 1 1 1))
    (rotate (xyz 0 0 0))
  )
)
