(module Relay_DPDT_Omron_G5V-2 (layer F.Cu) (tedit 59D689A9)
  (descr http://omronfs.omron.com/en_US/ecb/products/pdf/en-g5v2.pdf)
  (tags "Omron G5V-2 Relay DPDT")
  (fp_text reference REF** (at 2.6 -2.3) (layer F.SilkS)
    (effects (font (size 1 1) (thickness 0.15)))
  )
  (fp_text value Relay_DPDT_Omron_G5V-2 (at -2.41 9.01 90) (layer F.Fab)
    (effects (font (size 1 1) (thickness 0.15)))
  )
  (fp_line (start -1.51 -1.6) (end -0.3 -1.6) (layer F.SilkS) (width 0.12))
  (fp_line (start -1.51 -0.3) (end -1.51 -1.6) (layer F.SilkS) (width 0.12))
  (fp_line (start -1.21 -0.3) (end -0.3 -1.31) (layer F.Fab) (width 0.12))
  (fp_line (start 8.83 -1.31) (end -0.3 -1.31) (layer F.Fab) (width 0.12))
  (fp_line (start -1.21 -0.3) (end -1.21 19.58) (layer F.Fab) (width 0.12))
  (fp_line (start -1.21 19.07) (end 8.83 19.07) (layer F.Fab) (width 0.12))
  (fp_line (start 8.83 19.07) (end 8.83 -1.31) (layer F.Fab) (width 0.12))
  (fp_line (start -1.35 -1.45) (end -1.35 19.22) (layer F.SilkS) (width 0.12))
  (fp_line (start -1.35 19.22) (end 8.97 19.22) (layer F.SilkS) (width 0.12))
  (fp_line (start 8.97 19.22) (end 8.97 -1.45) (layer F.SilkS) (width 0.12))
  (fp_line (start 8.97 -1.45) (end -1.35 -1.45) (layer F.SilkS) (width 0.12))
  (fp_line (start 2.3 -1.45) (end 2.3 -0.41) (layer F.SilkS) (width 0.12))
  (fp_line (start 2.3 -0.39) (end 5.3 -0.39) (layer F.SilkS) (width 0.12))
  (fp_line (start 5.3 -0.39) (end 5.3 -1.45) (layer F.SilkS) (width 0.12))
  (fp_line (start 9.07 19.33) (end -1.45 19.33) (layer F.CrtYd) (width 0.05))
  (fp_line (start -1.45 -1.55) (end 9.07 -1.55) (layer F.CrtYd) (width 0.05))
  (fp_line (start 9.07 -1.55) (end 9.07 19.33) (layer F.CrtYd) (width 0.05))
  (fp_text user %R (at 3.94 9.16) (layer F.Fab)
    (effects (font (size 1 1) (thickness 0.15)))
  )
  (fp_line (start 3.47 0.39) (end 2.37 0.39) (layer F.SilkS) (width 0.12))
  (fp_line (start 4.17 0.39) (end 5.27 0.39) (layer F.SilkS) (width 0.12))
  (fp_line (start 3.47 0.56) (end 4.17 0.16) (layer F.SilkS) (width 0.12))
  (fp_line (start 3.47 -0.24) (end 3.47 0.96) (layer F.SilkS) (width 0.12))
  (fp_line (start 3.47 0.96) (end 4.17 0.96) (layer F.SilkS) (width 0.12))
  (fp_line (start 4.17 0.96) (end 4.17 -0.24) (layer F.SilkS) (width 0.12))
  (fp_line (start 4.17 -0.24) (end 3.47 -0.24) (layer F.SilkS) (width 0.12))
  (fp_line (start -1.45 -1.55) (end -1.45 19.33) (layer F.CrtYd) (width 0.05))
  (pad 1 thru_hole rect (at 0 0) (size 1.4 1.4) (drill 0.7) (layers *.Cu *.Mask))
  (pad 16 thru_hole circle (at 7.62 0) (size 1.4 1.4) (drill 0.7) (layers *.Cu *.Mask))
  (pad 6 thru_hole circle (at 0 12.69) (size 1.4 1.4) (drill 0.7) (layers *.Cu *.Mask))
  (pad 8 thru_hole circle (at 0 17.78) (size 1.4 1.4) (drill 0.7) (layers *.Cu *.Mask))
  (pad 4 thru_hole circle (at 0 7.62) (size 1.4 1.4) (drill 0.7) (layers *.Cu *.Mask))
  (pad 11 thru_hole circle (at 7.63 12.71) (size 1.4 1.4) (drill 0.7) (layers *.Cu *.Mask))
  (pad 9 thru_hole circle (at 7.63 17.79) (size 1.4 1.4) (drill 0.7) (layers *.Cu *.Mask))
  (pad 13 thru_hole circle (at 7.62 7.62) (size 1.4 1.4) (drill 0.7) (layers *.Cu *.Mask))
  (model ${KIPRJMOD}/kicad_libs_k/models_k.3d/Relay_THT_k.3dshapes/Relay_DPDT_Omron_G5V-2_k.wrl
    (at (xyz 0 0 0))
    (scale (xyz 1 1 1))
    (rotate (xyz 0 0 0))
  )
)
