(module Relay_SPDT_Omron-G5Q-1 (layer F.Cu) (tedit 5AE38B61)
  (descr "Relay SPDT Omron Serie G5Q, http://omronfs.omron.com/en_US/ecb/products/pdf/en-g5q.pdf")
  (tags "Relay SPDT Omron Serie G5Q")
  (fp_text reference REF** (at 9.5 -10.5 180) (layer F.SilkS)
    (effects (font (size 1 1) (thickness 0.15)))
  )
  (fp_text value Relay_SPDT_Omron-G5Q-1 (at 9 3 180) (layer F.Fab)
    (effects (font (size 1 1) (thickness 0.15)))
  )
  (fp_text user %R (at 8.89 -3.81) (layer F.Fab)
    (effects (font (size 1 1) (thickness 0.15)))
  )
  (fp_line (start 17.78 -1.27) (end 17.78 -3.81) (layer F.SilkS) (width 0.12))
  (fp_line (start 13.335 -3.81) (end 17.145 -6.35) (layer F.SilkS) (width 0.12))
  (fp_line (start 15.24 -6.35) (end 15.24 -5.08) (layer F.SilkS) (width 0.12))
  (fp_line (start 10.16 -1.27) (end 10.16 -3.81) (layer F.SilkS) (width 0.12))
  (fp_line (start 10.16 -3.81) (end 13.335 -3.81) (layer F.SilkS) (width 0.12))
  (fp_line (start 0 -1) (end 0 -6.5) (layer F.Fab) (width 0.1))
  (fp_line (start 18.96 -8.81) (end 18.96 1.19) (layer F.Fab) (width 0.1))
  (fp_line (start 18.96 1.19) (end -1.18 1.19) (layer F.Fab) (width 0.1))
  (fp_line (start -1.18 1.19) (end -1.18 -8.81) (layer F.Fab) (width 0.1))
  (fp_line (start -1.18 -8.81) (end 18.96 -8.81) (layer F.Fab) (width 0.1))
  (fp_line (start -1.95 -9.55) (end 19.7 -9.55) (layer F.CrtYd) (width 0.05))
  (fp_line (start 19.7 -9.55) (end 19.7 1.95) (layer F.CrtYd) (width 0.05))
  (fp_line (start 19.7 1.95) (end -1.95 1.95) (layer F.CrtYd) (width 0.05))
  (fp_line (start -1.95 1.95) (end -1.95 -9.55) (layer F.CrtYd) (width 0.05))
  (fp_line (start 2.03 -3.05) (end 3.05 -4.06) (layer F.SilkS) (width 0.12))
  (fp_line (start 2.54 -7.62) (end 1.27 -7.62) (layer F.SilkS) (width 0.12))
  (fp_line (start 2.54 -4.83) (end 2.54 -7.62) (layer F.SilkS) (width 0.12))
  (fp_line (start 2.54 0) (end 2.54 -2.29) (layer F.SilkS) (width 0.12))
  (fp_line (start 1.27 0) (end 2.54 0) (layer F.SilkS) (width 0.12))
  (fp_line (start 2.54 -2.29) (end 2.03 -2.29) (layer F.SilkS) (width 0.12))
  (fp_line (start 2.03 -2.29) (end 2.03 -4.83) (layer F.SilkS) (width 0.12))
  (fp_line (start 2.03 -4.83) (end 2.54 -4.83) (layer F.SilkS) (width 0.12))
  (fp_line (start 2.54 -4.83) (end 3.05 -4.83) (layer F.SilkS) (width 0.12))
  (fp_line (start 3.05 -4.83) (end 3.05 -2.29) (layer F.SilkS) (width 0.12))
  (fp_line (start 3.05 -2.29) (end 2.54 -2.29) (layer F.SilkS) (width 0.12))
  (fp_line (start -1.68 1.69) (end 19.46 1.69) (layer F.SilkS) (width 0.12))
  (fp_line (start 19.46 1.69) (end 19.46 -9.31) (layer F.SilkS) (width 0.12))
  (fp_line (start -1.68 1.69) (end -1.68 -9.31) (layer F.SilkS) (width 0.12))
  (fp_line (start -1.68 -9.31) (end 19.46 -9.31) (layer F.SilkS) (width 0.12))
  (fp_circle (center 13.335 -3.81) (end 13.462 -3.81) (layer F.SilkS) (width 0.12))
  (pad 1 thru_hole rect (at 0 0 180) (size 1.52 1.52) (drill 0.76) (layers *.Cu *.Mask))
  (pad 2 thru_hole circle (at 10.16 0 180) (size 2 2) (drill 1) (layers *.Cu *.Mask))
  (pad 3 thru_hole circle (at 17.78 0 180) (size 2 2) (drill 1) (layers *.Cu *.Mask))
  (pad 4 thru_hole circle (at 15.24 -7.62 180) (size 2 2) (drill 1) (layers *.Cu *.Mask))
  (pad 5 thru_hole circle (at 0 -7.62 180) (size 1.52 1.52) (drill 0.76) (layers *.Cu *.Mask))
  (model ${KIPRJMOD}/kicad_libs_k/models_k.3d/Relay_THT_k.3dshapes/Relay_SPDT_Omron-G5Q-1_k.wrl
    (at (xyz 0 0 0))
    (scale (xyz 1 1 1))
    (rotate (xyz 0 0 0))
  )
)
