(module Relay_SPDT_Omron_G5V-1 (layer F.Cu) (tedit 5A57D9C3)
  (descr "Relay Omron G5V-1, see http://omronfs.omron.com/en_US/ecb/products/pdf/en-g5v_1.pdf")
  (tags "Relay Omron G5V-1")
  (fp_text reference REF** (at 2.5 -2.2) (layer F.SilkS)
    (effects (font (size 1 1) (thickness 0.15)))
  )
  (fp_text value Relay_SPDT_Omron_G5V-1 (at 2.5 12.5) (layer F.Fab)
    (effects (font (size 1 1) (thickness 0.15)))
  )
  (fp_text user %R (at 2.54 6.35) (layer F.Fab)
    (effects (font (size 1 1) (thickness 0.15)))
  )
  (fp_line (start -1.6 -1.5) (end 0.6 -1.5) (layer F.SilkS) (width 0.12))
  (fp_line (start -1.6 0.6) (end -1.6 -1.5) (layer F.SilkS) (width 0.12))
  (fp_line (start -1.4 11.4) (end -1.4 -1.3) (layer F.SilkS) (width 0.12))
  (fp_line (start 6.4 11.4) (end -1.4 11.4) (layer F.SilkS) (width 0.12))
  (fp_line (start 6.4 -1.3) (end 6.4 11.4) (layer F.SilkS) (width 0.12))
  (fp_line (start -1.4 -1.3) (end 6.4 -1.3) (layer F.SilkS) (width 0.12))
  (fp_line (start -1.2 -0.1) (end -0.1 -1.1) (layer F.Fab) (width 0.12))
  (fp_line (start -1.2 11.2) (end -1.2 -0.1) (layer F.Fab) (width 0.12))
  (fp_line (start 6.2 11.2) (end -1.2 11.2) (layer F.Fab) (width 0.12))
  (fp_line (start 6.2 -1.1) (end 6.2 11.2) (layer F.Fab) (width 0.12))
  (fp_line (start -0.1 -1.1) (end 6.2 -1.1) (layer F.Fab) (width 0.12))
  (fp_line (start 2.946 3.81) (end 2.311 4.826) (layer F.SilkS) (width 0.12))
  (fp_line (start 0.762 3.683) (end 0.762 4.318) (layer F.SilkS) (width 0.12))
  (fp_line (start 0.762 4.318) (end 1.422 4.318) (layer F.SilkS) (width 0.12))
  (fp_line (start 3.962 3.683) (end 3.962 4.318) (layer F.SilkS) (width 0.12))
  (fp_line (start 3.962 4.318) (end 3.327 4.318) (layer F.SilkS) (width 0.12))
  (fp_line (start 3.327 3.81) (end 1.422 3.81) (layer F.SilkS) (width 0.12))
  (fp_line (start 1.422 3.81) (end 1.422 4.826) (layer F.SilkS) (width 0.12))
  (fp_line (start 1.422 4.826) (end 3.327 4.826) (layer F.SilkS) (width 0.12))
  (fp_line (start 3.327 3.81) (end 3.327 4.826) (layer F.SilkS) (width 0.12))
  (fp_line (start -1.45 -1.35) (end 6.45 -1.35) (layer F.CrtYd) (width 0.05))
  (fp_line (start -1.45 -1.35) (end -1.45 11.45) (layer F.CrtYd) (width 0.05))
  (fp_line (start 6.45 11.45) (end 6.45 -1.35) (layer F.CrtYd) (width 0.05))
  (fp_line (start 6.45 11.45) (end -1.45 11.45) (layer F.CrtYd) (width 0.05))
  (pad 10 thru_hole circle (at 5.08 0) (size 2 2) (drill 1) (layers *.Cu *.Mask))
  (pad 9 thru_hole circle (at 5.08 2.54) (size 2 2) (drill 1) (layers *.Cu *.Mask))
  (pad 1 thru_hole rect (at 0 0) (size 2 2) (drill 1) (layers *.Cu *.Mask))
  (pad 2 thru_hole circle (at 0 2.54) (size 2 2) (drill 1) (layers *.Cu *.Mask))
  (pad 6 thru_hole circle (at 5.08 10.16) (size 2 2) (drill 1) (layers *.Cu *.Mask))
  (pad 5 thru_hole circle (at 0 10.16) (size 2 2) (drill 1) (layers *.Cu *.Mask))
  (model ${KIPRJMOD}/kicad_libs_k/models_k.3d/Relay_THT_k.3dshapes/Relay_SPDT_Omron_G5V-1_k.wrl
    (at (xyz 0 0 0))
    (scale (xyz 1 1 1))
    (rotate (xyz 0 0 0))
  )
)
