(module DA56-11SYKWA (layer F.Cu) (tedit 5A02FE84)
  (descr "http://www.kingbright.com/attachments/file/psearch/000/00/00/DA56-11SYKWA(Ver.11A).pdf")
  (tags "Double digit seven segment super bright yellow LED display")
  (fp_text reference REF** (at 0 -4) (layer F.SilkS)
    (effects (font (size 1 1) (thickness 0.15)))
  )
  (fp_text value DA56-11SYKWA (at 3.5 24.5) (layer F.Fab)
    (effects (font (size 1 1) (thickness 0.15)))
  )
  (fp_line (start -2.28 -2.71) (end 0 -2.71) (layer F.SilkS) (width 0.12))
  (fp_line (start -2.28 -2.71) (end -2.28 0) (layer F.SilkS) (width 0.12))
  (fp_line (start -2.16 -2.59) (end 17.39 -2.59) (layer F.CrtYd) (width 0.05))
  (fp_line (start 17.39 -2.59) (end 17.39 22.92) (layer F.CrtYd) (width 0.05))
  (fp_line (start 17.39 22.92) (end -2.16 22.92) (layer F.CrtYd) (width 0.05))
  (fp_line (start -2.16 22.92) (end -2.16 -2.59) (layer F.CrtYd) (width 0.05))
  (fp_line (start -1.905 -1.34) (end -0.905 -2.34) (layer F.Fab) (width 0.1))
  (fp_line (start -2.025 -2.46) (end 17.265 -2.46) (layer F.SilkS) (width 0.12))
  (fp_line (start 17.265 -2.46) (end 17.265 22.79) (layer F.SilkS) (width 0.12))
  (fp_line (start 17.265 22.79) (end -2.025 22.79) (layer F.SilkS) (width 0.12))
  (fp_line (start -2.025 22.79) (end -2.025 -2.46) (layer F.SilkS) (width 0.12))
  (fp_text user %R (at 8 10) (layer F.Fab)
    (effects (font (size 1 1) (thickness 0.15)))
  )
  (fp_line (start -0.905 -2.34) (end 17.145 -2.34) (layer F.Fab) (width 0.1))
  (fp_line (start 17.145 -2.34) (end 17.145 22.66) (layer F.Fab) (width 0.1))
  (fp_line (start 17.145 22.66) (end -1.905 22.66) (layer F.Fab) (width 0.1))
  (fp_line (start -1.905 22.66) (end -1.905 -1.34) (layer F.Fab) (width 0.1))
  (pad 1 thru_hole rect (at 0 0) (size 1.5 1.5) (drill 1) (layers *.Cu *.Mask))
  (pad 2 thru_hole circle (at 0 2.54) (size 1.5 1.5) (drill 1) (layers *.Cu *.Mask))
  (pad 3 thru_hole circle (at 0 5.08) (size 1.5 1.5) (drill 1) (layers *.Cu *.Mask))
  (pad 4 thru_hole circle (at 0 7.62) (size 1.5 1.5) (drill 1) (layers *.Cu *.Mask))
  (pad 5 thru_hole circle (at 0 10.16) (size 1.5 1.5) (drill 1) (layers *.Cu *.Mask))
  (pad 6 thru_hole circle (at 0 12.7) (size 1.5 1.5) (drill 1) (layers *.Cu *.Mask))
  (pad 7 thru_hole circle (at 0 15.24) (size 1.5 1.5) (drill 1) (layers *.Cu *.Mask))
  (pad 8 thru_hole circle (at 0 17.78) (size 1.5 1.5) (drill 1) (layers *.Cu *.Mask))
  (pad 9 thru_hole circle (at 0 20.32) (size 1.5 1.5) (drill 1) (layers *.Cu *.Mask))
  (pad 10 thru_hole circle (at 15.24 20.32) (size 1.5 1.5) (drill 1) (layers *.Cu *.Mask))
  (pad 11 thru_hole circle (at 15.24 17.78) (size 1.5 1.5) (drill 1) (layers *.Cu *.Mask))
  (pad 12 thru_hole circle (at 15.24 15.24) (size 1.5 1.5) (drill 1) (layers *.Cu *.Mask))
  (pad 13 thru_hole circle (at 15.24 12.7) (size 1.5 1.5) (drill 1) (layers *.Cu *.Mask))
  (pad 14 thru_hole circle (at 15.24 10.16) (size 1.5 1.5) (drill 1) (layers *.Cu *.Mask))
  (pad 15 thru_hole circle (at 15.24 7.62) (size 1.5 1.5) (drill 1) (layers *.Cu *.Mask))
  (pad 16 thru_hole circle (at 15.24 5.08) (size 1.5 1.5) (drill 1) (layers *.Cu *.Mask))
  (pad 17 thru_hole circle (at 15.24 2.54) (size 1.5 1.5) (drill 1) (layers *.Cu *.Mask))
  (pad 18 thru_hole circle (at 15.24 0) (size 1.5 1.5) (drill 1) (layers *.Cu *.Mask))
  (model ${KIPRJMOD}/kicad_libs_k/models_k.3d/Display_7Segment_k.3dshapes/DA56-11SYKWA_k.wrl
    (at (xyz 0 0 0))
    (scale (xyz 1 1 1))
    (rotate (xyz 0 0 0))
  )
)
