(module KCSC02-136 (layer F.Cu) (tedit 5A02FE84)
  (descr "http://www.kingbright.com/attachments/file/psearch/000/00/00/KCSC02-136(Ver.6B).pdf")
  (tags "Single digit 7 segement super bright yellow LED")
  (attr smd)
  (fp_text reference REF** (at -4.39 -4.56) (layer F.SilkS)
    (effects (font (size 1 1) (thickness 0.15)))
  )
  (fp_text value KCSC02-136 (at -1.51 4.55) (layer F.Fab)
    (effects (font (size 1 1) (thickness 0.15)))
  )
  (fp_text user %R (at 0.61 0.01) (layer F.Fab)
    (effects (font (size 1 1) (thickness 0.15)))
  )
  (fp_line (start -6.65 -3.7) (end 6.65 -3.7) (layer F.CrtYd) (width 0.05))
  (fp_line (start 6.65 -3.7) (end 6.65 3.7) (layer F.CrtYd) (width 0.05))
  (fp_line (start 6.65 3.7) (end -6.65 3.7) (layer F.CrtYd) (width 0.05))
  (fp_line (start -6.65 -3.7) (end -6.65 3.7) (layer F.CrtYd) (width 0.05))
  (fp_line (start 5.06 3.57) (end -5.06 3.57) (layer F.SilkS) (width 0.12))
  (fp_line (start -5 -3.57) (end 0 -3.57) (layer F.SilkS) (width 0.12))
  (fp_line (start 5 3.45) (end -5 3.45) (layer F.Fab) (width 0.1))
  (fp_line (start -5 3.45) (end -5 -1.45) (layer F.Fab) (width 0.1))
  (fp_line (start -5 -1.45) (end -3 -3.45) (layer F.Fab) (width 0.1))
  (fp_line (start -3 -3.45) (end 5 -3.45) (layer F.Fab) (width 0.1))
  (fp_line (start 5 -3.45) (end 5 3.45) (layer F.Fab) (width 0.1))
  (pad 1 smd rect (at -5 -2.88) (size 2.8 0.9) (layers F.Cu F.Paste F.Mask))
  (pad 2 smd rect (at -5 -1.44) (size 2.8 0.9) (layers F.Cu F.Paste F.Mask))
  (pad 3 smd rect (at -5 0) (size 2.8 0.9) (layers F.Cu F.Paste F.Mask))
  (pad 4 smd rect (at -5 1.44) (size 2.8 0.9) (layers F.Cu F.Paste F.Mask))
  (pad 5 smd rect (at -5 2.88) (size 2.8 0.9) (layers F.Cu F.Paste F.Mask))
  (pad 6 smd rect (at 5 2.88) (size 2.8 0.9) (layers F.Cu F.Paste F.Mask))
  (pad 7 smd rect (at 5 1.44) (size 2.8 0.9) (layers F.Cu F.Paste F.Mask))
  (pad 8 smd rect (at 5 0) (size 2.8 0.9) (layers F.Cu F.Paste F.Mask))
  (pad 9 smd rect (at 5 -1.44) (size 2.8 0.9) (layers F.Cu F.Paste F.Mask))
  (pad 10 smd rect (at 5 -2.88) (size 2.8 0.9) (layers F.Cu F.Paste F.Mask))
  (model ${KIPRJMOD}/kicad_libs_k/models_k.3d/Display_7Segment_k.3dshapes/KCSC02-136_k.wrl
    (at (xyz 0 0 0))
    (scale (xyz 1 1 1))
    (rotate (xyz 0 0 0))
  )
)
