(module Bosch_LGA-14_3x2.5mm_P0.5mm (layer F.Cu) (tedit 5A02F217)
  (descr "LGA-14 Bosch https://ae-bst.resource.bosch.com/media/_tech/media/datasheets/BST-BMI160-DS000-07.pdf")
  (tags "lga land grid array")
  (attr smd)
  (fp_text reference REF** (at 0 -2.5) (layer F.SilkS)
    (effects (font (size 1 1) (thickness 0.15)))
  )
  (fp_text value Bosch_LGA-14_3x2.5mm_P0.5mm (at 0 2.5) (layer F.Fab)
    (effects (font (size 1 1) (thickness 0.15)))
  )
  (fp_line (start -1.7 -1.35) (end -0.88 -1.35) (layer F.SilkS) (width 0.1))
  (fp_line (start -1.6 1.35) (end -0.88 1.35) (layer F.SilkS) (width 0.1))
  (fp_line (start -1.6 1.35) (end -1.6 1.13) (layer F.SilkS) (width 0.1))
  (fp_line (start 1.6 1.13) (end 1.6 1.35) (layer F.SilkS) (width 0.1))
  (fp_line (start 1.6 1.35) (end 0.88 1.35) (layer F.SilkS) (width 0.1))
  (fp_line (start 0.88 -1.35) (end 1.6 -1.35) (layer F.SilkS) (width 0.1))
  (fp_line (start 1.6 -1.35) (end 1.6 -1.13) (layer F.SilkS) (width 0.1))
  (fp_text user %R (at 0 0) (layer F.Fab)
    (effects (font (size 0.5 0.5) (thickness 0.075)))
  )
  (fp_line (start -0.75 -1.25) (end -1.5 -0.5) (layer F.Fab) (width 0.1))
  (fp_line (start -0.75 -1.25) (end 1.5 -1.25) (layer F.Fab) (width 0.1))
  (fp_line (start 1.5 -1.25) (end 1.5 1.25) (layer F.Fab) (width 0.1))
  (fp_line (start 1.5 1.25) (end -1.5 1.25) (layer F.Fab) (width 0.1))
  (fp_line (start -1.5 1.25) (end -1.5 -0.5) (layer F.Fab) (width 0.1))
  (fp_line (start -1.85 -1.6) (end 1.85 -1.6) (layer F.CrtYd) (width 0.05))
  (fp_line (start 1.85 -1.6) (end 1.85 1.6) (layer F.CrtYd) (width 0.05))
  (fp_line (start 1.85 1.6) (end -1.85 1.6) (layer F.CrtYd) (width 0.05))
  (fp_line (start -1.85 1.6) (end -1.85 -1.6) (layer F.CrtYd) (width 0.05))
  (pad 13 smd rect (at 0 -1.0125) (size 0.25 0.675) (layers F.Cu F.Paste F.Mask))
  (pad 14 smd rect (at -0.5 -1.0125) (size 0.25 0.675) (layers F.Cu F.Paste F.Mask))
  (pad 12 smd rect (at 0.5 -1.0125) (size 0.25 0.675) (layers F.Cu F.Paste F.Mask))
  (pad 5 smd rect (at -0.5 1.0125) (size 0.25 0.675) (layers F.Cu F.Paste F.Mask))
  (pad 6 smd rect (at 0 1.0125) (size 0.25 0.675) (layers F.Cu F.Paste F.Mask))
  (pad 7 smd rect (at 0.5 1.0125) (size 0.25 0.675) (layers F.Cu F.Paste F.Mask))
  (pad 1 smd rect (at -1.2625 -0.75) (size 0.675 0.25) (layers F.Cu F.Paste F.Mask))
  (pad 2 smd rect (at -1.2625 -0.25) (size 0.675 0.25) (layers F.Cu F.Paste F.Mask))
  (pad 3 smd rect (at -1.2625 0.25) (size 0.675 0.25) (layers F.Cu F.Paste F.Mask))
  (pad 4 smd rect (at -1.2625 0.75) (size 0.675 0.25) (layers F.Cu F.Paste F.Mask))
  (pad 8 smd rect (at 1.2625 0.75) (size 0.675 0.25) (layers F.Cu F.Paste F.Mask))
  (pad 9 smd rect (at 1.2625 0.25) (size 0.675 0.25) (layers F.Cu F.Paste F.Mask))
  (pad 10 smd rect (at 1.2625 -0.25) (size 0.675 0.25) (layers F.Cu F.Paste F.Mask))
  (pad 11 smd rect (at 1.2625 -0.75) (size 0.675 0.25) (layers F.Cu F.Paste F.Mask))
  (model ${KIPRJMOD}/kicad_libs_k/models_k.3d/Package_LGA_k.3dshapes/Bosch_LGA-14_3x2.5mm_P0.5mm_k.wrl
    (at (xyz 0 0 0))
    (scale (xyz 1 1 1))
    (rotate (xyz 0 0 0))
  )
)
