(module LGA-24L_3x3.5mm_P0.43mm (layer F.Cu) (tedit 5A02F217)
  (descr "LGA 24L 3x3.5mm Pitch 0.43mm")
  (tags "LGA 24L 3x3.5mm Pitch 0.43mm")
  (attr smd)
  (fp_text reference REF** (at 0 -2.7) (layer F.SilkS)
    (effects (font (size 1 1) (thickness 0.15)))
  )
  (fp_text value LGA-24L_3x3.5mm_P0.43mm (at 0 2.8) (layer F.Fab)
    (effects (font (size 1 1) (thickness 0.15)))
  )
  (fp_text user %R (at 0 -2.7) (layer F.Fab)
    (effects (font (size 1 1) (thickness 0.15)))
  )
  (fp_circle (center -1.95 -1.7) (end -1.89 -1.7) (layer F.SilkS) (width 0.12))
  (fp_circle (center -1.3 -1) (end -1.3 -0.95) (layer F.Fab) (width 0.1))
  (fp_line (start -2.1 1.85) (end -2.1 -1.85) (layer F.CrtYd) (width 0.05))
  (fp_line (start 2.1 1.85) (end -2.1 1.85) (layer F.CrtYd) (width 0.05))
  (fp_line (start 2.1 -1.85) (end 2.1 1.85) (layer F.CrtYd) (width 0.05))
  (fp_line (start -2.1 -1.85) (end 2.1 -1.85) (layer F.CrtYd) (width 0.05))
  (fp_circle (center -1.95 -1.7) (end -1.8 -1.7) (layer F.SilkS) (width 0.12))
  (fp_line (start -1.95 1.7) (end -1.95 1) (layer F.SilkS) (width 0.12))
  (fp_line (start 1.95 1.7) (end 1.2 1.7) (layer F.SilkS) (width 0.12))
  (fp_line (start 1.95 -1.7) (end 1.95 -1) (layer F.SilkS) (width 0.12))
  (fp_line (start 1.2 -1.7) (end 1.95 -1.7) (layer F.SilkS) (width 0.12))
  (fp_circle (center -1.3 -1) (end -1.3 -0.85) (layer F.Fab) (width 0.1))
  (fp_line (start -1.75 1.5) (end -1.75 -1.5) (layer F.Fab) (width 0.1))
  (fp_line (start 1.75 1.5) (end -1.75 1.5) (layer F.Fab) (width 0.1))
  (fp_line (start 1.75 -1.5) (end 1.75 1.5) (layer F.Fab) (width 0.1))
  (fp_line (start -1.75 -1.5) (end 1.75 -1.5) (layer F.Fab) (width 0.1))
  (fp_line (start 1.95 1) (end 1.95 1.7) (layer F.SilkS) (width 0.12))
  (fp_line (start -1.2 1.7) (end -1.95 1.7) (layer F.SilkS) (width 0.12))
  (pad 1 smd rect (at -1.505 -1.225) (size 0.23 0.35) (layers F.Cu F.Paste F.Mask))
  (pad 2 smd rect (at -1.475 -0.645) (size 0.35 0.23) (layers F.Cu F.Paste F.Mask))
  (pad 17 smd rect (at 1.475 -0.645) (size 0.35 0.23) (layers F.Cu F.Paste F.Mask))
  (pad 3 smd rect (at -1.475 -0.215) (size 0.35 0.23) (layers F.Cu F.Paste F.Mask))
  (pad 16 smd rect (at 1.475 -0.215) (size 0.35 0.23) (layers F.Cu F.Paste F.Mask))
  (pad 4 smd rect (at -1.475 0.215) (size 0.35 0.23) (layers F.Cu F.Paste F.Mask))
  (pad 15 smd rect (at 1.475 0.215) (size 0.35 0.23) (layers F.Cu F.Paste F.Mask))
  (pad 5 smd rect (at -1.475 0.645) (size 0.35 0.23) (layers F.Cu F.Paste F.Mask))
  (pad 14 smd rect (at 1.475 0.645) (size 0.35 0.23) (layers F.Cu F.Paste F.Mask))
  (pad 24 smd rect (at -1.075 -1.225) (size 0.23 0.35) (layers F.Cu F.Paste F.Mask))
  (pad 23 smd rect (at -0.645 -1.225) (size 0.23 0.35) (layers F.Cu F.Paste F.Mask))
  (pad 22 smd rect (at -0.215 -1.225) (size 0.23 0.35) (layers F.Cu F.Paste F.Mask))
  (pad 21 smd rect (at 0.215 -1.225) (size 0.23 0.35) (layers F.Cu F.Paste F.Mask))
  (pad 20 smd rect (at 0.645 -1.225) (size 0.23 0.35) (layers F.Cu F.Paste F.Mask))
  (pad 19 smd rect (at 1.075 -1.225) (size 0.23 0.35) (layers F.Cu F.Paste F.Mask))
  (pad 18 smd rect (at 1.505 -1.225) (size 0.23 0.35) (layers F.Cu F.Paste F.Mask))
  (pad 6 smd rect (at -1.505 1.225) (size 0.23 0.35) (layers F.Cu F.Paste F.Mask))
  (pad 7 smd rect (at -1.075 1.225) (size 0.23 0.35) (layers F.Cu F.Paste F.Mask))
  (pad 8 smd rect (at -0.645 1.225) (size 0.23 0.35) (layers F.Cu F.Paste F.Mask))
  (pad 9 smd rect (at -0.215 1.225) (size 0.23 0.35) (layers F.Cu F.Paste F.Mask))
  (pad 10 smd rect (at 0.215 1.225) (size 0.23 0.35) (layers F.Cu F.Paste F.Mask))
  (pad 11 smd rect (at 0.645 1.225) (size 0.23 0.35) (layers F.Cu F.Paste F.Mask))
  (pad 12 smd rect (at 1.075 1.225) (size 0.23 0.35) (layers F.Cu F.Paste F.Mask))
  (pad 13 smd rect (at 1.505 1.225) (size 0.23 0.35) (layers F.Cu F.Paste F.Mask))
  (model ${KIPRJMOD}/kicad_libs_k/models_k.3d/Package_LGA_k.3dshapes/LGA-24L_3x3.5mm_P0.43mm_k.wrl
    (at (xyz 0 0 0))
    (scale (xyz 1 1 1))
    (rotate (xyz 0 0 0))
  )
)
