(module LGA-16_3x3mm_P0.5mm (layer F.Cu) (tedit 5AD5B76F)
  (descr http://www.memsic.com/userfiles/files/DataSheets/Magnetic-Sensors-Datasheets/MMC5883MA-RevC.pdf)
  (tags "lga land grid array")
  (attr smd)
  (fp_text reference REF** (at 0 -2.7) (layer F.SilkS)
    (effects (font (size 1 1) (thickness 0.15)))
  )
  (fp_text value LGA-16_3x3mm_P0.5mm (at 0 2.75) (layer F.Fab)
    (effects (font (size 1 1) (thickness 0.15)))
  )
  (fp_line (start -1 -1.5) (end 1.5 -1.5) (layer F.Fab) (width 0.1))
  (fp_line (start 1.5 -1.5) (end 1.5 1.5) (layer F.Fab) (width 0.1))
  (fp_line (start 1.5 1.5) (end -1.5 1.5) (layer F.Fab) (width 0.1))
  (fp_line (start -1.5 1.5) (end -1.5 -1) (layer F.Fab) (width 0.1))
  (fp_line (start -1.5 -1) (end -1 -1.5) (layer F.Fab) (width 0.1))
  (fp_line (start 1.1 -1.6) (end 1.6 -1.6) (layer F.SilkS) (width 0.1))
  (fp_line (start 1.6 -1.6) (end 1.6 -1.1) (layer F.SilkS) (width 0.1))
  (fp_line (start 1.6 1.6) (end 1.6 1.1) (layer F.SilkS) (width 0.1))
  (fp_line (start 1.6 1.1) (end 1.6 1.6) (layer F.SilkS) (width 0.1))
  (fp_line (start 1.6 1.6) (end 1.1 1.6) (layer F.SilkS) (width 0.1))
  (fp_line (start -1.6 1.6) (end -1.1 1.6) (layer F.SilkS) (width 0.1))
  (fp_line (start -1.6 1.6) (end -1.6 1.1) (layer F.SilkS) (width 0.1))
  (fp_line (start -1.6 -1.6) (end -1.6 -1.1) (layer F.SilkS) (width 0.1))
  (fp_text user %R (at 0 0 180) (layer F.Fab)
    (effects (font (size 0.4 0.4) (thickness 0.06)))
  )
  (fp_line (start -1.75 -1.75) (end 1.75 -1.75) (layer F.CrtYd) (width 0.05))
  (fp_line (start 1.75 -1.75) (end 1.75 1.75) (layer F.CrtYd) (width 0.05))
  (fp_line (start 1.75 1.75) (end -1.75 1.75) (layer F.CrtYd) (width 0.05))
  (fp_line (start -1.75 1.75) (end -1.75 -1.75) (layer F.CrtYd) (width 0.05))
  (pad 13 smd rect (at 0.75 -1.275) (size 0.3 0.45) (layers F.Cu F.Paste F.Mask))
  (pad 16 smd rect (at -0.75 -1.275) (size 0.3 0.45) (layers F.Cu F.Paste F.Mask))
  (pad 15 smd rect (at -0.25 -1.275) (size 0.3 0.45) (layers F.Cu F.Paste F.Mask))
  (pad 14 smd rect (at 0.25 -1.275) (size 0.3 0.45) (layers F.Cu F.Paste F.Mask))
  (pad 1 smd rect (at -1.275 -0.75 90) (size 0.3 0.45) (layers F.Cu F.Paste F.Mask))
  (pad 2 smd rect (at -1.275 -0.25 90) (size 0.3 0.45) (layers F.Cu F.Paste F.Mask))
  (pad 3 smd rect (at -1.275 0.25 90) (size 0.3 0.45) (layers F.Cu F.Paste F.Mask))
  (pad 4 smd rect (at -1.275 0.75 90) (size 0.3 0.45) (layers F.Cu F.Paste F.Mask))
  (pad 8 smd rect (at 0.75 1.275) (size 0.3 0.45) (layers F.Cu F.Paste F.Mask))
  (pad 6 smd rect (at -0.25 1.275) (size 0.3 0.45) (layers F.Cu F.Paste F.Mask))
  (pad 7 smd rect (at 0.25 1.275) (size 0.3 0.45) (layers F.Cu F.Paste F.Mask))
  (pad 5 smd rect (at -0.75 1.275) (size 0.3 0.45) (layers F.Cu F.Paste F.Mask))
  (pad 9 smd rect (at 1.275 0.75 90) (size 0.3 0.45) (layers F.Cu F.Paste F.Mask))
  (pad 12 smd rect (at 1.275 -0.75 90) (size 0.3 0.45) (layers F.Cu F.Paste F.Mask))
  (pad 11 smd rect (at 1.275 -0.25 90) (size 0.3 0.45) (layers F.Cu F.Paste F.Mask))
  (pad 10 smd rect (at 1.275 0.25 90) (size 0.3 0.45) (layers F.Cu F.Paste F.Mask))
  (model ${KIPRJMOD}/kicad_libs_k/models_k.3d/Package_LGA_k.3dshapes/LGA-16_3x3mm_P0.5mm_k.wrl
    (at (xyz 0 0 0))
    (scale (xyz 1 1 1))
    (rotate (xyz 0 0 0))
  )
)
