(module LGA-14_2x2mm_P0.35mm_LayoutBorder3x4y (layer F.Cu) (tedit 5AE4FD82)
  (descr "LGA, 14 Pin (http://www.st.com/resource/en/datasheet/lis2dh.pdf), generated with kicad-footprint-generator ipc_lga_layoutBorder_generator.py")
  (tags "LGA LGA")
  (attr smd)
  (fp_text reference REF** (at 0 -1.8) (layer F.SilkS)
    (effects (font (size 1 1) (thickness 0.15)))
  )
  (fp_text value LGA-14_2x2mm_P0.35mm_LayoutBorder3x4y (at 0 1.8) (layer F.Fab)
    (effects (font (size 1 1) (thickness 0.15)))
  )
  (fp_line (start 0.71 -1.11) (end 1.11 -1.11) (layer F.SilkS) (width 0.12))
  (fp_line (start 1.11 -1.11) (end 1.11 -0.885) (layer F.SilkS) (width 0.12))
  (fp_line (start 0.71 1.11) (end 1.11 1.11) (layer F.SilkS) (width 0.12))
  (fp_line (start 1.11 1.11) (end 1.11 0.885) (layer F.SilkS) (width 0.12))
  (fp_line (start -0.71 1.11) (end -1.11 1.11) (layer F.SilkS) (width 0.12))
  (fp_line (start -1.11 1.11) (end -1.11 0.885) (layer F.SilkS) (width 0.12))
  (fp_line (start -0.5 -1) (end 1 -1) (layer F.Fab) (width 0.1))
  (fp_line (start 1 -1) (end 1 1) (layer F.Fab) (width 0.1))
  (fp_line (start 1 1) (end -1 1) (layer F.Fab) (width 0.1))
  (fp_line (start -1 1) (end -1 -0.5) (layer F.Fab) (width 0.1))
  (fp_line (start -1 -0.5) (end -0.5 -1) (layer F.Fab) (width 0.1))
  (fp_line (start -1.1 -1.1) (end -1.1 1.1) (layer F.CrtYd) (width 0.05))
  (fp_line (start -1.1 1.1) (end 1.1 1.1) (layer F.CrtYd) (width 0.05))
  (fp_line (start 1.1 1.1) (end 1.1 -1.1) (layer F.CrtYd) (width 0.05))
  (fp_line (start 1.1 -1.1) (end -1.1 -1.1) (layer F.CrtYd) (width 0.05))
  (pad 1 smd rect (at -0.7625 -0.525) (size 0.325 0.2) (layers F.Cu F.Mask F.Paste))
  (pad 2 smd rect (at -0.7625 -0.175) (size 0.325 0.2) (layers F.Cu F.Mask F.Paste))
  (pad 3 smd rect (at -0.7625 0.175) (size 0.325 0.2) (layers F.Cu F.Mask F.Paste))
  (pad 4 smd rect (at -0.7625 0.525) (size 0.325 0.2) (layers F.Cu F.Mask F.Paste))
  (pad 5 smd rect (at -0.35 0.7625) (size 0.2 0.325) (layers F.Cu F.Mask F.Paste))
  (pad 6 smd rect (at 0 0.7625) (size 0.2 0.325) (layers F.Cu F.Mask F.Paste))
  (pad 7 smd rect (at 0.35 0.7625) (size 0.2 0.325) (layers F.Cu F.Mask F.Paste))
  (pad 8 smd rect (at 0.7625 0.525) (size 0.325 0.2) (layers F.Cu F.Mask F.Paste))
  (pad 9 smd rect (at 0.7625 0.175) (size 0.325 0.2) (layers F.Cu F.Mask F.Paste))
  (pad 10 smd rect (at 0.7625 -0.175) (size 0.325 0.2) (layers F.Cu F.Mask F.Paste))
  (pad 11 smd rect (at 0.7625 -0.525) (size 0.325 0.2) (layers F.Cu F.Mask F.Paste))
  (pad 12 smd rect (at 0.35 -0.7625) (size 0.2 0.325) (layers F.Cu F.Mask F.Paste))
  (pad 13 smd rect (at 0 -0.7625) (size 0.2 0.325) (layers F.Cu F.Mask F.Paste))
  (pad 14 smd rect (at -0.35 -0.7625) (size 0.2 0.325) (layers F.Cu F.Mask F.Paste))
  (fp_text user %R (at 0 0) (layer F.Fab)
    (effects (font (size 0.5 0.5) (thickness 0.08)))
  )
  (model ${KIPRJMOD}/kicad_libs_k/models_k.3d/Package_LGA_k.3dshapes/LGA-14_2x2mm_P0.35mm_LayoutBorder3x4y_k.wrl
    (at (xyz 0 0 0))
    (scale (xyz 1 1 1))
    (rotate (xyz 0 0 0))
  )
)