(module Conn_Molex_105313-1203 locked (layer F.Cu) (tedit 5BAA1800)
  (fp_text reference J601 (at 6.7 -8.8) (layer F.SilkS)
    (effects (font (size 1 1) (thickness 0.15)))
  )
  (fp_text value Conn_01x03_POWER_SENSOR (at 1.5 -4.1) (layer F.Fab)
    (effects (font (size 1 1) (thickness 0.15)))
  )
  (fp_line (start 4.2 -11.9) (end 4.2 -10.4) (layer F.Fab) (width 0.1))
  (fp_line (start -4.2 -11.9) (end 4.2 -11.9) (layer F.Fab) (width 0.1))
  (fp_line (start -4.2 -10.4) (end -4.2 -11.9) (layer F.Fab) (width 0.1))
  (fp_line (start -2.8 0.3) (end -2.8 -1.9) (layer F.SilkS) (width 0.1))
  (fp_line (start 2.8 -1.92) (end 4.2 -1.92) (layer F.SilkS) (width 0.1))
  (fp_line (start 4.2 -10.38) (end 4.2 -1.92) (layer F.SilkS) (width 0.1))
  (fp_line (start -4.2 -1.9) (end -2.8 -1.9) (layer F.SilkS) (width 0.1))
  (fp_line (start -4.2 -10.38) (end -4.2 -1.92) (layer F.SilkS) (width 0.1))
  (fp_line (start 4.2 -10.38) (end -4.2 -10.38) (layer F.SilkS) (width 0.1))
  (fp_line (start 2.8 0.3) (end 2.8 -1.9) (layer F.SilkS) (width 0.1))
  (fp_line (start -2.8 0.3) (end 2.8 0.3) (layer F.SilkS) (width 0.1))
  (fp_line (start -4.2 -11.9) (end 4.2 -11.9) (layer F.CrtYd) (width 0.15))
  (fp_line (start 4.2 -11.9) (end 4.2 -1.9) (layer F.CrtYd) (width 0.15))
  (fp_line (start 4.2 -1.9) (end 3.55 -1.9) (layer F.CrtYd) (width 0.15))
  (fp_line (start 3.55 -1.9) (end 3.55 1.05) (layer F.CrtYd) (width 0.15))
  (fp_line (start 3.55 1.05) (end -3.55 1.05) (layer F.CrtYd) (width 0.15))
  (fp_line (start -3.55 1.05) (end -3.55 -1.9) (layer F.CrtYd) (width 0.15))
  (fp_line (start -3.55 -1.9) (end -4.2 -1.9) (layer F.CrtYd) (width 0.15))
  (fp_line (start -4.2 -1.9) (end -4.2 -11.9) (layer F.CrtYd) (width 0.15))
  (pad "" np_thru_hole circle (at 2.5 -7.18) (size 1.8 1.8) (drill 1.7) (layers *.Cu *.Mask))
  (pad "" np_thru_hole circle (at -2.4 -7.18) (size 1.8 1.8) (drill 1.7) (layers *.Cu *.Mask))
  (pad 3 thru_hole circle (at 2.5 0) (size 2.2 2.2) (drill 1.2) (layers *.Cu *.Mask))
  (pad 2 thru_hole circle (at 0 0) (size 2.2 2.2) (drill 1.2) (layers *.Cu *.Mask))
  (pad 1 thru_hole circle (at -2.5 0) (size 2.2 2.2) (drill 1.2) (layers *.Cu *.Mask))
  (model ${KIKONMOD}/3D_packages/Conn_Molex_105313-1203.stp
    (offset (xyz 0 6.15 1.8))
    (scale (xyz 1 1 1))
    (rotate (xyz -90 0 -180))
  )
)
