(module JST_PUD_B22B-PUDSS_2x11_P2.00mm_Vertical (layer F.Cu) (tedit 5A0EE4AD)
  (descr "JST PUD series connector, B22B-PUDSS (http://www.jst-mfg.com/product/pdf/eng/ePUD.pdf), generated with kicad-footprint-generator")
  (tags "connector JST PUD side entry")
  (fp_text reference REF** (at 10 -5.1) (layer F.SilkS)
    (effects (font (size 1 1) (thickness 0.15)))
  )
  (fp_text value JST_PUD_B22B-PUDSS_2x11_P2.00mm_Vertical (at 10 5.6) (layer F.Fab)
    (effects (font (size 1 1) (thickness 0.15)))
  )
  (fp_line (start -2 -3.9) (end -2 4.4) (layer F.Fab) (width 0.1))
  (fp_line (start -2 4.4) (end 22 4.4) (layer F.Fab) (width 0.1))
  (fp_line (start 22 4.4) (end 22 -3.9) (layer F.Fab) (width 0.1))
  (fp_line (start 22 -3.9) (end -2 -3.9) (layer F.Fab) (width 0.1))
  (fp_line (start 4.75 -3.15) (end 4.75 -2.4) (layer F.SilkS) (width 0.12))
  (fp_line (start 4.75 -2.4) (end 15.25 -2.4) (layer F.SilkS) (width 0.12))
  (fp_line (start 15.25 -2.4) (end 15.25 -3.15) (layer F.SilkS) (width 0.12))
  (fp_line (start 15.25 -3.15) (end 4.75 -3.15) (layer F.SilkS) (width 0.12))
  (fp_line (start -2.5 -4.4) (end -2.5 4.9) (layer F.CrtYd) (width 0.05))
  (fp_line (start -2.5 4.9) (end 22.5 4.9) (layer F.CrtYd) (width 0.05))
  (fp_line (start 22.5 4.9) (end 22.5 -4.4) (layer F.CrtYd) (width 0.05))
  (fp_line (start 22.5 -4.4) (end -2.5 -4.4) (layer F.CrtYd) (width 0.05))
  (fp_line (start 4 -4.01) (end 4 -2.4) (layer F.SilkS) (width 0.12))
  (fp_line (start 4 -2.4) (end 3.25 -2.4) (layer F.SilkS) (width 0.12))
  (fp_line (start 3.25 -2.4) (end 3.25 -3.15) (layer F.SilkS) (width 0.12))
  (fp_line (start 3.25 -3.15) (end -1.25 -3.15) (layer F.SilkS) (width 0.12))
  (fp_line (start -1.25 -3.15) (end -1.25 3.65) (layer F.SilkS) (width 0.12))
  (fp_line (start -1.25 3.65) (end 10 3.65) (layer F.SilkS) (width 0.12))
  (fp_line (start 16 -4.01) (end 16 -2.4) (layer F.SilkS) (width 0.12))
  (fp_line (start 16 -2.4) (end 16.75 -2.4) (layer F.SilkS) (width 0.12))
  (fp_line (start 16.75 -2.4) (end 16.75 -3.15) (layer F.SilkS) (width 0.12))
  (fp_line (start 16.75 -3.15) (end 21.25 -3.15) (layer F.SilkS) (width 0.12))
  (fp_line (start 21.25 -3.15) (end 21.25 3.65) (layer F.SilkS) (width 0.12))
  (fp_line (start 21.25 3.65) (end 10 3.65) (layer F.SilkS) (width 0.12))
  (fp_line (start -2.11 -4.01) (end -2.11 4.51) (layer F.SilkS) (width 0.12))
  (fp_line (start -2.11 4.51) (end 22.11 4.51) (layer F.SilkS) (width 0.12))
  (fp_line (start 22.11 4.51) (end 22.11 -4.01) (layer F.SilkS) (width 0.12))
  (fp_line (start 22.11 -4.01) (end -2.11 -4.01) (layer F.SilkS) (width 0.12))
  (fp_line (start -2.31 0) (end -2.91 0.3) (layer F.SilkS) (width 0.12))
  (fp_line (start -2.91 0.3) (end -2.91 -0.3) (layer F.SilkS) (width 0.12))
  (fp_line (start -2.91 -0.3) (end -2.31 0) (layer F.SilkS) (width 0.12))
  (fp_line (start -2 0.5) (end -1.292893 0) (layer F.Fab) (width 0.1))
  (fp_line (start -1.292893 0) (end -2 -0.5) (layer F.Fab) (width 0.1))
  (pad 1 thru_hole rect (at 0 0) (size 1.2 1.2) (drill 0.75) (layers *.Cu *.Mask))
  (pad 3 thru_hole circle (at 2 0) (size 1.2 1.2) (drill 0.75) (layers *.Cu *.Mask))
  (pad 5 thru_hole circle (at 4 0) (size 1.2 1.2) (drill 0.75) (layers *.Cu *.Mask))
  (pad 7 thru_hole circle (at 6 0) (size 1.2 1.2) (drill 0.75) (layers *.Cu *.Mask))
  (pad 9 thru_hole circle (at 8 0) (size 1.2 1.2) (drill 0.75) (layers *.Cu *.Mask))
  (pad 11 thru_hole circle (at 10 0) (size 1.2 1.2) (drill 0.75) (layers *.Cu *.Mask))
  (pad 13 thru_hole circle (at 12 0) (size 1.2 1.2) (drill 0.75) (layers *.Cu *.Mask))
  (pad 15 thru_hole circle (at 14 0) (size 1.2 1.2) (drill 0.75) (layers *.Cu *.Mask))
  (pad 17 thru_hole circle (at 16 0) (size 1.2 1.2) (drill 0.75) (layers *.Cu *.Mask))
  (pad 19 thru_hole circle (at 18 0) (size 1.2 1.2) (drill 0.75) (layers *.Cu *.Mask))
  (pad 21 thru_hole circle (at 20 0) (size 1.2 1.2) (drill 0.75) (layers *.Cu *.Mask))
  (pad 2 thru_hole circle (at 0 2) (size 1.2 1.2) (drill 0.75) (layers *.Cu *.Mask))
  (pad 4 thru_hole circle (at 2 2) (size 1.2 1.2) (drill 0.75) (layers *.Cu *.Mask))
  (pad 6 thru_hole circle (at 4 2) (size 1.2 1.2) (drill 0.75) (layers *.Cu *.Mask))
  (pad 8 thru_hole circle (at 6 2) (size 1.2 1.2) (drill 0.75) (layers *.Cu *.Mask))
  (pad 10 thru_hole circle (at 8 2) (size 1.2 1.2) (drill 0.75) (layers *.Cu *.Mask))
  (pad 12 thru_hole circle (at 10 2) (size 1.2 1.2) (drill 0.75) (layers *.Cu *.Mask))
  (pad 14 thru_hole circle (at 12 2) (size 1.2 1.2) (drill 0.75) (layers *.Cu *.Mask))
  (pad 16 thru_hole circle (at 14 2) (size 1.2 1.2) (drill 0.75) (layers *.Cu *.Mask))
  (pad 18 thru_hole circle (at 16 2) (size 1.2 1.2) (drill 0.75) (layers *.Cu *.Mask))
  (pad 20 thru_hole circle (at 18 2) (size 1.2 1.2) (drill 0.75) (layers *.Cu *.Mask))
  (pad 22 thru_hole circle (at 20 2) (size 1.2 1.2) (drill 0.75) (layers *.Cu *.Mask))
  (fp_text user %R (at 10 -3.2) (layer F.Fab)
    (effects (font (size 1 1) (thickness 0.15)))
  )
  (model ${KIPRJMOD}/kicad_libs_k/models_k.3d/Connector_JST_k.3dshapes/JST_PUD_B22B-PUDSS_2x11_P2.00mm_Vertical_k.wrl
    (at (xyz 0 0 0))
    (scale (xyz 1 1 1))
    (rotate (xyz 0 0 0))
  )
)