(module JST_GH_SM09B-GHS-TB_1x09-1MP_P1.25mm_Horizontal (layer F.Cu) (tedit 5AA47DC8)
  (descr "JST GH series connector, SM09B-GHS-TB (http://www.jst-mfg.com/product/pdf/eng/eGH.pdf), generated with kicad-footprint-generator")
  (tags "connector JST GH top entry")
  (attr smd)
  (fp_text reference REF** (at 0 -3.9) (layer F.SilkS)
    (effects (font (size 1 1) (thickness 0.15)))
  )
  (fp_text value JST_GH_SM09B-GHS-TB_1x09-1MP_P1.25mm_Horizontal (at 0 3.9) (layer F.Fab)
    (effects (font (size 1 1) (thickness 0.15)))
  )
  (fp_line (start -7.25 -1.6) (end 7.25 -1.6) (layer F.Fab) (width 0.1))
  (fp_line (start -7.36 -0.26) (end -7.36 -1.71) (layer F.SilkS) (width 0.12))
  (fp_line (start -7.36 -1.71) (end -5.56 -1.71) (layer F.SilkS) (width 0.12))
  (fp_line (start -5.56 -1.71) (end -5.56 -2.7) (layer F.SilkS) (width 0.12))
  (fp_line (start 7.36 -0.26) (end 7.36 -1.71) (layer F.SilkS) (width 0.12))
  (fp_line (start 7.36 -1.71) (end 5.56 -1.71) (layer F.SilkS) (width 0.12))
  (fp_line (start -6.09 2.56) (end 6.09 2.56) (layer F.SilkS) (width 0.12))
  (fp_line (start -7.25 2.45) (end 7.25 2.45) (layer F.Fab) (width 0.1))
  (fp_line (start -7.25 -1.6) (end -7.25 2.45) (layer F.Fab) (width 0.1))
  (fp_line (start 7.25 -1.6) (end 7.25 2.45) (layer F.Fab) (width 0.1))
  (fp_line (start -7.85 -3.2) (end -7.85 3.2) (layer F.CrtYd) (width 0.05))
  (fp_line (start -7.85 3.2) (end 7.85 3.2) (layer F.CrtYd) (width 0.05))
  (fp_line (start 7.85 3.2) (end 7.85 -3.2) (layer F.CrtYd) (width 0.05))
  (fp_line (start 7.85 -3.2) (end -7.85 -3.2) (layer F.CrtYd) (width 0.05))
  (fp_line (start -5.5 -1.6) (end -5 -0.892893) (layer F.Fab) (width 0.1))
  (fp_line (start -5 -0.892893) (end -4.5 -1.6) (layer F.Fab) (width 0.1))
  (pad 1 smd rect (at -5 -1.85) (size 0.6 1.7) (layers F.Cu F.Mask F.Paste))
  (pad 2 smd rect (at -3.75 -1.85) (size 0.6 1.7) (layers F.Cu F.Mask F.Paste))
  (pad 3 smd rect (at -2.5 -1.85) (size 0.6 1.7) (layers F.Cu F.Mask F.Paste))
  (pad 4 smd rect (at -1.25 -1.85) (size 0.6 1.7) (layers F.Cu F.Mask F.Paste))
  (pad 5 smd rect (at 0 -1.85) (size 0.6 1.7) (layers F.Cu F.Mask F.Paste))
  (pad 6 smd rect (at 1.25 -1.85) (size 0.6 1.7) (layers F.Cu F.Mask F.Paste))
  (pad 7 smd rect (at 2.5 -1.85) (size 0.6 1.7) (layers F.Cu F.Mask F.Paste))
  (pad 8 smd rect (at 3.75 -1.85) (size 0.6 1.7) (layers F.Cu F.Mask F.Paste))
  (pad 9 smd rect (at 5 -1.85) (size 0.6 1.7) (layers F.Cu F.Mask F.Paste))
  (pad MP smd rect (at -6.85 1.35) (size 1 2.7) (layers F.Cu F.Mask F.Paste))
  (pad MP smd rect (at 6.85 1.35) (size 1 2.7) (layers F.Cu F.Mask F.Paste))
  (fp_text user %R (at 0 0) (layer F.Fab)
    (effects (font (size 1 1) (thickness 0.15)))
  )
  (model ${KIPRJMOD}/kicad_libs_k/models_k.3d/Connector_JST_k.3dshapes/JST_GH_SM09B-GHS-TB_1x09-1MP_P1.25mm_Horizontal_k.wrl
    (at (xyz 0 0 0))
    (scale (xyz 1 1 1))
    (rotate (xyz 0 0 0))
  )
)