(module JST_VH_B4PS-VH_1x04_P3.96mm_Horizontal (layer F.Cu) (tedit 5A0EF886)
  (descr "JST VH series connector, B4PS-VH (http://www.jst-mfg.com/product/pdf/eng/eVH.pdf), generated with kicad-footprint-generator")
  (tags "connector JST VH top entry")
  (fp_text reference REF** (at 5.94 -2.55) (layer F.SilkS)
    (effects (font (size 1 1) (thickness 0.15)))
  )
  (fp_text value JST_VH_B4PS-VH_1x04_P3.96mm_Horizontal (at 5.94 16.1) (layer F.Fab)
    (effects (font (size 1 1) (thickness 0.15)))
  )
  (fp_line (start -0.9 4) (end -0.9 13.4) (layer F.Fab) (width 0.1))
  (fp_line (start -0.9 13.4) (end 12.78 13.4) (layer F.Fab) (width 0.1))
  (fp_line (start 12.78 13.4) (end 12.78 4) (layer F.Fab) (width 0.1))
  (fp_line (start 12.78 4) (end -0.9 4) (layer F.Fab) (width 0.1))
  (fp_line (start 12.78 4) (end 13.83 4) (layer F.Fab) (width 0.1))
  (fp_line (start 13.83 4) (end 13.83 7.2) (layer F.Fab) (width 0.1))
  (fp_line (start 13.83 7.2) (end 12.78 7.2) (layer F.Fab) (width 0.1))
  (fp_line (start -0.9 7.2) (end -1.95 7.2) (layer F.Fab) (width 0.1))
  (fp_line (start -1.95 7.2) (end -1.95 4) (layer F.Fab) (width 0.1))
  (fp_line (start -1.95 4) (end -0.9 4) (layer F.Fab) (width 0.1))
  (fp_line (start -0.8 4) (end 0 4.8) (layer F.Fab) (width 0.1))
  (fp_line (start 0 4.8) (end 0.8 4) (layer F.Fab) (width 0.1))
  (fp_line (start -0.7 4) (end -0.7 0) (layer F.Fab) (width 0.1))
  (fp_line (start -0.7 0) (end 0.7 0) (layer F.Fab) (width 0.1))
  (fp_line (start 0.7 0) (end 0.7 4) (layer F.Fab) (width 0.1))
  (fp_line (start -0.7 13.4) (end -0.7 14.9) (layer F.Fab) (width 0.1))
  (fp_line (start -0.7 14.9) (end 0.7 14.9) (layer F.Fab) (width 0.1))
  (fp_line (start 0.7 14.9) (end 0.7 13.4) (layer F.Fab) (width 0.1))
  (fp_line (start 3.26 4) (end 3.26 0) (layer F.Fab) (width 0.1))
  (fp_line (start 3.26 0) (end 4.66 0) (layer F.Fab) (width 0.1))
  (fp_line (start 4.66 0) (end 4.66 4) (layer F.Fab) (width 0.1))
  (fp_line (start 3.26 13.4) (end 3.26 14.9) (layer F.Fab) (width 0.1))
  (fp_line (start 3.26 14.9) (end 4.66 14.9) (layer F.Fab) (width 0.1))
  (fp_line (start 4.66 14.9) (end 4.66 13.4) (layer F.Fab) (width 0.1))
  (fp_line (start 7.22 4) (end 7.22 0) (layer F.Fab) (width 0.1))
  (fp_line (start 7.22 0) (end 8.62 0) (layer F.Fab) (width 0.1))
  (fp_line (start 8.62 0) (end 8.62 4) (layer F.Fab) (width 0.1))
  (fp_line (start 7.22 13.4) (end 7.22 14.9) (layer F.Fab) (width 0.1))
  (fp_line (start 7.22 14.9) (end 8.62 14.9) (layer F.Fab) (width 0.1))
  (fp_line (start 8.62 14.9) (end 8.62 13.4) (layer F.Fab) (width 0.1))
  (fp_line (start 11.18 4) (end 11.18 0) (layer F.Fab) (width 0.1))
  (fp_line (start 11.18 0) (end 12.58 0) (layer F.Fab) (width 0.1))
  (fp_line (start 12.58 0) (end 12.58 4) (layer F.Fab) (width 0.1))
  (fp_line (start 11.18 13.4) (end 11.18 14.9) (layer F.Fab) (width 0.1))
  (fp_line (start 11.18 14.9) (end 12.58 14.9) (layer F.Fab) (width 0.1))
  (fp_line (start 12.58 14.9) (end 12.58 13.4) (layer F.Fab) (width 0.1))
  (fp_line (start -2.45 -1.85) (end -2.45 15.4) (layer F.CrtYd) (width 0.05))
  (fp_line (start -2.45 15.4) (end 14.33 15.4) (layer F.CrtYd) (width 0.05))
  (fp_line (start 14.33 15.4) (end 14.33 -1.85) (layer F.CrtYd) (width 0.05))
  (fp_line (start 14.33 -1.85) (end -2.45 -1.85) (layer F.CrtYd) (width 0.05))
  (fp_line (start -2.06 3.89) (end 13.94 3.89) (layer F.SilkS) (width 0.12))
  (fp_line (start 13.94 3.89) (end 13.94 7.31) (layer F.SilkS) (width 0.12))
  (fp_line (start 13.94 7.31) (end 12.89 7.31) (layer F.SilkS) (width 0.12))
  (fp_line (start 12.89 7.31) (end 12.89 13.51) (layer F.SilkS) (width 0.12))
  (fp_line (start 12.89 13.51) (end -1.01 13.51) (layer F.SilkS) (width 0.12))
  (fp_line (start -1.01 13.51) (end -1.01 7.31) (layer F.SilkS) (width 0.12))
  (fp_line (start -1.01 7.31) (end -2.06 7.31) (layer F.SilkS) (width 0.12))
  (fp_line (start -2.06 7.31) (end -2.06 3.89) (layer F.SilkS) (width 0.12))
  (fp_line (start -0.82 13.51) (end -0.82 15.01) (layer F.SilkS) (width 0.12))
  (fp_line (start -0.82 15.01) (end 0.82 15.01) (layer F.SilkS) (width 0.12))
  (fp_line (start 0.82 15.01) (end 0.82 13.51) (layer F.SilkS) (width 0.12))
  (fp_line (start 3.14 13.51) (end 3.14 15.01) (layer F.SilkS) (width 0.12))
  (fp_line (start 3.14 15.01) (end 4.78 15.01) (layer F.SilkS) (width 0.12))
  (fp_line (start 4.78 15.01) (end 4.78 13.51) (layer F.SilkS) (width 0.12))
  (fp_line (start 7.1 13.51) (end 7.1 15.01) (layer F.SilkS) (width 0.12))
  (fp_line (start 7.1 15.01) (end 8.74 15.01) (layer F.SilkS) (width 0.12))
  (fp_line (start 8.74 15.01) (end 8.74 13.51) (layer F.SilkS) (width 0.12))
  (fp_line (start 11.06 13.51) (end 11.06 15.01) (layer F.SilkS) (width 0.12))
  (fp_line (start 11.06 15.01) (end 12.7 15.01) (layer F.SilkS) (width 0.12))
  (fp_line (start 12.7 15.01) (end 12.7 13.51) (layer F.SilkS) (width 0.12))
  (fp_line (start 0 -1.61) (end -1.61 -1.61) (layer F.SilkS) (width 0.12))
  (fp_line (start -1.61 -1.61) (end -1.61 0) (layer F.SilkS) (width 0.12))
  (pad 1 thru_hole rect (at 0 0) (size 2.7 2.7) (drill 1.7) (layers *.Cu *.Mask))
  (pad 2 thru_hole circle (at 3.96 0) (size 2.7 2.7) (drill 1.7) (layers *.Cu *.Mask))
  (pad 3 thru_hole circle (at 7.92 0) (size 2.7 2.7) (drill 1.7) (layers *.Cu *.Mask))
  (pad 4 thru_hole circle (at 11.88 0) (size 2.7 2.7) (drill 1.7) (layers *.Cu *.Mask))
  (fp_text user %R (at 5.94 9.45) (layer F.Fab)
    (effects (font (size 1 1) (thickness 0.15)))
  )
  (model ${KIPRJMOD}/kicad_libs_k/models_k.3d/Connector_JST_k.3dshapes/JST_VH_B4PS-VH_1x04_P3.96mm_Horizontal_k.wrl
    (at (xyz 0 0 0))
    (scale (xyz 1 1 1))
    (rotate (xyz 0 0 0))
  )
)