(module JST_VH_B11P-VH-B_1x11_P3.96mm_Vertical (layer F.Cu) (tedit 5A0E417B)
  (descr "JST VH PBT series connector, B11P-VH-B (http://www.jst-mfg.com/product/pdf/eng/eVH.pdf), generated with kicad-footprint-generator")
  (tags "connector JST VH side entry")
  (fp_text reference REF** (at 19.8 -4.9) (layer F.SilkS)
    (effects (font (size 1 1) (thickness 0.15)))
  )
  (fp_text value JST_VH_B11P-VH-B_1x11_P3.96mm_Vertical (at 19.8 6) (layer F.Fab)
    (effects (font (size 1 1) (thickness 0.15)))
  )
  (fp_line (start -1.95 -2) (end -1.95 4.8) (layer F.Fab) (width 0.1))
  (fp_line (start -1.95 4.8) (end 41.55 4.8) (layer F.Fab) (width 0.1))
  (fp_line (start 41.55 4.8) (end 41.55 -2) (layer F.Fab) (width 0.1))
  (fp_line (start 41.55 -2) (end -1.95 -2) (layer F.Fab) (width 0.1))
  (fp_line (start -0.75 -2) (end -0.75 -3.7) (layer F.Fab) (width 0.1))
  (fp_line (start -0.75 -3.7) (end 40.35 -3.7) (layer F.Fab) (width 0.1))
  (fp_line (start 40.35 -3.7) (end 40.35 -2) (layer F.Fab) (width 0.1))
  (fp_line (start -1.95 -1) (end -0.95 0) (layer F.Fab) (width 0.1))
  (fp_line (start -1.95 1) (end -0.95 0) (layer F.Fab) (width 0.1))
  (fp_line (start -2.45 -4.2) (end -2.45 5.3) (layer F.CrtYd) (width 0.05))
  (fp_line (start -2.45 5.3) (end 42.05 5.3) (layer F.CrtYd) (width 0.05))
  (fp_line (start 42.05 5.3) (end 42.05 -4.2) (layer F.CrtYd) (width 0.05))
  (fp_line (start 42.05 -4.2) (end -2.45 -4.2) (layer F.CrtYd) (width 0.05))
  (fp_line (start -2.06 4.91) (end -2.06 -2.11) (layer F.SilkS) (width 0.12))
  (fp_line (start -2.06 -2.11) (end -0.86 -2.11) (layer F.SilkS) (width 0.12))
  (fp_line (start -0.86 -2.11) (end -0.86 -3.81) (layer F.SilkS) (width 0.12))
  (fp_line (start -0.86 -3.81) (end 40.46 -3.81) (layer F.SilkS) (width 0.12))
  (fp_line (start 40.46 -3.81) (end 40.46 -2.11) (layer F.SilkS) (width 0.12))
  (fp_line (start 40.46 -2.11) (end 41.66 -2.11) (layer F.SilkS) (width 0.12))
  (fp_line (start 41.66 -2.11) (end 41.66 4.91) (layer F.SilkS) (width 0.12))
  (fp_line (start 41.66 4.91) (end -2.06 4.91) (layer F.SilkS) (width 0.12))
  (fp_line (start -2.26 0) (end -2.86 0.3) (layer F.SilkS) (width 0.12))
  (fp_line (start -2.86 0.3) (end -2.86 -0.3) (layer F.SilkS) (width 0.12))
  (fp_line (start -2.86 -0.3) (end -2.26 0) (layer F.SilkS) (width 0.12))
  (pad 1 thru_hole rect (at 0 0) (size 2.7 2.7) (drill 1.7) (layers *.Cu *.Mask))
  (pad 2 thru_hole circle (at 3.96 0) (size 2.7 2.7) (drill 1.7) (layers *.Cu *.Mask))
  (pad 3 thru_hole circle (at 7.92 0) (size 2.7 2.7) (drill 1.7) (layers *.Cu *.Mask))
  (pad 4 thru_hole circle (at 11.88 0) (size 2.7 2.7) (drill 1.7) (layers *.Cu *.Mask))
  (pad 5 thru_hole circle (at 15.84 0) (size 2.7 2.7) (drill 1.7) (layers *.Cu *.Mask))
  (pad 6 thru_hole circle (at 19.8 0) (size 2.7 2.7) (drill 1.7) (layers *.Cu *.Mask))
  (pad 7 thru_hole circle (at 23.76 0) (size 2.7 2.7) (drill 1.7) (layers *.Cu *.Mask))
  (pad 8 thru_hole circle (at 27.72 0) (size 2.7 2.7) (drill 1.7) (layers *.Cu *.Mask))
  (pad 9 thru_hole circle (at 31.68 0) (size 2.7 2.7) (drill 1.7) (layers *.Cu *.Mask))
  (pad 10 thru_hole circle (at 35.64 0) (size 2.7 2.7) (drill 1.7) (layers *.Cu *.Mask))
  (pad 11 thru_hole circle (at 39.6 0) (size 2.7 2.7) (drill 1.7) (layers *.Cu *.Mask))
  (fp_text user %R (at 19.8 4.1) (layer F.Fab)
    (effects (font (size 1 1) (thickness 0.15)))
  )
  (model ${KIPRJMOD}/kicad_libs_k/models_k.3d/Connector_JST_k.3dshapes/JST_VH_B11P-VH-B_1x11_P3.96mm_Vertical_k.wrl
    (at (xyz 0 0 0))
    (scale (xyz 1 1 1))
    (rotate (xyz 0 0 0))
  )
)