(module JST_PUD_S40B-PUDSS-1_2x20_P2.00mm_Horizontal (layer F.Cu) (tedit 5A0EE4AC)
  (descr "JST PUD series connector, S40B-PUDSS-1 (http://www.jst-mfg.com/product/pdf/eng/ePUD.pdf), generated with kicad-footprint-generator")
  (tags "connector JST PUD top entry")
  (fp_text reference REF** (at 19 -1.8) (layer F.SilkS)
    (effects (font (size 1 1) (thickness 0.15)))
  )
  (fp_text value JST_PUD_S40B-PUDSS-1_2x20_P2.00mm_Horizontal (at 19 13.3) (layer F.Fab)
    (effects (font (size 1 1) (thickness 0.15)))
  )
  (fp_line (start -2 -0.6) (end -2 12.1) (layer F.Fab) (width 0.1))
  (fp_line (start -2 12.1) (end 40 12.1) (layer F.Fab) (width 0.1))
  (fp_line (start 40 12.1) (end 40 -0.6) (layer F.Fab) (width 0.1))
  (fp_line (start 40 -0.6) (end -2 -0.6) (layer F.Fab) (width 0.1))
  (fp_line (start -2.5 -1.1) (end -2.5 12.6) (layer F.CrtYd) (width 0.05))
  (fp_line (start -2.5 12.6) (end 40.5 12.6) (layer F.CrtYd) (width 0.05))
  (fp_line (start 40.5 12.6) (end 40.5 -1.1) (layer F.CrtYd) (width 0.05))
  (fp_line (start 40.5 -1.1) (end -2.5 -1.1) (layer F.CrtYd) (width 0.05))
  (fp_line (start -1 -0.71) (end -2.11 -0.71) (layer F.SilkS) (width 0.12))
  (fp_line (start -2.11 -0.71) (end -2.11 12.21) (layer F.SilkS) (width 0.12))
  (fp_line (start -2.11 12.21) (end 19 12.21) (layer F.SilkS) (width 0.12))
  (fp_line (start 39 -0.71) (end 40.11 -0.71) (layer F.SilkS) (width 0.12))
  (fp_line (start 40.11 -0.71) (end 40.11 12.21) (layer F.SilkS) (width 0.12))
  (fp_line (start 40.11 12.21) (end 19 12.21) (layer F.SilkS) (width 0.12))
  (fp_line (start 1 -0.76) (end 1 -1.01) (layer F.SilkS) (width 0.12))
  (fp_line (start 1 -1.01) (end -2.41 -1.01) (layer F.SilkS) (width 0.12))
  (fp_line (start -2.41 -1.01) (end -2.41 1.49) (layer F.SilkS) (width 0.12))
  (fp_line (start 0.5 -0.6) (end 0 0.107107) (layer F.Fab) (width 0.1))
  (fp_line (start 0 0.107107) (end -0.5 -0.6) (layer F.Fab) (width 0.1))
  (pad 1 thru_hole rect (at 0 0) (size 1.2 1.2) (drill 0.75) (layers *.Cu *.Mask))
  (pad 3 thru_hole oval (at 2 0) (size 1.2 1.2) (drill 0.75) (layers *.Cu *.Mask))
  (pad 5 thru_hole oval (at 4 0) (size 1.2 1.2) (drill 0.75) (layers *.Cu *.Mask))
  (pad 7 thru_hole oval (at 6 0) (size 1.2 1.2) (drill 0.75) (layers *.Cu *.Mask))
  (pad 9 thru_hole oval (at 8 0) (size 1.2 1.2) (drill 0.75) (layers *.Cu *.Mask))
  (pad 11 thru_hole oval (at 10 0) (size 1.2 1.2) (drill 0.75) (layers *.Cu *.Mask))
  (pad 13 thru_hole oval (at 12 0) (size 1.2 1.2) (drill 0.75) (layers *.Cu *.Mask))
  (pad 15 thru_hole oval (at 14 0) (size 1.2 1.2) (drill 0.75) (layers *.Cu *.Mask))
  (pad 17 thru_hole oval (at 16 0) (size 1.2 1.2) (drill 0.75) (layers *.Cu *.Mask))
  (pad 19 thru_hole oval (at 18 0) (size 1.2 1.2) (drill 0.75) (layers *.Cu *.Mask))
  (pad 21 thru_hole oval (at 20 0) (size 1.2 1.2) (drill 0.75) (layers *.Cu *.Mask))
  (pad 23 thru_hole oval (at 22 0) (size 1.2 1.2) (drill 0.75) (layers *.Cu *.Mask))
  (pad 25 thru_hole oval (at 24 0) (size 1.2 1.2) (drill 0.75) (layers *.Cu *.Mask))
  (pad 27 thru_hole oval (at 26 0) (size 1.2 1.2) (drill 0.75) (layers *.Cu *.Mask))
  (pad 29 thru_hole oval (at 28 0) (size 1.2 1.2) (drill 0.75) (layers *.Cu *.Mask))
  (pad 31 thru_hole oval (at 30 0) (size 1.2 1.2) (drill 0.75) (layers *.Cu *.Mask))
  (pad 33 thru_hole oval (at 32 0) (size 1.2 1.2) (drill 0.75) (layers *.Cu *.Mask))
  (pad 35 thru_hole oval (at 34 0) (size 1.2 1.2) (drill 0.75) (layers *.Cu *.Mask))
  (pad 37 thru_hole oval (at 36 0) (size 1.2 1.2) (drill 0.75) (layers *.Cu *.Mask))
  (pad 39 thru_hole oval (at 38 0) (size 1.2 1.2) (drill 0.75) (layers *.Cu *.Mask))
  (pad 2 thru_hole oval (at 0 2) (size 1.2 1.2) (drill 0.75) (layers *.Cu *.Mask))
  (pad 4 thru_hole oval (at 2 2) (size 1.2 1.2) (drill 0.75) (layers *.Cu *.Mask))
  (pad 6 thru_hole oval (at 4 2) (size 1.2 1.2) (drill 0.75) (layers *.Cu *.Mask))
  (pad 8 thru_hole oval (at 6 2) (size 1.2 1.2) (drill 0.75) (layers *.Cu *.Mask))
  (pad 10 thru_hole oval (at 8 2) (size 1.2 1.2) (drill 0.75) (layers *.Cu *.Mask))
  (pad 12 thru_hole oval (at 10 2) (size 1.2 1.2) (drill 0.75) (layers *.Cu *.Mask))
  (pad 14 thru_hole oval (at 12 2) (size 1.2 1.2) (drill 0.75) (layers *.Cu *.Mask))
  (pad 16 thru_hole oval (at 14 2) (size 1.2 1.2) (drill 0.75) (layers *.Cu *.Mask))
  (pad 18 thru_hole oval (at 16 2) (size 1.2 1.2) (drill 0.75) (layers *.Cu *.Mask))
  (pad 20 thru_hole oval (at 18 2) (size 1.2 1.2) (drill 0.75) (layers *.Cu *.Mask))
  (pad 22 thru_hole oval (at 20 2) (size 1.2 1.2) (drill 0.75) (layers *.Cu *.Mask))
  (pad 24 thru_hole oval (at 22 2) (size 1.2 1.2) (drill 0.75) (layers *.Cu *.Mask))
  (pad 26 thru_hole oval (at 24 2) (size 1.2 1.2) (drill 0.75) (layers *.Cu *.Mask))
  (pad 28 thru_hole oval (at 26 2) (size 1.2 1.2) (drill 0.75) (layers *.Cu *.Mask))
  (pad 30 thru_hole oval (at 28 2) (size 1.2 1.2) (drill 0.75) (layers *.Cu *.Mask))
  (pad 32 thru_hole oval (at 30 2) (size 1.2 1.2) (drill 0.75) (layers *.Cu *.Mask))
  (pad 34 thru_hole oval (at 32 2) (size 1.2 1.2) (drill 0.75) (layers *.Cu *.Mask))
  (pad 36 thru_hole oval (at 34 2) (size 1.2 1.2) (drill 0.75) (layers *.Cu *.Mask))
  (pad 38 thru_hole oval (at 36 2) (size 1.2 1.2) (drill 0.75) (layers *.Cu *.Mask))
  (pad 40 thru_hole oval (at 38 2) (size 1.2 1.2) (drill 0.75) (layers *.Cu *.Mask))
  (pad "" np_thru_hole circle (at -0.9 9.7) (size 1.65 1.65) (drill 1.65) (layers *.Cu *.Mask))
  (pad "" np_thru_hole circle (at 38.9 9.7) (size 1.65 1.65) (drill 1.65) (layers *.Cu *.Mask))
  (fp_text user %R (at 19 5.75) (layer F.Fab)
    (effects (font (size 1 1) (thickness 0.15)))
  )
  (model ${KIPRJMOD}/kicad_libs_k/models_k.3d/Connector_JST_k.3dshapes/JST_PUD_S40B-PUDSS-1_2x20_P2.00mm_Horizontal_k.wrl
    (at (xyz 0 0 0))
    (scale (xyz 1 1 1))
    (rotate (xyz 0 0 0))
  )
)