(module JST_EH_B09B-EH-A_1x09_P2.50mm_Vertical (layer F.Cu) (tedit 5A0EB040)
  (descr "JST EH series connector, B09B-EH-A (http://www.jst-mfg.com/product/pdf/eng/eEH.pdf), generated with kicad-footprint-generator")
  (tags "connector JST EH side entry")
  (fp_text reference REF** (at 10 -2.8) (layer F.SilkS)
    (effects (font (size 1 1) (thickness 0.15)))
  )
  (fp_text value JST_EH_B09B-EH-A_1x09_P2.50mm_Vertical (at 10 3.4) (layer F.Fab)
    (effects (font (size 1 1) (thickness 0.15)))
  )
  (fp_line (start -2.5 -1.6) (end -2.5 2.2) (layer F.Fab) (width 0.1))
  (fp_line (start -2.5 2.2) (end 22.5 2.2) (layer F.Fab) (width 0.1))
  (fp_line (start 22.5 2.2) (end 22.5 -1.6) (layer F.Fab) (width 0.1))
  (fp_line (start 22.5 -1.6) (end -2.5 -1.6) (layer F.Fab) (width 0.1))
  (fp_line (start -3 -2.1) (end -3 2.7) (layer F.CrtYd) (width 0.05))
  (fp_line (start -3 2.7) (end 23 2.7) (layer F.CrtYd) (width 0.05))
  (fp_line (start 23 2.7) (end 23 -2.1) (layer F.CrtYd) (width 0.05))
  (fp_line (start 23 -2.1) (end -3 -2.1) (layer F.CrtYd) (width 0.05))
  (fp_line (start -2.61 -1.71) (end -2.61 2.31) (layer F.SilkS) (width 0.12))
  (fp_line (start -2.61 2.31) (end 22.61 2.31) (layer F.SilkS) (width 0.12))
  (fp_line (start 22.61 2.31) (end 22.61 -1.71) (layer F.SilkS) (width 0.12))
  (fp_line (start 22.61 -1.71) (end -2.61 -1.71) (layer F.SilkS) (width 0.12))
  (fp_line (start -2.61 0) (end -2.11 0) (layer F.SilkS) (width 0.12))
  (fp_line (start -2.11 0) (end -2.11 -1.21) (layer F.SilkS) (width 0.12))
  (fp_line (start -2.11 -1.21) (end 22.11 -1.21) (layer F.SilkS) (width 0.12))
  (fp_line (start 22.11 -1.21) (end 22.11 0) (layer F.SilkS) (width 0.12))
  (fp_line (start 22.11 0) (end 22.61 0) (layer F.SilkS) (width 0.12))
  (fp_line (start -2.61 0.81) (end -1.61 0.81) (layer F.SilkS) (width 0.12))
  (fp_line (start -1.61 0.81) (end -1.61 2.31) (layer F.SilkS) (width 0.12))
  (fp_line (start 22.61 0.81) (end 21.61 0.81) (layer F.SilkS) (width 0.12))
  (fp_line (start 21.61 0.81) (end 21.61 2.31) (layer F.SilkS) (width 0.12))
  (fp_line (start -2.91 0.11) (end -2.91 2.61) (layer F.SilkS) (width 0.12))
  (fp_line (start -2.91 2.61) (end -0.41 2.61) (layer F.SilkS) (width 0.12))
  (fp_line (start -2.91 0.11) (end -2.91 2.61) (layer F.Fab) (width 0.1))
  (fp_line (start -2.91 2.61) (end -0.41 2.61) (layer F.Fab) (width 0.1))
  (pad 1 thru_hole rect (at 0 0) (size 1.7 1.95) (drill 0.95) (layers *.Cu *.Mask))
  (pad 2 thru_hole oval (at 2.5 0) (size 1.7 1.95) (drill 0.95) (layers *.Cu *.Mask))
  (pad 3 thru_hole oval (at 5 0) (size 1.7 1.95) (drill 0.95) (layers *.Cu *.Mask))
  (pad 4 thru_hole oval (at 7.5 0) (size 1.7 1.95) (drill 0.95) (layers *.Cu *.Mask))
  (pad 5 thru_hole oval (at 10 0) (size 1.7 1.95) (drill 0.95) (layers *.Cu *.Mask))
  (pad 6 thru_hole oval (at 12.5 0) (size 1.7 1.95) (drill 0.95) (layers *.Cu *.Mask))
  (pad 7 thru_hole oval (at 15 0) (size 1.7 1.95) (drill 0.95) (layers *.Cu *.Mask))
  (pad 8 thru_hole oval (at 17.5 0) (size 1.7 1.95) (drill 0.95) (layers *.Cu *.Mask))
  (pad 9 thru_hole oval (at 20 0) (size 1.7 1.95) (drill 0.95) (layers *.Cu *.Mask))
  (fp_text user %R (at 10 1.5) (layer F.Fab)
    (effects (font (size 1 1) (thickness 0.15)))
  )
  (model ${KIPRJMOD}/kicad_libs_k/models_k.3d/Connector_JST_k.3dshapes/JST_EH_B09B-EH-A_1x09_P2.50mm_Vertical_k.wrl
    (at (xyz 0 0 0))
    (scale (xyz 1 1 1))
    (rotate (xyz 0 0 0))
  )
)