(module JST_SH_BM15B-SRSS-TB_1x15-1MP_P1.00mm_Vertical (layer F.Cu) (tedit 5AA47E63)
  (descr "JST SH series connector, BM15B-SRSS-TB (http://www.jst-mfg.com/product/pdf/eng/eSH.pdf), generated with kicad-footprint-generator")
  (tags "connector JST SH side entry")
  (attr smd)
  (fp_text reference REF** (at 0 -3.3) (layer F.SilkS)
    (effects (font (size 1 1) (thickness 0.15)))
  )
  (fp_text value JST_SH_BM15B-SRSS-TB_1x15-1MP_P1.00mm_Vertical (at 0 3.3) (layer F.Fab)
    (effects (font (size 1 1) (thickness 0.15)))
  )
  (fp_line (start -8.5 1) (end 8.5 1) (layer F.Fab) (width 0.1))
  (fp_line (start -8.61 -0.04) (end -8.61 1.11) (layer F.SilkS) (width 0.12))
  (fp_line (start -8.61 1.11) (end -7.56 1.11) (layer F.SilkS) (width 0.12))
  (fp_line (start -7.56 1.11) (end -7.56 2.1) (layer F.SilkS) (width 0.12))
  (fp_line (start 8.61 -0.04) (end 8.61 1.11) (layer F.SilkS) (width 0.12))
  (fp_line (start 8.61 1.11) (end 7.56 1.11) (layer F.SilkS) (width 0.12))
  (fp_line (start -7.44 -2.01) (end 7.44 -2.01) (layer F.SilkS) (width 0.12))
  (fp_line (start -8.5 -1.9) (end 8.5 -1.9) (layer F.Fab) (width 0.1))
  (fp_line (start -8.5 1) (end -8.5 -1.9) (layer F.Fab) (width 0.1))
  (fp_line (start 8.5 1) (end 8.5 -1.9) (layer F.Fab) (width 0.1))
  (fp_line (start -7.15 -1.55) (end -7.15 -0.95) (layer F.Fab) (width 0.1))
  (fp_line (start -7.15 -0.95) (end -6.85 -0.95) (layer F.Fab) (width 0.1))
  (fp_line (start -6.85 -0.95) (end -6.85 -1.55) (layer F.Fab) (width 0.1))
  (fp_line (start -6.85 -1.55) (end -7.15 -1.55) (layer F.Fab) (width 0.1))
  (fp_line (start -6.15 -1.55) (end -6.15 -0.95) (layer F.Fab) (width 0.1))
  (fp_line (start -6.15 -0.95) (end -5.85 -0.95) (layer F.Fab) (width 0.1))
  (fp_line (start -5.85 -0.95) (end -5.85 -1.55) (layer F.Fab) (width 0.1))
  (fp_line (start -5.85 -1.55) (end -6.15 -1.55) (layer F.Fab) (width 0.1))
  (fp_line (start -5.15 -1.55) (end -5.15 -0.95) (layer F.Fab) (width 0.1))
  (fp_line (start -5.15 -0.95) (end -4.85 -0.95) (layer F.Fab) (width 0.1))
  (fp_line (start -4.85 -0.95) (end -4.85 -1.55) (layer F.Fab) (width 0.1))
  (fp_line (start -4.85 -1.55) (end -5.15 -1.55) (layer F.Fab) (width 0.1))
  (fp_line (start -4.15 -1.55) (end -4.15 -0.95) (layer F.Fab) (width 0.1))
  (fp_line (start -4.15 -0.95) (end -3.85 -0.95) (layer F.Fab) (width 0.1))
  (fp_line (start -3.85 -0.95) (end -3.85 -1.55) (layer F.Fab) (width 0.1))
  (fp_line (start -3.85 -1.55) (end -4.15 -1.55) (layer F.Fab) (width 0.1))
  (fp_line (start -3.15 -1.55) (end -3.15 -0.95) (layer F.Fab) (width 0.1))
  (fp_line (start -3.15 -0.95) (end -2.85 -0.95) (layer F.Fab) (width 0.1))
  (fp_line (start -2.85 -0.95) (end -2.85 -1.55) (layer F.Fab) (width 0.1))
  (fp_line (start -2.85 -1.55) (end -3.15 -1.55) (layer F.Fab) (width 0.1))
  (fp_line (start -2.15 -1.55) (end -2.15 -0.95) (layer F.Fab) (width 0.1))
  (fp_line (start -2.15 -0.95) (end -1.85 -0.95) (layer F.Fab) (width 0.1))
  (fp_line (start -1.85 -0.95) (end -1.85 -1.55) (layer F.Fab) (width 0.1))
  (fp_line (start -1.85 -1.55) (end -2.15 -1.55) (layer F.Fab) (width 0.1))
  (fp_line (start -1.15 -1.55) (end -1.15 -0.95) (layer F.Fab) (width 0.1))
  (fp_line (start -1.15 -0.95) (end -0.85 -0.95) (layer F.Fab) (width 0.1))
  (fp_line (start -0.85 -0.95) (end -0.85 -1.55) (layer F.Fab) (width 0.1))
  (fp_line (start -0.85 -1.55) (end -1.15 -1.55) (layer F.Fab) (width 0.1))
  (fp_line (start -0.15 -1.55) (end -0.15 -0.95) (layer F.Fab) (width 0.1))
  (fp_line (start -0.15 -0.95) (end 0.15 -0.95) (layer F.Fab) (width 0.1))
  (fp_line (start 0.15 -0.95) (end 0.15 -1.55) (layer F.Fab) (width 0.1))
  (fp_line (start 0.15 -1.55) (end -0.15 -1.55) (layer F.Fab) (width 0.1))
  (fp_line (start 0.85 -1.55) (end 0.85 -0.95) (layer F.Fab) (width 0.1))
  (fp_line (start 0.85 -0.95) (end 1.15 -0.95) (layer F.Fab) (width 0.1))
  (fp_line (start 1.15 -0.95) (end 1.15 -1.55) (layer F.Fab) (width 0.1))
  (fp_line (start 1.15 -1.55) (end 0.85 -1.55) (layer F.Fab) (width 0.1))
  (fp_line (start 1.85 -1.55) (end 1.85 -0.95) (layer F.Fab) (width 0.1))
  (fp_line (start 1.85 -0.95) (end 2.15 -0.95) (layer F.Fab) (width 0.1))
  (fp_line (start 2.15 -0.95) (end 2.15 -1.55) (layer F.Fab) (width 0.1))
  (fp_line (start 2.15 -1.55) (end 1.85 -1.55) (layer F.Fab) (width 0.1))
  (fp_line (start 2.85 -1.55) (end 2.85 -0.95) (layer F.Fab) (width 0.1))
  (fp_line (start 2.85 -0.95) (end 3.15 -0.95) (layer F.Fab) (width 0.1))
  (fp_line (start 3.15 -0.95) (end 3.15 -1.55) (layer F.Fab) (width 0.1))
  (fp_line (start 3.15 -1.55) (end 2.85 -1.55) (layer F.Fab) (width 0.1))
  (fp_line (start 3.85 -1.55) (end 3.85 -0.95) (layer F.Fab) (width 0.1))
  (fp_line (start 3.85 -0.95) (end 4.15 -0.95) (layer F.Fab) (width 0.1))
  (fp_line (start 4.15 -0.95) (end 4.15 -1.55) (layer F.Fab) (width 0.1))
  (fp_line (start 4.15 -1.55) (end 3.85 -1.55) (layer F.Fab) (width 0.1))
  (fp_line (start 4.85 -1.55) (end 4.85 -0.95) (layer F.Fab) (width 0.1))
  (fp_line (start 4.85 -0.95) (end 5.15 -0.95) (layer F.Fab) (width 0.1))
  (fp_line (start 5.15 -0.95) (end 5.15 -1.55) (layer F.Fab) (width 0.1))
  (fp_line (start 5.15 -1.55) (end 4.85 -1.55) (layer F.Fab) (width 0.1))
  (fp_line (start 5.85 -1.55) (end 5.85 -0.95) (layer F.Fab) (width 0.1))
  (fp_line (start 5.85 -0.95) (end 6.15 -0.95) (layer F.Fab) (width 0.1))
  (fp_line (start 6.15 -0.95) (end 6.15 -1.55) (layer F.Fab) (width 0.1))
  (fp_line (start 6.15 -1.55) (end 5.85 -1.55) (layer F.Fab) (width 0.1))
  (fp_line (start 6.85 -1.55) (end 6.85 -0.95) (layer F.Fab) (width 0.1))
  (fp_line (start 6.85 -0.95) (end 7.15 -0.95) (layer F.Fab) (width 0.1))
  (fp_line (start 7.15 -0.95) (end 7.15 -1.55) (layer F.Fab) (width 0.1))
  (fp_line (start 7.15 -1.55) (end 6.85 -1.55) (layer F.Fab) (width 0.1))
  (fp_line (start -9.4 -2.6) (end -9.4 2.6) (layer F.CrtYd) (width 0.05))
  (fp_line (start -9.4 2.6) (end 9.4 2.6) (layer F.CrtYd) (width 0.05))
  (fp_line (start 9.4 2.6) (end 9.4 -2.6) (layer F.CrtYd) (width 0.05))
  (fp_line (start 9.4 -2.6) (end -9.4 -2.6) (layer F.CrtYd) (width 0.05))
  (fp_line (start -7.5 1) (end -7 0.292893) (layer F.Fab) (width 0.1))
  (fp_line (start -7 0.292893) (end -6.5 1) (layer F.Fab) (width 0.1))
  (pad 1 smd rect (at -7 1.325) (size 0.6 1.55) (layers F.Cu F.Mask F.Paste))
  (pad 2 smd rect (at -6 1.325) (size 0.6 1.55) (layers F.Cu F.Mask F.Paste))
  (pad 3 smd rect (at -5 1.325) (size 0.6 1.55) (layers F.Cu F.Mask F.Paste))
  (pad 4 smd rect (at -4 1.325) (size 0.6 1.55) (layers F.Cu F.Mask F.Paste))
  (pad 5 smd rect (at -3 1.325) (size 0.6 1.55) (layers F.Cu F.Mask F.Paste))
  (pad 6 smd rect (at -2 1.325) (size 0.6 1.55) (layers F.Cu F.Mask F.Paste))
  (pad 7 smd rect (at -1 1.325) (size 0.6 1.55) (layers F.Cu F.Mask F.Paste))
  (pad 8 smd rect (at 0 1.325) (size 0.6 1.55) (layers F.Cu F.Mask F.Paste))
  (pad 9 smd rect (at 1 1.325) (size 0.6 1.55) (layers F.Cu F.Mask F.Paste))
  (pad 10 smd rect (at 2 1.325) (size 0.6 1.55) (layers F.Cu F.Mask F.Paste))
  (pad 11 smd rect (at 3 1.325) (size 0.6 1.55) (layers F.Cu F.Mask F.Paste))
  (pad 12 smd rect (at 4 1.325) (size 0.6 1.55) (layers F.Cu F.Mask F.Paste))
  (pad 13 smd rect (at 5 1.325) (size 0.6 1.55) (layers F.Cu F.Mask F.Paste))
  (pad 14 smd rect (at 6 1.325) (size 0.6 1.55) (layers F.Cu F.Mask F.Paste))
  (pad 15 smd rect (at 7 1.325) (size 0.6 1.55) (layers F.Cu F.Mask F.Paste))
  (pad MP smd rect (at -8.3 -1.2) (size 1.2 1.8) (layers F.Cu F.Mask F.Paste))
  (pad MP smd rect (at 8.3 -1.2) (size 1.2 1.8) (layers F.Cu F.Mask F.Paste))
  (fp_text user %R (at 0 -0.25) (layer F.Fab)
    (effects (font (size 1 1) (thickness 0.15)))
  )
  (model ${KIPRJMOD}/kicad_libs_k/models_k.3d/Connector_JST_k.3dshapes/JST_SH_BM15B-SRSS-TB_1x15-1MP_P1.00mm_Vertical_k.wrl
    (at (xyz 0 0 0))
    (scale (xyz 1 1 1))
    (rotate (xyz 0 0 0))
  )
)