(module JST_ZE_BM07B-ZESS-TB_1x07-1MP_P1.50mm_Vertical (layer F.Cu) (tedit 5AA47E63)
  (descr "JST ZE series connector, BM07B-ZESS-TB (http://www.jst-mfg.com/product/pdf/eng/eZE.pdf), generated with kicad-footprint-generator")
  (tags "connector JST ZE side entry")
  (attr smd)
  (fp_text reference REF** (at 0 -5.15) (layer F.SilkS)
    (effects (font (size 1 1) (thickness 0.15)))
  )
  (fp_text value JST_ZE_BM07B-ZESS-TB_1x07-1MP_P1.50mm_Vertical (at 0 5.15) (layer F.Fab)
    (effects (font (size 1 1) (thickness 0.15)))
  )
  (fp_line (start -7.5 2.25) (end 7.5 2.25) (layer F.Fab) (width 0.1))
  (fp_line (start -7.61 -0.39) (end -7.61 2.36) (layer F.SilkS) (width 0.12))
  (fp_line (start -7.61 2.36) (end -5.16 2.36) (layer F.SilkS) (width 0.12))
  (fp_line (start -5.16 2.36) (end -5.16 3.95) (layer F.SilkS) (width 0.12))
  (fp_line (start 7.61 -0.39) (end 7.61 2.36) (layer F.SilkS) (width 0.12))
  (fp_line (start 7.61 2.36) (end 5.16 2.36) (layer F.SilkS) (width 0.12))
  (fp_line (start -5.94 -3.66) (end 5.94 -3.66) (layer F.SilkS) (width 0.12))
  (fp_line (start -7.5 -3.55) (end 7.5 -3.55) (layer F.Fab) (width 0.1))
  (fp_line (start -7.5 2.25) (end -7.5 -3.55) (layer F.Fab) (width 0.1))
  (fp_line (start 7.5 2.25) (end 7.5 -3.55) (layer F.Fab) (width 0.1))
  (fp_line (start -4.75 -0.5) (end -4.75 0) (layer F.Fab) (width 0.1))
  (fp_line (start -4.75 0) (end -4.25 0) (layer F.Fab) (width 0.1))
  (fp_line (start -4.25 0) (end -4.25 -0.5) (layer F.Fab) (width 0.1))
  (fp_line (start -4.25 -0.5) (end -4.75 -0.5) (layer F.Fab) (width 0.1))
  (fp_line (start -3.25 -0.5) (end -3.25 0) (layer F.Fab) (width 0.1))
  (fp_line (start -3.25 0) (end -2.75 0) (layer F.Fab) (width 0.1))
  (fp_line (start -2.75 0) (end -2.75 -0.5) (layer F.Fab) (width 0.1))
  (fp_line (start -2.75 -0.5) (end -3.25 -0.5) (layer F.Fab) (width 0.1))
  (fp_line (start -1.75 -0.5) (end -1.75 0) (layer F.Fab) (width 0.1))
  (fp_line (start -1.75 0) (end -1.25 0) (layer F.Fab) (width 0.1))
  (fp_line (start -1.25 0) (end -1.25 -0.5) (layer F.Fab) (width 0.1))
  (fp_line (start -1.25 -0.5) (end -1.75 -0.5) (layer F.Fab) (width 0.1))
  (fp_line (start -0.25 -0.5) (end -0.25 0) (layer F.Fab) (width 0.1))
  (fp_line (start -0.25 0) (end 0.25 0) (layer F.Fab) (width 0.1))
  (fp_line (start 0.25 0) (end 0.25 -0.5) (layer F.Fab) (width 0.1))
  (fp_line (start 0.25 -0.5) (end -0.25 -0.5) (layer F.Fab) (width 0.1))
  (fp_line (start 1.25 -0.5) (end 1.25 0) (layer F.Fab) (width 0.1))
  (fp_line (start 1.25 0) (end 1.75 0) (layer F.Fab) (width 0.1))
  (fp_line (start 1.75 0) (end 1.75 -0.5) (layer F.Fab) (width 0.1))
  (fp_line (start 1.75 -0.5) (end 1.25 -0.5) (layer F.Fab) (width 0.1))
  (fp_line (start 2.75 -0.5) (end 2.75 0) (layer F.Fab) (width 0.1))
  (fp_line (start 2.75 0) (end 3.25 0) (layer F.Fab) (width 0.1))
  (fp_line (start 3.25 0) (end 3.25 -0.5) (layer F.Fab) (width 0.1))
  (fp_line (start 3.25 -0.5) (end 2.75 -0.5) (layer F.Fab) (width 0.1))
  (fp_line (start 4.25 -0.5) (end 4.25 0) (layer F.Fab) (width 0.1))
  (fp_line (start 4.25 0) (end 4.75 0) (layer F.Fab) (width 0.1))
  (fp_line (start 4.75 0) (end 4.75 -0.5) (layer F.Fab) (width 0.1))
  (fp_line (start 4.75 -0.5) (end 4.25 -0.5) (layer F.Fab) (width 0.1))
  (fp_line (start -8.5 -4.45) (end -8.5 4.45) (layer F.CrtYd) (width 0.05))
  (fp_line (start -8.5 4.45) (end 8.5 4.45) (layer F.CrtYd) (width 0.05))
  (fp_line (start 8.5 4.45) (end 8.5 -4.45) (layer F.CrtYd) (width 0.05))
  (fp_line (start 8.5 -4.45) (end -8.5 -4.45) (layer F.CrtYd) (width 0.05))
  (fp_line (start -5 2.25) (end -4.5 1.542893) (layer F.Fab) (width 0.1))
  (fp_line (start -4.5 1.542893) (end -4 2.25) (layer F.Fab) (width 0.1))
  (pad 1 smd rect (at -4.5 2.75) (size 0.8 2.4) (layers F.Cu F.Mask F.Paste))
  (pad 2 smd rect (at -3 2.75) (size 0.8 2.4) (layers F.Cu F.Mask F.Paste))
  (pad 3 smd rect (at -1.5 2.75) (size 0.8 2.4) (layers F.Cu F.Mask F.Paste))
  (pad 4 smd rect (at 0 2.75) (size 0.8 2.4) (layers F.Cu F.Mask F.Paste))
  (pad 5 smd rect (at 1.5 2.75) (size 0.8 2.4) (layers F.Cu F.Mask F.Paste))
  (pad 6 smd rect (at 3 2.75) (size 0.8 2.4) (layers F.Cu F.Mask F.Paste))
  (pad 7 smd rect (at 4.5 2.75) (size 0.8 2.4) (layers F.Cu F.Mask F.Paste))
  (pad MP smd rect (at -7.1 -2.3) (size 1.8 3.3) (layers F.Cu F.Mask F.Paste))
  (pad MP smd rect (at 7.1 -2.3) (size 1.8 3.3) (layers F.Cu F.Mask F.Paste))
  (fp_text user %R (at 0 -1.5) (layer F.Fab)
    (effects (font (size 1 1) (thickness 0.15)))
  )
  (model ${KIPRJMOD}/kicad_libs_k/models_k.3d/Connector_JST_k.3dshapes/JST_ZE_BM07B-ZESS-TB_1x07-1MP_P1.50mm_Vertical_k.wrl
    (at (xyz 0 0 0))
    (scale (xyz 1 1 1))
    (rotate (xyz 0 0 0))
  )
)