(module JST_PUD_S14B-PUDSS-1_2x07_P2.00mm_Horizontal (layer F.Cu) (tedit 5A0EE4AC)
  (descr "JST PUD series connector, S14B-PUDSS-1 (http://www.jst-mfg.com/product/pdf/eng/ePUD.pdf), generated with kicad-footprint-generator")
  (tags "connector JST PUD top entry")
  (fp_text reference REF** (at 6 -1.8) (layer F.SilkS)
    (effects (font (size 1 1) (thickness 0.15)))
  )
  (fp_text value JST_PUD_S14B-PUDSS-1_2x07_P2.00mm_Horizontal (at 6 13.3) (layer F.Fab)
    (effects (font (size 1 1) (thickness 0.15)))
  )
  (fp_line (start -2 -0.6) (end -2 12.1) (layer F.Fab) (width 0.1))
  (fp_line (start -2 12.1) (end 14 12.1) (layer F.Fab) (width 0.1))
  (fp_line (start 14 12.1) (end 14 -0.6) (layer F.Fab) (width 0.1))
  (fp_line (start 14 -0.6) (end -2 -0.6) (layer F.Fab) (width 0.1))
  (fp_line (start -2.5 -1.1) (end -2.5 12.6) (layer F.CrtYd) (width 0.05))
  (fp_line (start -2.5 12.6) (end 14.5 12.6) (layer F.CrtYd) (width 0.05))
  (fp_line (start 14.5 12.6) (end 14.5 -1.1) (layer F.CrtYd) (width 0.05))
  (fp_line (start 14.5 -1.1) (end -2.5 -1.1) (layer F.CrtYd) (width 0.05))
  (fp_line (start -1 -0.71) (end -2.11 -0.71) (layer F.SilkS) (width 0.12))
  (fp_line (start -2.11 -0.71) (end -2.11 12.21) (layer F.SilkS) (width 0.12))
  (fp_line (start -2.11 12.21) (end 6 12.21) (layer F.SilkS) (width 0.12))
  (fp_line (start 13 -0.71) (end 14.11 -0.71) (layer F.SilkS) (width 0.12))
  (fp_line (start 14.11 -0.71) (end 14.11 12.21) (layer F.SilkS) (width 0.12))
  (fp_line (start 14.11 12.21) (end 6 12.21) (layer F.SilkS) (width 0.12))
  (fp_line (start 1 -0.76) (end 1 -1.01) (layer F.SilkS) (width 0.12))
  (fp_line (start 1 -1.01) (end -2.41 -1.01) (layer F.SilkS) (width 0.12))
  (fp_line (start -2.41 -1.01) (end -2.41 1.49) (layer F.SilkS) (width 0.12))
  (fp_line (start 0.5 -0.6) (end 0 0.107107) (layer F.Fab) (width 0.1))
  (fp_line (start 0 0.107107) (end -0.5 -0.6) (layer F.Fab) (width 0.1))
  (pad 1 thru_hole rect (at 0 0) (size 1.2 1.2) (drill 0.75) (layers *.Cu *.Mask))
  (pad 3 thru_hole oval (at 2 0) (size 1.2 1.2) (drill 0.75) (layers *.Cu *.Mask))
  (pad 5 thru_hole oval (at 4 0) (size 1.2 1.2) (drill 0.75) (layers *.Cu *.Mask))
  (pad 7 thru_hole oval (at 6 0) (size 1.2 1.2) (drill 0.75) (layers *.Cu *.Mask))
  (pad 9 thru_hole oval (at 8 0) (size 1.2 1.2) (drill 0.75) (layers *.Cu *.Mask))
  (pad 11 thru_hole oval (at 10 0) (size 1.2 1.2) (drill 0.75) (layers *.Cu *.Mask))
  (pad 13 thru_hole oval (at 12 0) (size 1.2 1.2) (drill 0.75) (layers *.Cu *.Mask))
  (pad 2 thru_hole oval (at 0 2) (size 1.2 1.2) (drill 0.75) (layers *.Cu *.Mask))
  (pad 4 thru_hole oval (at 2 2) (size 1.2 1.2) (drill 0.75) (layers *.Cu *.Mask))
  (pad 6 thru_hole oval (at 4 2) (size 1.2 1.2) (drill 0.75) (layers *.Cu *.Mask))
  (pad 8 thru_hole oval (at 6 2) (size 1.2 1.2) (drill 0.75) (layers *.Cu *.Mask))
  (pad 10 thru_hole oval (at 8 2) (size 1.2 1.2) (drill 0.75) (layers *.Cu *.Mask))
  (pad 12 thru_hole oval (at 10 2) (size 1.2 1.2) (drill 0.75) (layers *.Cu *.Mask))
  (pad 14 thru_hole oval (at 12 2) (size 1.2 1.2) (drill 0.75) (layers *.Cu *.Mask))
  (pad "" np_thru_hole circle (at -0.9 9.7) (size 1.65 1.65) (drill 1.65) (layers *.Cu *.Mask))
  (pad "" np_thru_hole circle (at 12.9 9.7) (size 1.65 1.65) (drill 1.65) (layers *.Cu *.Mask))
  (fp_text user %R (at 6 5.75) (layer F.Fab)
    (effects (font (size 1 1) (thickness 0.15)))
  )
  (model ${KIPRJMOD}/kicad_libs_k/models_k.3d/Connector_JST_k.3dshapes/JST_PUD_S14B-PUDSS-1_2x07_P2.00mm_Horizontal_k.wrl
    (at (xyz 0 0 0))
    (scale (xyz 1 1 1))
    (rotate (xyz 0 0 0))
  )
)