(module JST_SH_BM02B-SRSS-TB_1x02-1MP_P1.00mm_Vertical (layer F.Cu) (tedit 5AA47E63)
  (descr "JST SH series connector, BM02B-SRSS-TB (http://www.jst-mfg.com/product/pdf/eng/eSH.pdf), generated with kicad-footprint-generator")
  (tags "connector JST SH side entry")
  (attr smd)
  (fp_text reference REF** (at 0 -3.3) (layer F.SilkS)
    (effects (font (size 1 1) (thickness 0.15)))
  )
  (fp_text value JST_SH_BM02B-SRSS-TB_1x02-1MP_P1.00mm_Vertical (at 0 3.3) (layer F.Fab)
    (effects (font (size 1 1) (thickness 0.15)))
  )
  (fp_line (start -2 1) (end 2 1) (layer F.Fab) (width 0.1))
  (fp_line (start -2.11 -0.04) (end -2.11 1.11) (layer F.SilkS) (width 0.12))
  (fp_line (start -2.11 1.11) (end -1.06 1.11) (layer F.SilkS) (width 0.12))
  (fp_line (start -1.06 1.11) (end -1.06 2.1) (layer F.SilkS) (width 0.12))
  (fp_line (start 2.11 -0.04) (end 2.11 1.11) (layer F.SilkS) (width 0.12))
  (fp_line (start 2.11 1.11) (end 1.06 1.11) (layer F.SilkS) (width 0.12))
  (fp_line (start -0.94 -2.01) (end 0.94 -2.01) (layer F.SilkS) (width 0.12))
  (fp_line (start -2 -1.9) (end 2 -1.9) (layer F.Fab) (width 0.1))
  (fp_line (start -2 1) (end -2 -1.9) (layer F.Fab) (width 0.1))
  (fp_line (start 2 1) (end 2 -1.9) (layer F.Fab) (width 0.1))
  (fp_line (start -0.65 -1.55) (end -0.65 -0.95) (layer F.Fab) (width 0.1))
  (fp_line (start -0.65 -0.95) (end -0.35 -0.95) (layer F.Fab) (width 0.1))
  (fp_line (start -0.35 -0.95) (end -0.35 -1.55) (layer F.Fab) (width 0.1))
  (fp_line (start -0.35 -1.55) (end -0.65 -1.55) (layer F.Fab) (width 0.1))
  (fp_line (start 0.35 -1.55) (end 0.35 -0.95) (layer F.Fab) (width 0.1))
  (fp_line (start 0.35 -0.95) (end 0.65 -0.95) (layer F.Fab) (width 0.1))
  (fp_line (start 0.65 -0.95) (end 0.65 -1.55) (layer F.Fab) (width 0.1))
  (fp_line (start 0.65 -1.55) (end 0.35 -1.55) (layer F.Fab) (width 0.1))
  (fp_line (start -2.9 -2.6) (end -2.9 2.6) (layer F.CrtYd) (width 0.05))
  (fp_line (start -2.9 2.6) (end 2.9 2.6) (layer F.CrtYd) (width 0.05))
  (fp_line (start 2.9 2.6) (end 2.9 -2.6) (layer F.CrtYd) (width 0.05))
  (fp_line (start 2.9 -2.6) (end -2.9 -2.6) (layer F.CrtYd) (width 0.05))
  (fp_line (start -1 1) (end -0.5 0.292893) (layer F.Fab) (width 0.1))
  (fp_line (start -0.5 0.292893) (end 0 1) (layer F.Fab) (width 0.1))
  (pad 1 smd rect (at -0.5 1.325) (size 0.6 1.55) (layers F.Cu F.Mask F.Paste))
  (pad 2 smd rect (at 0.5 1.325) (size 0.6 1.55) (layers F.Cu F.Mask F.Paste))
  (pad MP smd rect (at -1.8 -1.2) (size 1.2 1.8) (layers F.Cu F.Mask F.Paste))
  (pad MP smd rect (at 1.8 -1.2) (size 1.2 1.8) (layers F.Cu F.Mask F.Paste))
  (fp_text user %R (at 0 -0.25) (layer F.Fab)
    (effects (font (size 1 1) (thickness 0.15)))
  )
  (model ${KIPRJMOD}/kicad_libs_k/models_k.3d/Connector_JST_k.3dshapes/JST_SH_BM02B-SRSS-TB_1x02-1MP_P1.00mm_Vertical_k.wrl
    (at (xyz 0 0 0))
    (scale (xyz 1 1 1))
    (rotate (xyz 0 0 0))
  )
)