(module JST_J2100_S20B-J21DK-GG_2x10_P2.50mm_Horizontal (layer F.Cu) (tedit 5A0EC18F)
  (descr "JST J2100 series connector, S20B-J21DK-GG (http://www.jst-mfg.com/product/pdf/eng/eJFA-J2000.pdf), generated with kicad-footprint-generator")
  (tags "connector JST J2100 top entry")
  (fp_text reference REF** (at 11.25 -4.55) (layer F.SilkS)
    (effects (font (size 1 1) (thickness 0.15)))
  )
  (fp_text value JST_J2100_S20B-J21DK-GG_2x10_P2.50mm_Horizontal (at 11.25 15.88) (layer F.Fab)
    (effects (font (size 1 1) (thickness 0.15)))
  )
  (fp_line (start -2.6 -3.12) (end -2.6 14.68) (layer F.Fab) (width 0.1))
  (fp_line (start -2.6 14.68) (end 25.1 14.68) (layer F.Fab) (width 0.1))
  (fp_line (start 25.1 14.68) (end 25.1 -3.12) (layer F.Fab) (width 0.1))
  (fp_line (start 25.1 -3.12) (end -2.6 -3.12) (layer F.Fab) (width 0.1))
  (fp_line (start -3.1 -3.85) (end -3.1 15.18) (layer F.CrtYd) (width 0.05))
  (fp_line (start -3.1 15.18) (end 25.6 15.18) (layer F.CrtYd) (width 0.05))
  (fp_line (start 25.6 15.18) (end 25.6 -3.85) (layer F.CrtYd) (width 0.05))
  (fp_line (start 25.6 -3.85) (end -3.1 -3.85) (layer F.CrtYd) (width 0.05))
  (fp_line (start -1 -3.23) (end -2.71 -3.23) (layer F.SilkS) (width 0.12))
  (fp_line (start -2.71 -3.23) (end -2.71 14.79) (layer F.SilkS) (width 0.12))
  (fp_line (start -2.71 14.79) (end 11.25 14.79) (layer F.SilkS) (width 0.12))
  (fp_line (start 23.5 -3.23) (end 25.21 -3.23) (layer F.SilkS) (width 0.12))
  (fp_line (start 25.21 -3.23) (end 25.21 14.79) (layer F.SilkS) (width 0.12))
  (fp_line (start 25.21 14.79) (end 11.25 14.79) (layer F.SilkS) (width 0.12))
  (fp_line (start -3 0) (end -3.6 0.3) (layer F.SilkS) (width 0.12))
  (fp_line (start -3.6 0.3) (end -3.6 -0.3) (layer F.SilkS) (width 0.12))
  (fp_line (start -3.6 -0.3) (end -3 0) (layer F.SilkS) (width 0.12))
  (fp_line (start -2.6 0.5) (end -1.892893 0) (layer F.Fab) (width 0.1))
  (fp_line (start -1.892893 0) (end -2.6 -0.5) (layer F.Fab) (width 0.1))
  (pad a1 thru_hole rect (at 0 0) (size 1.7 1.7) (drill 0.86) (layers *.Cu *.Mask))
  (pad a2 thru_hole circle (at 2.5 0) (size 1.7 1.7) (drill 0.86) (layers *.Cu *.Mask))
  (pad a3 thru_hole circle (at 5 0) (size 1.7 1.7) (drill 0.86) (layers *.Cu *.Mask))
  (pad a4 thru_hole circle (at 7.5 0) (size 1.7 1.7) (drill 0.86) (layers *.Cu *.Mask))
  (pad a5 thru_hole circle (at 10 0) (size 1.7 1.7) (drill 0.86) (layers *.Cu *.Mask))
  (pad a6 thru_hole circle (at 12.5 0) (size 1.7 1.7) (drill 0.86) (layers *.Cu *.Mask))
  (pad a7 thru_hole circle (at 15 0) (size 1.7 1.7) (drill 0.86) (layers *.Cu *.Mask))
  (pad a8 thru_hole circle (at 17.5 0) (size 1.7 1.7) (drill 0.86) (layers *.Cu *.Mask))
  (pad a9 thru_hole circle (at 20 0) (size 1.7 1.7) (drill 0.86) (layers *.Cu *.Mask))
  (pad a10 thru_hole circle (at 22.5 0) (size 1.7 1.7) (drill 0.86) (layers *.Cu *.Mask))
  (pad b1 thru_hole circle (at 0 -2.5) (size 1.7 1.7) (drill 0.86) (layers *.Cu *.Mask))
  (pad b2 thru_hole circle (at 2.5 -2.5) (size 1.7 1.7) (drill 0.86) (layers *.Cu *.Mask))
  (pad b3 thru_hole circle (at 5 -2.5) (size 1.7 1.7) (drill 0.86) (layers *.Cu *.Mask))
  (pad b4 thru_hole circle (at 7.5 -2.5) (size 1.7 1.7) (drill 0.86) (layers *.Cu *.Mask))
  (pad b5 thru_hole circle (at 10 -2.5) (size 1.7 1.7) (drill 0.86) (layers *.Cu *.Mask))
  (pad b6 thru_hole circle (at 12.5 -2.5) (size 1.7 1.7) (drill 0.86) (layers *.Cu *.Mask))
  (pad b7 thru_hole circle (at 15 -2.5) (size 1.7 1.7) (drill 0.86) (layers *.Cu *.Mask))
  (pad b8 thru_hole circle (at 17.5 -2.5) (size 1.7 1.7) (drill 0.86) (layers *.Cu *.Mask))
  (pad b9 thru_hole circle (at 20 -2.5) (size 1.7 1.7) (drill 0.86) (layers *.Cu *.Mask))
  (pad b10 thru_hole circle (at 22.5 -2.5) (size 1.7 1.7) (drill 0.86) (layers *.Cu *.Mask))
  (pad "" thru_hole circle (at 0 7) (size 3.4 3.4) (drill 2) (layers *.Cu *.Mask))
  (pad "" thru_hole circle (at 22.5 7) (size 3.4 3.4) (drill 2) (layers *.Cu *.Mask))
  (fp_text user %R (at 11.25 5.78) (layer F.Fab)
    (effects (font (size 1 1) (thickness 0.15)))
  )
  (model ${KIPRJMOD}/kicad_libs_k/models_k.3d/Connector_JST_k.3dshapes/JST_J2100_S20B-J21DK-GG_2x10_P2.50mm_Horizontal_k.wrl
    (at (xyz 0 0 0))
    (scale (xyz 1 1 1))
    (rotate (xyz 0 0 0))
  )
)