(module JST_SHL_SM05B-SHLS-TF_1x05-1MP_P1.00mm_Horizontal (layer F.Cu) (tedit 5AA47E63)
  (descr "JST SHL series connector, SM05B-SHLS-TF (http://www.jst-mfg.com/product/pdf/eng/eSHL.pdf), generated with kicad-footprint-generator")
  (tags "connector JST SHL top entry")
  (attr smd)
  (fp_text reference REF** (at 0 -3.5) (layer F.SilkS)
    (effects (font (size 1 1) (thickness 0.15)))
  )
  (fp_text value JST_SHL_SM05B-SHLS-TF_1x05-1MP_P1.00mm_Horizontal (at 0 4.2) (layer F.Fab)
    (effects (font (size 1 1) (thickness 0.15)))
  )
  (fp_line (start -3.9 -1.3) (end 3.9 -1.3) (layer F.Fab) (width 0.1))
  (fp_line (start -4.01 0.34) (end -4.01 -1.41) (layer F.SilkS) (width 0.12))
  (fp_line (start -4.01 -1.41) (end -2.56 -1.41) (layer F.SilkS) (width 0.12))
  (fp_line (start -2.56 -1.41) (end -2.56 -2.3) (layer F.SilkS) (width 0.12))
  (fp_line (start 4.01 0.34) (end 4.01 -1.41) (layer F.SilkS) (width 0.12))
  (fp_line (start 4.01 -1.41) (end 2.56 -1.41) (layer F.SilkS) (width 0.12))
  (fp_line (start -4.01 2.56) (end -4.01 3.11) (layer F.SilkS) (width 0.12))
  (fp_line (start -4.01 3.11) (end 4.01 3.11) (layer F.SilkS) (width 0.12))
  (fp_line (start 4.01 3.11) (end 4.01 2.56) (layer F.SilkS) (width 0.12))
  (fp_line (start -3.9 3) (end 3.9 3) (layer F.Fab) (width 0.1))
  (fp_line (start -3.9 -1.3) (end -3.9 3) (layer F.Fab) (width 0.1))
  (fp_line (start 3.9 -1.3) (end 3.9 3) (layer F.Fab) (width 0.1))
  (fp_line (start -4.4 -2.8) (end -4.4 3.5) (layer F.CrtYd) (width 0.05))
  (fp_line (start -4.4 3.5) (end 4.4 3.5) (layer F.CrtYd) (width 0.05))
  (fp_line (start 4.4 3.5) (end 4.4 -2.8) (layer F.CrtYd) (width 0.05))
  (fp_line (start 4.4 -2.8) (end -4.4 -2.8) (layer F.CrtYd) (width 0.05))
  (fp_line (start -2.5 -1.3) (end -2 -0.592893) (layer F.Fab) (width 0.1))
  (fp_line (start -2 -0.592893) (end -1.5 -1.3) (layer F.Fab) (width 0.1))
  (pad 1 smd rect (at -2 -1.675) (size 0.6 1.25) (layers F.Cu F.Mask F.Paste))
  (pad 2 smd rect (at -1 -1.675) (size 0.6 1.25) (layers F.Cu F.Mask F.Paste))
  (pad 3 smd rect (at 0 -1.675) (size 0.6 1.25) (layers F.Cu F.Mask F.Paste))
  (pad 4 smd rect (at 1 -1.675) (size 0.6 1.25) (layers F.Cu F.Mask F.Paste))
  (pad 5 smd rect (at 2 -1.675) (size 0.6 1.25) (layers F.Cu F.Mask F.Paste))
  (pad MP smd rect (at -3.45 1.45) (size 0.9 1.7) (layers F.Cu F.Mask F.Paste))
  (pad MP smd rect (at 3.45 1.45) (size 0.9 1.7) (layers F.Cu F.Mask F.Paste))
  (fp_text user %R (at 0 0.5) (layer F.Fab)
    (effects (font (size 1 1) (thickness 0.15)))
  )
  (model ${KIPRJMOD}/kicad_libs_k/models_k.3d/Connector_JST_k.3dshapes/JST_SHL_SM05B-SHLS-TF_1x05-1MP_P1.00mm_Horizontal_k.wrl
    (at (xyz 0 0 0))
    (scale (xyz 1 1 1))
    (rotate (xyz 0 0 0))
  )
)