(module JST_ACH_BBM01B-ACHSS-A-GAN-ETF_1x01-1MP_P1.20mm_Vertical (layer F.Cu) (tedit 5AA47E63)
  (descr "JST ACH series connector, BBM01B-ACHSS-A-GAN-ETF (http://www.jst-mfg.com/product/pdf/eng/eACH.pdf), generated with kicad-footprint-generator")
  (tags "connector JST ACH side entry")
  (attr smd)
  (fp_text reference REF** (at 0 -3.5) (layer F.SilkS)
    (effects (font (size 1 1) (thickness 0.15)))
  )
  (fp_text value JST_ACH_BBM01B-ACHSS-A-GAN-ETF_1x01-1MP_P1.20mm_Vertical (at 0 3.5) (layer F.Fab)
    (effects (font (size 1 1) (thickness 0.15)))
  )
  (fp_line (start -1.6 -2) (end 1.6 -2) (layer F.Fab) (width 0.1))
  (fp_line (start -1.71 0.94) (end -1.71 -2.11) (layer F.SilkS) (width 0.12))
  (fp_line (start -1.71 -2.11) (end -0.56 -2.11) (layer F.SilkS) (width 0.12))
  (fp_line (start -0.56 -2.11) (end -0.56 -2.3) (layer F.SilkS) (width 0.12))
  (fp_line (start 1.71 0.94) (end 1.71 -2.11) (layer F.SilkS) (width 0.12))
  (fp_line (start 1.71 -2.11) (end 0.56 -2.11) (layer F.SilkS) (width 0.12))
  (fp_line (start -0.64 2.01) (end 0.64 2.01) (layer F.SilkS) (width 0.12))
  (fp_line (start -1.6 2.3) (end -0.8 2.3) (layer F.Fab) (width 0.1))
  (fp_line (start -0.8 2.3) (end -0.4 1.9) (layer F.Fab) (width 0.1))
  (fp_line (start -0.4 1.9) (end 0.4 1.9) (layer F.Fab) (width 0.1))
  (fp_line (start 0.4 1.9) (end 0.8 2.3) (layer F.Fab) (width 0.1))
  (fp_line (start 0.8 2.3) (end 1.6 2.3) (layer F.Fab) (width 0.1))
  (fp_line (start -1.6 -2) (end -1.6 2.3) (layer F.Fab) (width 0.1))
  (fp_line (start 1.6 -2) (end 1.6 2.3) (layer F.Fab) (width 0.1))
  (fp_line (start -2.15 -2.8) (end -2.15 2.8) (layer F.CrtYd) (width 0.05))
  (fp_line (start -2.15 2.8) (end 2.15 2.8) (layer F.CrtYd) (width 0.05))
  (fp_line (start 2.15 2.8) (end 2.15 -2.8) (layer F.CrtYd) (width 0.05))
  (fp_line (start 2.15 -2.8) (end -2.15 -2.8) (layer F.CrtYd) (width 0.05))
  (fp_line (start -0.5 -2) (end -0 -1.292893) (layer F.Fab) (width 0.1))
  (fp_line (start -0 -1.292893) (end 0.5 -2) (layer F.Fab) (width 0.1))
  (fp_line (start -0.25 -3.153553) (end -0 -2.8) (layer F.SilkS) (width 0.12))
  (fp_line (start -0 -2.8) (end 0.25 -3.153553) (layer F.SilkS) (width 0.12))
  (fp_line (start 0.25 -3.153553) (end -0.25 -3.153553) (layer F.SilkS) (width 0.12))
  (pad 1 smd rect (at 0 -1.875) (size 0.6 0.85) (layers F.Cu F.Mask F.Paste))
  (pad MP smd rect (at -1.275 1.75) (size 0.75 1.1) (layers F.Cu F.Mask F.Paste))
  (pad MP smd rect (at 1.275 1.75) (size 0.75 1.1) (layers F.Cu F.Mask F.Paste))
  (fp_text user %R (at 0 0) (layer F.Fab)
    (effects (font (size 0.8 0.8) (thickness 0.12)))
  )
  (model ${KIPRJMOD}/kicad_libs_k/models_k.3d/Connector_JST_k.3dshapes/JST_ACH_BBM01B-ACHSS-A-GAN-ETF_1x01-1MP_P1.20mm_Vertical_k.wrl
    (at (xyz 0 0 0))
    (scale (xyz 1 1 1))
    (rotate (xyz 0 0 0))
  )
)