(module JST_ZE_BM12B-ZESS-TB_1x12-1MP_P1.50mm_Vertical (layer F.Cu) (tedit 5AA47E63)
  (descr "JST ZE series connector, BM12B-ZESS-TB (http://www.jst-mfg.com/product/pdf/eng/eZE.pdf), generated with kicad-footprint-generator")
  (tags "connector JST ZE side entry")
  (attr smd)
  (fp_text reference REF** (at 0 -5.15) (layer F.SilkS)
    (effects (font (size 1 1) (thickness 0.15)))
  )
  (fp_text value JST_ZE_BM12B-ZESS-TB_1x12-1MP_P1.50mm_Vertical (at 0 5.15) (layer F.Fab)
    (effects (font (size 1 1) (thickness 0.15)))
  )
  (fp_line (start -11.25 2.25) (end 11.25 2.25) (layer F.Fab) (width 0.1))
  (fp_line (start -11.36 -0.39) (end -11.36 2.36) (layer F.SilkS) (width 0.12))
  (fp_line (start -11.36 2.36) (end -8.91 2.36) (layer F.SilkS) (width 0.12))
  (fp_line (start -8.91 2.36) (end -8.91 3.95) (layer F.SilkS) (width 0.12))
  (fp_line (start 11.36 -0.39) (end 11.36 2.36) (layer F.SilkS) (width 0.12))
  (fp_line (start 11.36 2.36) (end 8.91 2.36) (layer F.SilkS) (width 0.12))
  (fp_line (start -9.69 -3.66) (end 9.69 -3.66) (layer F.SilkS) (width 0.12))
  (fp_line (start -11.25 -3.55) (end 11.25 -3.55) (layer F.Fab) (width 0.1))
  (fp_line (start -11.25 2.25) (end -11.25 -3.55) (layer F.Fab) (width 0.1))
  (fp_line (start 11.25 2.25) (end 11.25 -3.55) (layer F.Fab) (width 0.1))
  (fp_line (start -8.5 -0.5) (end -8.5 0) (layer F.Fab) (width 0.1))
  (fp_line (start -8.5 0) (end -8 0) (layer F.Fab) (width 0.1))
  (fp_line (start -8 0) (end -8 -0.5) (layer F.Fab) (width 0.1))
  (fp_line (start -8 -0.5) (end -8.5 -0.5) (layer F.Fab) (width 0.1))
  (fp_line (start -7 -0.5) (end -7 0) (layer F.Fab) (width 0.1))
  (fp_line (start -7 0) (end -6.5 0) (layer F.Fab) (width 0.1))
  (fp_line (start -6.5 0) (end -6.5 -0.5) (layer F.Fab) (width 0.1))
  (fp_line (start -6.5 -0.5) (end -7 -0.5) (layer F.Fab) (width 0.1))
  (fp_line (start -5.5 -0.5) (end -5.5 0) (layer F.Fab) (width 0.1))
  (fp_line (start -5.5 0) (end -5 0) (layer F.Fab) (width 0.1))
  (fp_line (start -5 0) (end -5 -0.5) (layer F.Fab) (width 0.1))
  (fp_line (start -5 -0.5) (end -5.5 -0.5) (layer F.Fab) (width 0.1))
  (fp_line (start -4 -0.5) (end -4 0) (layer F.Fab) (width 0.1))
  (fp_line (start -4 0) (end -3.5 0) (layer F.Fab) (width 0.1))
  (fp_line (start -3.5 0) (end -3.5 -0.5) (layer F.Fab) (width 0.1))
  (fp_line (start -3.5 -0.5) (end -4 -0.5) (layer F.Fab) (width 0.1))
  (fp_line (start -2.5 -0.5) (end -2.5 0) (layer F.Fab) (width 0.1))
  (fp_line (start -2.5 0) (end -2 0) (layer F.Fab) (width 0.1))
  (fp_line (start -2 0) (end -2 -0.5) (layer F.Fab) (width 0.1))
  (fp_line (start -2 -0.5) (end -2.5 -0.5) (layer F.Fab) (width 0.1))
  (fp_line (start -1 -0.5) (end -1 0) (layer F.Fab) (width 0.1))
  (fp_line (start -1 0) (end -0.5 0) (layer F.Fab) (width 0.1))
  (fp_line (start -0.5 0) (end -0.5 -0.5) (layer F.Fab) (width 0.1))
  (fp_line (start -0.5 -0.5) (end -1 -0.5) (layer F.Fab) (width 0.1))
  (fp_line (start 0.5 -0.5) (end 0.5 0) (layer F.Fab) (width 0.1))
  (fp_line (start 0.5 0) (end 1 0) (layer F.Fab) (width 0.1))
  (fp_line (start 1 0) (end 1 -0.5) (layer F.Fab) (width 0.1))
  (fp_line (start 1 -0.5) (end 0.5 -0.5) (layer F.Fab) (width 0.1))
  (fp_line (start 2 -0.5) (end 2 0) (layer F.Fab) (width 0.1))
  (fp_line (start 2 0) (end 2.5 0) (layer F.Fab) (width 0.1))
  (fp_line (start 2.5 0) (end 2.5 -0.5) (layer F.Fab) (width 0.1))
  (fp_line (start 2.5 -0.5) (end 2 -0.5) (layer F.Fab) (width 0.1))
  (fp_line (start 3.5 -0.5) (end 3.5 0) (layer F.Fab) (width 0.1))
  (fp_line (start 3.5 0) (end 4 0) (layer F.Fab) (width 0.1))
  (fp_line (start 4 0) (end 4 -0.5) (layer F.Fab) (width 0.1))
  (fp_line (start 4 -0.5) (end 3.5 -0.5) (layer F.Fab) (width 0.1))
  (fp_line (start 5 -0.5) (end 5 0) (layer F.Fab) (width 0.1))
  (fp_line (start 5 0) (end 5.5 0) (layer F.Fab) (width 0.1))
  (fp_line (start 5.5 0) (end 5.5 -0.5) (layer F.Fab) (width 0.1))
  (fp_line (start 5.5 -0.5) (end 5 -0.5) (layer F.Fab) (width 0.1))
  (fp_line (start 6.5 -0.5) (end 6.5 0) (layer F.Fab) (width 0.1))
  (fp_line (start 6.5 0) (end 7 0) (layer F.Fab) (width 0.1))
  (fp_line (start 7 0) (end 7 -0.5) (layer F.Fab) (width 0.1))
  (fp_line (start 7 -0.5) (end 6.5 -0.5) (layer F.Fab) (width 0.1))
  (fp_line (start 8 -0.5) (end 8 0) (layer F.Fab) (width 0.1))
  (fp_line (start 8 0) (end 8.5 0) (layer F.Fab) (width 0.1))
  (fp_line (start 8.5 0) (end 8.5 -0.5) (layer F.Fab) (width 0.1))
  (fp_line (start 8.5 -0.5) (end 8 -0.5) (layer F.Fab) (width 0.1))
  (fp_line (start -12.25 -4.45) (end -12.25 4.45) (layer F.CrtYd) (width 0.05))
  (fp_line (start -12.25 4.45) (end 12.25 4.45) (layer F.CrtYd) (width 0.05))
  (fp_line (start 12.25 4.45) (end 12.25 -4.45) (layer F.CrtYd) (width 0.05))
  (fp_line (start 12.25 -4.45) (end -12.25 -4.45) (layer F.CrtYd) (width 0.05))
  (fp_line (start -8.75 2.25) (end -8.25 1.542893) (layer F.Fab) (width 0.1))
  (fp_line (start -8.25 1.542893) (end -7.75 2.25) (layer F.Fab) (width 0.1))
  (pad 1 smd rect (at -8.25 2.75) (size 0.8 2.4) (layers F.Cu F.Mask F.Paste))
  (pad 2 smd rect (at -6.75 2.75) (size 0.8 2.4) (layers F.Cu F.Mask F.Paste))
  (pad 3 smd rect (at -5.25 2.75) (size 0.8 2.4) (layers F.Cu F.Mask F.Paste))
  (pad 4 smd rect (at -3.75 2.75) (size 0.8 2.4) (layers F.Cu F.Mask F.Paste))
  (pad 5 smd rect (at -2.25 2.75) (size 0.8 2.4) (layers F.Cu F.Mask F.Paste))
  (pad 6 smd rect (at -0.75 2.75) (size 0.8 2.4) (layers F.Cu F.Mask F.Paste))
  (pad 7 smd rect (at 0.75 2.75) (size 0.8 2.4) (layers F.Cu F.Mask F.Paste))
  (pad 8 smd rect (at 2.25 2.75) (size 0.8 2.4) (layers F.Cu F.Mask F.Paste))
  (pad 9 smd rect (at 3.75 2.75) (size 0.8 2.4) (layers F.Cu F.Mask F.Paste))
  (pad 10 smd rect (at 5.25 2.75) (size 0.8 2.4) (layers F.Cu F.Mask F.Paste))
  (pad 11 smd rect (at 6.75 2.75) (size 0.8 2.4) (layers F.Cu F.Mask F.Paste))
  (pad 12 smd rect (at 8.25 2.75) (size 0.8 2.4) (layers F.Cu F.Mask F.Paste))
  (pad MP smd rect (at -10.85 -2.3) (size 1.8 3.3) (layers F.Cu F.Mask F.Paste))
  (pad MP smd rect (at 10.85 -2.3) (size 1.8 3.3) (layers F.Cu F.Mask F.Paste))
  (fp_text user %R (at 0 -1.5) (layer F.Fab)
    (effects (font (size 1 1) (thickness 0.15)))
  )
  (model ${KIPRJMOD}/kicad_libs_k/models_k.3d/Connector_JST_k.3dshapes/JST_ZE_BM12B-ZESS-TB_1x12-1MP_P1.50mm_Vertical_k.wrl
    (at (xyz 0 0 0))
    (scale (xyz 1 1 1))
    (rotate (xyz 0 0 0))
  )
)