(module JST_PH_S11B-PH-SM4-TB_1x11-1MP_P2.00mm_Horizontal (layer F.Cu) (tedit 5AA47E63)
  (descr "JST PH series connector, S11B-PH-SM4-TB (http://www.jst-mfg.com/product/pdf/eng/ePH.pdf), generated with kicad-footprint-generator")
  (tags "connector JST PH top entry")
  (attr smd)
  (fp_text reference REF** (at 0 -5.8) (layer F.SilkS)
    (effects (font (size 1 1) (thickness 0.15)))
  )
  (fp_text value JST_PH_S11B-PH-SM4-TB_1x11-1MP_P2.00mm_Horizontal (at 0 5.8) (layer F.Fab)
    (effects (font (size 1 1) (thickness 0.15)))
  )
  (fp_line (start -12.95 -3.2) (end -12.15 -3.2) (layer F.Fab) (width 0.1))
  (fp_line (start -12.15 -3.2) (end -12.15 -1.6) (layer F.Fab) (width 0.1))
  (fp_line (start -12.15 -1.6) (end 12.15 -1.6) (layer F.Fab) (width 0.1))
  (fp_line (start 12.15 -1.6) (end 12.15 -3.2) (layer F.Fab) (width 0.1))
  (fp_line (start 12.15 -3.2) (end 12.95 -3.2) (layer F.Fab) (width 0.1))
  (fp_line (start -13.06 0.94) (end -13.06 -3.31) (layer F.SilkS) (width 0.12))
  (fp_line (start -13.06 -3.31) (end -12.04 -3.31) (layer F.SilkS) (width 0.12))
  (fp_line (start -12.04 -3.31) (end -12.04 -1.71) (layer F.SilkS) (width 0.12))
  (fp_line (start -12.04 -1.71) (end -10.76 -1.71) (layer F.SilkS) (width 0.12))
  (fp_line (start -10.76 -1.71) (end -10.76 -4.6) (layer F.SilkS) (width 0.12))
  (fp_line (start 13.06 0.94) (end 13.06 -3.31) (layer F.SilkS) (width 0.12))
  (fp_line (start 13.06 -3.31) (end 12.04 -3.31) (layer F.SilkS) (width 0.12))
  (fp_line (start 12.04 -3.31) (end 12.04 -1.71) (layer F.SilkS) (width 0.12))
  (fp_line (start 12.04 -1.71) (end 10.76 -1.71) (layer F.SilkS) (width 0.12))
  (fp_line (start -11.34 4.51) (end 11.34 4.51) (layer F.SilkS) (width 0.12))
  (fp_line (start -12.95 4.4) (end 12.95 4.4) (layer F.Fab) (width 0.1))
  (fp_line (start -12.95 -3.2) (end -12.95 4.4) (layer F.Fab) (width 0.1))
  (fp_line (start 12.95 -3.2) (end 12.95 4.4) (layer F.Fab) (width 0.1))
  (fp_line (start -13.6 -5.1) (end -13.6 5.1) (layer F.CrtYd) (width 0.05))
  (fp_line (start -13.6 5.1) (end 13.6 5.1) (layer F.CrtYd) (width 0.05))
  (fp_line (start 13.6 5.1) (end 13.6 -5.1) (layer F.CrtYd) (width 0.05))
  (fp_line (start 13.6 -5.1) (end -13.6 -5.1) (layer F.CrtYd) (width 0.05))
  (fp_line (start -10.5 -1.6) (end -10 -0.892893) (layer F.Fab) (width 0.1))
  (fp_line (start -10 -0.892893) (end -9.5 -1.6) (layer F.Fab) (width 0.1))
  (pad 1 smd rect (at -10 -2.85) (size 1 3.5) (layers F.Cu F.Mask F.Paste))
  (pad 2 smd rect (at -8 -2.85) (size 1 3.5) (layers F.Cu F.Mask F.Paste))
  (pad 3 smd rect (at -6 -2.85) (size 1 3.5) (layers F.Cu F.Mask F.Paste))
  (pad 4 smd rect (at -4 -2.85) (size 1 3.5) (layers F.Cu F.Mask F.Paste))
  (pad 5 smd rect (at -2 -2.85) (size 1 3.5) (layers F.Cu F.Mask F.Paste))
  (pad 6 smd rect (at 0 -2.85) (size 1 3.5) (layers F.Cu F.Mask F.Paste))
  (pad 7 smd rect (at 2 -2.85) (size 1 3.5) (layers F.Cu F.Mask F.Paste))
  (pad 8 smd rect (at 4 -2.85) (size 1 3.5) (layers F.Cu F.Mask F.Paste))
  (pad 9 smd rect (at 6 -2.85) (size 1 3.5) (layers F.Cu F.Mask F.Paste))
  (pad 10 smd rect (at 8 -2.85) (size 1 3.5) (layers F.Cu F.Mask F.Paste))
  (pad 11 smd rect (at 10 -2.85) (size 1 3.5) (layers F.Cu F.Mask F.Paste))
  (pad MP smd rect (at -12.35 2.9) (size 1.5 3.4) (layers F.Cu F.Mask F.Paste))
  (pad MP smd rect (at 12.35 2.9) (size 1.5 3.4) (layers F.Cu F.Mask F.Paste))
  (fp_text user %R (at 0 1.5) (layer F.Fab)
    (effects (font (size 1 1) (thickness 0.15)))
  )
  (model ${KIPRJMOD}/kicad_libs_k/models_k.3d/Connector_JST_k.3dshapes/JST_PH_S11B-PH-SM4-TB_1x11-1MP_P2.00mm_Horizontal_k.wrl
    (at (xyz 0 0 0))
    (scale (xyz 1 1 1))
    (rotate (xyz 0 0 0))
  )
)