(module JST_SHL_SM12B-SHLS-TF_1x12-1MP_P1.00mm_Horizontal (layer F.Cu) (tedit 5AA47E63)
  (descr "JST SHL series connector, SM12B-SHLS-TF (http://www.jst-mfg.com/product/pdf/eng/eSHL.pdf), generated with kicad-footprint-generator")
  (tags "connector JST SHL top entry")
  (attr smd)
  (fp_text reference REF** (at 0 -3.5) (layer F.SilkS)
    (effects (font (size 1 1) (thickness 0.15)))
  )
  (fp_text value JST_SHL_SM12B-SHLS-TF_1x12-1MP_P1.00mm_Horizontal (at 0 4.2) (layer F.Fab)
    (effects (font (size 1 1) (thickness 0.15)))
  )
  (fp_line (start -7.4 -1.3) (end 7.4 -1.3) (layer F.Fab) (width 0.1))
  (fp_line (start -7.51 0.34) (end -7.51 -1.41) (layer F.SilkS) (width 0.12))
  (fp_line (start -7.51 -1.41) (end -6.06 -1.41) (layer F.SilkS) (width 0.12))
  (fp_line (start -6.06 -1.41) (end -6.06 -2.3) (layer F.SilkS) (width 0.12))
  (fp_line (start 7.51 0.34) (end 7.51 -1.41) (layer F.SilkS) (width 0.12))
  (fp_line (start 7.51 -1.41) (end 6.06 -1.41) (layer F.SilkS) (width 0.12))
  (fp_line (start -7.51 2.56) (end -7.51 3.11) (layer F.SilkS) (width 0.12))
  (fp_line (start -7.51 3.11) (end 7.51 3.11) (layer F.SilkS) (width 0.12))
  (fp_line (start 7.51 3.11) (end 7.51 2.56) (layer F.SilkS) (width 0.12))
  (fp_line (start -7.4 3) (end 7.4 3) (layer F.Fab) (width 0.1))
  (fp_line (start -7.4 -1.3) (end -7.4 3) (layer F.Fab) (width 0.1))
  (fp_line (start 7.4 -1.3) (end 7.4 3) (layer F.Fab) (width 0.1))
  (fp_line (start -7.9 -2.8) (end -7.9 3.5) (layer F.CrtYd) (width 0.05))
  (fp_line (start -7.9 3.5) (end 7.9 3.5) (layer F.CrtYd) (width 0.05))
  (fp_line (start 7.9 3.5) (end 7.9 -2.8) (layer F.CrtYd) (width 0.05))
  (fp_line (start 7.9 -2.8) (end -7.9 -2.8) (layer F.CrtYd) (width 0.05))
  (fp_line (start -6 -1.3) (end -5.5 -0.592893) (layer F.Fab) (width 0.1))
  (fp_line (start -5.5 -0.592893) (end -5 -1.3) (layer F.Fab) (width 0.1))
  (pad 1 smd rect (at -5.5 -1.675) (size 0.6 1.25) (layers F.Cu F.Mask F.Paste))
  (pad 2 smd rect (at -4.5 -1.675) (size 0.6 1.25) (layers F.Cu F.Mask F.Paste))
  (pad 3 smd rect (at -3.5 -1.675) (size 0.6 1.25) (layers F.Cu F.Mask F.Paste))
  (pad 4 smd rect (at -2.5 -1.675) (size 0.6 1.25) (layers F.Cu F.Mask F.Paste))
  (pad 5 smd rect (at -1.5 -1.675) (size 0.6 1.25) (layers F.Cu F.Mask F.Paste))
  (pad 6 smd rect (at -0.5 -1.675) (size 0.6 1.25) (layers F.Cu F.Mask F.Paste))
  (pad 7 smd rect (at 0.5 -1.675) (size 0.6 1.25) (layers F.Cu F.Mask F.Paste))
  (pad 8 smd rect (at 1.5 -1.675) (size 0.6 1.25) (layers F.Cu F.Mask F.Paste))
  (pad 9 smd rect (at 2.5 -1.675) (size 0.6 1.25) (layers F.Cu F.Mask F.Paste))
  (pad 10 smd rect (at 3.5 -1.675) (size 0.6 1.25) (layers F.Cu F.Mask F.Paste))
  (pad 11 smd rect (at 4.5 -1.675) (size 0.6 1.25) (layers F.Cu F.Mask F.Paste))
  (pad 12 smd rect (at 5.5 -1.675) (size 0.6 1.25) (layers F.Cu F.Mask F.Paste))
  (pad MP smd rect (at -6.95 1.45) (size 0.9 1.7) (layers F.Cu F.Mask F.Paste))
  (pad MP smd rect (at 6.95 1.45) (size 0.9 1.7) (layers F.Cu F.Mask F.Paste))
  (fp_text user %R (at 0 0.5) (layer F.Fab)
    (effects (font (size 1 1) (thickness 0.15)))
  )
  (model ${KIPRJMOD}/kicad_libs_k/models_k.3d/Connector_JST_k.3dshapes/JST_SHL_SM12B-SHLS-TF_1x12-1MP_P1.00mm_Horizontal_k.wrl
    (at (xyz 0 0 0))
    (scale (xyz 1 1 1))
    (rotate (xyz 0 0 0))
  )
)