(module JST_JWPF_B08B-JWPF-SK-R_2x04_P2.00mm_Vertical (layer F.Cu) (tedit 5A0ECC35)
  (descr "JST JWPF series connector, B08B-JWPF-SK-R (http://www.jst-mfg.com/product/pdf/eng/eJWPF1.pdf), generated with kicad-footprint-generator")
  (tags "connector JST JWPF side entry")
  (fp_text reference REF** (at 0.85 -4.1) (layer F.SilkS)
    (effects (font (size 1 1) (thickness 0.15)))
  )
  (fp_text value JST_JWPF_B08B-JWPF-SK-R_2x04_P2.00mm_Vertical (at 0.85 10.1) (layer F.Fab)
    (effects (font (size 1 1) (thickness 0.15)))
  )
  (fp_arc (start -3.9 -1.9) (end -4.9 -1.9) (angle 90.000000) (layer F.Fab) (width 0.1))
  (fp_arc (start -3.9 7.9) (end -3.9 8.9) (angle 90.000000) (layer F.Fab) (width 0.1))
  (fp_arc (start 6.1 -1.9) (end 6.1 -2.9) (angle 90.000000) (layer F.Fab) (width 0.1))
  (fp_arc (start 6.1 7.9) (end 7.1 7.9) (angle 90.000000) (layer F.Fab) (width 0.1))
  (fp_arc (start -4.01 -2.01) (end -5.01 -2.01) (angle 90.000000) (layer F.SilkS) (width 0.12))
  (fp_arc (start -4.01 8.01) (end -4.01 9.01) (angle 90.000000) (layer F.SilkS) (width 0.12))
  (fp_arc (start 6.21 -2.01) (end 6.21 -3.01) (angle 90.000000) (layer F.SilkS) (width 0.12))
  (fp_arc (start 6.21 8.01) (end 7.21 8.01) (angle 90.000000) (layer F.SilkS) (width 0.12))
  (fp_line (start -5.9 -3.4) (end -5.9 9.4) (layer F.CrtYd) (width 0.05))
  (fp_line (start -5.9 9.4) (end 7.6 9.4) (layer F.CrtYd) (width 0.05))
  (fp_line (start 7.6 9.4) (end 7.6 -3.4) (layer F.CrtYd) (width 0.05))
  (fp_line (start 7.6 -3.4) (end -5.9 -3.4) (layer F.CrtYd) (width 0.05))
  (fp_line (start -3.9 -2.9) (end 6.1 -2.9) (layer F.Fab) (width 0.1))
  (fp_line (start -3.9 8.9) (end 6.1 8.9) (layer F.Fab) (width 0.1))
  (fp_line (start -4.9 -1.9) (end -4.9 -0.5) (layer F.Fab) (width 0.1))
  (fp_line (start -4.9 -0.5) (end -5.4 -0.5) (layer F.Fab) (width 0.1))
  (fp_line (start -5.4 -0.5) (end -5.4 6.5) (layer F.Fab) (width 0.1))
  (fp_line (start -5.4 6.5) (end -4.9 6.5) (layer F.Fab) (width 0.1))
  (fp_line (start -4.9 6.5) (end -4.9 7.9) (layer F.Fab) (width 0.1))
  (fp_line (start 7.1 -1.9) (end 7.1 7.9) (layer F.Fab) (width 0.1))
  (fp_line (start -4.01 -3.01) (end 6.21 -3.01) (layer F.SilkS) (width 0.12))
  (fp_line (start -4.01 9.01) (end 6.21 9.01) (layer F.SilkS) (width 0.12))
  (fp_line (start -5.01 -2.01) (end -5.01 -0.61) (layer F.SilkS) (width 0.12))
  (fp_line (start -5.01 -0.61) (end -5.51 -0.61) (layer F.SilkS) (width 0.12))
  (fp_line (start -5.51 -0.61) (end -5.51 6.61) (layer F.SilkS) (width 0.12))
  (fp_line (start -5.51 6.61) (end -5.01 6.61) (layer F.SilkS) (width 0.12))
  (fp_line (start -5.01 6.61) (end -5.01 8.01) (layer F.SilkS) (width 0.12))
  (fp_line (start 7.21 -2.01) (end 7.21 8.01) (layer F.SilkS) (width 0.12))
  (fp_line (start -5.75 -1.75) (end -5.75 -3.25) (layer F.SilkS) (width 0.12))
  (fp_line (start -5.75 -3.25) (end -4.25 -3.25) (layer F.SilkS) (width 0.12))
  (fp_line (start -0.375 -1.9) (end 0.375 -1.9) (layer F.Fab) (width 0.1))
  (fp_line (start 0.375 -1.9) (end 0 -1.15) (layer F.Fab) (width 0.1))
  (fp_line (start 0 -1.15) (end -0.375 -1.9) (layer F.Fab) (width 0.1))
  (pad 1 thru_hole rect (at 0 0) (size 2 1.3) (drill 1) (layers *.Cu *.Mask))
  (pad 2 thru_hole oval (at 0 2) (size 2 1.3) (drill 1) (layers *.Cu *.Mask))
  (pad 3 thru_hole oval (at 0 4) (size 2 1.3) (drill 1) (layers *.Cu *.Mask))
  (pad 4 thru_hole oval (at 0 6) (size 2 1.3) (drill 1) (layers *.Cu *.Mask))
  (pad 5 thru_hole oval (at 4 0) (size 2 1.3) (drill 1) (layers *.Cu *.Mask))
  (pad 6 thru_hole oval (at 4 2) (size 2 1.3) (drill 1) (layers *.Cu *.Mask))
  (pad 7 thru_hole oval (at 4 4) (size 2 1.3) (drill 1) (layers *.Cu *.Mask))
  (pad 8 thru_hole oval (at 4 6) (size 2 1.3) (drill 1) (layers *.Cu *.Mask))
  (pad "" np_thru_hole circle (at -1.5 8.45) (size 1.15 1.15) (drill 1.15) (layers *.Cu *.Mask))
  (fp_text user %R (at -4.7 3 90) (layer F.Fab)
    (effects (font (size 1 1) (thickness 0.15)))
  )
  (model ${KIPRJMOD}/kicad_libs_k/models_k.3d/Connector_JST_k.3dshapes/JST_JWPF_B08B-JWPF-SK-R_2x04_P2.00mm_Vertical_k.wrl
    (at (xyz 0 0 0))
    (scale (xyz 1 1 1))
    (rotate (xyz 0 0 0))
  )
)