(module JST_PH_S3B-PH-K_1x03_P2.00mm_Horizontal (layer F.Cu) (tedit 5A0EDEC2)
  (descr "JST PH series connector, S3B-PH-K (http://www.jst-mfg.com/product/pdf/eng/ePH.pdf), generated with kicad-footprint-generator")
  (tags "connector JST PH top entry")
  (fp_text reference REF** (at 2 -2.55) (layer F.SilkS)
    (effects (font (size 1 1) (thickness 0.15)))
  )
  (fp_text value JST_PH_S3B-PH-K_1x03_P2.00mm_Horizontal (at 2 7.45) (layer F.Fab)
    (effects (font (size 1 1) (thickness 0.15)))
  )
  (fp_line (start -0.86 0.14) (end -1.14 0.14) (layer F.SilkS) (width 0.12))
  (fp_line (start -1.14 0.14) (end -1.14 -1.46) (layer F.SilkS) (width 0.12))
  (fp_line (start -1.14 -1.46) (end -2.06 -1.46) (layer F.SilkS) (width 0.12))
  (fp_line (start -2.06 -1.46) (end -2.06 6.36) (layer F.SilkS) (width 0.12))
  (fp_line (start -2.06 6.36) (end 6.06 6.36) (layer F.SilkS) (width 0.12))
  (fp_line (start 6.06 6.36) (end 6.06 -1.46) (layer F.SilkS) (width 0.12))
  (fp_line (start 6.06 -1.46) (end 5.14 -1.46) (layer F.SilkS) (width 0.12))
  (fp_line (start 5.14 -1.46) (end 5.14 0.14) (layer F.SilkS) (width 0.12))
  (fp_line (start 5.14 0.14) (end 4.86 0.14) (layer F.SilkS) (width 0.12))
  (fp_line (start 0.5 6.36) (end 0.5 2) (layer F.SilkS) (width 0.12))
  (fp_line (start 0.5 2) (end 3.5 2) (layer F.SilkS) (width 0.12))
  (fp_line (start 3.5 2) (end 3.5 6.36) (layer F.SilkS) (width 0.12))
  (fp_line (start -2.06 0.14) (end -1.14 0.14) (layer F.SilkS) (width 0.12))
  (fp_line (start 6.06 0.14) (end 5.14 0.14) (layer F.SilkS) (width 0.12))
  (fp_line (start -1.3 2.5) (end -1.3 4.1) (layer F.SilkS) (width 0.12))
  (fp_line (start -1.3 4.1) (end -0.3 4.1) (layer F.SilkS) (width 0.12))
  (fp_line (start -0.3 4.1) (end -0.3 2.5) (layer F.SilkS) (width 0.12))
  (fp_line (start -0.3 2.5) (end -1.3 2.5) (layer F.SilkS) (width 0.12))
  (fp_line (start 5.3 2.5) (end 5.3 4.1) (layer F.SilkS) (width 0.12))
  (fp_line (start 5.3 4.1) (end 4.3 4.1) (layer F.SilkS) (width 0.12))
  (fp_line (start 4.3 4.1) (end 4.3 2.5) (layer F.SilkS) (width 0.12))
  (fp_line (start 4.3 2.5) (end 5.3 2.5) (layer F.SilkS) (width 0.12))
  (fp_line (start -0.3 4.1) (end -0.3 6.36) (layer F.SilkS) (width 0.12))
  (fp_line (start -0.8 4.1) (end -0.8 6.36) (layer F.SilkS) (width 0.12))
  (fp_line (start -2.45 -1.85) (end -2.45 6.75) (layer F.CrtYd) (width 0.05))
  (fp_line (start -2.45 6.75) (end 6.45 6.75) (layer F.CrtYd) (width 0.05))
  (fp_line (start 6.45 6.75) (end 6.45 -1.85) (layer F.CrtYd) (width 0.05))
  (fp_line (start 6.45 -1.85) (end -2.45 -1.85) (layer F.CrtYd) (width 0.05))
  (fp_line (start -1.25 0.25) (end -1.25 -1.35) (layer F.Fab) (width 0.1))
  (fp_line (start -1.25 -1.35) (end -1.95 -1.35) (layer F.Fab) (width 0.1))
  (fp_line (start -1.95 -1.35) (end -1.95 6.25) (layer F.Fab) (width 0.1))
  (fp_line (start -1.95 6.25) (end 5.95 6.25) (layer F.Fab) (width 0.1))
  (fp_line (start 5.95 6.25) (end 5.95 -1.35) (layer F.Fab) (width 0.1))
  (fp_line (start 5.95 -1.35) (end 5.25 -1.35) (layer F.Fab) (width 0.1))
  (fp_line (start 5.25 -1.35) (end 5.25 0.25) (layer F.Fab) (width 0.1))
  (fp_line (start 5.25 0.25) (end -1.25 0.25) (layer F.Fab) (width 0.1))
  (fp_line (start -0.86 0.14) (end -0.86 -1.075) (layer F.SilkS) (width 0.12))
  (fp_line (start 0 0.875) (end -0.5 1.375) (layer F.Fab) (width 0.1))
  (fp_line (start -0.5 1.375) (end 0.5 1.375) (layer F.Fab) (width 0.1))
  (fp_line (start 0.5 1.375) (end 0 0.875) (layer F.Fab) (width 0.1))
  (pad 1 thru_hole rect (at 0 0) (size 1.2 1.75) (drill 0.75) (layers *.Cu *.Mask))
  (pad 2 thru_hole oval (at 2 0) (size 1.2 1.75) (drill 0.75) (layers *.Cu *.Mask))
  (pad 3 thru_hole oval (at 4 0) (size 1.2 1.75) (drill 0.75) (layers *.Cu *.Mask))
  (fp_text user %R (at 2 2.5) (layer F.Fab)
    (effects (font (size 1 1) (thickness 0.15)))
  )
  (model ${KIPRJMOD}/kicad_libs_k/models_k.3d/Connector_JST_k.3dshapes/JST_PH_S3B-PH-K_1x03_P2.00mm_Horizontal_k.wrl
    (at (xyz 0 0 0))
    (scale (xyz 1 1 1))
    (rotate (xyz 0 0 0))
  )
)