(module JST_ZE_BM15B-ZESS-TB_1x15-1MP_P1.50mm_Vertical (layer F.Cu) (tedit 5AA47E63)
  (descr "JST ZE series connector, BM15B-ZESS-TB (http://www.jst-mfg.com/product/pdf/eng/eZE.pdf), generated with kicad-footprint-generator")
  (tags "connector JST ZE side entry")
  (attr smd)
  (fp_text reference REF** (at 0 -5.15) (layer F.SilkS)
    (effects (font (size 1 1) (thickness 0.15)))
  )
  (fp_text value JST_ZE_BM15B-ZESS-TB_1x15-1MP_P1.50mm_Vertical (at 0 5.15) (layer F.Fab)
    (effects (font (size 1 1) (thickness 0.15)))
  )
  (fp_line (start -13.5 2.25) (end 13.5 2.25) (layer F.Fab) (width 0.1))
  (fp_line (start -13.61 -0.39) (end -13.61 2.36) (layer F.SilkS) (width 0.12))
  (fp_line (start -13.61 2.36) (end -11.16 2.36) (layer F.SilkS) (width 0.12))
  (fp_line (start -11.16 2.36) (end -11.16 3.95) (layer F.SilkS) (width 0.12))
  (fp_line (start 13.61 -0.39) (end 13.61 2.36) (layer F.SilkS) (width 0.12))
  (fp_line (start 13.61 2.36) (end 11.16 2.36) (layer F.SilkS) (width 0.12))
  (fp_line (start -11.94 -3.66) (end 11.94 -3.66) (layer F.SilkS) (width 0.12))
  (fp_line (start -13.5 -3.55) (end 13.5 -3.55) (layer F.Fab) (width 0.1))
  (fp_line (start -13.5 2.25) (end -13.5 -3.55) (layer F.Fab) (width 0.1))
  (fp_line (start 13.5 2.25) (end 13.5 -3.55) (layer F.Fab) (width 0.1))
  (fp_line (start -10.75 -0.5) (end -10.75 0) (layer F.Fab) (width 0.1))
  (fp_line (start -10.75 0) (end -10.25 0) (layer F.Fab) (width 0.1))
  (fp_line (start -10.25 0) (end -10.25 -0.5) (layer F.Fab) (width 0.1))
  (fp_line (start -10.25 -0.5) (end -10.75 -0.5) (layer F.Fab) (width 0.1))
  (fp_line (start -9.25 -0.5) (end -9.25 0) (layer F.Fab) (width 0.1))
  (fp_line (start -9.25 0) (end -8.75 0) (layer F.Fab) (width 0.1))
  (fp_line (start -8.75 0) (end -8.75 -0.5) (layer F.Fab) (width 0.1))
  (fp_line (start -8.75 -0.5) (end -9.25 -0.5) (layer F.Fab) (width 0.1))
  (fp_line (start -7.75 -0.5) (end -7.75 0) (layer F.Fab) (width 0.1))
  (fp_line (start -7.75 0) (end -7.25 0) (layer F.Fab) (width 0.1))
  (fp_line (start -7.25 0) (end -7.25 -0.5) (layer F.Fab) (width 0.1))
  (fp_line (start -7.25 -0.5) (end -7.75 -0.5) (layer F.Fab) (width 0.1))
  (fp_line (start -6.25 -0.5) (end -6.25 0) (layer F.Fab) (width 0.1))
  (fp_line (start -6.25 0) (end -5.75 0) (layer F.Fab) (width 0.1))
  (fp_line (start -5.75 0) (end -5.75 -0.5) (layer F.Fab) (width 0.1))
  (fp_line (start -5.75 -0.5) (end -6.25 -0.5) (layer F.Fab) (width 0.1))
  (fp_line (start -4.75 -0.5) (end -4.75 0) (layer F.Fab) (width 0.1))
  (fp_line (start -4.75 0) (end -4.25 0) (layer F.Fab) (width 0.1))
  (fp_line (start -4.25 0) (end -4.25 -0.5) (layer F.Fab) (width 0.1))
  (fp_line (start -4.25 -0.5) (end -4.75 -0.5) (layer F.Fab) (width 0.1))
  (fp_line (start -3.25 -0.5) (end -3.25 0) (layer F.Fab) (width 0.1))
  (fp_line (start -3.25 0) (end -2.75 0) (layer F.Fab) (width 0.1))
  (fp_line (start -2.75 0) (end -2.75 -0.5) (layer F.Fab) (width 0.1))
  (fp_line (start -2.75 -0.5) (end -3.25 -0.5) (layer F.Fab) (width 0.1))
  (fp_line (start -1.75 -0.5) (end -1.75 0) (layer F.Fab) (width 0.1))
  (fp_line (start -1.75 0) (end -1.25 0) (layer F.Fab) (width 0.1))
  (fp_line (start -1.25 0) (end -1.25 -0.5) (layer F.Fab) (width 0.1))
  (fp_line (start -1.25 -0.5) (end -1.75 -0.5) (layer F.Fab) (width 0.1))
  (fp_line (start -0.25 -0.5) (end -0.25 0) (layer F.Fab) (width 0.1))
  (fp_line (start -0.25 0) (end 0.25 0) (layer F.Fab) (width 0.1))
  (fp_line (start 0.25 0) (end 0.25 -0.5) (layer F.Fab) (width 0.1))
  (fp_line (start 0.25 -0.5) (end -0.25 -0.5) (layer F.Fab) (width 0.1))
  (fp_line (start 1.25 -0.5) (end 1.25 0) (layer F.Fab) (width 0.1))
  (fp_line (start 1.25 0) (end 1.75 0) (layer F.Fab) (width 0.1))
  (fp_line (start 1.75 0) (end 1.75 -0.5) (layer F.Fab) (width 0.1))
  (fp_line (start 1.75 -0.5) (end 1.25 -0.5) (layer F.Fab) (width 0.1))
  (fp_line (start 2.75 -0.5) (end 2.75 0) (layer F.Fab) (width 0.1))
  (fp_line (start 2.75 0) (end 3.25 0) (layer F.Fab) (width 0.1))
  (fp_line (start 3.25 0) (end 3.25 -0.5) (layer F.Fab) (width 0.1))
  (fp_line (start 3.25 -0.5) (end 2.75 -0.5) (layer F.Fab) (width 0.1))
  (fp_line (start 4.25 -0.5) (end 4.25 0) (layer F.Fab) (width 0.1))
  (fp_line (start 4.25 0) (end 4.75 0) (layer F.Fab) (width 0.1))
  (fp_line (start 4.75 0) (end 4.75 -0.5) (layer F.Fab) (width 0.1))
  (fp_line (start 4.75 -0.5) (end 4.25 -0.5) (layer F.Fab) (width 0.1))
  (fp_line (start 5.75 -0.5) (end 5.75 0) (layer F.Fab) (width 0.1))
  (fp_line (start 5.75 0) (end 6.25 0) (layer F.Fab) (width 0.1))
  (fp_line (start 6.25 0) (end 6.25 -0.5) (layer F.Fab) (width 0.1))
  (fp_line (start 6.25 -0.5) (end 5.75 -0.5) (layer F.Fab) (width 0.1))
  (fp_line (start 7.25 -0.5) (end 7.25 0) (layer F.Fab) (width 0.1))
  (fp_line (start 7.25 0) (end 7.75 0) (layer F.Fab) (width 0.1))
  (fp_line (start 7.75 0) (end 7.75 -0.5) (layer F.Fab) (width 0.1))
  (fp_line (start 7.75 -0.5) (end 7.25 -0.5) (layer F.Fab) (width 0.1))
  (fp_line (start 8.75 -0.5) (end 8.75 0) (layer F.Fab) (width 0.1))
  (fp_line (start 8.75 0) (end 9.25 0) (layer F.Fab) (width 0.1))
  (fp_line (start 9.25 0) (end 9.25 -0.5) (layer F.Fab) (width 0.1))
  (fp_line (start 9.25 -0.5) (end 8.75 -0.5) (layer F.Fab) (width 0.1))
  (fp_line (start 10.25 -0.5) (end 10.25 0) (layer F.Fab) (width 0.1))
  (fp_line (start 10.25 0) (end 10.75 0) (layer F.Fab) (width 0.1))
  (fp_line (start 10.75 0) (end 10.75 -0.5) (layer F.Fab) (width 0.1))
  (fp_line (start 10.75 -0.5) (end 10.25 -0.5) (layer F.Fab) (width 0.1))
  (fp_line (start -14.5 -4.45) (end -14.5 4.45) (layer F.CrtYd) (width 0.05))
  (fp_line (start -14.5 4.45) (end 14.5 4.45) (layer F.CrtYd) (width 0.05))
  (fp_line (start 14.5 4.45) (end 14.5 -4.45) (layer F.CrtYd) (width 0.05))
  (fp_line (start 14.5 -4.45) (end -14.5 -4.45) (layer F.CrtYd) (width 0.05))
  (fp_line (start -11 2.25) (end -10.5 1.542893) (layer F.Fab) (width 0.1))
  (fp_line (start -10.5 1.542893) (end -10 2.25) (layer F.Fab) (width 0.1))
  (pad 1 smd rect (at -10.5 2.75) (size 0.8 2.4) (layers F.Cu F.Mask F.Paste))
  (pad 2 smd rect (at -9 2.75) (size 0.8 2.4) (layers F.Cu F.Mask F.Paste))
  (pad 3 smd rect (at -7.5 2.75) (size 0.8 2.4) (layers F.Cu F.Mask F.Paste))
  (pad 4 smd rect (at -6 2.75) (size 0.8 2.4) (layers F.Cu F.Mask F.Paste))
  (pad 5 smd rect (at -4.5 2.75) (size 0.8 2.4) (layers F.Cu F.Mask F.Paste))
  (pad 6 smd rect (at -3 2.75) (size 0.8 2.4) (layers F.Cu F.Mask F.Paste))
  (pad 7 smd rect (at -1.5 2.75) (size 0.8 2.4) (layers F.Cu F.Mask F.Paste))
  (pad 8 smd rect (at 0 2.75) (size 0.8 2.4) (layers F.Cu F.Mask F.Paste))
  (pad 9 smd rect (at 1.5 2.75) (size 0.8 2.4) (layers F.Cu F.Mask F.Paste))
  (pad 10 smd rect (at 3 2.75) (size 0.8 2.4) (layers F.Cu F.Mask F.Paste))
  (pad 11 smd rect (at 4.5 2.75) (size 0.8 2.4) (layers F.Cu F.Mask F.Paste))
  (pad 12 smd rect (at 6 2.75) (size 0.8 2.4) (layers F.Cu F.Mask F.Paste))
  (pad 13 smd rect (at 7.5 2.75) (size 0.8 2.4) (layers F.Cu F.Mask F.Paste))
  (pad 14 smd rect (at 9 2.75) (size 0.8 2.4) (layers F.Cu F.Mask F.Paste))
  (pad 15 smd rect (at 10.5 2.75) (size 0.8 2.4) (layers F.Cu F.Mask F.Paste))
  (pad MP smd rect (at -13.1 -2.3) (size 1.8 3.3) (layers F.Cu F.Mask F.Paste))
  (pad MP smd rect (at 13.1 -2.3) (size 1.8 3.3) (layers F.Cu F.Mask F.Paste))
  (fp_text user %R (at 0 -1.5) (layer F.Fab)
    (effects (font (size 1 1) (thickness 0.15)))
  )
  (model ${KIPRJMOD}/kicad_libs_k/models_k.3d/Connector_JST_k.3dshapes/JST_ZE_BM15B-ZESS-TB_1x15-1MP_P1.50mm_Vertical_k.wrl
    (at (xyz 0 0 0))
    (scale (xyz 1 1 1))
    (rotate (xyz 0 0 0))
  )
)