(module JST_ZE_SM05B-ZESS-TBT_1x05-1MP_P1.50mm_Horizontal (layer F.Cu) (tedit 5AA47E63)
  (descr "JST ZE series connector, SM05B-ZESS-TBT (http://www.jst-mfg.com/product/pdf/eng/eZE.pdf), generated with kicad-footprint-generator")
  (tags "connector JST ZE top entry")
  (attr smd)
  (fp_text reference REF** (at 0 -5.22) (layer F.SilkS)
    (effects (font (size 1 1) (thickness 0.15)))
  )
  (fp_text value JST_ZE_SM05B-ZESS-TBT_1x05-1MP_P1.50mm_Horizontal (at 0 6.68) (layer F.Fab)
    (effects (font (size 1 1) (thickness 0.15)))
  )
  (fp_line (start -6 -2.025) (end 6 -2.025) (layer F.Fab) (width 0.1))
  (fp_line (start -6.11 -0.035) (end -6.11 -2.135) (layer F.SilkS) (width 0.12))
  (fp_line (start -6.11 -2.135) (end -3.66 -2.135) (layer F.SilkS) (width 0.12))
  (fp_line (start -3.66 -2.135) (end -3.66 -4.025) (layer F.SilkS) (width 0.12))
  (fp_line (start 6.11 -0.035) (end 6.11 -2.135) (layer F.SilkS) (width 0.12))
  (fp_line (start 6.11 -2.135) (end 3.66 -2.135) (layer F.SilkS) (width 0.12))
  (fp_line (start -6.11 4.285) (end -6.11 5.585) (layer F.SilkS) (width 0.12))
  (fp_line (start -6.11 5.585) (end 6.11 5.585) (layer F.SilkS) (width 0.12))
  (fp_line (start 6.11 5.585) (end 6.11 4.285) (layer F.SilkS) (width 0.12))
  (fp_line (start -6 5.475) (end 6 5.475) (layer F.Fab) (width 0.1))
  (fp_line (start -6 -2.025) (end -6 5.475) (layer F.Fab) (width 0.1))
  (fp_line (start 6 -2.025) (end 6 5.475) (layer F.Fab) (width 0.1))
  (fp_line (start -7 -4.52) (end -7 5.98) (layer F.CrtYd) (width 0.05))
  (fp_line (start -7 5.98) (end 7 5.98) (layer F.CrtYd) (width 0.05))
  (fp_line (start 7 5.98) (end 7 -4.52) (layer F.CrtYd) (width 0.05))
  (fp_line (start 7 -4.52) (end -7 -4.52) (layer F.CrtYd) (width 0.05))
  (fp_line (start -3.5 -2.025) (end -3 -1.317893) (layer F.Fab) (width 0.1))
  (fp_line (start -3 -1.317893) (end -2.5 -2.025) (layer F.Fab) (width 0.1))
  (pad 1 smd rect (at -3 -2.575) (size 0.8 2.9) (layers F.Cu F.Mask F.Paste))
  (pad 2 smd rect (at -1.5 -2.575) (size 0.8 2.9) (layers F.Cu F.Mask F.Paste))
  (pad 3 smd rect (at 0 -2.575) (size 0.8 2.9) (layers F.Cu F.Mask F.Paste))
  (pad 4 smd rect (at 1.5 -2.575) (size 0.8 2.9) (layers F.Cu F.Mask F.Paste))
  (pad 5 smd rect (at 3 -2.575) (size 0.8 2.9) (layers F.Cu F.Mask F.Paste))
  (pad MP smd rect (at -5.6 2.125) (size 1.8 3.8) (layers F.Cu F.Mask F.Paste))
  (pad MP smd rect (at 5.6 2.125) (size 1.8 3.8) (layers F.Cu F.Mask F.Paste))
  (fp_text user %R (at 0 0) (layer F.Fab)
    (effects (font (size 1 1) (thickness 0.15)))
  )
  (model ${KIPRJMOD}/kicad_libs_k/models_k.3d/Connector_JST_k.3dshapes/JST_ZE_SM05B-ZESS-TBT_1x05-1MP_P1.50mm_Horizontal_k.wrl
    (at (xyz 0 0 0))
    (scale (xyz 1 1 1))
    (rotate (xyz 0 0 0))
  )
)