(module JST_SH_SM06B-SRSS-TB_1x06-1MP_P1.00mm_Horizontal (layer F.Cu) (tedit 5AA47E63)
  (descr "JST SH series connector, SM06B-SRSS-TB (http://www.jst-mfg.com/product/pdf/eng/eSH.pdf), generated with kicad-footprint-generator")
  (tags "connector JST SH top entry")
  (attr smd)
  (fp_text reference REF** (at 0 -3.98) (layer F.SilkS)
    (effects (font (size 1 1) (thickness 0.15)))
  )
  (fp_text value JST_SH_SM06B-SRSS-TB_1x06-1MP_P1.00mm_Horizontal (at 0 3.98) (layer F.Fab)
    (effects (font (size 1 1) (thickness 0.15)))
  )
  (fp_line (start -4 -1.675) (end 4 -1.675) (layer F.Fab) (width 0.1))
  (fp_line (start -4.11 0.715) (end -4.11 -1.785) (layer F.SilkS) (width 0.12))
  (fp_line (start -4.11 -1.785) (end -3.06 -1.785) (layer F.SilkS) (width 0.12))
  (fp_line (start -3.06 -1.785) (end -3.06 -2.775) (layer F.SilkS) (width 0.12))
  (fp_line (start 4.11 0.715) (end 4.11 -1.785) (layer F.SilkS) (width 0.12))
  (fp_line (start 4.11 -1.785) (end 3.06 -1.785) (layer F.SilkS) (width 0.12))
  (fp_line (start -2.94 2.685) (end 2.94 2.685) (layer F.SilkS) (width 0.12))
  (fp_line (start -4 2.575) (end 4 2.575) (layer F.Fab) (width 0.1))
  (fp_line (start -4 -1.675) (end -4 2.575) (layer F.Fab) (width 0.1))
  (fp_line (start 4 -1.675) (end 4 2.575) (layer F.Fab) (width 0.1))
  (fp_line (start -4.9 -3.28) (end -4.9 3.28) (layer F.CrtYd) (width 0.05))
  (fp_line (start -4.9 3.28) (end 4.9 3.28) (layer F.CrtYd) (width 0.05))
  (fp_line (start 4.9 3.28) (end 4.9 -3.28) (layer F.CrtYd) (width 0.05))
  (fp_line (start 4.9 -3.28) (end -4.9 -3.28) (layer F.CrtYd) (width 0.05))
  (fp_line (start -3 -1.675) (end -2.5 -0.967893) (layer F.Fab) (width 0.1))
  (fp_line (start -2.5 -0.967893) (end -2 -1.675) (layer F.Fab) (width 0.1))
  (pad 1 smd rect (at -2.5 -2) (size 0.6 1.55) (layers F.Cu F.Mask F.Paste))
  (pad 2 smd rect (at -1.5 -2) (size 0.6 1.55) (layers F.Cu F.Mask F.Paste))
  (pad 3 smd rect (at -0.5 -2) (size 0.6 1.55) (layers F.Cu F.Mask F.Paste))
  (pad 4 smd rect (at 0.5 -2) (size 0.6 1.55) (layers F.Cu F.Mask F.Paste))
  (pad 5 smd rect (at 1.5 -2) (size 0.6 1.55) (layers F.Cu F.Mask F.Paste))
  (pad 6 smd rect (at 2.5 -2) (size 0.6 1.55) (layers F.Cu F.Mask F.Paste))
  (pad MP smd rect (at -3.8 1.875) (size 1.2 1.8) (layers F.Cu F.Mask F.Paste))
  (pad MP smd rect (at 3.8 1.875) (size 1.2 1.8) (layers F.Cu F.Mask F.Paste))
  (fp_text user %R (at 0 0) (layer F.Fab)
    (effects (font (size 1 1) (thickness 0.15)))
  )
  (model ${KIPRJMOD}/kicad_libs_k/models_k.3d/Connector_JST_k.3dshapes/JST_SH_SM06B-SRSS-TB_1x06-1MP_P1.00mm_Horizontal_k.wrl
    (at (xyz 0 0 0))
    (scale (xyz 1 1 1))
    (rotate (xyz 0 0 0))
  )
)