(module JST_ZE_B13B-ZESK-D_1x13_P1.50mm_Vertical (layer F.Cu) (tedit 5A103FE6)
  (descr "JST ZE series connector, B13B-ZESK-D (http://www.jst-mfg.com/product/pdf/eng/eZE.pdf), generated with kicad-footprint-generator")
  (tags "connector JST ZE side entry")
  (fp_text reference REF** (at 9 -6.3) (layer F.SilkS)
    (effects (font (size 1 1) (thickness 0.15)))
  )
  (fp_text value JST_ZE_B13B-ZESK-D_1x13_P1.50mm_Vertical (at 9 1.85) (layer F.Fab)
    (effects (font (size 1 1) (thickness 0.15)))
  )
  (fp_line (start -2.25 -5.1) (end -2.25 0.65) (layer F.Fab) (width 0.1))
  (fp_line (start -2.25 0.65) (end 20.25 0.65) (layer F.Fab) (width 0.1))
  (fp_line (start 20.25 0.65) (end 20.25 -5.1) (layer F.Fab) (width 0.1))
  (fp_line (start 20.25 -5.1) (end -2.25 -5.1) (layer F.Fab) (width 0.1))
  (fp_line (start -2.75 -5.6) (end -2.75 1.15) (layer F.CrtYd) (width 0.05))
  (fp_line (start -2.75 1.15) (end 20.75 1.15) (layer F.CrtYd) (width 0.05))
  (fp_line (start 20.75 1.15) (end 20.75 -5.6) (layer F.CrtYd) (width 0.05))
  (fp_line (start 20.75 -5.6) (end -2.75 -5.6) (layer F.CrtYd) (width 0.05))
  (fp_line (start -0.96 0.76) (end -2.36 0.76) (layer F.SilkS) (width 0.12))
  (fp_line (start -2.36 0.76) (end -2.36 -5.21) (layer F.SilkS) (width 0.12))
  (fp_line (start -2.36 -5.21) (end 20.36 -5.21) (layer F.SilkS) (width 0.12))
  (fp_line (start 20.36 -5.21) (end 20.36 0.76) (layer F.SilkS) (width 0.12))
  (fp_line (start 20.36 0.76) (end 18.96 0.76) (layer F.SilkS) (width 0.12))
  (fp_line (start 0.96 0.76) (end 2.04 0.76) (layer F.SilkS) (width 0.12))
  (fp_line (start 3.96 0.76) (end 5.04 0.76) (layer F.SilkS) (width 0.12))
  (fp_line (start 6.96 0.76) (end 8.04 0.76) (layer F.SilkS) (width 0.12))
  (fp_line (start 9.96 0.76) (end 11.04 0.76) (layer F.SilkS) (width 0.12))
  (fp_line (start 12.96 0.76) (end 14.04 0.76) (layer F.SilkS) (width 0.12))
  (fp_line (start 15.96 0.76) (end 17.04 0.76) (layer F.SilkS) (width 0.12))
  (fp_line (start -0.14 -5.21) (end -0.14 -3.51) (layer F.SilkS) (width 0.12))
  (fp_line (start -0.14 -3.51) (end 18.14 -3.51) (layer F.SilkS) (width 0.12))
  (fp_line (start 18.14 -3.51) (end 18.14 -5.21) (layer F.SilkS) (width 0.12))
  (fp_line (start 18.14 -5.21) (end -0.14 -5.21) (layer F.SilkS) (width 0.12))
  (fp_line (start 0.26 -4.81) (end 0.26 -3.91) (layer F.SilkS) (width 0.12))
  (fp_line (start 0.26 -3.91) (end 17.74 -3.91) (layer F.SilkS) (width 0.12))
  (fp_line (start 17.74 -3.91) (end 17.74 -4.81) (layer F.SilkS) (width 0.12))
  (fp_line (start 17.74 -4.81) (end 0.26 -4.81) (layer F.SilkS) (width 0.12))
  (fp_line (start -0.14 -3.51) (end -1.56 -3.51) (layer F.SilkS) (width 0.12))
  (fp_line (start -1.56 -3.51) (end -1.56 -0.04) (layer F.SilkS) (width 0.12))
  (fp_line (start -1.56 -0.04) (end -1 -0.04) (layer F.SilkS) (width 0.12))
  (fp_line (start 18.14 -3.51) (end 19.56 -3.51) (layer F.SilkS) (width 0.12))
  (fp_line (start 19.56 -3.51) (end 19.56 -0.04) (layer F.SilkS) (width 0.12))
  (fp_line (start 19.56 -0.04) (end 19 -0.04) (layer F.SilkS) (width 0.12))
  (fp_line (start 1.135 -0.04) (end 1.865 -0.04) (layer F.SilkS) (width 0.12))
  (fp_line (start 4.135 -0.04) (end 4.865 -0.04) (layer F.SilkS) (width 0.12))
  (fp_line (start 7.135 -0.04) (end 7.865 -0.04) (layer F.SilkS) (width 0.12))
  (fp_line (start 10.135 -0.04) (end 10.865 -0.04) (layer F.SilkS) (width 0.12))
  (fp_line (start 13.135 -0.04) (end 13.865 -0.04) (layer F.SilkS) (width 0.12))
  (fp_line (start 16.135 -0.04) (end 16.865 -0.04) (layer F.SilkS) (width 0.12))
  (fp_line (start -2.66 -0.44) (end -2.66 1.06) (layer F.SilkS) (width 0.12))
  (fp_line (start -2.66 1.06) (end -1.16 1.06) (layer F.SilkS) (width 0.12))
  (fp_line (start -2.66 -0.44) (end -2.66 1.06) (layer F.Fab) (width 0.1))
  (fp_line (start -2.66 1.06) (end -1.16 1.06) (layer F.Fab) (width 0.1))
  (pad 1 thru_hole oval (at 0 0) (size 1.4 1.75) (drill 0.75) (layers *.Cu *.Mask))
  (pad 1 smd rect (at -0.35 0) (size 0.7 1.75) (layers F.Cu F.Mask))
  (pad 1 smd rect (at -0.35 0) (size 0.7 1.75) (layers B.Cu B.Mask))
  (pad 3 thru_hole oval (at 3 0) (size 1.4 1.75) (drill 0.75) (layers *.Cu *.Mask))
  (pad 5 thru_hole oval (at 6 0) (size 1.4 1.75) (drill 0.75) (layers *.Cu *.Mask))
  (pad 7 thru_hole oval (at 9 0) (size 1.4 1.75) (drill 0.75) (layers *.Cu *.Mask))
  (pad 9 thru_hole oval (at 12 0) (size 1.4 1.75) (drill 0.75) (layers *.Cu *.Mask))
  (pad 11 thru_hole oval (at 15 0) (size 1.4 1.75) (drill 0.75) (layers *.Cu *.Mask))
  (pad 13 thru_hole oval (at 18 0) (size 1.4 1.75) (drill 0.75) (layers *.Cu *.Mask))
  (pad 2 thru_hole oval (at 1.5 -2) (size 1.4 1.75) (drill 0.75) (layers *.Cu *.Mask))
  (pad 4 thru_hole oval (at 4.5 -2) (size 1.4 1.75) (drill 0.75) (layers *.Cu *.Mask))
  (pad 6 thru_hole oval (at 7.5 -2) (size 1.4 1.75) (drill 0.75) (layers *.Cu *.Mask))
  (pad 8 thru_hole oval (at 10.5 -2) (size 1.4 1.75) (drill 0.75) (layers *.Cu *.Mask))
  (pad 10 thru_hole oval (at 13.5 -2) (size 1.4 1.75) (drill 0.75) (layers *.Cu *.Mask))
  (pad 12 thru_hole oval (at 16.5 -2) (size 1.4 1.75) (drill 0.75) (layers *.Cu *.Mask))
  (fp_text user %R (at 9 -4.4) (layer F.Fab)
    (effects (font (size 1 1) (thickness 0.15)))
  )
  (model ${KIPRJMOD}/kicad_libs_k/models_k.3d/Connector_JST_k.3dshapes/JST_ZE_B13B-ZESK-D_1x13_P1.50mm_Vertical_k.wrl
    (at (xyz 0 0 0))
    (scale (xyz 1 1 1))
    (rotate (xyz 0 0 0))
  )
)