(module JST_XH_S07B-XH-A-1_1x07_P2.50mm_Horizontal (layer F.Cu) (tedit 5A0F0EAA)
  (descr "JST XH series connector, S07B-XH-A-1 (http://www.jst-mfg.com/product/pdf/eng/eXH.pdf), generated with kicad-footprint-generator")
  (tags "connector JST XH top entry")
  (fp_text reference REF** (at 7.5 -5.1) (layer F.SilkS)
    (effects (font (size 1 1) (thickness 0.15)))
  )
  (fp_text value JST_XH_S07B-XH-A-1_1x07_P2.50mm_Horizontal (at 7.5 8.8) (layer F.Fab)
    (effects (font (size 1 1) (thickness 0.15)))
  )
  (fp_line (start -2.95 -4.4) (end -2.95 8.1) (layer F.CrtYd) (width 0.05))
  (fp_line (start -2.95 8.1) (end 17.95 8.1) (layer F.CrtYd) (width 0.05))
  (fp_line (start 17.95 8.1) (end 17.95 -4.4) (layer F.CrtYd) (width 0.05))
  (fp_line (start 17.95 -4.4) (end -2.95 -4.4) (layer F.CrtYd) (width 0.05))
  (fp_line (start 7.5 7.71) (end -2.56 7.71) (layer F.SilkS) (width 0.12))
  (fp_line (start -2.56 7.71) (end -2.56 -4.01) (layer F.SilkS) (width 0.12))
  (fp_line (start -2.56 -4.01) (end -1.14 -4.01) (layer F.SilkS) (width 0.12))
  (fp_line (start -1.14 -4.01) (end -1.14 0.49) (layer F.SilkS) (width 0.12))
  (fp_line (start 7.5 7.71) (end 17.56 7.71) (layer F.SilkS) (width 0.12))
  (fp_line (start 17.56 7.71) (end 17.56 -4.01) (layer F.SilkS) (width 0.12))
  (fp_line (start 17.56 -4.01) (end 16.14 -4.01) (layer F.SilkS) (width 0.12))
  (fp_line (start 16.14 -4.01) (end 16.14 0.49) (layer F.SilkS) (width 0.12))
  (fp_line (start 7.5 7.6) (end -2.45 7.6) (layer F.Fab) (width 0.1))
  (fp_line (start -2.45 7.6) (end -2.45 -3.9) (layer F.Fab) (width 0.1))
  (fp_line (start -2.45 -3.9) (end -1.25 -3.9) (layer F.Fab) (width 0.1))
  (fp_line (start -1.25 -3.9) (end -1.25 0.6) (layer F.Fab) (width 0.1))
  (fp_line (start -1.25 0.6) (end 7.5 0.6) (layer F.Fab) (width 0.1))
  (fp_line (start 7.5 7.6) (end 17.45 7.6) (layer F.Fab) (width 0.1))
  (fp_line (start 17.45 7.6) (end 17.45 -3.9) (layer F.Fab) (width 0.1))
  (fp_line (start 17.45 -3.9) (end 16.25 -3.9) (layer F.Fab) (width 0.1))
  (fp_line (start 16.25 -3.9) (end 16.25 0.6) (layer F.Fab) (width 0.1))
  (fp_line (start 16.25 0.6) (end 7.5 0.6) (layer F.Fab) (width 0.1))
  (fp_line (start -0.25 1.6) (end -0.25 7.1) (layer F.SilkS) (width 0.12))
  (fp_line (start -0.25 7.1) (end 0.25 7.1) (layer F.SilkS) (width 0.12))
  (fp_line (start 0.25 7.1) (end 0.25 1.6) (layer F.SilkS) (width 0.12))
  (fp_line (start 0.25 1.6) (end -0.25 1.6) (layer F.SilkS) (width 0.12))
  (fp_line (start 2.25 1.6) (end 2.25 7.1) (layer F.SilkS) (width 0.12))
  (fp_line (start 2.25 7.1) (end 2.75 7.1) (layer F.SilkS) (width 0.12))
  (fp_line (start 2.75 7.1) (end 2.75 1.6) (layer F.SilkS) (width 0.12))
  (fp_line (start 2.75 1.6) (end 2.25 1.6) (layer F.SilkS) (width 0.12))
  (fp_line (start 4.75 1.6) (end 4.75 7.1) (layer F.SilkS) (width 0.12))
  (fp_line (start 4.75 7.1) (end 5.25 7.1) (layer F.SilkS) (width 0.12))
  (fp_line (start 5.25 7.1) (end 5.25 1.6) (layer F.SilkS) (width 0.12))
  (fp_line (start 5.25 1.6) (end 4.75 1.6) (layer F.SilkS) (width 0.12))
  (fp_line (start 7.25 1.6) (end 7.25 7.1) (layer F.SilkS) (width 0.12))
  (fp_line (start 7.25 7.1) (end 7.75 7.1) (layer F.SilkS) (width 0.12))
  (fp_line (start 7.75 7.1) (end 7.75 1.6) (layer F.SilkS) (width 0.12))
  (fp_line (start 7.75 1.6) (end 7.25 1.6) (layer F.SilkS) (width 0.12))
  (fp_line (start 9.75 1.6) (end 9.75 7.1) (layer F.SilkS) (width 0.12))
  (fp_line (start 9.75 7.1) (end 10.25 7.1) (layer F.SilkS) (width 0.12))
  (fp_line (start 10.25 7.1) (end 10.25 1.6) (layer F.SilkS) (width 0.12))
  (fp_line (start 10.25 1.6) (end 9.75 1.6) (layer F.SilkS) (width 0.12))
  (fp_line (start 12.25 1.6) (end 12.25 7.1) (layer F.SilkS) (width 0.12))
  (fp_line (start 12.25 7.1) (end 12.75 7.1) (layer F.SilkS) (width 0.12))
  (fp_line (start 12.75 7.1) (end 12.75 1.6) (layer F.SilkS) (width 0.12))
  (fp_line (start 12.75 1.6) (end 12.25 1.6) (layer F.SilkS) (width 0.12))
  (fp_line (start 14.75 1.6) (end 14.75 7.1) (layer F.SilkS) (width 0.12))
  (fp_line (start 14.75 7.1) (end 15.25 7.1) (layer F.SilkS) (width 0.12))
  (fp_line (start 15.25 7.1) (end 15.25 1.6) (layer F.SilkS) (width 0.12))
  (fp_line (start 15.25 1.6) (end 14.75 1.6) (layer F.SilkS) (width 0.12))
  (fp_line (start 0 -1.5) (end -0.3 -2.1) (layer F.SilkS) (width 0.12))
  (fp_line (start -0.3 -2.1) (end 0.3 -2.1) (layer F.SilkS) (width 0.12))
  (fp_line (start 0.3 -2.1) (end 0 -1.5) (layer F.SilkS) (width 0.12))
  (fp_line (start -0.625 0.6) (end 0 -0.4) (layer F.Fab) (width 0.1))
  (fp_line (start 0 -0.4) (end 0.625 0.6) (layer F.Fab) (width 0.1))
  (pad 1 thru_hole rect (at 0 0) (size 1.7 1.95) (drill 0.95) (layers *.Cu *.Mask))
  (pad 2 thru_hole oval (at 2.5 0) (size 1.7 1.95) (drill 0.95) (layers *.Cu *.Mask))
  (pad 3 thru_hole oval (at 5 0) (size 1.7 1.95) (drill 0.95) (layers *.Cu *.Mask))
  (pad 4 thru_hole oval (at 7.5 0) (size 1.7 1.95) (drill 0.95) (layers *.Cu *.Mask))
  (pad 5 thru_hole oval (at 10 0) (size 1.7 1.95) (drill 0.95) (layers *.Cu *.Mask))
  (pad 6 thru_hole oval (at 12.5 0) (size 1.7 1.95) (drill 0.95) (layers *.Cu *.Mask))
  (pad 7 thru_hole oval (at 15 0) (size 1.7 1.95) (drill 0.95) (layers *.Cu *.Mask))
  (fp_text user %R (at 7.5 1.85) (layer F.Fab)
    (effects (font (size 1 1) (thickness 0.15)))
  )
  (model ${KIPRJMOD}/kicad_libs_k/models_k.3d/Connector_JST_k.3dshapes/JST_XH_S07B-XH-A-1_1x07_P2.50mm_Horizontal_k.wrl
    (at (xyz 0 0 0))
    (scale (xyz 1 1 1))
    (rotate (xyz 0 0 0))
  )
)