(module JST_VH_B7P-VH-FB-B_1x07_P3.96mm_Vertical (layer F.Cu) (tedit 5A0E4177)
  (descr "JST VH series connector, B7P-VH-FB-B, shrouded (http://www.jst-mfg.com/product/pdf/eng/eVH.pdf),  generated with kicad-footprint-generator")
  (tags "connector JST VH side entry")
  (fp_text reference REF** (at 11.88 -5.7) (layer F.SilkS)
    (effects (font (size 1 1) (thickness 0.15)))
  )
  (fp_text value JST_VH_B7P-VH-FB-B_1x07_P3.96mm_Vertical (at 11.88 6.4) (layer F.Fab)
    (effects (font (size 1 1) (thickness 0.15)))
  )
  (fp_line (start -2.92 5.2) (end -2.92 -4.5) (layer F.Fab) (width 0.1))
  (fp_line (start -2.92 -4.5) (end -0.02 -4.5) (layer F.Fab) (width 0.1))
  (fp_line (start -0.02 -4.5) (end -0.02 -3.3) (layer F.Fab) (width 0.1))
  (fp_line (start -0.02 -3.3) (end 23.78 -3.3) (layer F.Fab) (width 0.1))
  (fp_line (start 23.78 -3.3) (end 23.78 -4.5) (layer F.Fab) (width 0.1))
  (fp_line (start 23.78 -4.5) (end 26.68 -4.5) (layer F.Fab) (width 0.1))
  (fp_line (start 26.68 -4.5) (end 26.68 5.2) (layer F.Fab) (width 0.1))
  (fp_line (start 26.68 5.2) (end -2.92 5.2) (layer F.Fab) (width 0.1))
  (fp_line (start -2 4.3) (end -2 -2.1) (layer F.Fab) (width 0.1))
  (fp_line (start -2 -2.1) (end 25.76 -2.1) (layer F.Fab) (width 0.1))
  (fp_line (start 25.76 -2.1) (end 25.76 4.3) (layer F.Fab) (width 0.1))
  (fp_line (start 25.76 4.3) (end -2 4.3) (layer F.Fab) (width 0.1))
  (fp_line (start -2.92 -1) (end -1.92 0) (layer F.Fab) (width 0.1))
  (fp_line (start -2.92 1) (end -1.92 0) (layer F.Fab) (width 0.1))
  (fp_line (start -3.42 -5) (end -3.42 5.7) (layer F.CrtYd) (width 0.05))
  (fp_line (start -3.42 5.7) (end 27.18 5.7) (layer F.CrtYd) (width 0.05))
  (fp_line (start 27.18 5.7) (end 27.18 -5) (layer F.CrtYd) (width 0.05))
  (fp_line (start 27.18 -5) (end -3.42 -5) (layer F.CrtYd) (width 0.05))
  (fp_line (start -3.03 5.31) (end -3.03 -4.61) (layer F.SilkS) (width 0.12))
  (fp_line (start -3.03 -4.61) (end 0.09 -4.61) (layer F.SilkS) (width 0.12))
  (fp_line (start 0.09 -4.61) (end 0.09 -3.41) (layer F.SilkS) (width 0.12))
  (fp_line (start 0.09 -3.41) (end 23.67 -3.41) (layer F.SilkS) (width 0.12))
  (fp_line (start 23.67 -3.41) (end 23.67 -4.61) (layer F.SilkS) (width 0.12))
  (fp_line (start 23.67 -4.61) (end 26.79 -4.61) (layer F.SilkS) (width 0.12))
  (fp_line (start 26.79 -4.61) (end 26.79 5.31) (layer F.SilkS) (width 0.12))
  (fp_line (start 26.79 5.31) (end -3.03 5.31) (layer F.SilkS) (width 0.12))
  (fp_line (start -3.23 0) (end -3.83 0.3) (layer F.SilkS) (width 0.12))
  (fp_line (start -3.83 0.3) (end -3.83 -0.3) (layer F.SilkS) (width 0.12))
  (fp_line (start -3.83 -0.3) (end -3.23 0) (layer F.SilkS) (width 0.12))
  (pad 1 thru_hole rect (at 0 0) (size 2.7 2.7) (drill 1.7) (layers *.Cu *.Mask))
  (pad 2 thru_hole circle (at 3.96 0) (size 2.7 2.7) (drill 1.7) (layers *.Cu *.Mask))
  (pad 3 thru_hole circle (at 7.92 0) (size 2.7 2.7) (drill 1.7) (layers *.Cu *.Mask))
  (pad 4 thru_hole circle (at 11.88 0) (size 2.7 2.7) (drill 1.7) (layers *.Cu *.Mask))
  (pad 5 thru_hole circle (at 15.84 0) (size 2.7 2.7) (drill 1.7) (layers *.Cu *.Mask))
  (pad 6 thru_hole circle (at 19.8 0) (size 2.7 2.7) (drill 1.7) (layers *.Cu *.Mask))
  (pad 7 thru_hole circle (at 23.76 0) (size 2.7 2.7) (drill 1.7) (layers *.Cu *.Mask))
  (pad "" np_thru_hole circle (at -1.5 -3.4) (size 1.45 1.45) (drill 1.45) (layers *.Cu *.Mask))
  (fp_text user %R (at 11.88 2.5) (layer F.Fab)
    (effects (font (size 1 1) (thickness 0.15)))
  )
  (model ${KIPRJMOD}/kicad_libs_k/models_k.3d/Connector_JST_k.3dshapes/JST_VH_B7P-VH-FB-B_1x07_P3.96mm_Vertical_k.wrl
    (at (xyz 0 0 0))
    (scale (xyz 1 1 1))
    (rotate (xyz 0 0 0))
  )
)