(module JST_EH_S16B-EH_1x16_P2.50mm_Horizontal (layer F.Cu) (tedit 5A0EBB2C)
  (descr "JST EH series connector, S16B-EH (http://www.jst-mfg.com/product/pdf/eng/eEH.pdf), generated with kicad-footprint-generator")
  (tags "connector JST EH top entry")
  (fp_text reference REF** (at 18.75 -7.9) (layer F.SilkS)
    (effects (font (size 1 1) (thickness 0.15)))
  )
  (fp_text value JST_EH_S16B-EH_1x16_P2.50mm_Horizontal (at 18.75 2.7) (layer F.Fab)
    (effects (font (size 1 1) (thickness 0.15)))
  )
  (fp_line (start -1.5 -0.7) (end -1.5 1.5) (layer F.Fab) (width 0.1))
  (fp_line (start -1.5 1.5) (end -2.5 1.5) (layer F.Fab) (width 0.1))
  (fp_line (start -2.5 1.5) (end -2.5 -6.7) (layer F.Fab) (width 0.1))
  (fp_line (start -2.5 -6.7) (end 40 -6.7) (layer F.Fab) (width 0.1))
  (fp_line (start 40 -6.7) (end 40 1.5) (layer F.Fab) (width 0.1))
  (fp_line (start 40 1.5) (end 39 1.5) (layer F.Fab) (width 0.1))
  (fp_line (start 39 1.5) (end 39 -0.7) (layer F.Fab) (width 0.1))
  (fp_line (start 39 -0.7) (end -1.5 -0.7) (layer F.Fab) (width 0.1))
  (fp_line (start -3 -7.2) (end -3 2) (layer F.CrtYd) (width 0.05))
  (fp_line (start -3 2) (end 40.5 2) (layer F.CrtYd) (width 0.05))
  (fp_line (start 40.5 2) (end 40.5 -7.2) (layer F.CrtYd) (width 0.05))
  (fp_line (start 40.5 -7.2) (end -3 -7.2) (layer F.CrtYd) (width 0.05))
  (fp_line (start -1.39 -0.59) (end -1.39 1.61) (layer F.SilkS) (width 0.12))
  (fp_line (start -1.39 1.61) (end -2.61 1.61) (layer F.SilkS) (width 0.12))
  (fp_line (start -2.61 1.61) (end -2.61 -6.81) (layer F.SilkS) (width 0.12))
  (fp_line (start -2.61 -6.81) (end 40.11 -6.81) (layer F.SilkS) (width 0.12))
  (fp_line (start 40.11 -6.81) (end 40.11 1.61) (layer F.SilkS) (width 0.12))
  (fp_line (start 40.11 1.61) (end 38.89 1.61) (layer F.SilkS) (width 0.12))
  (fp_line (start 38.89 1.61) (end 38.89 -0.59) (layer F.SilkS) (width 0.12))
  (fp_line (start -2.61 -5.59) (end -1.39 -5.59) (layer F.SilkS) (width 0.12))
  (fp_line (start -1.39 -5.59) (end -1.39 -0.59) (layer F.SilkS) (width 0.12))
  (fp_line (start -1.39 -0.59) (end -2.61 -0.59) (layer F.SilkS) (width 0.12))
  (fp_line (start 40.11 -5.59) (end 38.89 -5.59) (layer F.SilkS) (width 0.12))
  (fp_line (start 38.89 -5.59) (end 38.89 -0.59) (layer F.SilkS) (width 0.12))
  (fp_line (start 38.89 -0.59) (end 40.11 -0.59) (layer F.SilkS) (width 0.12))
  (fp_line (start -1.39 -1.59) (end 38.89 -1.59) (layer F.SilkS) (width 0.12))
  (fp_line (start 0 -1.59) (end -0.32 -1.59) (layer F.SilkS) (width 0.12))
  (fp_line (start -0.32 -1.59) (end -0.32 -5.01) (layer F.SilkS) (width 0.12))
  (fp_line (start -0.32 -5.01) (end 0 -5.09) (layer F.SilkS) (width 0.12))
  (fp_line (start 0 -5.09) (end 0.32 -5.01) (layer F.SilkS) (width 0.12))
  (fp_line (start 0.32 -5.01) (end 0.32 -1.59) (layer F.SilkS) (width 0.12))
  (fp_line (start 0.32 -1.59) (end 0 -1.59) (layer F.SilkS) (width 0.12))
  (fp_line (start 1.17 -0.59) (end 1.33 -0.59) (layer F.SilkS) (width 0.12))
  (fp_line (start 2.5 -1.59) (end 2.18 -1.59) (layer F.SilkS) (width 0.12))
  (fp_line (start 2.18 -1.59) (end 2.18 -5.01) (layer F.SilkS) (width 0.12))
  (fp_line (start 2.18 -5.01) (end 2.5 -5.09) (layer F.SilkS) (width 0.12))
  (fp_line (start 2.5 -5.09) (end 2.82 -5.01) (layer F.SilkS) (width 0.12))
  (fp_line (start 2.82 -5.01) (end 2.82 -1.59) (layer F.SilkS) (width 0.12))
  (fp_line (start 2.82 -1.59) (end 2.5 -1.59) (layer F.SilkS) (width 0.12))
  (fp_line (start 3.67 -0.59) (end 3.83 -0.59) (layer F.SilkS) (width 0.12))
  (fp_line (start 5 -1.59) (end 4.68 -1.59) (layer F.SilkS) (width 0.12))
  (fp_line (start 4.68 -1.59) (end 4.68 -5.01) (layer F.SilkS) (width 0.12))
  (fp_line (start 4.68 -5.01) (end 5 -5.09) (layer F.SilkS) (width 0.12))
  (fp_line (start 5 -5.09) (end 5.32 -5.01) (layer F.SilkS) (width 0.12))
  (fp_line (start 5.32 -5.01) (end 5.32 -1.59) (layer F.SilkS) (width 0.12))
  (fp_line (start 5.32 -1.59) (end 5 -1.59) (layer F.SilkS) (width 0.12))
  (fp_line (start 6.17 -0.59) (end 6.33 -0.59) (layer F.SilkS) (width 0.12))
  (fp_line (start 7.5 -1.59) (end 7.18 -1.59) (layer F.SilkS) (width 0.12))
  (fp_line (start 7.18 -1.59) (end 7.18 -5.01) (layer F.SilkS) (width 0.12))
  (fp_line (start 7.18 -5.01) (end 7.5 -5.09) (layer F.SilkS) (width 0.12))
  (fp_line (start 7.5 -5.09) (end 7.82 -5.01) (layer F.SilkS) (width 0.12))
  (fp_line (start 7.82 -5.01) (end 7.82 -1.59) (layer F.SilkS) (width 0.12))
  (fp_line (start 7.82 -1.59) (end 7.5 -1.59) (layer F.SilkS) (width 0.12))
  (fp_line (start 8.67 -0.59) (end 8.83 -0.59) (layer F.SilkS) (width 0.12))
  (fp_line (start 10 -1.59) (end 9.68 -1.59) (layer F.SilkS) (width 0.12))
  (fp_line (start 9.68 -1.59) (end 9.68 -5.01) (layer F.SilkS) (width 0.12))
  (fp_line (start 9.68 -5.01) (end 10 -5.09) (layer F.SilkS) (width 0.12))
  (fp_line (start 10 -5.09) (end 10.32 -5.01) (layer F.SilkS) (width 0.12))
  (fp_line (start 10.32 -5.01) (end 10.32 -1.59) (layer F.SilkS) (width 0.12))
  (fp_line (start 10.32 -1.59) (end 10 -1.59) (layer F.SilkS) (width 0.12))
  (fp_line (start 11.17 -0.59) (end 11.33 -0.59) (layer F.SilkS) (width 0.12))
  (fp_line (start 12.5 -1.59) (end 12.18 -1.59) (layer F.SilkS) (width 0.12))
  (fp_line (start 12.18 -1.59) (end 12.18 -5.01) (layer F.SilkS) (width 0.12))
  (fp_line (start 12.18 -5.01) (end 12.5 -5.09) (layer F.SilkS) (width 0.12))
  (fp_line (start 12.5 -5.09) (end 12.82 -5.01) (layer F.SilkS) (width 0.12))
  (fp_line (start 12.82 -5.01) (end 12.82 -1.59) (layer F.SilkS) (width 0.12))
  (fp_line (start 12.82 -1.59) (end 12.5 -1.59) (layer F.SilkS) (width 0.12))
  (fp_line (start 13.67 -0.59) (end 13.83 -0.59) (layer F.SilkS) (width 0.12))
  (fp_line (start 15 -1.59) (end 14.68 -1.59) (layer F.SilkS) (width 0.12))
  (fp_line (start 14.68 -1.59) (end 14.68 -5.01) (layer F.SilkS) (width 0.12))
  (fp_line (start 14.68 -5.01) (end 15 -5.09) (layer F.SilkS) (width 0.12))
  (fp_line (start 15 -5.09) (end 15.32 -5.01) (layer F.SilkS) (width 0.12))
  (fp_line (start 15.32 -5.01) (end 15.32 -1.59) (layer F.SilkS) (width 0.12))
  (fp_line (start 15.32 -1.59) (end 15 -1.59) (layer F.SilkS) (width 0.12))
  (fp_line (start 16.17 -0.59) (end 16.33 -0.59) (layer F.SilkS) (width 0.12))
  (fp_line (start 17.5 -1.59) (end 17.18 -1.59) (layer F.SilkS) (width 0.12))
  (fp_line (start 17.18 -1.59) (end 17.18 -5.01) (layer F.SilkS) (width 0.12))
  (fp_line (start 17.18 -5.01) (end 17.5 -5.09) (layer F.SilkS) (width 0.12))
  (fp_line (start 17.5 -5.09) (end 17.82 -5.01) (layer F.SilkS) (width 0.12))
  (fp_line (start 17.82 -5.01) (end 17.82 -1.59) (layer F.SilkS) (width 0.12))
  (fp_line (start 17.82 -1.59) (end 17.5 -1.59) (layer F.SilkS) (width 0.12))
  (fp_line (start 18.67 -0.59) (end 18.83 -0.59) (layer F.SilkS) (width 0.12))
  (fp_line (start 20 -1.59) (end 19.68 -1.59) (layer F.SilkS) (width 0.12))
  (fp_line (start 19.68 -1.59) (end 19.68 -5.01) (layer F.SilkS) (width 0.12))
  (fp_line (start 19.68 -5.01) (end 20 -5.09) (layer F.SilkS) (width 0.12))
  (fp_line (start 20 -5.09) (end 20.32 -5.01) (layer F.SilkS) (width 0.12))
  (fp_line (start 20.32 -5.01) (end 20.32 -1.59) (layer F.SilkS) (width 0.12))
  (fp_line (start 20.32 -1.59) (end 20 -1.59) (layer F.SilkS) (width 0.12))
  (fp_line (start 21.17 -0.59) (end 21.33 -0.59) (layer F.SilkS) (width 0.12))
  (fp_line (start 22.5 -1.59) (end 22.18 -1.59) (layer F.SilkS) (width 0.12))
  (fp_line (start 22.18 -1.59) (end 22.18 -5.01) (layer F.SilkS) (width 0.12))
  (fp_line (start 22.18 -5.01) (end 22.5 -5.09) (layer F.SilkS) (width 0.12))
  (fp_line (start 22.5 -5.09) (end 22.82 -5.01) (layer F.SilkS) (width 0.12))
  (fp_line (start 22.82 -5.01) (end 22.82 -1.59) (layer F.SilkS) (width 0.12))
  (fp_line (start 22.82 -1.59) (end 22.5 -1.59) (layer F.SilkS) (width 0.12))
  (fp_line (start 23.67 -0.59) (end 23.83 -0.59) (layer F.SilkS) (width 0.12))
  (fp_line (start 25 -1.59) (end 24.68 -1.59) (layer F.SilkS) (width 0.12))
  (fp_line (start 24.68 -1.59) (end 24.68 -5.01) (layer F.SilkS) (width 0.12))
  (fp_line (start 24.68 -5.01) (end 25 -5.09) (layer F.SilkS) (width 0.12))
  (fp_line (start 25 -5.09) (end 25.32 -5.01) (layer F.SilkS) (width 0.12))
  (fp_line (start 25.32 -5.01) (end 25.32 -1.59) (layer F.SilkS) (width 0.12))
  (fp_line (start 25.32 -1.59) (end 25 -1.59) (layer F.SilkS) (width 0.12))
  (fp_line (start 26.17 -0.59) (end 26.33 -0.59) (layer F.SilkS) (width 0.12))
  (fp_line (start 27.5 -1.59) (end 27.18 -1.59) (layer F.SilkS) (width 0.12))
  (fp_line (start 27.18 -1.59) (end 27.18 -5.01) (layer F.SilkS) (width 0.12))
  (fp_line (start 27.18 -5.01) (end 27.5 -5.09) (layer F.SilkS) (width 0.12))
  (fp_line (start 27.5 -5.09) (end 27.82 -5.01) (layer F.SilkS) (width 0.12))
  (fp_line (start 27.82 -5.01) (end 27.82 -1.59) (layer F.SilkS) (width 0.12))
  (fp_line (start 27.82 -1.59) (end 27.5 -1.59) (layer F.SilkS) (width 0.12))
  (fp_line (start 28.67 -0.59) (end 28.83 -0.59) (layer F.SilkS) (width 0.12))
  (fp_line (start 30 -1.59) (end 29.68 -1.59) (layer F.SilkS) (width 0.12))
  (fp_line (start 29.68 -1.59) (end 29.68 -5.01) (layer F.SilkS) (width 0.12))
  (fp_line (start 29.68 -5.01) (end 30 -5.09) (layer F.SilkS) (width 0.12))
  (fp_line (start 30 -5.09) (end 30.32 -5.01) (layer F.SilkS) (width 0.12))
  (fp_line (start 30.32 -5.01) (end 30.32 -1.59) (layer F.SilkS) (width 0.12))
  (fp_line (start 30.32 -1.59) (end 30 -1.59) (layer F.SilkS) (width 0.12))
  (fp_line (start 31.17 -0.59) (end 31.33 -0.59) (layer F.SilkS) (width 0.12))
  (fp_line (start 32.5 -1.59) (end 32.18 -1.59) (layer F.SilkS) (width 0.12))
  (fp_line (start 32.18 -1.59) (end 32.18 -5.01) (layer F.SilkS) (width 0.12))
  (fp_line (start 32.18 -5.01) (end 32.5 -5.09) (layer F.SilkS) (width 0.12))
  (fp_line (start 32.5 -5.09) (end 32.82 -5.01) (layer F.SilkS) (width 0.12))
  (fp_line (start 32.82 -5.01) (end 32.82 -1.59) (layer F.SilkS) (width 0.12))
  (fp_line (start 32.82 -1.59) (end 32.5 -1.59) (layer F.SilkS) (width 0.12))
  (fp_line (start 33.67 -0.59) (end 33.83 -0.59) (layer F.SilkS) (width 0.12))
  (fp_line (start 35 -1.59) (end 34.68 -1.59) (layer F.SilkS) (width 0.12))
  (fp_line (start 34.68 -1.59) (end 34.68 -5.01) (layer F.SilkS) (width 0.12))
  (fp_line (start 34.68 -5.01) (end 35 -5.09) (layer F.SilkS) (width 0.12))
  (fp_line (start 35 -5.09) (end 35.32 -5.01) (layer F.SilkS) (width 0.12))
  (fp_line (start 35.32 -5.01) (end 35.32 -1.59) (layer F.SilkS) (width 0.12))
  (fp_line (start 35.32 -1.59) (end 35 -1.59) (layer F.SilkS) (width 0.12))
  (fp_line (start 36.17 -0.59) (end 36.33 -0.59) (layer F.SilkS) (width 0.12))
  (fp_line (start 37.5 -1.59) (end 37.18 -1.59) (layer F.SilkS) (width 0.12))
  (fp_line (start 37.18 -1.59) (end 37.18 -5.01) (layer F.SilkS) (width 0.12))
  (fp_line (start 37.18 -5.01) (end 37.5 -5.09) (layer F.SilkS) (width 0.12))
  (fp_line (start 37.5 -5.09) (end 37.82 -5.01) (layer F.SilkS) (width 0.12))
  (fp_line (start 37.82 -5.01) (end 37.82 -1.59) (layer F.SilkS) (width 0.12))
  (fp_line (start 37.82 -1.59) (end 37.5 -1.59) (layer F.SilkS) (width 0.12))
  (fp_line (start 0 1.5) (end -0.3 2.1) (layer F.SilkS) (width 0.12))
  (fp_line (start -0.3 2.1) (end 0.3 2.1) (layer F.SilkS) (width 0.12))
  (fp_line (start 0.3 2.1) (end 0 1.5) (layer F.SilkS) (width 0.12))
  (fp_line (start -0.5 -0.7) (end 0 -1.407107) (layer F.Fab) (width 0.1))
  (fp_line (start 0 -1.407107) (end 0.5 -0.7) (layer F.Fab) (width 0.1))
  (pad 1 thru_hole rect (at 0 0) (size 1.7 1.95) (drill 0.95) (layers *.Cu *.Mask))
  (pad 2 thru_hole oval (at 2.5 0) (size 1.7 1.95) (drill 0.95) (layers *.Cu *.Mask))
  (pad 3 thru_hole oval (at 5 0) (size 1.7 1.95) (drill 0.95) (layers *.Cu *.Mask))
  (pad 4 thru_hole oval (at 7.5 0) (size 1.7 1.95) (drill 0.95) (layers *.Cu *.Mask))
  (pad 5 thru_hole oval (at 10 0) (size 1.7 1.95) (drill 0.95) (layers *.Cu *.Mask))
  (pad 6 thru_hole oval (at 12.5 0) (size 1.7 1.95) (drill 0.95) (layers *.Cu *.Mask))
  (pad 7 thru_hole oval (at 15 0) (size 1.7 1.95) (drill 0.95) (layers *.Cu *.Mask))
  (pad 8 thru_hole oval (at 17.5 0) (size 1.7 1.95) (drill 0.95) (layers *.Cu *.Mask))
  (pad 9 thru_hole oval (at 20 0) (size 1.7 1.95) (drill 0.95) (layers *.Cu *.Mask))
  (pad 10 thru_hole oval (at 22.5 0) (size 1.7 1.95) (drill 0.95) (layers *.Cu *.Mask))
  (pad 11 thru_hole oval (at 25 0) (size 1.7 1.95) (drill 0.95) (layers *.Cu *.Mask))
  (pad 12 thru_hole oval (at 27.5 0) (size 1.7 1.95) (drill 0.95) (layers *.Cu *.Mask))
  (pad 13 thru_hole oval (at 30 0) (size 1.7 1.95) (drill 0.95) (layers *.Cu *.Mask))
  (pad 14 thru_hole oval (at 32.5 0) (size 1.7 1.95) (drill 0.95) (layers *.Cu *.Mask))
  (pad 15 thru_hole oval (at 35 0) (size 1.7 1.95) (drill 0.95) (layers *.Cu *.Mask))
  (pad 16 thru_hole oval (at 37.5 0) (size 1.7 1.95) (drill 0.95) (layers *.Cu *.Mask))
  (fp_text user %R (at 18.75 -2.6) (layer F.Fab)
    (effects (font (size 1 1) (thickness 0.15)))
  )
  (model ${KIPRJMOD}/kicad_libs_k/models_k.3d/Connector_JST_k.3dshapes/JST_EH_S16B-EH_1x16_P2.50mm_Horizontal_k.wrl
    (at (xyz 0 0 0))
    (scale (xyz 1 1 1))
    (rotate (xyz 0 0 0))
  )
)