(module JST_XH_B08B-XH-AM_1x08_P2.50mm_Vertical (layer F.Cu) (tedit 5A2731AA)
  (descr "JST XH series connector, B08B-XH-AM, with boss (http://www.jst-mfg.com/product/pdf/eng/eXH.pdf), generated with kicad-footprint-generator")
  (tags "connector JST XH side entry boss")
  (fp_text reference REF** (at 8.75 -3.55) (layer F.SilkS)
    (effects (font (size 1 1) (thickness 0.15)))
  )
  (fp_text value JST_XH_B08B-XH-AM_1x08_P2.50mm_Vertical (at 8.75 4.6) (layer F.Fab)
    (effects (font (size 1 1) (thickness 0.15)))
  )
  (fp_line (start -2.45 -2.35) (end -2.45 3.4) (layer F.Fab) (width 0.1))
  (fp_line (start -2.45 3.4) (end 19.95 3.4) (layer F.Fab) (width 0.1))
  (fp_line (start 19.95 3.4) (end 19.95 -2.35) (layer F.Fab) (width 0.1))
  (fp_line (start 19.95 -2.35) (end -2.45 -2.35) (layer F.Fab) (width 0.1))
  (fp_line (start -2.56 -2.46) (end -2.56 3.51) (layer F.SilkS) (width 0.12))
  (fp_line (start -2.56 3.51) (end 20.06 3.51) (layer F.SilkS) (width 0.12))
  (fp_line (start 20.06 3.51) (end 20.06 -2.46) (layer F.SilkS) (width 0.12))
  (fp_line (start 20.06 -2.46) (end -2.56 -2.46) (layer F.SilkS) (width 0.12))
  (fp_line (start -2.95 -2.85) (end -2.95 3.9) (layer F.CrtYd) (width 0.05))
  (fp_line (start -2.95 3.9) (end 20.45 3.9) (layer F.CrtYd) (width 0.05))
  (fp_line (start 20.45 3.9) (end 20.45 -2.85) (layer F.CrtYd) (width 0.05))
  (fp_line (start 20.45 -2.85) (end -2.95 -2.85) (layer F.CrtYd) (width 0.05))
  (fp_line (start -0.625 -2.35) (end 0 -1.35) (layer F.Fab) (width 0.1))
  (fp_line (start 0 -1.35) (end 0.625 -2.35) (layer F.Fab) (width 0.1))
  (fp_line (start 0.75 -2.45) (end 0.75 -1.7) (layer F.SilkS) (width 0.12))
  (fp_line (start 0.75 -1.7) (end 16.75 -1.7) (layer F.SilkS) (width 0.12))
  (fp_line (start 16.75 -1.7) (end 16.75 -2.45) (layer F.SilkS) (width 0.12))
  (fp_line (start 16.75 -2.45) (end 0.75 -2.45) (layer F.SilkS) (width 0.12))
  (fp_line (start -2.55 -2.45) (end -2.55 -1.7) (layer F.SilkS) (width 0.12))
  (fp_line (start -2.55 -1.7) (end -0.75 -1.7) (layer F.SilkS) (width 0.12))
  (fp_line (start -0.75 -1.7) (end -0.75 -2.45) (layer F.SilkS) (width 0.12))
  (fp_line (start -0.75 -2.45) (end -2.55 -2.45) (layer F.SilkS) (width 0.12))
  (fp_line (start 18.25 -2.45) (end 18.25 -1.7) (layer F.SilkS) (width 0.12))
  (fp_line (start 18.25 -1.7) (end 20.05 -1.7) (layer F.SilkS) (width 0.12))
  (fp_line (start 20.05 -1.7) (end 20.05 -2.45) (layer F.SilkS) (width 0.12))
  (fp_line (start 20.05 -2.45) (end 18.25 -2.45) (layer F.SilkS) (width 0.12))
  (fp_line (start -2.55 -0.2) (end -1.8 -0.2) (layer F.SilkS) (width 0.12))
  (fp_line (start -1.8 -0.2) (end -1.8 1.14) (layer F.SilkS) (width 0.12))
  (fp_line (start 8.75 2.75) (end -0.74 2.75) (layer F.SilkS) (width 0.12))
  (fp_line (start 20.05 -0.2) (end 19.3 -0.2) (layer F.SilkS) (width 0.12))
  (fp_line (start 19.3 -0.2) (end 19.3 2.75) (layer F.SilkS) (width 0.12))
  (fp_line (start 19.3 2.75) (end 8.75 2.75) (layer F.SilkS) (width 0.12))
  (fp_line (start -1.6 -2.75) (end -2.85 -2.75) (layer F.SilkS) (width 0.12))
  (fp_line (start -2.85 -2.75) (end -2.85 -1.5) (layer F.SilkS) (width 0.12))
  (pad 1 thru_hole rect (at 0 0) (size 1.7 1.95) (drill 0.95) (layers *.Cu *.Mask))
  (pad 2 thru_hole oval (at 2.5 0) (size 1.7 1.95) (drill 0.95) (layers *.Cu *.Mask))
  (pad 3 thru_hole oval (at 5 0) (size 1.7 1.95) (drill 0.95) (layers *.Cu *.Mask))
  (pad 4 thru_hole oval (at 7.5 0) (size 1.7 1.95) (drill 0.95) (layers *.Cu *.Mask))
  (pad 5 thru_hole oval (at 10 0) (size 1.7 1.95) (drill 0.95) (layers *.Cu *.Mask))
  (pad 6 thru_hole oval (at 12.5 0) (size 1.7 1.95) (drill 0.95) (layers *.Cu *.Mask))
  (pad 7 thru_hole oval (at 15 0) (size 1.7 1.95) (drill 0.95) (layers *.Cu *.Mask))
  (pad 8 thru_hole oval (at 17.5 0) (size 1.7 1.95) (drill 0.95) (layers *.Cu *.Mask))
  (pad "" np_thru_hole circle (at -1.6 2) (size 1.2 1.2) (drill 1.2) (layers *.Cu *.Mask))
  (fp_text user %R (at 8.75 2.7) (layer F.Fab)
    (effects (font (size 1 1) (thickness 0.15)))
  )
  (model ${KIPRJMOD}/kicad_libs_k/models_k.3d/Connector_JST_k.3dshapes/JST_XH_B08B-XH-AM_1x08_P2.50mm_Vertical_k.wrl
    (at (xyz 0 0 0))
    (scale (xyz 1 1 1))
    (rotate (xyz 0 0 0))
  )
)