(module JST_NV_B03P-NV_1x03_P5.00mm_Vertical_k (layer F.Cu) (tedit 6008500A)
  (descr "JST NV series connector, B03P-NV (http://www.jst-mfg.com/product/pdf/eng/eNV.pdf), generated with kicad-footprint-generator")
  (tags "connector JST NV side entry")
  (fp_text reference REF** (at 5 -4.9) (layer F.SilkS)
    (effects (font (size 1 1) (thickness 0.15)))
  )
  (fp_text value JST_NV_B03P-NV_1x03_P5.00mm_Vertical (at 5 6) (layer F.Fab)
    (effects (font (size 1 1) (thickness 0.15)))
  )
  (fp_line (start -3.41 -0.3) (end -2.81 0) (layer F.SilkS) (width 0.12))
  (fp_line (start -3.41 0.3) (end -3.41 -0.3) (layer F.SilkS) (width 0.12))
  (fp_line (start -2.81 0) (end -3.41 0.3) (layer F.SilkS) (width 0.12))
  (fp_line (start 12.61 -3.81) (end -2.61 -3.81) (layer F.SilkS) (width 0.12))
  (fp_line (start 12.61 4.91) (end 12.61 -3.81) (layer F.SilkS) (width 0.12))
  (fp_line (start -2.61 4.91) (end 12.61 4.91) (layer F.SilkS) (width 0.12))
  (fp_line (start -2.61 -3.81) (end -2.61 4.91) (layer F.SilkS) (width 0.12))
  (fp_line (start 13 -4.2) (end -3 -4.2) (layer F.CrtYd) (width 0.05))
  (fp_line (start 13 5.3) (end 13 -4.2) (layer F.CrtYd) (width 0.05))
  (fp_line (start -3 5.3) (end 13 5.3) (layer F.CrtYd) (width 0.05))
  (fp_line (start -3 -4.2) (end -3 5.3) (layer F.CrtYd) (width 0.05))
  (fp_line (start -2.5 1) (end -1.5 0) (layer F.Fab) (width 0.1))
  (fp_line (start -2.5 -1) (end -1.5 0) (layer F.Fab) (width 0.1))
  (fp_line (start -2.5 -2) (end 12.5 -2) (layer F.Fab) (width 0.1))
  (fp_line (start 12.5 -3.7) (end -2.5 -3.7) (layer F.Fab) (width 0.1))
  (fp_line (start 12.5 4.8) (end 12.5 -3.7) (layer F.Fab) (width 0.1))
  (fp_line (start -2.5 4.8) (end 12.5 4.8) (layer F.Fab) (width 0.1))
  (fp_line (start -2.5 -3.7) (end -2.5 4.8) (layer F.Fab) (width 0.1))
  (fp_text user %R (at 5 4.1) (layer F.Fab)
    (effects (font (size 1 1) (thickness 0.15)))
  )
  (pad 1 thru_hole rect (at 0 0) (size 2.7 2.7) (drill 1.7) (layers *.Cu *.Mask))
  (pad 2 thru_hole circle (at 5 0) (size 2.7 2.7) (drill 1.7) (layers *.Cu *.Mask))
  (pad 3 thru_hole circle (at 10 0) (size 2.7 2.7) (drill 1.7) (layers *.Cu *.Mask))
  (model ${KIPRJMOD}/kicad_libs_k/models_k.3d/Connector_JST_k.3dshapes/JST_NV_B03P-NV_1x03_P5.00mm_Vertical_k.step
    (offset (xyz -2.5 -4.8 0))
    (scale (xyz 1 1 1))
    (rotate (xyz 0 0 0))
  )
)
