(module JST_SUR_SM15B-SURS-TF_1x15-1MP_P0.80mm_Horizontal (layer F.Cu) (tedit 5AA47E63)
  (descr "JST SUR series connector, SM15B-SURS-TF (http://www.jst-mfg.com/product/pdf/eng/eSUR.pdf), generated with kicad-footprint-generator")
  (tags "connector JST SUR top entry")
  (attr smd)
  (fp_text reference REF** (at 0 -2.85) (layer F.SilkS)
    (effects (font (size 1 1) (thickness 0.15)))
  )
  (fp_text value JST_SUR_SM15B-SURS-TF_1x15-1MP_P0.80mm_Horizontal (at 0 2.85) (layer F.Fab)
    (effects (font (size 1 1) (thickness 0.15)))
  )
  (fp_line (start -7.1 -1.1) (end -6.25 -1.1) (layer F.Fab) (width 0.1))
  (fp_line (start -6.25 -1.1) (end -6.25 -1.4) (layer F.Fab) (width 0.1))
  (fp_line (start -6.25 -1.4) (end 6.25 -1.4) (layer F.Fab) (width 0.1))
  (fp_line (start 6.25 -1.4) (end 6.25 -1.1) (layer F.Fab) (width 0.1))
  (fp_line (start 6.25 -1.1) (end 7.1 -1.1) (layer F.Fab) (width 0.1))
  (fp_line (start -7.21 -0.31) (end -7.21 -1.21) (layer F.SilkS) (width 0.12))
  (fp_line (start -7.21 -1.21) (end -6.36 -1.21) (layer F.SilkS) (width 0.12))
  (fp_line (start -6.36 -1.21) (end -6.36 -1.51) (layer F.SilkS) (width 0.12))
  (fp_line (start -6.36 -1.51) (end -6.11 -1.51) (layer F.SilkS) (width 0.12))
  (fp_line (start -6.11 -1.51) (end -6.11 -1.65) (layer F.SilkS) (width 0.12))
  (fp_line (start 7.21 -0.31) (end 7.21 -1.21) (layer F.SilkS) (width 0.12))
  (fp_line (start 7.21 -1.21) (end 6.36 -1.21) (layer F.SilkS) (width 0.12))
  (fp_line (start 6.36 -1.21) (end 6.36 -1.51) (layer F.SilkS) (width 0.12))
  (fp_line (start 6.36 -1.51) (end 6.11 -1.51) (layer F.SilkS) (width 0.12))
  (fp_line (start -6.04 1.41) (end 6.04 1.41) (layer F.SilkS) (width 0.12))
  (fp_line (start -7.1 1.3) (end 7.1 1.3) (layer F.Fab) (width 0.1))
  (fp_line (start -7.1 -1.1) (end -7.1 1.3) (layer F.Fab) (width 0.1))
  (fp_line (start 7.1 -1.1) (end 7.1 1.3) (layer F.Fab) (width 0.1))
  (fp_line (start -8 -2.15) (end -8 2.15) (layer F.CrtYd) (width 0.05))
  (fp_line (start -8 2.15) (end 8 2.15) (layer F.CrtYd) (width 0.05))
  (fp_line (start 8 2.15) (end 8 -2.15) (layer F.CrtYd) (width 0.05))
  (fp_line (start 8 -2.15) (end -8 -2.15) (layer F.CrtYd) (width 0.05))
  (fp_line (start -6.1 -1.4) (end -5.6 -0.692893) (layer F.Fab) (width 0.1))
  (fp_line (start -5.6 -0.692893) (end -5.1 -1.4) (layer F.Fab) (width 0.1))
  (fp_line (start -5.85 -2.503553) (end -5.6 -2.15) (layer F.SilkS) (width 0.12))
  (fp_line (start -5.6 -2.15) (end -5.35 -2.503553) (layer F.SilkS) (width 0.12))
  (fp_line (start -5.35 -2.503553) (end -5.85 -2.503553) (layer F.SilkS) (width 0.12))
  (pad 1 smd rect (at -5.6 -1.15) (size 0.5 1) (layers F.Cu F.Mask F.Paste))
  (pad 2 smd rect (at -4.8 -1.15) (size 0.5 1) (layers F.Cu F.Mask F.Paste))
  (pad 3 smd rect (at -4 -1.15) (size 0.5 1) (layers F.Cu F.Mask F.Paste))
  (pad 4 smd rect (at -3.2 -1.15) (size 0.5 1) (layers F.Cu F.Mask F.Paste))
  (pad 5 smd rect (at -2.4 -1.15) (size 0.5 1) (layers F.Cu F.Mask F.Paste))
  (pad 6 smd rect (at -1.6 -1.15) (size 0.5 1) (layers F.Cu F.Mask F.Paste))
  (pad 7 smd rect (at -0.8 -1.15) (size 0.5 1) (layers F.Cu F.Mask F.Paste))
  (pad 8 smd rect (at 0 -1.15) (size 0.5 1) (layers F.Cu F.Mask F.Paste))
  (pad 9 smd rect (at 0.8 -1.15) (size 0.5 1) (layers F.Cu F.Mask F.Paste))
  (pad 10 smd rect (at 1.6 -1.15) (size 0.5 1) (layers F.Cu F.Mask F.Paste))
  (pad 11 smd rect (at 2.4 -1.15) (size 0.5 1) (layers F.Cu F.Mask F.Paste))
  (pad 12 smd rect (at 3.2 -1.15) (size 0.5 1) (layers F.Cu F.Mask F.Paste))
  (pad 13 smd rect (at 4 -1.15) (size 0.5 1) (layers F.Cu F.Mask F.Paste))
  (pad 14 smd rect (at 4.8 -1.15) (size 0.5 1) (layers F.Cu F.Mask F.Paste))
  (pad 15 smd rect (at 5.6 -1.15) (size 0.5 1) (layers F.Cu F.Mask F.Paste))
  (pad MP smd rect (at -6.9 0.8) (size 1.2 1.7) (layers F.Cu F.Mask F.Paste))
  (pad MP smd rect (at 6.9 0.8) (size 1.2 1.7) (layers F.Cu F.Mask F.Paste))
  (fp_text user %R (at 0 0) (layer F.Fab)
    (effects (font (size 1 1) (thickness 0.15)))
  )
  (model ${KIPRJMOD}/kicad_libs_k/models_k.3d/Connector_JST_k.3dshapes/JST_SUR_SM15B-SURS-TF_1x15-1MP_P0.80mm_Horizontal_k.wrl
    (at (xyz 0 0 0))
    (scale (xyz 1 1 1))
    (rotate (xyz 0 0 0))
  )
)