(module JST_PH_B13B-PH-K_1x13_P2.00mm_Vertical (layer F.Cu) (tedit 5A0E414C)
  (descr "JST PH series connector, B13B-PH-K (http://www.jst-mfg.com/product/pdf/eng/ePH.pdf), generated with kicad-footprint-generator")
  (tags "connector JST PH side entry")
  (fp_text reference REF** (at 12 -2.9) (layer F.SilkS)
    (effects (font (size 1 1) (thickness 0.15)))
  )
  (fp_text value JST_PH_B13B-PH-K_1x13_P2.00mm_Vertical (at 12 4) (layer F.Fab)
    (effects (font (size 1 1) (thickness 0.15)))
  )
  (fp_line (start -2.06 -1.81) (end -2.06 2.91) (layer F.SilkS) (width 0.12))
  (fp_line (start -2.06 2.91) (end 26.06 2.91) (layer F.SilkS) (width 0.12))
  (fp_line (start 26.06 2.91) (end 26.06 -1.81) (layer F.SilkS) (width 0.12))
  (fp_line (start 26.06 -1.81) (end -2.06 -1.81) (layer F.SilkS) (width 0.12))
  (fp_line (start -0.3 -1.81) (end -0.3 -2.01) (layer F.SilkS) (width 0.12))
  (fp_line (start -0.3 -2.01) (end -0.6 -2.01) (layer F.SilkS) (width 0.12))
  (fp_line (start -0.6 -2.01) (end -0.6 -1.81) (layer F.SilkS) (width 0.12))
  (fp_line (start -0.3 -1.91) (end -0.6 -1.91) (layer F.SilkS) (width 0.12))
  (fp_line (start 0.5 -1.81) (end 0.5 -1.2) (layer F.SilkS) (width 0.12))
  (fp_line (start 0.5 -1.2) (end -1.45 -1.2) (layer F.SilkS) (width 0.12))
  (fp_line (start -1.45 -1.2) (end -1.45 2.3) (layer F.SilkS) (width 0.12))
  (fp_line (start -1.45 2.3) (end 25.45 2.3) (layer F.SilkS) (width 0.12))
  (fp_line (start 25.45 2.3) (end 25.45 -1.2) (layer F.SilkS) (width 0.12))
  (fp_line (start 25.45 -1.2) (end 23.5 -1.2) (layer F.SilkS) (width 0.12))
  (fp_line (start 23.5 -1.2) (end 23.5 -1.81) (layer F.SilkS) (width 0.12))
  (fp_line (start -2.06 -0.5) (end -1.45 -0.5) (layer F.SilkS) (width 0.12))
  (fp_line (start -2.06 0.8) (end -1.45 0.8) (layer F.SilkS) (width 0.12))
  (fp_line (start 26.06 -0.5) (end 25.45 -0.5) (layer F.SilkS) (width 0.12))
  (fp_line (start 26.06 0.8) (end 25.45 0.8) (layer F.SilkS) (width 0.12))
  (fp_line (start 0.9 2.3) (end 0.9 1.8) (layer F.SilkS) (width 0.12))
  (fp_line (start 0.9 1.8) (end 1.1 1.8) (layer F.SilkS) (width 0.12))
  (fp_line (start 1.1 1.8) (end 1.1 2.3) (layer F.SilkS) (width 0.12))
  (fp_line (start 1 2.3) (end 1 1.8) (layer F.SilkS) (width 0.12))
  (fp_line (start 2.9 2.3) (end 2.9 1.8) (layer F.SilkS) (width 0.12))
  (fp_line (start 2.9 1.8) (end 3.1 1.8) (layer F.SilkS) (width 0.12))
  (fp_line (start 3.1 1.8) (end 3.1 2.3) (layer F.SilkS) (width 0.12))
  (fp_line (start 3 2.3) (end 3 1.8) (layer F.SilkS) (width 0.12))
  (fp_line (start 4.9 2.3) (end 4.9 1.8) (layer F.SilkS) (width 0.12))
  (fp_line (start 4.9 1.8) (end 5.1 1.8) (layer F.SilkS) (width 0.12))
  (fp_line (start 5.1 1.8) (end 5.1 2.3) (layer F.SilkS) (width 0.12))
  (fp_line (start 5 2.3) (end 5 1.8) (layer F.SilkS) (width 0.12))
  (fp_line (start 6.9 2.3) (end 6.9 1.8) (layer F.SilkS) (width 0.12))
  (fp_line (start 6.9 1.8) (end 7.1 1.8) (layer F.SilkS) (width 0.12))
  (fp_line (start 7.1 1.8) (end 7.1 2.3) (layer F.SilkS) (width 0.12))
  (fp_line (start 7 2.3) (end 7 1.8) (layer F.SilkS) (width 0.12))
  (fp_line (start 8.9 2.3) (end 8.9 1.8) (layer F.SilkS) (width 0.12))
  (fp_line (start 8.9 1.8) (end 9.1 1.8) (layer F.SilkS) (width 0.12))
  (fp_line (start 9.1 1.8) (end 9.1 2.3) (layer F.SilkS) (width 0.12))
  (fp_line (start 9 2.3) (end 9 1.8) (layer F.SilkS) (width 0.12))
  (fp_line (start 10.9 2.3) (end 10.9 1.8) (layer F.SilkS) (width 0.12))
  (fp_line (start 10.9 1.8) (end 11.1 1.8) (layer F.SilkS) (width 0.12))
  (fp_line (start 11.1 1.8) (end 11.1 2.3) (layer F.SilkS) (width 0.12))
  (fp_line (start 11 2.3) (end 11 1.8) (layer F.SilkS) (width 0.12))
  (fp_line (start 12.9 2.3) (end 12.9 1.8) (layer F.SilkS) (width 0.12))
  (fp_line (start 12.9 1.8) (end 13.1 1.8) (layer F.SilkS) (width 0.12))
  (fp_line (start 13.1 1.8) (end 13.1 2.3) (layer F.SilkS) (width 0.12))
  (fp_line (start 13 2.3) (end 13 1.8) (layer F.SilkS) (width 0.12))
  (fp_line (start 14.9 2.3) (end 14.9 1.8) (layer F.SilkS) (width 0.12))
  (fp_line (start 14.9 1.8) (end 15.1 1.8) (layer F.SilkS) (width 0.12))
  (fp_line (start 15.1 1.8) (end 15.1 2.3) (layer F.SilkS) (width 0.12))
  (fp_line (start 15 2.3) (end 15 1.8) (layer F.SilkS) (width 0.12))
  (fp_line (start 16.9 2.3) (end 16.9 1.8) (layer F.SilkS) (width 0.12))
  (fp_line (start 16.9 1.8) (end 17.1 1.8) (layer F.SilkS) (width 0.12))
  (fp_line (start 17.1 1.8) (end 17.1 2.3) (layer F.SilkS) (width 0.12))
  (fp_line (start 17 2.3) (end 17 1.8) (layer F.SilkS) (width 0.12))
  (fp_line (start 18.9 2.3) (end 18.9 1.8) (layer F.SilkS) (width 0.12))
  (fp_line (start 18.9 1.8) (end 19.1 1.8) (layer F.SilkS) (width 0.12))
  (fp_line (start 19.1 1.8) (end 19.1 2.3) (layer F.SilkS) (width 0.12))
  (fp_line (start 19 2.3) (end 19 1.8) (layer F.SilkS) (width 0.12))
  (fp_line (start 20.9 2.3) (end 20.9 1.8) (layer F.SilkS) (width 0.12))
  (fp_line (start 20.9 1.8) (end 21.1 1.8) (layer F.SilkS) (width 0.12))
  (fp_line (start 21.1 1.8) (end 21.1 2.3) (layer F.SilkS) (width 0.12))
  (fp_line (start 21 2.3) (end 21 1.8) (layer F.SilkS) (width 0.12))
  (fp_line (start 22.9 2.3) (end 22.9 1.8) (layer F.SilkS) (width 0.12))
  (fp_line (start 22.9 1.8) (end 23.1 1.8) (layer F.SilkS) (width 0.12))
  (fp_line (start 23.1 1.8) (end 23.1 2.3) (layer F.SilkS) (width 0.12))
  (fp_line (start 23 2.3) (end 23 1.8) (layer F.SilkS) (width 0.12))
  (fp_line (start -1.11 -2.11) (end -2.36 -2.11) (layer F.SilkS) (width 0.12))
  (fp_line (start -2.36 -2.11) (end -2.36 -0.86) (layer F.SilkS) (width 0.12))
  (fp_line (start -1.11 -2.11) (end -2.36 -2.11) (layer F.Fab) (width 0.1))
  (fp_line (start -2.36 -2.11) (end -2.36 -0.86) (layer F.Fab) (width 0.1))
  (fp_line (start -1.95 -1.7) (end -1.95 2.8) (layer F.Fab) (width 0.1))
  (fp_line (start -1.95 2.8) (end 25.95 2.8) (layer F.Fab) (width 0.1))
  (fp_line (start 25.95 2.8) (end 25.95 -1.7) (layer F.Fab) (width 0.1))
  (fp_line (start 25.95 -1.7) (end -1.95 -1.7) (layer F.Fab) (width 0.1))
  (fp_line (start -2.45 -2.2) (end -2.45 3.3) (layer F.CrtYd) (width 0.05))
  (fp_line (start -2.45 3.3) (end 26.45 3.3) (layer F.CrtYd) (width 0.05))
  (fp_line (start 26.45 3.3) (end 26.45 -2.2) (layer F.CrtYd) (width 0.05))
  (fp_line (start 26.45 -2.2) (end -2.45 -2.2) (layer F.CrtYd) (width 0.05))
  (pad 1 thru_hole rect (at 0 0) (size 1.2 1.75) (drill 0.75) (layers *.Cu *.Mask))
  (pad 2 thru_hole oval (at 2 0) (size 1.2 1.75) (drill 0.75) (layers *.Cu *.Mask))
  (pad 3 thru_hole oval (at 4 0) (size 1.2 1.75) (drill 0.75) (layers *.Cu *.Mask))
  (pad 4 thru_hole oval (at 6 0) (size 1.2 1.75) (drill 0.75) (layers *.Cu *.Mask))
  (pad 5 thru_hole oval (at 8 0) (size 1.2 1.75) (drill 0.75) (layers *.Cu *.Mask))
  (pad 6 thru_hole oval (at 10 0) (size 1.2 1.75) (drill 0.75) (layers *.Cu *.Mask))
  (pad 7 thru_hole oval (at 12 0) (size 1.2 1.75) (drill 0.75) (layers *.Cu *.Mask))
  (pad 8 thru_hole oval (at 14 0) (size 1.2 1.75) (drill 0.75) (layers *.Cu *.Mask))
  (pad 9 thru_hole oval (at 16 0) (size 1.2 1.75) (drill 0.75) (layers *.Cu *.Mask))
  (pad 10 thru_hole oval (at 18 0) (size 1.2 1.75) (drill 0.75) (layers *.Cu *.Mask))
  (pad 11 thru_hole oval (at 20 0) (size 1.2 1.75) (drill 0.75) (layers *.Cu *.Mask))
  (pad 12 thru_hole oval (at 22 0) (size 1.2 1.75) (drill 0.75) (layers *.Cu *.Mask))
  (pad 13 thru_hole oval (at 24 0) (size 1.2 1.75) (drill 0.75) (layers *.Cu *.Mask))
  (fp_text user %R (at 12 1.5) (layer F.Fab)
    (effects (font (size 1 1) (thickness 0.15)))
  )
  (model ${KIPRJMOD}/kicad_libs_k/models_k.3d/Connector_JST_k.3dshapes/JST_PH_B13B-PH-K_1x13_P2.00mm_Vertical_k.wrl
    (at (xyz 0 0 0))
    (scale (xyz 1 1 1))
    (rotate (xyz 0 0 0))
  )
)