(module JST_PH_B12B-PH-SM4-TB_1x12-1MP_P2.00mm_Vertical (layer F.Cu) (tedit 5AA47E63)
  (descr "JST PH series connector, B12B-PH-SM4-TB (http://www.jst-mfg.com/product/pdf/eng/ePH.pdf), generated with kicad-footprint-generator")
  (tags "connector JST PH side entry")
  (attr smd)
  (fp_text reference REF** (at 0 -5.45) (layer F.SilkS)
    (effects (font (size 1 1) (thickness 0.15)))
  )
  (fp_text value JST_PH_B12B-PH-SM4-TB_1x12-1MP_P2.00mm_Vertical (at 0 4.45) (layer F.Fab)
    (effects (font (size 1 1) (thickness 0.15)))
  )
  (fp_line (start -13.975 0.75) (end 13.975 0.75) (layer F.Fab) (width 0.1))
  (fp_line (start -14.085 0.01) (end -14.085 0.86) (layer F.SilkS) (width 0.12))
  (fp_line (start -14.085 0.86) (end -11.76 0.86) (layer F.SilkS) (width 0.12))
  (fp_line (start -11.76 0.86) (end -11.76 3.25) (layer F.SilkS) (width 0.12))
  (fp_line (start 14.085 0.01) (end 14.085 0.86) (layer F.SilkS) (width 0.12))
  (fp_line (start 14.085 0.86) (end 11.76 0.86) (layer F.SilkS) (width 0.12))
  (fp_line (start -14.085 -3.51) (end -14.085 -4.36) (layer F.SilkS) (width 0.12))
  (fp_line (start -14.085 -4.36) (end 14.085 -4.36) (layer F.SilkS) (width 0.12))
  (fp_line (start 14.085 -4.36) (end 14.085 -3.51) (layer F.SilkS) (width 0.12))
  (fp_line (start -13.975 -4.25) (end 13.975 -4.25) (layer F.Fab) (width 0.1))
  (fp_line (start -13.975 0.75) (end -13.975 -4.25) (layer F.Fab) (width 0.1))
  (fp_line (start 13.975 0.75) (end 13.975 -4.25) (layer F.Fab) (width 0.1))
  (fp_line (start -11.25 -2.75) (end -11.25 -2.25) (layer F.Fab) (width 0.1))
  (fp_line (start -11.25 -2.25) (end -10.75 -2.25) (layer F.Fab) (width 0.1))
  (fp_line (start -10.75 -2.25) (end -10.75 -2.75) (layer F.Fab) (width 0.1))
  (fp_line (start -10.75 -2.75) (end -11.25 -2.75) (layer F.Fab) (width 0.1))
  (fp_line (start -9.25 -2.75) (end -9.25 -2.25) (layer F.Fab) (width 0.1))
  (fp_line (start -9.25 -2.25) (end -8.75 -2.25) (layer F.Fab) (width 0.1))
  (fp_line (start -8.75 -2.25) (end -8.75 -2.75) (layer F.Fab) (width 0.1))
  (fp_line (start -8.75 -2.75) (end -9.25 -2.75) (layer F.Fab) (width 0.1))
  (fp_line (start -7.25 -2.75) (end -7.25 -2.25) (layer F.Fab) (width 0.1))
  (fp_line (start -7.25 -2.25) (end -6.75 -2.25) (layer F.Fab) (width 0.1))
  (fp_line (start -6.75 -2.25) (end -6.75 -2.75) (layer F.Fab) (width 0.1))
  (fp_line (start -6.75 -2.75) (end -7.25 -2.75) (layer F.Fab) (width 0.1))
  (fp_line (start -5.25 -2.75) (end -5.25 -2.25) (layer F.Fab) (width 0.1))
  (fp_line (start -5.25 -2.25) (end -4.75 -2.25) (layer F.Fab) (width 0.1))
  (fp_line (start -4.75 -2.25) (end -4.75 -2.75) (layer F.Fab) (width 0.1))
  (fp_line (start -4.75 -2.75) (end -5.25 -2.75) (layer F.Fab) (width 0.1))
  (fp_line (start -3.25 -2.75) (end -3.25 -2.25) (layer F.Fab) (width 0.1))
  (fp_line (start -3.25 -2.25) (end -2.75 -2.25) (layer F.Fab) (width 0.1))
  (fp_line (start -2.75 -2.25) (end -2.75 -2.75) (layer F.Fab) (width 0.1))
  (fp_line (start -2.75 -2.75) (end -3.25 -2.75) (layer F.Fab) (width 0.1))
  (fp_line (start -1.25 -2.75) (end -1.25 -2.25) (layer F.Fab) (width 0.1))
  (fp_line (start -1.25 -2.25) (end -0.75 -2.25) (layer F.Fab) (width 0.1))
  (fp_line (start -0.75 -2.25) (end -0.75 -2.75) (layer F.Fab) (width 0.1))
  (fp_line (start -0.75 -2.75) (end -1.25 -2.75) (layer F.Fab) (width 0.1))
  (fp_line (start 0.75 -2.75) (end 0.75 -2.25) (layer F.Fab) (width 0.1))
  (fp_line (start 0.75 -2.25) (end 1.25 -2.25) (layer F.Fab) (width 0.1))
  (fp_line (start 1.25 -2.25) (end 1.25 -2.75) (layer F.Fab) (width 0.1))
  (fp_line (start 1.25 -2.75) (end 0.75 -2.75) (layer F.Fab) (width 0.1))
  (fp_line (start 2.75 -2.75) (end 2.75 -2.25) (layer F.Fab) (width 0.1))
  (fp_line (start 2.75 -2.25) (end 3.25 -2.25) (layer F.Fab) (width 0.1))
  (fp_line (start 3.25 -2.25) (end 3.25 -2.75) (layer F.Fab) (width 0.1))
  (fp_line (start 3.25 -2.75) (end 2.75 -2.75) (layer F.Fab) (width 0.1))
  (fp_line (start 4.75 -2.75) (end 4.75 -2.25) (layer F.Fab) (width 0.1))
  (fp_line (start 4.75 -2.25) (end 5.25 -2.25) (layer F.Fab) (width 0.1))
  (fp_line (start 5.25 -2.25) (end 5.25 -2.75) (layer F.Fab) (width 0.1))
  (fp_line (start 5.25 -2.75) (end 4.75 -2.75) (layer F.Fab) (width 0.1))
  (fp_line (start 6.75 -2.75) (end 6.75 -2.25) (layer F.Fab) (width 0.1))
  (fp_line (start 6.75 -2.25) (end 7.25 -2.25) (layer F.Fab) (width 0.1))
  (fp_line (start 7.25 -2.25) (end 7.25 -2.75) (layer F.Fab) (width 0.1))
  (fp_line (start 7.25 -2.75) (end 6.75 -2.75) (layer F.Fab) (width 0.1))
  (fp_line (start 8.75 -2.75) (end 8.75 -2.25) (layer F.Fab) (width 0.1))
  (fp_line (start 8.75 -2.25) (end 9.25 -2.25) (layer F.Fab) (width 0.1))
  (fp_line (start 9.25 -2.25) (end 9.25 -2.75) (layer F.Fab) (width 0.1))
  (fp_line (start 9.25 -2.75) (end 8.75 -2.75) (layer F.Fab) (width 0.1))
  (fp_line (start 10.75 -2.75) (end 10.75 -2.25) (layer F.Fab) (width 0.1))
  (fp_line (start 10.75 -2.25) (end 11.25 -2.25) (layer F.Fab) (width 0.1))
  (fp_line (start 11.25 -2.25) (end 11.25 -2.75) (layer F.Fab) (width 0.1))
  (fp_line (start 11.25 -2.75) (end 10.75 -2.75) (layer F.Fab) (width 0.1))
  (fp_line (start -14.7 -4.75) (end -14.7 3.75) (layer F.CrtYd) (width 0.05))
  (fp_line (start -14.7 3.75) (end 14.7 3.75) (layer F.CrtYd) (width 0.05))
  (fp_line (start 14.7 3.75) (end 14.7 -4.75) (layer F.CrtYd) (width 0.05))
  (fp_line (start 14.7 -4.75) (end -14.7 -4.75) (layer F.CrtYd) (width 0.05))
  (fp_line (start -11.5 0.75) (end -11 0.042893) (layer F.Fab) (width 0.1))
  (fp_line (start -11 0.042893) (end -10.5 0.75) (layer F.Fab) (width 0.1))
  (pad 1 smd rect (at -11 0.5) (size 1 5.5) (layers F.Cu F.Mask F.Paste))
  (pad 2 smd rect (at -9 0.5) (size 1 5.5) (layers F.Cu F.Mask F.Paste))
  (pad 3 smd rect (at -7 0.5) (size 1 5.5) (layers F.Cu F.Mask F.Paste))
  (pad 4 smd rect (at -5 0.5) (size 1 5.5) (layers F.Cu F.Mask F.Paste))
  (pad 5 smd rect (at -3 0.5) (size 1 5.5) (layers F.Cu F.Mask F.Paste))
  (pad 6 smd rect (at -1 0.5) (size 1 5.5) (layers F.Cu F.Mask F.Paste))
  (pad 7 smd rect (at 1 0.5) (size 1 5.5) (layers F.Cu F.Mask F.Paste))
  (pad 8 smd rect (at 3 0.5) (size 1 5.5) (layers F.Cu F.Mask F.Paste))
  (pad 9 smd rect (at 5 0.5) (size 1 5.5) (layers F.Cu F.Mask F.Paste))
  (pad 10 smd rect (at 7 0.5) (size 1 5.5) (layers F.Cu F.Mask F.Paste))
  (pad 11 smd rect (at 9 0.5) (size 1 5.5) (layers F.Cu F.Mask F.Paste))
  (pad 12 smd rect (at 11 0.5) (size 1 5.5) (layers F.Cu F.Mask F.Paste))
  (pad MP smd rect (at -13.4 -1.75) (size 1.6 3) (layers F.Cu F.Mask F.Paste))
  (pad MP smd rect (at 13.4 -1.75) (size 1.6 3) (layers F.Cu F.Mask F.Paste))
  (fp_text user %R (at 0 -1) (layer F.Fab)
    (effects (font (size 1 1) (thickness 0.15)))
  )
  (model ${KIPRJMOD}/kicad_libs_k/models_k.3d/Connector_JST_k.3dshapes/JST_PH_B12B-PH-SM4-TB_1x12-1MP_P2.00mm_Vertical_k.wrl
    (at (xyz 0 0 0))
    (scale (xyz 1 1 1))
    (rotate (xyz 0 0 0))
  )
)