(module JST_ACH_BBM03B-ACHSS-GAN-ETF_1x03-1MP_P1.20mm_Vertical (layer F.Cu) (tedit 5AA47E63)
  (descr "JST ACH series connector, BBM03B-ACHSS-GAN-ETF (http://www.jst-mfg.com/product/pdf/eng/eACH.pdf), generated with kicad-footprint-generator")
  (tags "connector JST ACH side entry")
  (attr smd)
  (fp_text reference REF** (at 0 -3.5) (layer F.SilkS)
    (effects (font (size 1 1) (thickness 0.15)))
  )
  (fp_text value JST_ACH_BBM03B-ACHSS-GAN-ETF_1x03-1MP_P1.20mm_Vertical (at 0 3.5) (layer F.Fab)
    (effects (font (size 1 1) (thickness 0.15)))
  )
  (fp_line (start -2.7 -2) (end 2.7 -2) (layer F.Fab) (width 0.1))
  (fp_line (start -2.81 1.24) (end -2.81 -2.11) (layer F.SilkS) (width 0.12))
  (fp_line (start -2.81 -2.11) (end -1.76 -2.11) (layer F.SilkS) (width 0.12))
  (fp_line (start -1.76 -2.11) (end -1.76 -2.3) (layer F.SilkS) (width 0.12))
  (fp_line (start 2.81 1.24) (end 2.81 -2.11) (layer F.SilkS) (width 0.12))
  (fp_line (start 2.81 -2.11) (end 1.76 -2.11) (layer F.SilkS) (width 0.12))
  (fp_line (start -1.74 2.41) (end -0.79 2.41) (layer F.SilkS) (width 0.12))
  (fp_line (start -0.79 2.41) (end -0.39 1.91) (layer F.SilkS) (width 0.12))
  (fp_line (start -0.39 1.91) (end 0.39 1.91) (layer F.SilkS) (width 0.12))
  (fp_line (start 0.39 1.91) (end 0.79 2.41) (layer F.SilkS) (width 0.12))
  (fp_line (start 0.79 2.41) (end 1.74 2.41) (layer F.SilkS) (width 0.12))
  (fp_line (start -2.7 2.3) (end -0.9 2.3) (layer F.Fab) (width 0.1))
  (fp_line (start -0.9 2.3) (end -0.5 1.8) (layer F.Fab) (width 0.1))
  (fp_line (start -0.5 1.8) (end 0.5 1.8) (layer F.Fab) (width 0.1))
  (fp_line (start 0.5 1.8) (end 0.9 2.3) (layer F.Fab) (width 0.1))
  (fp_line (start 0.9 2.3) (end 2.7 2.3) (layer F.Fab) (width 0.1))
  (fp_line (start -2.7 -2) (end -2.7 2.3) (layer F.Fab) (width 0.1))
  (fp_line (start 2.7 -2) (end 2.7 2.3) (layer F.Fab) (width 0.1))
  (fp_line (start -3.2 -2.8) (end -3.2 2.8) (layer F.CrtYd) (width 0.05))
  (fp_line (start -3.2 2.8) (end 3.2 2.8) (layer F.CrtYd) (width 0.05))
  (fp_line (start 3.2 2.8) (end 3.2 -2.8) (layer F.CrtYd) (width 0.05))
  (fp_line (start 3.2 -2.8) (end -3.2 -2.8) (layer F.CrtYd) (width 0.05))
  (fp_line (start -1.7 -2) (end -1.2 -1.292893) (layer F.Fab) (width 0.1))
  (fp_line (start -1.2 -1.292893) (end -0.7 -2) (layer F.Fab) (width 0.1))
  (fp_line (start -1.45 -3.153553) (end -1.2 -2.8) (layer F.SilkS) (width 0.12))
  (fp_line (start -1.2 -2.8) (end -0.95 -3.153553) (layer F.SilkS) (width 0.12))
  (fp_line (start -0.95 -3.153553) (end -1.45 -3.153553) (layer F.SilkS) (width 0.12))
  (pad 1 smd rect (at -1.2 -1.875) (size 0.6 0.85) (layers F.Cu F.Mask F.Paste))
  (pad 2 smd rect (at 0 -1.875) (size 0.6 0.85) (layers F.Cu F.Mask F.Paste))
  (pad 3 smd rect (at 1.2 -1.875) (size 0.6 0.85) (layers F.Cu F.Mask F.Paste))
  (pad MP smd rect (at -2.35 1.9) (size 0.7 0.8) (layers F.Cu F.Mask F.Paste))
  (pad MP smd rect (at 2.35 1.9) (size 0.7 0.8) (layers F.Cu F.Mask F.Paste))
  (fp_text user %R (at 0 0) (layer F.Fab)
    (effects (font (size 1 1) (thickness 0.15)))
  )
  (model ${KIPRJMOD}/kicad_libs_k/models_k.3d/Connector_JST_k.3dshapes/JST_ACH_BBM03B-ACHSS-GAN-ETF_1x03-1MP_P1.20mm_Vertical_k.wrl
    (at (xyz 0 0 0))
    (scale (xyz 1 1 1))
    (rotate (xyz 0 0 0))
  )
)