(module Oscillator_SMD_EuroQuartz_XO32-4Pin_3.2x2.5mm_HandSoldering (layer F.Cu) (tedit 58CD3344)
  (descr "Miniature Crystal Clock Oscillator EuroQuartz XO32 series, http://cdn-reichelt.de/documents/datenblatt/B400/XO32.pdf, hand-soldering, 3.2x2.5mm^2 package")
  (tags "SMD SMT crystal oscillator hand-soldering")
  (attr smd)
  (fp_text reference REF** (at 0 -2.45) (layer F.SilkS)
    (effects (font (size 1 1) (thickness 0.15)))
  )
  (fp_text value Oscillator_SMD_EuroQuartz_XO32-4Pin_3.2x2.5mm_HandSoldering (at 0 2.45) (layer F.Fab)
    (effects (font (size 1 1) (thickness 0.15)))
  )
  (fp_text user %R (at 0 0) (layer F.Fab)
    (effects (font (size 0.7 0.7) (thickness 0.105)))
  )
  (fp_line (start -1.5 -1.25) (end 1.5 -1.25) (layer F.Fab) (width 0.1))
  (fp_line (start 1.5 -1.25) (end 1.6 -1.15) (layer F.Fab) (width 0.1))
  (fp_line (start 1.6 -1.15) (end 1.6 1.15) (layer F.Fab) (width 0.1))
  (fp_line (start 1.6 1.15) (end 1.5 1.25) (layer F.Fab) (width 0.1))
  (fp_line (start 1.5 1.25) (end -1.5 1.25) (layer F.Fab) (width 0.1))
  (fp_line (start -1.5 1.25) (end -1.6 1.15) (layer F.Fab) (width 0.1))
  (fp_line (start -1.6 1.15) (end -1.6 -1.15) (layer F.Fab) (width 0.1))
  (fp_line (start -1.6 -1.15) (end -1.5 -1.25) (layer F.Fab) (width 0.1))
  (fp_line (start -1.6 0.25) (end -0.6 1.25) (layer F.Fab) (width 0.1))
  (fp_line (start -1.8 -1.425) (end -1.8 -1.45) (layer F.SilkS) (width 0.12))
  (fp_line (start -1.8 -1.45) (end 1.8 -1.45) (layer F.SilkS) (width 0.12))
  (fp_line (start 1.8 -1.45) (end 1.8 -1.425) (layer F.SilkS) (width 0.12))
  (fp_line (start -2.525 1.425) (end -1.8 1.425) (layer F.SilkS) (width 0.12))
  (fp_line (start -1.8 1.425) (end -1.8 1.45) (layer F.SilkS) (width 0.12))
  (fp_line (start -1.8 1.45) (end 1.8 1.45) (layer F.SilkS) (width 0.12))
  (fp_line (start 1.8 1.45) (end 1.8 1.425) (layer F.SilkS) (width 0.12))
  (fp_line (start -2.525 0.125) (end -1.8 0.125) (layer F.SilkS) (width 0.12))
  (fp_line (start -1.8 0.125) (end -1.8 -0.125) (layer F.SilkS) (width 0.12))
  (fp_line (start 1.8 -0.125) (end 1.8 0.125) (layer F.SilkS) (width 0.12))
  (fp_line (start -2.6 -1.5) (end -2.6 1.5) (layer F.CrtYd) (width 0.05))
  (fp_line (start -2.6 1.5) (end 2.6 1.5) (layer F.CrtYd) (width 0.05))
  (fp_line (start 2.6 1.5) (end 2.6 -1.5) (layer F.CrtYd) (width 0.05))
  (fp_line (start 2.6 -1.5) (end -2.6 -1.5) (layer F.CrtYd) (width 0.05))
  (fp_circle (center 0 0) (end 0.25 0) (layer F.Adhes) (width 0.1))
  (fp_circle (center 0 0) (end 0.208333 0) (layer F.Adhes) (width 0.0833333333))
  (fp_circle (center 0 0) (end 0.133333 0) (layer F.Adhes) (width 0.0833333333))
  (fp_circle (center 0 0) (end 0.058333 0) (layer F.Adhes) (width 0.1166666667))
  (pad 1 smd rect (at -1.45 0.775) (size 1.75 0.9) (layers F.Cu F.Paste F.Mask))
  (pad 2 smd rect (at 1.45 0.775) (size 1.75 0.9) (layers F.Cu F.Paste F.Mask))
  (pad 3 smd rect (at 1.45 -0.775) (size 1.75 0.9) (layers F.Cu F.Paste F.Mask))
  (pad 4 smd rect (at -1.45 -0.775) (size 1.75 0.9) (layers F.Cu F.Paste F.Mask))
  (model ${KIPRJMOD}/kicad_libs_k/models_k.3d/Oscillator_k.3dshapes/Oscillator_SMD_EuroQuartz_XO32-4Pin_3.2x2.5mm_HandSoldering_k.wrl
    (at (xyz 0 0 0))
    (scale (xyz 1 1 1))
    (rotate (xyz 0 0 0))
  )
)
