(module Oscillator_SMD_SeikoEpson_SG8002LB-4Pin_5.0x3.2mm_HandSoldering (layer F.Cu) (tedit 58CD3345)
  (descr "SMD Crystal Oscillator Seiko Epson SG-8002LB https://support.epson.biz/td/api/doc_check.php?mode=dl&lang=en&Parts=SG-8002DC, hand-soldering, 5.0x3.2mm^2 package")
  (tags "SMD SMT crystal oscillator hand-soldering")
  (attr smd)
  (fp_text reference REF** (at 0 -3.6) (layer F.SilkS)
    (effects (font (size 1 1) (thickness 0.15)))
  )
  (fp_text value Oscillator_SMD_SeikoEpson_SG8002LB-4Pin_5.0x3.2mm_HandSoldering (at 0 3.6) (layer F.Fab)
    (effects (font (size 1 1) (thickness 0.15)))
  )
  (fp_text user %R (at 0 0) (layer F.Fab)
    (effects (font (size 1 1) (thickness 0.15)))
  )
  (fp_line (start -2.5 -1.6) (end -2.5 1.6) (layer F.Fab) (width 0.1))
  (fp_line (start -2.5 1.6) (end 2.5 1.6) (layer F.Fab) (width 0.1))
  (fp_line (start 2.5 1.6) (end 2.5 -1.6) (layer F.Fab) (width 0.1))
  (fp_line (start 2.5 -1.6) (end -2.5 -1.6) (layer F.Fab) (width 0.1))
  (fp_line (start -2.5 0.6) (end -1.5 1.6) (layer F.Fab) (width 0.1))
  (fp_line (start 2.43 -1.8) (end 2.7 -1.8) (layer F.SilkS) (width 0.12))
  (fp_line (start 2.7 -1.8) (end 2.7 1.8) (layer F.SilkS) (width 0.12))
  (fp_line (start 2.7 1.8) (end 2.43 1.8) (layer F.SilkS) (width 0.12))
  (fp_line (start -0.27 -1.8) (end 0.27 -1.8) (layer F.SilkS) (width 0.12))
  (fp_line (start -2.43 2.8) (end -2.43 1.8) (layer F.SilkS) (width 0.12))
  (fp_line (start -2.43 1.8) (end -2.7 1.8) (layer F.SilkS) (width 0.12))
  (fp_line (start -2.7 1.8) (end -2.7 -1.8) (layer F.SilkS) (width 0.12))
  (fp_line (start -2.7 -1.8) (end -2.43 -1.8) (layer F.SilkS) (width 0.12))
  (fp_line (start 0.27 1.8) (end -0.27 1.8) (layer F.SilkS) (width 0.12))
  (fp_line (start -0.27 1.8) (end -0.27 2.8) (layer F.SilkS) (width 0.12))
  (fp_line (start -2.8 -2.9) (end -2.8 2.9) (layer F.CrtYd) (width 0.05))
  (fp_line (start -2.8 2.9) (end 2.8 2.9) (layer F.CrtYd) (width 0.05))
  (fp_line (start 2.8 2.9) (end 2.8 -2.9) (layer F.CrtYd) (width 0.05))
  (fp_line (start 2.8 -2.9) (end -2.8 -2.9) (layer F.CrtYd) (width 0.05))
  (fp_circle (center 0 0) (end 0.25 0) (layer F.Adhes) (width 0.1))
  (fp_circle (center 0 0) (end 0.208333 0) (layer F.Adhes) (width 0.0833333333))
  (fp_circle (center 0 0) (end 0.133333 0) (layer F.Adhes) (width 0.0833333333))
  (fp_circle (center 0 0) (end 0.058333 0) (layer F.Adhes) (width 0.1166666667))
  (pad 1 smd rect (at -1.35 1.475) (size 1.76 2.25) (layers F.Cu F.Paste F.Mask))
  (pad 2 smd rect (at 1.35 1.475) (size 1.76 2.25) (layers F.Cu F.Paste F.Mask))
  (pad 3 smd rect (at 1.35 -1.475) (size 1.76 2.25) (layers F.Cu F.Paste F.Mask))
  (pad 4 smd rect (at -1.35 -1.475) (size 1.76 2.25) (layers F.Cu F.Paste F.Mask))
  (model ${KIPRJMOD}/kicad_libs_k/models_k.3d/Oscillator_k.3dshapes/Oscillator_SMD_SeikoEpson_SG8002LB-4Pin_5.0x3.2mm_HandSoldering_k.wrl
    (at (xyz 0 0 0))
    (scale (xyz 1 1 1))
    (rotate (xyz 0 0 0))
  )
)
