(module Oscillator_SMD_SeikoEpson_SG3030CM (layer F.Cu) (tedit 59F746FA)
  (descr "SMD Crystal Oscillator Seiko Epson SG-3030CM package")
  (tags "SMD SMT crystal oscillator")
  (attr smd)
  (fp_text reference REF** (at 0 2.17) (layer F.SilkS)
    (effects (font (size 1 1) (thickness 0.15)))
  )
  (fp_text value Oscillator_SMD_SeikoEpson_SG3030CM (at 0 -2.14) (layer F.Fab)
    (effects (font (size 1 1) (thickness 0.15)))
  )
  (fp_line (start -0.5 -0.88) (end 0.5 -0.88) (layer F.SilkS) (width 0.12))
  (fp_line (start -0.5 1.1) (end -0.5 0.88) (layer F.SilkS) (width 0.12))
  (fp_line (start -0.5 0.88) (end 0.5 0.88) (layer F.SilkS) (width 0.12))
  (fp_line (start -2.35 -1.5) (end 2.35 -1.5) (layer F.CrtYd) (width 0.05))
  (fp_line (start 2.35 -1.5) (end 2.35 1.5) (layer F.CrtYd) (width 0.05))
  (fp_line (start 2.35 1.5) (end -2.35 1.5) (layer F.CrtYd) (width 0.05))
  (fp_line (start -2.35 1.5) (end -2.35 -1.5) (layer F.CrtYd) (width 0.05))
  (fp_circle (center -1.08 0.34) (end -0.94 0.29) (layer F.Fab) (width 0.1))
  (fp_line (start -1.6 -0.75) (end 1.6 -0.75) (layer F.Fab) (width 0.1))
  (fp_line (start 1.6 -0.75) (end 1.6 0.75) (layer F.Fab) (width 0.1))
  (fp_line (start 1.6 0.75) (end -1.6 0.75) (layer F.Fab) (width 0.1))
  (fp_line (start -1.6 -0.75) (end -1.6 0.75) (layer F.Fab) (width 0.1))
  (fp_text user %R (at 0 0) (layer F.Fab)
    (effects (font (size 0.3 0.3) (thickness 0.06)))
  )
  (pad 1 smd rect (at -1.325 0.6) (size 1.05 0.8) (layers F.Cu F.Paste F.Mask))
  (pad 2 smd rect (at 1.325 0.6) (size 1.05 0.8) (layers F.Cu F.Paste F.Mask))
  (pad 3 smd rect (at 1.325 -0.6) (size 1.05 0.8) (layers F.Cu F.Paste F.Mask))
  (pad 4 smd rect (at -1.325 -0.6) (size 1.05 0.8) (layers F.Cu F.Paste F.Mask))
  (model ${KIPRJMOD}/kicad_libs_k/models_k.3d/Oscillator_k.3dshapes/Oscillator_SMD_SeikoEpson_SG3030CM_k.wrl
    (at (xyz 0 0 0))
    (scale (xyz 1 1 1))
    (rotate (xyz 0 0 0))
  )
)
