(module Oscillator_SMD_Abracon_ASV-4Pin_7.0x5.1mm (layer F.Cu) (tedit 58CD3344)
  (descr "Miniature Crystal Clock Oscillator Abracon ASV series, http://www.abracon.com/Oscillators/ASV.pdf, 7.0x5.1mm^2 package")
  (tags "SMD SMT crystal oscillator")
  (attr smd)
  (fp_text reference REF** (at 0 -4) (layer F.SilkS)
    (effects (font (size 1 1) (thickness 0.15)))
  )
  (fp_text value Oscillator_SMD_Abracon_ASV-4Pin_7.0x5.1mm (at 0 4) (layer F.Fab)
    (effects (font (size 1 1) (thickness 0.15)))
  )
  (fp_text user %R (at 0 0) (layer F.Fab)
    (effects (font (size 1 1) (thickness 0.15)))
  )
  (fp_line (start -3.4 -2.54) (end 3.4 -2.54) (layer F.Fab) (width 0.1))
  (fp_line (start 3.4 -2.54) (end 3.5 -2.44) (layer F.Fab) (width 0.1))
  (fp_line (start 3.5 -2.44) (end 3.5 2.44) (layer F.Fab) (width 0.1))
  (fp_line (start 3.5 2.44) (end 3.4 2.54) (layer F.Fab) (width 0.1))
  (fp_line (start 3.4 2.54) (end -3.4 2.54) (layer F.Fab) (width 0.1))
  (fp_line (start -3.4 2.54) (end -3.5 2.44) (layer F.Fab) (width 0.1))
  (fp_line (start -3.5 2.44) (end -3.5 -2.44) (layer F.Fab) (width 0.1))
  (fp_line (start -3.5 -2.44) (end -3.4 -2.54) (layer F.Fab) (width 0.1))
  (fp_line (start -3.5 1.54) (end -2.5 2.54) (layer F.Fab) (width 0.1))
  (fp_line (start 3.64 -2.74) (end 3.7 -2.74) (layer F.SilkS) (width 0.12))
  (fp_line (start 3.7 -2.74) (end 3.7 2.74) (layer F.SilkS) (width 0.12))
  (fp_line (start 3.7 2.74) (end 3.64 2.74) (layer F.SilkS) (width 0.12))
  (fp_line (start -1.44 -2.74) (end 1.44 -2.74) (layer F.SilkS) (width 0.12))
  (fp_line (start -3.64 3.2) (end -3.64 2.74) (layer F.SilkS) (width 0.12))
  (fp_line (start -3.64 2.74) (end -3.7 2.74) (layer F.SilkS) (width 0.12))
  (fp_line (start -3.7 2.74) (end -3.7 -2.74) (layer F.SilkS) (width 0.12))
  (fp_line (start -3.7 -2.74) (end -3.64 -2.74) (layer F.SilkS) (width 0.12))
  (fp_line (start 1.44 2.74) (end -1.44 2.74) (layer F.SilkS) (width 0.12))
  (fp_line (start -1.44 2.74) (end -1.44 3.2) (layer F.SilkS) (width 0.12))
  (fp_line (start -3.8 -3.3) (end -3.8 3.3) (layer F.CrtYd) (width 0.05))
  (fp_line (start -3.8 3.3) (end 3.8 3.3) (layer F.CrtYd) (width 0.05))
  (fp_line (start 3.8 3.3) (end 3.8 -3.3) (layer F.CrtYd) (width 0.05))
  (fp_line (start 3.8 -3.3) (end -3.8 -3.3) (layer F.CrtYd) (width 0.05))
  (fp_circle (center 0 0) (end 1 0) (layer F.Adhes) (width 0.1))
  (fp_circle (center 0 0) (end 0.833333 0) (layer F.Adhes) (width 0.3333333333))
  (fp_circle (center 0 0) (end 0.533333 0) (layer F.Adhes) (width 0.3333333333))
  (fp_circle (center 0 0) (end 0.233333 0) (layer F.Adhes) (width 0.4666666667))
  (pad 1 smd rect (at -2.54 2) (size 1.8 2) (layers F.Cu F.Paste F.Mask))
  (pad 2 smd rect (at 2.54 2) (size 1.8 2) (layers F.Cu F.Paste F.Mask))
  (pad 3 smd rect (at 2.54 -2) (size 1.8 2) (layers F.Cu F.Paste F.Mask))
  (pad 4 smd rect (at -2.54 -2) (size 1.8 2) (layers F.Cu F.Paste F.Mask))
  (model ${KIPRJMOD}/kicad_libs_k/models_k.3d/Oscillator_k.3dshapes/Oscillator_SMD_Abracon_ASV-4Pin_7.0x5.1mm_k.wrl
    (at (xyz 0 0 0))
    (scale (xyz 1 1 1))
    (rotate (xyz 0 0 0))
  )
)
