(module Oscillator_SMD_SeikoEpson_SG8002JC-4Pin_10.5x5.0mm (layer F.Cu) (tedit 58CD3345)
  (descr "SMD Crystal Oscillator Seiko Epson SG-8002JC https://support.epson.biz/td/api/doc_check.php?mode=dl&lang=en&Parts=SG-8002DC, 10.5x5.0mm^2 package")
  (tags "SMD SMT crystal oscillator")
  (attr smd)
  (fp_text reference REF** (at 0 -4.35) (layer F.SilkS)
    (effects (font (size 1 1) (thickness 0.15)))
  )
  (fp_text value Oscillator_SMD_SeikoEpson_SG8002JC-4Pin_10.5x5.0mm (at 0 4.35) (layer F.Fab)
    (effects (font (size 1 1) (thickness 0.15)))
  )
  (fp_text user %R (at 0 0) (layer F.Fab)
    (effects (font (size 1 1) (thickness 0.15)))
  )
  (fp_line (start -5.25 -0.5) (end -5.25 -2.5) (layer F.Fab) (width 0.1))
  (fp_line (start -5.25 -2.5) (end 5.25 -2.5) (layer F.Fab) (width 0.1))
  (fp_line (start 5.25 -2.5) (end 5.25 2.5) (layer F.Fab) (width 0.1))
  (fp_line (start 5.25 2.5) (end -5.25 2.5) (layer F.Fab) (width 0.1))
  (fp_line (start -5.25 2.5) (end -5.25 0.5) (layer F.Fab) (width 0.1))
  (fp_line (start 3.39 -2.7) (end 5.45 -2.7) (layer F.SilkS) (width 0.12))
  (fp_line (start 5.45 -2.7) (end 5.45 2.7) (layer F.SilkS) (width 0.12))
  (fp_line (start 5.45 2.7) (end 3.39 2.7) (layer F.SilkS) (width 0.12))
  (fp_line (start -1.69 -2.7) (end 1.69 -2.7) (layer F.SilkS) (width 0.12))
  (fp_line (start -5.45 -0.5) (end -5.45 -2.7) (layer F.SilkS) (width 0.12))
  (fp_line (start -5.45 2.7) (end -5.45 0.5) (layer F.SilkS) (width 0.12))
  (fp_line (start -5.45 -2.7) (end -3.39 -2.7) (layer F.SilkS) (width 0.12))
  (fp_line (start -5.45 2.7) (end -3.39 2.7) (layer F.SilkS) (width 0.12))
  (fp_line (start 1.69 2.7) (end -1.69 2.7) (layer F.SilkS) (width 0.12))
  (fp_line (start -5.5 -3.6) (end -5.5 3.6) (layer F.CrtYd) (width 0.05))
  (fp_line (start -5.5 3.6) (end 5.5 3.6) (layer F.CrtYd) (width 0.05))
  (fp_line (start 5.5 3.6) (end 5.5 -3.6) (layer F.CrtYd) (width 0.05))
  (fp_line (start 5.5 -3.6) (end -5.5 -3.6) (layer F.CrtYd) (width 0.05))
  (fp_arc (start -5.25 0) (end -5.25 -0.5) (angle 180) (layer F.Fab) (width 0.1))
  (fp_arc (start -5.45 0) (end -5.45 -0.5) (angle 180) (layer F.SilkS) (width 0.12))
  (pad 1 smd rect (at -2.54 2.3) (size 1.3 2.1) (layers F.Cu F.Paste F.Mask))
  (pad 2 smd rect (at 2.54 2.3) (size 1.3 2.1) (layers F.Cu F.Paste F.Mask))
  (pad 3 smd rect (at 2.54 -2.3) (size 1.3 2.1) (layers F.Cu F.Paste F.Mask))
  (pad 4 smd rect (at -2.54 -2.3) (size 1.3 2.1) (layers F.Cu F.Paste F.Mask))
  (model ${KIPRJMOD}/kicad_libs_k/models_k.3d/Oscillator_k.3dshapes/Oscillator_SMD_SeikoEpson_SG8002JC-4Pin_10.5x5.0mm_k.wrl
    (at (xyz 0 0 0))
    (scale (xyz 1 1 1))
    (rotate (xyz 0 0 0))
  )
)
