(module Oscillator_SMD_SeikoEpson_SG210-4Pin_2.5x2.0mm_HandSoldering (layer F.Cu) (tedit 58CD3345)
  (descr "SMD Crystal Oscillator Seiko Epson SG-210 https://support.epson.biz/td/api/doc_check.php?mode=dl&lang=en&Parts=SG-210SED, hand-soldering, 2.5x2.0mm^2 package")
  (tags "SMD SMT crystal oscillator hand-soldering")
  (attr smd)
  (fp_text reference REF** (at 0 -2.55) (layer F.SilkS)
    (effects (font (size 1 1) (thickness 0.15)))
  )
  (fp_text value Oscillator_SMD_SeikoEpson_SG210-4Pin_2.5x2.0mm_HandSoldering (at 0 2.55) (layer F.Fab)
    (effects (font (size 1 1) (thickness 0.15)))
  )
  (fp_text user %R (at 0 0) (layer F.Fab)
    (effects (font (size 0.6 0.6) (thickness 0.09)))
  )
  (fp_line (start -1.25 -1) (end -1.25 1) (layer F.Fab) (width 0.1))
  (fp_line (start -1.25 1) (end 1.25 1) (layer F.Fab) (width 0.1))
  (fp_line (start 1.25 1) (end 1.25 -1) (layer F.Fab) (width 0.1))
  (fp_line (start 1.25 -1) (end -1.25 -1) (layer F.Fab) (width 0.1))
  (fp_line (start -1.25 0) (end -0.25 1) (layer F.Fab) (width 0.1))
  (fp_line (start -2.15 -1.75) (end -2.15 1.75) (layer F.SilkS) (width 0.12))
  (fp_line (start -2.15 1.75) (end 2.15 1.75) (layer F.SilkS) (width 0.12))
  (fp_line (start -2.2 -1.8) (end -2.2 1.8) (layer F.CrtYd) (width 0.05))
  (fp_line (start -2.2 1.8) (end 2.2 1.8) (layer F.CrtYd) (width 0.05))
  (fp_line (start 2.2 1.8) (end 2.2 -1.8) (layer F.CrtYd) (width 0.05))
  (fp_line (start 2.2 -1.8) (end -2.2 -1.8) (layer F.CrtYd) (width 0.05))
  (fp_circle (center 0 0) (end 1 0) (layer F.Adhes) (width 0.1))
  (fp_circle (center 0 0) (end 0.833333 0) (layer F.Adhes) (width 0.3333333333))
  (fp_circle (center 0 0) (end 0.533333 0) (layer F.Adhes) (width 0.3333333333))
  (fp_circle (center 0 0) (end 0.233333 0) (layer F.Adhes) (width 0.4666666667))
  (pad 1 smd rect (at -1.125 0.875) (size 1.65 1.35) (layers F.Cu F.Paste F.Mask))
  (pad 2 smd rect (at 1.125 0.875) (size 1.65 1.35) (layers F.Cu F.Paste F.Mask))
  (pad 3 smd rect (at 1.125 -0.875) (size 1.65 1.35) (layers F.Cu F.Paste F.Mask))
  (pad 4 smd rect (at -1.125 -0.875) (size 1.65 1.35) (layers F.Cu F.Paste F.Mask))
  (model ${KIPRJMOD}/kicad_libs_k/models_k.3d/Oscillator_k.3dshapes/Oscillator_SMD_SeikoEpson_SG210-4Pin_2.5x2.0mm_HandSoldering_k.wrl
    (at (xyz 0 0 0))
    (scale (xyz 1 1 1))
    (rotate (xyz 0 0 0))
  )
)
