(module WL-SMCW_rev19c-WL-SMCW_0603_SUPERFLAT (layer F.Cu) (tedit 200000)
  (descr "WL-SMCW SMT MONO-COLOR CHIP LED WATERCLEAR")
  (tags "WL-SMCW SMT MONO-COLOR CHIP LED WATERCLEAR")
  (attr smd)
  (fp_text reference >NAME (at 0.02794 -0.82042) (layer F.SilkS)
    (effects (font (size 0.3048 0.3048) (thickness 0.0254)))
  )
  (fp_text value >VALUE (at 0.07366 0.88646) (layer F.SilkS)
    (effects (font (size 0.3048 0.3048) (thickness 0.0254)))
  )
  (fp_line (start 0.79756 -0.39878) (end 0.79756 0.39878) (layer Dwgs.User) (width 0.09906))
  (fp_line (start -0.79756 0.39878) (end -0.79756 -0.39878) (layer Dwgs.User) (width 0.09906))
  (fp_line (start -0.79756 -0.39878) (end 0.79756 -0.39878) (layer Dwgs.User) (width 0.09906))
  (fp_line (start -0.79756 0.39878) (end 0.79756 0.39878) (layer Dwgs.User) (width 0.09906))
  (fp_line (start -0.09906 -0.49784) (end 0.09906 -0.49784) (layer F.SilkS) (width 0.19812))
  (fp_line (start -0.09906 0.49784) (end 0.09906 0.49784) (layer F.SilkS) (width 0.19812))
  (fp_poly (pts (xy -1.39954 -0.59944) (xy 1.39954 -0.59944) (xy 1.39954 0.59944) (xy -1.39954 0.59944)
    (xy -1.39954 -0.59944)) (layer Dwgs.User) (width 0.09906))
  (pad 1 smd rect (at -0.79756 0 180) (size 0.79756 0.79756) (layers F.Cu F.Paste F.Mask))
  (pad 2 smd rect (at 0.79756 0 180) (size 0.79756 0.79756) (layers F.Cu F.Paste F.Mask))
)
