(module WL-SMCW_rev19c-WL-SFTW_3528 (layer F.Cu) (tedit 200000)
  (attr smd)
  (fp_text reference >NAME (at 0.05842 -2.34442) (layer F.SilkS)
    (effects (font (size 0.6096 0.6096) (thickness 0.0508)))
  )
  (fp_text value >VALUE (at 0.28702 2.20472) (layer F.SilkS)
    (effects (font (size 0.6096 0.6096) (thickness 0.0508)))
  )
  (fp_line (start -1.74752 -1.39954) (end 1.74752 -1.39954) (layer Dwgs.User) (width 0.09906))
  (fp_line (start 1.74752 -1.39954) (end 1.74752 1.39954) (layer Dwgs.User) (width 0.09906))
  (fp_line (start 1.74752 1.39954) (end -1.74752 1.39954) (layer Dwgs.User) (width 0.09906))
  (fp_line (start -1.74752 1.39954) (end -1.74752 -1.39954) (layer Dwgs.User) (width 0.09906))
  (fp_line (start -0.39878 -1.4986) (end 0.39878 -1.4986) (layer F.SilkS) (width 0.19812))
  (fp_line (start -0.39878 1.4986) (end 0.39878 1.4986) (layer F.SilkS) (width 0.19812))
  (fp_poly (pts (xy -2.49936 -1.69926) (xy 2.49936 -1.69926) (xy 2.49936 1.59766) (xy -2.49936 1.59766)
    (xy -2.49936 -1.69926)) (layer Dwgs.User) (width 0.127))
  (fp_text user A (at 0.40132 -0.80264) (layer F.SilkS)
    (effects (font (size 0.4064 0.4064) (thickness 0.0254)))
  )
  (pad 1 smd rect (at 1.5494 -0.6985 180) (size 1.4986 0.89916) (layers F.Cu F.Paste F.Mask))
  (pad 2 smd rect (at 1.5494 0.6985 180) (size 1.4986 0.89916) (layers F.Cu F.Paste F.Mask))
  (pad 3 smd rect (at -1.5494 -0.6985 180) (size 1.4986 0.89916) (layers F.Cu F.Paste F.Mask))
  (pad 4 smd rect (at -1.5494 0.6985 180) (size 1.4986 0.89916) (layers F.Cu F.Paste F.Mask))
)
