(module WL-SMCW_rev19c-WL-STCW_0603 (layer F.Cu) (tedit 200000)
  (descr "WL-STCW SMT PHOTOTRANSISTOR CHIP WATERCLEAR")
  (tags "WL-STCW SMT PHOTOTRANSISTOR CHIP WATERCLEAR")
  (attr smd)
  (fp_text reference >NAME (at 0 -1.40462) (layer F.SilkS)
    (effects (font (size 0.6096 0.6096) (thickness 0.0508)))
  )
  (fp_text value >VALUE (at 0.52832 1.39446) (layer F.SilkS)
    (effects (font (size 0.6096 0.6096) (thickness 0.0508)))
  )
  (fp_line (start -0.79756 -0.39878) (end 0.79756 -0.39878) (layer Dwgs.User) (width 0.09906))
  (fp_line (start 0.79756 -0.39878) (end 0.79756 0.39878) (layer Dwgs.User) (width 0.09906))
  (fp_line (start 0.79756 0.39878) (end -0.79756 0.39878) (layer Dwgs.User) (width 0.09906))
  (fp_line (start -0.79756 0.39878) (end -0.79756 -0.39878) (layer Dwgs.User) (width 0.09906))
  (fp_line (start -1.4478 -0.6985) (end 1.4478 -0.6985) (layer F.SilkS) (width 0.19812))
  (fp_line (start 1.4478 -0.6985) (end 1.4478 0.6985) (layer F.SilkS) (width 0.19812))
  (fp_line (start 1.4478 0.6985) (end -1.4478 0.6985) (layer F.SilkS) (width 0.19812))
  (fp_line (start -1.4478 0.6985) (end -1.4478 -0.6985) (layer F.SilkS) (width 0.19812))
  (fp_poly (pts (xy -1.64846 -0.89916) (xy 1.64846 -0.89916) (xy 1.64846 0.89916) (xy -1.64846 0.89916)
    (xy -1.64846 -0.89916)) (layer Dwgs.User) (width 0.09906))
  (fp_text user C (at -2.19202 -0.10414) (layer F.SilkS)
    (effects (font (size 0.8128 0.8128) (thickness 0.0762)))
  )
  (pad 1 smd rect (at -0.7493 0) (size 0.79756 0.79756) (layers F.Cu F.Paste F.Mask))
  (pad 2 smd rect (at 0.7493 0) (size 0.79756 0.79756) (layers F.Cu F.Paste F.Mask))
)
