(module WL-SMCW_rev19c-WL-SIMW_3535 (layer F.Cu) (tedit 200000)
  (attr smd)
  (fp_text reference >NAME (at 0.15748 -2.44348) (layer F.SilkS)
    (effects (font (size 0.6096 0.6096) (thickness 0.0508)))
  )
  (fp_text value >VALUE (at 0.28702 2.40284) (layer F.SilkS)
    (effects (font (size 0.6096 0.6096) (thickness 0.0508)))
  )
  (fp_line (start 1.72466 1.72466) (end -1.72466 1.72466) (layer Dwgs.User) (width 0.127))
  (fp_line (start -1.72466 -1.72466) (end 1.72466 -1.72466) (layer Dwgs.User) (width 0.127))
  (fp_line (start 1.72466 1.72466) (end 1.72466 -1.72466) (layer Dwgs.User) (width 0.127))
  (fp_line (start -1.72466 1.72466) (end -1.72466 -1.72466) (layer Dwgs.User) (width 0.127))
  (fp_poly (pts (xy 1.62306 1.62306) (xy 1.143 1.62306) (xy 1.143 -1.62306) (xy 1.62306 -1.62306)
    (xy 1.62306 -0.24892) (xy 2.04978 -0.24892) (xy 2.04978 0.24892) (xy 1.62306 0.24892)
    (xy 1.62306 1.62306)) (layer F.Cu) (width 0.127))
  (fp_poly (pts (xy 1.62306 1.62306) (xy 1.143 1.62306) (xy 1.143 -1.62306) (xy 1.62306 -1.62306)
    (xy 1.62306 -0.24892) (xy 1.99898 -0.24892) (xy 1.99898 0.24892) (xy 1.62306 0.24892)
    (xy 1.62306 1.62306)) (layer F.Paste) (width 0.127))
  (fp_poly (pts (xy 1.04394 -1.72466) (xy 1.72466 -1.72466) (xy 1.72466 -0.34798) (xy 2.09804 -0.34798)
    (xy 2.09804 0.34798) (xy 1.72466 0.34798) (xy 1.72466 1.72466) (xy 1.04394 1.72466)
    (xy 1.04394 -1.72466)) (layer F.Mask) (width 0.127))
  (fp_poly (pts (xy -1.143 1.62306) (xy -1.62306 1.62306) (xy -1.62306 0.24892) (xy -1.99898 0.24892)
    (xy -1.99898 -0.24892) (xy -1.62306 -0.24892) (xy -1.62306 -1.62306) (xy -1.143 -1.62306)
    (xy -1.143 1.62306)) (layer F.Paste) (width 0.127))
  (fp_poly (pts (xy -1.62306 -1.62306) (xy -1.143 -1.62306) (xy -1.143 1.62306) (xy -1.62306 1.62306)
    (xy -1.62306 0.24892) (xy -1.99898 0.24892) (xy -1.99898 -0.24892) (xy -1.62306 -0.24892)
    (xy -1.62306 -1.62306)) (layer F.Cu) (width 0.127))
  (fp_poly (pts (xy -1.04394 1.72466) (xy -1.72466 1.72466) (xy -1.72466 0.34798) (xy -2.09804 0.34798)
    (xy -2.09804 -0.34798) (xy -1.72466 -0.34798) (xy -1.72466 -1.72466) (xy -1.04394 -1.72466)
    (xy -1.04394 1.72466)) (layer F.Mask) (width 0.127))
  (fp_poly (pts (xy -2.2987 -1.89992) (xy 2.2987 -1.89992) (xy 2.2987 1.89992) (xy -2.2987 1.89992)
    (xy -2.2987 -1.89992)) (layer Dwgs.User) (width 0.09906))
  (fp_text user c (at -2.0955 0.99568) (layer F.SilkS)
    (effects (font (size 0.4064 0.4064) (thickness 0.0254)))
  )
  (pad 1 smd rect (at -1.39954 0 270) (size 0.49784 0.39878) (layers F.Cu F.Paste F.Mask))
  (pad 2 smd rect (at 1.39954 0 270) (size 0.49784 0.39878) (layers F.Cu F.Paste F.Mask))
  (pad 3 smd rect (at 0 0 180) (size 1.29794 3.24866) (layers F.Cu F.Paste F.Mask))
)
