(module WL-SMCW_rev19c-WL-SMCW_0805 (layer F.Cu) (tedit 200000)
  (descr "WL-SMCW SMD MONO-COLOR CHIP LED")
  (tags "WL-SMCW SMD MONO-COLOR CHIP LED")
  (attr smd)
  (fp_text reference >NAME (at -0.0381 -1.3716) (layer F.SilkS)
    (effects (font (size 0.4064 0.4064) (thickness 0.0254)))
  )
  (fp_text value >VALUE (at 0.1778 1.4351) (layer F.SilkS)
    (effects (font (size 0.4064 0.4064) (thickness 0.0254)))
  )
  (fp_line (start 0.99822 -0.62484) (end 0.99822 0.62484) (layer Dwgs.User) (width 0.09906))
  (fp_line (start -0.99822 0.62484) (end -0.99822 -0.62484) (layer Dwgs.User) (width 0.09906))
  (fp_line (start -0.99822 -0.62484) (end 0.99822 -0.62484) (layer Dwgs.User) (width 0.09906))
  (fp_line (start -0.99822 0.62484) (end 0.99822 0.62484) (layer Dwgs.User) (width 0.09906))
  (fp_line (start -0.21082 -0.7239) (end 0.21844 -0.7239) (layer F.SilkS) (width 0.19812))
  (fp_line (start -0.20574 0.72136) (end 0.21082 0.72136) (layer F.SilkS) (width 0.19812))
  (fp_poly (pts (xy -1.79832 -0.89916) (xy 1.79832 -0.89916) (xy 1.79832 0.89916) (xy -1.79832 0.89916)
    (xy -1.79832 -0.89916)) (layer Dwgs.User) (width 0.09906))
  (fp_text user C (at -2.09296 -0.80264) (layer F.SilkS)
    (effects (font (size 0.6096 0.6096) (thickness 0.0508)))
  )
  (pad 1 smd rect (at -1.04902 0 180) (size 1.09982 1.19888) (layers F.Cu F.Paste F.Mask))
  (pad 2 smd rect (at 1.04902 0 180) (size 1.09982 1.19888) (layers F.Cu F.Paste F.Mask))
)
