(module WL-SMCW_rev19c-WL-STTW_3528 (layer F.Cu) (tedit 200000)
  (attr smd)
  (fp_text reference >NAME (at -0.19812 -2.60604) (layer F.SilkS)
    (effects (font (size 1.016 1.016) (thickness 0.0762)))
  )
  (fp_text value >VALUE (at 0.74676 2.39014) (layer F.SilkS)
    (effects (font (size 1.016 1.016) (thickness 0.0762)))
  )
  (fp_line (start -1.59766 -1.39954) (end 1.59766 -1.39954) (layer Dwgs.User) (width 0.09906))
  (fp_line (start 1.59766 -1.39954) (end 1.59766 1.39954) (layer Dwgs.User) (width 0.09906))
  (fp_line (start 1.59766 1.39954) (end -1.59766 1.39954) (layer Dwgs.User) (width 0.09906))
  (fp_line (start -1.59766 1.39954) (end -1.59766 -1.39954) (layer Dwgs.User) (width 0.09906))
  (fp_line (start -1.59766 -1.39954) (end 1.59766 -1.39954) (layer F.SilkS) (width 0.19812))
  (fp_line (start -1.59766 1.39954) (end 1.59766 1.39954) (layer F.SilkS) (width 0.19812))
  (fp_poly (pts (xy -2.39776 -1.59766) (xy 2.39776 -1.59766) (xy 2.39776 1.59766) (xy -2.39776 1.59766)
    (xy -2.39776 -1.59766)) (layer Dwgs.User) (width 0.09906))
  (fp_text user C (at -2.99212 -0.10414) (layer F.SilkS)
    (effects (font (size 0.8128 0.8128) (thickness 0.0762)))
  )
  (pad 1 smd rect (at -1.5748 0) (size 1.14808 2.19964) (layers F.Cu F.Paste F.Mask))
  (pad 2 smd rect (at 1.5748 0) (size 1.14808 2.19964) (layers F.Cu F.Paste F.Mask))
)
