(module WL-SMCW_rev19c-WL-SICW_1206_154120XXBA400 (layer F.Cu) (tedit 200000)
  (attr smd)
  (fp_text reference >NAME (at 0 -2.00406) (layer F.SilkS)
    (effects (font (size 0.8128 0.8128) (thickness 0.0762)))
  )
  (fp_text value >VALUE (at 0.43688 1.8923) (layer F.SilkS)
    (effects (font (size 0.8128 0.8128) (thickness 0.0762)))
  )
  (fp_line (start -1.59766 -0.79756) (end 1.59766 -0.79756) (layer Dwgs.User) (width 0.09906))
  (fp_line (start 1.59766 -0.79756) (end 1.59766 0.79756) (layer Dwgs.User) (width 0.09906))
  (fp_line (start 1.59766 0.79756) (end -1.59766 0.79756) (layer Dwgs.User) (width 0.09906))
  (fp_line (start -1.59766 0.79756) (end -1.59766 -0.79756) (layer Dwgs.User) (width 0.09906))
  (fp_line (start -0.6985 -0.89916) (end 0.6985 -0.89916) (layer F.SilkS) (width 0.19812))
  (fp_line (start -0.6985 0.89916) (end 0.6985 0.89916) (layer F.SilkS) (width 0.19812))
  (fp_poly (pts (xy -2.19964 -1.19888) (xy 2.19964 -1.19888) (xy 2.19964 1.09982) (xy -2.19964 1.09982)
    (xy -2.19964 -1.19888)) (layer Dwgs.User) (width 0.09906))
  (pad 1 smd rect (at -1.4986 0) (size 0.99822 1.59766) (layers F.Cu F.Paste F.Mask))
  (pad 2 smd rect (at 1.4986 0) (size 0.99822 1.59766) (layers F.Cu F.Paste F.Mask))
)
