(module WL-SMCW_rev19c-WL-SBRW_1205REC_REV (layer F.Cu) (tedit 200000)
  (attr smd)
  (fp_text reference >NAME (at 0.13208 -2.04978) (layer F.SilkS)
    (effects (font (size 0.8128 0.8128) (thickness 0.0762)))
  )
  (fp_text value >VALUE (at 0.78994 1.8796) (layer F.SilkS)
    (effects (font (size 0.8128 0.8128) (thickness 0.0762)))
  )
  (fp_line (start -1.59766 0.59944) (end -1.59766 -0.59944) (layer Dwgs.User) (width 0.09906))
  (fp_line (start -1.59766 -0.59944) (end 1.59766 -0.59944) (layer Dwgs.User) (width 0.09906))
  (fp_line (start 1.59766 -0.59944) (end 1.59766 0.59944) (layer Dwgs.User) (width 0.09906))
  (fp_line (start 1.59766 0.59944) (end -1.59766 0.59944) (layer Dwgs.User) (width 0.09906))
  (fp_line (start -0.89916 -0.6985) (end 0.89916 -0.6985) (layer F.SilkS) (width 0.19812))
  (fp_line (start -0.89916 0.6985) (end 0.89916 0.6985) (layer F.SilkS) (width 0.19812))
  (fp_poly (pts (xy -2.3495 -1.14808) (xy 2.3495 -1.14808) (xy 2.3495 1.14808) (xy -2.3495 1.14808)
    (xy -2.3495 -1.14808)) (layer Dwgs.User) (width 0.09906))
  (fp_circle (center -2.49936 -1.29794) (end -2.49936 -1.397) (layer F.SilkS) (width 0.19812))
  (pad 1 smd rect (at -1.64846 -0.57404 180) (size 0.89916 0.84836) (layers F.Cu F.Paste F.Mask))
  (pad 2 smd rect (at -1.64846 0.57404 180) (size 0.89916 0.84836) (layers F.Cu F.Paste F.Mask))
  (pad 3 smd rect (at 1.64846 0.57404 180) (size 0.89916 0.84836) (layers F.Cu F.Paste F.Mask))
  (pad 4 smd rect (at 1.64846 -0.57404 180) (size 0.89916 0.84836) (layers F.Cu F.Paste F.Mask))
  (pad "" np_thru_hole circle (at 0 0) (size 1.74752 1.74752) (drill 1.74752) (layers *.Cu *.Mask))
)
