(module WL-SMCW_rev19c-WL-SMSW_1204_A (layer F.Cu) (tedit 200000)
  (descr "WL-SMSW SMT MONO-COLOR SIDE VIEW WATERCLEAR")
  (tags "WL-SMSW SMT MONO-COLOR SIDE VIEW WATERCLEAR")
  (attr smd)
  (fp_text reference >NAME (at 0.05842 -2.07518) (layer F.SilkS)
    (effects (font (size 0.8128 0.8128) (thickness 0.0762)))
  )
  (fp_text value >VALUE (at 0.29718 2.00152) (layer F.SilkS)
    (effects (font (size 0.8128 0.8128) (thickness 0.0762)))
  )
  (fp_line (start -1.59766 -0.24892) (end 1.59766 -0.24892) (layer Dwgs.User) (width 0.09906))
  (fp_line (start 1.59766 -0.24892) (end 1.59766 0.24892) (layer Dwgs.User) (width 0.09906))
  (fp_line (start 1.59766 0.24892) (end -1.59766 0.24892) (layer Dwgs.User) (width 0.09906))
  (fp_line (start -1.59766 0.24892) (end -1.59766 -0.24892) (layer Dwgs.User) (width 0.09906))
  (fp_poly (pts (xy -2.19964 -1.29794) (xy 2.19964 -1.29794) (xy 2.19964 0.6985) (xy -2.19964 0.6985)
    (xy -2.19964 -1.29794)) (layer Dwgs.User) (width 0.09906))
  (fp_arc (start 0 0.00254) (end -0.9398 -0.29972) (angle 147.7) (layer Dwgs.User) (width 0.09906))
  (fp_arc (start 0 0.03302) (end -0.84836 -0.71882) (angle 96.7) (layer F.SilkS) (width 0.19812))
  (fp_text user C (at -1.84658 0.89662) (layer F.SilkS)
    (effects (font (size 0.4064 0.4064) (thickness 0.0254)))
  )
  (pad 1 smd rect (at -1.4986 0) (size 0.99822 0.89916) (layers F.Cu F.Paste F.Mask))
  (pad 2 smd rect (at 1.4986 0) (size 0.99822 0.89916) (layers F.Cu F.Paste F.Mask))
  (pad 3 smd rect (at 0 0.14986) (size 0.79756 0.59944) (layers F.Cu F.Paste F.Mask))
)
