(module WL-SMCW_rev19c-WL-SBCW_0606 (layer F.Cu) (tedit 200000)
  (attr smd)
  (fp_text reference >NAME (at -0.03302 -1.46304) (layer F.SilkS)
    (effects (font (size 0.4064 0.4064) (thickness 0.0254)))
  )
  (fp_text value >VALUE (at 0.04318 1.33604) (layer F.SilkS)
    (effects (font (size 0.4064 0.4064) (thickness 0.0254)))
  )
  (fp_line (start -0.79756 0.79756) (end 0.79756 0.79756) (layer Dwgs.User) (width 0.09906))
  (fp_line (start -0.79756 0.79756) (end -0.79756 -0.12954) (layer Dwgs.User) (width 0.09906))
  (fp_line (start -0.79756 -0.14986) (end -0.79756 -0.79756) (layer Dwgs.User) (width 0.09906))
  (fp_line (start 0.79756 -0.79756) (end -0.79756 -0.79756) (layer Dwgs.User) (width 0.09906))
  (fp_line (start 0.79756 0.79756) (end 0.79756 -0.79756) (layer Dwgs.User) (width 0.09906))
  (fp_line (start 0.0889 0.89916) (end -0.10922 0.89916) (layer F.SilkS) (width 0.19812))
  (fp_line (start 0.10922 -0.89916) (end -0.09906 -0.89916) (layer F.SilkS) (width 0.19812))
  (fp_poly (pts (xy 1.19888 0.99822) (xy -1.19888 0.99822) (xy -1.19888 -0.99822) (xy 1.19888 -0.99822)
    (xy 1.19888 0.99822)) (layer Dwgs.User) (width 0.09906))
  (fp_circle (center -1.39954 -1.09982) (end -1.39954 -1.19888) (layer F.SilkS) (width 0.19812))
  (pad 1 smd rect (at -0.6985 -0.49784 270) (size 0.6985 0.59944) (layers F.Cu F.Paste F.Mask))
  (pad 2 smd rect (at -0.6985 0.49784 270) (size 0.6985 0.59944) (layers F.Cu F.Paste F.Mask))
  (pad 3 smd rect (at 0.6985 0.49784 270) (size 0.6985 0.59944) (layers F.Cu F.Paste F.Mask))
  (pad 4 smd rect (at 0.6985 -0.49784 270) (size 0.6985 0.59944) (layers F.Cu F.Paste F.Mask))
)
