(module WL-SMCW_rev19c-WL-SMRW_1205 (layer F.Cu) (tedit 200000)
  (attr smd)
  (fp_text reference >NAME (at 0.01778 -1.50368) (layer F.SilkS)
    (effects (font (size 0.6096 0.6096) (thickness 0.0508)))
  )
  (fp_text value >VALUE (at 0.44704 1.4732) (layer F.SilkS)
    (effects (font (size 0.6096 0.6096) (thickness 0.0508)))
  )
  (fp_line (start -1.59766 0.59944) (end -1.59766 -0.59944) (layer Dwgs.User) (width 0.09906))
  (fp_line (start -1.59766 -0.59944) (end 1.59766 -0.59944) (layer Dwgs.User) (width 0.09906))
  (fp_line (start 1.59766 -0.59944) (end 1.59766 0.59944) (layer Dwgs.User) (width 0.09906))
  (fp_line (start 1.59766 0.59944) (end -1.59766 0.59944) (layer Dwgs.User) (width 0.09906))
  (fp_line (start -0.6985 0.6985) (end 0.6985 0.6985) (layer F.SilkS) (width 0.19812))
  (fp_line (start -0.6985 -0.6985) (end 0.6985 -0.6985) (layer F.SilkS) (width 0.19812))
  (fp_line (start 0.49784 -0.39878) (end 0.49784 0.39878) (layer F.SilkS) (width 0.09906))
  (fp_line (start 0.49784 0.39878) (end -0.49784 0) (layer F.SilkS) (width 0.09906))
  (fp_line (start -0.49784 0) (end 0.49784 -0.39878) (layer F.SilkS) (width 0.09906))
  (fp_poly (pts (xy -2.19964 -0.94996) (xy 2.19964 -0.94996) (xy 2.19964 0.94996) (xy -2.19964 0.94996)
    (xy -2.19964 -0.94996)) (layer Dwgs.User) (width 0.09906))
  (pad 1 smd rect (at -1.4986 0) (size 0.99822 1.19888) (layers F.Cu F.Paste F.Mask))
  (pad 2 smd rect (at 1.4986 0) (size 0.99822 1.19888) (layers F.Cu F.Paste F.Mask))
)
