(module WL-SMCW_rev19c-WL-SFTD_2022 (layer F.Cu) (tedit 200000)
  (descr "WL-SFTD SMT FULL-COLOR TOP LED DIFFUSED")
  (tags "WL-SFTD SMT FULL-COLOR TOP LED DIFFUSED")
  (attr smd)
  (fp_text reference >NAME (at 0 -2.00406) (layer F.SilkS)
    (effects (font (size 0.8128 0.8128) (thickness 0.0762)))
  )
  (fp_text value >VALUE (at -0.06096 1.8923) (layer F.SilkS)
    (effects (font (size 0.8128 0.8128) (thickness 0.0762)))
  )
  (fp_line (start -1.09982 -0.99822) (end 1.09982 -0.99822) (layer Dwgs.User) (width 0.09906))
  (fp_line (start 1.09982 -0.99822) (end 1.09982 0.99822) (layer Dwgs.User) (width 0.09906))
  (fp_line (start 1.09982 0.99822) (end -1.09982 0.99822) (layer Dwgs.User) (width 0.09906))
  (fp_line (start -1.09982 0.99822) (end -1.09982 -0.99822) (layer Dwgs.User) (width 0.09906))
  (fp_line (start -1.19888 -1.09982) (end 1.19888 -1.09982) (layer F.SilkS) (width 0.19812))
  (fp_line (start -1.19888 1.09982) (end 1.19888 1.09982) (layer F.SilkS) (width 0.19812))
  (fp_poly (pts (xy 1.4478 -1.19888) (xy 1.4478 1.19888) (xy -1.4478 1.19888) (xy -1.4478 -1.19888)
    (xy 1.4478 -1.19888)) (layer Dwgs.User) (width 0.09906))
  (fp_circle (center -1.4986 -0.99822) (end -1.4986 -1.04648) (layer F.SilkS) (width 0.09906))
  (pad 1 smd rect (at -0.84836 -0.47498) (size 0.79756 0.59944) (layers F.Cu F.Paste F.Mask))
  (pad 2 smd rect (at -0.84836 0.47498) (size 0.79756 0.59944) (layers F.Cu F.Paste F.Mask))
  (pad 3 smd rect (at 0.84836 0.47498) (size 0.79756 0.59944) (layers F.Cu F.Paste F.Mask))
  (pad 4 smd rect (at 0.84836 -0.47498) (size 0.79756 0.59944) (layers F.Cu F.Paste F.Mask))
)
