(module WL-SMCW_rev19c-WL-SIRW_15412085A3060 (layer F.Cu) (tedit 200000)
  (attr smd)
  (fp_text reference >NAME (at 0 -1.905) (layer F.SilkS)
    (effects (font (size 0.8128 0.8128) (thickness 0.0762)))
  )
  (fp_text value >VALUE (at 0 1.69164) (layer F.SilkS)
    (effects (font (size 0.8128 0.8128) (thickness 0.0762)))
  )
  (fp_line (start -1.59766 -0.79756) (end 1.59766 -0.79756) (layer Dwgs.User) (width 0.09906))
  (fp_line (start 1.59766 -0.79756) (end 1.59766 0.79756) (layer Dwgs.User) (width 0.09906))
  (fp_line (start 1.59766 0.79756) (end -1.59766 0.79756) (layer Dwgs.User) (width 0.09906))
  (fp_line (start -1.59766 0.79756) (end -1.59766 -0.79756) (layer Dwgs.User) (width 0.09906))
  (fp_line (start -0.99822 -0.89916) (end 0.99822 -0.89916) (layer F.SilkS) (width 0.19812))
  (fp_line (start -0.99822 0.89916) (end 0.99822 0.89916) (layer F.SilkS) (width 0.19812))
  (fp_line (start 0.39878 -0.49784) (end 0.39878 0.49784) (layer F.SilkS) (width 0.127))
  (fp_line (start 0.39878 0.49784) (end -0.59944 0) (layer F.SilkS) (width 0.127))
  (fp_line (start -0.59944 0) (end 0.39878 -0.49784) (layer F.SilkS) (width 0.127))
  (fp_poly (pts (xy -2.69748 -1.09982) (xy 2.69748 -1.09982) (xy 2.69748 1.09982) (xy -2.69748 1.09982)
    (xy -2.69748 -1.09982)) (layer Dwgs.User) (width 0.09906))
  (pad 1 smd rect (at -1.74752 0) (size 1.4986 1.59766) (layers F.Cu F.Paste F.Mask))
  (pad 2 smd rect (at 1.74752 0) (size 1.4986 1.59766) (layers F.Cu F.Paste F.Mask))
)
