(module WL-SMCW_rev19c-WL-SISW_15411485AA370 (layer F.Cu) (tedit 200000)
  (attr smd)
  (fp_text reference >NAME (at 0 -2.50444) (layer F.SilkS)
    (effects (font (size 0.8128 0.8128) (thickness 0.0762)))
  )
  (fp_text value >VALUE (at 0.09906 1.49352) (layer F.SilkS)
    (effects (font (size 0.8128 0.8128) (thickness 0.0762)))
  )
  (fp_line (start -1.4986 -0.51816) (end 1.4986 -0.51816) (layer Dwgs.User) (width 0.09906))
  (fp_line (start 1.4986 -0.51816) (end 1.4986 0.51816) (layer Dwgs.User) (width 0.09906))
  (fp_line (start 1.4986 0.51816) (end -1.4986 0.51816) (layer Dwgs.User) (width 0.09906))
  (fp_line (start -1.4986 0.51816) (end -1.4986 -0.51816) (layer Dwgs.User) (width 0.09906))
  (fp_line (start -0.72898 -0.61976) (end 0.7493 -0.61976) (layer F.SilkS) (width 0.19812))
  (fp_line (start -0.92202 -0.9906) (end -0.89662 -1.04902) (layer F.SilkS) (width 0.19812))
  (fp_line (start -0.89662 -1.04902) (end -0.85852 -1.1176) (layer F.SilkS) (width 0.19812))
  (fp_line (start -0.85852 -1.1176) (end -0.79502 -1.20904) (layer F.SilkS) (width 0.19812))
  (fp_line (start -0.79502 -1.20904) (end -0.7366 -1.28016) (layer F.SilkS) (width 0.19812))
  (fp_line (start -0.7366 -1.28016) (end -0.67056 -1.3462) (layer F.SilkS) (width 0.19812))
  (fp_line (start -0.67056 -1.3462) (end -0.58674 -1.41732) (layer F.SilkS) (width 0.19812))
  (fp_line (start -0.58674 -1.41732) (end -0.50546 -1.46812) (layer F.SilkS) (width 0.19812))
  (fp_line (start -0.50546 -1.46812) (end -0.40386 -1.51892) (layer F.SilkS) (width 0.19812))
  (fp_line (start -0.40386 -1.51892) (end -0.33274 -1.54686) (layer F.SilkS) (width 0.19812))
  (fp_line (start -0.33274 -1.54686) (end -0.25908 -1.56972) (layer F.SilkS) (width 0.19812))
  (fp_line (start -0.25908 -1.56972) (end -0.15494 -1.59258) (layer F.SilkS) (width 0.19812))
  (fp_line (start -0.15494 -1.59258) (end -0.03302 -1.60528) (layer F.SilkS) (width 0.19812))
  (fp_line (start -0.03302 -1.60528) (end 0.0508 -1.60274) (layer F.SilkS) (width 0.19812))
  (fp_line (start 0.0508 -1.60274) (end 0.13462 -1.59512) (layer F.SilkS) (width 0.19812))
  (fp_line (start 0.13462 -1.59512) (end 0.20574 -1.58496) (layer F.SilkS) (width 0.19812))
  (fp_line (start 0.20574 -1.58496) (end 0.29464 -1.55956) (layer F.SilkS) (width 0.19812))
  (fp_line (start 0.29464 -1.55956) (end 0.38862 -1.52654) (layer F.SilkS) (width 0.19812))
  (fp_line (start 0.38862 -1.52654) (end 0.46482 -1.49098) (layer F.SilkS) (width 0.19812))
  (fp_line (start 0.46482 -1.49098) (end 0.52578 -1.45796) (layer F.SilkS) (width 0.19812))
  (fp_line (start 0.52578 -1.45796) (end 0.60198 -1.40208) (layer F.SilkS) (width 0.19812))
  (fp_line (start 0.60198 -1.40208) (end 0.6731 -1.34366) (layer F.SilkS) (width 0.19812))
  (fp_line (start 0.6731 -1.34366) (end 0.75438 -1.25984) (layer F.SilkS) (width 0.19812))
  (fp_line (start 0.75438 -1.25984) (end 0.79756 -1.20396) (layer F.SilkS) (width 0.19812))
  (fp_line (start 0.79756 -1.20396) (end 0.85852 -1.1176) (layer F.SilkS) (width 0.19812))
  (fp_line (start 0.85852 -1.1176) (end 0.9144 -1.01346) (layer F.SilkS) (width 0.19812))
  (fp_line (start 0.9144 -1.01346) (end 0.93218 -0.96266) (layer F.SilkS) (width 0.19812))
  (fp_poly (pts (xy -2.09804 -1.69926) (xy 2.09804 -1.69926) (xy 2.09804 0.89916) (xy -2.09804 0.89916)
    (xy -2.09804 -1.69926)) (layer Dwgs.User) (width 0.09906))
  (fp_arc (start 0 -0.50292) (end -0.99822 -0.5588) (angle 173.7) (layer Dwgs.User) (width 0.09906))
  (fp_text user + (at -1.4986 -1.19888) (layer F.SilkS)
    (effects (font (size 0.6096 0.6096) (thickness 0.0508)))
  )
  (pad 1 smd rect (at 1.4986 0) (size 0.79756 1.39954) (layers F.Cu F.Paste F.Mask))
  (pad 2 smd rect (at -1.4986 0) (size 0.79756 1.39954) (layers F.Cu F.Paste F.Mask))
  (pad 3 smd rect (at 0 0.39878) (size 0.89916 0.59944) (layers F.Cu F.Paste F.Mask))
)
