(module WL-SMCW_rev19c-WL-SBSW_1204 (layer F.Cu) (tedit 200000)
  (attr smd)
  (fp_text reference >NAME (at 0.19812 -2.30632) (layer F.SilkS)
    (effects (font (size 0.8128 0.8128) (thickness 0.0762)))
  )
  (fp_text value >VALUE (at 0.7366 1.69164) (layer F.SilkS)
    (effects (font (size 0.8128 0.8128) (thickness 0.0762)))
  )
  (fp_line (start 1.59766 0.23876) (end -1.59766 0.23876) (layer Dwgs.User) (width 0.09906))
  (fp_line (start -1.59766 0.23876) (end -1.59766 -0.23876) (layer Dwgs.User) (width 0.09906))
  (fp_line (start -1.59766 -0.23876) (end 1.59766 -0.23876) (layer Dwgs.User) (width 0.09906))
  (fp_line (start 1.59766 -0.23876) (end 1.59766 0.23876) (layer Dwgs.User) (width 0.09906))
  (fp_line (start 0.56896 -0.33782) (end -0.57912 -0.33782) (layer F.SilkS) (width 0.19812))
  (fp_poly (pts (xy -2.2987 -1.4478) (xy 2.2987 -1.4478) (xy 2.2987 0.94996) (xy -2.2987 0.94996)
    (xy -2.2987 -1.4478)) (layer Dwgs.User) (width 0.09906))
  (fp_circle (center -0.89916 0.89916) (end -0.89916 0.8001) (layer F.SilkS) (width 0.19812))
  (fp_arc (start 0 -0.25908) (end -0.99822 -0.25908) (angle 180) (layer Dwgs.User) (width 0.09906))
  (fp_arc (start 0 -0.35814) (end -0.9652 -0.61468) (angle 151.1) (layer F.SilkS) (width 0.19812))
  (pad 1 smd rect (at 0 0.39878 180) (size 0.89916 0.6985) (layers F.Cu F.Paste F.Mask))
  (pad 2 smd rect (at 1.4986 0 180) (size 1.19888 0.6985) (layers F.Cu F.Paste F.Mask))
  (pad 3 smd rect (at -1.4986 0 180) (size 1.19888 0.6985) (layers F.Cu F.Paste F.Mask))
)
