(module WL-SMCW_rev19c-WL-SDCB_0805 (layer F.Cu) (tedit 200000)
  (descr "WL-SDCB SMT PHOTODIODE CHIP BLACK")
  (tags "WL-SDCB SMT PHOTODIODE CHIP BLACK")
  (attr smd)
  (fp_text reference >NAME (at 0 -1.40208) (layer F.SilkS)
    (effects (font (size 0.4064 0.4064) (thickness 0.0254)))
  )
  (fp_text value >VALUE (at 0.11684 1.39446) (layer F.SilkS)
    (effects (font (size 0.4064 0.4064) (thickness 0.0254)))
  )
  (fp_line (start -0.99822 -0.6477) (end 0.99822 -0.6477) (layer Dwgs.User) (width 0.09906))
  (fp_line (start 0.99822 -0.6477) (end 0.99822 0.6477) (layer Dwgs.User) (width 0.09906))
  (fp_line (start 0.99822 0.6477) (end -0.99822 0.6477) (layer Dwgs.User) (width 0.09906))
  (fp_line (start -0.99822 0.6477) (end -0.99822 -0.6477) (layer Dwgs.User) (width 0.09906))
  (fp_line (start -0.19812 -0.7493) (end 0.19812 -0.7493) (layer F.SilkS) (width 0.19812))
  (fp_line (start 0.19812 0.7493) (end -0.19812 0.7493) (layer F.SilkS) (width 0.19812))
  (fp_poly (pts (xy -1.59766 -0.94996) (xy 1.59766 -0.94996) (xy 1.59766 0.94996) (xy -1.59766 0.94996)
    (xy -1.59766 -0.94996)) (layer Dwgs.User) (width 0.09906))
  (pad 1 smd rect (at -0.94996 0) (size 0.89916 1.09982) (layers F.Cu F.Paste F.Mask))
  (pad 2 smd rect (at 0.94996 0) (size 0.89916 1.09982) (layers F.Cu F.Paste F.Mask))
)
