(module WL-SMCW_rev19c-WL-TDRW_3MM (layer F.Cu) (tedit 200000)
  (descr "WL-TDRW THT PHOTODIODE ROUND WATERCLEAR")
  (tags "WL-TDRW THT PHOTODIODE ROUND WATERCLEAR")
  (attr virtual)
  (fp_text reference >NAME (at 0 -2.90576) (layer F.SilkS)
    (effects (font (size 0.8128 0.8128) (thickness 0.0762)))
  )
  (fp_text value >VALUE (at -0.06096 2.89306) (layer F.SilkS)
    (effects (font (size 0.8128 0.8128) (thickness 0.0762)))
  )
  (fp_line (start -1.6383 1.00838) (end -1.6383 -1.00838) (layer Dwgs.User) (width 0.09906))
  (fp_line (start -1.7399 -1.00838) (end -1.7399 -0.92964) (layer F.SilkS) (width 0.19812))
  (fp_line (start -1.7399 1.00838) (end -1.7399 0.92964) (layer F.SilkS) (width 0.19812))
  (fp_poly (pts (xy 0 -2.21996) (xy 0.34544 -2.19202) (xy 0.6858 -2.11074) (xy 1.00584 -1.97612)
    (xy 1.30302 -1.79578) (xy 1.56972 -1.56972) (xy 1.79578 -1.30302) (xy 1.97612 -1.00584)
    (xy 2.11074 -0.6858) (xy 2.19202 -0.34544) (xy 2.21996 0) (xy 2.19202 0.34544)
    (xy 2.11074 0.6858) (xy 1.97612 1.00584) (xy 1.79578 1.30302) (xy 1.56972 1.56972)
    (xy 1.30302 1.79578) (xy 1.00584 1.97612) (xy 0.6858 2.11074) (xy 0.34544 2.19202)
    (xy 0 2.21996) (xy -0.00254 2.21996) (xy -0.35052 2.19202) (xy -0.68834 2.11074)
    (xy -1.00838 1.97612) (xy -1.30556 1.79578) (xy -1.56972 1.56972) (xy -1.79578 1.30556)
    (xy -1.97612 1.00838) (xy -2.11074 0.68834) (xy -2.19202 0.35052) (xy -2.21996 0.00254)
    (xy -2.21996 0) (xy -2.19202 -0.34544) (xy -2.11074 -0.6858) (xy -1.97612 -1.00584)
    (xy -1.79578 -1.30302) (xy -1.56972 -1.56972) (xy -1.30302 -1.79578) (xy -1.00584 -1.97612)
    (xy -0.6858 -2.11074) (xy -0.34544 -2.19202) (xy 0 -2.21996) (xy 0.00762 -2.21996)
    (xy 0 -2.21996)) (layer Dwgs.User) (width 0.09906))
  (fp_arc (start -0.0508 -0.1143) (end -1.7399 -1.00838) (angle 63.6) (layer F.SilkS) (width 0.19812))
  (fp_arc (start 0 0) (end 0 -2.02438) (angle 63.6) (layer F.SilkS) (width 0.19812))
  (fp_arc (start 0 0) (end 1.81356 0.89916) (angle 63.6) (layer F.SilkS) (width 0.19812))
  (fp_arc (start -0.0508 0.1143) (end 0 2.02438) (angle 63.6) (layer F.SilkS) (width 0.19812))
  (fp_arc (start 0 0) (end -1.6383 -1.00838) (angle 296.7) (layer Dwgs.User) (width 0.09906))
  (pad 1 thru_hole circle (at -1.27 0) (size 1.50622 1.50622) (drill 0.99822) (layers *.Cu *.Paste *.Mask))
  (pad 2 thru_hole circle (at 1.27 0) (size 1.50622 1.50622) (drill 0.99822) (layers *.Cu *.Paste *.Mask))
)
