(module WL-SMCW_rev19c-WL-SICW_1206 (layer F.Cu) (tedit 200000)
  (attr smd)
  (fp_text reference >NAME (at -0.09906 -2.00406) (layer F.SilkS)
    (effects (font (size 0.8128 0.8128) (thickness 0.0762)))
  )
  (fp_text value >VALUE (at 0.43688 1.8923) (layer F.SilkS)
    (effects (font (size 0.8128 0.8128) (thickness 0.0762)))
  )
  (fp_line (start -1.4986 -0.7493) (end 1.4986 -0.7493) (layer Dwgs.User) (width 0.09906))
  (fp_line (start 1.4986 -0.7493) (end 1.4986 0.7493) (layer Dwgs.User) (width 0.09906))
  (fp_line (start 1.4986 0.7493) (end -1.4986 0.7493) (layer Dwgs.User) (width 0.09906))
  (fp_line (start -1.4986 0.7493) (end -1.4986 -0.7493) (layer Dwgs.User) (width 0.09906))
  (fp_line (start -0.39878 -0.84836) (end 0.39878 -0.84836) (layer F.SilkS) (width 0.19812))
  (fp_line (start -0.39878 0.84836) (end 0.39878 0.84836) (layer F.SilkS) (width 0.19812))
  (fp_poly (pts (xy -1.79832 -1.04902) (xy 1.79832 -1.04902) (xy 1.79832 1.04902) (xy -1.79832 1.04902)
    (xy -1.79832 -1.04902)) (layer Dwgs.User) (width 0.09906))
  (fp_text user C (at 2.50444 -0.90424) (layer F.SilkS)
    (effects (font (size 0.6096 0.6096) (thickness 0.0508)))
  )
  (pad 1 smd rect (at -1.19888 0) (size 0.79756 1.4986) (layers F.Cu F.Paste F.Mask))
  (pad 2 smd rect (at 1.19888 0) (size 0.79756 1.4986) (layers F.Cu F.Paste F.Mask))
)
