(module WL-SMCW_rev19c-WL-SFCX_0606 (layer F.Cu) (tedit 200000)
  (attr smd)
  (fp_text reference >NAME (at 0.05842 -1.57226) (layer F.SilkS)
    (effects (font (size 0.4064 0.4064) (thickness 0.0254)))
  )
  (fp_text value >VALUE (at 0.1778 1.63576) (layer F.SilkS)
    (effects (font (size 0.4064 0.4064) (thickness 0.0254)))
  )
  (fp_line (start -0.79756 -0.79756) (end 0.79756 -0.79756) (layer Dwgs.User) (width 0.09906))
  (fp_line (start -0.79756 0.79756) (end 0.79756 0.79756) (layer Dwgs.User) (width 0.09906))
  (fp_line (start -0.79756 0.79756) (end -0.79756 -0.79756) (layer Dwgs.User) (width 0.09906))
  (fp_line (start 0.79756 0.79756) (end 0.79756 -0.79756) (layer Dwgs.User) (width 0.09906))
  (fp_line (start -0.09906 -0.89916) (end 0.09906 -0.89916) (layer F.SilkS) (width 0.19812))
  (fp_line (start -0.09906 0.89916) (end 0.09906 0.89916) (layer F.SilkS) (width 0.19812))
  (fp_poly (pts (xy -1.39954 -1.09982) (xy 1.39954 -1.09982) (xy 1.39954 1.09982) (xy -1.39954 1.09982)
    (xy -1.39954 -1.09982)) (layer Dwgs.User) (width 0.09906))
  (fp_text user 1 (at 0.2032 -0.40132) (layer F.SilkS)
    (effects (font (size 0.4064 0.4064) (thickness 0.0254)))
  )
  (fp_text user 1 (at 0.2032 -0.40132) (layer Dwgs.User)
    (effects (font (size 0.4064 0.4064) (thickness 0.0254)))
  )
  (fp_text user 2 (at 0.1016 0.39624) (layer Dwgs.User)
    (effects (font (size 0.4064 0.4064) (thickness 0.0254)))
  )
  (pad 1 smd rect (at 0.79756 -0.44958) (size 0.79756 0.49784) (layers F.Cu F.Paste F.Mask))
  (pad 2 smd rect (at 0.79756 0.44958) (size 0.79756 0.49784) (layers F.Cu F.Paste F.Mask))
  (pad 3 smd rect (at -0.79756 0.44958) (size 0.79756 0.49784) (layers F.Cu F.Paste F.Mask))
  (pad 4 smd rect (at -0.79756 -0.44958) (size 0.79756 0.49784) (layers F.Cu F.Paste F.Mask))
)
