(module WL-SMCW_rev19c-WL-SIRW_15412085A3060_REV (layer F.Cu) (tedit 200000)
  (attr smd)
  (fp_text reference >NAME (at 0.09906 -2.30632) (layer F.SilkS)
    (effects (font (size 0.8128 0.8128) (thickness 0.0762)))
  )
  (fp_text value >VALUE (at 0 2.09296) (layer F.SilkS)
    (effects (font (size 0.8128 0.8128) (thickness 0.0762)))
  )
  (fp_line (start -1.59766 -0.79756) (end 1.59766 -0.79756) (layer Dwgs.User) (width 0.09906))
  (fp_line (start 1.59766 -0.79756) (end 1.59766 0.79756) (layer Dwgs.User) (width 0.09906))
  (fp_line (start 1.59766 0.79756) (end -1.59766 0.79756) (layer Dwgs.User) (width 0.09906))
  (fp_line (start -1.59766 0.79756) (end -1.59766 -0.79756) (layer Dwgs.User) (width 0.09906))
  (fp_line (start -0.99822 -0.89916) (end 0.99822 -0.89916) (layer F.SilkS) (width 0.19812))
  (fp_line (start -0.99822 0.89916) (end 0.99822 0.89916) (layer F.SilkS) (width 0.19812))
  (fp_line (start 0.39878 -0.49784) (end 0.39878 0.49784) (layer F.SilkS) (width 0.127))
  (fp_line (start 0.39878 0.49784) (end -0.59944 0) (layer F.SilkS) (width 0.127))
  (fp_line (start -0.59944 0) (end 0.39878 -0.49784) (layer F.SilkS) (width 0.127))
  (fp_poly (pts (xy -2.2987 -1.39954) (xy 2.2987 -1.39954) (xy 2.2987 1.39954) (xy -2.2987 1.39954)
    (xy -2.2987 -1.39954)) (layer Dwgs.User) (width 0.09906))
  (pad 1 smd rect (at -1.69926 0) (size 0.79756 1.59766) (layers F.Cu F.Paste F.Mask))
  (pad 2 smd rect (at 1.69926 0) (size 0.79756 1.59766) (layers F.Cu F.Paste F.Mask))
  (pad "" np_thru_hole circle (at 0 0) (size 2.4384 2.4384) (drill 2.4384) (layers *.Cu *.Mask))
)
