(module WL-SMCW_rev19c-WL-SFCX_0805 (layer F.Cu) (tedit 200000)
  (attr smd)
  (fp_text reference >NAME (at 0 -1.90246) (layer F.SilkS)
    (effects (font (size 0.6096 0.6096) (thickness 0.0508)))
  )
  (fp_text value >VALUE (at 0.52832 1.89484) (layer F.SilkS)
    (effects (font (size 0.6096 0.6096) (thickness 0.0508)))
  )
  (fp_line (start 0.99822 0.6477) (end -0.99822 0.6477) (layer Dwgs.User) (width 0.09906))
  (fp_line (start -0.99822 0.6477) (end -0.99822 -0.6477) (layer Dwgs.User) (width 0.09906))
  (fp_line (start -0.99822 -0.6477) (end 0.99822 -0.6477) (layer Dwgs.User) (width 0.09906))
  (fp_line (start 0.99822 -0.6477) (end 0.99822 0.6477) (layer Dwgs.User) (width 0.09906))
  (fp_line (start 0.14986 0.7493) (end -0.1397 0.7493) (layer F.SilkS) (width 0.19812))
  (fp_line (start 0.1397 -0.7493) (end -0.12954 -0.7493) (layer F.SilkS) (width 0.19812))
  (fp_poly (pts (xy -1.64846 -1.34874) (xy 1.64846 -1.34874) (xy 1.64846 1.34874) (xy -1.64846 1.34874)
    (xy -1.64846 -1.34874)) (layer Dwgs.User) (width 0.09906))
  (fp_circle (center 1.89992 -1.29794) (end 1.89992 -1.397) (layer F.SilkS) (width 0.19812))
  (pad 1 smd rect (at 0.92456 -0.62484 270) (size 0.99822 0.99822) (layers F.Cu F.Paste F.Mask))
  (pad 2 smd rect (at 0.92456 0.62484 270) (size 0.99822 0.99822) (layers F.Cu F.Paste F.Mask))
  (pad 3 smd rect (at -0.92456 0.62484 270) (size 0.99822 0.99822) (layers F.Cu F.Paste F.Mask))
  (pad 4 smd rect (at -0.92456 -0.62484 270) (size 0.99822 0.99822) (layers F.Cu F.Paste F.Mask))
)
