(module Wuerth_36103605_60x60mm (layer F.Cu) (tedit 5A143358)
  (descr "WE-SHC Shielding Cabinet SMD 60x60mm")
  (tags "Shielding Cabinet")
  (attr smd)
  (fp_text reference REF** (at 0 -31.75) (layer F.SilkS)
    (effects (font (size 1 1) (thickness 0.15)))
  )
  (fp_text value Wuerth_36103605_60x60mm (at 0 31.75) (layer F.Fab)
    (effects (font (size 1 1) (thickness 0.15)))
  )
  (fp_text user %R (at 0 0) (layer F.Fab)
    (effects (font (size 1 1) (thickness 0.15)))
  )
  (fp_line (start -31 -31) (end -31 31) (layer F.CrtYd) (width 0.05))
  (fp_line (start -31 31) (end 31 31) (layer F.CrtYd) (width 0.05))
  (fp_line (start 31 31) (end 31 -31) (layer F.CrtYd) (width 0.05))
  (fp_line (start 31 -31) (end -31 -31) (layer F.CrtYd) (width 0.05))
  (fp_line (start -29.5 -29.5) (end -29.5 29.5) (layer F.CrtYd) (width 0.05))
  (fp_line (start -29.5 29.5) (end 29.5 29.5) (layer F.CrtYd) (width 0.05))
  (fp_line (start 29.5 29.5) (end 29.5 -29.5) (layer F.CrtYd) (width 0.05))
  (fp_line (start 29.5 -29.5) (end -29.5 -29.5) (layer F.CrtYd) (width 0.05))
  (fp_line (start -30.5 -30.5) (end -30.5 30.5) (layer F.Fab) (width 0.15))
  (fp_line (start -30.5 30.5) (end 30.5 30.5) (layer F.Fab) (width 0.15))
  (fp_line (start 30.5 30.5) (end 30.5 -30.5) (layer F.Fab) (width 0.15))
  (fp_line (start 30.5 -30.5) (end -30.5 -30.5) (layer F.Fab) (width 0.15))
  (fp_line (start -26.95 -30.65) (end -25.35 -30.65) (layer F.SilkS) (width 0.15))
  (fp_line (start -26.95 30.65) (end -25.35 30.65) (layer F.SilkS) (width 0.15))
  (fp_line (start -22.15 -30.65) (end -20.35 -30.65) (layer F.SilkS) (width 0.15))
  (fp_line (start -22.15 30.65) (end -20.35 30.65) (layer F.SilkS) (width 0.15))
  (fp_line (start -17.15 -30.65) (end -15.35 -30.65) (layer F.SilkS) (width 0.15))
  (fp_line (start -17.15 30.65) (end -15.35 30.65) (layer F.SilkS) (width 0.15))
  (fp_line (start -12.15 -30.65) (end -10.35 -30.65) (layer F.SilkS) (width 0.15))
  (fp_line (start -12.15 30.65) (end -10.35 30.65) (layer F.SilkS) (width 0.15))
  (fp_line (start -7.15 -30.65) (end -5.35 -30.65) (layer F.SilkS) (width 0.15))
  (fp_line (start -7.15 30.65) (end -5.35 30.65) (layer F.SilkS) (width 0.15))
  (fp_line (start -2.15 -30.65) (end 2.15 -30.65) (layer F.SilkS) (width 0.15))
  (fp_line (start -2.15 30.65) (end 2.15 30.65) (layer F.SilkS) (width 0.15))
  (fp_line (start 5.35 -30.65) (end 7.15 -30.65) (layer F.SilkS) (width 0.15))
  (fp_line (start 5.35 30.65) (end 7.15 30.65) (layer F.SilkS) (width 0.15))
  (fp_line (start 10.35 -30.65) (end 12.15 -30.65) (layer F.SilkS) (width 0.15))
  (fp_line (start 10.35 30.65) (end 12.15 30.65) (layer F.SilkS) (width 0.15))
  (fp_line (start 15.35 -30.65) (end 17.15 -30.65) (layer F.SilkS) (width 0.15))
  (fp_line (start 15.35 30.65) (end 17.15 30.65) (layer F.SilkS) (width 0.15))
  (fp_line (start 20.35 -30.65) (end 22.15 -30.65) (layer F.SilkS) (width 0.15))
  (fp_line (start 20.35 30.65) (end 22.15 30.65) (layer F.SilkS) (width 0.15))
  (fp_line (start 25.35 -30.65) (end 26.95 -30.65) (layer F.SilkS) (width 0.15))
  (fp_line (start 25.35 30.65) (end 26.95 30.65) (layer F.SilkS) (width 0.15))
  (fp_line (start -30.65 -26.95) (end -30.65 -25.35) (layer F.SilkS) (width 0.15))
  (fp_line (start 30.65 -26.95) (end 30.65 -25.35) (layer F.SilkS) (width 0.15))
  (fp_line (start -30.65 -22.15) (end -30.65 -20.35) (layer F.SilkS) (width 0.15))
  (fp_line (start 30.65 -22.15) (end 30.65 -20.35) (layer F.SilkS) (width 0.15))
  (fp_line (start -30.65 -17.15) (end -30.65 -15.35) (layer F.SilkS) (width 0.15))
  (fp_line (start 30.65 -17.15) (end 30.65 -15.35) (layer F.SilkS) (width 0.15))
  (fp_line (start -30.65 -12.15) (end -30.65 -10.35) (layer F.SilkS) (width 0.15))
  (fp_line (start 30.65 -12.15) (end 30.65 -10.35) (layer F.SilkS) (width 0.15))
  (fp_line (start -30.65 -7.15) (end -30.65 -5.35) (layer F.SilkS) (width 0.15))
  (fp_line (start 30.65 -7.15) (end 30.65 -5.35) (layer F.SilkS) (width 0.15))
  (fp_line (start -30.65 -2.15) (end -30.65 2.15) (layer F.SilkS) (width 0.15))
  (fp_line (start 30.65 -2.15) (end 30.65 2.15) (layer F.SilkS) (width 0.15))
  (fp_line (start -30.65 5.35) (end -30.65 7.15) (layer F.SilkS) (width 0.15))
  (fp_line (start 30.65 5.35) (end 30.65 7.15) (layer F.SilkS) (width 0.15))
  (fp_line (start -30.65 10.35) (end -30.65 12.15) (layer F.SilkS) (width 0.15))
  (fp_line (start 30.65 10.35) (end 30.65 12.15) (layer F.SilkS) (width 0.15))
  (fp_line (start -30.65 15.35) (end -30.65 17.15) (layer F.SilkS) (width 0.15))
  (fp_line (start 30.65 15.35) (end 30.65 17.15) (layer F.SilkS) (width 0.15))
  (fp_line (start -30.65 20.35) (end -30.65 22.15) (layer F.SilkS) (width 0.15))
  (fp_line (start 30.65 20.35) (end 30.65 22.15) (layer F.SilkS) (width 0.15))
  (fp_line (start -30.65 25.35) (end -30.65 26.95) (layer F.SilkS) (width 0.15))
  (fp_line (start 30.65 25.35) (end 30.65 26.95) (layer F.SilkS) (width 0.15))
  (pad 1 smd rect (at -30.25 -30.25) (size 1 1) (layers F.Cu F.Mask))
  (pad 1 smd rect (at 30.25 -30.25) (size 1 1) (layers F.Cu F.Mask))
  (pad 1 smd rect (at 30.25 30.25) (size 1 1) (layers F.Cu F.Mask))
  (pad 1 smd rect (at -30.25 30.25) (size 1 1) (layers F.Cu F.Mask))
  (pad 1 smd rect (at -28.5 -30.25) (size 2.5 1) (layers F.Cu F.Mask))
  (pad 1 smd rect (at -28.5 30.25) (size 2.5 1) (layers F.Cu F.Mask))
  (pad 1 smd rect (at -23.75 -30.25) (size 2.6 1) (layers F.Cu F.Mask))
  (pad 1 smd rect (at -23.75 30.25) (size 2.6 1) (layers F.Cu F.Mask))
  (pad 1 smd rect (at -18.75 -30.25) (size 2.6 1) (layers F.Cu F.Mask))
  (pad 1 smd rect (at -18.75 30.25) (size 2.6 1) (layers F.Cu F.Mask))
  (pad 1 smd rect (at -13.75 -30.25) (size 2.6 1) (layers F.Cu F.Mask))
  (pad 1 smd rect (at -13.75 30.25) (size 2.6 1) (layers F.Cu F.Mask))
  (pad 1 smd rect (at -8.75 -30.25) (size 2.6 1) (layers F.Cu F.Mask))
  (pad 1 smd rect (at -8.75 30.25) (size 2.6 1) (layers F.Cu F.Mask))
  (pad 1 smd rect (at -3.75 -30.25) (size 2.6 1) (layers F.Cu F.Mask))
  (pad 1 smd rect (at -3.75 30.25) (size 2.6 1) (layers F.Cu F.Mask))
  (pad 1 smd rect (at 3.75 -30.25) (size 2.6 1) (layers F.Cu F.Mask))
  (pad 1 smd rect (at 3.75 30.25) (size 2.6 1) (layers F.Cu F.Mask))
  (pad 1 smd rect (at 8.75 -30.25) (size 2.6 1) (layers F.Cu F.Mask))
  (pad 1 smd rect (at 8.75 30.25) (size 2.6 1) (layers F.Cu F.Mask))
  (pad 1 smd rect (at 13.75 -30.25) (size 2.6 1) (layers F.Cu F.Mask))
  (pad 1 smd rect (at 13.75 30.25) (size 2.6 1) (layers F.Cu F.Mask))
  (pad 1 smd rect (at 18.75 -30.25) (size 2.6 1) (layers F.Cu F.Mask))
  (pad 1 smd rect (at 18.75 30.25) (size 2.6 1) (layers F.Cu F.Mask))
  (pad 1 smd rect (at 23.75 -30.25) (size 2.6 1) (layers F.Cu F.Mask))
  (pad 1 smd rect (at 23.75 30.25) (size 2.6 1) (layers F.Cu F.Mask))
  (pad 1 smd rect (at 28.5 -30.25) (size 2.5 1) (layers F.Cu F.Mask))
  (pad 1 smd rect (at 28.5 30.25) (size 2.5 1) (layers F.Cu F.Mask))
  (pad 1 smd rect (at -30.25 -28.5) (size 1 2.5) (layers F.Cu F.Mask))
  (pad 1 smd rect (at 30.25 -28.5) (size 1 2.5) (layers F.Cu F.Mask))
  (pad 1 smd rect (at -30.25 -23.75) (size 1 2.6) (layers F.Cu F.Mask))
  (pad 1 smd rect (at 30.25 -23.75) (size 1 2.6) (layers F.Cu F.Mask))
  (pad 1 smd rect (at -30.25 -18.75) (size 1 2.6) (layers F.Cu F.Mask))
  (pad 1 smd rect (at 30.25 -18.75) (size 1 2.6) (layers F.Cu F.Mask))
  (pad 1 smd rect (at -30.25 -13.75) (size 1 2.6) (layers F.Cu F.Mask))
  (pad 1 smd rect (at 30.25 -13.75) (size 1 2.6) (layers F.Cu F.Mask))
  (pad 1 smd rect (at -30.25 -8.75) (size 1 2.6) (layers F.Cu F.Mask))
  (pad 1 smd rect (at 30.25 -8.75) (size 1 2.6) (layers F.Cu F.Mask))
  (pad 1 smd rect (at -30.25 -3.75) (size 1 2.6) (layers F.Cu F.Mask))
  (pad 1 smd rect (at 30.25 -3.75) (size 1 2.6) (layers F.Cu F.Mask))
  (pad 1 smd rect (at -30.25 3.75) (size 1 2.6) (layers F.Cu F.Mask))
  (pad 1 smd rect (at 30.25 3.75) (size 1 2.6) (layers F.Cu F.Mask))
  (pad 1 smd rect (at -30.25 8.75) (size 1 2.6) (layers F.Cu F.Mask))
  (pad 1 smd rect (at 30.25 8.75) (size 1 2.6) (layers F.Cu F.Mask))
  (pad 1 smd rect (at -30.25 13.75) (size 1 2.6) (layers F.Cu F.Mask))
  (pad 1 smd rect (at 30.25 13.75) (size 1 2.6) (layers F.Cu F.Mask))
  (pad 1 smd rect (at -30.25 18.75) (size 1 2.6) (layers F.Cu F.Mask))
  (pad 1 smd rect (at 30.25 18.75) (size 1 2.6) (layers F.Cu F.Mask))
  (pad 1 smd rect (at -30.25 23.75) (size 1 2.6) (layers F.Cu F.Mask))
  (pad 1 smd rect (at 30.25 23.75) (size 1 2.6) (layers F.Cu F.Mask))
  (pad 1 smd rect (at -30.25 28.5) (size 1 2.5) (layers F.Cu F.Mask))
  (pad 1 smd rect (at 30.25 28.5) (size 1 2.5) (layers F.Cu F.Mask))
  (model ${KIPRJMOD}/kicad_libs_k/models_k.3d/RF_Shielding_k.3dshapes/Wuerth_36103605_60x60mm_k.wrl
    (at (xyz 0 0 0))
    (scale (xyz 1 1 1))
    (rotate (xyz 0 0 0))
  )
)
