(module Samtec_MECF-20-01-L-DV_2x20_P1.27mm_Polarized_Socket_Horizontal (layer F.Cu) (tedit 5A1FF529)
  (descr "Highspeed card edge connector for 1.6mm PCB's with 20 contacts (polarized)")
  (tags "conn samtec card-edge high-speed")
  (attr smd)
  (fp_text reference REF** (at 0 -4) (layer F.SilkS)
    (effects (font (size 1 1) (thickness 0.15)))
  )
  (fp_text value Samtec_MECF-20-01-L-DV_2x20_P1.27mm_Polarized_Socket_Horizontal (at 0 4) (layer F.Fab)
    (effects (font (size 1 1) (thickness 0.15)))
  )
  (fp_line (start -13.485 2.805) (end 14.755 2.805) (layer F.Fab) (width 0.1))
  (fp_line (start -14.755 -2.805) (end 14.755 -2.805) (layer F.Fab) (width 0.1))
  (fp_line (start -14.755 1.535) (end -14.755 -2.805) (layer F.Fab) (width 0.1))
  (fp_line (start 14.755 2.805) (end 14.755 -2.805) (layer F.Fab) (width 0.1))
  (fp_line (start -14.755 1.535) (end -13.485 2.805) (layer F.Fab) (width 0.1))
  (fp_line (start -13.6 2.92) (end 14.87 2.92) (layer F.SilkS) (width 0.12))
  (fp_line (start -14.87 -2.92) (end 14.87 -2.92) (layer F.SilkS) (width 0.12))
  (fp_line (start -14.87 1.65) (end -14.87 -2.92) (layer F.SilkS) (width 0.12))
  (fp_line (start 14.87 2.92) (end 14.87 -2.92) (layer F.SilkS) (width 0.12))
  (fp_line (start -13.6 2.92) (end -14.87 1.65) (layer F.SilkS) (width 0.12))
  (fp_line (start -15.26 -3.3) (end -15.26 3.3) (layer F.CrtYd) (width 0.05))
  (fp_line (start -15.26 3.3) (end 15.26 3.3) (layer F.CrtYd) (width 0.05))
  (fp_line (start 15.26 3.3) (end 15.26 -3.3) (layer F.CrtYd) (width 0.05))
  (fp_line (start 15.26 -3.3) (end -15.26 -3.3) (layer F.CrtYd) (width 0.05))
  (pad 1 smd rect (at -12.065 1.905) (size 0.66 1.35) (layers F.Cu F.Mask F.Paste))
  (pad 2 smd rect (at -12.065 -1.905) (size 0.66 1.35) (layers F.Cu F.Mask F.Paste))
  (pad 3 smd rect (at -10.795 1.905) (size 0.66 1.35) (layers F.Cu F.Mask F.Paste))
  (pad 4 smd rect (at -10.795 -1.905) (size 0.66 1.35) (layers F.Cu F.Mask F.Paste))
  (pad 5 smd rect (at -9.525 1.905) (size 0.66 1.35) (layers F.Cu F.Mask F.Paste))
  (pad 6 smd rect (at -9.525 -1.905) (size 0.66 1.35) (layers F.Cu F.Mask F.Paste))
  (pad 7 smd rect (at -8.255 1.905) (size 0.66 1.35) (layers F.Cu F.Mask F.Paste))
  (pad 8 smd rect (at -8.255 -1.905) (size 0.66 1.35) (layers F.Cu F.Mask F.Paste))
  (pad 9 smd rect (at -6.985 1.905) (size 0.66 1.35) (layers F.Cu F.Mask F.Paste))
  (pad 10 smd rect (at -6.985 -1.905) (size 0.66 1.35) (layers F.Cu F.Mask F.Paste))
  (pad 11 smd rect (at -5.715 1.905) (size 0.66 1.35) (layers F.Cu F.Mask F.Paste))
  (pad 12 smd rect (at -5.715 -1.905) (size 0.66 1.35) (layers F.Cu F.Mask F.Paste))
  (pad 13 smd rect (at -4.445 1.905) (size 0.66 1.35) (layers F.Cu F.Mask F.Paste))
  (pad 14 smd rect (at -4.445 -1.905) (size 0.66 1.35) (layers F.Cu F.Mask F.Paste))
  (pad 17 smd rect (at -1.905 1.905) (size 0.66 1.35) (layers F.Cu F.Mask F.Paste))
  (pad 18 smd rect (at -1.905 -1.905) (size 0.66 1.35) (layers F.Cu F.Mask F.Paste))
  (pad 19 smd rect (at -0.635 1.905) (size 0.66 1.35) (layers F.Cu F.Mask F.Paste))
  (pad 20 smd rect (at -0.635 -1.905) (size 0.66 1.35) (layers F.Cu F.Mask F.Paste))
  (pad 21 smd rect (at 0.635 1.905) (size 0.66 1.35) (layers F.Cu F.Mask F.Paste))
  (pad 22 smd rect (at 0.635 -1.905) (size 0.66 1.35) (layers F.Cu F.Mask F.Paste))
  (pad 23 smd rect (at 1.905 1.905) (size 0.66 1.35) (layers F.Cu F.Mask F.Paste))
  (pad 24 smd rect (at 1.905 -1.905) (size 0.66 1.35) (layers F.Cu F.Mask F.Paste))
  (pad 25 smd rect (at 3.175 1.905) (size 0.66 1.35) (layers F.Cu F.Mask F.Paste))
  (pad 26 smd rect (at 3.175 -1.905) (size 0.66 1.35) (layers F.Cu F.Mask F.Paste))
  (pad 27 smd rect (at 4.445 1.905) (size 0.66 1.35) (layers F.Cu F.Mask F.Paste))
  (pad 28 smd rect (at 4.445 -1.905) (size 0.66 1.35) (layers F.Cu F.Mask F.Paste))
  (pad 29 smd rect (at 5.715 1.905) (size 0.66 1.35) (layers F.Cu F.Mask F.Paste))
  (pad 30 smd rect (at 5.715 -1.905) (size 0.66 1.35) (layers F.Cu F.Mask F.Paste))
  (pad 31 smd rect (at 6.985 1.905) (size 0.66 1.35) (layers F.Cu F.Mask F.Paste))
  (pad 32 smd rect (at 6.985 -1.905) (size 0.66 1.35) (layers F.Cu F.Mask F.Paste))
  (pad 33 smd rect (at 8.255 1.905) (size 0.66 1.35) (layers F.Cu F.Mask F.Paste))
  (pad 34 smd rect (at 8.255 -1.905) (size 0.66 1.35) (layers F.Cu F.Mask F.Paste))
  (pad 35 smd rect (at 9.525 1.905) (size 0.66 1.35) (layers F.Cu F.Mask F.Paste))
  (pad 36 smd rect (at 9.525 -1.905) (size 0.66 1.35) (layers F.Cu F.Mask F.Paste))
  (pad 37 smd rect (at 10.795 1.905) (size 0.66 1.35) (layers F.Cu F.Mask F.Paste))
  (pad 38 smd rect (at 10.795 -1.905) (size 0.66 1.35) (layers F.Cu F.Mask F.Paste))
  (pad 39 smd rect (at 12.065 1.905) (size 0.66 1.35) (layers F.Cu F.Mask F.Paste))
  (pad 40 smd rect (at 12.065 -1.905) (size 0.66 1.35) (layers F.Cu F.Mask F.Paste))
  (pad "" np_thru_hole circle (at -13.845 0) (size 1.45 1.45) (drill 1.45) (layers *.Cu *.Mask))
  (pad "" np_thru_hole circle (at 13.845 1) (size 1.45 1.45) (drill 1.45) (layers *.Cu *.Mask))
  (fp_text user %R (at 0 0) (layer F.Fab)
    (effects (font (size 1 1) (thickness 0.15)))
  )
  (model ${KIPRJMOD}/kicad_libs_k/models_k.3d/Connector_PCBEdge_k.3dshapes/Samtec_MECF-20-01-L-DV_2x20_P1.27mm_Polarized_Socket_Horizontal_k.wrl
    (at (xyz 0 0 0))
    (scale (xyz 1 1 1))
    (rotate (xyz 0 0 0))
  )
)