(module Samtec_MECF-70-01-NP-L-DV_2x70_P1.27mm_Socket_Horizontal (layer F.Cu) (tedit 5A1FF529)
  (descr "Highspeed card edge connector for 1.6mm PCB's with 70 contacts (not polarized)")
  (tags "conn samtec card-edge high-speed")
  (attr smd)
  (fp_text reference REF** (at 0 -4) (layer F.SilkS)
    (effects (font (size 1 1) (thickness 0.15)))
  )
  (fp_text value Samtec_MECF-70-01-NP-L-DV_2x70_P1.27mm_Socket_Horizontal (at 0 4) (layer F.Fab)
    (effects (font (size 1 1) (thickness 0.15)))
  )
  (fp_line (start -45.235 2.805) (end 46.505 2.805) (layer F.Fab) (width 0.1))
  (fp_line (start -46.505 -2.805) (end 46.505 -2.805) (layer F.Fab) (width 0.1))
  (fp_line (start -46.505 1.535) (end -46.505 -2.805) (layer F.Fab) (width 0.1))
  (fp_line (start 46.505 2.805) (end 46.505 -2.805) (layer F.Fab) (width 0.1))
  (fp_line (start -46.505 1.535) (end -45.235 2.805) (layer F.Fab) (width 0.1))
  (fp_line (start -45.34 2.92) (end 46.61 2.92) (layer F.SilkS) (width 0.12))
  (fp_line (start -46.61 -2.92) (end 46.61 -2.92) (layer F.SilkS) (width 0.12))
  (fp_line (start -46.61 1.65) (end -46.61 -2.92) (layer F.SilkS) (width 0.12))
  (fp_line (start 46.61 2.92) (end 46.61 -2.92) (layer F.SilkS) (width 0.12))
  (fp_line (start -45.34 2.92) (end -46.61 1.65) (layer F.SilkS) (width 0.12))
  (fp_line (start -47 -3.3) (end -47 3.3) (layer F.CrtYd) (width 0.05))
  (fp_line (start -47 3.3) (end 47 3.3) (layer F.CrtYd) (width 0.05))
  (fp_line (start 47 3.3) (end 47 -3.3) (layer F.CrtYd) (width 0.05))
  (fp_line (start 47 -3.3) (end -47 -3.3) (layer F.CrtYd) (width 0.05))
  (pad 1 smd rect (at -43.815 1.905) (size 0.66 1.35) (layers F.Cu F.Mask F.Paste))
  (pad 2 smd rect (at -43.815 -1.905) (size 0.66 1.35) (layers F.Cu F.Mask F.Paste))
  (pad 3 smd rect (at -42.545 1.905) (size 0.66 1.35) (layers F.Cu F.Mask F.Paste))
  (pad 4 smd rect (at -42.545 -1.905) (size 0.66 1.35) (layers F.Cu F.Mask F.Paste))
  (pad 5 smd rect (at -41.275 1.905) (size 0.66 1.35) (layers F.Cu F.Mask F.Paste))
  (pad 6 smd rect (at -41.275 -1.905) (size 0.66 1.35) (layers F.Cu F.Mask F.Paste))
  (pad 7 smd rect (at -40.005 1.905) (size 0.66 1.35) (layers F.Cu F.Mask F.Paste))
  (pad 8 smd rect (at -40.005 -1.905) (size 0.66 1.35) (layers F.Cu F.Mask F.Paste))
  (pad 9 smd rect (at -38.735 1.905) (size 0.66 1.35) (layers F.Cu F.Mask F.Paste))
  (pad 10 smd rect (at -38.735 -1.905) (size 0.66 1.35) (layers F.Cu F.Mask F.Paste))
  (pad 11 smd rect (at -37.465 1.905) (size 0.66 1.35) (layers F.Cu F.Mask F.Paste))
  (pad 12 smd rect (at -37.465 -1.905) (size 0.66 1.35) (layers F.Cu F.Mask F.Paste))
  (pad 13 smd rect (at -36.195 1.905) (size 0.66 1.35) (layers F.Cu F.Mask F.Paste))
  (pad 14 smd rect (at -36.195 -1.905) (size 0.66 1.35) (layers F.Cu F.Mask F.Paste))
  (pad 15 smd rect (at -34.925 1.905) (size 0.66 1.35) (layers F.Cu F.Mask F.Paste))
  (pad 16 smd rect (at -34.925 -1.905) (size 0.66 1.35) (layers F.Cu F.Mask F.Paste))
  (pad 17 smd rect (at -33.655 1.905) (size 0.66 1.35) (layers F.Cu F.Mask F.Paste))
  (pad 18 smd rect (at -33.655 -1.905) (size 0.66 1.35) (layers F.Cu F.Mask F.Paste))
  (pad 19 smd rect (at -32.385 1.905) (size 0.66 1.35) (layers F.Cu F.Mask F.Paste))
  (pad 20 smd rect (at -32.385 -1.905) (size 0.66 1.35) (layers F.Cu F.Mask F.Paste))
  (pad 21 smd rect (at -31.115 1.905) (size 0.66 1.35) (layers F.Cu F.Mask F.Paste))
  (pad 22 smd rect (at -31.115 -1.905) (size 0.66 1.35) (layers F.Cu F.Mask F.Paste))
  (pad 23 smd rect (at -29.845 1.905) (size 0.66 1.35) (layers F.Cu F.Mask F.Paste))
  (pad 24 smd rect (at -29.845 -1.905) (size 0.66 1.35) (layers F.Cu F.Mask F.Paste))
  (pad 25 smd rect (at -28.575 1.905) (size 0.66 1.35) (layers F.Cu F.Mask F.Paste))
  (pad 26 smd rect (at -28.575 -1.905) (size 0.66 1.35) (layers F.Cu F.Mask F.Paste))
  (pad 27 smd rect (at -27.305 1.905) (size 0.66 1.35) (layers F.Cu F.Mask F.Paste))
  (pad 28 smd rect (at -27.305 -1.905) (size 0.66 1.35) (layers F.Cu F.Mask F.Paste))
  (pad 29 smd rect (at -26.035 1.905) (size 0.66 1.35) (layers F.Cu F.Mask F.Paste))
  (pad 30 smd rect (at -26.035 -1.905) (size 0.66 1.35) (layers F.Cu F.Mask F.Paste))
  (pad 31 smd rect (at -24.765 1.905) (size 0.66 1.35) (layers F.Cu F.Mask F.Paste))
  (pad 32 smd rect (at -24.765 -1.905) (size 0.66 1.35) (layers F.Cu F.Mask F.Paste))
  (pad 33 smd rect (at -23.495 1.905) (size 0.66 1.35) (layers F.Cu F.Mask F.Paste))
  (pad 34 smd rect (at -23.495 -1.905) (size 0.66 1.35) (layers F.Cu F.Mask F.Paste))
  (pad 35 smd rect (at -22.225 1.905) (size 0.66 1.35) (layers F.Cu F.Mask F.Paste))
  (pad 36 smd rect (at -22.225 -1.905) (size 0.66 1.35) (layers F.Cu F.Mask F.Paste))
  (pad 37 smd rect (at -20.955 1.905) (size 0.66 1.35) (layers F.Cu F.Mask F.Paste))
  (pad 38 smd rect (at -20.955 -1.905) (size 0.66 1.35) (layers F.Cu F.Mask F.Paste))
  (pad 39 smd rect (at -19.685 1.905) (size 0.66 1.35) (layers F.Cu F.Mask F.Paste))
  (pad 40 smd rect (at -19.685 -1.905) (size 0.66 1.35) (layers F.Cu F.Mask F.Paste))
  (pad 41 smd rect (at -18.415 1.905) (size 0.66 1.35) (layers F.Cu F.Mask F.Paste))
  (pad 42 smd rect (at -18.415 -1.905) (size 0.66 1.35) (layers F.Cu F.Mask F.Paste))
  (pad 43 smd rect (at -17.145 1.905) (size 0.66 1.35) (layers F.Cu F.Mask F.Paste))
  (pad 44 smd rect (at -17.145 -1.905) (size 0.66 1.35) (layers F.Cu F.Mask F.Paste))
  (pad 45 smd rect (at -15.875 1.905) (size 0.66 1.35) (layers F.Cu F.Mask F.Paste))
  (pad 46 smd rect (at -15.875 -1.905) (size 0.66 1.35) (layers F.Cu F.Mask F.Paste))
  (pad 47 smd rect (at -14.605 1.905) (size 0.66 1.35) (layers F.Cu F.Mask F.Paste))
  (pad 48 smd rect (at -14.605 -1.905) (size 0.66 1.35) (layers F.Cu F.Mask F.Paste))
  (pad 49 smd rect (at -13.335 1.905) (size 0.66 1.35) (layers F.Cu F.Mask F.Paste))
  (pad 50 smd rect (at -13.335 -1.905) (size 0.66 1.35) (layers F.Cu F.Mask F.Paste))
  (pad 51 smd rect (at -12.065 1.905) (size 0.66 1.35) (layers F.Cu F.Mask F.Paste))
  (pad 52 smd rect (at -12.065 -1.905) (size 0.66 1.35) (layers F.Cu F.Mask F.Paste))
  (pad 53 smd rect (at -10.795 1.905) (size 0.66 1.35) (layers F.Cu F.Mask F.Paste))
  (pad 54 smd rect (at -10.795 -1.905) (size 0.66 1.35) (layers F.Cu F.Mask F.Paste))
  (pad 55 smd rect (at -9.525 1.905) (size 0.66 1.35) (layers F.Cu F.Mask F.Paste))
  (pad 56 smd rect (at -9.525 -1.905) (size 0.66 1.35) (layers F.Cu F.Mask F.Paste))
  (pad 57 smd rect (at -8.255 1.905) (size 0.66 1.35) (layers F.Cu F.Mask F.Paste))
  (pad 58 smd rect (at -8.255 -1.905) (size 0.66 1.35) (layers F.Cu F.Mask F.Paste))
  (pad 59 smd rect (at -6.985 1.905) (size 0.66 1.35) (layers F.Cu F.Mask F.Paste))
  (pad 60 smd rect (at -6.985 -1.905) (size 0.66 1.35) (layers F.Cu F.Mask F.Paste))
  (pad 61 smd rect (at -5.715 1.905) (size 0.66 1.35) (layers F.Cu F.Mask F.Paste))
  (pad 62 smd rect (at -5.715 -1.905) (size 0.66 1.35) (layers F.Cu F.Mask F.Paste))
  (pad 63 smd rect (at -4.445 1.905) (size 0.66 1.35) (layers F.Cu F.Mask F.Paste))
  (pad 64 smd rect (at -4.445 -1.905) (size 0.66 1.35) (layers F.Cu F.Mask F.Paste))
  (pad 65 smd rect (at -3.175 1.905) (size 0.66 1.35) (layers F.Cu F.Mask F.Paste))
  (pad 66 smd rect (at -3.175 -1.905) (size 0.66 1.35) (layers F.Cu F.Mask F.Paste))
  (pad 67 smd rect (at -1.905 1.905) (size 0.66 1.35) (layers F.Cu F.Mask F.Paste))
  (pad 68 smd rect (at -1.905 -1.905) (size 0.66 1.35) (layers F.Cu F.Mask F.Paste))
  (pad 69 smd rect (at -0.635 1.905) (size 0.66 1.35) (layers F.Cu F.Mask F.Paste))
  (pad 70 smd rect (at -0.635 -1.905) (size 0.66 1.35) (layers F.Cu F.Mask F.Paste))
  (pad 71 smd rect (at 0.635 1.905) (size 0.66 1.35) (layers F.Cu F.Mask F.Paste))
  (pad 72 smd rect (at 0.635 -1.905) (size 0.66 1.35) (layers F.Cu F.Mask F.Paste))
  (pad 73 smd rect (at 1.905 1.905) (size 0.66 1.35) (layers F.Cu F.Mask F.Paste))
  (pad 74 smd rect (at 1.905 -1.905) (size 0.66 1.35) (layers F.Cu F.Mask F.Paste))
  (pad 75 smd rect (at 3.175 1.905) (size 0.66 1.35) (layers F.Cu F.Mask F.Paste))
  (pad 76 smd rect (at 3.175 -1.905) (size 0.66 1.35) (layers F.Cu F.Mask F.Paste))
  (pad 77 smd rect (at 4.445 1.905) (size 0.66 1.35) (layers F.Cu F.Mask F.Paste))
  (pad 78 smd rect (at 4.445 -1.905) (size 0.66 1.35) (layers F.Cu F.Mask F.Paste))
  (pad 79 smd rect (at 5.715 1.905) (size 0.66 1.35) (layers F.Cu F.Mask F.Paste))
  (pad 80 smd rect (at 5.715 -1.905) (size 0.66 1.35) (layers F.Cu F.Mask F.Paste))
  (pad 81 smd rect (at 6.985 1.905) (size 0.66 1.35) (layers F.Cu F.Mask F.Paste))
  (pad 82 smd rect (at 6.985 -1.905) (size 0.66 1.35) (layers F.Cu F.Mask F.Paste))
  (pad 83 smd rect (at 8.255 1.905) (size 0.66 1.35) (layers F.Cu F.Mask F.Paste))
  (pad 84 smd rect (at 8.255 -1.905) (size 0.66 1.35) (layers F.Cu F.Mask F.Paste))
  (pad 85 smd rect (at 9.525 1.905) (size 0.66 1.35) (layers F.Cu F.Mask F.Paste))
  (pad 86 smd rect (at 9.525 -1.905) (size 0.66 1.35) (layers F.Cu F.Mask F.Paste))
  (pad 87 smd rect (at 10.795 1.905) (size 0.66 1.35) (layers F.Cu F.Mask F.Paste))
  (pad 88 smd rect (at 10.795 -1.905) (size 0.66 1.35) (layers F.Cu F.Mask F.Paste))
  (pad 89 smd rect (at 12.065 1.905) (size 0.66 1.35) (layers F.Cu F.Mask F.Paste))
  (pad 90 smd rect (at 12.065 -1.905) (size 0.66 1.35) (layers F.Cu F.Mask F.Paste))
  (pad 91 smd rect (at 13.335 1.905) (size 0.66 1.35) (layers F.Cu F.Mask F.Paste))
  (pad 92 smd rect (at 13.335 -1.905) (size 0.66 1.35) (layers F.Cu F.Mask F.Paste))
  (pad 93 smd rect (at 14.605 1.905) (size 0.66 1.35) (layers F.Cu F.Mask F.Paste))
  (pad 94 smd rect (at 14.605 -1.905) (size 0.66 1.35) (layers F.Cu F.Mask F.Paste))
  (pad 95 smd rect (at 15.875 1.905) (size 0.66 1.35) (layers F.Cu F.Mask F.Paste))
  (pad 96 smd rect (at 15.875 -1.905) (size 0.66 1.35) (layers F.Cu F.Mask F.Paste))
  (pad 97 smd rect (at 17.145 1.905) (size 0.66 1.35) (layers F.Cu F.Mask F.Paste))
  (pad 98 smd rect (at 17.145 -1.905) (size 0.66 1.35) (layers F.Cu F.Mask F.Paste))
  (pad 99 smd rect (at 18.415 1.905) (size 0.66 1.35) (layers F.Cu F.Mask F.Paste))
  (pad 100 smd rect (at 18.415 -1.905) (size 0.66 1.35) (layers F.Cu F.Mask F.Paste))
  (pad 101 smd rect (at 19.685 1.905) (size 0.66 1.35) (layers F.Cu F.Mask F.Paste))
  (pad 102 smd rect (at 19.685 -1.905) (size 0.66 1.35) (layers F.Cu F.Mask F.Paste))
  (pad 103 smd rect (at 20.955 1.905) (size 0.66 1.35) (layers F.Cu F.Mask F.Paste))
  (pad 104 smd rect (at 20.955 -1.905) (size 0.66 1.35) (layers F.Cu F.Mask F.Paste))
  (pad 105 smd rect (at 22.225 1.905) (size 0.66 1.35) (layers F.Cu F.Mask F.Paste))
  (pad 106 smd rect (at 22.225 -1.905) (size 0.66 1.35) (layers F.Cu F.Mask F.Paste))
  (pad 107 smd rect (at 23.495 1.905) (size 0.66 1.35) (layers F.Cu F.Mask F.Paste))
  (pad 108 smd rect (at 23.495 -1.905) (size 0.66 1.35) (layers F.Cu F.Mask F.Paste))
  (pad 109 smd rect (at 24.765 1.905) (size 0.66 1.35) (layers F.Cu F.Mask F.Paste))
  (pad 110 smd rect (at 24.765 -1.905) (size 0.66 1.35) (layers F.Cu F.Mask F.Paste))
  (pad 111 smd rect (at 26.035 1.905) (size 0.66 1.35) (layers F.Cu F.Mask F.Paste))
  (pad 112 smd rect (at 26.035 -1.905) (size 0.66 1.35) (layers F.Cu F.Mask F.Paste))
  (pad 113 smd rect (at 27.305 1.905) (size 0.66 1.35) (layers F.Cu F.Mask F.Paste))
  (pad 114 smd rect (at 27.305 -1.905) (size 0.66 1.35) (layers F.Cu F.Mask F.Paste))
  (pad 115 smd rect (at 28.575 1.905) (size 0.66 1.35) (layers F.Cu F.Mask F.Paste))
  (pad 116 smd rect (at 28.575 -1.905) (size 0.66 1.35) (layers F.Cu F.Mask F.Paste))
  (pad 117 smd rect (at 29.845 1.905) (size 0.66 1.35) (layers F.Cu F.Mask F.Paste))
  (pad 118 smd rect (at 29.845 -1.905) (size 0.66 1.35) (layers F.Cu F.Mask F.Paste))
  (pad 119 smd rect (at 31.115 1.905) (size 0.66 1.35) (layers F.Cu F.Mask F.Paste))
  (pad 120 smd rect (at 31.115 -1.905) (size 0.66 1.35) (layers F.Cu F.Mask F.Paste))
  (pad 121 smd rect (at 32.385 1.905) (size 0.66 1.35) (layers F.Cu F.Mask F.Paste))
  (pad 122 smd rect (at 32.385 -1.905) (size 0.66 1.35) (layers F.Cu F.Mask F.Paste))
  (pad 123 smd rect (at 33.655 1.905) (size 0.66 1.35) (layers F.Cu F.Mask F.Paste))
  (pad 124 smd rect (at 33.655 -1.905) (size 0.66 1.35) (layers F.Cu F.Mask F.Paste))
  (pad 125 smd rect (at 34.925 1.905) (size 0.66 1.35) (layers F.Cu F.Mask F.Paste))
  (pad 126 smd rect (at 34.925 -1.905) (size 0.66 1.35) (layers F.Cu F.Mask F.Paste))
  (pad 127 smd rect (at 36.195 1.905) (size 0.66 1.35) (layers F.Cu F.Mask F.Paste))
  (pad 128 smd rect (at 36.195 -1.905) (size 0.66 1.35) (layers F.Cu F.Mask F.Paste))
  (pad 129 smd rect (at 37.465 1.905) (size 0.66 1.35) (layers F.Cu F.Mask F.Paste))
  (pad 130 smd rect (at 37.465 -1.905) (size 0.66 1.35) (layers F.Cu F.Mask F.Paste))
  (pad 131 smd rect (at 38.735 1.905) (size 0.66 1.35) (layers F.Cu F.Mask F.Paste))
  (pad 132 smd rect (at 38.735 -1.905) (size 0.66 1.35) (layers F.Cu F.Mask F.Paste))
  (pad 133 smd rect (at 40.005 1.905) (size 0.66 1.35) (layers F.Cu F.Mask F.Paste))
  (pad 134 smd rect (at 40.005 -1.905) (size 0.66 1.35) (layers F.Cu F.Mask F.Paste))
  (pad 135 smd rect (at 41.275 1.905) (size 0.66 1.35) (layers F.Cu F.Mask F.Paste))
  (pad 136 smd rect (at 41.275 -1.905) (size 0.66 1.35) (layers F.Cu F.Mask F.Paste))
  (pad 137 smd rect (at 42.545 1.905) (size 0.66 1.35) (layers F.Cu F.Mask F.Paste))
  (pad 138 smd rect (at 42.545 -1.905) (size 0.66 1.35) (layers F.Cu F.Mask F.Paste))
  (pad 139 smd rect (at 43.815 1.905) (size 0.66 1.35) (layers F.Cu F.Mask F.Paste))
  (pad 140 smd rect (at 43.815 -1.905) (size 0.66 1.35) (layers F.Cu F.Mask F.Paste))
  (pad "" np_thru_hole circle (at -45.595 0) (size 1.45 1.45) (drill 1.45) (layers *.Cu *.Mask))
  (pad "" np_thru_hole circle (at 45.595 1) (size 1.45 1.45) (drill 1.45) (layers *.Cu *.Mask))
  (fp_text user %R (at 0 0) (layer F.Fab)
    (effects (font (size 1 1) (thickness 0.15)))
  )
  (model ${KIPRJMOD}/kicad_libs_k/models_k.3d/Connector_PCBEdge_k.3dshapes/Samtec_MECF-70-01-NP-L-DV_2x70_P1.27mm_Socket_Horizontal_k.wrl
    (at (xyz 0 0 0))
    (scale (xyz 1 1 1))
    (rotate (xyz 0 0 0))
  )
)