(module Samtec_MECF-40-01-NP-L-DV-WT_2x40_P1.27mm_Socket_Horizontal (layer F.Cu) (tedit 5A1FF529)
  (descr "Highspeed card edge connector for 1.6mm PCB's with 40 contacts (not polarized)")
  (tags "conn samtec card-edge high-speed")
  (attr smd)
  (fp_text reference REF** (at 0 -4) (layer F.SilkS)
    (effects (font (size 1 1) (thickness 0.15)))
  )
  (fp_text value Samtec_MECF-40-01-NP-L-DV-WT_2x40_P1.27mm_Socket_Horizontal (at 0 4) (layer F.Fab)
    (effects (font (size 1 1) (thickness 0.15)))
  )
  (fp_line (start -28.09 2.805) (end 29.36 2.805) (layer F.Fab) (width 0.1))
  (fp_line (start -29.36 -2.805) (end 29.36 -2.805) (layer F.Fab) (width 0.1))
  (fp_line (start -29.36 1.535) (end -29.36 -2.805) (layer F.Fab) (width 0.1))
  (fp_line (start 29.36 2.805) (end 29.36 -2.805) (layer F.Fab) (width 0.1))
  (fp_line (start -29.36 1.535) (end -28.09 2.805) (layer F.Fab) (width 0.1))
  (fp_line (start -28.2 2.92) (end 29.47 2.92) (layer F.SilkS) (width 0.12))
  (fp_line (start -29.47 -2.92) (end 29.47 -2.92) (layer F.SilkS) (width 0.12))
  (fp_line (start -29.47 1.65) (end -29.47 -2.92) (layer F.SilkS) (width 0.12))
  (fp_line (start 29.47 2.92) (end 29.47 -2.92) (layer F.SilkS) (width 0.12))
  (fp_line (start -28.2 2.92) (end -29.47 1.65) (layer F.SilkS) (width 0.12))
  (fp_line (start -29.86 -3.3) (end -29.86 3.3) (layer F.CrtYd) (width 0.05))
  (fp_line (start -29.86 3.3) (end 29.86 3.3) (layer F.CrtYd) (width 0.05))
  (fp_line (start 29.86 3.3) (end 29.86 -3.3) (layer F.CrtYd) (width 0.05))
  (fp_line (start 29.86 -3.3) (end -29.86 -3.3) (layer F.CrtYd) (width 0.05))
  (pad 1 smd rect (at -24.765 1.905) (size 0.66 1.35) (layers F.Cu F.Mask F.Paste))
  (pad 2 smd rect (at -24.765 -1.905) (size 0.66 1.35) (layers F.Cu F.Mask F.Paste))
  (pad 3 smd rect (at -23.495 1.905) (size 0.66 1.35) (layers F.Cu F.Mask F.Paste))
  (pad 4 smd rect (at -23.495 -1.905) (size 0.66 1.35) (layers F.Cu F.Mask F.Paste))
  (pad 5 smd rect (at -22.225 1.905) (size 0.66 1.35) (layers F.Cu F.Mask F.Paste))
  (pad 6 smd rect (at -22.225 -1.905) (size 0.66 1.35) (layers F.Cu F.Mask F.Paste))
  (pad 7 smd rect (at -20.955 1.905) (size 0.66 1.35) (layers F.Cu F.Mask F.Paste))
  (pad 8 smd rect (at -20.955 -1.905) (size 0.66 1.35) (layers F.Cu F.Mask F.Paste))
  (pad 9 smd rect (at -19.685 1.905) (size 0.66 1.35) (layers F.Cu F.Mask F.Paste))
  (pad 10 smd rect (at -19.685 -1.905) (size 0.66 1.35) (layers F.Cu F.Mask F.Paste))
  (pad 11 smd rect (at -18.415 1.905) (size 0.66 1.35) (layers F.Cu F.Mask F.Paste))
  (pad 12 smd rect (at -18.415 -1.905) (size 0.66 1.35) (layers F.Cu F.Mask F.Paste))
  (pad 13 smd rect (at -17.145 1.905) (size 0.66 1.35) (layers F.Cu F.Mask F.Paste))
  (pad 14 smd rect (at -17.145 -1.905) (size 0.66 1.35) (layers F.Cu F.Mask F.Paste))
  (pad 15 smd rect (at -15.875 1.905) (size 0.66 1.35) (layers F.Cu F.Mask F.Paste))
  (pad 16 smd rect (at -15.875 -1.905) (size 0.66 1.35) (layers F.Cu F.Mask F.Paste))
  (pad 17 smd rect (at -14.605 1.905) (size 0.66 1.35) (layers F.Cu F.Mask F.Paste))
  (pad 18 smd rect (at -14.605 -1.905) (size 0.66 1.35) (layers F.Cu F.Mask F.Paste))
  (pad 19 smd rect (at -13.335 1.905) (size 0.66 1.35) (layers F.Cu F.Mask F.Paste))
  (pad 20 smd rect (at -13.335 -1.905) (size 0.66 1.35) (layers F.Cu F.Mask F.Paste))
  (pad 21 smd rect (at -12.065 1.905) (size 0.66 1.35) (layers F.Cu F.Mask F.Paste))
  (pad 22 smd rect (at -12.065 -1.905) (size 0.66 1.35) (layers F.Cu F.Mask F.Paste))
  (pad 23 smd rect (at -10.795 1.905) (size 0.66 1.35) (layers F.Cu F.Mask F.Paste))
  (pad 24 smd rect (at -10.795 -1.905) (size 0.66 1.35) (layers F.Cu F.Mask F.Paste))
  (pad 25 smd rect (at -9.525 1.905) (size 0.66 1.35) (layers F.Cu F.Mask F.Paste))
  (pad 26 smd rect (at -9.525 -1.905) (size 0.66 1.35) (layers F.Cu F.Mask F.Paste))
  (pad 27 smd rect (at -8.255 1.905) (size 0.66 1.35) (layers F.Cu F.Mask F.Paste))
  (pad 28 smd rect (at -8.255 -1.905) (size 0.66 1.35) (layers F.Cu F.Mask F.Paste))
  (pad 29 smd rect (at -6.985 1.905) (size 0.66 1.35) (layers F.Cu F.Mask F.Paste))
  (pad 30 smd rect (at -6.985 -1.905) (size 0.66 1.35) (layers F.Cu F.Mask F.Paste))
  (pad 31 smd rect (at -5.715 1.905) (size 0.66 1.35) (layers F.Cu F.Mask F.Paste))
  (pad 32 smd rect (at -5.715 -1.905) (size 0.66 1.35) (layers F.Cu F.Mask F.Paste))
  (pad 33 smd rect (at -4.445 1.905) (size 0.66 1.35) (layers F.Cu F.Mask F.Paste))
  (pad 34 smd rect (at -4.445 -1.905) (size 0.66 1.35) (layers F.Cu F.Mask F.Paste))
  (pad 35 smd rect (at -3.175 1.905) (size 0.66 1.35) (layers F.Cu F.Mask F.Paste))
  (pad 36 smd rect (at -3.175 -1.905) (size 0.66 1.35) (layers F.Cu F.Mask F.Paste))
  (pad 37 smd rect (at -1.905 1.905) (size 0.66 1.35) (layers F.Cu F.Mask F.Paste))
  (pad 38 smd rect (at -1.905 -1.905) (size 0.66 1.35) (layers F.Cu F.Mask F.Paste))
  (pad 39 smd rect (at -0.635 1.905) (size 0.66 1.35) (layers F.Cu F.Mask F.Paste))
  (pad 40 smd rect (at -0.635 -1.905) (size 0.66 1.35) (layers F.Cu F.Mask F.Paste))
  (pad 41 smd rect (at 0.635 1.905) (size 0.66 1.35) (layers F.Cu F.Mask F.Paste))
  (pad 42 smd rect (at 0.635 -1.905) (size 0.66 1.35) (layers F.Cu F.Mask F.Paste))
  (pad 43 smd rect (at 1.905 1.905) (size 0.66 1.35) (layers F.Cu F.Mask F.Paste))
  (pad 44 smd rect (at 1.905 -1.905) (size 0.66 1.35) (layers F.Cu F.Mask F.Paste))
  (pad 45 smd rect (at 3.175 1.905) (size 0.66 1.35) (layers F.Cu F.Mask F.Paste))
  (pad 46 smd rect (at 3.175 -1.905) (size 0.66 1.35) (layers F.Cu F.Mask F.Paste))
  (pad 47 smd rect (at 4.445 1.905) (size 0.66 1.35) (layers F.Cu F.Mask F.Paste))
  (pad 48 smd rect (at 4.445 -1.905) (size 0.66 1.35) (layers F.Cu F.Mask F.Paste))
  (pad 49 smd rect (at 5.715 1.905) (size 0.66 1.35) (layers F.Cu F.Mask F.Paste))
  (pad 50 smd rect (at 5.715 -1.905) (size 0.66 1.35) (layers F.Cu F.Mask F.Paste))
  (pad 51 smd rect (at 6.985 1.905) (size 0.66 1.35) (layers F.Cu F.Mask F.Paste))
  (pad 52 smd rect (at 6.985 -1.905) (size 0.66 1.35) (layers F.Cu F.Mask F.Paste))
  (pad 53 smd rect (at 8.255 1.905) (size 0.66 1.35) (layers F.Cu F.Mask F.Paste))
  (pad 54 smd rect (at 8.255 -1.905) (size 0.66 1.35) (layers F.Cu F.Mask F.Paste))
  (pad 55 smd rect (at 9.525 1.905) (size 0.66 1.35) (layers F.Cu F.Mask F.Paste))
  (pad 56 smd rect (at 9.525 -1.905) (size 0.66 1.35) (layers F.Cu F.Mask F.Paste))
  (pad 57 smd rect (at 10.795 1.905) (size 0.66 1.35) (layers F.Cu F.Mask F.Paste))
  (pad 58 smd rect (at 10.795 -1.905) (size 0.66 1.35) (layers F.Cu F.Mask F.Paste))
  (pad 59 smd rect (at 12.065 1.905) (size 0.66 1.35) (layers F.Cu F.Mask F.Paste))
  (pad 60 smd rect (at 12.065 -1.905) (size 0.66 1.35) (layers F.Cu F.Mask F.Paste))
  (pad 61 smd rect (at 13.335 1.905) (size 0.66 1.35) (layers F.Cu F.Mask F.Paste))
  (pad 62 smd rect (at 13.335 -1.905) (size 0.66 1.35) (layers F.Cu F.Mask F.Paste))
  (pad 63 smd rect (at 14.605 1.905) (size 0.66 1.35) (layers F.Cu F.Mask F.Paste))
  (pad 64 smd rect (at 14.605 -1.905) (size 0.66 1.35) (layers F.Cu F.Mask F.Paste))
  (pad 65 smd rect (at 15.875 1.905) (size 0.66 1.35) (layers F.Cu F.Mask F.Paste))
  (pad 66 smd rect (at 15.875 -1.905) (size 0.66 1.35) (layers F.Cu F.Mask F.Paste))
  (pad 67 smd rect (at 17.145 1.905) (size 0.66 1.35) (layers F.Cu F.Mask F.Paste))
  (pad 68 smd rect (at 17.145 -1.905) (size 0.66 1.35) (layers F.Cu F.Mask F.Paste))
  (pad 69 smd rect (at 18.415 1.905) (size 0.66 1.35) (layers F.Cu F.Mask F.Paste))
  (pad 70 smd rect (at 18.415 -1.905) (size 0.66 1.35) (layers F.Cu F.Mask F.Paste))
  (pad 71 smd rect (at 19.685 1.905) (size 0.66 1.35) (layers F.Cu F.Mask F.Paste))
  (pad 72 smd rect (at 19.685 -1.905) (size 0.66 1.35) (layers F.Cu F.Mask F.Paste))
  (pad 73 smd rect (at 20.955 1.905) (size 0.66 1.35) (layers F.Cu F.Mask F.Paste))
  (pad 74 smd rect (at 20.955 -1.905) (size 0.66 1.35) (layers F.Cu F.Mask F.Paste))
  (pad 75 smd rect (at 22.225 1.905) (size 0.66 1.35) (layers F.Cu F.Mask F.Paste))
  (pad 76 smd rect (at 22.225 -1.905) (size 0.66 1.35) (layers F.Cu F.Mask F.Paste))
  (pad 77 smd rect (at 23.495 1.905) (size 0.66 1.35) (layers F.Cu F.Mask F.Paste))
  (pad 78 smd rect (at 23.495 -1.905) (size 0.66 1.35) (layers F.Cu F.Mask F.Paste))
  (pad 79 smd rect (at 24.765 1.905) (size 0.66 1.35) (layers F.Cu F.Mask F.Paste))
  (pad 80 smd rect (at 24.765 -1.905) (size 0.66 1.35) (layers F.Cu F.Mask F.Paste))
  (pad "" np_thru_hole circle (at -26.545 0) (size 1.45 1.45) (drill 1.45) (layers *.Cu *.Mask))
  (pad "" np_thru_hole circle (at 26.545 1) (size 1.45 1.45) (drill 1.45) (layers *.Cu *.Mask))
  (pad "" thru_hole circle (at -28.45 0) (size 1.5 1.5) (drill 1) (layers *.Cu *.Mask))
  (pad "" thru_hole circle (at 28.45 0) (size 1.5 1.5) (drill 1) (layers *.Cu *.Mask))
  (fp_text user %R (at 0 0) (layer F.Fab)
    (effects (font (size 1 1) (thickness 0.15)))
  )
  (model ${KIPRJMOD}/kicad_libs_k/models_k.3d/Connector_PCBEdge_k.3dshapes/Samtec_MECF-40-01-NP-L-DV-WT_2x40_P1.27mm_Socket_Horizontal_k.wrl
    (at (xyz 0 0 0))
    (scale (xyz 1 1 1))
    (rotate (xyz 0 0 0))
  )
)