(module Samtec_MECF-50-02-NP-L-DV-WT_2x50_P1.27mm_Socket_Horizontal (layer F.Cu) (tedit 5A1FF529)
  (descr "Highspeed card edge connector for 2.4mm PCB's with 50 contacts (not polarized)")
  (tags "conn samtec card-edge high-speed")
  (attr smd)
  (fp_text reference REF** (at 0 -4.4) (layer F.SilkS)
    (effects (font (size 1 1) (thickness 0.15)))
  )
  (fp_text value Samtec_MECF-50-02-NP-L-DV-WT_2x50_P1.27mm_Socket_Horizontal (at 0 4.4) (layer F.Fab)
    (effects (font (size 1 1) (thickness 0.15)))
  )
  (fp_line (start -34.44 3.2) (end 35.71 3.2) (layer F.Fab) (width 0.1))
  (fp_line (start -35.71 -3.2) (end 35.71 -3.2) (layer F.Fab) (width 0.1))
  (fp_line (start -35.71 1.93) (end -35.71 -3.2) (layer F.Fab) (width 0.1))
  (fp_line (start 35.71 3.2) (end 35.71 -3.2) (layer F.Fab) (width 0.1))
  (fp_line (start -35.71 1.93) (end -34.44 3.2) (layer F.Fab) (width 0.1))
  (fp_line (start -34.55 3.31) (end 35.82 3.31) (layer F.SilkS) (width 0.12))
  (fp_line (start -35.82 -3.31) (end 35.82 -3.31) (layer F.SilkS) (width 0.12))
  (fp_line (start -35.82 2.04) (end -35.82 -3.31) (layer F.SilkS) (width 0.12))
  (fp_line (start 35.82 3.31) (end 35.82 -3.31) (layer F.SilkS) (width 0.12))
  (fp_line (start -34.55 3.31) (end -35.82 2.04) (layer F.SilkS) (width 0.12))
  (fp_line (start -36.21 -3.7) (end -36.21 3.7) (layer F.CrtYd) (width 0.05))
  (fp_line (start -36.21 3.7) (end 36.21 3.7) (layer F.CrtYd) (width 0.05))
  (fp_line (start 36.21 3.7) (end 36.21 -3.7) (layer F.CrtYd) (width 0.05))
  (fp_line (start 36.21 -3.7) (end -36.21 -3.7) (layer F.CrtYd) (width 0.05))
  (pad 1 smd rect (at -31.115 2.3) (size 0.66 1.35) (layers F.Cu F.Mask F.Paste))
  (pad 2 smd rect (at -31.115 -2.3) (size 0.66 1.35) (layers F.Cu F.Mask F.Paste))
  (pad 3 smd rect (at -29.845 2.3) (size 0.66 1.35) (layers F.Cu F.Mask F.Paste))
  (pad 4 smd rect (at -29.845 -2.3) (size 0.66 1.35) (layers F.Cu F.Mask F.Paste))
  (pad 5 smd rect (at -28.575 2.3) (size 0.66 1.35) (layers F.Cu F.Mask F.Paste))
  (pad 6 smd rect (at -28.575 -2.3) (size 0.66 1.35) (layers F.Cu F.Mask F.Paste))
  (pad 7 smd rect (at -27.305 2.3) (size 0.66 1.35) (layers F.Cu F.Mask F.Paste))
  (pad 8 smd rect (at -27.305 -2.3) (size 0.66 1.35) (layers F.Cu F.Mask F.Paste))
  (pad 9 smd rect (at -26.035 2.3) (size 0.66 1.35) (layers F.Cu F.Mask F.Paste))
  (pad 10 smd rect (at -26.035 -2.3) (size 0.66 1.35) (layers F.Cu F.Mask F.Paste))
  (pad 11 smd rect (at -24.765 2.3) (size 0.66 1.35) (layers F.Cu F.Mask F.Paste))
  (pad 12 smd rect (at -24.765 -2.3) (size 0.66 1.35) (layers F.Cu F.Mask F.Paste))
  (pad 13 smd rect (at -23.495 2.3) (size 0.66 1.35) (layers F.Cu F.Mask F.Paste))
  (pad 14 smd rect (at -23.495 -2.3) (size 0.66 1.35) (layers F.Cu F.Mask F.Paste))
  (pad 15 smd rect (at -22.225 2.3) (size 0.66 1.35) (layers F.Cu F.Mask F.Paste))
  (pad 16 smd rect (at -22.225 -2.3) (size 0.66 1.35) (layers F.Cu F.Mask F.Paste))
  (pad 17 smd rect (at -20.955 2.3) (size 0.66 1.35) (layers F.Cu F.Mask F.Paste))
  (pad 18 smd rect (at -20.955 -2.3) (size 0.66 1.35) (layers F.Cu F.Mask F.Paste))
  (pad 19 smd rect (at -19.685 2.3) (size 0.66 1.35) (layers F.Cu F.Mask F.Paste))
  (pad 20 smd rect (at -19.685 -2.3) (size 0.66 1.35) (layers F.Cu F.Mask F.Paste))
  (pad 21 smd rect (at -18.415 2.3) (size 0.66 1.35) (layers F.Cu F.Mask F.Paste))
  (pad 22 smd rect (at -18.415 -2.3) (size 0.66 1.35) (layers F.Cu F.Mask F.Paste))
  (pad 23 smd rect (at -17.145 2.3) (size 0.66 1.35) (layers F.Cu F.Mask F.Paste))
  (pad 24 smd rect (at -17.145 -2.3) (size 0.66 1.35) (layers F.Cu F.Mask F.Paste))
  (pad 25 smd rect (at -15.875 2.3) (size 0.66 1.35) (layers F.Cu F.Mask F.Paste))
  (pad 26 smd rect (at -15.875 -2.3) (size 0.66 1.35) (layers F.Cu F.Mask F.Paste))
  (pad 27 smd rect (at -14.605 2.3) (size 0.66 1.35) (layers F.Cu F.Mask F.Paste))
  (pad 28 smd rect (at -14.605 -2.3) (size 0.66 1.35) (layers F.Cu F.Mask F.Paste))
  (pad 29 smd rect (at -13.335 2.3) (size 0.66 1.35) (layers F.Cu F.Mask F.Paste))
  (pad 30 smd rect (at -13.335 -2.3) (size 0.66 1.35) (layers F.Cu F.Mask F.Paste))
  (pad 31 smd rect (at -12.065 2.3) (size 0.66 1.35) (layers F.Cu F.Mask F.Paste))
  (pad 32 smd rect (at -12.065 -2.3) (size 0.66 1.35) (layers F.Cu F.Mask F.Paste))
  (pad 33 smd rect (at -10.795 2.3) (size 0.66 1.35) (layers F.Cu F.Mask F.Paste))
  (pad 34 smd rect (at -10.795 -2.3) (size 0.66 1.35) (layers F.Cu F.Mask F.Paste))
  (pad 35 smd rect (at -9.525 2.3) (size 0.66 1.35) (layers F.Cu F.Mask F.Paste))
  (pad 36 smd rect (at -9.525 -2.3) (size 0.66 1.35) (layers F.Cu F.Mask F.Paste))
  (pad 37 smd rect (at -8.255 2.3) (size 0.66 1.35) (layers F.Cu F.Mask F.Paste))
  (pad 38 smd rect (at -8.255 -2.3) (size 0.66 1.35) (layers F.Cu F.Mask F.Paste))
  (pad 39 smd rect (at -6.985 2.3) (size 0.66 1.35) (layers F.Cu F.Mask F.Paste))
  (pad 40 smd rect (at -6.985 -2.3) (size 0.66 1.35) (layers F.Cu F.Mask F.Paste))
  (pad 41 smd rect (at -5.715 2.3) (size 0.66 1.35) (layers F.Cu F.Mask F.Paste))
  (pad 42 smd rect (at -5.715 -2.3) (size 0.66 1.35) (layers F.Cu F.Mask F.Paste))
  (pad 43 smd rect (at -4.445 2.3) (size 0.66 1.35) (layers F.Cu F.Mask F.Paste))
  (pad 44 smd rect (at -4.445 -2.3) (size 0.66 1.35) (layers F.Cu F.Mask F.Paste))
  (pad 45 smd rect (at -3.175 2.3) (size 0.66 1.35) (layers F.Cu F.Mask F.Paste))
  (pad 46 smd rect (at -3.175 -2.3) (size 0.66 1.35) (layers F.Cu F.Mask F.Paste))
  (pad 47 smd rect (at -1.905 2.3) (size 0.66 1.35) (layers F.Cu F.Mask F.Paste))
  (pad 48 smd rect (at -1.905 -2.3) (size 0.66 1.35) (layers F.Cu F.Mask F.Paste))
  (pad 49 smd rect (at -0.635 2.3) (size 0.66 1.35) (layers F.Cu F.Mask F.Paste))
  (pad 50 smd rect (at -0.635 -2.3) (size 0.66 1.35) (layers F.Cu F.Mask F.Paste))
  (pad 51 smd rect (at 0.635 2.3) (size 0.66 1.35) (layers F.Cu F.Mask F.Paste))
  (pad 52 smd rect (at 0.635 -2.3) (size 0.66 1.35) (layers F.Cu F.Mask F.Paste))
  (pad 53 smd rect (at 1.905 2.3) (size 0.66 1.35) (layers F.Cu F.Mask F.Paste))
  (pad 54 smd rect (at 1.905 -2.3) (size 0.66 1.35) (layers F.Cu F.Mask F.Paste))
  (pad 55 smd rect (at 3.175 2.3) (size 0.66 1.35) (layers F.Cu F.Mask F.Paste))
  (pad 56 smd rect (at 3.175 -2.3) (size 0.66 1.35) (layers F.Cu F.Mask F.Paste))
  (pad 57 smd rect (at 4.445 2.3) (size 0.66 1.35) (layers F.Cu F.Mask F.Paste))
  (pad 58 smd rect (at 4.445 -2.3) (size 0.66 1.35) (layers F.Cu F.Mask F.Paste))
  (pad 59 smd rect (at 5.715 2.3) (size 0.66 1.35) (layers F.Cu F.Mask F.Paste))
  (pad 60 smd rect (at 5.715 -2.3) (size 0.66 1.35) (layers F.Cu F.Mask F.Paste))
  (pad 61 smd rect (at 6.985 2.3) (size 0.66 1.35) (layers F.Cu F.Mask F.Paste))
  (pad 62 smd rect (at 6.985 -2.3) (size 0.66 1.35) (layers F.Cu F.Mask F.Paste))
  (pad 63 smd rect (at 8.255 2.3) (size 0.66 1.35) (layers F.Cu F.Mask F.Paste))
  (pad 64 smd rect (at 8.255 -2.3) (size 0.66 1.35) (layers F.Cu F.Mask F.Paste))
  (pad 65 smd rect (at 9.525 2.3) (size 0.66 1.35) (layers F.Cu F.Mask F.Paste))
  (pad 66 smd rect (at 9.525 -2.3) (size 0.66 1.35) (layers F.Cu F.Mask F.Paste))
  (pad 67 smd rect (at 10.795 2.3) (size 0.66 1.35) (layers F.Cu F.Mask F.Paste))
  (pad 68 smd rect (at 10.795 -2.3) (size 0.66 1.35) (layers F.Cu F.Mask F.Paste))
  (pad 69 smd rect (at 12.065 2.3) (size 0.66 1.35) (layers F.Cu F.Mask F.Paste))
  (pad 70 smd rect (at 12.065 -2.3) (size 0.66 1.35) (layers F.Cu F.Mask F.Paste))
  (pad 71 smd rect (at 13.335 2.3) (size 0.66 1.35) (layers F.Cu F.Mask F.Paste))
  (pad 72 smd rect (at 13.335 -2.3) (size 0.66 1.35) (layers F.Cu F.Mask F.Paste))
  (pad 73 smd rect (at 14.605 2.3) (size 0.66 1.35) (layers F.Cu F.Mask F.Paste))
  (pad 74 smd rect (at 14.605 -2.3) (size 0.66 1.35) (layers F.Cu F.Mask F.Paste))
  (pad 75 smd rect (at 15.875 2.3) (size 0.66 1.35) (layers F.Cu F.Mask F.Paste))
  (pad 76 smd rect (at 15.875 -2.3) (size 0.66 1.35) (layers F.Cu F.Mask F.Paste))
  (pad 77 smd rect (at 17.145 2.3) (size 0.66 1.35) (layers F.Cu F.Mask F.Paste))
  (pad 78 smd rect (at 17.145 -2.3) (size 0.66 1.35) (layers F.Cu F.Mask F.Paste))
  (pad 79 smd rect (at 18.415 2.3) (size 0.66 1.35) (layers F.Cu F.Mask F.Paste))
  (pad 80 smd rect (at 18.415 -2.3) (size 0.66 1.35) (layers F.Cu F.Mask F.Paste))
  (pad 81 smd rect (at 19.685 2.3) (size 0.66 1.35) (layers F.Cu F.Mask F.Paste))
  (pad 82 smd rect (at 19.685 -2.3) (size 0.66 1.35) (layers F.Cu F.Mask F.Paste))
  (pad 83 smd rect (at 20.955 2.3) (size 0.66 1.35) (layers F.Cu F.Mask F.Paste))
  (pad 84 smd rect (at 20.955 -2.3) (size 0.66 1.35) (layers F.Cu F.Mask F.Paste))
  (pad 85 smd rect (at 22.225 2.3) (size 0.66 1.35) (layers F.Cu F.Mask F.Paste))
  (pad 86 smd rect (at 22.225 -2.3) (size 0.66 1.35) (layers F.Cu F.Mask F.Paste))
  (pad 87 smd rect (at 23.495 2.3) (size 0.66 1.35) (layers F.Cu F.Mask F.Paste))
  (pad 88 smd rect (at 23.495 -2.3) (size 0.66 1.35) (layers F.Cu F.Mask F.Paste))
  (pad 89 smd rect (at 24.765 2.3) (size 0.66 1.35) (layers F.Cu F.Mask F.Paste))
  (pad 90 smd rect (at 24.765 -2.3) (size 0.66 1.35) (layers F.Cu F.Mask F.Paste))
  (pad 91 smd rect (at 26.035 2.3) (size 0.66 1.35) (layers F.Cu F.Mask F.Paste))
  (pad 92 smd rect (at 26.035 -2.3) (size 0.66 1.35) (layers F.Cu F.Mask F.Paste))
  (pad 93 smd rect (at 27.305 2.3) (size 0.66 1.35) (layers F.Cu F.Mask F.Paste))
  (pad 94 smd rect (at 27.305 -2.3) (size 0.66 1.35) (layers F.Cu F.Mask F.Paste))
  (pad 95 smd rect (at 28.575 2.3) (size 0.66 1.35) (layers F.Cu F.Mask F.Paste))
  (pad 96 smd rect (at 28.575 -2.3) (size 0.66 1.35) (layers F.Cu F.Mask F.Paste))
  (pad 97 smd rect (at 29.845 2.3) (size 0.66 1.35) (layers F.Cu F.Mask F.Paste))
  (pad 98 smd rect (at 29.845 -2.3) (size 0.66 1.35) (layers F.Cu F.Mask F.Paste))
  (pad 99 smd rect (at 31.115 2.3) (size 0.66 1.35) (layers F.Cu F.Mask F.Paste))
  (pad 100 smd rect (at 31.115 -2.3) (size 0.66 1.35) (layers F.Cu F.Mask F.Paste))
  (pad "" np_thru_hole circle (at -32.895 0) (size 1.45 1.45) (drill 1.45) (layers *.Cu *.Mask))
  (pad "" np_thru_hole circle (at 32.895 1) (size 1.45 1.45) (drill 1.45) (layers *.Cu *.Mask))
  (pad "" thru_hole circle (at -34.8 0) (size 1.5 1.5) (drill 1) (layers *.Cu *.Mask))
  (pad "" thru_hole circle (at 34.8 0) (size 1.5 1.5) (drill 1) (layers *.Cu *.Mask))
  (fp_text user %R (at 0 0) (layer F.Fab)
    (effects (font (size 1 1) (thickness 0.15)))
  )
  (model ${KIPRJMOD}/kicad_libs_k/models_k.3d/Connector_PCBEdge_k.3dshapes/Samtec_MECF-50-02-NP-L-DV-WT_2x50_P1.27mm_Socket_Horizontal_k.wrl
    (at (xyz 0 0 0))
    (scale (xyz 1 1 1))
    (rotate (xyz 0 0 0))
  )
)