(module Samtec_MECF-08-01-L-DV-WT_2x08_P1.27mm_Polarized_Socket_Horizontal (layer F.Cu) (tedit 5A1FF529)
  (descr "Highspeed card edge connector for 1.6mm PCB's with 08 contacts (polarized)")
  (tags "conn samtec card-edge high-speed")
  (attr smd)
  (fp_text reference REF** (at 0 -4) (layer F.SilkS)
    (effects (font (size 1 1) (thickness 0.15)))
  )
  (fp_text value Samtec_MECF-08-01-L-DV-WT_2x08_P1.27mm_Polarized_Socket_Horizontal (at 0 4) (layer F.Fab)
    (effects (font (size 1 1) (thickness 0.15)))
  )
  (fp_line (start -7.77 2.805) (end 9.04 2.805) (layer F.Fab) (width 0.1))
  (fp_line (start -9.04 -2.805) (end 9.04 -2.805) (layer F.Fab) (width 0.1))
  (fp_line (start -9.04 1.535) (end -9.04 -2.805) (layer F.Fab) (width 0.1))
  (fp_line (start 9.04 2.805) (end 9.04 -2.805) (layer F.Fab) (width 0.1))
  (fp_line (start -9.04 1.535) (end -7.77 2.805) (layer F.Fab) (width 0.1))
  (fp_line (start -7.88 2.92) (end 9.15 2.92) (layer F.SilkS) (width 0.12))
  (fp_line (start -9.15 -2.92) (end 9.15 -2.92) (layer F.SilkS) (width 0.12))
  (fp_line (start -9.15 1.65) (end -9.15 -2.92) (layer F.SilkS) (width 0.12))
  (fp_line (start 9.15 2.92) (end 9.15 -2.92) (layer F.SilkS) (width 0.12))
  (fp_line (start -7.88 2.92) (end -9.15 1.65) (layer F.SilkS) (width 0.12))
  (fp_line (start -9.54 -3.3) (end -9.54 3.3) (layer F.CrtYd) (width 0.05))
  (fp_line (start -9.54 3.3) (end 9.54 3.3) (layer F.CrtYd) (width 0.05))
  (fp_line (start 9.54 3.3) (end 9.54 -3.3) (layer F.CrtYd) (width 0.05))
  (fp_line (start 9.54 -3.3) (end -9.54 -3.3) (layer F.CrtYd) (width 0.05))
  (pad 1 smd rect (at -4.445 1.905) (size 0.66 1.35) (layers F.Cu F.Mask F.Paste))
  (pad 2 smd rect (at -4.445 -1.905) (size 0.66 1.35) (layers F.Cu F.Mask F.Paste))
  (pad 3 smd rect (at -3.175 1.905) (size 0.66 1.35) (layers F.Cu F.Mask F.Paste))
  (pad 4 smd rect (at -3.175 -1.905) (size 0.66 1.35) (layers F.Cu F.Mask F.Paste))
  (pad 7 smd rect (at -0.635 1.905) (size 0.66 1.35) (layers F.Cu F.Mask F.Paste))
  (pad 8 smd rect (at -0.635 -1.905) (size 0.66 1.35) (layers F.Cu F.Mask F.Paste))
  (pad 9 smd rect (at 0.635 1.905) (size 0.66 1.35) (layers F.Cu F.Mask F.Paste))
  (pad 10 smd rect (at 0.635 -1.905) (size 0.66 1.35) (layers F.Cu F.Mask F.Paste))
  (pad 11 smd rect (at 1.905 1.905) (size 0.66 1.35) (layers F.Cu F.Mask F.Paste))
  (pad 12 smd rect (at 1.905 -1.905) (size 0.66 1.35) (layers F.Cu F.Mask F.Paste))
  (pad 13 smd rect (at 3.175 1.905) (size 0.66 1.35) (layers F.Cu F.Mask F.Paste))
  (pad 14 smd rect (at 3.175 -1.905) (size 0.66 1.35) (layers F.Cu F.Mask F.Paste))
  (pad 15 smd rect (at 4.445 1.905) (size 0.66 1.35) (layers F.Cu F.Mask F.Paste))
  (pad 16 smd rect (at 4.445 -1.905) (size 0.66 1.35) (layers F.Cu F.Mask F.Paste))
  (pad "" np_thru_hole circle (at -6.225 0) (size 1.45 1.45) (drill 1.45) (layers *.Cu *.Mask))
  (pad "" np_thru_hole circle (at 6.225 1) (size 1.45 1.45) (drill 1.45) (layers *.Cu *.Mask))
  (pad "" thru_hole circle (at -8.13 0) (size 1.5 1.5) (drill 1) (layers *.Cu *.Mask))
  (pad "" thru_hole circle (at 8.13 0) (size 1.5 1.5) (drill 1) (layers *.Cu *.Mask))
  (fp_text user %R (at 0 0) (layer F.Fab)
    (effects (font (size 1 1) (thickness 0.15)))
  )
  (model ${KIPRJMOD}/kicad_libs_k/models_k.3d/Connector_PCBEdge_k.3dshapes/Samtec_MECF-08-01-L-DV-WT_2x08_P1.27mm_Polarized_Socket_Horizontal_k.wrl
    (at (xyz 0 0 0))
    (scale (xyz 1 1 1))
    (rotate (xyz 0 0 0))
  )
)