(module Valve_ECC-83-2 (layer F.Cu) (tedit 5A030096)
  (descr "Valve ECC-83-2 flat pins")
  (tags "Valve ECC-83-2 flat pins")
  (fp_text reference REF** (at -3.45 -16.18) (layer F.SilkS)
    (effects (font (size 1 1) (thickness 0.15)))
  )
  (fp_text value Valve_ECC-83-2 (at -3.45 6.68) (layer F.Fab)
    (effects (font (size 1 1) (thickness 0.15)))
  )
  (fp_text user %R (at -3.45 -13.25) (layer F.Fab)
    (effects (font (size 1 1) (thickness 0.15)))
  )
  (fp_circle (center -3.45 -4.75) (end -3.45 -15) (layer F.Fab) (width 0.1))
  (fp_circle (center -3.45 -4.75) (end -3.45 -15.25) (layer F.CrtYd) (width 0.05))
  (fp_circle (center -3.45 -4.75) (end 6.71 -3.48) (layer F.SilkS) (width 0.12))
  (pad 1 thru_hole oval (at 0 0 306) (size 2.03 3.05) (drill oval 1.02 2.03) (layers *.Cu *.Mask))
  (pad 2 thru_hole oval (at 2.15 -2.93 342) (size 2.03 3.05) (drill oval 1.02 2.03) (layers *.Cu *.Mask))
  (pad 3 thru_hole oval (at 2.15 -6.58 18) (size 2.03 3.05) (drill oval 1.02 2.03) (layers *.Cu *.Mask))
  (pad 4 thru_hole oval (at 0 -9.51 54) (size 2.03 3.05) (drill oval 1.02 2.03) (layers *.Cu *.Mask))
  (pad 5 thru_hole oval (at -3.45 -10.65 90) (size 2.03 3.05) (drill oval 1.02 2.03) (layers *.Cu *.Mask))
  (pad 6 thru_hole oval (at -6.91 -9.51 306) (size 2.03 3.05) (drill oval 1.02 2.03) (layers *.Cu *.Mask))
  (pad 7 thru_hole oval (at -9.06 -6.58 342) (size 2.03 3.05) (drill oval 1.02 2.03) (layers *.Cu *.Mask))
  (pad 8 thru_hole oval (at -9.06 -2.97 18) (size 2.03 3.05) (drill oval 1.02 2.03) (layers *.Cu *.Mask))
  (pad 9 thru_hole oval (at -6.91 0 54) (size 2.03 3.05) (drill oval 1.02 2.03) (layers *.Cu *.Mask))
  (pad 2 thru_hole circle (at -3.45 -4.75) (size 4.5 4.5) (drill 3.1) (layers *.Cu *.Mask))
  (model ${KIPRJMOD}/kicad_libs_k/models_k.3d/Valve_k.3dshapes/Valve_ECC-83-2_k.wrl
    (at (xyz 0 0 0))
    (scale (xyz 1 1 1))
    (rotate (xyz 0 0 0))
  )
)
