(module Valve_Octal (layer F.Cu) (tedit 5A030096)
  (descr "8-pin round valve")
  (tags valve)
  (fp_text reference REF** (at -7.62 -12.62) (layer F.SilkS)
    (effects (font (size 1 1) (thickness 0.15)))
  )
  (fp_text value Valve_Octal (at -7.62 -1.37) (layer F.Fab)
    (effects (font (size 1 1) (thickness 0.15)))
  )
  (fp_text user %R (at -7.62 -12.62) (layer F.Fab)
    (effects (font (size 1 1) (thickness 0.15)))
  )
  (fp_circle (center -7.62 -7.62) (end 3.13 1.13) (layer F.CrtYd) (width 0.05))
  (fp_circle (center -7.62 -7.62) (end 2.13 2.13) (layer F.SilkS) (width 0.12))
  (fp_circle (center -3.21 -3.2) (end -2.77 -2.75) (layer F.SilkS) (width 0.12))
  (fp_circle (center -7.62 -7.62) (end -15.56 0.32) (layer F.Fab) (width 0.1))
  (pad 1 thru_hole rect (at 0 0) (size 3.81 3.81) (drill 1.8) (layers *.Cu *.Mask))
  (pad 2 thru_hole circle (at 2.54 -7.62) (size 3.81 7.62) (drill 1.8) (layers *.Cu *.Mask))
  (pad 3 thru_hole circle (at 0 -15.24) (size 3.81 7.62) (drill 1.8) (layers *.Cu *.Mask))
  (pad 4 thru_hole circle (at -7.62 -17.78) (size 3.81 7.62) (drill 1.8) (layers *.Cu *.Mask))
  (pad 5 thru_hole circle (at -15.24 -15.24) (size 3.81 7.62) (drill 1.8) (layers *.Cu *.Mask))
  (pad 6 thru_hole circle (at -17.78 -7.62) (size 3.81 7.62) (drill 1.8) (layers *.Cu *.Mask))
  (pad 7 thru_hole circle (at -15.24 0) (size 3.81 7.62) (drill 1.8) (layers *.Cu *.Mask))
  (pad 8 thru_hole circle (at -7.62 2.54) (size 3.81 7.62) (drill 1.8) (layers *.Cu *.Mask))
  (pad "" thru_hole circle (at -7.62 -7.62) (size 6 6) (drill 5.5) (layers *.Cu *.Mask))
  (model ${KIPRJMOD}/kicad_libs_k/models_k.3d/Valve_k.3dshapes/Valve_Octal_k.wrl
    (at (xyz 0 0 0))
    (scale (xyz 1 1 1))
    (rotate (xyz 0 0 0))
  )
)
