(module C_Trimmer_Voltronics_JV (layer F.Cu) (tedit 590DA842)
  (descr "trimmer capacitor SMD horizontal, http://www.knowlescapacitors.com/File%20Library/Voltronics/English/GlobalNavigation/Products/Trimmer%20Capacitors/CerChipTrimCap.pdf")
  (tags " Voltronics JV")
  (attr smd)
  (fp_text reference REF** (at 0 -2.5) (layer F.SilkS)
    (effects (font (size 1 1) (thickness 0.15)))
  )
  (fp_text value C_Trimmer_Voltronics_JV (at 0 2.5) (layer F.Fab)
    (effects (font (size 1 1) (thickness 0.15)))
  )
  (fp_circle (center 0 0) (end 1.05 0) (layer F.Fab) (width 0.1))
  (fp_line (start -1.5 -1.05) (end -1.49 -1.05) (layer F.Fab) (width 0.1))
  (fp_line (start -1.49 -1.05) (end 1.49 -1.05) (layer F.Fab) (width 0.1))
  (fp_line (start 1.49 -1.05) (end 1.5 -1.05) (layer F.Fab) (width 0.1))
  (fp_line (start 1.5 -1.05) (end 1.5 -1.04) (layer F.Fab) (width 0.1))
  (fp_line (start 1.5 -1.04) (end 1.5 1.04) (layer F.Fab) (width 0.1))
  (fp_line (start 1.5 1.04) (end 1.5 1.05) (layer F.Fab) (width 0.1))
  (fp_line (start 1.5 1.05) (end 1.49 1.05) (layer F.Fab) (width 0.1))
  (fp_line (start 1.49 1.05) (end -1.49 1.05) (layer F.Fab) (width 0.1))
  (fp_line (start -1.49 1.05) (end -1.5 1.05) (layer F.Fab) (width 0.1))
  (fp_line (start -1.5 1.05) (end -1.5 1.04) (layer F.Fab) (width 0.1))
  (fp_line (start -1.5 1.04) (end -1.5 -1.04) (layer F.Fab) (width 0.1))
  (fp_line (start -1.5 -1.04) (end -1.5 -1.05) (layer F.Fab) (width 0.1))
  (fp_line (start -0.9 -1.05) (end -0.9 -1.25) (layer F.Fab) (width 0.1))
  (fp_line (start -0.9 -1.25) (end 0.9 -1.25) (layer F.Fab) (width 0.1))
  (fp_line (start 0.9 -1.25) (end 0.9 -1.05) (layer F.Fab) (width 0.1))
  (fp_line (start -0.9 1.05) (end -0.9 1.25) (layer F.Fab) (width 0.1))
  (fp_line (start -0.9 1.25) (end 0.9 1.25) (layer F.Fab) (width 0.1))
  (fp_line (start 0.9 1.25) (end 0.9 1.05) (layer F.Fab) (width 0.1))
  (fp_line (start 1.5 -0.5) (end 1.7 -0.5) (layer F.Fab) (width 0.1))
  (fp_line (start 1.7 -0.5) (end 1.7 0.5) (layer F.Fab) (width 0.1))
  (fp_line (start 1.7 0.5) (end 1.5 0.5) (layer F.Fab) (width 0.1))
  (fp_line (start -1.7 -1.25) (end -1.2 -1.25) (layer F.SilkS) (width 0.12))
  (fp_line (start -1.7 -1.25) (end -1.7 -0.75) (layer F.SilkS) (width 0.12))
  (fp_line (start -1.7 1.25) (end -1.2 1.25) (layer F.SilkS) (width 0.12))
  (fp_line (start -1.7 1.25) (end -1.7 0.75) (layer F.SilkS) (width 0.12))
  (fp_line (start 1.7 -1.25) (end 1.2 -1.25) (layer F.SilkS) (width 0.12))
  (fp_line (start 1.7 -1.25) (end 1.7 -0.75) (layer F.SilkS) (width 0.12))
  (fp_line (start 1.7 1.25) (end 1.2 1.25) (layer F.SilkS) (width 0.12))
  (fp_line (start 1.7 1.25) (end 1.7 0.75) (layer F.SilkS) (width 0.12))
  (fp_line (start -2.25 -1.5) (end -2.25 1.5) (layer F.CrtYd) (width 0.05))
  (fp_line (start -2.25 1.5) (end 2.25 1.5) (layer F.CrtYd) (width 0.05))
  (fp_line (start 2.25 1.5) (end 2.25 -1.5) (layer F.CrtYd) (width 0.05))
  (fp_line (start 2.25 -1.5) (end -2.25 -1.5) (layer F.CrtYd) (width 0.05))
  (pad 1 smd rect (at -1.6 0) (size 0.8 1.2) (layers F.Cu F.Mask F.Paste))
  (pad 2 smd rect (at 1.6 0) (size 0.8 1.2) (layers F.Cu F.Mask F.Paste))
  (fp_text user %R (at 0 0) (layer F.Fab)
    (effects (font (size 0.5 0.5) (thickness 0.05)))
  )
  (model ${KIPRJMOD}/kicad_libs_k/models_k.3d/Capacitor_SMD_k.3dshapes/C_Trimmer_Voltronics_JV_k.wrl
    (at (xyz 0 0 0))
    (scale (xyz 1 1 1))
    (rotate (xyz 0 0 0))
  )
)