(module C_Trimmer_Murata_TZW4 (layer F.Cu) (tedit 590DA842)
  (descr "trimmer capacitor SMD horizontal, http://www.murata.com/~/media/webrenewal/support/library/catalog/products/capacitor/trimmer/t13e.ashx?la=en-gb")
  (tags " Murata TZW4")
  (attr smd)
  (fp_text reference REF** (at 0 -3.35) (layer F.SilkS)
    (effects (font (size 1 1) (thickness 0.15)))
  )
  (fp_text value C_Trimmer_Murata_TZW4 (at 0 3.35) (layer F.Fab)
    (effects (font (size 1 1) (thickness 0.15)))
  )
  (fp_circle (center 0 0) (end 2 0) (layer F.Fab) (width 0.1))
  (fp_line (start -2.6 -2) (end -2.59 -2) (layer F.Fab) (width 0.1))
  (fp_line (start -2.59 -2) (end 2.59 -2) (layer F.Fab) (width 0.1))
  (fp_line (start 2.59 -2) (end 2.6 -2) (layer F.Fab) (width 0.1))
  (fp_line (start 2.6 -2) (end 2.6 -1.99) (layer F.Fab) (width 0.1))
  (fp_line (start 2.6 -1.99) (end 2.6 1.99) (layer F.Fab) (width 0.1))
  (fp_line (start 2.6 1.99) (end 2.6 2) (layer F.Fab) (width 0.1))
  (fp_line (start 2.6 2) (end 2.59 2) (layer F.Fab) (width 0.1))
  (fp_line (start 2.59 2) (end -2.59 2) (layer F.Fab) (width 0.1))
  (fp_line (start -2.59 2) (end -2.6 2) (layer F.Fab) (width 0.1))
  (fp_line (start -2.6 2) (end -2.6 1.99) (layer F.Fab) (width 0.1))
  (fp_line (start -2.6 1.99) (end -2.6 -1.99) (layer F.Fab) (width 0.1))
  (fp_line (start -2.6 -1.99) (end -2.6 -2) (layer F.Fab) (width 0.1))
  (fp_line (start -1.5 -2) (end -1.5 -2.1) (layer F.Fab) (width 0.1))
  (fp_line (start -1.5 -2.1) (end 1.5 -2.1) (layer F.Fab) (width 0.1))
  (fp_line (start 1.5 -2.1) (end 1.5 -2) (layer F.Fab) (width 0.1))
  (fp_line (start -1.5 2) (end -1.5 2.1) (layer F.Fab) (width 0.1))
  (fp_line (start -1.5 2.1) (end 1.5 2.1) (layer F.Fab) (width 0.1))
  (fp_line (start 1.5 2.1) (end 1.5 2) (layer F.Fab) (width 0.1))
  (fp_line (start -2.8 -2.2) (end -2.3 -2.2) (layer F.SilkS) (width 0.12))
  (fp_line (start -2.8 -2.2) (end -2.8 -1.7) (layer F.SilkS) (width 0.12))
  (fp_line (start -2.8 2.2) (end -2.3 2.2) (layer F.SilkS) (width 0.12))
  (fp_line (start -2.8 2.2) (end -2.8 1.7) (layer F.SilkS) (width 0.12))
  (fp_line (start 2.8 -2.2) (end 2.3 -2.2) (layer F.SilkS) (width 0.12))
  (fp_line (start 2.8 -2.2) (end 2.8 -1.7) (layer F.SilkS) (width 0.12))
  (fp_line (start 2.8 2.2) (end 2.3 2.2) (layer F.SilkS) (width 0.12))
  (fp_line (start 2.8 2.2) (end 2.8 1.7) (layer F.SilkS) (width 0.12))
  (fp_line (start -3.75 -2.35) (end -3.75 2.35) (layer F.CrtYd) (width 0.05))
  (fp_line (start -3.75 2.35) (end 3.75 2.35) (layer F.CrtYd) (width 0.05))
  (fp_line (start 3.75 2.35) (end 3.75 -2.35) (layer F.CrtYd) (width 0.05))
  (fp_line (start 3.75 -2.35) (end -3.75 -2.35) (layer F.CrtYd) (width 0.05))
  (pad 1 smd rect (at -2.85 0) (size 1.3 2.5) (layers F.Cu F.Mask F.Paste))
  (pad 2 smd rect (at 2.85 0) (size 1.3 2.5) (layers F.Cu F.Mask F.Paste))
  (fp_text user %R (at 0 0) (layer F.Fab)
    (effects (font (size 0.5 0.5) (thickness 0.05)))
  )
  (model ${KIPRJMOD}/kicad_libs_k/models_k.3d/Capacitor_SMD_k.3dshapes/C_Trimmer_Murata_TZW4_k.wrl
    (at (xyz 0 0 0))
    (scale (xyz 1 1 1))
    (rotate (xyz 0 0 0))
  )
)