(module C_Trimmer_Murata_TZC3 (layer F.Cu) (tedit 590DA842)
  (descr "trimmer capacitor SMD horizontal, http://www.murata.com/~/media/webrenewal/support/library/catalog/products/capacitor/trimmer/t13e.ashx?la=en-gb")
  (tags " Murata TZC3")
  (attr smd)
  (fp_text reference REF** (at 0 -2.85) (layer F.SilkS)
    (effects (font (size 1 1) (thickness 0.15)))
  )
  (fp_text value C_Trimmer_Murata_TZC3 (at 0 2.85) (layer F.Fab)
    (effects (font (size 1 1) (thickness 0.15)))
  )
  (fp_circle (center 0 0) (end 1.6 0) (layer F.Fab) (width 0.1))
  (fp_line (start -1.95 -1.3) (end -1.65 -1.6) (layer F.Fab) (width 0.1))
  (fp_line (start -1.65 -1.6) (end 2.24 -1.6) (layer F.Fab) (width 0.1))
  (fp_line (start 2.24 -1.6) (end 2.25 -1.6) (layer F.Fab) (width 0.1))
  (fp_line (start 2.25 -1.6) (end 2.25 -1.59) (layer F.Fab) (width 0.1))
  (fp_line (start 2.25 -1.59) (end 2.25 1.59) (layer F.Fab) (width 0.1))
  (fp_line (start 2.25 1.59) (end 2.25 1.6) (layer F.Fab) (width 0.1))
  (fp_line (start 2.25 1.6) (end 2.24 1.6) (layer F.Fab) (width 0.1))
  (fp_line (start 2.24 1.6) (end -1.65 1.6) (layer F.Fab) (width 0.1))
  (fp_line (start -1.65 1.6) (end -1.95 1.3) (layer F.Fab) (width 0.1))
  (fp_line (start -1.95 1.3) (end -2.25 1) (layer F.Fab) (width 0.1))
  (fp_line (start -2.25 1) (end -2.25 -1) (layer F.Fab) (width 0.1))
  (fp_line (start -2.25 -1) (end -1.95 -1.3) (layer F.Fab) (width 0.1))
  (fp_line (start -2.45 -1.3) (end -1.95 -1.8) (layer F.SilkS) (width 0.12))
  (fp_line (start -2.45 1.3) (end -1.95 1.8) (layer F.SilkS) (width 0.12))
  (fp_line (start 2.45 -1.8) (end 1.95 -1.8) (layer F.SilkS) (width 0.12))
  (fp_line (start 2.45 -1.8) (end 2.45 -1.3) (layer F.SilkS) (width 0.12))
  (fp_line (start 2.45 1.8) (end 1.95 1.8) (layer F.SilkS) (width 0.12))
  (fp_line (start 2.45 1.8) (end 2.45 1.3) (layer F.SilkS) (width 0.12))
  (fp_line (start -2.75 -1.85) (end -2.75 1.85) (layer F.CrtYd) (width 0.05))
  (fp_line (start -2.75 1.85) (end 2.75 1.85) (layer F.CrtYd) (width 0.05))
  (fp_line (start 2.75 1.85) (end 2.75 -1.85) (layer F.CrtYd) (width 0.05))
  (fp_line (start 2.75 -1.85) (end -2.75 -1.85) (layer F.CrtYd) (width 0.05))
  (pad 1 smd rect (at -2.075 0) (size 0.85 1) (layers F.Cu F.Mask F.Paste))
  (pad 2 smd rect (at 2.075 0) (size 0.85 1) (layers F.Cu F.Mask F.Paste))
  (fp_text user %R (at 0 0) (layer F.Fab)
    (effects (font (size 0.5 0.5) (thickness 0.05)))
  )
  (model ${KIPRJMOD}/kicad_libs_k/models_k.3d/Capacitor_SMD_k.3dshapes/C_Trimmer_Murata_TZC3_k.wrl
    (at (xyz 0 0 0))
    (scale (xyz 1 1 1))
    (rotate (xyz 0 0 0))
  )
)