(module CP_Elec_16x22 (layer F.Cu) (tedit 5A841F9D)
  (descr "SMT capacitor, aluminium electrolytic, 16x22, Vishay 1621 http://www.vishay.com/docs/28395/150crz.pdf")
  (tags "Capacitor Electrolytic")
  (attr smd)
  (fp_text reference REF** (at 0 -9.35) (layer F.SilkS)
    (effects (font (size 1 1) (thickness 0.15)))
  )
  (fp_text value CP_Elec_16x22 (at 0 9.35) (layer F.Fab)
    (effects (font (size 1 1) (thickness 0.15)))
  )
  (fp_circle (center 0 0) (end 8 0) (layer F.Fab) (width 0.1))
  (fp_line (start 8.3 -8.3) (end 8.3 8.3) (layer F.Fab) (width 0.1))
  (fp_line (start -7.3 -8.3) (end 8.3 -8.3) (layer F.Fab) (width 0.1))
  (fp_line (start -7.3 8.3) (end 8.3 8.3) (layer F.Fab) (width 0.1))
  (fp_line (start -8.3 -7.3) (end -8.3 7.3) (layer F.Fab) (width 0.1))
  (fp_line (start -8.3 -7.3) (end -7.3 -8.3) (layer F.Fab) (width 0.1))
  (fp_line (start -8.3 7.3) (end -7.3 8.3) (layer F.Fab) (width 0.1))
  (fp_line (start -7.517142 -2.3) (end -5.917142 -2.3) (layer F.Fab) (width 0.1))
  (fp_line (start -6.717142 -3.1) (end -6.717142 -1.5) (layer F.Fab) (width 0.1))
  (fp_line (start 8.41 8.41) (end 8.41 5.06) (layer F.SilkS) (width 0.12))
  (fp_line (start 8.41 -8.41) (end 8.41 -5.06) (layer F.SilkS) (width 0.12))
  (fp_line (start -7.345563 -8.41) (end 8.41 -8.41) (layer F.SilkS) (width 0.12))
  (fp_line (start -7.345563 8.41) (end 8.41 8.41) (layer F.SilkS) (width 0.12))
  (fp_line (start -8.41 7.345563) (end -8.41 5.06) (layer F.SilkS) (width 0.12))
  (fp_line (start -8.41 -7.345563) (end -8.41 -5.06) (layer F.SilkS) (width 0.12))
  (fp_line (start -8.41 -7.345563) (end -7.345563 -8.41) (layer F.SilkS) (width 0.12))
  (fp_line (start -8.41 7.345563) (end -7.345563 8.41) (layer F.SilkS) (width 0.12))
  (fp_line (start -10.65 -7.06) (end -8.65 -7.06) (layer F.SilkS) (width 0.12))
  (fp_line (start -9.65 -8.06) (end -9.65 -6.06) (layer F.SilkS) (width 0.12))
  (fp_line (start 8.55 -8.55) (end 8.55 -5.05) (layer F.CrtYd) (width 0.05))
  (fp_line (start 8.55 -5.05) (end 10.4 -5.05) (layer F.CrtYd) (width 0.05))
  (fp_line (start 10.4 -5.05) (end 10.4 5.05) (layer F.CrtYd) (width 0.05))
  (fp_line (start 10.4 5.05) (end 8.55 5.05) (layer F.CrtYd) (width 0.05))
  (fp_line (start 8.55 5.05) (end 8.55 8.55) (layer F.CrtYd) (width 0.05))
  (fp_line (start -7.4 8.55) (end 8.55 8.55) (layer F.CrtYd) (width 0.05))
  (fp_line (start -7.4 -8.55) (end 8.55 -8.55) (layer F.CrtYd) (width 0.05))
  (fp_line (start -8.55 7.4) (end -7.4 8.55) (layer F.CrtYd) (width 0.05))
  (fp_line (start -8.55 -7.4) (end -7.4 -8.55) (layer F.CrtYd) (width 0.05))
  (fp_line (start -8.55 -7.4) (end -8.55 -5.05) (layer F.CrtYd) (width 0.05))
  (fp_line (start -8.55 5.05) (end -8.55 7.4) (layer F.CrtYd) (width 0.05))
  (fp_line (start -8.55 -5.05) (end -10.4 -5.05) (layer F.CrtYd) (width 0.05))
  (fp_line (start -10.4 -5.05) (end -10.4 5.05) (layer F.CrtYd) (width 0.05))
  (fp_line (start -10.4 5.05) (end -8.55 5.05) (layer F.CrtYd) (width 0.05))
  (pad 1 smd rect (at -6.25 0) (size 7.8 9.6) (layers F.Cu F.Mask F.Paste))
  (pad 2 smd rect (at 6.25 0) (size 7.8 9.6) (layers F.Cu F.Mask F.Paste))
  (fp_text user %R (at 0 0) (layer F.Fab)
    (effects (font (size 1 1) (thickness 0.15)))
  )
  (model ${KIPRJMOD}/kicad_libs_k/models_k.3d/Capacitor_SMD_k.3dshapes/CP_Elec_16x22_k.wrl
    (at (xyz 0 0 0))
    (scale (xyz 1 1 1))
    (rotate (xyz 0 0 0))
  )
)