(module Converter_ACDC_TRACO_TMLM-10-20_THT (layer F.Cu) (tedit 59FEFBCC)
  (descr "ACDC-Converter, TRACO TMLM 10, TRACO TMLM 20, https://www.tracopower.com/products/tmlm.pdf")
  (tags "ACDC-Converter TRACO TMLM 10 and TMLM 20")
  (fp_text reference REF** (at -1.26 -15.2) (layer F.SilkS)
    (effects (font (size 1 1) (thickness 0.15)))
  )
  (fp_text value Converter_ACDC_TRACO_TMLM-10-20_THT (at 21.26 14.69) (layer F.Fab)
    (effects (font (size 1 1) (thickness 0.15)))
  )
  (fp_line (start -3.65 -13.92) (end -3.65 13.79) (layer F.CrtYd) (width 0.05))
  (fp_line (start 49.25 -13.92) (end 49.25 13.79) (layer F.CrtYd) (width 0.05))
  (fp_line (start -3.65 -13.92) (end 49.25 -13.92) (layer F.CrtYd) (width 0.05))
  (fp_line (start -3.65 13.79) (end 49.25 13.79) (layer F.CrtYd) (width 0.05))
  (fp_line (start -3.52 13.66) (end -3.52 -13.79) (layer F.SilkS) (width 0.12))
  (fp_line (start -3.52 -13.79) (end 49.12 -13.79) (layer F.SilkS) (width 0.12))
  (fp_line (start 49.12 -13.79) (end 49.12 13.66) (layer F.SilkS) (width 0.12))
  (fp_line (start 49.12 13.66) (end -3.52 13.66) (layer F.SilkS) (width 0.12))
  (fp_text user %R (at 22 0) (layer F.Fab)
    (effects (font (size 1 1) (thickness 0.15)))
  )
  (fp_line (start -3.4 13.54) (end -3.4 1) (layer F.Fab) (width 0.1))
  (fp_line (start 49 13.54) (end -3.4 13.54) (layer F.Fab) (width 0.1))
  (fp_line (start 49 -13.66) (end 49 13.54) (layer F.Fab) (width 0.1))
  (fp_line (start -3.4 -13.66) (end 49 -13.66) (layer F.Fab) (width 0.1))
  (fp_line (start -3.4 -1) (end -3.4 -13.66) (layer F.Fab) (width 0.1))
  (fp_line (start -2.4 0) (end -3.4 -1) (layer F.Fab) (width 0.1))
  (fp_line (start -2.4 0) (end -3.4 1) (layer F.Fab) (width 0.1))
  (fp_line (start -3.9 -2) (end -3.9 2) (layer F.Fab) (width 0.12))
  (pad 1 thru_hole rect (at 0 0) (size 2.8 3) (drill 1.5) (layers *.Cu *.Mask))
  (pad 2 thru_hole circle (at 0 10.16) (size 3 3) (drill 1.5) (layers *.Cu *.Mask))
  (pad 3 thru_hole circle (at 45.72 10.16) (size 3 3) (drill 1.5) (layers *.Cu *.Mask))
  (pad 4 thru_hole circle (at 45.72 -10.16) (size 3 3) (drill 1.5) (layers *.Cu *.Mask))
  (pad "" np_thru_hole circle (at 36 9.4) (size 4 4) (drill 4) (layers *.Cu *.Mask))
  (model ${KIPRJMOD}/kicad_libs_k/models_k.3d/Converter_ACDC_k.3dshapes/Converter_ACDC_TRACO_TMLM-10-20_THT_k.wrl
    (at (xyz 0 0 0))
    (scale (xyz 1 1 1))
    (rotate (xyz 0 0 0))
  )
)
