(module Converter_ACDC_TRACO_TMLM-04_THT (layer F.Cu) (tedit 59FF0AEC)
  (descr "ACDC-Converter, TRACO, TMLM Series 04 https://www.tracopower.com/products/tmlm.pdf")
  (tags "ACDC-Converter TRACO TMLM Series 04")
  (fp_text reference REF** (at -1.82 -4.55) (layer F.SilkS)
    (effects (font (size 1 1) (thickness 0.15)))
  )
  (fp_text value Converter_ACDC_TRACO_TMLM-04_THT (at 14.33 25.62) (layer F.Fab)
    (effects (font (size 1 1) (thickness 0.15)))
  )
  (fp_line (start -4 -3.25) (end -4 24.25) (layer F.CrtYd) (width 0.05))
  (fp_line (start 33 -3.25) (end 33 24.25) (layer F.CrtYd) (width 0.05))
  (fp_line (start -4 -3.25) (end 33 -3.25) (layer F.CrtYd) (width 0.05))
  (fp_line (start -4 24.25) (end 33 24.25) (layer F.CrtYd) (width 0.05))
  (fp_line (start 32.87 -3.12) (end 32.87 24.12) (layer F.SilkS) (width 0.15))
  (fp_line (start -3.87 -3.12) (end 32.87 -3.12) (layer F.SilkS) (width 0.15))
  (fp_line (start -3.87 -3.12) (end -3.87 24.12) (layer F.SilkS) (width 0.15))
  (fp_line (start -3.87 24.12) (end 32.87 24.12) (layer F.SilkS) (width 0.15))
  (fp_line (start -3.75 -3) (end -3.75 24) (layer F.Fab) (width 0.1))
  (fp_line (start 32.75 24) (end -3.75 24) (layer F.Fab) (width 0.1))
  (fp_line (start 32.75 -3) (end 32.75 24) (layer F.Fab) (width 0.1))
  (fp_line (start 1 -3) (end 32.75 -3) (layer F.Fab) (width 0.1))
  (fp_line (start 0 -2) (end 1 -3) (layer F.Fab) (width 0.1))
  (fp_line (start -1 -3) (end 0 -2) (layer F.Fab) (width 0.1))
  (fp_line (start -1 -3) (end -3.75 -3) (layer F.Fab) (width 0.1))
  (fp_line (start -2 -3.5) (end 3 -3.5) (layer F.SilkS) (width 0.12))
  (fp_text user %R (at 15 11) (layer F.Fab)
    (effects (font (size 1 1) (thickness 0.15)))
  )
  (pad 1 thru_hole rect (at 0 0) (size 2 2) (drill 1) (layers *.Cu *.Mask))
  (pad 7 thru_hole circle (at 0 21) (size 2 2) (drill 1) (layers *.Cu *.Mask))
  (pad 2 thru_hole circle (at 21.5 0) (size 2 2) (drill 1) (layers *.Cu *.Mask))
  (pad 6 thru_hole circle (at 21.5 21) (size 2 2) (drill 1) (layers *.Cu *.Mask))
  (pad 3 thru_hole circle (at 25.25 0) (size 2 2) (drill 1) (layers *.Cu *.Mask))
  (pad 4 thru_hole circle (at 29 0) (size 2 2) (drill 1) (layers *.Cu *.Mask))
  (pad 5 thru_hole circle (at 29 21) (size 2 2) (drill 1) (layers *.Cu *.Mask))
  (model ${KIPRJMOD}/kicad_libs_k/models_k.3d/Converter_ACDC_k.3dshapes/Converter_ACDC_TRACO_TMLM-04_THT_k.wrl
    (at (xyz 0 0 0))
    (scale (xyz 1 1 1))
    (rotate (xyz 0 0 0))
  )
)
