(module Converter_ACDC_MeanWell_IRM-03-xx_THT (layer F.Cu) (tedit 59FF00A2)
  (descr "ACDC-Converter, 2W, Meanwell, IRM-02, THT, https://www.meanwell.co.uk/media/productPDF/IRM-02-spec.pdf")
  (tags "ACDC-Converter 2W THT")
  (fp_text reference REF** (at -0.8 -4.8) (layer F.SilkS)
    (effects (font (size 1 1) (thickness 0.15)))
  )
  (fp_text value Converter_ACDC_MeanWell_IRM-03-xx_THT (at 15.12 22.24) (layer F.Fab)
    (effects (font (size 1 1) (thickness 0.15)))
  )
  (fp_line (start -3.51 21.14) (end -3.51 -3.36) (layer F.CrtYd) (width 0.05))
  (fp_line (start -3.51 -3.36) (end 33.99 -3.36) (layer F.CrtYd) (width 0.05))
  (fp_line (start 33.99 21.14) (end 33.99 -3.36) (layer F.CrtYd) (width 0.05))
  (fp_line (start -3.51 21.14) (end 33.99 21.14) (layer F.CrtYd) (width 0.05))
  (fp_line (start -3.38 21.01) (end -3.38 -3.23) (layer F.SilkS) (width 0.12))
  (fp_line (start 33.86 -3.23) (end 33.86 21.01) (layer F.SilkS) (width 0.12))
  (fp_line (start -3.38 -3.23) (end 33.86 -3.23) (layer F.SilkS) (width 0.12))
  (fp_line (start -3.38 21.01) (end 33.86 21.01) (layer F.SilkS) (width 0.12))
  (fp_line (start -3.26 20.89) (end 33.74 20.89) (layer F.Fab) (width 0.1))
  (fp_line (start 33.74 20.89) (end 33.74 -3.11) (layer F.Fab) (width 0.1))
  (fp_line (start -3.26 20.89) (end -3.26 -3.11) (layer F.Fab) (width 0.1))
  (fp_line (start 1 -3.11) (end 33.74 -3.11) (layer F.Fab) (width 0.1))
  (fp_text user %R (at 14.03 7.47) (layer F.Fab)
    (effects (font (size 1 1) (thickness 0.15)))
  )
  (fp_line (start -1 -3.11) (end -3.26 -3.11) (layer F.Fab) (width 0.1))
  (fp_line (start 0 -2.11) (end -1 -3.11) (layer F.Fab) (width 0.1))
  (fp_line (start 1 -3.11) (end 0 -2.11) (layer F.Fab) (width 0.1))
  (fp_line (start -2 -3.61) (end 4 -3.61) (layer F.SilkS) (width 0.12))
  (pad 5 thru_hole circle (at 30.48 0) (size 2.3 2.3) (drill 0.76) (layers *.Cu *.Mask))
  (pad 1 thru_hole rect (at 0 0) (size 2.3 2) (drill 0.8) (layers *.Cu *.Mask))
  (pad 3 thru_hole circle (at 5.08 0) (size 2.3 2.3) (drill 0.8) (layers *.Cu *.Mask))
  (pad 14 thru_hole circle (at 30.48 17.18) (size 2.3 2.3) (drill 0.76) (layers *.Cu *.Mask))
  (pad 16 thru_hole circle (at 25.4 17.18) (size 2.3 2.3) (drill 0.76) (layers *.Cu *.Mask))
  (model ${KIPRJMOD}/kicad_libs_k/models_k.3d/Converter_ACDC_k.3dshapes/Converter_ACDC_MeanWell_IRM-03-xx_THT_k.wrl
    (at (xyz 0 0 0))
    (scale (xyz 1 1 1))
    (rotate (xyz 0 0 0))
  )
)
