(module Converter_ACDC_MeanWell_IRM-02-xx_SMD (layer F.Cu) (tedit 59FF0064)
  (descr "ACDC-Converter, 3W, Meanwell, IRM-02, SMD, https://www.meanwell.co.uk/media/productPDF/IRM-02-spec.pdf")
  (tags "ACDC-Converter 3W")
  (attr smd)
  (fp_text reference REF** (at -12.03 -19.55) (layer F.SilkS)
    (effects (font (size 1 1) (thickness 0.15)))
  )
  (fp_text value Converter_ACDC_MeanWell_IRM-02-xx_SMD (at 0 21) (layer F.Fab)
    (effects (font (size 1 1) (thickness 0.15)))
  )
  (fp_line (start 11.22 -18.62) (end 11.22 18.62) (layer F.SilkS) (width 0.12))
  (fp_line (start 11.22 18.62) (end -11.22 18.62) (layer F.SilkS) (width 0.12))
  (fp_line (start -11.22 18.62) (end -11.22 -18.62) (layer F.SilkS) (width 0.12))
  (fp_line (start -11.22 -18.62) (end 11.22 -18.62) (layer F.SilkS) (width 0.12))
  (fp_line (start 14.42 -18.75) (end -14.42 -18.75) (layer F.CrtYd) (width 0.05))
  (fp_line (start -14.42 -18.75) (end -14.42 18.75) (layer F.CrtYd) (width 0.05))
  (fp_line (start -14.42 18.75) (end 14.42 18.75) (layer F.CrtYd) (width 0.05))
  (fp_line (start 14.42 18.75) (end 14.42 -18.75) (layer F.CrtYd) (width 0.05))
  (fp_line (start -11.1 -17.5) (end -11.1 18.5) (layer F.Fab) (width 0.1))
  (fp_line (start -11.1 18.5) (end 11.1 18.5) (layer F.Fab) (width 0.1))
  (fp_line (start 11.1 18.5) (end 11.1 -18.5) (layer F.Fab) (width 0.1))
  (fp_line (start 11.1 -18.5) (end -10.1 -18.5) (layer F.Fab) (width 0.1))
  (fp_text user %R (at 0 0) (layer F.Fab)
    (effects (font (size 1 1) (thickness 0.15)))
  )
  (fp_line (start -11.1 -17.5) (end -10.1 -18.5) (layer F.Fab) (width 0.1))
  (pad 26 smd rect (at 13.2 -15.24 270) (size 1.5 2.03) (layers F.Cu F.Paste F.Mask))
  (pad 24 smd rect (at 13.2 -10.16 270) (size 1.5 2.03) (layers F.Cu F.Paste F.Mask))
  (pad 22 smd rect (at 13.2 -5.08 270) (size 1.5 2.03) (layers F.Cu F.Paste F.Mask))
  (pad 17 smd rect (at 13.2 7.62 270) (size 1.5 2.03) (layers F.Cu F.Paste F.Mask))
  (pad 16 smd rect (at 13.2 10.16 270) (size 1.5 2.03) (layers F.Cu F.Paste F.Mask))
  (pad 15 smd rect (at 13.2 12.7 270) (size 1.5 2.03) (layers F.Cu F.Paste F.Mask))
  (pad 14 smd rect (at 13.2 15.24 270) (size 1.5 2.03) (layers F.Cu F.Paste F.Mask))
  (pad 1 smd rect (at -13.2 -15.24 270) (size 1.5 2.03) (layers F.Cu F.Paste F.Mask))
  (pad 3 smd rect (at -13.2 -10.16 270) (size 1.5 2.03) (layers F.Cu F.Paste F.Mask))
  (pad 5 smd rect (at -13.2 -5.08 270) (size 1.5 2.03) (layers F.Cu F.Paste F.Mask))
  (pad 10 smd rect (at -13.2 7.62 270) (size 1.5 2.03) (layers F.Cu F.Paste F.Mask))
  (pad 11 smd rect (at -13.2 10.16 270) (size 1.5 2.03) (layers F.Cu F.Paste F.Mask))
  (pad 12 smd rect (at -13.2 12.7 270) (size 1.5 2.03) (layers F.Cu F.Paste F.Mask))
  (pad 13 smd rect (at -13.2 15.24 270) (size 1.5 2.03) (layers F.Cu F.Paste F.Mask))
  (model ${KIPRJMOD}/kicad_libs_k/models_k.3d/Converter_ACDC_k.3dshapes/Converter_ACDC_MeanWell_IRM-02-xx_SMD_k.wrl
    (at (xyz 0 0 0))
    (scale (xyz 1 1 1))
    (rotate (xyz 0 0 0))
  )
)
