(module Relay_DPDT_Omron_G6K-2F (layer F.Cu) (tedit 5A57072F)
  (descr "Omron G6K-2F relay package http://omronfs.omron.com/en_US/ecb/products/pdf/en-g6k.pdf")
  (tags "Omron G6K-2F relay")
  (attr smd)
  (fp_text reference REF** (at 0 -6) (layer F.SilkS)
    (effects (font (size 1 1) (thickness 0.15)))
  )
  (fp_text value Relay_DPDT_Omron_G6K-2F (at -0.04 6.3) (layer F.Fab)
    (effects (font (size 1 1) (thickness 0.15)))
  )
  (fp_text user %R (at 0.01 0) (layer F.Fab)
    (effects (font (size 1 1) (thickness 0.15)))
  )
  (fp_line (start -3.35 -3.09) (end -4.35 -3.1) (layer F.SilkS) (width 0.12))
  (fp_line (start -3.3 -4.59) (end -4.35 -4.6) (layer F.SilkS) (width 0.12))
  (fp_line (start -3.3 -5.09) (end -3.3 -4.59) (layer F.SilkS) (width 0.12))
  (fp_line (start -3.35 -1.95) (end -3.35 -3.1) (layer F.SilkS) (width 0.12))
  (fp_line (start -3.34 0.6) (end -3.35 -0.6) (layer F.SilkS) (width 0.12))
  (fp_line (start -3.35 3.2) (end -3.35 2) (layer F.SilkS) (width 0.12))
  (fp_line (start -3.34 5.1) (end -3.34 4.6) (layer F.SilkS) (width 0.12))
  (fp_line (start 3.36 5.1) (end -3.34 5.1) (layer F.SilkS) (width 0.12))
  (fp_line (start 3.36 4.6) (end 3.36 5.1) (layer F.SilkS) (width 0.12))
  (fp_line (start 3.35 2) (end 3.35 3.15) (layer F.SilkS) (width 0.12))
  (fp_line (start 3.35 -0.6) (end 3.36 0.6) (layer F.SilkS) (width 0.12))
  (fp_line (start 3.35 -3.1) (end 3.35 -1.95) (layer F.SilkS) (width 0.12))
  (fp_line (start 3.36 -5.1) (end 3.36 -4.6) (layer F.SilkS) (width 0.12))
  (fp_line (start -3.3 -5.09) (end 3.36 -5.1) (layer F.SilkS) (width 0.12))
  (fp_line (start -3.24 -4) (end -2.24 -5) (layer F.Fab) (width 0.12))
  (fp_line (start -3.24 5) (end -3.24 -4) (layer F.Fab) (width 0.12))
  (fp_line (start 3.26 5) (end -3.24 5) (layer F.Fab) (width 0.12))
  (fp_line (start 3.26 -5) (end 3.26 5) (layer F.Fab) (width 0.12))
  (fp_line (start -2.24 -5) (end 3.26 -5) (layer F.Fab) (width 0.12))
  (fp_line (start -4.65 -5.25) (end 4.65 -5.25) (layer F.CrtYd) (width 0.05))
  (fp_line (start -4.65 -5.25) (end -4.65 5.25) (layer F.CrtYd) (width 0.05))
  (fp_line (start 4.65 5.25) (end 4.65 -5.25) (layer F.CrtYd) (width 0.05))
  (fp_line (start 4.65 5.25) (end -4.65 5.25) (layer F.CrtYd) (width 0.05))
  (pad 8 smd rect (at 3.5 -3.81) (size 1.8 0.8) (layers F.Cu F.Paste F.Mask))
  (pad 7 smd rect (at 3.5 -1.27) (size 1.8 0.8) (layers F.Cu F.Paste F.Mask))
  (pad 6 smd rect (at 3.5 1.27) (size 1.8 0.8) (layers F.Cu F.Paste F.Mask))
  (pad 5 smd rect (at 3.5 3.81) (size 1.8 0.8) (layers F.Cu F.Paste F.Mask))
  (pad 4 smd rect (at -3.5 3.81) (size 1.8 0.8) (layers F.Cu F.Paste F.Mask))
  (pad 3 smd rect (at -3.5 1.27) (size 1.8 0.8) (layers F.Cu F.Paste F.Mask))
  (pad 2 smd rect (at -3.5 -1.27) (size 1.8 0.8) (layers F.Cu F.Paste F.Mask))
  (pad 1 smd rect (at -3.5 -3.81) (size 1.8 0.8) (layers F.Cu F.Paste F.Mask))
  (model ${KIPRJMOD}/kicad_libs_k/models_k.3d/Relay_SMD_k.3dshapes/Relay_DPDT_Omron_G6K-2F_k.wrl
    (at (xyz 0 0 0))
    (scale (xyz 1 1 1))
    (rotate (xyz 0 0 0))
  )
)
