(module Molex_Micro-Fit_3.0_43045-1810_2x09-1MP_P3.00mm_Horizontal (layer F.Cu) (tedit 5AA47B23)
  (descr "Molex Micro-Fit 3.0 Connector System, 43045-1810 (compatible alternatives: 43045-1811, 43045-1809), 9 Pins per row (http://www.molex.com/pdm_docs/sd/430450210_sd.pdf), generated with kicad-footprint-generator")
  (tags "connector Molex Micro-Fit_3.0 top entry")
  (attr smd)
  (fp_text reference REF** (at 0 -13.58) (layer F.SilkS)
    (effects (font (size 1 1) (thickness 0.15)))
  )
  (fp_text value Molex_Micro-Fit_3.0_43045-1810_2x09-1MP_P3.00mm_Horizontal (at 0 4.98) (layer F.Fab)
    (effects (font (size 1 1) (thickness 0.15)))
  )
  (fp_line (start 0 -12.385) (end 14.325 -12.385) (layer F.Fab) (width 0.1))
  (fp_line (start 14.325 -12.385) (end 15.325 -10.385) (layer F.Fab) (width 0.1))
  (fp_line (start 15.325 -10.385) (end 15.325 -8.61) (layer F.Fab) (width 0.1))
  (fp_line (start 15.325 -8.61) (end 15.325 -2.475) (layer F.Fab) (width 0.1))
  (fp_line (start 15.325 -2.475) (end 12.635 -2.475) (layer F.Fab) (width 0.1))
  (fp_line (start 12.635 -2.475) (end 0 -2.475) (layer F.Fab) (width 0.1))
  (fp_line (start 0 -12.385) (end -14.325 -12.385) (layer F.Fab) (width 0.1))
  (fp_line (start -14.325 -12.385) (end -15.325 -10.385) (layer F.Fab) (width 0.1))
  (fp_line (start -15.325 -10.385) (end -15.325 -8.61) (layer F.Fab) (width 0.1))
  (fp_line (start -15.325 -8.61) (end -15.325 -2.475) (layer F.Fab) (width 0.1))
  (fp_line (start -15.325 -2.475) (end -13 -2.475) (layer F.Fab) (width 0.1))
  (fp_line (start -13 -2.475) (end -12 -3.475) (layer F.Fab) (width 0.1))
  (fp_line (start -12 -3.475) (end -11 -2.475) (layer F.Fab) (width 0.1))
  (fp_line (start -11 -2.475) (end 0 -2.475) (layer F.Fab) (width 0.1))
  (fp_line (start 0 -12.495) (end 14.435 -12.495) (layer F.SilkS) (width 0.12))
  (fp_line (start 14.435 -12.495) (end 15.435 -10.495) (layer F.SilkS) (width 0.12))
  (fp_line (start 15.435 -10.495) (end 15.435 -8.98) (layer F.SilkS) (width 0.12))
  (fp_line (start 0 -12.495) (end -14.435 -12.495) (layer F.SilkS) (width 0.12))
  (fp_line (start -14.435 -12.495) (end -15.435 -10.495) (layer F.SilkS) (width 0.12))
  (fp_line (start -15.435 -10.495) (end -15.435 -8.98) (layer F.SilkS) (width 0.12))
  (fp_line (start 15.435 -6.59) (end 15.435 -2.365) (layer F.SilkS) (width 0.12))
  (fp_line (start 15.435 -2.365) (end 13.005 -2.365) (layer F.SilkS) (width 0.12))
  (fp_line (start -15.435 -6.59) (end -15.435 -2.365) (layer F.SilkS) (width 0.12))
  (fp_line (start -15.435 -2.365) (end -13.005 -2.365) (layer F.SilkS) (width 0.12))
  (fp_line (start -13.005 -2.365) (end -13.005 -0.905) (layer F.SilkS) (width 0.12))
  (fp_line (start 0 -12.88) (end 14.82 -12.88) (layer F.CrtYd) (width 0.05))
  (fp_line (start 14.82 -12.88) (end 15.82 -10.88) (layer F.CrtYd) (width 0.05))
  (fp_line (start 15.82 -10.88) (end 15.82 -9.11) (layer F.CrtYd) (width 0.05))
  (fp_line (start 15.82 -9.11) (end 18.1 -9.11) (layer F.CrtYd) (width 0.05))
  (fp_line (start 18.1 -9.11) (end 18.1 -6.46) (layer F.CrtYd) (width 0.05))
  (fp_line (start 18.1 -6.46) (end 15.82 -6.46) (layer F.CrtYd) (width 0.05))
  (fp_line (start 15.82 -6.46) (end 15.82 -1.97) (layer F.CrtYd) (width 0.05))
  (fp_line (start 15.82 -1.97) (end 13.14 -1.97) (layer F.CrtYd) (width 0.05))
  (fp_line (start 13.14 -1.97) (end 13.14 4.28) (layer F.CrtYd) (width 0.05))
  (fp_line (start 13.14 4.28) (end 0 4.28) (layer F.CrtYd) (width 0.05))
  (fp_line (start 0 -12.88) (end -14.82 -12.88) (layer F.CrtYd) (width 0.05))
  (fp_line (start -14.82 -12.88) (end -15.82 -10.88) (layer F.CrtYd) (width 0.05))
  (fp_line (start -15.82 -10.88) (end -15.82 -9.11) (layer F.CrtYd) (width 0.05))
  (fp_line (start -15.82 -9.11) (end -18.1 -9.11) (layer F.CrtYd) (width 0.05))
  (fp_line (start -18.1 -9.11) (end -18.1 -6.46) (layer F.CrtYd) (width 0.05))
  (fp_line (start -18.1 -6.46) (end -15.82 -6.46) (layer F.CrtYd) (width 0.05))
  (fp_line (start -15.82 -6.46) (end -15.82 -1.97) (layer F.CrtYd) (width 0.05))
  (fp_line (start -15.82 -1.97) (end -13.14 -1.97) (layer F.CrtYd) (width 0.05))
  (fp_line (start -13.14 -1.97) (end -13.14 4.28) (layer F.CrtYd) (width 0.05))
  (fp_line (start -13.14 4.28) (end 0 4.28) (layer F.CrtYd) (width 0.05))
  (pad MP smd rect (at -15.885 -7.785) (size 3.43 1.65) (layers F.Cu F.Mask F.Paste))
  (pad MP smd rect (at 15.885 -7.785) (size 3.43 1.65) (layers F.Cu F.Mask F.Paste))
  (pad 1 smd rect (at -12 -2.315) (size 1.27 2.92) (layers F.Cu F.Mask F.Paste))
  (pad 2 smd rect (at -9 -2.315) (size 1.27 2.92) (layers F.Cu F.Mask F.Paste))
  (pad 3 smd rect (at -6 -2.315) (size 1.27 2.92) (layers F.Cu F.Mask F.Paste))
  (pad 4 smd rect (at -3 -2.315) (size 1.27 2.92) (layers F.Cu F.Mask F.Paste))
  (pad 5 smd rect (at 0 -2.315) (size 1.27 2.92) (layers F.Cu F.Mask F.Paste))
  (pad 6 smd rect (at 3 -2.315) (size 1.27 2.92) (layers F.Cu F.Mask F.Paste))
  (pad 7 smd rect (at 6 -2.315) (size 1.27 2.92) (layers F.Cu F.Mask F.Paste))
  (pad 8 smd rect (at 9 -2.315) (size 1.27 2.92) (layers F.Cu F.Mask F.Paste))
  (pad 9 smd rect (at 12 -2.315) (size 1.27 2.92) (layers F.Cu F.Mask F.Paste))
  (pad 10 smd rect (at -12 2.315) (size 1.27 2.92) (layers F.Cu F.Mask F.Paste))
  (pad 11 smd rect (at -9 2.315) (size 1.27 2.92) (layers F.Cu F.Mask F.Paste))
  (pad 12 smd rect (at -6 2.315) (size 1.27 2.92) (layers F.Cu F.Mask F.Paste))
  (pad 13 smd rect (at -3 2.315) (size 1.27 2.92) (layers F.Cu F.Mask F.Paste))
  (pad 14 smd rect (at 0 2.315) (size 1.27 2.92) (layers F.Cu F.Mask F.Paste))
  (pad 15 smd rect (at 3 2.315) (size 1.27 2.92) (layers F.Cu F.Mask F.Paste))
  (pad 16 smd rect (at 6 2.315) (size 1.27 2.92) (layers F.Cu F.Mask F.Paste))
  (pad 17 smd rect (at 9 2.315) (size 1.27 2.92) (layers F.Cu F.Mask F.Paste))
  (pad 18 smd rect (at 12 2.315) (size 1.27 2.92) (layers F.Cu F.Mask F.Paste))
  (fp_text user %R (at 0 -11.68) (layer F.Fab)
    (effects (font (size 1 1) (thickness 0.15)))
  )
  (model ${KIPRJMOD}/kicad_libs_k/models_k.3d/Connector_Molex_k.3dshapes/Molex_Micro-Fit_3.0_43045-1810_2x09-1MP_P3.00mm_Horizontal_k.wrl
    (at (xyz 0 0 0))
    (scale (xyz 1 1 1))
    (rotate (xyz 0 0 0))
  )
)