(module Molex_CLIK-Mate_505405-0570_1x05-1MP_P1.50mm_Vertical (layer F.Cu) (tedit 5AA46ED0)
  (descr "Molex CLIK-Mate series connector, 505405-0570 (http://www.molex.com/pdm_docs/sd/5054050270_sd.pdf), generated with kicad-footprint-generator")
  (tags "connector Molex CLIK-Mate side entry")
  (attr smd)
  (fp_text reference REF** (at 0 -5.42) (layer F.SilkS)
    (effects (font (size 1 1) (thickness 0.15)))
  )
  (fp_text value Molex_CLIK-Mate_505405-0570_1x05-1MP_P1.50mm_Vertical (at 0 5.15) (layer F.Fab)
    (effects (font (size 1 1) (thickness 0.15)))
  )
  (fp_line (start -5.9 2.13) (end 5.9 2.13) (layer F.Fab) (width 0.1))
  (fp_line (start -6.01 -0.39) (end -6.01 2.24) (layer F.SilkS) (width 0.12))
  (fp_line (start -6.01 2.24) (end -3.66 2.24) (layer F.SilkS) (width 0.12))
  (fp_line (start -3.66 2.24) (end -3.66 3.95) (layer F.SilkS) (width 0.12))
  (fp_line (start 6.01 -0.39) (end 6.01 2.24) (layer F.SilkS) (width 0.12))
  (fp_line (start 6.01 2.24) (end 3.66 2.24) (layer F.SilkS) (width 0.12))
  (fp_line (start -5.9 -4.33) (end 5.9 -4.33) (layer F.SilkS) (width 0.12))
  (fp_line (start -5.9 -4.22) (end 5.9 -4.22) (layer F.Fab) (width 0.1))
  (fp_line (start -5.9 2.13) (end -5.9 -4.22) (layer F.Fab) (width 0.1))
  (fp_line (start 5.9 2.13) (end 5.9 -4.22) (layer F.Fab) (width 0.1))
  (fp_line (start -7 -4.72) (end -7 4.45) (layer F.CrtYd) (width 0.05))
  (fp_line (start -7 4.45) (end 7 4.45) (layer F.CrtYd) (width 0.05))
  (fp_line (start 7 4.45) (end 7 -4.72) (layer F.CrtYd) (width 0.05))
  (fp_line (start 7 -4.72) (end -7 -4.72) (layer F.CrtYd) (width 0.05))
  (fp_line (start -3.5 2.13) (end -3 1.422893) (layer F.Fab) (width 0.1))
  (fp_line (start -3 1.422893) (end -2.5 2.13) (layer F.Fab) (width 0.1))
  (pad 1 smd rect (at -3 2.75) (size 0.8 2.4) (layers F.Cu F.Mask F.Paste))
  (pad 2 smd rect (at -1.5 2.75) (size 0.8 2.4) (layers F.Cu F.Mask F.Paste))
  (pad 3 smd rect (at 0 2.75) (size 0.8 2.4) (layers F.Cu F.Mask F.Paste))
  (pad 4 smd rect (at 1.5 2.75) (size 0.8 2.4) (layers F.Cu F.Mask F.Paste))
  (pad 5 smd rect (at 3 2.75) (size 0.8 2.4) (layers F.Cu F.Mask F.Paste))
  (pad MP smd rect (at -5.6 -2.3) (size 1.8 3.3) (layers F.Cu F.Mask F.Paste))
  (pad MP smd rect (at 5.6 -2.3) (size 1.8 3.3) (layers F.Cu F.Mask F.Paste))
  (fp_text user %R (at 0 -1.05) (layer F.Fab)
    (effects (font (size 1 1) (thickness 0.15)))
  )
  (model ${KIPRJMOD}/kicad_libs_k/models_k.3d/Connector_Molex_k.3dshapes/Molex_CLIK-Mate_505405-0570_1x05-1MP_P1.50mm_Vertical_k.wrl
    (at (xyz 0 0 0))
    (scale (xyz 1 1 1))
    (rotate (xyz 0 0 0))
  )
)