(module Molex_PicoBlade_53261-1271_1x12-1MP_P1.25mm_Horizontal (layer F.Cu) (tedit 5AA46ED0)
  (descr "Molex PicoBlade series connector, 53261-1271 (http://www.molex.com/pdm_docs/sd/532610271_sd.pdf), generated with kicad-footprint-generator")
  (tags "connector Molex PicoBlade top entry")
  (attr smd)
  (fp_text reference REF** (at 0 -4.4) (layer F.SilkS)
    (effects (font (size 1 1) (thickness 0.15)))
  )
  (fp_text value Molex_PicoBlade_53261-1271_1x12-1MP_P1.25mm_Horizontal (at 0 3.8) (layer F.Fab)
    (effects (font (size 1 1) (thickness 0.15)))
  )
  (fp_line (start -8.375 -1.6) (end 8.375 -1.6) (layer F.Fab) (width 0.1))
  (fp_line (start -8.485 -1.26) (end -8.485 -1.71) (layer F.SilkS) (width 0.12))
  (fp_line (start -8.485 -1.71) (end -7.535 -1.71) (layer F.SilkS) (width 0.12))
  (fp_line (start -7.535 -1.71) (end -7.535 -3.2) (layer F.SilkS) (width 0.12))
  (fp_line (start 8.485 -1.26) (end 8.485 -1.71) (layer F.SilkS) (width 0.12))
  (fp_line (start 8.485 -1.71) (end 7.535 -1.71) (layer F.SilkS) (width 0.12))
  (fp_line (start -8.485 2.26) (end -8.485 2.71) (layer F.SilkS) (width 0.12))
  (fp_line (start -8.485 2.71) (end 8.485 2.71) (layer F.SilkS) (width 0.12))
  (fp_line (start 8.485 2.71) (end 8.485 2.26) (layer F.SilkS) (width 0.12))
  (fp_line (start -8.375 2.6) (end 8.375 2.6) (layer F.Fab) (width 0.1))
  (fp_line (start -8.375 -1.6) (end -8.375 2.6) (layer F.Fab) (width 0.1))
  (fp_line (start 8.375 -1.6) (end 8.375 2.6) (layer F.Fab) (width 0.1))
  (fp_line (start -8.375 -0.6) (end -9.875 -0.6) (layer F.Fab) (width 0.1))
  (fp_line (start -9.875 -0.6) (end -10.075 -0.4) (layer F.Fab) (width 0.1))
  (fp_line (start -10.075 -0.4) (end -10.075 1.4) (layer F.Fab) (width 0.1))
  (fp_line (start -10.075 1.4) (end -9.875 1.6) (layer F.Fab) (width 0.1))
  (fp_line (start -9.875 1.6) (end -9.875 2.2) (layer F.Fab) (width 0.1))
  (fp_line (start -9.875 2.2) (end -8.375 2.2) (layer F.Fab) (width 0.1))
  (fp_line (start 8.375 -0.6) (end 9.875 -0.6) (layer F.Fab) (width 0.1))
  (fp_line (start 9.875 -0.6) (end 10.075 -0.4) (layer F.Fab) (width 0.1))
  (fp_line (start 10.075 -0.4) (end 10.075 1.4) (layer F.Fab) (width 0.1))
  (fp_line (start 10.075 1.4) (end 9.875 1.6) (layer F.Fab) (width 0.1))
  (fp_line (start 9.875 1.6) (end 9.875 2.2) (layer F.Fab) (width 0.1))
  (fp_line (start 9.875 2.2) (end 8.375 2.2) (layer F.Fab) (width 0.1))
  (fp_line (start -10.98 -3.7) (end -10.98 3.1) (layer F.CrtYd) (width 0.05))
  (fp_line (start -10.98 3.1) (end 10.98 3.1) (layer F.CrtYd) (width 0.05))
  (fp_line (start 10.98 3.1) (end 10.98 -3.7) (layer F.CrtYd) (width 0.05))
  (fp_line (start 10.98 -3.7) (end -10.98 -3.7) (layer F.CrtYd) (width 0.05))
  (fp_line (start -7.375 -1.6) (end -6.875 -0.892893) (layer F.Fab) (width 0.1))
  (fp_line (start -6.875 -0.892893) (end -6.375 -1.6) (layer F.Fab) (width 0.1))
  (pad 1 smd rect (at -6.875 -2.4) (size 0.8 1.6) (layers F.Cu F.Mask F.Paste))
  (pad 2 smd rect (at -5.625 -2.4) (size 0.8 1.6) (layers F.Cu F.Mask F.Paste))
  (pad 3 smd rect (at -4.375 -2.4) (size 0.8 1.6) (layers F.Cu F.Mask F.Paste))
  (pad 4 smd rect (at -3.125 -2.4) (size 0.8 1.6) (layers F.Cu F.Mask F.Paste))
  (pad 5 smd rect (at -1.875 -2.4) (size 0.8 1.6) (layers F.Cu F.Mask F.Paste))
  (pad 6 smd rect (at -0.625 -2.4) (size 0.8 1.6) (layers F.Cu F.Mask F.Paste))
  (pad 7 smd rect (at 0.625 -2.4) (size 0.8 1.6) (layers F.Cu F.Mask F.Paste))
  (pad 8 smd rect (at 1.875 -2.4) (size 0.8 1.6) (layers F.Cu F.Mask F.Paste))
  (pad 9 smd rect (at 3.125 -2.4) (size 0.8 1.6) (layers F.Cu F.Mask F.Paste))
  (pad 10 smd rect (at 4.375 -2.4) (size 0.8 1.6) (layers F.Cu F.Mask F.Paste))
  (pad 11 smd rect (at 5.625 -2.4) (size 0.8 1.6) (layers F.Cu F.Mask F.Paste))
  (pad 12 smd rect (at 6.875 -2.4) (size 0.8 1.6) (layers F.Cu F.Mask F.Paste))
  (pad MP smd rect (at -9.425 0.5) (size 2.1 3) (layers F.Cu F.Mask F.Paste))
  (pad MP smd rect (at 9.425 0.5) (size 2.1 3) (layers F.Cu F.Mask F.Paste))
  (fp_text user %R (at 0 1.9) (layer F.Fab)
    (effects (font (size 1 1) (thickness 0.15)))
  )
  (model ${KIPRJMOD}/kicad_libs_k/models_k.3d/Connector_Molex_k.3dshapes/Molex_PicoBlade_53261-1271_1x12-1MP_P1.25mm_Horizontal_k.wrl
    (at (xyz 0 0 0))
    (scale (xyz 1 1 1))
    (rotate (xyz 0 0 0))
  )
)