(module Molex_CLIK-Mate_502443-0970_1x09-1MP_P2.00mm_Vertical (layer F.Cu) (tedit 5AA46ED0)
  (descr "Molex CLIK-Mate series connector, 502443-0970 (http://www.molex.com/pdm_docs/sd/5024430270_sd.pdf), generated with kicad-footprint-generator")
  (tags "connector Molex CLIK-Mate side entry")
  (attr smd)
  (fp_text reference REF** (at 0 -5.6) (layer F.SilkS)
    (effects (font (size 1 1) (thickness 0.15)))
  )
  (fp_text value Molex_CLIK-Mate_502443-0970_1x09-1MP_P2.00mm_Vertical (at 0 5.15) (layer F.Fab)
    (effects (font (size 1 1) (thickness 0.15)))
  )
  (fp_line (start -11 2.45) (end 11 2.45) (layer F.Fab) (width 0.1))
  (fp_line (start -11.11 -0.09) (end -11.11 2.56) (layer F.SilkS) (width 0.12))
  (fp_line (start -11.11 2.56) (end -8.76 2.56) (layer F.SilkS) (width 0.12))
  (fp_line (start -8.76 2.56) (end -8.76 3.95) (layer F.SilkS) (width 0.12))
  (fp_line (start 11.11 -0.09) (end 11.11 2.56) (layer F.SilkS) (width 0.12))
  (fp_line (start 11.11 2.56) (end 8.76 2.56) (layer F.SilkS) (width 0.12))
  (fp_line (start -11 -4.51) (end 11 -4.51) (layer F.SilkS) (width 0.12))
  (fp_line (start -11 -4.4) (end 11 -4.4) (layer F.Fab) (width 0.1))
  (fp_line (start -11 2.45) (end -11 -4.4) (layer F.Fab) (width 0.1))
  (fp_line (start 11 2.45) (end 11 -4.4) (layer F.Fab) (width 0.1))
  (fp_line (start -11.75 -4.9) (end -11.75 4.45) (layer F.CrtYd) (width 0.05))
  (fp_line (start -11.75 4.45) (end 11.75 4.45) (layer F.CrtYd) (width 0.05))
  (fp_line (start 11.75 4.45) (end 11.75 -4.9) (layer F.CrtYd) (width 0.05))
  (fp_line (start 11.75 -4.9) (end -11.75 -4.9) (layer F.CrtYd) (width 0.05))
  (fp_line (start -8.5 2.45) (end -8 1.742893) (layer F.Fab) (width 0.1))
  (fp_line (start -8 1.742893) (end -7.5 2.45) (layer F.Fab) (width 0.1))
  (pad 1 smd rect (at -8 2.5) (size 1 2.9) (layers F.Cu F.Mask F.Paste))
  (pad 2 smd rect (at -6 2.5) (size 1 2.9) (layers F.Cu F.Mask F.Paste))
  (pad 3 smd rect (at -4 2.5) (size 1 2.9) (layers F.Cu F.Mask F.Paste))
  (pad 4 smd rect (at -2 2.5) (size 1 2.9) (layers F.Cu F.Mask F.Paste))
  (pad 5 smd rect (at 0 2.5) (size 1 2.9) (layers F.Cu F.Mask F.Paste))
  (pad 6 smd rect (at 2 2.5) (size 1 2.9) (layers F.Cu F.Mask F.Paste))
  (pad 7 smd rect (at 4 2.5) (size 1 2.9) (layers F.Cu F.Mask F.Paste))
  (pad 8 smd rect (at 6 2.5) (size 1 2.9) (layers F.Cu F.Mask F.Paste))
  (pad 9 smd rect (at 8 2.5) (size 1 2.9) (layers F.Cu F.Mask F.Paste))
  (pad MP smd rect (at -10.35 -2.15) (size 1.8 3.6) (layers F.Cu F.Mask F.Paste))
  (pad MP smd rect (at 10.35 -2.15) (size 1.8 3.6) (layers F.Cu F.Mask F.Paste))
  (fp_text user %R (at 0 -0.98) (layer F.Fab)
    (effects (font (size 1 1) (thickness 0.15)))
  )
  (model ${KIPRJMOD}/kicad_libs_k/models_k.3d/Connector_Molex_k.3dshapes/Molex_CLIK-Mate_502443-0970_1x09-1MP_P2.00mm_Vertical_k.wrl
    (at (xyz 0 0 0))
    (scale (xyz 1 1 1))
    (rotate (xyz 0 0 0))
  )
)