(module Molex_SlimStack_54722-0224_2x11_P0.50mm_Vertical (layer F.Cu) (tedit 5A184FDD)
  (descr "Molex SlimStack Fine-Pitch SMT Board-to-Board Connectors, 54722-0224, 22 Pins (http://www.molex.com/pdm_docs/sd/547220804_sd.pdf), generated with kicad-footprint-generator")
  (tags "connector Molex SlimStack side entry")
  (attr smd)
  (fp_text reference REF** (at 0 -4.5) (layer F.SilkS)
    (effects (font (size 1 1) (thickness 0.15)))
  )
  (fp_text value Molex_SlimStack_54722-0224_2x11_P0.50mm_Vertical (at 0 4.5) (layer F.Fab)
    (effects (font (size 1 1) (thickness 0.15)))
  )
  (fp_line (start -4.05 -2.5) (end -4.05 2.5) (layer F.Fab) (width 0.1))
  (fp_line (start -4.05 2.5) (end 4.05 2.5) (layer F.Fab) (width 0.1))
  (fp_line (start 4.05 2.5) (end 4.05 -2.5) (layer F.Fab) (width 0.1))
  (fp_line (start 4.05 -2.5) (end -4.05 -2.5) (layer F.Fab) (width 0.1))
  (fp_line (start -2.91 -2.61) (end -2.91 -3.3) (layer F.Fab) (width 0.1))
  (fp_line (start -2.91 2.61) (end -4.16 2.61) (layer F.SilkS) (width 0.12))
  (fp_line (start -4.16 2.61) (end -4.16 -2.61) (layer F.SilkS) (width 0.12))
  (fp_line (start -4.16 -2.61) (end -2.91 -2.61) (layer F.SilkS) (width 0.12))
  (fp_line (start -2.91 -2.61) (end -2.91 -3.3) (layer F.SilkS) (width 0.12))
  (fp_line (start 2.91 2.61) (end 4.16 2.61) (layer F.SilkS) (width 0.12))
  (fp_line (start 4.16 2.61) (end 4.16 -2.61) (layer F.SilkS) (width 0.12))
  (fp_line (start 4.16 -2.61) (end 2.91 -2.61) (layer F.SilkS) (width 0.12))
  (fp_line (start -4.55 -3.8) (end -4.55 3.8) (layer F.CrtYd) (width 0.05))
  (fp_line (start -4.55 3.8) (end 4.55 3.8) (layer F.CrtYd) (width 0.05))
  (fp_line (start 4.55 3.8) (end 4.55 -3.8) (layer F.CrtYd) (width 0.05))
  (fp_line (start 4.55 -3.8) (end -4.55 -3.8) (layer F.CrtYd) (width 0.05))
  (pad 1 smd rect (at -2.5 -2.75) (size 0.3 1.1) (layers F.Cu F.Mask F.Paste))
  (pad 3 smd rect (at -2 -2.75) (size 0.3 1.1) (layers F.Cu F.Mask F.Paste))
  (pad 5 smd rect (at -1.5 -2.75) (size 0.3 1.1) (layers F.Cu F.Mask F.Paste))
  (pad 7 smd rect (at -1 -2.75) (size 0.3 1.1) (layers F.Cu F.Mask F.Paste))
  (pad 9 smd rect (at -0.5 -2.75) (size 0.3 1.1) (layers F.Cu F.Mask F.Paste))
  (pad 11 smd rect (at 0 -2.75) (size 0.3 1.1) (layers F.Cu F.Mask F.Paste))
  (pad 13 smd rect (at 0.5 -2.75) (size 0.3 1.1) (layers F.Cu F.Mask F.Paste))
  (pad 15 smd rect (at 1 -2.75) (size 0.3 1.1) (layers F.Cu F.Mask F.Paste))
  (pad 17 smd rect (at 1.5 -2.75) (size 0.3 1.1) (layers F.Cu F.Mask F.Paste))
  (pad 19 smd rect (at 2 -2.75) (size 0.3 1.1) (layers F.Cu F.Mask F.Paste))
  (pad 21 smd rect (at 2.5 -2.75) (size 0.3 1.1) (layers F.Cu F.Mask F.Paste))
  (pad 2 smd rect (at -2.5 2.75) (size 0.3 1.1) (layers F.Cu F.Mask F.Paste))
  (pad 4 smd rect (at -2 2.75) (size 0.3 1.1) (layers F.Cu F.Mask F.Paste))
  (pad 6 smd rect (at -1.5 2.75) (size 0.3 1.1) (layers F.Cu F.Mask F.Paste))
  (pad 8 smd rect (at -1 2.75) (size 0.3 1.1) (layers F.Cu F.Mask F.Paste))
  (pad 10 smd rect (at -0.5 2.75) (size 0.3 1.1) (layers F.Cu F.Mask F.Paste))
  (pad 12 smd rect (at 0 2.75) (size 0.3 1.1) (layers F.Cu F.Mask F.Paste))
  (pad 14 smd rect (at 0.5 2.75) (size 0.3 1.1) (layers F.Cu F.Mask F.Paste))
  (pad 16 smd rect (at 1 2.75) (size 0.3 1.1) (layers F.Cu F.Mask F.Paste))
  (pad 18 smd rect (at 1.5 2.75) (size 0.3 1.1) (layers F.Cu F.Mask F.Paste))
  (pad 20 smd rect (at 2 2.75) (size 0.3 1.1) (layers F.Cu F.Mask F.Paste))
  (pad 22 smd rect (at 2.5 2.75) (size 0.3 1.1) (layers F.Cu F.Mask F.Paste))
  (fp_text user %R (at 0 0) (layer F.Fab)
    (effects (font (size 1 1) (thickness 0.15)))
  )
  (model ${KIPRJMOD}/kicad_libs_k/models_k.3d/Connector_Molex_k.3dshapes/Molex_SlimStack_54722-0224_2x11_P0.50mm_Vertical_k.wrl
    (at (xyz 0 0 0))
    (scale (xyz 1 1 1))
    (rotate (xyz 0 0 0))
  )
)