(module Molex_SlimStack_502430-1410_2x07_P0.40mm_Vertical (layer F.Cu) (tedit 5A1A83F5)
  (descr "Molex SlimStack Fine-Pitch SMT Board-to-Board Connectors, 502430-1410, 14 Pins (http://www.molex.com/pdm_docs/sd/5024301410_sd.pdf), generated with kicad-footprint-generator")
  (tags "connector Molex SlimStack side entry")
  (attr smd)
  (fp_text reference REF** (at 0 -2.38) (layer F.SilkS)
    (effects (font (size 1 1) (thickness 0.15)))
  )
  (fp_text value Molex_SlimStack_502430-1410_2x07_P0.40mm_Vertical (at 0 2.38) (layer F.Fab)
    (effects (font (size 1 1) (thickness 0.15)))
  )
  (fp_line (start -2.325 -0.22) (end -2.325 0.22) (layer Edge.Cuts) (width 0.1))
  (fp_line (start -2.325 0.22) (end -1.975 0.22) (layer Edge.Cuts) (width 0.1))
  (fp_line (start -1.975 0.22) (end -1.975 -0.22) (layer Edge.Cuts) (width 0.1))
  (fp_line (start -1.975 -0.22) (end -2.325 -0.22) (layer Edge.Cuts) (width 0.1))
  (fp_line (start 1.975 -0.22) (end 1.975 0.22) (layer Edge.Cuts) (width 0.1))
  (fp_line (start 1.975 0.22) (end 2.325 0.22) (layer Edge.Cuts) (width 0.1))
  (fp_line (start 2.325 0.22) (end 2.325 -0.22) (layer Edge.Cuts) (width 0.1))
  (fp_line (start 2.325 -0.22) (end 1.975 -0.22) (layer Edge.Cuts) (width 0.1))
  (fp_line (start -2.53 -0.77) (end -2.53 0.77) (layer F.Fab) (width 0.1))
  (fp_line (start -2.53 0.77) (end 2.53 0.77) (layer F.Fab) (width 0.1))
  (fp_line (start 2.53 0.77) (end 2.53 -0.77) (layer F.Fab) (width 0.1))
  (fp_line (start 2.53 -0.77) (end -2.53 -0.77) (layer F.Fab) (width 0.1))
  (fp_line (start -1.57 -0.77) (end -1.57 -1.12) (layer F.Fab) (width 0.1))
  (fp_line (start -1.57 0.88) (end -2.64 0.88) (layer F.SilkS) (width 0.12))
  (fp_line (start -2.64 0.88) (end -2.64 -0.88) (layer F.SilkS) (width 0.12))
  (fp_line (start -2.64 -0.88) (end -1.57 -0.88) (layer F.SilkS) (width 0.12))
  (fp_line (start -1.57 -0.88) (end -1.57 -1.12) (layer F.SilkS) (width 0.12))
  (fp_line (start 1.57 0.88) (end 2.64 0.88) (layer F.SilkS) (width 0.12))
  (fp_line (start 2.64 0.88) (end 2.64 -0.88) (layer F.SilkS) (width 0.12))
  (fp_line (start 2.64 -0.88) (end 1.57 -0.88) (layer F.SilkS) (width 0.12))
  (fp_line (start -3.03 -1.68) (end -3.03 1.68) (layer F.CrtYd) (width 0.05))
  (fp_line (start -3.03 1.68) (end 3.03 1.68) (layer F.CrtYd) (width 0.05))
  (fp_line (start 3.03 1.68) (end 3.03 -1.68) (layer F.CrtYd) (width 0.05))
  (fp_line (start 3.03 -1.68) (end -3.03 -1.68) (layer F.CrtYd) (width 0.05))
  (pad 1 smd rect (at -1.2 -0.855) (size 0.22 0.66) (layers F.Cu F.Mask F.Paste))
  (pad 3 smd rect (at -0.8 -0.855) (size 0.22 0.66) (layers F.Cu F.Mask F.Paste))
  (pad 5 smd rect (at -0.4 -0.855) (size 0.22 0.66) (layers F.Cu F.Mask F.Paste))
  (pad 7 smd rect (at 0 -0.855) (size 0.22 0.66) (layers F.Cu F.Mask F.Paste))
  (pad 9 smd rect (at 0.4 -0.855) (size 0.22 0.66) (layers F.Cu F.Mask F.Paste))
  (pad 11 smd rect (at 0.8 -0.855) (size 0.22 0.66) (layers F.Cu F.Mask F.Paste))
  (pad 13 smd rect (at 1.2 -0.855) (size 0.22 0.66) (layers F.Cu F.Mask F.Paste))
  (pad 2 smd rect (at -1.2 0.855) (size 0.22 0.66) (layers F.Cu F.Mask F.Paste))
  (pad 4 smd rect (at -0.8 0.855) (size 0.22 0.66) (layers F.Cu F.Mask F.Paste))
  (pad 6 smd rect (at -0.4 0.855) (size 0.22 0.66) (layers F.Cu F.Mask F.Paste))
  (pad 8 smd rect (at 0 0.855) (size 0.22 0.66) (layers F.Cu F.Mask F.Paste))
  (pad 10 smd rect (at 0.4 0.855) (size 0.22 0.66) (layers F.Cu F.Mask F.Paste))
  (pad 12 smd rect (at 0.8 0.855) (size 0.22 0.66) (layers F.Cu F.Mask F.Paste))
  (pad 14 smd rect (at 1.2 0.855) (size 0.22 0.66) (layers F.Cu F.Mask F.Paste))
  (fp_text user %R (at 0 0) (layer F.Fab)
    (effects (font (size 1 1) (thickness 0.15)))
  )
  (model ${KIPRJMOD}/kicad_libs_k/models_k.3d/Connector_Molex_k.3dshapes/Molex_SlimStack_502430-1410_2x07_P0.40mm_Vertical_k.wrl
    (at (xyz 0 0 0))
    (scale (xyz 1 1 1))
    (rotate (xyz 0 0 0))
  )
)