(module Molex_Pico-Clasp_202396-0907_1x09-1MP_P1.00mm_Horizontal (layer F.Cu) (tedit 5AA46ED0)
  (descr "Molex Pico-Clasp series connector, 202396-0907 (http://www.molex.com/pdm_docs/sd/2023960207_sd.pdf), generated with kicad-footprint-generator")
  (tags "connector Molex Pico-Clasp top entry")
  (attr smd)
  (fp_text reference REF** (at 0 -3.98) (layer F.SilkS)
    (effects (font (size 1 1) (thickness 0.15)))
  )
  (fp_text value Molex_Pico-Clasp_202396-0907_1x09-1MP_P1.00mm_Horizontal (at 0 4.67) (layer F.Fab)
    (effects (font (size 1 1) (thickness 0.15)))
  )
  (fp_line (start -5.5 -1.875) (end 5.5 -1.875) (layer F.Fab) (width 0.1))
  (fp_line (start -5.61 0.715) (end -5.61 -1.985) (layer F.SilkS) (width 0.12))
  (fp_line (start -5.61 -1.985) (end -4.56 -1.985) (layer F.SilkS) (width 0.12))
  (fp_line (start -4.56 -1.985) (end -4.56 -2.775) (layer F.SilkS) (width 0.12))
  (fp_line (start 5.61 0.715) (end 5.61 -1.985) (layer F.SilkS) (width 0.12))
  (fp_line (start 5.61 -1.985) (end 4.56 -1.985) (layer F.SilkS) (width 0.12))
  (fp_line (start -5.61 3.035) (end -5.61 3.585) (layer F.SilkS) (width 0.12))
  (fp_line (start -5.61 3.585) (end 5.61 3.585) (layer F.SilkS) (width 0.12))
  (fp_line (start 5.61 3.585) (end 5.61 3.035) (layer F.SilkS) (width 0.12))
  (fp_line (start -5.5 3.475) (end 5.5 3.475) (layer F.Fab) (width 0.1))
  (fp_line (start -5.5 -1.875) (end -5.5 3.475) (layer F.Fab) (width 0.1))
  (fp_line (start 5.5 -1.875) (end 5.5 3.475) (layer F.Fab) (width 0.1))
  (fp_line (start -6.4 -3.28) (end -6.4 3.97) (layer F.CrtYd) (width 0.05))
  (fp_line (start -6.4 3.97) (end 6.4 3.97) (layer F.CrtYd) (width 0.05))
  (fp_line (start 6.4 3.97) (end 6.4 -3.28) (layer F.CrtYd) (width 0.05))
  (fp_line (start 6.4 -3.28) (end -6.4 -3.28) (layer F.CrtYd) (width 0.05))
  (fp_line (start -4.5 -1.875) (end -4 -1.167893) (layer F.Fab) (width 0.1))
  (fp_line (start -4 -1.167893) (end -3.5 -1.875) (layer F.Fab) (width 0.1))
  (pad 1 smd rect (at -4 -2.025) (size 0.6 1.5) (layers F.Cu F.Mask F.Paste))
  (pad 2 smd rect (at -3 -2.025) (size 0.6 1.5) (layers F.Cu F.Mask F.Paste))
  (pad 3 smd rect (at -2 -2.025) (size 0.6 1.5) (layers F.Cu F.Mask F.Paste))
  (pad 4 smd rect (at -1 -2.025) (size 0.6 1.5) (layers F.Cu F.Mask F.Paste))
  (pad 5 smd rect (at 0 -2.025) (size 0.6 1.5) (layers F.Cu F.Mask F.Paste))
  (pad 6 smd rect (at 1 -2.025) (size 0.6 1.5) (layers F.Cu F.Mask F.Paste))
  (pad 7 smd rect (at 2 -2.025) (size 0.6 1.5) (layers F.Cu F.Mask F.Paste))
  (pad 8 smd rect (at 3 -2.025) (size 0.6 1.5) (layers F.Cu F.Mask F.Paste))
  (pad 9 smd rect (at 4 -2.025) (size 0.6 1.5) (layers F.Cu F.Mask F.Paste))
  (pad MP smd rect (at -5.3 1.875) (size 1.2 1.8) (layers F.Cu F.Mask F.Paste))
  (pad MP smd rect (at 5.3 1.875) (size 1.2 1.8) (layers F.Cu F.Mask F.Paste))
  (fp_text user %R (at 0 2.77) (layer F.Fab)
    (effects (font (size 1 1) (thickness 0.15)))
  )
  (model ${KIPRJMOD}/kicad_libs_k/models_k.3d/Connector_Molex_k.3dshapes/Molex_Pico-Clasp_202396-0907_1x09-1MP_P1.00mm_Horizontal_k.wrl
    (at (xyz 0 0 0))
    (scale (xyz 1 1 1))
    (rotate (xyz 0 0 0))
  )
)