(module Molex_Micro-Latch_53254-1070_1x10_P2.00mm_Horizontal (layer F.Cu) (tedit 5A354782)
  (descr "Molex Micro-Latch Wire-to-Board Connector System, 53254-1070 (compatible alternatives: 53254-1050), 10 Pins per row (http://www.molex.com/pdm_docs/sd/532530770_sd.pdf), generated with kicad-footprint-generator")
  (tags "connector Molex Micro-Latch top entry")
  (fp_text reference REF** (at 9 -7.2) (layer F.SilkS)
    (effects (font (size 1 1) (thickness 0.15)))
  )
  (fp_text value Molex_Micro-Latch_53254-1070_1x10_P2.00mm_Horizontal (at 9 2.5) (layer F.Fab)
    (effects (font (size 1 1) (thickness 0.15)))
  )
  (fp_line (start -2 -6) (end -2 1.3) (layer F.Fab) (width 0.1))
  (fp_line (start -2 1.3) (end 20 1.3) (layer F.Fab) (width 0.1))
  (fp_line (start 20 1.3) (end 20 -6) (layer F.Fab) (width 0.1))
  (fp_line (start 20 -6) (end -2 -6) (layer F.Fab) (width 0.1))
  (fp_line (start -0.3 1) (end -0.5 1.41) (layer F.SilkS) (width 0.12))
  (fp_line (start -0.5 1.41) (end -1.51 1.41) (layer F.SilkS) (width 0.12))
  (fp_line (start -1.51 1.41) (end -2.01 0.5) (layer F.SilkS) (width 0.12))
  (fp_line (start -2.01 0.5) (end -2.01 0) (layer F.SilkS) (width 0.12))
  (fp_line (start -2.01 0) (end -2.11 0) (layer F.SilkS) (width 0.12))
  (fp_line (start -2.11 0) (end -2.11 -6.11) (layer F.SilkS) (width 0.12))
  (fp_line (start -2.11 -6.11) (end 9 -6.11) (layer F.SilkS) (width 0.12))
  (fp_line (start 18.3 1) (end 18.5 1.41) (layer F.SilkS) (width 0.12))
  (fp_line (start 18.5 1.41) (end 19.51 1.41) (layer F.SilkS) (width 0.12))
  (fp_line (start 19.51 1.41) (end 20.01 0.5) (layer F.SilkS) (width 0.12))
  (fp_line (start 20.01 0.5) (end 20.01 0) (layer F.SilkS) (width 0.12))
  (fp_line (start 20.01 0) (end 20.11 0) (layer F.SilkS) (width 0.12))
  (fp_line (start 20.11 0) (end 20.11 -6.11) (layer F.SilkS) (width 0.12))
  (fp_line (start 20.11 -6.11) (end 9 -6.11) (layer F.SilkS) (width 0.12))
  (fp_line (start -0.3 1) (end 0.3 1) (layer F.SilkS) (width 0.12))
  (fp_line (start 0.3 1) (end 0.5 1.41) (layer F.SilkS) (width 0.12))
  (fp_line (start 0.5 1.41) (end 1.5 1.41) (layer F.SilkS) (width 0.12))
  (fp_line (start 1.5 1.41) (end 1.7 1) (layer F.SilkS) (width 0.12))
  (fp_line (start 1.7 1) (end 2.3 1) (layer F.SilkS) (width 0.12))
  (fp_line (start 2.3 1) (end 2.5 1.41) (layer F.SilkS) (width 0.12))
  (fp_line (start 2.5 1.41) (end 3.5 1.41) (layer F.SilkS) (width 0.12))
  (fp_line (start 3.5 1.41) (end 3.7 1) (layer F.SilkS) (width 0.12))
  (fp_line (start 3.7 1) (end 4.3 1) (layer F.SilkS) (width 0.12))
  (fp_line (start 4.3 1) (end 4.5 1.41) (layer F.SilkS) (width 0.12))
  (fp_line (start 4.5 1.41) (end 5.5 1.41) (layer F.SilkS) (width 0.12))
  (fp_line (start 5.5 1.41) (end 5.7 1) (layer F.SilkS) (width 0.12))
  (fp_line (start 5.7 1) (end 6.3 1) (layer F.SilkS) (width 0.12))
  (fp_line (start 6.3 1) (end 6.5 1.41) (layer F.SilkS) (width 0.12))
  (fp_line (start 6.5 1.41) (end 7.5 1.41) (layer F.SilkS) (width 0.12))
  (fp_line (start 7.5 1.41) (end 7.7 1) (layer F.SilkS) (width 0.12))
  (fp_line (start 7.7 1) (end 8.3 1) (layer F.SilkS) (width 0.12))
  (fp_line (start 8.3 1) (end 8.5 1.41) (layer F.SilkS) (width 0.12))
  (fp_line (start 8.5 1.41) (end 9.5 1.41) (layer F.SilkS) (width 0.12))
  (fp_line (start 9.5 1.41) (end 9.7 1) (layer F.SilkS) (width 0.12))
  (fp_line (start 9.7 1) (end 10.3 1) (layer F.SilkS) (width 0.12))
  (fp_line (start 10.3 1) (end 10.5 1.41) (layer F.SilkS) (width 0.12))
  (fp_line (start 10.5 1.41) (end 11.5 1.41) (layer F.SilkS) (width 0.12))
  (fp_line (start 11.5 1.41) (end 11.7 1) (layer F.SilkS) (width 0.12))
  (fp_line (start 11.7 1) (end 12.3 1) (layer F.SilkS) (width 0.12))
  (fp_line (start 12.3 1) (end 12.5 1.41) (layer F.SilkS) (width 0.12))
  (fp_line (start 12.5 1.41) (end 13.5 1.41) (layer F.SilkS) (width 0.12))
  (fp_line (start 13.5 1.41) (end 13.7 1) (layer F.SilkS) (width 0.12))
  (fp_line (start 13.7 1) (end 14.3 1) (layer F.SilkS) (width 0.12))
  (fp_line (start 14.3 1) (end 14.5 1.41) (layer F.SilkS) (width 0.12))
  (fp_line (start 14.5 1.41) (end 15.5 1.41) (layer F.SilkS) (width 0.12))
  (fp_line (start 15.5 1.41) (end 15.7 1) (layer F.SilkS) (width 0.12))
  (fp_line (start 15.7 1) (end 16.3 1) (layer F.SilkS) (width 0.12))
  (fp_line (start 16.3 1) (end 16.5 1.41) (layer F.SilkS) (width 0.12))
  (fp_line (start 16.5 1.41) (end 17.5 1.41) (layer F.SilkS) (width 0.12))
  (fp_line (start 17.5 1.41) (end 17.7 1) (layer F.SilkS) (width 0.12))
  (fp_line (start 17.7 1) (end 18.3 1) (layer F.SilkS) (width 0.12))
  (fp_line (start -0.11 1.71) (end -2.41 1.71) (layer F.SilkS) (width 0.12))
  (fp_line (start -2.41 1.71) (end -2.41 -0.59) (layer F.SilkS) (width 0.12))
  (fp_line (start -0.5 1.3) (end 0 0.592893) (layer F.Fab) (width 0.1))
  (fp_line (start 0 0.592893) (end 0.5 1.3) (layer F.Fab) (width 0.1))
  (fp_line (start -1.66 -6.11) (end -1.66 -2.1) (layer F.SilkS) (width 0.12))
  (fp_line (start -1.66 -2.1) (end 19.66 -2.1) (layer F.SilkS) (width 0.12))
  (fp_line (start 19.66 -2.1) (end 19.66 -6.11) (layer F.SilkS) (width 0.12))
  (fp_line (start -0.25 -2.1) (end -0.25 -5.15) (layer F.SilkS) (width 0.12))
  (fp_line (start -0.25 -5.15) (end 0 -5.4) (layer F.SilkS) (width 0.12))
  (fp_line (start 0 -5.4) (end 0.25 -5.15) (layer F.SilkS) (width 0.12))
  (fp_line (start 0.25 -5.15) (end 0.25 -2.1) (layer F.SilkS) (width 0.12))
  (fp_line (start 1.75 -2.1) (end 1.75 -5.15) (layer F.SilkS) (width 0.12))
  (fp_line (start 1.75 -5.15) (end 2 -5.4) (layer F.SilkS) (width 0.12))
  (fp_line (start 2 -5.4) (end 2.25 -5.15) (layer F.SilkS) (width 0.12))
  (fp_line (start 2.25 -5.15) (end 2.25 -2.1) (layer F.SilkS) (width 0.12))
  (fp_line (start 3.75 -2.1) (end 3.75 -5.15) (layer F.SilkS) (width 0.12))
  (fp_line (start 3.75 -5.15) (end 4 -5.4) (layer F.SilkS) (width 0.12))
  (fp_line (start 4 -5.4) (end 4.25 -5.15) (layer F.SilkS) (width 0.12))
  (fp_line (start 4.25 -5.15) (end 4.25 -2.1) (layer F.SilkS) (width 0.12))
  (fp_line (start 5.75 -2.1) (end 5.75 -5.15) (layer F.SilkS) (width 0.12))
  (fp_line (start 5.75 -5.15) (end 6 -5.4) (layer F.SilkS) (width 0.12))
  (fp_line (start 6 -5.4) (end 6.25 -5.15) (layer F.SilkS) (width 0.12))
  (fp_line (start 6.25 -5.15) (end 6.25 -2.1) (layer F.SilkS) (width 0.12))
  (fp_line (start 7.75 -2.1) (end 7.75 -5.15) (layer F.SilkS) (width 0.12))
  (fp_line (start 7.75 -5.15) (end 8 -5.4) (layer F.SilkS) (width 0.12))
  (fp_line (start 8 -5.4) (end 8.25 -5.15) (layer F.SilkS) (width 0.12))
  (fp_line (start 8.25 -5.15) (end 8.25 -2.1) (layer F.SilkS) (width 0.12))
  (fp_line (start 9.75 -2.1) (end 9.75 -5.15) (layer F.SilkS) (width 0.12))
  (fp_line (start 9.75 -5.15) (end 10 -5.4) (layer F.SilkS) (width 0.12))
  (fp_line (start 10 -5.4) (end 10.25 -5.15) (layer F.SilkS) (width 0.12))
  (fp_line (start 10.25 -5.15) (end 10.25 -2.1) (layer F.SilkS) (width 0.12))
  (fp_line (start 11.75 -2.1) (end 11.75 -5.15) (layer F.SilkS) (width 0.12))
  (fp_line (start 11.75 -5.15) (end 12 -5.4) (layer F.SilkS) (width 0.12))
  (fp_line (start 12 -5.4) (end 12.25 -5.15) (layer F.SilkS) (width 0.12))
  (fp_line (start 12.25 -5.15) (end 12.25 -2.1) (layer F.SilkS) (width 0.12))
  (fp_line (start 13.75 -2.1) (end 13.75 -5.15) (layer F.SilkS) (width 0.12))
  (fp_line (start 13.75 -5.15) (end 14 -5.4) (layer F.SilkS) (width 0.12))
  (fp_line (start 14 -5.4) (end 14.25 -5.15) (layer F.SilkS) (width 0.12))
  (fp_line (start 14.25 -5.15) (end 14.25 -2.1) (layer F.SilkS) (width 0.12))
  (fp_line (start 15.75 -2.1) (end 15.75 -5.15) (layer F.SilkS) (width 0.12))
  (fp_line (start 15.75 -5.15) (end 16 -5.4) (layer F.SilkS) (width 0.12))
  (fp_line (start 16 -5.4) (end 16.25 -5.15) (layer F.SilkS) (width 0.12))
  (fp_line (start 16.25 -5.15) (end 16.25 -2.1) (layer F.SilkS) (width 0.12))
  (fp_line (start 17.75 -2.1) (end 17.75 -5.15) (layer F.SilkS) (width 0.12))
  (fp_line (start 17.75 -5.15) (end 18 -5.4) (layer F.SilkS) (width 0.12))
  (fp_line (start 18 -5.4) (end 18.25 -5.15) (layer F.SilkS) (width 0.12))
  (fp_line (start 18.25 -5.15) (end 18.25 -2.1) (layer F.SilkS) (width 0.12))
  (fp_line (start -2.5 -6.5) (end -2.5 1.8) (layer F.CrtYd) (width 0.05))
  (fp_line (start -2.5 1.8) (end 20.5 1.8) (layer F.CrtYd) (width 0.05))
  (fp_line (start 20.5 1.8) (end 20.5 -6.5) (layer F.CrtYd) (width 0.05))
  (fp_line (start 20.5 -6.5) (end -2.5 -6.5) (layer F.CrtYd) (width 0.05))
  (pad 1 thru_hole rect (at 0 0) (size 1.2 1.8) (drill 0.8) (layers *.Cu *.Mask))
  (pad 2 thru_hole oval (at 2 0) (size 1.2 1.8) (drill 0.8) (layers *.Cu *.Mask))
  (pad 3 thru_hole oval (at 4 0) (size 1.2 1.8) (drill 0.8) (layers *.Cu *.Mask))
  (pad 4 thru_hole oval (at 6 0) (size 1.2 1.8) (drill 0.8) (layers *.Cu *.Mask))
  (pad 5 thru_hole oval (at 8 0) (size 1.2 1.8) (drill 0.8) (layers *.Cu *.Mask))
  (pad 6 thru_hole oval (at 10 0) (size 1.2 1.8) (drill 0.8) (layers *.Cu *.Mask))
  (pad 7 thru_hole oval (at 12 0) (size 1.2 1.8) (drill 0.8) (layers *.Cu *.Mask))
  (pad 8 thru_hole oval (at 14 0) (size 1.2 1.8) (drill 0.8) (layers *.Cu *.Mask))
  (pad 9 thru_hole oval (at 16 0) (size 1.2 1.8) (drill 0.8) (layers *.Cu *.Mask))
  (pad 10 thru_hole oval (at 18 0) (size 1.2 1.8) (drill 0.8) (layers *.Cu *.Mask))
  (fp_text user %R (at 9 -5.3) (layer F.Fab)
    (effects (font (size 1 1) (thickness 0.15)))
  )
  (model ${KIPRJMOD}/kicad_libs_k/models_k.3d/Connector_Molex_k.3dshapes/Molex_Micro-Latch_53254-1070_1x10_P2.00mm_Horizontal_k.wrl
    (at (xyz 0 0 0))
    (scale (xyz 1 1 1))
    (rotate (xyz 0 0 0))
  )
)