(module Molex_Nano-Fit_105313-xx02_1x02_P2.50mm_Horizontal (layer F.Cu) (tedit 5A173285)
  (descr "Molex Nano-Fit Power Connectors, 105313-xx02, 2 Pins per row (http://www.molex.com/pdm_docs/sd/1053131208_sd.pdf), generated with kicad-footprint-generator")
  (tags "connector Molex Nano-Fit top entry")
  (fp_text reference REF** (at 6.15 -2.92) (layer F.SilkS)
    (effects (font (size 1 1) (thickness 0.15)))
  )
  (fp_text value Molex_Nano-Fit_105313-xx02_1x02_P2.50mm_Horizontal (at 6.15 5.42) (layer F.Fab)
    (effects (font (size 1 1) (thickness 0.15)))
  )
  (fp_line (start 1.92 -1.72) (end 1.92 4.22) (layer F.Fab) (width 0.1))
  (fp_line (start 1.92 4.22) (end 10.38 4.22) (layer F.Fab) (width 0.1))
  (fp_line (start 10.38 4.22) (end 10.38 -1.72) (layer F.Fab) (width 0.1))
  (fp_line (start 10.38 -1.72) (end 1.92 -1.72) (layer F.Fab) (width 0.1))
  (fp_line (start 1.81 -1.83) (end 1.81 4.33) (layer F.SilkS) (width 0.12))
  (fp_line (start 1.81 4.33) (end 10.49 4.33) (layer F.SilkS) (width 0.12))
  (fp_line (start 10.49 4.33) (end 10.49 -1.83) (layer F.SilkS) (width 0.12))
  (fp_line (start 10.49 -1.83) (end 1.81 -1.83) (layer F.SilkS) (width 0.12))
  (fp_line (start 1.81 0.15) (end 1.81 -0.15) (layer F.SilkS) (width 0.12))
  (fp_line (start 1.81 -0.15) (end 1.36 -0.15) (layer F.SilkS) (width 0.12))
  (fp_line (start 1.36 -0.15) (end 1.36 0.15) (layer F.SilkS) (width 0.12))
  (fp_line (start 1.36 0.15) (end 1.81 0.15) (layer F.SilkS) (width 0.12))
  (fp_line (start 1.81 2.65) (end 1.81 2.35) (layer F.SilkS) (width 0.12))
  (fp_line (start 1.81 2.35) (end 1.36 2.35) (layer F.SilkS) (width 0.12))
  (fp_line (start 1.36 2.35) (end 1.36 2.65) (layer F.SilkS) (width 0.12))
  (fp_line (start 1.36 2.65) (end 1.81 2.65) (layer F.SilkS) (width 0.12))
  (fp_line (start 0 -1.11) (end 0.3 -1.534264) (layer F.SilkS) (width 0.12))
  (fp_line (start 0.3 -1.534264) (end -0.3 -1.534264) (layer F.SilkS) (width 0.12))
  (fp_line (start -0.3 -1.534264) (end 0 -1.11) (layer F.SilkS) (width 0.12))
  (fp_line (start 0 -1.11) (end 0.3 -1.534264) (layer F.Fab) (width 0.1))
  (fp_line (start 0.3 -1.534264) (end -0.3 -1.534264) (layer F.Fab) (width 0.1))
  (fp_line (start -0.3 -1.534264) (end 0 -1.11) (layer F.Fab) (width 0.1))
  (fp_line (start -1.6 -2.22) (end -1.6 4.72) (layer F.CrtYd) (width 0.05))
  (fp_line (start -1.6 4.72) (end 10.88 4.72) (layer F.CrtYd) (width 0.05))
  (fp_line (start 10.88 4.72) (end 10.88 -2.22) (layer F.CrtYd) (width 0.05))
  (fp_line (start 10.88 -2.22) (end -1.6 -2.22) (layer F.CrtYd) (width 0.05))
  (pad 1 thru_hole rect (at 0 0) (size 2.2 1.7) (drill 1.2) (layers *.Cu *.Mask))
  (pad 2 thru_hole oval (at 0 2.5) (size 2.2 1.7) (drill 1.2) (layers *.Cu *.Mask))
  (pad "" np_thru_hole circle (at 7.18 0) (size 1.7 1.7) (drill 1.7) (layers *.Cu *.Mask))
  (pad "" np_thru_hole circle (at 7.18 2.5) (size 1.7 1.7) (drill 1.7) (layers *.Cu *.Mask))
  (fp_text user %R (at 6.15 3.52) (layer F.Fab)
    (effects (font (size 1 1) (thickness 0.15)))
  )
  (model ${KIPRJMOD}/kicad_libs_k/models_k.3d/Connector_Molex_k.3dshapes/Molex_Nano-Fit_105313-xx02_1x02_P2.50mm_Horizontal_k.wrl
    (at (xyz 0 0 0))
    (scale (xyz 1 1 1))
    (rotate (xyz 0 0 0))
  )
)