(module Molex_CLIK-Mate_502494-1470_1x14-1MP_P2.00mm_Horizontal (layer F.Cu) (tedit 5AA46ED0)
  (descr "Molex CLIK-Mate series connector, 502494-1470 (http://www.molex.com/pdm_docs/sd/5024940270_sd.pdf), generated with kicad-footprint-generator")
  (tags "connector Molex CLIK-Mate top entry")
  (attr smd)
  (fp_text reference REF** (at 0 -5.05) (layer F.SilkS)
    (effects (font (size 1 1) (thickness 0.15)))
  )
  (fp_text value Molex_CLIK-Mate_502494-1470_1x14-1MP_P2.00mm_Horizontal (at 0 6.35) (layer F.Fab)
    (effects (font (size 1 1) (thickness 0.15)))
  )
  (fp_line (start -16 -1.8) (end 16 -1.8) (layer F.Fab) (width 0.1))
  (fp_line (start -16.11 -0.21) (end -16.11 -1.91) (layer F.SilkS) (width 0.12))
  (fp_line (start -16.11 -1.91) (end -13.76 -1.91) (layer F.SilkS) (width 0.12))
  (fp_line (start -13.76 -1.91) (end -13.76 -3.85) (layer F.SilkS) (width 0.12))
  (fp_line (start 16.11 -0.21) (end 16.11 -1.91) (layer F.SilkS) (width 0.12))
  (fp_line (start 16.11 -1.91) (end 13.76 -1.91) (layer F.SilkS) (width 0.12))
  (fp_line (start -14.19 5.26) (end 14.19 5.26) (layer F.SilkS) (width 0.12))
  (fp_line (start -16 2.55) (end -15.67 2.55) (layer F.Fab) (width 0.1))
  (fp_line (start -15.67 2.55) (end -15.67 5.15) (layer F.Fab) (width 0.1))
  (fp_line (start -15.67 5.15) (end 15.67 5.15) (layer F.Fab) (width 0.1))
  (fp_line (start 15.67 5.15) (end 15.67 2.55) (layer F.Fab) (width 0.1))
  (fp_line (start 15.67 2.55) (end 16 2.55) (layer F.Fab) (width 0.1))
  (fp_line (start -16 -1.8) (end -16 2.55) (layer F.Fab) (width 0.1))
  (fp_line (start 16 -1.8) (end 16 2.55) (layer F.Fab) (width 0.1))
  (fp_line (start -16.75 -4.35) (end -16.75 5.65) (layer F.CrtYd) (width 0.05))
  (fp_line (start -16.75 5.65) (end 16.75 5.65) (layer F.CrtYd) (width 0.05))
  (fp_line (start 16.75 5.65) (end 16.75 -4.35) (layer F.CrtYd) (width 0.05))
  (fp_line (start 16.75 -4.35) (end -16.75 -4.35) (layer F.CrtYd) (width 0.05))
  (fp_line (start -13.5 -1.8) (end -13 -1.092893) (layer F.Fab) (width 0.1))
  (fp_line (start -13 -1.092893) (end -12.5 -1.8) (layer F.Fab) (width 0.1))
  (pad 1 smd rect (at -13 -2.5) (size 1 2.7) (layers F.Cu F.Mask F.Paste))
  (pad 2 smd rect (at -11 -2.5) (size 1 2.7) (layers F.Cu F.Mask F.Paste))
  (pad 3 smd rect (at -9 -2.5) (size 1 2.7) (layers F.Cu F.Mask F.Paste))
  (pad 4 smd rect (at -7 -2.5) (size 1 2.7) (layers F.Cu F.Mask F.Paste))
  (pad 5 smd rect (at -5 -2.5) (size 1 2.7) (layers F.Cu F.Mask F.Paste))
  (pad 6 smd rect (at -3 -2.5) (size 1 2.7) (layers F.Cu F.Mask F.Paste))
  (pad 7 smd rect (at -1 -2.5) (size 1 2.7) (layers F.Cu F.Mask F.Paste))
  (pad 8 smd rect (at 1 -2.5) (size 1 2.7) (layers F.Cu F.Mask F.Paste))
  (pad 9 smd rect (at 3 -2.5) (size 1 2.7) (layers F.Cu F.Mask F.Paste))
  (pad 10 smd rect (at 5 -2.5) (size 1 2.7) (layers F.Cu F.Mask F.Paste))
  (pad 11 smd rect (at 7 -2.5) (size 1 2.7) (layers F.Cu F.Mask F.Paste))
  (pad 12 smd rect (at 9 -2.5) (size 1 2.7) (layers F.Cu F.Mask F.Paste))
  (pad 13 smd rect (at 11 -2.5) (size 1 2.7) (layers F.Cu F.Mask F.Paste))
  (pad 14 smd rect (at 13 -2.5) (size 1 2.7) (layers F.Cu F.Mask F.Paste))
  (pad MP smd rect (at -15.35 1.95) (size 1.8 3.8) (layers F.Cu F.Mask F.Paste))
  (pad MP smd rect (at 15.35 1.95) (size 1.8 3.8) (layers F.Cu F.Mask F.Paste))
  (fp_text user %R (at 0 0.38) (layer F.Fab)
    (effects (font (size 1 1) (thickness 0.15)))
  )
  (model ${KIPRJMOD}/kicad_libs_k/models_k.3d/Connector_Molex_k.3dshapes/Molex_CLIK-Mate_502494-1470_1x14-1MP_P2.00mm_Horizontal_k.wrl
    (at (xyz 0 0 0))
    (scale (xyz 1 1 1))
    (rotate (xyz 0 0 0))
  )
)