(module Molex_Sabre_43160-1105_1x05_P7.49mm_Horizontal_ThermalVias (layer F.Cu) (tedit 5A189858)
  (descr "Molex Sabre Power Connector, 43160-1105, With thermal vias in pads, 5 Pins per row (http://www.molex.com/pdm_docs/sd/431605304_sd.pdf), generated with kicad-footprint-generator")
  (tags "connector Molex Sabre top entry")
  (fp_text reference REF** (at 14.98 -6.1) (layer F.SilkS)
    (effects (font (size 1 1) (thickness 0.15)))
  )
  (fp_text value Molex_Sabre_43160-1105_1x05_P7.49mm_Horizontal_ThermalVias (at 14.98 16.89) (layer F.Fab)
    (effects (font (size 1 1) (thickness 0.15)))
  )
  (fp_line (start -2.15 -5.155) (end -2.15 1.975) (layer B.SilkS) (width 0.12))
  (fp_line (start -2.15 1.975) (end 2.15 1.975) (layer B.SilkS) (width 0.12))
  (fp_line (start 2.15 1.975) (end 2.15 -5.155) (layer B.SilkS) (width 0.12))
  (fp_line (start 2.15 -5.155) (end -2.15 -5.155) (layer B.SilkS) (width 0.12))
  (fp_line (start -6.79 0.925) (end -6.79 15.685) (layer F.Fab) (width 0.1))
  (fp_line (start -6.79 15.685) (end 36.75 15.685) (layer F.Fab) (width 0.1))
  (fp_line (start 36.75 15.685) (end 36.75 0.925) (layer F.Fab) (width 0.1))
  (fp_line (start 36.75 0.925) (end -6.79 0.925) (layer F.Fab) (width 0.1))
  (fp_line (start -2.15 0.815) (end -6.9 0.815) (layer F.SilkS) (width 0.12))
  (fp_line (start -6.9 0.815) (end -6.9 11.13) (layer F.SilkS) (width 0.12))
  (fp_line (start 32.11 0.815) (end 36.86 0.815) (layer F.SilkS) (width 0.12))
  (fp_line (start 36.86 0.815) (end 36.86 11.13) (layer F.SilkS) (width 0.12))
  (fp_line (start -6.9 15.13) (end -6.9 15.795) (layer F.SilkS) (width 0.12))
  (fp_line (start -6.9 15.795) (end 14.98 15.795) (layer F.SilkS) (width 0.12))
  (fp_line (start 36.86 15.13) (end 36.86 15.795) (layer F.SilkS) (width 0.12))
  (fp_line (start 36.86 15.795) (end 14.98 15.795) (layer F.SilkS) (width 0.12))
  (fp_line (start 2.15 0.815) (end 5.34 0.815) (layer F.SilkS) (width 0.12))
  (fp_line (start 9.64 0.815) (end 12.83 0.815) (layer F.SilkS) (width 0.12))
  (fp_line (start 17.13 0.815) (end 20.32 0.815) (layer F.SilkS) (width 0.12))
  (fp_line (start 24.62 0.815) (end 27.81 0.815) (layer F.SilkS) (width 0.12))
  (fp_line (start -0.5 0.925) (end -0.5 -4.07) (layer F.Fab) (width 0.1))
  (fp_line (start -0.5 -4.07) (end 0.5 -4.07) (layer F.Fab) (width 0.1))
  (fp_line (start 0.5 -4.07) (end 0.5 0.925) (layer F.Fab) (width 0.1))
  (fp_line (start 0.5 0.925) (end -0.5 0.925) (layer F.Fab) (width 0.1))
  (fp_line (start 6.99 0.925) (end 6.99 -4.07) (layer F.Fab) (width 0.1))
  (fp_line (start 6.99 -4.07) (end 7.99 -4.07) (layer F.Fab) (width 0.1))
  (fp_line (start 7.99 -4.07) (end 7.99 0.925) (layer F.Fab) (width 0.1))
  (fp_line (start 7.99 0.925) (end 6.99 0.925) (layer F.Fab) (width 0.1))
  (fp_line (start 14.48 0.925) (end 14.48 -4.07) (layer F.Fab) (width 0.1))
  (fp_line (start 14.48 -4.07) (end 15.48 -4.07) (layer F.Fab) (width 0.1))
  (fp_line (start 15.48 -4.07) (end 15.48 0.925) (layer F.Fab) (width 0.1))
  (fp_line (start 15.48 0.925) (end 14.48 0.925) (layer F.Fab) (width 0.1))
  (fp_line (start 21.97 0.925) (end 21.97 -4.07) (layer F.Fab) (width 0.1))
  (fp_line (start 21.97 -4.07) (end 22.97 -4.07) (layer F.Fab) (width 0.1))
  (fp_line (start 22.97 -4.07) (end 22.97 0.925) (layer F.Fab) (width 0.1))
  (fp_line (start 22.97 0.925) (end 21.97 0.925) (layer F.Fab) (width 0.1))
  (fp_line (start 29.46 0.925) (end 29.46 -4.07) (layer F.Fab) (width 0.1))
  (fp_line (start 29.46 -4.07) (end 30.46 -4.07) (layer F.Fab) (width 0.1))
  (fp_line (start 30.46 -4.07) (end 30.46 0.925) (layer F.Fab) (width 0.1))
  (fp_line (start 30.46 0.925) (end 29.46 0.925) (layer F.Fab) (width 0.1))
  (fp_line (start -1.2 0.925) (end 0 2.622056) (layer F.Fab) (width 0.1))
  (fp_line (start 0 2.622056) (end 1.2 0.925) (layer F.Fab) (width 0.1))
  (fp_line (start -2.15 0.815) (end -2.15 -4.895) (layer F.SilkS) (width 0.12))
  (fp_line (start -7.29 -5.4) (end -7.29 16.19) (layer F.CrtYd) (width 0.05))
  (fp_line (start -7.29 16.19) (end 37.25 16.19) (layer F.CrtYd) (width 0.05))
  (fp_line (start 37.25 16.19) (end 37.25 -5.4) (layer F.CrtYd) (width 0.05))
  (fp_line (start 37.25 -5.4) (end -7.29 -5.4) (layer F.CrtYd) (width 0.05))
  (pad 1 thru_hole rect (at 0 0) (size 3.78 3.43) (drill 1.78) (layers *.Cu *.Mask))
  (pad 2 thru_hole rect (at 7.49 0) (size 3.78 3.43) (drill 1.78) (layers *.Cu *.Mask))
  (pad 3 thru_hole rect (at 14.98 0) (size 3.78 3.43) (drill 1.78) (layers *.Cu *.Mask))
  (pad 4 thru_hole rect (at 22.47 0) (size 3.78 3.43) (drill 1.78) (layers *.Cu *.Mask))
  (pad 5 thru_hole rect (at 29.96 0) (size 3.78 3.43) (drill 1.78) (layers *.Cu *.Mask))
  (pad 1 thru_hole rect (at 0 -3.18) (size 3.78 3.43) (drill 1.78) (layers *.Cu *.Mask))
  (pad 2 thru_hole rect (at 7.49 -3.18) (size 3.78 3.43) (drill 1.78) (layers *.Cu *.Mask))
  (pad 3 thru_hole rect (at 14.98 -3.18) (size 3.78 3.43) (drill 1.78) (layers *.Cu *.Mask))
  (pad 4 thru_hole rect (at 22.47 -3.18) (size 3.78 3.43) (drill 1.78) (layers *.Cu *.Mask))
  (pad 5 thru_hole rect (at 29.96 -3.18) (size 3.78 3.43) (drill 1.78) (layers *.Cu *.Mask))
  (pad 1 thru_hole rect (at 0 -4.445) (size 0.6 0.6) (drill 0.3) (layers *.Cu *.Mask))
  (pad 1 thru_hole rect (at 0 -1.59) (size 0.6 0.6) (drill 0.3) (layers *.Cu *.Mask))
  (pad 1 thru_hole rect (at 0 1.265) (size 0.6 0.6) (drill 0.3) (layers *.Cu *.Mask))
  (pad 1 thru_hole rect (at -1.44 -4.445) (size 0.6 0.6) (drill 0.3) (layers *.Cu *.Mask))
  (pad 1 thru_hole rect (at -1.44 -3.0175) (size 0.6 0.6) (drill 0.3) (layers *.Cu *.Mask))
  (pad 1 thru_hole rect (at -1.44 -1.59) (size 0.6 0.6) (drill 0.3) (layers *.Cu *.Mask))
  (pad 1 thru_hole rect (at -1.44 -0.1625) (size 0.6 0.6) (drill 0.3) (layers *.Cu *.Mask))
  (pad 1 thru_hole rect (at -1.44 1.265) (size 0.6 0.6) (drill 0.3) (layers *.Cu *.Mask))
  (pad 1 thru_hole rect (at 1.44 -4.445) (size 0.6 0.6) (drill 0.3) (layers *.Cu *.Mask))
  (pad 1 thru_hole rect (at 1.44 -3.0175) (size 0.6 0.6) (drill 0.3) (layers *.Cu *.Mask))
  (pad 1 thru_hole rect (at 1.44 -1.59) (size 0.6 0.6) (drill 0.3) (layers *.Cu *.Mask))
  (pad 1 thru_hole rect (at 1.44 -0.1625) (size 0.6 0.6) (drill 0.3) (layers *.Cu *.Mask))
  (pad 1 thru_hole rect (at 1.44 1.265) (size 0.6 0.6) (drill 0.3) (layers *.Cu *.Mask))
  (pad 2 thru_hole circle (at 7.49 -4.445) (size 0.6 0.6) (drill 0.3) (layers *.Cu *.Mask))
  (pad 2 thru_hole circle (at 7.49 -1.59) (size 0.6 0.6) (drill 0.3) (layers *.Cu *.Mask))
  (pad 2 thru_hole circle (at 7.49 1.265) (size 0.6 0.6) (drill 0.3) (layers *.Cu *.Mask))
  (pad 2 thru_hole circle (at 6.05 -4.445) (size 0.6 0.6) (drill 0.3) (layers *.Cu *.Mask))
  (pad 2 thru_hole circle (at 6.05 -3.0175) (size 0.6 0.6) (drill 0.3) (layers *.Cu *.Mask))
  (pad 2 thru_hole circle (at 6.05 -1.59) (size 0.6 0.6) (drill 0.3) (layers *.Cu *.Mask))
  (pad 2 thru_hole circle (at 6.05 -0.1625) (size 0.6 0.6) (drill 0.3) (layers *.Cu *.Mask))
  (pad 2 thru_hole circle (at 6.05 1.265) (size 0.6 0.6) (drill 0.3) (layers *.Cu *.Mask))
  (pad 2 thru_hole circle (at 8.93 -4.445) (size 0.6 0.6) (drill 0.3) (layers *.Cu *.Mask))
  (pad 2 thru_hole circle (at 8.93 -3.0175) (size 0.6 0.6) (drill 0.3) (layers *.Cu *.Mask))
  (pad 2 thru_hole circle (at 8.93 -1.59) (size 0.6 0.6) (drill 0.3) (layers *.Cu *.Mask))
  (pad 2 thru_hole circle (at 8.93 -0.1625) (size 0.6 0.6) (drill 0.3) (layers *.Cu *.Mask))
  (pad 2 thru_hole circle (at 8.93 1.265) (size 0.6 0.6) (drill 0.3) (layers *.Cu *.Mask))
  (pad 3 thru_hole circle (at 14.98 -4.445) (size 0.6 0.6) (drill 0.3) (layers *.Cu *.Mask))
  (pad 3 thru_hole circle (at 14.98 -1.59) (size 0.6 0.6) (drill 0.3) (layers *.Cu *.Mask))
  (pad 3 thru_hole circle (at 14.98 1.265) (size 0.6 0.6) (drill 0.3) (layers *.Cu *.Mask))
  (pad 3 thru_hole circle (at 13.54 -4.445) (size 0.6 0.6) (drill 0.3) (layers *.Cu *.Mask))
  (pad 3 thru_hole circle (at 13.54 -3.0175) (size 0.6 0.6) (drill 0.3) (layers *.Cu *.Mask))
  (pad 3 thru_hole circle (at 13.54 -1.59) (size 0.6 0.6) (drill 0.3) (layers *.Cu *.Mask))
  (pad 3 thru_hole circle (at 13.54 -0.1625) (size 0.6 0.6) (drill 0.3) (layers *.Cu *.Mask))
  (pad 3 thru_hole circle (at 13.54 1.265) (size 0.6 0.6) (drill 0.3) (layers *.Cu *.Mask))
  (pad 3 thru_hole circle (at 16.42 -4.445) (size 0.6 0.6) (drill 0.3) (layers *.Cu *.Mask))
  (pad 3 thru_hole circle (at 16.42 -3.0175) (size 0.6 0.6) (drill 0.3) (layers *.Cu *.Mask))
  (pad 3 thru_hole circle (at 16.42 -1.59) (size 0.6 0.6) (drill 0.3) (layers *.Cu *.Mask))
  (pad 3 thru_hole circle (at 16.42 -0.1625) (size 0.6 0.6) (drill 0.3) (layers *.Cu *.Mask))
  (pad 3 thru_hole circle (at 16.42 1.265) (size 0.6 0.6) (drill 0.3) (layers *.Cu *.Mask))
  (pad 4 thru_hole circle (at 22.47 -4.445) (size 0.6 0.6) (drill 0.3) (layers *.Cu *.Mask))
  (pad 4 thru_hole circle (at 22.47 -1.59) (size 0.6 0.6) (drill 0.3) (layers *.Cu *.Mask))
  (pad 4 thru_hole circle (at 22.47 1.265) (size 0.6 0.6) (drill 0.3) (layers *.Cu *.Mask))
  (pad 4 thru_hole circle (at 21.03 -4.445) (size 0.6 0.6) (drill 0.3) (layers *.Cu *.Mask))
  (pad 4 thru_hole circle (at 21.03 -3.0175) (size 0.6 0.6) (drill 0.3) (layers *.Cu *.Mask))
  (pad 4 thru_hole circle (at 21.03 -1.59) (size 0.6 0.6) (drill 0.3) (layers *.Cu *.Mask))
  (pad 4 thru_hole circle (at 21.03 -0.1625) (size 0.6 0.6) (drill 0.3) (layers *.Cu *.Mask))
  (pad 4 thru_hole circle (at 21.03 1.265) (size 0.6 0.6) (drill 0.3) (layers *.Cu *.Mask))
  (pad 4 thru_hole circle (at 23.91 -4.445) (size 0.6 0.6) (drill 0.3) (layers *.Cu *.Mask))
  (pad 4 thru_hole circle (at 23.91 -3.0175) (size 0.6 0.6) (drill 0.3) (layers *.Cu *.Mask))
  (pad 4 thru_hole circle (at 23.91 -1.59) (size 0.6 0.6) (drill 0.3) (layers *.Cu *.Mask))
  (pad 4 thru_hole circle (at 23.91 -0.1625) (size 0.6 0.6) (drill 0.3) (layers *.Cu *.Mask))
  (pad 4 thru_hole circle (at 23.91 1.265) (size 0.6 0.6) (drill 0.3) (layers *.Cu *.Mask))
  (pad 5 thru_hole circle (at 29.96 -4.445) (size 0.6 0.6) (drill 0.3) (layers *.Cu *.Mask))
  (pad 5 thru_hole circle (at 29.96 -1.59) (size 0.6 0.6) (drill 0.3) (layers *.Cu *.Mask))
  (pad 5 thru_hole circle (at 29.96 1.265) (size 0.6 0.6) (drill 0.3) (layers *.Cu *.Mask))
  (pad 5 thru_hole circle (at 28.52 -4.445) (size 0.6 0.6) (drill 0.3) (layers *.Cu *.Mask))
  (pad 5 thru_hole circle (at 28.52 -3.0175) (size 0.6 0.6) (drill 0.3) (layers *.Cu *.Mask))
  (pad 5 thru_hole circle (at 28.52 -1.59) (size 0.6 0.6) (drill 0.3) (layers *.Cu *.Mask))
  (pad 5 thru_hole circle (at 28.52 -0.1625) (size 0.6 0.6) (drill 0.3) (layers *.Cu *.Mask))
  (pad 5 thru_hole circle (at 28.52 1.265) (size 0.6 0.6) (drill 0.3) (layers *.Cu *.Mask))
  (pad 5 thru_hole circle (at 31.4 -4.445) (size 0.6 0.6) (drill 0.3) (layers *.Cu *.Mask))
  (pad 5 thru_hole circle (at 31.4 -3.0175) (size 0.6 0.6) (drill 0.3) (layers *.Cu *.Mask))
  (pad 5 thru_hole circle (at 31.4 -1.59) (size 0.6 0.6) (drill 0.3) (layers *.Cu *.Mask))
  (pad 5 thru_hole circle (at 31.4 -0.1625) (size 0.6 0.6) (drill 0.3) (layers *.Cu *.Mask))
  (pad 5 thru_hole circle (at 31.4 1.265) (size 0.6 0.6) (drill 0.3) (layers *.Cu *.Mask))
  (pad "" thru_hole circle (at -4.75 13.13) (size 4 4) (drill 3) (layers *.Cu *.Mask))
  (pad "" thru_hole circle (at 34.71 13.13) (size 4 4) (drill 3) (layers *.Cu *.Mask))
  (fp_text user %R (at 14.98 14.98) (layer F.Fab)
    (effects (font (size 1 1) (thickness 0.15)))
  )
  (model ${KIPRJMOD}/kicad_libs_k/models_k.3d/Connector_Molex_k.3dshapes/Molex_Sabre_43160-1105_1x05_P7.49mm_Horizontal_ThermalVias_k.wrl
    (at (xyz 0 0 0))
    (scale (xyz 1 1 1))
    (rotate (xyz 0 0 0))
  )
)