(module Molex_Micro-Fit_3.0_43045-0615_2x03_P3.00mm_Vertical (layer F.Cu) (tedit 5AA47B22)
  (descr "Molex Micro-Fit 3.0 Connector System, 43045-0615 (compatible alternatives: 43045-0616, 43045-0617), 3 Pins per row (http://www.molex.com/pdm_docs/sd/430450217_sd.pdf), generated with kicad-footprint-generator")
  (tags "connector Molex Micro-Fit_3.0 side entry")
  (attr smd)
  (fp_text reference REF** (at 0 -7.17) (layer F.SilkS)
    (effects (font (size 1 1) (thickness 0.15)))
  )
  (fp_text value Molex_Micro-Fit_3.0_43045-0615_2x03_P3.00mm_Vertical (at 0 7.17) (layer F.Fab)
    (effects (font (size 1 1) (thickness 0.15)))
  )
  (fp_line (start -5.125 -3.44) (end -5.125 -3.94) (layer F.Fab) (width 0.1))
  (fp_line (start -5.125 -3.94) (end -6.325 -3.94) (layer F.Fab) (width 0.1))
  (fp_line (start -6.325 -3.94) (end -6.325 3.43) (layer F.Fab) (width 0.1))
  (fp_line (start -6.325 3.43) (end 6.325 3.43) (layer F.Fab) (width 0.1))
  (fp_line (start 6.325 3.43) (end 6.325 -3.94) (layer F.Fab) (width 0.1))
  (fp_line (start 6.325 -3.94) (end 5.125 -3.94) (layer F.Fab) (width 0.1))
  (fp_line (start 5.125 -3.94) (end 5.125 -3.44) (layer F.Fab) (width 0.1))
  (fp_line (start 5.125 -3.44) (end -5.125 -3.44) (layer F.Fab) (width 0.1))
  (fp_line (start -6.325 -2.81) (end -5.125 -3.44) (layer F.Fab) (width 0.1))
  (fp_line (start 6.325 -2.81) (end 5.125 -3.44) (layer F.Fab) (width 0.1))
  (fp_line (start -0.7 3.43) (end -0.7 4.83) (layer F.Fab) (width 0.1))
  (fp_line (start -0.7 4.83) (end 0.7 4.83) (layer F.Fab) (width 0.1))
  (fp_line (start 0.7 4.83) (end 0.7 3.43) (layer F.Fab) (width 0.1))
  (fp_line (start -3.5 -3.44) (end -3 -2.732893) (layer F.Fab) (width 0.1))
  (fp_line (start -3 -2.732893) (end -2.5 -3.44) (layer F.Fab) (width 0.1))
  (fp_line (start -6.435 1.085) (end -6.435 3.54) (layer F.SilkS) (width 0.12))
  (fp_line (start -6.435 3.54) (end -3.895 3.54) (layer F.SilkS) (width 0.12))
  (fp_line (start 6.435 1.085) (end 6.435 3.54) (layer F.SilkS) (width 0.12))
  (fp_line (start 6.435 3.54) (end 3.895 3.54) (layer F.SilkS) (width 0.12))
  (fp_line (start -6.435 -1.085) (end -6.435 -4.05) (layer F.SilkS) (width 0.12))
  (fp_line (start -6.435 -4.05) (end -5.015 -4.05) (layer F.SilkS) (width 0.12))
  (fp_line (start -5.015 -4.05) (end -5.015 -3.55) (layer F.SilkS) (width 0.12))
  (fp_line (start -5.015 -3.55) (end -3.895 -3.55) (layer F.SilkS) (width 0.12))
  (fp_line (start -3.895 -3.55) (end -3.895 -5.97) (layer F.SilkS) (width 0.12))
  (fp_line (start 6.435 -1.085) (end 6.435 -4.05) (layer F.SilkS) (width 0.12))
  (fp_line (start 6.435 -4.05) (end 5.015 -4.05) (layer F.SilkS) (width 0.12))
  (fp_line (start 5.015 -4.05) (end 5.015 -3.55) (layer F.SilkS) (width 0.12))
  (fp_line (start 5.015 -3.55) (end 3.895 -3.55) (layer F.SilkS) (width 0.12))
  (fp_line (start 0 -6.47) (end -4.13 -6.47) (layer F.CrtYd) (width 0.05))
  (fp_line (start -4.13 -6.47) (end -4.13 -4.44) (layer F.CrtYd) (width 0.05))
  (fp_line (start -4.13 -4.44) (end -6.82 -4.44) (layer F.CrtYd) (width 0.05))
  (fp_line (start -6.82 -4.44) (end -6.82 3.93) (layer F.CrtYd) (width 0.05))
  (fp_line (start -6.82 3.93) (end -4.13 3.93) (layer F.CrtYd) (width 0.05))
  (fp_line (start -4.13 3.93) (end -4.13 6.47) (layer F.CrtYd) (width 0.05))
  (fp_line (start -4.13 6.47) (end 0 6.47) (layer F.CrtYd) (width 0.05))
  (fp_line (start 0 -6.47) (end 4.13 -6.47) (layer F.CrtYd) (width 0.05))
  (fp_line (start 4.13 -6.47) (end 4.13 -4.44) (layer F.CrtYd) (width 0.05))
  (fp_line (start 4.13 -4.44) (end 6.82 -4.44) (layer F.CrtYd) (width 0.05))
  (fp_line (start 6.82 -4.44) (end 6.82 3.93) (layer F.CrtYd) (width 0.05))
  (fp_line (start 6.82 3.93) (end 4.13 3.93) (layer F.CrtYd) (width 0.05))
  (fp_line (start 4.13 3.93) (end 4.13 6.47) (layer F.CrtYd) (width 0.05))
  (fp_line (start 4.13 6.47) (end 0 6.47) (layer F.CrtYd) (width 0.05))
  (pad "" np_thru_hole circle (at -5.15 0) (size 2.41 2.41) (drill 2.41) (layers *.Cu *.Mask))
  (pad "" np_thru_hole circle (at 5.15 0) (size 2.41 2.41) (drill 2.41) (layers *.Cu *.Mask))
  (pad 1 smd rect (at -3 -4.7) (size 1.27 2.54) (layers F.Cu F.Mask F.Paste))
  (pad 2 smd rect (at 0 -4.7) (size 1.27 2.54) (layers F.Cu F.Mask F.Paste))
  (pad 3 smd rect (at 3 -4.7) (size 1.27 2.54) (layers F.Cu F.Mask F.Paste))
  (pad 4 smd rect (at -3 4.7) (size 1.27 2.54) (layers F.Cu F.Mask F.Paste))
  (pad 5 smd rect (at 0 4.7) (size 1.27 2.54) (layers F.Cu F.Mask F.Paste))
  (pad 6 smd rect (at 3 4.7) (size 1.27 2.54) (layers F.Cu F.Mask F.Paste))
  (fp_text user %R (at 0 2.73) (layer F.Fab)
    (effects (font (size 1 1) (thickness 0.15)))
  )
  (model ${KIPRJMOD}/kicad_libs_k/models_k.3d/Connector_Molex_k.3dshapes/Molex_Micro-Fit_3.0_43045-0615_2x03_P3.00mm_Vertical_k.wrl
    (at (xyz 0 0 0))
    (scale (xyz 1 1 1))
    (rotate (xyz 0 0 0))
  )
)