(module Molex_Picoflex_90814-0014_2x07_P1.27mm_Vertical (layer F.Cu) (tedit 5A17697C)
  (descr "Molex Picoflex Ribbon-Cable Connectors, 90814-0014, 14 Pins (http://www.molex.com/pdm_docs/sd/908140004_sd.pdf), generated with kicad-footprint-generator")
  (tags "connector Molex Picoflex side entry")
  (attr smd)
  (fp_text reference REF** (at 0 -12.51) (layer F.SilkS)
    (effects (font (size 1 1) (thickness 0.15)))
  )
  (fp_text value Molex_Picoflex_90814-0014_2x07_P1.27mm_Vertical (at 0 12.51) (layer F.Fab)
    (effects (font (size 1 1) (thickness 0.15)))
  )
  (fp_arc (start -1.9 10.18) (end -0.95 10.78) (angle 230.000000) (layer F.Fab) (width 0.1))
  (fp_arc (start -1.9 -10.18) (end -2.05 -9.06) (angle 230.000000) (layer F.Fab) (width 0.1))
  (fp_arc (start -1.9 10.18) (end -0.85 10.91) (angle 222.800000) (layer F.SilkS) (width 0.12))
  (fp_arc (start -1.9 -10.18) (end -2.81 -9.28) (angle 191.000000) (layer F.SilkS) (width 0.12))
  (fp_line (start 2.05 -10.78) (end 2.05 10.78) (layer F.Fab) (width 0.1))
  (fp_line (start 2.05 10.78) (end -0.95 10.78) (layer F.Fab) (width 0.1))
  (fp_line (start -2.05 9.06) (end -2.05 -7.66) (layer F.Fab) (width 0.1))
  (fp_line (start -2.05 -7.66) (end -1.45 -8.26) (layer F.Fab) (width 0.1))
  (fp_line (start -1.45 -8.26) (end -2.05 -8.86) (layer F.Fab) (width 0.1))
  (fp_line (start -2.05 -8.86) (end -2.05 -9.06) (layer F.Fab) (width 0.1))
  (fp_line (start 2.05 -10.78) (end -0.93 -10.78) (layer F.Fab) (width 0.1))
  (fp_line (start 2.18 -10.91) (end 2.18 -7.89) (layer F.SilkS) (width 0.12))
  (fp_line (start 2.18 -5.99) (end 2.18 -5.45) (layer F.SilkS) (width 0.12))
  (fp_line (start 2.18 -3.39) (end 2.18 -2.97) (layer F.SilkS) (width 0.12))
  (fp_line (start 2.18 -0.85) (end 2.18 -0.43) (layer F.SilkS) (width 0.12))
  (fp_line (start 2.18 1.69) (end 2.18 2.11) (layer F.SilkS) (width 0.12))
  (fp_line (start 2.18 4.23) (end 2.18 4.66) (layer F.SilkS) (width 0.12))
  (fp_line (start 2.18 6.77) (end 2.18 7.2) (layer F.SilkS) (width 0.12))
  (fp_line (start 2.18 9.16) (end 2.18 10.91) (layer F.SilkS) (width 0.12))
  (fp_line (start 2.18 10.91) (end -0.85 10.91) (layer F.SilkS) (width 0.12))
  (fp_line (start -2.18 8.93) (end -2.18 7.89) (layer F.SilkS) (width 0.12))
  (fp_line (start -2.18 5.99) (end -2.18 5.45) (layer F.SilkS) (width 0.12))
  (fp_line (start -2.18 3.51) (end -2.18 2.85) (layer F.SilkS) (width 0.12))
  (fp_line (start -2.18 0.97) (end -2.18 0.31) (layer F.SilkS) (width 0.12))
  (fp_line (start -2.18 -1.57) (end -2.18 -2.23) (layer F.SilkS) (width 0.12))
  (fp_line (start -2.18 -4.11) (end -2.18 -4.77) (layer F.SilkS) (width 0.12))
  (fp_line (start -2.18 -6.65) (end -2.18 -7.31) (layer F.SilkS) (width 0.12))
  (fp_line (start -2.81 -9.28) (end -2.81 -9.16) (layer F.SilkS) (width 0.12))
  (fp_line (start -2.81 -9.16) (end -4 -9.16) (layer F.SilkS) (width 0.12))
  (fp_line (start 2.18 -10.91) (end -0.82 -10.91) (layer F.SilkS) (width 0.12))
  (fp_line (start -3.95 -10.78) (end -3.95 10.78) (layer Dwgs.User) (width 0.1))
  (fp_line (start -3.95 10.78) (end 3.95 10.78) (layer Dwgs.User) (width 0.1))
  (fp_line (start 3.95 10.78) (end 3.95 -10.78) (layer Dwgs.User) (width 0.1))
  (fp_line (start 3.95 -10.78) (end -3.95 -10.78) (layer Dwgs.User) (width 0.1))
  (fp_line (start -3.95 -8.24) (end -1.41 -10.78) (layer Dwgs.User) (width 0.1))
  (fp_line (start -3.95 -5.7) (end 1.13 -10.78) (layer Dwgs.User) (width 0.1))
  (fp_line (start -3.95 -3.16) (end 3.67 -10.78) (layer Dwgs.User) (width 0.1))
  (fp_line (start -3.95 -0.62) (end 3.95 -8.52) (layer Dwgs.User) (width 0.1))
  (fp_line (start -3.95 1.92) (end 3.95 -5.98) (layer Dwgs.User) (width 0.1))
  (fp_line (start -3.95 4.46) (end 3.95 -3.44) (layer Dwgs.User) (width 0.1))
  (fp_line (start -3.95 7) (end 3.95 -0.9) (layer Dwgs.User) (width 0.1))
  (fp_line (start -3.95 9.54) (end 3.95 1.64) (layer Dwgs.User) (width 0.1))
  (fp_line (start -2.65 10.78) (end 3.95 4.18) (layer Dwgs.User) (width 0.1))
  (fp_line (start -0.11 10.78) (end 3.95 6.72) (layer Dwgs.User) (width 0.1))
  (fp_line (start 2.43 10.78) (end 3.95 9.26) (layer Dwgs.User) (width 0.1))
  (fp_line (start -4.5 -11.81) (end -4.5 11.81) (layer F.CrtYd) (width 0.05))
  (fp_line (start -4.5 11.81) (end 4.5 11.81) (layer F.CrtYd) (width 0.05))
  (fp_line (start 4.5 11.81) (end 4.5 -11.81) (layer F.CrtYd) (width 0.05))
  (fp_line (start 4.5 -11.81) (end -4.5 -11.81) (layer F.CrtYd) (width 0.05))
  (pad 1 smd rect (at -3 -8.26) (size 2 1.2) (layers F.Cu F.Mask F.Paste))
  (pad 3 smd rect (at -3 -5.72) (size 2 1.2) (layers F.Cu F.Mask F.Paste))
  (pad 5 smd rect (at -3 -3.18) (size 2 1.2) (layers F.Cu F.Mask F.Paste))
  (pad 7 smd rect (at -3 -0.64) (size 2 1.2) (layers F.Cu F.Mask F.Paste))
  (pad 9 smd rect (at -3 1.9) (size 2 1.2) (layers F.Cu F.Mask F.Paste))
  (pad 11 smd rect (at -3 4.44) (size 2 1.2) (layers F.Cu F.Mask F.Paste))
  (pad 13 smd rect (at -3 6.98) (size 2 1.2) (layers F.Cu F.Mask F.Paste))
  (pad 2 smd rect (at 3 -6.99) (size 2 1.2) (layers F.Cu F.Mask F.Paste))
  (pad 4 smd rect (at 3 -4.45) (size 2 1.2) (layers F.Cu F.Mask F.Paste))
  (pad 6 smd rect (at 3 -1.91) (size 2 1.2) (layers F.Cu F.Mask F.Paste))
  (pad 8 smd rect (at 3 0.63) (size 2 1.2) (layers F.Cu F.Mask F.Paste))
  (pad 10 smd rect (at 3 3.17) (size 2 1.2) (layers F.Cu F.Mask F.Paste))
  (pad 12 smd rect (at 3 5.71) (size 2 1.2) (layers F.Cu F.Mask F.Paste))
  (pad 14 smd rect (at 3 8.25) (size 2 1.2) (layers F.Cu F.Mask F.Paste))
  (pad "" np_thru_hole circle (at -1.9 -10.18) (size 1.9 1.9) (drill 1.9) (layers *.Cu *.Mask))
  (pad "" np_thru_hole circle (at -1.9 10.18) (size 1.9 1.9) (drill 1.9) (layers *.Cu *.Mask))
  (fp_text user KEEPOUT (at 0 0 90) (layer Cmts.User)
    (effects (font (size 1 1) (thickness 0.15)))
  )
  (fp_text user %R (at -1.35 0 90) (layer F.Fab)
    (effects (font (size 1 1) (thickness 0.15)))
  )
  (model ${KIPRJMOD}/kicad_libs_k/models_k.3d/Connector_Molex_k.3dshapes/Molex_Picoflex_90814-0014_2x07_P1.27mm_Vertical_k.wrl
    (at (xyz 0 0 0))
    (scale (xyz 1 1 1))
    (rotate (xyz 0 0 0))
  )
)