(module Molex_Micro-Latch_53253-0670_1x06_P2.00mm_Vertical (layer F.Cu) (tedit 5A354770)
  (descr "Molex Micro-Latch Wire-to-Board Connector System, 53253-0670 (compatible alternatives: 53253-0650), 6 Pins per row (http://www.molex.com/pdm_docs/sd/532530770_sd.pdf), generated with kicad-footprint-generator")
  (tags "connector Molex Micro-Latch side entry")
  (fp_text reference REF** (at 5 -2.7) (layer F.SilkS)
    (effects (font (size 1 1) (thickness 0.15)))
  )
  (fp_text value Molex_Micro-Latch_53253-0670_1x06_P2.00mm_Vertical (at 5 3.35) (layer F.Fab)
    (effects (font (size 1 1) (thickness 0.15)))
  )
  (fp_line (start -2 -1.5) (end -2 2.15) (layer F.Fab) (width 0.1))
  (fp_line (start -2 2.15) (end 12 2.15) (layer F.Fab) (width 0.1))
  (fp_line (start 12 2.15) (end 12 -1.5) (layer F.Fab) (width 0.1))
  (fp_line (start 12 -1.5) (end -2 -1.5) (layer F.Fab) (width 0.1))
  (fp_line (start -2.11 -1.61) (end -2.11 2.26) (layer F.SilkS) (width 0.12))
  (fp_line (start -2.11 2.26) (end 12.11 2.26) (layer F.SilkS) (width 0.12))
  (fp_line (start 12.11 2.26) (end 12.11 -1.61) (layer F.SilkS) (width 0.12))
  (fp_line (start 12.11 -1.61) (end -2.11 -1.61) (layer F.SilkS) (width 0.12))
  (fp_line (start -0.11 -1.91) (end -2.41 -1.91) (layer F.SilkS) (width 0.12))
  (fp_line (start -2.41 -1.91) (end -2.41 0.39) (layer F.SilkS) (width 0.12))
  (fp_line (start -0.5 -1.5) (end 0 -0.792893) (layer F.Fab) (width 0.1))
  (fp_line (start 0 -0.792893) (end 0.5 -1.5) (layer F.Fab) (width 0.1))
  (fp_line (start -2.11 0.8) (end -1.71 0.8) (layer F.SilkS) (width 0.12))
  (fp_line (start 12.11 0.8) (end 11.71 0.8) (layer F.SilkS) (width 0.12))
  (fp_line (start 5 -1.21) (end -1.71 -1.21) (layer F.SilkS) (width 0.12))
  (fp_line (start -1.71 -1.21) (end -1.71 0) (layer F.SilkS) (width 0.12))
  (fp_line (start -1.71 0) (end -1.31 0) (layer F.SilkS) (width 0.12))
  (fp_line (start -1.31 0) (end -1.31 0.4) (layer F.SilkS) (width 0.12))
  (fp_line (start -1.31 0.4) (end -1.71 0.4) (layer F.SilkS) (width 0.12))
  (fp_line (start -1.71 0.4) (end -1.71 2.26) (layer F.SilkS) (width 0.12))
  (fp_line (start 5 -1.21) (end 11.71 -1.21) (layer F.SilkS) (width 0.12))
  (fp_line (start 11.71 -1.21) (end 11.71 0) (layer F.SilkS) (width 0.12))
  (fp_line (start 11.71 0) (end 11.31 0) (layer F.SilkS) (width 0.12))
  (fp_line (start 11.31 0) (end 11.31 0.4) (layer F.SilkS) (width 0.12))
  (fp_line (start 11.31 0.4) (end 11.71 0.4) (layer F.SilkS) (width 0.12))
  (fp_line (start 11.71 0.4) (end 11.71 2.26) (layer F.SilkS) (width 0.12))
  (fp_line (start -2.5 -2) (end -2.5 2.65) (layer F.CrtYd) (width 0.05))
  (fp_line (start -2.5 2.65) (end 12.5 2.65) (layer F.CrtYd) (width 0.05))
  (fp_line (start 12.5 2.65) (end 12.5 -2) (layer F.CrtYd) (width 0.05))
  (fp_line (start 12.5 -2) (end -2.5 -2) (layer F.CrtYd) (width 0.05))
  (pad 1 thru_hole rect (at 0 0) (size 1.2 1.8) (drill 0.8) (layers *.Cu *.Mask))
  (pad 2 thru_hole oval (at 2 0) (size 1.2 1.8) (drill 0.8) (layers *.Cu *.Mask))
  (pad 3 thru_hole oval (at 4 0) (size 1.2 1.8) (drill 0.8) (layers *.Cu *.Mask))
  (pad 4 thru_hole oval (at 6 0) (size 1.2 1.8) (drill 0.8) (layers *.Cu *.Mask))
  (pad 5 thru_hole oval (at 8 0) (size 1.2 1.8) (drill 0.8) (layers *.Cu *.Mask))
  (pad 6 thru_hole oval (at 10 0) (size 1.2 1.8) (drill 0.8) (layers *.Cu *.Mask))
  (fp_text user %R (at 5 1.45) (layer F.Fab)
    (effects (font (size 1 1) (thickness 0.15)))
  )
  (model ${KIPRJMOD}/kicad_libs_k/models_k.3d/Connector_Molex_k.3dshapes/Molex_Micro-Latch_53253-0670_1x06_P2.00mm_Vertical_k.wrl
    (at (xyz 0 0 0))
    (scale (xyz 1 1 1))
    (rotate (xyz 0 0 0))
  )
)