(module Molex_SPOX_5267-11A_1x11_P2.50mm_Vertical (layer F.Cu) (tedit 5A187FE2)
  (descr "Molex SPOX Connector System, 5267-11A, 11 Pins per row (http://www.molex.com/pdm_docs/sd/022035035_sd.pdf), generated with kicad-footprint-generator")
  (tags "connector Molex SPOX side entry")
  (fp_text reference REF** (at 12.5 -4.3) (layer F.SilkS)
    (effects (font (size 1 1) (thickness 0.15)))
  )
  (fp_text value Molex_SPOX_5267-11A_1x11_P2.50mm_Vertical (at 12.5 3) (layer F.Fab)
    (effects (font (size 1 1) (thickness 0.15)))
  )
  (fp_line (start -2.45 -3.1) (end -2.45 1.8) (layer F.Fab) (width 0.1))
  (fp_line (start -2.45 1.8) (end 26.45 1.8) (layer F.Fab) (width 0.1))
  (fp_line (start 26.45 1.8) (end 27.45 0.8) (layer F.Fab) (width 0.1))
  (fp_line (start 27.45 0.8) (end 27.45 -3.1) (layer F.Fab) (width 0.1))
  (fp_line (start 27.45 -3.1) (end -2.45 -3.1) (layer F.Fab) (width 0.1))
  (fp_line (start -2.56 -3.21) (end -2.56 1.91) (layer F.SilkS) (width 0.12))
  (fp_line (start -2.56 1.91) (end 26.56 1.91) (layer F.SilkS) (width 0.12))
  (fp_line (start 26.56 1.91) (end 27.56 0.91) (layer F.SilkS) (width 0.12))
  (fp_line (start 27.56 0.91) (end 27.56 -3.21) (layer F.SilkS) (width 0.12))
  (fp_line (start 27.56 -3.21) (end -2.56 -3.21) (layer F.SilkS) (width 0.12))
  (fp_line (start -2.86 -0.2) (end -2.86 2.21) (layer F.SilkS) (width 0.12))
  (fp_line (start -2.86 2.21) (end -0.45 2.21) (layer F.SilkS) (width 0.12))
  (fp_line (start -0.5 1.8) (end 0 1.092893) (layer F.Fab) (width 0.1))
  (fp_line (start 0 1.092893) (end 0.5 1.8) (layer F.Fab) (width 0.1))
  (fp_line (start -2.95 -3.6) (end -2.95 2.3) (layer F.CrtYd) (width 0.05))
  (fp_line (start -2.95 2.3) (end 26.95 2.3) (layer F.CrtYd) (width 0.05))
  (fp_line (start 26.95 2.3) (end 27.95 1.3) (layer F.CrtYd) (width 0.05))
  (fp_line (start 27.95 1.3) (end 27.95 -3.6) (layer F.CrtYd) (width 0.05))
  (fp_line (start 27.95 -3.6) (end -2.95 -3.6) (layer F.CrtYd) (width 0.05))
  (pad 1 thru_hole rect (at 0 0) (size 1.7 1.85) (drill 0.85) (layers *.Cu *.Mask))
  (pad 2 thru_hole oval (at 2.5 0) (size 1.7 1.85) (drill 0.85) (layers *.Cu *.Mask))
  (pad 3 thru_hole oval (at 5 0) (size 1.7 1.85) (drill 0.85) (layers *.Cu *.Mask))
  (pad 4 thru_hole oval (at 7.5 0) (size 1.7 1.85) (drill 0.85) (layers *.Cu *.Mask))
  (pad 5 thru_hole oval (at 10 0) (size 1.7 1.85) (drill 0.85) (layers *.Cu *.Mask))
  (pad 6 thru_hole oval (at 12.5 0) (size 1.7 1.85) (drill 0.85) (layers *.Cu *.Mask))
  (pad 7 thru_hole oval (at 15 0) (size 1.7 1.85) (drill 0.85) (layers *.Cu *.Mask))
  (pad 8 thru_hole oval (at 17.5 0) (size 1.7 1.85) (drill 0.85) (layers *.Cu *.Mask))
  (pad 9 thru_hole oval (at 20 0) (size 1.7 1.85) (drill 0.85) (layers *.Cu *.Mask))
  (pad 10 thru_hole oval (at 22.5 0) (size 1.7 1.85) (drill 0.85) (layers *.Cu *.Mask))
  (pad 11 thru_hole oval (at 25 0) (size 1.7 1.85) (drill 0.85) (layers *.Cu *.Mask))
  (fp_text user %R (at 12.5 -2.4) (layer F.Fab)
    (effects (font (size 1 1) (thickness 0.15)))
  )
  (model ${KIPRJMOD}/kicad_libs_k/models_k.3d/Connector_Molex_k.3dshapes/Molex_SPOX_5267-11A_1x11_P2.50mm_Vertical_k.wrl
    (at (xyz 0 0 0))
    (scale (xyz 1 1 1))
    (rotate (xyz 0 0 0))
  )
)