(module Molex_Sabre_46007-1106_1x06_P7.49mm_Horizontal (layer F.Cu) (tedit 5A189858)
  (descr "Molex Sabre Power Connector, 46007-1106, 6 Pins per row (http://www.molex.com/pdm_docs/sd/460071105_sd.pdf), generated with kicad-footprint-generator")
  (tags "connector Molex Sabre top entry")
  (fp_text reference REF** (at 18.72 -6.1) (layer F.SilkS)
    (effects (font (size 1 1) (thickness 0.15)))
  )
  (fp_text value Molex_Sabre_46007-1106_1x06_P7.49mm_Horizontal (at 18.72 16.89) (layer F.Fab)
    (effects (font (size 1 1) (thickness 0.15)))
  )
  (fp_line (start -2.15 -5.155) (end -2.15 1.975) (layer B.SilkS) (width 0.12))
  (fp_line (start -2.15 1.975) (end 2.15 1.975) (layer B.SilkS) (width 0.12))
  (fp_line (start 2.15 1.975) (end 2.15 -5.155) (layer B.SilkS) (width 0.12))
  (fp_line (start 2.15 -5.155) (end -2.15 -5.155) (layer B.SilkS) (width 0.12))
  (fp_line (start -6.79 0.925) (end -6.79 15.685) (layer F.Fab) (width 0.1))
  (fp_line (start -6.79 15.685) (end 44.24 15.685) (layer F.Fab) (width 0.1))
  (fp_line (start 44.24 15.685) (end 44.24 0.925) (layer F.Fab) (width 0.1))
  (fp_line (start 44.24 0.925) (end -6.79 0.925) (layer F.Fab) (width 0.1))
  (fp_line (start -6.9 0.815) (end -6.9 15.795) (layer F.SilkS) (width 0.12))
  (fp_line (start -6.9 15.795) (end 44.35 15.795) (layer F.SilkS) (width 0.12))
  (fp_line (start 44.35 15.795) (end 44.35 0.815) (layer F.SilkS) (width 0.12))
  (fp_line (start 44.35 0.815) (end -6.9 0.815) (layer F.SilkS) (width 0.12))
  (fp_line (start 2.15 0.815) (end 5.34 0.815) (layer F.SilkS) (width 0.12))
  (fp_line (start 9.64 0.815) (end 12.83 0.815) (layer F.SilkS) (width 0.12))
  (fp_line (start 17.13 0.815) (end 20.32 0.815) (layer F.SilkS) (width 0.12))
  (fp_line (start 24.62 0.815) (end 27.81 0.815) (layer F.SilkS) (width 0.12))
  (fp_line (start 32.11 0.815) (end 35.3 0.815) (layer F.SilkS) (width 0.12))
  (fp_line (start -0.5 0.925) (end -0.5 -4.07) (layer F.Fab) (width 0.1))
  (fp_line (start -0.5 -4.07) (end 0.5 -4.07) (layer F.Fab) (width 0.1))
  (fp_line (start 0.5 -4.07) (end 0.5 0.925) (layer F.Fab) (width 0.1))
  (fp_line (start 0.5 0.925) (end -0.5 0.925) (layer F.Fab) (width 0.1))
  (fp_line (start 6.99 0.925) (end 6.99 -4.07) (layer F.Fab) (width 0.1))
  (fp_line (start 6.99 -4.07) (end 7.99 -4.07) (layer F.Fab) (width 0.1))
  (fp_line (start 7.99 -4.07) (end 7.99 0.925) (layer F.Fab) (width 0.1))
  (fp_line (start 7.99 0.925) (end 6.99 0.925) (layer F.Fab) (width 0.1))
  (fp_line (start 14.48 0.925) (end 14.48 -4.07) (layer F.Fab) (width 0.1))
  (fp_line (start 14.48 -4.07) (end 15.48 -4.07) (layer F.Fab) (width 0.1))
  (fp_line (start 15.48 -4.07) (end 15.48 0.925) (layer F.Fab) (width 0.1))
  (fp_line (start 15.48 0.925) (end 14.48 0.925) (layer F.Fab) (width 0.1))
  (fp_line (start 21.97 0.925) (end 21.97 -4.07) (layer F.Fab) (width 0.1))
  (fp_line (start 21.97 -4.07) (end 22.97 -4.07) (layer F.Fab) (width 0.1))
  (fp_line (start 22.97 -4.07) (end 22.97 0.925) (layer F.Fab) (width 0.1))
  (fp_line (start 22.97 0.925) (end 21.97 0.925) (layer F.Fab) (width 0.1))
  (fp_line (start 29.46 0.925) (end 29.46 -4.07) (layer F.Fab) (width 0.1))
  (fp_line (start 29.46 -4.07) (end 30.46 -4.07) (layer F.Fab) (width 0.1))
  (fp_line (start 30.46 -4.07) (end 30.46 0.925) (layer F.Fab) (width 0.1))
  (fp_line (start 30.46 0.925) (end 29.46 0.925) (layer F.Fab) (width 0.1))
  (fp_line (start 36.95 0.925) (end 36.95 -4.07) (layer F.Fab) (width 0.1))
  (fp_line (start 36.95 -4.07) (end 37.95 -4.07) (layer F.Fab) (width 0.1))
  (fp_line (start 37.95 -4.07) (end 37.95 0.925) (layer F.Fab) (width 0.1))
  (fp_line (start 37.95 0.925) (end 36.95 0.925) (layer F.Fab) (width 0.1))
  (fp_line (start -1.2 0.925) (end 0 2.622056) (layer F.Fab) (width 0.1))
  (fp_line (start 0 2.622056) (end 1.2 0.925) (layer F.Fab) (width 0.1))
  (fp_line (start -2.15 0.815) (end -2.15 -4.895) (layer F.SilkS) (width 0.12))
  (fp_line (start -7.29 -5.4) (end -7.29 16.19) (layer F.CrtYd) (width 0.05))
  (fp_line (start -7.29 16.19) (end 44.74 16.19) (layer F.CrtYd) (width 0.05))
  (fp_line (start 44.74 16.19) (end 44.74 -5.4) (layer F.CrtYd) (width 0.05))
  (fp_line (start 44.74 -5.4) (end -7.29 -5.4) (layer F.CrtYd) (width 0.05))
  (pad 1 thru_hole rect (at 0 0) (size 3.78 3.43) (drill 1.78) (layers *.Cu *.Mask))
  (pad 2 thru_hole rect (at 7.49 0) (size 3.78 3.43) (drill 1.78) (layers *.Cu *.Mask))
  (pad 3 thru_hole rect (at 14.98 0) (size 3.78 3.43) (drill 1.78) (layers *.Cu *.Mask))
  (pad 4 thru_hole rect (at 22.47 0) (size 3.78 3.43) (drill 1.78) (layers *.Cu *.Mask))
  (pad 5 thru_hole rect (at 29.96 0) (size 3.78 3.43) (drill 1.78) (layers *.Cu *.Mask))
  (pad 6 thru_hole rect (at 37.45 0) (size 3.78 3.43) (drill 1.78) (layers *.Cu *.Mask))
  (pad 1 thru_hole rect (at 0 -3.18) (size 3.78 3.43) (drill 1.78) (layers *.Cu *.Mask))
  (pad 2 thru_hole rect (at 7.49 -3.18) (size 3.78 3.43) (drill 1.78) (layers *.Cu *.Mask))
  (pad 3 thru_hole rect (at 14.98 -3.18) (size 3.78 3.43) (drill 1.78) (layers *.Cu *.Mask))
  (pad 4 thru_hole rect (at 22.47 -3.18) (size 3.78 3.43) (drill 1.78) (layers *.Cu *.Mask))
  (pad 5 thru_hole rect (at 29.96 -3.18) (size 3.78 3.43) (drill 1.78) (layers *.Cu *.Mask))
  (pad 6 thru_hole rect (at 37.45 -3.18) (size 3.78 3.43) (drill 1.78) (layers *.Cu *.Mask))
  (fp_text user %R (at 18.72 14.98) (layer F.Fab)
    (effects (font (size 1 1) (thickness 0.15)))
  )
  (model ${KIPRJMOD}/kicad_libs_k/models_k.3d/Connector_Molex_k.3dshapes/Molex_Sabre_46007-1106_1x06_P7.49mm_Horizontal_k.wrl
    (at (xyz 0 0 0))
    (scale (xyz 1 1 1))
    (rotate (xyz 0 0 0))
  )
)