(module Molex_Nano-Fit_105314-xx08_2x04_P2.50mm_Horizontal (layer F.Cu) (tedit 5A173285)
  (descr "Molex Nano-Fit Power Connectors, 105314-xx08, 4 Pins per row (http://www.molex.com/pdm_docs/sd/1053141208_sd.pdf), generated with kicad-footprint-generator")
  (tags "connector Molex Nano-Fit top entry")
  (fp_text reference REF** (at 8.65 -2.92) (layer F.SilkS)
    (effects (font (size 1 1) (thickness 0.15)))
  )
  (fp_text value Molex_Nano-Fit_105314-xx08_2x04_P2.50mm_Horizontal (at 8.65 10.42) (layer F.Fab)
    (effects (font (size 1 1) (thickness 0.15)))
  )
  (fp_line (start 4.42 -1.72) (end 4.42 9.22) (layer F.Fab) (width 0.1))
  (fp_line (start 4.42 9.22) (end 12.88 9.22) (layer F.Fab) (width 0.1))
  (fp_line (start 12.88 9.22) (end 12.88 -1.72) (layer F.Fab) (width 0.1))
  (fp_line (start 12.88 -1.72) (end 4.42 -1.72) (layer F.Fab) (width 0.1))
  (fp_line (start 4.31 -1.83) (end 4.31 9.33) (layer F.SilkS) (width 0.12))
  (fp_line (start 4.31 9.33) (end 12.99 9.33) (layer F.SilkS) (width 0.12))
  (fp_line (start 12.99 9.33) (end 12.99 -1.83) (layer F.SilkS) (width 0.12))
  (fp_line (start 12.99 -1.83) (end 4.31 -1.83) (layer F.SilkS) (width 0.12))
  (fp_line (start 4.31 0.15) (end 4.31 -0.15) (layer F.SilkS) (width 0.12))
  (fp_line (start 4.31 -0.15) (end 3.61 -0.15) (layer F.SilkS) (width 0.12))
  (fp_line (start 3.61 -0.15) (end 3.61 0.15) (layer F.SilkS) (width 0.12))
  (fp_line (start 3.61 0.15) (end 4.31 0.15) (layer F.SilkS) (width 0.12))
  (fp_line (start 4.31 2.65) (end 4.31 2.35) (layer F.SilkS) (width 0.12))
  (fp_line (start 4.31 2.35) (end 3.61 2.35) (layer F.SilkS) (width 0.12))
  (fp_line (start 3.61 2.35) (end 3.61 2.65) (layer F.SilkS) (width 0.12))
  (fp_line (start 3.61 2.65) (end 4.31 2.65) (layer F.SilkS) (width 0.12))
  (fp_line (start 4.31 5.15) (end 4.31 4.85) (layer F.SilkS) (width 0.12))
  (fp_line (start 4.31 4.85) (end 3.61 4.85) (layer F.SilkS) (width 0.12))
  (fp_line (start 3.61 4.85) (end 3.61 5.15) (layer F.SilkS) (width 0.12))
  (fp_line (start 3.61 5.15) (end 4.31 5.15) (layer F.SilkS) (width 0.12))
  (fp_line (start 4.31 7.65) (end 4.31 7.35) (layer F.SilkS) (width 0.12))
  (fp_line (start 4.31 7.35) (end 3.61 7.35) (layer F.SilkS) (width 0.12))
  (fp_line (start 3.61 7.35) (end 3.61 7.65) (layer F.SilkS) (width 0.12))
  (fp_line (start 3.61 7.65) (end 4.31 7.65) (layer F.SilkS) (width 0.12))
  (fp_line (start 0 -1.11) (end 0.3 -1.534264) (layer F.SilkS) (width 0.12))
  (fp_line (start 0.3 -1.534264) (end -0.3 -1.534264) (layer F.SilkS) (width 0.12))
  (fp_line (start -0.3 -1.534264) (end 0 -1.11) (layer F.SilkS) (width 0.12))
  (fp_line (start 0 -1.11) (end 0.3 -1.534264) (layer F.Fab) (width 0.1))
  (fp_line (start 0.3 -1.534264) (end -0.3 -1.534264) (layer F.Fab) (width 0.1))
  (fp_line (start -0.3 -1.534264) (end 0 -1.11) (layer F.Fab) (width 0.1))
  (fp_line (start -1.35 -2.22) (end -1.35 9.72) (layer F.CrtYd) (width 0.05))
  (fp_line (start -1.35 9.72) (end 13.38 9.72) (layer F.CrtYd) (width 0.05))
  (fp_line (start 13.38 9.72) (end 13.38 -2.22) (layer F.CrtYd) (width 0.05))
  (fp_line (start 13.38 -2.22) (end -1.35 -2.22) (layer F.CrtYd) (width 0.05))
  (pad 1 thru_hole rect (at 0 0) (size 1.7 1.7) (drill 1.2) (layers *.Cu *.Mask))
  (pad 2 thru_hole circle (at 0 2.5) (size 1.7 1.7) (drill 1.2) (layers *.Cu *.Mask))
  (pad 3 thru_hole circle (at 0 5) (size 1.7 1.7) (drill 1.2) (layers *.Cu *.Mask))
  (pad 4 thru_hole circle (at 0 7.5) (size 1.7 1.7) (drill 1.2) (layers *.Cu *.Mask))
  (pad 5 thru_hole circle (at 2.5 0) (size 1.7 1.7) (drill 1.2) (layers *.Cu *.Mask))
  (pad 6 thru_hole circle (at 2.5 2.5) (size 1.7 1.7) (drill 1.2) (layers *.Cu *.Mask))
  (pad 7 thru_hole circle (at 2.5 5) (size 1.7 1.7) (drill 1.2) (layers *.Cu *.Mask))
  (pad 8 thru_hole circle (at 2.5 7.5) (size 1.7 1.7) (drill 1.2) (layers *.Cu *.Mask))
  (pad "" np_thru_hole circle (at 9.68 0) (size 1.7 1.7) (drill 1.7) (layers *.Cu *.Mask))
  (pad "" np_thru_hole circle (at 9.68 7.5) (size 1.7 1.7) (drill 1.7) (layers *.Cu *.Mask))
  (fp_text user %R (at 8.65 8.52) (layer F.Fab)
    (effects (font (size 1 1) (thickness 0.15)))
  )
  (model ${KIPRJMOD}/kicad_libs_k/models_k.3d/Connector_Molex_k.3dshapes/Molex_Nano-Fit_105314-xx08_2x04_P2.50mm_Horizontal_k.wrl
    (at (xyz 0 0 0))
    (scale (xyz 1 1 1))
    (rotate (xyz 0 0 0))
  )
)