(module Molex_CLIK-Mate_502386-0470_1x04-1MP_P1.25mm_Horizontal (layer F.Cu) (tedit 5AA46ED0)
  (descr "Molex CLIK-Mate series connector, 502386-0470 (http://www.molex.com/pdm_docs/sd/5023860270_sd.pdf), generated with kicad-footprint-generator")
  (tags "connector Molex CLIK-Mate top entry")
  (attr smd)
  (fp_text reference REF** (at 0 -3.9) (layer F.SilkS)
    (effects (font (size 1 1) (thickness 0.15)))
  )
  (fp_text value Molex_CLIK-Mate_502386-0470_1x04-1MP_P1.25mm_Horizontal (at 0 3.9) (layer F.Fab)
    (effects (font (size 1 1) (thickness 0.15)))
  )
  (fp_line (start -4.175 -1.8) (end 4.175 -1.8) (layer F.Fab) (width 0.1))
  (fp_line (start -4.285 -0.26) (end -4.285 -1.91) (layer F.SilkS) (width 0.12))
  (fp_line (start -4.285 -1.91) (end -2.435 -1.91) (layer F.SilkS) (width 0.12))
  (fp_line (start -2.435 -1.91) (end -2.435 -2.7) (layer F.SilkS) (width 0.12))
  (fp_line (start 4.285 -0.26) (end 4.285 -1.91) (layer F.SilkS) (width 0.12))
  (fp_line (start 4.285 -1.91) (end 2.435 -1.91) (layer F.SilkS) (width 0.12))
  (fp_line (start -2.965 2.71) (end 2.965 2.71) (layer F.SilkS) (width 0.12))
  (fp_line (start -4.175 1.35) (end -3.845 1.35) (layer F.Fab) (width 0.1))
  (fp_line (start -3.845 1.35) (end -3.845 2.6) (layer F.Fab) (width 0.1))
  (fp_line (start -3.845 2.6) (end 3.845 2.6) (layer F.Fab) (width 0.1))
  (fp_line (start 3.845 2.6) (end 3.845 1.35) (layer F.Fab) (width 0.1))
  (fp_line (start 3.845 1.35) (end 4.175 1.35) (layer F.Fab) (width 0.1))
  (fp_line (start -4.175 -1.8) (end -4.175 1.35) (layer F.Fab) (width 0.1))
  (fp_line (start 4.175 -1.8) (end 4.175 1.35) (layer F.Fab) (width 0.1))
  (fp_line (start -4.72 -3.2) (end -4.72 3.2) (layer F.CrtYd) (width 0.05))
  (fp_line (start -4.72 3.2) (end 4.72 3.2) (layer F.CrtYd) (width 0.05))
  (fp_line (start 4.72 3.2) (end 4.72 -3.2) (layer F.CrtYd) (width 0.05))
  (fp_line (start 4.72 -3.2) (end -4.72 -3.2) (layer F.CrtYd) (width 0.05))
  (fp_line (start -2.375 -1.8) (end -1.875 -1.092893) (layer F.Fab) (width 0.1))
  (fp_line (start -1.875 -1.092893) (end -1.375 -1.8) (layer F.Fab) (width 0.1))
  (pad 1 smd rect (at -1.875 -1.85) (size 0.6 1.7) (layers F.Cu F.Mask F.Paste))
  (pad 2 smd rect (at -0.625 -1.85) (size 0.6 1.7) (layers F.Cu F.Mask F.Paste))
  (pad 3 smd rect (at 0.625 -1.85) (size 0.6 1.7) (layers F.Cu F.Mask F.Paste))
  (pad 4 smd rect (at 1.875 -1.85) (size 0.6 1.7) (layers F.Cu F.Mask F.Paste))
  (pad MP smd rect (at -3.725 1.35) (size 1 2.7) (layers F.Cu F.Mask F.Paste))
  (pad MP smd rect (at 3.725 1.35) (size 1 2.7) (layers F.Cu F.Mask F.Paste))
  (fp_text user %R (at 0 -0.22) (layer F.Fab)
    (effects (font (size 1 1) (thickness 0.15)))
  )
  (model ${KIPRJMOD}/kicad_libs_k/models_k.3d/Connector_Molex_k.3dshapes/Molex_CLIK-Mate_502386-0470_1x04-1MP_P1.25mm_Horizontal_k.wrl
    (at (xyz 0 0 0))
    (scale (xyz 1 1 1))
    (rotate (xyz 0 0 0))
  )
)