(module Molex_Micro-Fit_3.0_43045-0410_2x02-1MP_P3.00mm_Horizontal (layer F.Cu) (tedit 5AA47B23)
  (descr "Molex Micro-Fit 3.0 Connector System, 43045-0410 (compatible alternatives: 43045-0411, 43045-0409), 2 Pins per row (http://www.molex.com/pdm_docs/sd/430450210_sd.pdf), generated with kicad-footprint-generator")
  (tags "connector Molex Micro-Fit_3.0 top entry")
  (attr smd)
  (fp_text reference REF** (at 0 -13.58) (layer F.SilkS)
    (effects (font (size 1 1) (thickness 0.15)))
  )
  (fp_text value Molex_Micro-Fit_3.0_43045-0410_2x02-1MP_P3.00mm_Horizontal (at 0 4.98) (layer F.Fab)
    (effects (font (size 1 1) (thickness 0.15)))
  )
  (fp_line (start 0 -12.385) (end 3.825 -12.385) (layer F.Fab) (width 0.1))
  (fp_line (start 3.825 -12.385) (end 4.825 -10.385) (layer F.Fab) (width 0.1))
  (fp_line (start 4.825 -10.385) (end 4.825 -8.61) (layer F.Fab) (width 0.1))
  (fp_line (start 4.825 -8.61) (end 4.825 -2.475) (layer F.Fab) (width 0.1))
  (fp_line (start 4.825 -2.475) (end 2.135 -2.475) (layer F.Fab) (width 0.1))
  (fp_line (start 2.135 -2.475) (end 0 -2.475) (layer F.Fab) (width 0.1))
  (fp_line (start 0 -12.385) (end -3.825 -12.385) (layer F.Fab) (width 0.1))
  (fp_line (start -3.825 -12.385) (end -4.825 -10.385) (layer F.Fab) (width 0.1))
  (fp_line (start -4.825 -10.385) (end -4.825 -8.61) (layer F.Fab) (width 0.1))
  (fp_line (start -4.825 -8.61) (end -4.825 -2.475) (layer F.Fab) (width 0.1))
  (fp_line (start -4.825 -2.475) (end -2.5 -2.475) (layer F.Fab) (width 0.1))
  (fp_line (start -2.5 -2.475) (end -1.5 -3.475) (layer F.Fab) (width 0.1))
  (fp_line (start -1.5 -3.475) (end -0.5 -2.475) (layer F.Fab) (width 0.1))
  (fp_line (start -0.5 -2.475) (end 0 -2.475) (layer F.Fab) (width 0.1))
  (fp_line (start 0 -12.495) (end 3.935 -12.495) (layer F.SilkS) (width 0.12))
  (fp_line (start 3.935 -12.495) (end 4.935 -10.495) (layer F.SilkS) (width 0.12))
  (fp_line (start 4.935 -10.495) (end 4.935 -8.98) (layer F.SilkS) (width 0.12))
  (fp_line (start 0 -12.495) (end -3.935 -12.495) (layer F.SilkS) (width 0.12))
  (fp_line (start -3.935 -12.495) (end -4.935 -10.495) (layer F.SilkS) (width 0.12))
  (fp_line (start -4.935 -10.495) (end -4.935 -8.98) (layer F.SilkS) (width 0.12))
  (fp_line (start 4.935 -6.59) (end 4.935 -2.365) (layer F.SilkS) (width 0.12))
  (fp_line (start 4.935 -2.365) (end 2.505 -2.365) (layer F.SilkS) (width 0.12))
  (fp_line (start -4.935 -6.59) (end -4.935 -2.365) (layer F.SilkS) (width 0.12))
  (fp_line (start -4.935 -2.365) (end -2.505 -2.365) (layer F.SilkS) (width 0.12))
  (fp_line (start -2.505 -2.365) (end -2.505 -0.905) (layer F.SilkS) (width 0.12))
  (fp_line (start 0 -12.88) (end 4.32 -12.88) (layer F.CrtYd) (width 0.05))
  (fp_line (start 4.32 -12.88) (end 5.32 -10.88) (layer F.CrtYd) (width 0.05))
  (fp_line (start 5.32 -10.88) (end 5.32 -9.11) (layer F.CrtYd) (width 0.05))
  (fp_line (start 5.32 -9.11) (end 7.6 -9.11) (layer F.CrtYd) (width 0.05))
  (fp_line (start 7.6 -9.11) (end 7.6 -6.46) (layer F.CrtYd) (width 0.05))
  (fp_line (start 7.6 -6.46) (end 5.32 -6.46) (layer F.CrtYd) (width 0.05))
  (fp_line (start 5.32 -6.46) (end 5.32 -1.97) (layer F.CrtYd) (width 0.05))
  (fp_line (start 5.32 -1.97) (end 2.64 -1.97) (layer F.CrtYd) (width 0.05))
  (fp_line (start 2.64 -1.97) (end 2.64 4.28) (layer F.CrtYd) (width 0.05))
  (fp_line (start 2.64 4.28) (end 0 4.28) (layer F.CrtYd) (width 0.05))
  (fp_line (start 0 -12.88) (end -4.32 -12.88) (layer F.CrtYd) (width 0.05))
  (fp_line (start -4.32 -12.88) (end -5.32 -10.88) (layer F.CrtYd) (width 0.05))
  (fp_line (start -5.32 -10.88) (end -5.32 -9.11) (layer F.CrtYd) (width 0.05))
  (fp_line (start -5.32 -9.11) (end -7.6 -9.11) (layer F.CrtYd) (width 0.05))
  (fp_line (start -7.6 -9.11) (end -7.6 -6.46) (layer F.CrtYd) (width 0.05))
  (fp_line (start -7.6 -6.46) (end -5.32 -6.46) (layer F.CrtYd) (width 0.05))
  (fp_line (start -5.32 -6.46) (end -5.32 -1.97) (layer F.CrtYd) (width 0.05))
  (fp_line (start -5.32 -1.97) (end -2.64 -1.97) (layer F.CrtYd) (width 0.05))
  (fp_line (start -2.64 -1.97) (end -2.64 4.28) (layer F.CrtYd) (width 0.05))
  (fp_line (start -2.64 4.28) (end 0 4.28) (layer F.CrtYd) (width 0.05))
  (pad MP smd rect (at -5.385 -7.785) (size 3.43 1.65) (layers F.Cu F.Mask F.Paste))
  (pad MP smd rect (at 5.385 -7.785) (size 3.43 1.65) (layers F.Cu F.Mask F.Paste))
  (pad 1 smd rect (at -1.5 -2.315) (size 1.27 2.92) (layers F.Cu F.Mask F.Paste))
  (pad 2 smd rect (at 1.5 -2.315) (size 1.27 2.92) (layers F.Cu F.Mask F.Paste))
  (pad 3 smd rect (at -1.5 2.315) (size 1.27 2.92) (layers F.Cu F.Mask F.Paste))
  (pad 4 smd rect (at 1.5 2.315) (size 1.27 2.92) (layers F.Cu F.Mask F.Paste))
  (fp_text user %R (at 0 -11.68) (layer F.Fab)
    (effects (font (size 1 1) (thickness 0.15)))
  )
  (model ${KIPRJMOD}/kicad_libs_k/models_k.3d/Connector_Molex_k.3dshapes/Molex_Micro-Fit_3.0_43045-0410_2x02-1MP_P3.00mm_Horizontal_k.wrl
    (at (xyz 0 0 0))
    (scale (xyz 1 1 1))
    (rotate (xyz 0 0 0))
  )
)