(module Molex_Mini-Fit_Jr_5566-04A2_2x02_P4.20mm_Vertical (layer F.Cu) (tedit 5A15CC62)
  (descr "Molex Mini-Fit Jr. Power Connectors, old mpn/engineering number: 5566-04A2, example for new mpn: 39-28-904x, 2 Pins per row, Mounting: Snap-in Plastic Peg PCB Lock (http://www.molex.com/pdm_docs/sd/039289068_sd.pdf), generated with kicad-footprint-generator")
  (tags "connector Molex Mini-Fit_Jr side entryplastic_peg")
  (fp_text reference REF** (at 2.1 -3.45) (layer F.SilkS)
    (effects (font (size 1 1) (thickness 0.15)))
  )
  (fp_text value Molex_Mini-Fit_Jr_5566-04A2_2x02_P4.20mm_Vertical (at 2.1 9.95) (layer F.Fab)
    (effects (font (size 1 1) (thickness 0.15)))
  )
  (fp_arc (start -4.7 5.04) (end -4.7 6.54) (angle 180.000000) (layer F.Fab) (width 0.1))
  (fp_arc (start 8.9 5.04) (end 8.9 3.54) (angle 180.000000) (layer F.Fab) (width 0.1))
  (fp_arc (start -4.7 5.04) (end -4.7 6.8) (angle 180.000000) (layer F.SilkS) (width 0.12))
  (fp_arc (start 8.9 5.04) (end 8.9 3.28) (angle 180.000000) (layer F.SilkS) (width 0.12))
  (fp_line (start -4.7 3.54) (end -2.7 3.54) (layer F.Fab) (width 0.1))
  (fp_line (start -4.7 6.54) (end -2.7 6.54) (layer F.Fab) (width 0.1))
  (fp_line (start 8.9 3.54) (end 6.9 3.54) (layer F.Fab) (width 0.1))
  (fp_line (start 8.9 6.54) (end 6.9 6.54) (layer F.Fab) (width 0.1))
  (fp_line (start -4.7 3.28) (end -2.81 3.28) (layer F.SilkS) (width 0.12))
  (fp_line (start -4.7 6.8) (end -2.81 6.8) (layer F.SilkS) (width 0.12))
  (fp_line (start 8.9 3.28) (end 7.01 3.28) (layer F.SilkS) (width 0.12))
  (fp_line (start 8.9 6.8) (end 7.01 6.8) (layer F.SilkS) (width 0.12))
  (fp_line (start -2.7 -2.25) (end -2.7 7.35) (layer F.Fab) (width 0.1))
  (fp_line (start -2.7 7.35) (end 6.9 7.35) (layer F.Fab) (width 0.1))
  (fp_line (start 6.9 7.35) (end 6.9 -2.25) (layer F.Fab) (width 0.1))
  (fp_line (start 6.9 -2.25) (end -2.7 -2.25) (layer F.Fab) (width 0.1))
  (fp_line (start 0.4 7.35) (end 0.4 8.75) (layer F.Fab) (width 0.1))
  (fp_line (start 0.4 8.75) (end 3.8 8.75) (layer F.Fab) (width 0.1))
  (fp_line (start 3.8 8.75) (end 3.8 7.35) (layer F.Fab) (width 0.1))
  (fp_line (start -1.65 -1) (end -1.65 2.3) (layer F.Fab) (width 0.1))
  (fp_line (start -1.65 2.3) (end 1.65 2.3) (layer F.Fab) (width 0.1))
  (fp_line (start 1.65 2.3) (end 1.65 -1) (layer F.Fab) (width 0.1))
  (fp_line (start 1.65 -1) (end -1.65 -1) (layer F.Fab) (width 0.1))
  (fp_line (start -1.65 6.5) (end -1.65 4.025) (layer F.Fab) (width 0.1))
  (fp_line (start -1.65 4.025) (end -0.825 3.2) (layer F.Fab) (width 0.1))
  (fp_line (start -0.825 3.2) (end 0.825 3.2) (layer F.Fab) (width 0.1))
  (fp_line (start 0.825 3.2) (end 1.65 4.025) (layer F.Fab) (width 0.1))
  (fp_line (start 1.65 4.025) (end 1.65 6.5) (layer F.Fab) (width 0.1))
  (fp_line (start 1.65 6.5) (end -1.65 6.5) (layer F.Fab) (width 0.1))
  (fp_line (start 2.55 3.2) (end 2.55 6.5) (layer F.Fab) (width 0.1))
  (fp_line (start 2.55 6.5) (end 5.85 6.5) (layer F.Fab) (width 0.1))
  (fp_line (start 5.85 6.5) (end 5.85 3.2) (layer F.Fab) (width 0.1))
  (fp_line (start 5.85 3.2) (end 2.55 3.2) (layer F.Fab) (width 0.1))
  (fp_line (start 2.55 2.3) (end 2.55 -0.175) (layer F.Fab) (width 0.1))
  (fp_line (start 2.55 -0.175) (end 3.375 -1) (layer F.Fab) (width 0.1))
  (fp_line (start 3.375 -1) (end 5.025 -1) (layer F.Fab) (width 0.1))
  (fp_line (start 5.025 -1) (end 5.85 -0.175) (layer F.Fab) (width 0.1))
  (fp_line (start 5.85 -0.175) (end 5.85 2.3) (layer F.Fab) (width 0.1))
  (fp_line (start 5.85 2.3) (end 2.55 2.3) (layer F.Fab) (width 0.1))
  (fp_line (start 2.1 -2.36) (end -2.81 -2.36) (layer F.SilkS) (width 0.12))
  (fp_line (start -2.81 -2.36) (end -2.81 7.46) (layer F.SilkS) (width 0.12))
  (fp_line (start -2.81 7.46) (end 0.29 7.46) (layer F.SilkS) (width 0.12))
  (fp_line (start 0.29 7.46) (end 0.29 8.86) (layer F.SilkS) (width 0.12))
  (fp_line (start 0.29 8.86) (end 2.1 8.86) (layer F.SilkS) (width 0.12))
  (fp_line (start 2.1 -2.36) (end 7.01 -2.36) (layer F.SilkS) (width 0.12))
  (fp_line (start 7.01 -2.36) (end 7.01 7.46) (layer F.SilkS) (width 0.12))
  (fp_line (start 7.01 7.46) (end 3.91 7.46) (layer F.SilkS) (width 0.12))
  (fp_line (start 3.91 7.46) (end 3.91 8.86) (layer F.SilkS) (width 0.12))
  (fp_line (start 3.91 8.86) (end 2.1 8.86) (layer F.SilkS) (width 0.12))
  (fp_line (start -0.2 -2.6) (end -3.05 -2.6) (layer F.SilkS) (width 0.12))
  (fp_line (start -3.05 -2.6) (end -3.05 0.25) (layer F.SilkS) (width 0.12))
  (fp_line (start -0.2 -2.6) (end -3.05 -2.6) (layer F.Fab) (width 0.1))
  (fp_line (start -3.05 -2.6) (end -3.05 0.25) (layer F.Fab) (width 0.1))
  (fp_line (start -3.2 -2.75) (end -3.2 3.04) (layer F.CrtYd) (width 0.05))
  (fp_line (start -3.2 3.04) (end -6.7 3.04) (layer F.CrtYd) (width 0.05))
  (fp_line (start -6.7 3.04) (end -6.7 9.25) (layer F.CrtYd) (width 0.05))
  (fp_line (start -6.7 9.25) (end 10.9 9.25) (layer F.CrtYd) (width 0.05))
  (fp_line (start 10.9 9.25) (end 10.9 3.04) (layer F.CrtYd) (width 0.05))
  (fp_line (start 10.9 3.04) (end 7.4 3.04) (layer F.CrtYd) (width 0.05))
  (fp_line (start 7.4 3.04) (end 7.4 -2.75) (layer F.CrtYd) (width 0.05))
  (fp_line (start 7.4 -2.75) (end -3.2 -2.75) (layer F.CrtYd) (width 0.05))
  (pad 1 thru_hole rect (at 0 0) (size 2.7 3.3) (drill 1.4) (layers *.Cu *.Mask))
  (pad 2 thru_hole oval (at 4.2 0) (size 2.7 3.3) (drill 1.4) (layers *.Cu *.Mask))
  (pad 3 thru_hole oval (at 0 5.5) (size 2.7 3.3) (drill 1.4) (layers *.Cu *.Mask))
  (pad 4 thru_hole oval (at 4.2 5.5) (size 2.7 3.3) (drill 1.4) (layers *.Cu *.Mask))
  (pad "" np_thru_hole circle (at -4.7 5.04) (size 3 3) (drill 3) (layers *.Cu *.Mask))
  (pad "" np_thru_hole circle (at 8.9 5.04) (size 3 3) (drill 3) (layers *.Cu *.Mask))
  (fp_text user %R (at 2.1 -1.55) (layer F.Fab)
    (effects (font (size 1 1) (thickness 0.15)))
  )
  (model ${KIPRJMOD}/kicad_libs_k/models_k.3d/Connector_Molex_k.3dshapes/Molex_Mini-Fit_Jr_5566-04A2_2x02_P4.20mm_Vertical_k.wrl
    (at (xyz 0 0 0))
    (scale (xyz 1 1 1))
    (rotate (xyz 0 0 0))
  )
)