(module Molex_Mini-Fit_Sr_42820-52XX_1x05_P10.00mm_Horizontal (layer F.Cu) (tedit 5A16F5F6)
  (descr "Molex Mini-Fit Sr. Power Connectors, 42820-52XX, 5 Pins per row (http://www.molex.com/pdm_docs/sd/428202214_sd.pdf), generated with kicad-footprint-generator")
  (tags "connector Molex Mini-Fit_Sr top entry")
  (fp_text reference REF** (at 17.06 -8.93) (layer F.SilkS)
    (effects (font (size 1 1) (thickness 0.15)))
  )
  (fp_text value Molex_Mini-Fit_Sr_42820-52XX_1x05_P10.00mm_Horizontal (at 17.06 48.93) (layer F.Fab)
    (effects (font (size 1 1) (thickness 0.15)))
  )
  (fp_line (start -2.81 -2.66) (end -2.81 2.66) (layer B.SilkS) (width 0.12))
  (fp_line (start -2.81 2.66) (end 7.81 2.66) (layer B.SilkS) (width 0.12))
  (fp_line (start 7.81 2.66) (end 7.81 -2.66) (layer B.SilkS) (width 0.12))
  (fp_line (start 7.81 -2.66) (end -2.81 -2.66) (layer B.SilkS) (width 0.12))
  (fp_line (start 6.56 -6.91) (end 6.56 46.91) (layer F.Fab) (width 0.1))
  (fp_line (start 6.56 46.91) (end 27.56 46.91) (layer F.Fab) (width 0.1))
  (fp_line (start 27.56 46.91) (end 27.56 -6.91) (layer F.Fab) (width 0.1))
  (fp_line (start 27.56 -6.91) (end 6.56 -6.91) (layer F.Fab) (width 0.1))
  (fp_line (start 6.56 -5.45) (end 27.56 -5.45) (layer F.Fab) (width 0.1))
  (fp_line (start 6.56 45.45) (end 27.56 45.45) (layer F.Fab) (width 0.1))
  (fp_line (start 6.45 -2.66) (end 6.45 -7.02) (layer F.SilkS) (width 0.12))
  (fp_line (start 6.45 -7.02) (end 12 -7.02) (layer F.SilkS) (width 0.12))
  (fp_line (start 6.45 42.66) (end 6.45 47.02) (layer F.SilkS) (width 0.12))
  (fp_line (start 6.45 47.02) (end 12 47.02) (layer F.SilkS) (width 0.12))
  (fp_line (start 16 -7.02) (end 27.67 -7.02) (layer F.SilkS) (width 0.12))
  (fp_line (start 27.67 -7.02) (end 27.67 20) (layer F.SilkS) (width 0.12))
  (fp_line (start 16 47.02) (end 27.67 47.02) (layer F.SilkS) (width 0.12))
  (fp_line (start 27.67 47.02) (end 27.67 20) (layer F.SilkS) (width 0.12))
  (fp_line (start 6.45 2.66) (end 6.45 7.34) (layer F.SilkS) (width 0.12))
  (fp_line (start 6.45 12.66) (end 6.45 17.34) (layer F.SilkS) (width 0.12))
  (fp_line (start 6.45 22.66) (end 6.45 27.34) (layer F.SilkS) (width 0.12))
  (fp_line (start 6.45 32.66) (end 6.45 37.34) (layer F.SilkS) (width 0.12))
  (fp_line (start 6.56 -1.9) (end 6.56 1.9) (layer F.Fab) (width 0.1))
  (fp_line (start 6.56 1.9) (end -1.04 1.9) (layer F.Fab) (width 0.1))
  (fp_line (start -1.04 1.9) (end -1.04 -1.9) (layer F.Fab) (width 0.1))
  (fp_line (start -1.04 -1.9) (end 6.56 -1.9) (layer F.Fab) (width 0.1))
  (fp_line (start 6.56 8.1) (end 6.56 11.9) (layer F.Fab) (width 0.1))
  (fp_line (start 6.56 11.9) (end -1.04 11.9) (layer F.Fab) (width 0.1))
  (fp_line (start -1.04 11.9) (end -1.04 8.1) (layer F.Fab) (width 0.1))
  (fp_line (start -1.04 8.1) (end 6.56 8.1) (layer F.Fab) (width 0.1))
  (fp_line (start 6.56 18.1) (end 6.56 21.9) (layer F.Fab) (width 0.1))
  (fp_line (start 6.56 21.9) (end -1.04 21.9) (layer F.Fab) (width 0.1))
  (fp_line (start -1.04 21.9) (end -1.04 18.1) (layer F.Fab) (width 0.1))
  (fp_line (start -1.04 18.1) (end 6.56 18.1) (layer F.Fab) (width 0.1))
  (fp_line (start 6.56 28.1) (end 6.56 31.9) (layer F.Fab) (width 0.1))
  (fp_line (start 6.56 31.9) (end -1.04 31.9) (layer F.Fab) (width 0.1))
  (fp_line (start -1.04 31.9) (end -1.04 28.1) (layer F.Fab) (width 0.1))
  (fp_line (start -1.04 28.1) (end 6.56 28.1) (layer F.Fab) (width 0.1))
  (fp_line (start 6.56 38.1) (end 6.56 41.9) (layer F.Fab) (width 0.1))
  (fp_line (start 6.56 41.9) (end -1.04 41.9) (layer F.Fab) (width 0.1))
  (fp_line (start -1.04 41.9) (end -1.04 38.1) (layer F.Fab) (width 0.1))
  (fp_line (start -1.04 38.1) (end 6.56 38.1) (layer F.Fab) (width 0.1))
  (fp_line (start 6.56 -1.2) (end 4.862944 0) (layer F.Fab) (width 0.1))
  (fp_line (start 4.862944 0) (end 6.56 1.2) (layer F.Fab) (width 0.1))
  (fp_line (start -1.04 -1.2) (end 0.657056 0) (layer F.Fab) (width 0.1))
  (fp_line (start 0.657056 0) (end -1.04 1.2) (layer F.Fab) (width 0.1))
  (fp_line (start 6.45 -2.66) (end -2.55 -2.66) (layer F.SilkS) (width 0.12))
  (fp_line (start -3.05 -8.23) (end -3.05 48.23) (layer F.CrtYd) (width 0.05))
  (fp_line (start -3.05 48.23) (end 28.06 48.23) (layer F.CrtYd) (width 0.05))
  (fp_line (start 28.06 48.23) (end 28.06 -8.23) (layer F.CrtYd) (width 0.05))
  (fp_line (start 28.06 -8.23) (end -3.05 -8.23) (layer F.CrtYd) (width 0.05))
  (pad 1 thru_hole rect (at 0 0) (size 5.1 4.8) (drill 2.8) (layers *.Cu *.Mask))
  (pad 2 thru_hole rect (at 0 10) (size 5.1 4.8) (drill 2.8) (layers *.Cu *.Mask))
  (pad 3 thru_hole rect (at 0 20) (size 5.1 4.8) (drill 2.8) (layers *.Cu *.Mask))
  (pad 4 thru_hole rect (at 0 30) (size 5.1 4.8) (drill 2.8) (layers *.Cu *.Mask))
  (pad 5 thru_hole rect (at 0 40) (size 5.1 4.8) (drill 2.8) (layers *.Cu *.Mask))
  (pad 1 thru_hole rect (at 5 0) (size 5.1 4.8) (drill 2.8) (layers *.Cu *.Mask))
  (pad 2 thru_hole rect (at 5 10) (size 5.1 4.8) (drill 2.8) (layers *.Cu *.Mask))
  (pad 3 thru_hole rect (at 5 20) (size 5.1 4.8) (drill 2.8) (layers *.Cu *.Mask))
  (pad 4 thru_hole rect (at 5 30) (size 5.1 4.8) (drill 2.8) (layers *.Cu *.Mask))
  (pad 5 thru_hole rect (at 5 40) (size 5.1 4.8) (drill 2.8) (layers *.Cu *.Mask))
  (pad "" thru_hole circle (at 14 -5.73) (size 4 4) (drill 3) (layers *.Cu *.Mask))
  (pad "" thru_hole circle (at 14 45.73) (size 4 4) (drill 3) (layers *.Cu *.Mask))
  (fp_text user %R (at 17.06 44.75) (layer F.Fab)
    (effects (font (size 1 1) (thickness 0.15)))
  )
  (model ${KIPRJMOD}/kicad_libs_k/models_k.3d/Connector_Molex_k.3dshapes/Molex_Mini-Fit_Sr_42820-52XX_1x05_P10.00mm_Horizontal_k.wrl
    (at (xyz 0 0 0))
    (scale (xyz 1 1 1))
    (rotate (xyz 0 0 0))
  )
)