(module Molex_Mini-Fit_Jr_5569-10A1_2x05_P4.20mm_Horizontal (layer F.Cu) (tedit 5A15CC90)
  (descr "Molex Mini-Fit Jr. Power Connectors, old mpn/engineering number: 5569-10A1, example for new mpn: 39-29-4109, 5 Pins per row, Mounting: PCB Mounting Flange (http://www.molex.com/pdm_docs/sd/039291047_sd.pdf), generated with kicad-footprint-generator")
  (tags "connector Molex Mini-Fit_Jr top entryscrew_flange")
  (fp_text reference REF** (at 8.4 -15.1) (layer F.SilkS)
    (effects (font (size 1 1) (thickness 0.15)))
  )
  (fp_text value Molex_Mini-Fit_Jr_5569-10A1_2x05_P4.20mm_Horizontal (at 8.4 8.55) (layer F.Fab)
    (effects (font (size 1 1) (thickness 0.15)))
  )
  (fp_line (start -2.7 -13.9) (end -2.7 -1.1) (layer F.Fab) (width 0.1))
  (fp_line (start -2.7 -1.1) (end 19.5 -1.1) (layer F.Fab) (width 0.1))
  (fp_line (start 19.5 -1.1) (end 19.5 -13.9) (layer F.Fab) (width 0.1))
  (fp_line (start 19.5 -13.9) (end -2.7 -13.9) (layer F.Fab) (width 0.1))
  (fp_line (start -2.7 -7.3) (end -7.7 -7.3) (layer F.Fab) (width 0.1))
  (fp_line (start -7.7 -7.3) (end -7.7 -1.1) (layer F.Fab) (width 0.1))
  (fp_line (start -7.7 -1.1) (end -2.7 -1.1) (layer F.Fab) (width 0.1))
  (fp_line (start 19.5 -7.3) (end 24.5 -7.3) (layer F.Fab) (width 0.1))
  (fp_line (start 24.5 -7.3) (end 24.5 -1.1) (layer F.Fab) (width 0.1))
  (fp_line (start 24.5 -1.1) (end 19.5 -1.1) (layer F.Fab) (width 0.1))
  (fp_line (start 8.4 -14.01) (end -2.81 -14.01) (layer F.SilkS) (width 0.12))
  (fp_line (start -2.81 -14.01) (end -2.81 -7.41) (layer F.SilkS) (width 0.12))
  (fp_line (start -2.81 -7.41) (end -7.81 -7.41) (layer F.SilkS) (width 0.12))
  (fp_line (start -7.81 -7.41) (end -7.81 -0.99) (layer F.SilkS) (width 0.12))
  (fp_line (start -7.81 -0.99) (end -2 -0.99) (layer F.SilkS) (width 0.12))
  (fp_line (start 8.4 -14.01) (end 19.61 -14.01) (layer F.SilkS) (width 0.12))
  (fp_line (start 19.61 -14.01) (end 19.61 -7.41) (layer F.SilkS) (width 0.12))
  (fp_line (start 19.61 -7.41) (end 24.61 -7.41) (layer F.SilkS) (width 0.12))
  (fp_line (start 24.61 -7.41) (end 24.61 -0.99) (layer F.SilkS) (width 0.12))
  (fp_line (start 24.61 -0.99) (end 18.8 -0.99) (layer F.SilkS) (width 0.12))
  (fp_line (start -0.3 2.11) (end -0.3 3.39) (layer F.SilkS) (width 0.12))
  (fp_line (start 0.3 2.11) (end 0.3 3.39) (layer F.SilkS) (width 0.12))
  (fp_line (start 3.9 2.11) (end 3.9 3.39) (layer F.SilkS) (width 0.12))
  (fp_line (start 4.5 2.11) (end 4.5 3.39) (layer F.SilkS) (width 0.12))
  (fp_line (start 8.1 2.11) (end 8.1 3.39) (layer F.SilkS) (width 0.12))
  (fp_line (start 8.7 2.11) (end 8.7 3.39) (layer F.SilkS) (width 0.12))
  (fp_line (start 12.3 2.11) (end 12.3 3.39) (layer F.SilkS) (width 0.12))
  (fp_line (start 12.9 2.11) (end 12.9 3.39) (layer F.SilkS) (width 0.12))
  (fp_line (start 16.5 2.11) (end 16.5 3.39) (layer F.SilkS) (width 0.12))
  (fp_line (start 17.1 2.11) (end 17.1 3.39) (layer F.SilkS) (width 0.12))
  (fp_line (start 1.61 -1) (end 2.59 -1) (layer F.SilkS) (width 0.12))
  (fp_line (start 5.81 -1) (end 6.79 -1) (layer F.SilkS) (width 0.12))
  (fp_line (start 10.01 -1) (end 10.99 -1) (layer F.SilkS) (width 0.12))
  (fp_line (start 14.21 -1) (end 15.19 -1) (layer F.SilkS) (width 0.12))
  (fp_line (start -2 0) (end -2.6 0.3) (layer F.SilkS) (width 0.12))
  (fp_line (start -2.6 0.3) (end -2.6 -0.3) (layer F.SilkS) (width 0.12))
  (fp_line (start -2.6 -0.3) (end -2 0) (layer F.SilkS) (width 0.12))
  (fp_line (start -1 -1.1) (end 0 -2.514214) (layer F.Fab) (width 0.1))
  (fp_line (start 0 -2.514214) (end 1 -1.1) (layer F.Fab) (width 0.1))
  (fp_line (start 8.4 -14.4) (end -3.2 -14.4) (layer F.CrtYd) (width 0.05))
  (fp_line (start -3.2 -14.4) (end -3.2 -7.8) (layer F.CrtYd) (width 0.05))
  (fp_line (start -3.2 -7.8) (end -8.2 -7.8) (layer F.CrtYd) (width 0.05))
  (fp_line (start -8.2 -7.8) (end -8.2 -0.6) (layer F.CrtYd) (width 0.05))
  (fp_line (start -8.2 -0.6) (end -1.85 -0.6) (layer F.CrtYd) (width 0.05))
  (fp_line (start -1.85 -0.6) (end -1.85 7.85) (layer F.CrtYd) (width 0.05))
  (fp_line (start -1.85 7.85) (end 8.4 7.85) (layer F.CrtYd) (width 0.05))
  (fp_line (start 8.4 -14.4) (end 20 -14.4) (layer F.CrtYd) (width 0.05))
  (fp_line (start 20 -14.4) (end 20 -7.8) (layer F.CrtYd) (width 0.05))
  (fp_line (start 20 -7.8) (end 25 -7.8) (layer F.CrtYd) (width 0.05))
  (fp_line (start 25 -7.8) (end 25 -0.6) (layer F.CrtYd) (width 0.05))
  (fp_line (start 25 -0.6) (end 18.65 -0.6) (layer F.CrtYd) (width 0.05))
  (fp_line (start 18.65 -0.6) (end 18.65 7.85) (layer F.CrtYd) (width 0.05))
  (fp_line (start 18.65 7.85) (end 8.4 7.85) (layer F.CrtYd) (width 0.05))
  (pad 1 thru_hole rect (at 0 0) (size 2.7 3.7) (drill 1.8) (layers *.Cu *.Mask))
  (pad 2 thru_hole oval (at 4.2 0) (size 2.7 3.7) (drill 1.8) (layers *.Cu *.Mask))
  (pad 3 thru_hole oval (at 8.4 0) (size 2.7 3.7) (drill 1.8) (layers *.Cu *.Mask))
  (pad 4 thru_hole oval (at 12.6 0) (size 2.7 3.7) (drill 1.8) (layers *.Cu *.Mask))
  (pad 5 thru_hole oval (at 16.8 0) (size 2.7 3.7) (drill 1.8) (layers *.Cu *.Mask))
  (pad 6 thru_hole oval (at 0 5.5) (size 2.7 3.7) (drill 1.8) (layers *.Cu *.Mask))
  (pad 7 thru_hole oval (at 4.2 5.5) (size 2.7 3.7) (drill 1.8) (layers *.Cu *.Mask))
  (pad 8 thru_hole oval (at 8.4 5.5) (size 2.7 3.7) (drill 1.8) (layers *.Cu *.Mask))
  (pad 9 thru_hole oval (at 12.6 5.5) (size 2.7 3.7) (drill 1.8) (layers *.Cu *.Mask))
  (pad 10 thru_hole oval (at 16.8 5.5) (size 2.7 3.7) (drill 1.8) (layers *.Cu *.Mask))
  (pad "" np_thru_hole circle (at -4.5 -4.2) (size 3.2 3.2) (drill 3.2) (layers *.Cu *.Mask))
  (pad "" np_thru_hole circle (at 21.3 -4.2) (size 3.2 3.2) (drill 3.2) (layers *.Cu *.Mask))
  (fp_text user %R (at 8.4 -13.2) (layer F.Fab)
    (effects (font (size 1 1) (thickness 0.15)))
  )
  (model ${KIPRJMOD}/kicad_libs_k/models_k.3d/Connector_Molex_k.3dshapes/Molex_Mini-Fit_Jr_5569-10A1_2x05_P4.20mm_Horizontal_k.wrl
    (at (xyz 0 0 0))
    (scale (xyz 1 1 1))
    (rotate (xyz 0 0 0))
  )
)