(module Molex_MicroClasp_55932-1330_1x13_P2.00mm_Vertical (layer F.Cu) (tedit 5A11B45E)
  (descr "Molex MicroClasp Wire-to-Board System, 55932-1330, 13 Pins (http://www.molex.com/pdm_docs/sd/559320530_sd.pdf), generated with kicad-footprint-generator")
  (tags "connector Molex MicroClasp side entry")
  (fp_text reference REF** (at 12 -4.9) (layer F.SilkS)
    (effects (font (size 1 1) (thickness 0.15)))
  )
  (fp_text value Molex_MicroClasp_55932-1330_1x13_P2.00mm_Vertical (at 12 4.2) (layer F.Fab)
    (effects (font (size 1 1) (thickness 0.15)))
  )
  (fp_line (start 12 -3.7) (end 8.61 -3.7) (layer F.Fab) (width 0.1))
  (fp_line (start 8.61 -3.7) (end 8.61 -2.8) (layer F.Fab) (width 0.1))
  (fp_line (start 8.61 -2.8) (end -3 -2.8) (layer F.Fab) (width 0.1))
  (fp_line (start -3 -2.8) (end -3 3) (layer F.Fab) (width 0.1))
  (fp_line (start -3 3) (end 12 3) (layer F.Fab) (width 0.1))
  (fp_line (start 12 -3.7) (end 15.39 -3.7) (layer F.Fab) (width 0.1))
  (fp_line (start 15.39 -3.7) (end 15.39 -2.8) (layer F.Fab) (width 0.1))
  (fp_line (start 15.39 -2.8) (end 27 -2.8) (layer F.Fab) (width 0.1))
  (fp_line (start 27 -2.8) (end 27 3) (layer F.Fab) (width 0.1))
  (fp_line (start 27 3) (end 12 3) (layer F.Fab) (width 0.1))
  (fp_line (start 12 -3.81) (end 8.5 -3.81) (layer F.SilkS) (width 0.12))
  (fp_line (start 8.5 -3.81) (end 8.5 -2.91) (layer F.SilkS) (width 0.12))
  (fp_line (start 8.5 -2.91) (end -3.11 -2.91) (layer F.SilkS) (width 0.12))
  (fp_line (start -3.11 -2.91) (end -3.11 3.11) (layer F.SilkS) (width 0.12))
  (fp_line (start -3.11 3.11) (end 12 3.11) (layer F.SilkS) (width 0.12))
  (fp_line (start 12 -3.81) (end 15.5 -3.81) (layer F.SilkS) (width 0.12))
  (fp_line (start 15.5 -3.81) (end 15.5 -2.91) (layer F.SilkS) (width 0.12))
  (fp_line (start 15.5 -2.91) (end 27.11 -2.91) (layer F.SilkS) (width 0.12))
  (fp_line (start 27.11 -2.91) (end 27.11 3.11) (layer F.SilkS) (width 0.12))
  (fp_line (start 27.11 3.11) (end 12 3.11) (layer F.SilkS) (width 0.12))
  (fp_line (start -3.41 1) (end -3.41 3.41) (layer F.SilkS) (width 0.12))
  (fp_line (start -3.41 3.41) (end -1 3.41) (layer F.SilkS) (width 0.12))
  (fp_line (start -0.5 3) (end 0 2.292893) (layer F.Fab) (width 0.1))
  (fp_line (start 0 2.292893) (end 0.5 3) (layer F.Fab) (width 0.1))
  (fp_line (start -3.5 -4.2) (end -3.5 3.5) (layer F.CrtYd) (width 0.05))
  (fp_line (start -3.5 3.5) (end 27.5 3.5) (layer F.CrtYd) (width 0.05))
  (fp_line (start 27.5 3.5) (end 27.5 -4.2) (layer F.CrtYd) (width 0.05))
  (fp_line (start 27.5 -4.2) (end -3.5 -4.2) (layer F.CrtYd) (width 0.05))
  (pad 1 thru_hole rect (at 0 0) (size 1.2 1.8) (drill 0.8) (layers *.Cu *.Mask))
  (pad 2 thru_hole oval (at 2 0) (size 1.2 1.8) (drill 0.8) (layers *.Cu *.Mask))
  (pad 3 thru_hole oval (at 4 0) (size 1.2 1.8) (drill 0.8) (layers *.Cu *.Mask))
  (pad 4 thru_hole oval (at 6 0) (size 1.2 1.8) (drill 0.8) (layers *.Cu *.Mask))
  (pad 5 thru_hole oval (at 8 0) (size 1.2 1.8) (drill 0.8) (layers *.Cu *.Mask))
  (pad 6 thru_hole oval (at 10 0) (size 1.2 1.8) (drill 0.8) (layers *.Cu *.Mask))
  (pad 7 thru_hole oval (at 12 0) (size 1.2 1.8) (drill 0.8) (layers *.Cu *.Mask))
  (pad 8 thru_hole oval (at 14 0) (size 1.2 1.8) (drill 0.8) (layers *.Cu *.Mask))
  (pad 9 thru_hole oval (at 16 0) (size 1.2 1.8) (drill 0.8) (layers *.Cu *.Mask))
  (pad 10 thru_hole oval (at 18 0) (size 1.2 1.8) (drill 0.8) (layers *.Cu *.Mask))
  (pad 11 thru_hole oval (at 20 0) (size 1.2 1.8) (drill 0.8) (layers *.Cu *.Mask))
  (pad 12 thru_hole oval (at 22 0) (size 1.2 1.8) (drill 0.8) (layers *.Cu *.Mask))
  (pad 13 thru_hole oval (at 24 0) (size 1.2 1.8) (drill 0.8) (layers *.Cu *.Mask))
  (fp_text user %R (at 12 -2.1) (layer F.Fab)
    (effects (font (size 1 1) (thickness 0.15)))
  )
  (model ${KIPRJMOD}/kicad_libs_k/models_k.3d/Connector_Molex_k.3dshapes/Molex_MicroClasp_55932-1330_1x13_P2.00mm_Vertical_k.wrl
    (at (xyz 0 0 0))
    (scale (xyz 1 1 1))
    (rotate (xyz 0 0 0))
  )
)