(module Molex_Nano-Fit_105309-xx06_1x06_P2.50mm_Vertical (layer F.Cu) (tedit 5A17387E)
  (descr "Molex Nano-Fit Power Connectors, 105309-xx06, 6 Pins per row (http://www.molex.com/pdm_docs/sd/1053091203_sd.pdf), generated with kicad-footprint-generator")
  (tags "connector Molex Nano-Fit side entry")
  (fp_text reference REF** (at 0 -2.92) (layer F.SilkS)
    (effects (font (size 1 1) (thickness 0.15)))
  )
  (fp_text value Molex_Nano-Fit_105309-xx06_1x06_P2.50mm_Vertical (at 0 15.42) (layer F.Fab)
    (effects (font (size 1 1) (thickness 0.15)))
  )
  (fp_line (start 1.74 6.25) (end 1.74 -1.72) (layer F.Fab) (width 0.1))
  (fp_line (start 1.74 -1.72) (end -1.74 -1.72) (layer F.Fab) (width 0.1))
  (fp_line (start -1.74 -1.72) (end -1.74 3.65) (layer F.Fab) (width 0.1))
  (fp_line (start -1.74 3.65) (end -4.6 3.65) (layer F.Fab) (width 0.1))
  (fp_line (start -4.6 3.65) (end -4.6 6.25) (layer F.Fab) (width 0.1))
  (fp_line (start 1.74 6.25) (end 1.74 14.22) (layer F.Fab) (width 0.1))
  (fp_line (start 1.74 14.22) (end -1.74 14.22) (layer F.Fab) (width 0.1))
  (fp_line (start -1.74 14.22) (end -1.74 8.85) (layer F.Fab) (width 0.1))
  (fp_line (start -1.74 8.85) (end -4.6 8.85) (layer F.Fab) (width 0.1))
  (fp_line (start -4.6 8.85) (end -4.6 6.25) (layer F.Fab) (width 0.1))
  (fp_line (start 1.85 6.25) (end 1.85 -1.83) (layer F.SilkS) (width 0.12))
  (fp_line (start 1.85 -1.83) (end -1.85 -1.83) (layer F.SilkS) (width 0.12))
  (fp_line (start -1.85 -1.83) (end -1.85 3.54) (layer F.SilkS) (width 0.12))
  (fp_line (start -1.85 3.54) (end -4.71 3.54) (layer F.SilkS) (width 0.12))
  (fp_line (start -4.71 3.54) (end -4.71 6.25) (layer F.SilkS) (width 0.12))
  (fp_line (start 1.85 6.25) (end 1.85 14.33) (layer F.SilkS) (width 0.12))
  (fp_line (start 1.85 14.33) (end -1.85 14.33) (layer F.SilkS) (width 0.12))
  (fp_line (start -1.85 14.33) (end -1.85 8.96) (layer F.SilkS) (width 0.12))
  (fp_line (start -1.85 8.96) (end -4.71 8.96) (layer F.SilkS) (width 0.12))
  (fp_line (start -4.71 8.96) (end -4.71 6.25) (layer F.SilkS) (width 0.12))
  (fp_line (start 2.24 6.25) (end 2.24 -2.22) (layer F.CrtYd) (width 0.05))
  (fp_line (start 2.24 -2.22) (end -2.24 -2.22) (layer F.CrtYd) (width 0.05))
  (fp_line (start -2.24 -2.22) (end -2.24 3.15) (layer F.CrtYd) (width 0.05))
  (fp_line (start -2.24 3.15) (end -5.1 3.15) (layer F.CrtYd) (width 0.05))
  (fp_line (start -5.1 3.15) (end -5.1 6.25) (layer F.CrtYd) (width 0.05))
  (fp_line (start 2.24 6.25) (end 2.24 14.72) (layer F.CrtYd) (width 0.05))
  (fp_line (start 2.24 14.72) (end -2.24 14.72) (layer F.CrtYd) (width 0.05))
  (fp_line (start -2.24 14.72) (end -2.24 9.35) (layer F.CrtYd) (width 0.05))
  (fp_line (start -2.24 9.35) (end -5.1 9.35) (layer F.CrtYd) (width 0.05))
  (fp_line (start -5.1 9.35) (end -5.1 6.25) (layer F.CrtYd) (width 0.05))
  (fp_line (start -4.1 4.15) (end -4.1 8.35) (layer F.Fab) (width 0.1))
  (fp_line (start -4.1 8.35) (end -2.02 8.35) (layer F.Fab) (width 0.1))
  (fp_line (start -2.02 8.35) (end -2.02 4.15) (layer F.Fab) (width 0.1))
  (fp_line (start -2.02 4.15) (end -4.1 4.15) (layer F.Fab) (width 0.1))
  (fp_line (start 0 -2.13) (end -2.15 -2.13) (layer F.SilkS) (width 0.12))
  (fp_line (start -2.15 -2.13) (end -2.15 0) (layer F.SilkS) (width 0.12))
  (fp_line (start -0.5 -1.72) (end 0 -1.012893) (layer F.Fab) (width 0.1))
  (fp_line (start 0 -1.012893) (end 0.5 -1.72) (layer F.Fab) (width 0.1))
  (pad 1 thru_hole rect (at 0 0) (size 2.2 1.7) (drill 1.2) (layers *.Cu *.Mask))
  (pad 2 thru_hole oval (at 0 2.5) (size 2.2 1.7) (drill 1.2) (layers *.Cu *.Mask))
  (pad 3 thru_hole oval (at 0 5) (size 2.2 1.7) (drill 1.2) (layers *.Cu *.Mask))
  (pad 4 thru_hole oval (at 0 7.5) (size 2.2 1.7) (drill 1.2) (layers *.Cu *.Mask))
  (pad 5 thru_hole oval (at 0 10) (size 2.2 1.7) (drill 1.2) (layers *.Cu *.Mask))
  (pad 6 thru_hole oval (at 0 12.5) (size 2.2 1.7) (drill 1.2) (layers *.Cu *.Mask))
  (pad "" np_thru_hole circle (at -1.34 6.25) (size 1.3 1.3) (drill 1.3) (layers *.Cu *.Mask))
  (fp_text user %R (at 1.1 6.25 90) (layer F.Fab)
    (effects (font (size 0.87 0.87) (thickness 0.13)))
  )
  (model ${KIPRJMOD}/kicad_libs_k/models_k.3d/Connector_Molex_k.3dshapes/Molex_Nano-Fit_105309-xx06_1x06_P2.50mm_Vertical_k.wrl
    (at (xyz 0 0 0))
    (scale (xyz 1 1 1))
    (rotate (xyz 0 0 0))
  )
)