(module Molex_Sabre_43160-0103_1x03_P7.49mm_Vertical (layer F.Cu) (tedit 5A18AC76)
  (descr "Molex Sabre Power Connector, 43160-0103, 3 Pins per row (http://www.molex.com/pdm_docs/sd/431600105_sd.pdf), generated with kicad-footprint-generator")
  (tags "connector Molex Sabre side entry")
  (fp_text reference REF** (at 7.49 -10.7) (layer F.SilkS)
    (effects (font (size 1 1) (thickness 0.15)))
  )
  (fp_text value Molex_Sabre_43160-0103_1x03_P7.49mm_Vertical (at 7.49 5.08) (layer F.Fab)
    (effects (font (size 1 1) (thickness 0.15)))
  )
  (fp_line (start -2.15 -5.155) (end -2.15 1.975) (layer B.SilkS) (width 0.12))
  (fp_line (start -2.15 1.975) (end 2.15 1.975) (layer B.SilkS) (width 0.12))
  (fp_line (start 2.15 1.975) (end 2.15 -5.155) (layer B.SilkS) (width 0.12))
  (fp_line (start 2.15 -5.155) (end -2.15 -5.155) (layer B.SilkS) (width 0.12))
  (fp_line (start -6.79 -7.65) (end -6.79 3.88) (layer F.Fab) (width 0.1))
  (fp_line (start -6.79 3.88) (end 21.77 3.88) (layer F.Fab) (width 0.1))
  (fp_line (start 21.77 3.88) (end 21.77 -7.65) (layer F.Fab) (width 0.1))
  (fp_line (start 21.77 -7.65) (end -6.79 -7.65) (layer F.Fab) (width 0.1))
  (fp_line (start 5.965 -7.65) (end 5.965 -9.5) (layer F.Fab) (width 0.1))
  (fp_line (start 5.965 -9.5) (end 9.015 -9.5) (layer F.Fab) (width 0.1))
  (fp_line (start 9.015 -9.5) (end 9.015 -7.65) (layer F.Fab) (width 0.1))
  (fp_line (start -6.9 -7.76) (end -6.9 3.99) (layer F.SilkS) (width 0.12))
  (fp_line (start -6.9 3.99) (end 21.88 3.99) (layer F.SilkS) (width 0.12))
  (fp_line (start 21.88 3.99) (end 21.88 -7.76) (layer F.SilkS) (width 0.12))
  (fp_line (start 21.88 -7.76) (end -6.9 -7.76) (layer F.SilkS) (width 0.12))
  (fp_line (start 5.855 -7.76) (end 5.855 -9.61) (layer F.SilkS) (width 0.12))
  (fp_line (start 5.855 -9.61) (end 9.125 -9.61) (layer F.SilkS) (width 0.12))
  (fp_line (start 9.125 -9.61) (end 9.125 -7.76) (layer F.SilkS) (width 0.12))
  (fp_line (start -1.2 -7.65) (end 0 -5.952944) (layer F.Fab) (width 0.1))
  (fp_line (start 0 -5.952944) (end 1.2 -7.65) (layer F.Fab) (width 0.1))
  (fp_line (start 0 -8.06) (end 0.4 -8.625685) (layer F.SilkS) (width 0.12))
  (fp_line (start 0.4 -8.625685) (end -0.4 -8.625685) (layer F.SilkS) (width 0.12))
  (fp_line (start -0.4 -8.625685) (end 0 -8.06) (layer F.SilkS) (width 0.12))
  (fp_line (start -7.29 -10) (end -7.29 4.38) (layer F.CrtYd) (width 0.05))
  (fp_line (start -7.29 4.38) (end 22.27 4.38) (layer F.CrtYd) (width 0.05))
  (fp_line (start 22.27 4.38) (end 22.27 -10) (layer F.CrtYd) (width 0.05))
  (fp_line (start 22.27 -10) (end -7.29 -10) (layer F.CrtYd) (width 0.05))
  (pad 1 thru_hole rect (at 0 0) (size 3.78 3.43) (drill 1.78) (layers *.Cu *.Mask))
  (pad 2 thru_hole rect (at 7.49 0) (size 3.78 3.43) (drill 1.78) (layers *.Cu *.Mask))
  (pad 3 thru_hole rect (at 14.98 0) (size 3.78 3.43) (drill 1.78) (layers *.Cu *.Mask))
  (pad 1 thru_hole rect (at 0 -3.18) (size 3.78 3.43) (drill 1.78) (layers *.Cu *.Mask))
  (pad 2 thru_hole rect (at 7.49 -3.18) (size 3.78 3.43) (drill 1.78) (layers *.Cu *.Mask))
  (pad 3 thru_hole rect (at 14.98 -3.18) (size 3.78 3.43) (drill 1.78) (layers *.Cu *.Mask))
  (fp_text user %R (at 7.49 3.18) (layer F.Fab)
    (effects (font (size 1 1) (thickness 0.15)))
  )
  (model ${KIPRJMOD}/kicad_libs_k/models_k.3d/Connector_Molex_k.3dshapes/Molex_Sabre_43160-0103_1x03_P7.49mm_Vertical_k.wrl
    (at (xyz 0 0 0))
    (scale (xyz 1 1 1))
    (rotate (xyz 0 0 0))
  )
)