(module Molex_Pico-Clasp_501331-0307_1x03-1MP_P1.00mm_Vertical (layer F.Cu) (tedit 5AA46ED0)
  (descr "Molex Pico-Clasp series connector, 501331-0307 (http://www.molex.com/pdm_docs/sd/5013310207_sd.pdf), generated with kicad-footprint-generator")
  (tags "connector Molex Pico-Clasp side entry")
  (attr smd)
  (fp_text reference REF** (at 0 -3.3) (layer F.SilkS)
    (effects (font (size 1 1) (thickness 0.15)))
  )
  (fp_text value Molex_Pico-Clasp_501331-0307_1x03-1MP_P1.00mm_Vertical (at 0 3.3) (layer F.Fab)
    (effects (font (size 1 1) (thickness 0.15)))
  )
  (fp_line (start -2.5 1.15) (end 2.5 1.15) (layer F.Fab) (width 0.1))
  (fp_line (start -2.61 -0.04) (end -2.61 1.26) (layer F.SilkS) (width 0.12))
  (fp_line (start -2.61 1.26) (end -1.56 1.26) (layer F.SilkS) (width 0.12))
  (fp_line (start -1.56 1.26) (end -1.56 2.1) (layer F.SilkS) (width 0.12))
  (fp_line (start 2.61 -0.04) (end 2.61 1.26) (layer F.SilkS) (width 0.12))
  (fp_line (start 2.61 1.26) (end 1.56 1.26) (layer F.SilkS) (width 0.12))
  (fp_line (start -1.44 -1.96) (end 1.44 -1.96) (layer F.SilkS) (width 0.12))
  (fp_line (start -2.5 -1.85) (end 2.5 -1.85) (layer F.Fab) (width 0.1))
  (fp_line (start -2.5 1.15) (end -2.5 -1.85) (layer F.Fab) (width 0.1))
  (fp_line (start 2.5 1.15) (end 2.5 -1.85) (layer F.Fab) (width 0.1))
  (fp_line (start -1.125 -0.25) (end -1.125 0.25) (layer F.Fab) (width 0.1))
  (fp_line (start -1.125 0.25) (end -0.875 0.25) (layer F.Fab) (width 0.1))
  (fp_line (start -0.875 0.25) (end -0.875 -0.25) (layer F.Fab) (width 0.1))
  (fp_line (start -0.875 -0.25) (end -1.125 -0.25) (layer F.Fab) (width 0.1))
  (fp_line (start -0.125 -0.25) (end -0.125 0.25) (layer F.Fab) (width 0.1))
  (fp_line (start -0.125 0.25) (end 0.125 0.25) (layer F.Fab) (width 0.1))
  (fp_line (start 0.125 0.25) (end 0.125 -0.25) (layer F.Fab) (width 0.1))
  (fp_line (start 0.125 -0.25) (end -0.125 -0.25) (layer F.Fab) (width 0.1))
  (fp_line (start 0.875 -0.25) (end 0.875 0.25) (layer F.Fab) (width 0.1))
  (fp_line (start 0.875 0.25) (end 1.125 0.25) (layer F.Fab) (width 0.1))
  (fp_line (start 1.125 0.25) (end 1.125 -0.25) (layer F.Fab) (width 0.1))
  (fp_line (start 1.125 -0.25) (end 0.875 -0.25) (layer F.Fab) (width 0.1))
  (fp_line (start -3.4 -2.6) (end -3.4 2.6) (layer F.CrtYd) (width 0.05))
  (fp_line (start -3.4 2.6) (end 3.4 2.6) (layer F.CrtYd) (width 0.05))
  (fp_line (start 3.4 2.6) (end 3.4 -2.6) (layer F.CrtYd) (width 0.05))
  (fp_line (start 3.4 -2.6) (end -3.4 -2.6) (layer F.CrtYd) (width 0.05))
  (fp_line (start -1.5 1.15) (end -1 0.442893) (layer F.Fab) (width 0.1))
  (fp_line (start -1 0.442893) (end -0.5 1.15) (layer F.Fab) (width 0.1))
  (pad 1 smd rect (at -1 1.325) (size 0.6 1.55) (layers F.Cu F.Mask F.Paste))
  (pad 2 smd rect (at 0 1.325) (size 0.6 1.55) (layers F.Cu F.Mask F.Paste))
  (pad 3 smd rect (at 1 1.325) (size 0.6 1.55) (layers F.Cu F.Mask F.Paste))
  (pad MP smd rect (at -2.3 -1.2) (size 1.2 1.8) (layers F.Cu F.Mask F.Paste))
  (pad MP smd rect (at 2.3 -1.2) (size 1.2 1.8) (layers F.Cu F.Mask F.Paste))
  (fp_text user %R (at 0 -1.15) (layer F.Fab)
    (effects (font (size 1 1) (thickness 0.15)))
  )
  (model ${KIPRJMOD}/kicad_libs_k/models_k.3d/Connector_Molex_k.3dshapes/Molex_Pico-Clasp_501331-0307_1x03-1MP_P1.00mm_Vertical_k.wrl
    (at (xyz 0 0 0))
    (scale (xyz 1 1 1))
    (rotate (xyz 0 0 0))
  )
)