(module Molex_Pico-EZmate_78171-0005_1x05-1MP_P1.20mm_Vertical (layer F.Cu) (tedit 5AA46ED0)
  (descr "Molex Pico-EZmate series connector, 78171-0005 (http://www.molex.com/pdm_docs/sd/781710002_sd.pdf), generated with kicad-footprint-generator")
  (tags "connector Molex Pico-EZmate side entry")
  (attr smd)
  (fp_text reference REF** (at 0 -3.5) (layer F.SilkS)
    (effects (font (size 1 1) (thickness 0.15)))
  )
  (fp_text value Molex_Pico-EZmate_78171-0005_1x05-1MP_P1.20mm_Vertical (at 0 3.72) (layer F.Fab)
    (effects (font (size 1 1) (thickness 0.15)))
  )
  (fp_line (start -3.9 -1.98) (end 3.9 -1.98) (layer F.Fab) (width 0.1))
  (fp_line (start -4.01 1.24) (end -4.01 -2.09) (layer F.SilkS) (width 0.12))
  (fp_line (start -4.01 -2.09) (end -2.96 -2.09) (layer F.SilkS) (width 0.12))
  (fp_line (start -2.96 -2.09) (end -2.96 -2.3) (layer F.SilkS) (width 0.12))
  (fp_line (start 4.01 1.24) (end 4.01 -2.09) (layer F.SilkS) (width 0.12))
  (fp_line (start 4.01 -2.09) (end 2.96 -2.09) (layer F.SilkS) (width 0.12))
  (fp_line (start -2.94 2.63) (end -2.44 2.63) (layer F.SilkS) (width 0.12))
  (fp_line (start -2.44 2.63) (end -2.14 2.13) (layer F.SilkS) (width 0.12))
  (fp_line (start -2.14 2.13) (end 2.14 2.13) (layer F.SilkS) (width 0.12))
  (fp_line (start 2.14 2.13) (end 2.44 2.63) (layer F.SilkS) (width 0.12))
  (fp_line (start 2.44 2.63) (end 2.94 2.63) (layer F.SilkS) (width 0.12))
  (fp_line (start -3.9 2.52) (end -2.55 2.52) (layer F.Fab) (width 0.1))
  (fp_line (start -2.55 2.52) (end -2.25 2.02) (layer F.Fab) (width 0.1))
  (fp_line (start -2.25 2.02) (end 2.25 2.02) (layer F.Fab) (width 0.1))
  (fp_line (start 2.25 2.02) (end 2.55 2.52) (layer F.Fab) (width 0.1))
  (fp_line (start 2.55 2.52) (end 3.9 2.52) (layer F.Fab) (width 0.1))
  (fp_line (start -3.9 -1.98) (end -3.9 2.52) (layer F.Fab) (width 0.1))
  (fp_line (start 3.9 -1.98) (end 3.9 2.52) (layer F.Fab) (width 0.1))
  (fp_line (start -4.4 -2.8) (end -4.4 3.02) (layer F.CrtYd) (width 0.05))
  (fp_line (start -4.4 3.02) (end 4.4 3.02) (layer F.CrtYd) (width 0.05))
  (fp_line (start 4.4 3.02) (end 4.4 -2.8) (layer F.CrtYd) (width 0.05))
  (fp_line (start 4.4 -2.8) (end -4.4 -2.8) (layer F.CrtYd) (width 0.05))
  (fp_line (start -2.9 -1.98) (end -2.4 -1.272893) (layer F.Fab) (width 0.1))
  (fp_line (start -2.4 -1.272893) (end -1.9 -1.98) (layer F.Fab) (width 0.1))
  (fp_line (start -2.65 -3.153553) (end -2.4 -2.8) (layer F.SilkS) (width 0.12))
  (fp_line (start -2.4 -2.8) (end -2.15 -3.153553) (layer F.SilkS) (width 0.12))
  (fp_line (start -2.15 -3.153553) (end -2.65 -3.153553) (layer F.SilkS) (width 0.12))
  (pad 1 smd rect (at -2.4 -1.875) (size 0.6 0.85) (layers F.Cu F.Mask F.Paste))
  (pad 2 smd rect (at -1.2 -1.875) (size 0.6 0.85) (layers F.Cu F.Mask F.Paste))
  (pad 3 smd rect (at 0 -1.875) (size 0.6 0.85) (layers F.Cu F.Mask F.Paste))
  (pad 4 smd rect (at 1.2 -1.875) (size 0.6 0.85) (layers F.Cu F.Mask F.Paste))
  (pad 5 smd rect (at 2.4 -1.875) (size 0.6 0.85) (layers F.Cu F.Mask F.Paste))
  (pad MP smd rect (at -3.55 1.9) (size 0.7 0.8) (layers F.Cu F.Mask F.Paste))
  (pad MP smd rect (at 3.55 1.9) (size 0.7 0.8) (layers F.Cu F.Mask F.Paste))
  (fp_text user %R (at 0 0.27) (layer F.Fab)
    (effects (font (size 1 1) (thickness 0.15)))
  )
  (model ${KIPRJMOD}/kicad_libs_k/models_k.3d/Connector_Molex_k.3dshapes/Molex_Pico-EZmate_78171-0005_1x05-1MP_P1.20mm_Vertical_k.wrl
    (at (xyz 0 0 0))
    (scale (xyz 1 1 1))
    (rotate (xyz 0 0 0))
  )
)