(module Molex_MicroClasp_55932-0610_1x06_P2.00mm_Vertical (layer F.Cu) (tedit 5A11B45E)
  (descr "Molex MicroClasp Wire-to-Board System, 55932-0610, with PCB locator, 6 Pins (http://www.molex.com/pdm_docs/sd/559320210_sd.pdf), generated with kicad-footprint-generator")
  (tags "connector Molex MicroClasp side entry")
  (fp_text reference REF** (at 5 -4.9) (layer F.SilkS)
    (effects (font (size 1 1) (thickness 0.15)))
  )
  (fp_text value Molex_MicroClasp_55932-0610_1x06_P2.00mm_Vertical (at 5 4.2) (layer F.Fab)
    (effects (font (size 1 1) (thickness 0.15)))
  )
  (fp_line (start 5 -3.7) (end 1.61 -3.7) (layer F.Fab) (width 0.1))
  (fp_line (start 1.61 -3.7) (end 1.61 -2.8) (layer F.Fab) (width 0.1))
  (fp_line (start 1.61 -2.8) (end -3 -2.8) (layer F.Fab) (width 0.1))
  (fp_line (start -3 -2.8) (end -3 3) (layer F.Fab) (width 0.1))
  (fp_line (start -3 3) (end 5 3) (layer F.Fab) (width 0.1))
  (fp_line (start 5 -3.7) (end 8.39 -3.7) (layer F.Fab) (width 0.1))
  (fp_line (start 8.39 -3.7) (end 8.39 -2.8) (layer F.Fab) (width 0.1))
  (fp_line (start 8.39 -2.8) (end 13 -2.8) (layer F.Fab) (width 0.1))
  (fp_line (start 13 -2.8) (end 13 3) (layer F.Fab) (width 0.1))
  (fp_line (start 13 3) (end 5 3) (layer F.Fab) (width 0.1))
  (fp_line (start 5 -3.81) (end 1.5 -3.81) (layer F.SilkS) (width 0.12))
  (fp_line (start 1.5 -3.81) (end 1.5 -2.91) (layer F.SilkS) (width 0.12))
  (fp_line (start 1.5 -2.91) (end -3.11 -2.91) (layer F.SilkS) (width 0.12))
  (fp_line (start -3.11 -2.91) (end -3.11 3.11) (layer F.SilkS) (width 0.12))
  (fp_line (start -3.11 3.11) (end 5 3.11) (layer F.SilkS) (width 0.12))
  (fp_line (start 5 -3.81) (end 8.5 -3.81) (layer F.SilkS) (width 0.12))
  (fp_line (start 8.5 -3.81) (end 8.5 -2.91) (layer F.SilkS) (width 0.12))
  (fp_line (start 8.5 -2.91) (end 13.11 -2.91) (layer F.SilkS) (width 0.12))
  (fp_line (start 13.11 -2.91) (end 13.11 3.11) (layer F.SilkS) (width 0.12))
  (fp_line (start 13.11 3.11) (end 5 3.11) (layer F.SilkS) (width 0.12))
  (fp_line (start -3.41 1) (end -3.41 3.41) (layer F.SilkS) (width 0.12))
  (fp_line (start -3.41 3.41) (end -1 3.41) (layer F.SilkS) (width 0.12))
  (fp_line (start -0.5 3) (end 0 2.292893) (layer F.Fab) (width 0.1))
  (fp_line (start 0 2.292893) (end 0.5 3) (layer F.Fab) (width 0.1))
  (fp_line (start -3.5 -4.2) (end -3.5 3.5) (layer F.CrtYd) (width 0.05))
  (fp_line (start -3.5 3.5) (end 13.5 3.5) (layer F.CrtYd) (width 0.05))
  (fp_line (start 13.5 3.5) (end 13.5 -4.2) (layer F.CrtYd) (width 0.05))
  (fp_line (start 13.5 -4.2) (end -3.5 -4.2) (layer F.CrtYd) (width 0.05))
  (pad 1 thru_hole rect (at 0 0) (size 1.2 1.8) (drill 0.8) (layers *.Cu *.Mask))
  (pad 2 thru_hole oval (at 2 0) (size 1.2 1.8) (drill 0.8) (layers *.Cu *.Mask))
  (pad 3 thru_hole oval (at 4 0) (size 1.2 1.8) (drill 0.8) (layers *.Cu *.Mask))
  (pad 4 thru_hole oval (at 6 0) (size 1.2 1.8) (drill 0.8) (layers *.Cu *.Mask))
  (pad 5 thru_hole oval (at 8 0) (size 1.2 1.8) (drill 0.8) (layers *.Cu *.Mask))
  (pad 6 thru_hole oval (at 10 0) (size 1.2 1.8) (drill 0.8) (layers *.Cu *.Mask))
  (pad "" np_thru_hole circle (at 12 -1.9) (size 1.3 1.3) (drill 1.3) (layers *.Cu *.Mask))
  (fp_text user %R (at 5 -2.1) (layer F.Fab)
    (effects (font (size 1 1) (thickness 0.15)))
  )
  (model ${KIPRJMOD}/kicad_libs_k/models_k.3d/Connector_Molex_k.3dshapes/Molex_MicroClasp_55932-0610_1x06_P2.00mm_Vertical_k.wrl
    (at (xyz 0 0 0))
    (scale (xyz 1 1 1))
    (rotate (xyz 0 0 0))
  )
)