(module Molex_PicoBlade_53047-0610_1x03_P1.25mm_Vertical (layer F.Cu) (tedit 5A174F43)
  (descr "Molex PicoBlade Connector System, 53047-0610, 3 Pins per row (http://www.molex.com/pdm_docs/sd/530470610_sd.pdf), generated with kicad-footprint-generator")
  (tags "connector Molex PicoBlade side entry")
  (fp_text reference REF** (at 1.25 -3.25) (layer F.SilkS)
    (effects (font (size 1 1) (thickness 0.15)))
  )
  (fp_text value Molex_PicoBlade_53047-0610_1x03_P1.25mm_Vertical (at 1.25 2.35) (layer F.Fab)
    (effects (font (size 1 1) (thickness 0.15)))
  )
  (fp_line (start -1.5 -2.05) (end -1.5 1.15) (layer F.Fab) (width 0.1))
  (fp_line (start -1.5 1.15) (end 4 1.15) (layer F.Fab) (width 0.1))
  (fp_line (start 4 1.15) (end 4 -2.05) (layer F.Fab) (width 0.1))
  (fp_line (start 4 -2.05) (end -1.5 -2.05) (layer F.Fab) (width 0.1))
  (fp_line (start -1.61 -2.16) (end -1.61 1.26) (layer F.SilkS) (width 0.12))
  (fp_line (start -1.61 1.26) (end 4.11 1.26) (layer F.SilkS) (width 0.12))
  (fp_line (start 4.11 1.26) (end 4.11 -2.16) (layer F.SilkS) (width 0.12))
  (fp_line (start 4.11 -2.16) (end -1.61 -2.16) (layer F.SilkS) (width 0.12))
  (fp_line (start 1.25 0.75) (end -1.1 0.75) (layer F.SilkS) (width 0.12))
  (fp_line (start -1.1 0.75) (end -1.1 0) (layer F.SilkS) (width 0.12))
  (fp_line (start -1.1 0) (end -1.3 0) (layer F.SilkS) (width 0.12))
  (fp_line (start -1.3 0) (end -1.3 -0.8) (layer F.SilkS) (width 0.12))
  (fp_line (start -1.3 -0.8) (end -1.1 -0.8) (layer F.SilkS) (width 0.12))
  (fp_line (start -1.1 -0.8) (end -1.1 -1.65) (layer F.SilkS) (width 0.12))
  (fp_line (start -1.1 -1.65) (end 1.25 -1.65) (layer F.SilkS) (width 0.12))
  (fp_line (start 1.25 0.75) (end 3.6 0.75) (layer F.SilkS) (width 0.12))
  (fp_line (start 3.6 0.75) (end 3.6 0) (layer F.SilkS) (width 0.12))
  (fp_line (start 3.6 0) (end 3.8 0) (layer F.SilkS) (width 0.12))
  (fp_line (start 3.8 0) (end 3.8 -0.8) (layer F.SilkS) (width 0.12))
  (fp_line (start 3.8 -0.8) (end 3.6 -0.8) (layer F.SilkS) (width 0.12))
  (fp_line (start 3.6 -0.8) (end 3.6 -1.65) (layer F.SilkS) (width 0.12))
  (fp_line (start 3.6 -1.65) (end 1.25 -1.65) (layer F.SilkS) (width 0.12))
  (fp_line (start -1.9 1.55) (end -1.9 0.55) (layer F.SilkS) (width 0.12))
  (fp_line (start -1.9 1.55) (end -0.9 1.55) (layer F.SilkS) (width 0.12))
  (fp_line (start -0.5 1.15) (end 0 0.442893) (layer F.Fab) (width 0.1))
  (fp_line (start 0 0.442893) (end 0.5 1.15) (layer F.Fab) (width 0.1))
  (fp_line (start -2 -2.55) (end -2 1.65) (layer F.CrtYd) (width 0.05))
  (fp_line (start -2 1.65) (end 4.5 1.65) (layer F.CrtYd) (width 0.05))
  (fp_line (start 4.5 1.65) (end 4.5 -2.55) (layer F.CrtYd) (width 0.05))
  (fp_line (start 4.5 -2.55) (end -2 -2.55) (layer F.CrtYd) (width 0.05))
  (pad 1 thru_hole rect (at 0 0) (size 0.8 1.3) (drill 0.5) (layers *.Cu *.Mask))
  (pad 2 thru_hole oval (at 1.25 0) (size 0.8 1.3) (drill 0.5) (layers *.Cu *.Mask))
  (pad 3 thru_hole oval (at 2.5 0) (size 0.8 1.3) (drill 0.5) (layers *.Cu *.Mask))
  (fp_text user %R (at 1.25 -1.35) (layer F.Fab)
    (effects (font (size 1 1) (thickness 0.15)))
  )
  (model ${KIPRJMOD}/kicad_libs_k/models_k.3d/Connector_Molex_k.3dshapes/Molex_PicoBlade_53047-0610_1x03_P1.25mm_Vertical_k.wrl
    (at (xyz 0 0 0))
    (scale (xyz 1 1 1))
    (rotate (xyz 0 0 0))
  )
)