(module Molex_CLIK-Mate_502382-1570_1x15-1MP_P1.25mm_Vertical (layer F.Cu) (tedit 5AA46ED0)
  (descr "Molex CLIK-Mate series connector, 502382-1570 (http://www.molex.com/pdm_docs/sd/5023820270_sd.pdf), generated with kicad-footprint-generator")
  (tags "connector Molex CLIK-Mate side entry")
  (attr smd)
  (fp_text reference REF** (at 0 -4.7) (layer F.SilkS)
    (effects (font (size 1 1) (thickness 0.15)))
  )
  (fp_text value Molex_CLIK-Mate_502382-1570_1x15-1MP_P1.25mm_Vertical (at 0 4) (layer F.Fab)
    (effects (font (size 1 1) (thickness 0.15)))
  )
  (fp_line (start -11.05 1.95) (end 11.05 1.95) (layer F.Fab) (width 0.1))
  (fp_line (start -11.16 0.26) (end -11.16 2.06) (layer F.SilkS) (width 0.12))
  (fp_line (start -11.16 2.06) (end -9.31 2.06) (layer F.SilkS) (width 0.12))
  (fp_line (start -9.31 2.06) (end -9.31 2.8) (layer F.SilkS) (width 0.12))
  (fp_line (start 11.16 0.26) (end 11.16 2.06) (layer F.SilkS) (width 0.12))
  (fp_line (start 11.16 2.06) (end 9.31 2.06) (layer F.SilkS) (width 0.12))
  (fp_line (start -11.16 -3.06) (end -11.16 -3.61) (layer F.SilkS) (width 0.12))
  (fp_line (start -11.16 -3.61) (end 11.16 -3.61) (layer F.SilkS) (width 0.12))
  (fp_line (start 11.16 -3.61) (end 11.16 -3.06) (layer F.SilkS) (width 0.12))
  (fp_line (start -11.05 -3.5) (end 11.05 -3.5) (layer F.Fab) (width 0.1))
  (fp_line (start -11.05 1.95) (end -11.05 -3.5) (layer F.Fab) (width 0.1))
  (fp_line (start 11.05 1.95) (end 11.05 -3.5) (layer F.Fab) (width 0.1))
  (fp_line (start -11.6 -4) (end -11.6 3.3) (layer F.CrtYd) (width 0.05))
  (fp_line (start -11.6 3.3) (end 11.6 3.3) (layer F.CrtYd) (width 0.05))
  (fp_line (start 11.6 3.3) (end 11.6 -4) (layer F.CrtYd) (width 0.05))
  (fp_line (start 11.6 -4) (end -11.6 -4) (layer F.CrtYd) (width 0.05))
  (fp_line (start -9.25 1.95) (end -8.75 1.242893) (layer F.Fab) (width 0.1))
  (fp_line (start -8.75 1.242893) (end -8.25 1.95) (layer F.Fab) (width 0.1))
  (pad 1 smd rect (at -8.75 1.95) (size 0.6 1.7) (layers F.Cu F.Mask F.Paste))
  (pad 2 smd rect (at -7.5 1.95) (size 0.6 1.7) (layers F.Cu F.Mask F.Paste))
  (pad 3 smd rect (at -6.25 1.95) (size 0.6 1.7) (layers F.Cu F.Mask F.Paste))
  (pad 4 smd rect (at -5 1.95) (size 0.6 1.7) (layers F.Cu F.Mask F.Paste))
  (pad 5 smd rect (at -3.75 1.95) (size 0.6 1.7) (layers F.Cu F.Mask F.Paste))
  (pad 6 smd rect (at -2.5 1.95) (size 0.6 1.7) (layers F.Cu F.Mask F.Paste))
  (pad 7 smd rect (at -1.25 1.95) (size 0.6 1.7) (layers F.Cu F.Mask F.Paste))
  (pad 8 smd rect (at 0 1.95) (size 0.6 1.7) (layers F.Cu F.Mask F.Paste))
  (pad 9 smd rect (at 1.25 1.95) (size 0.6 1.7) (layers F.Cu F.Mask F.Paste))
  (pad 10 smd rect (at 2.5 1.95) (size 0.6 1.7) (layers F.Cu F.Mask F.Paste))
  (pad 11 smd rect (at 3.75 1.95) (size 0.6 1.7) (layers F.Cu F.Mask F.Paste))
  (pad 12 smd rect (at 5 1.95) (size 0.6 1.7) (layers F.Cu F.Mask F.Paste))
  (pad 13 smd rect (at 6.25 1.95) (size 0.6 1.7) (layers F.Cu F.Mask F.Paste))
  (pad 14 smd rect (at 7.5 1.95) (size 0.6 1.7) (layers F.Cu F.Mask F.Paste))
  (pad 15 smd rect (at 8.75 1.95) (size 0.6 1.7) (layers F.Cu F.Mask F.Paste))
  (pad MP smd rect (at -10.6 -1.4) (size 1 2.8) (layers F.Cu F.Mask F.Paste))
  (pad MP smd rect (at 10.6 -1.4) (size 1 2.8) (layers F.Cu F.Mask F.Paste))
  (fp_text user %R (at 0 -0.77) (layer F.Fab)
    (effects (font (size 1 1) (thickness 0.15)))
  )
  (model ${KIPRJMOD}/kicad_libs_k/models_k.3d/Connector_Molex_k.3dshapes/Molex_CLIK-Mate_502382-1570_1x15-1MP_P1.25mm_Vertical_k.wrl
    (at (xyz 0 0 0))
    (scale (xyz 1 1 1))
    (rotate (xyz 0 0 0))
  )
)