(module Molex_PicoBlade_53398-0871_1x08-1MP_P1.25mm_Vertical (layer F.Cu) (tedit 5AA46ED0)
  (descr "Molex PicoBlade series connector, 53398-0871 (http://www.molex.com/pdm_docs/sd/533980271_sd.pdf), generated with kicad-footprint-generator")
  (tags "connector Molex PicoBlade side entry")
  (attr smd)
  (fp_text reference REF** (at 0 -3.1) (layer F.SilkS)
    (effects (font (size 1 1) (thickness 0.15)))
  )
  (fp_text value Molex_PicoBlade_53398-0871_1x08-1MP_P1.25mm_Vertical (at 0 4.2) (layer F.Fab)
    (effects (font (size 1 1) (thickness 0.15)))
  )
  (fp_line (start -5.875 -1.1) (end 5.875 -1.1) (layer F.Fab) (width 0.1))
  (fp_line (start -5.985 -0.26) (end -5.985 -1.21) (layer F.SilkS) (width 0.12))
  (fp_line (start -5.985 -1.21) (end -5.035 -1.21) (layer F.SilkS) (width 0.12))
  (fp_line (start -5.035 -1.21) (end -5.035 -1.9) (layer F.SilkS) (width 0.12))
  (fp_line (start 5.985 -0.26) (end 5.985 -1.21) (layer F.SilkS) (width 0.12))
  (fp_line (start 5.985 -1.21) (end 5.035 -1.21) (layer F.SilkS) (width 0.12))
  (fp_line (start -5.615 2.71) (end 5.615 2.71) (layer F.SilkS) (width 0.12))
  (fp_line (start -5.875 2.6) (end 5.875 2.6) (layer F.Fab) (width 0.1))
  (fp_line (start -5.875 -1.1) (end -5.875 2.6) (layer F.Fab) (width 0.1))
  (fp_line (start 5.875 -1.1) (end 5.875 2.6) (layer F.Fab) (width 0.1))
  (fp_line (start -4.525 1.225) (end -4.525 1.825) (layer F.Fab) (width 0.1))
  (fp_line (start -4.525 1.825) (end -4.225 1.825) (layer F.Fab) (width 0.1))
  (fp_line (start -4.225 1.825) (end -4.225 1.225) (layer F.Fab) (width 0.1))
  (fp_line (start -4.225 1.225) (end -4.525 1.225) (layer F.Fab) (width 0.1))
  (fp_line (start -3.275 1.225) (end -3.275 1.825) (layer F.Fab) (width 0.1))
  (fp_line (start -3.275 1.825) (end -2.975 1.825) (layer F.Fab) (width 0.1))
  (fp_line (start -2.975 1.825) (end -2.975 1.225) (layer F.Fab) (width 0.1))
  (fp_line (start -2.975 1.225) (end -3.275 1.225) (layer F.Fab) (width 0.1))
  (fp_line (start -2.025 1.225) (end -2.025 1.825) (layer F.Fab) (width 0.1))
  (fp_line (start -2.025 1.825) (end -1.725 1.825) (layer F.Fab) (width 0.1))
  (fp_line (start -1.725 1.825) (end -1.725 1.225) (layer F.Fab) (width 0.1))
  (fp_line (start -1.725 1.225) (end -2.025 1.225) (layer F.Fab) (width 0.1))
  (fp_line (start -0.775 1.225) (end -0.775 1.825) (layer F.Fab) (width 0.1))
  (fp_line (start -0.775 1.825) (end -0.475 1.825) (layer F.Fab) (width 0.1))
  (fp_line (start -0.475 1.825) (end -0.475 1.225) (layer F.Fab) (width 0.1))
  (fp_line (start -0.475 1.225) (end -0.775 1.225) (layer F.Fab) (width 0.1))
  (fp_line (start 0.475 1.225) (end 0.475 1.825) (layer F.Fab) (width 0.1))
  (fp_line (start 0.475 1.825) (end 0.775 1.825) (layer F.Fab) (width 0.1))
  (fp_line (start 0.775 1.825) (end 0.775 1.225) (layer F.Fab) (width 0.1))
  (fp_line (start 0.775 1.225) (end 0.475 1.225) (layer F.Fab) (width 0.1))
  (fp_line (start 1.725 1.225) (end 1.725 1.825) (layer F.Fab) (width 0.1))
  (fp_line (start 1.725 1.825) (end 2.025 1.825) (layer F.Fab) (width 0.1))
  (fp_line (start 2.025 1.825) (end 2.025 1.225) (layer F.Fab) (width 0.1))
  (fp_line (start 2.025 1.225) (end 1.725 1.225) (layer F.Fab) (width 0.1))
  (fp_line (start 2.975 1.225) (end 2.975 1.825) (layer F.Fab) (width 0.1))
  (fp_line (start 2.975 1.825) (end 3.275 1.825) (layer F.Fab) (width 0.1))
  (fp_line (start 3.275 1.825) (end 3.275 1.225) (layer F.Fab) (width 0.1))
  (fp_line (start 3.275 1.225) (end 2.975 1.225) (layer F.Fab) (width 0.1))
  (fp_line (start 4.225 1.225) (end 4.225 1.825) (layer F.Fab) (width 0.1))
  (fp_line (start 4.225 1.825) (end 4.525 1.825) (layer F.Fab) (width 0.1))
  (fp_line (start 4.525 1.825) (end 4.525 1.225) (layer F.Fab) (width 0.1))
  (fp_line (start 4.525 1.225) (end 4.225 1.225) (layer F.Fab) (width 0.1))
  (fp_line (start -5.875 2.6) (end -7.375 2.6) (layer F.Fab) (width 0.1))
  (fp_line (start -7.375 2.6) (end -7.575 2.4) (layer F.Fab) (width 0.1))
  (fp_line (start -7.575 2.4) (end -7.575 0.6) (layer F.Fab) (width 0.1))
  (fp_line (start -7.575 0.6) (end -7.375 0.4) (layer F.Fab) (width 0.1))
  (fp_line (start -7.375 0.4) (end -7.375 -0.2) (layer F.Fab) (width 0.1))
  (fp_line (start -7.375 -0.2) (end -5.875 -0.2) (layer F.Fab) (width 0.1))
  (fp_line (start 5.875 2.6) (end 7.375 2.6) (layer F.Fab) (width 0.1))
  (fp_line (start 7.375 2.6) (end 7.575 2.4) (layer F.Fab) (width 0.1))
  (fp_line (start 7.575 2.4) (end 7.575 0.6) (layer F.Fab) (width 0.1))
  (fp_line (start 7.575 0.6) (end 7.375 0.4) (layer F.Fab) (width 0.1))
  (fp_line (start 7.375 0.4) (end 7.375 -0.2) (layer F.Fab) (width 0.1))
  (fp_line (start 7.375 -0.2) (end 5.875 -0.2) (layer F.Fab) (width 0.1))
  (fp_line (start -8.48 -2.4) (end -8.48 3.5) (layer F.CrtYd) (width 0.05))
  (fp_line (start -8.48 3.5) (end 8.48 3.5) (layer F.CrtYd) (width 0.05))
  (fp_line (start 8.48 3.5) (end 8.48 -2.4) (layer F.CrtYd) (width 0.05))
  (fp_line (start 8.48 -2.4) (end -8.48 -2.4) (layer F.CrtYd) (width 0.05))
  (fp_line (start -4.875 -1.1) (end -4.375 -0.392893) (layer F.Fab) (width 0.1))
  (fp_line (start -4.375 -0.392893) (end -3.875 -1.1) (layer F.Fab) (width 0.1))
  (pad 1 smd rect (at -4.375 -1.25) (size 0.8 1.3) (layers F.Cu F.Mask F.Paste))
  (pad 2 smd rect (at -3.125 -1.25) (size 0.8 1.3) (layers F.Cu F.Mask F.Paste))
  (pad 3 smd rect (at -1.875 -1.25) (size 0.8 1.3) (layers F.Cu F.Mask F.Paste))
  (pad 4 smd rect (at -0.625 -1.25) (size 0.8 1.3) (layers F.Cu F.Mask F.Paste))
  (pad 5 smd rect (at 0.625 -1.25) (size 0.8 1.3) (layers F.Cu F.Mask F.Paste))
  (pad 6 smd rect (at 1.875 -1.25) (size 0.8 1.3) (layers F.Cu F.Mask F.Paste))
  (pad 7 smd rect (at 3.125 -1.25) (size 0.8 1.3) (layers F.Cu F.Mask F.Paste))
  (pad 8 smd rect (at 4.375 -1.25) (size 0.8 1.3) (layers F.Cu F.Mask F.Paste))
  (pad MP smd rect (at -6.925 1.5) (size 2.1 3) (layers F.Cu F.Mask F.Paste))
  (pad MP smd rect (at 6.925 1.5) (size 2.1 3) (layers F.Cu F.Mask F.Paste))
  (fp_text user %R (at 0 0.4) (layer F.Fab)
    (effects (font (size 1 1) (thickness 0.15)))
  )
  (model ${KIPRJMOD}/kicad_libs_k/models_k.3d/Connector_Molex_k.3dshapes/Molex_PicoBlade_53398-0871_1x08-1MP_P1.25mm_Vertical_k.wrl
    (at (xyz 0 0 0))
    (scale (xyz 1 1 1))
    (rotate (xyz 0 0 0))
  )
)