(module Molex_Picoflex_90325-0024_2x12_P1.27mm_Vertical (layer F.Cu) (tedit 5A17697F)
  (descr "Molex Picoflex Ribbon-Cable Connectors, 90325-0024, 24 Pins (http://www.molex.com/pdm_docs/sd/903250004_sd.pdf), generated with kicad-footprint-generator")
  (tags "connector Molex Picoflex side entry")
  (fp_text reference REF** (at 1.02 -3.96) (layer F.SilkS)
    (effects (font (size 1 1) (thickness 0.15)))
  )
  (fp_text value Molex_Picoflex_90325-0024_2x12_P1.27mm_Vertical (at 1.02 33.17) (layer F.Fab)
    (effects (font (size 1 1) (thickness 0.15)))
  )
  (fp_arc (start -1.48 -1.8) (end -1.48 -0.85) (angle 180.000000) (layer F.Fab) (width 0.1))
  (fp_arc (start -1.48 -1.8) (end -1.61 -0.72) (angle 180.000000) (layer F.SilkS) (width 0.12))
  (fp_arc (start -1.48 31.01) (end -1.48 31.965) (angle 180.000000) (layer F.Fab) (width 0.1))
  (fp_arc (start -1.48 31.01) (end -1.47 32.095) (angle 170.000000) (layer F.SilkS) (width 0.12))
  (fp_line (start -1.48 -2.755) (end 3.52 -2.755) (layer F.Fab) (width 0.1))
  (fp_line (start -1.48 -2.885) (end 3.65 -2.885) (layer F.SilkS) (width 0.12))
  (fp_line (start 3.52 -2.755) (end 3.52 31.965) (layer F.Fab) (width 0.1))
  (fp_line (start 3.65 -2.885) (end 3.65 32.095) (layer F.SilkS) (width 0.12))
  (fp_line (start 3.52 31.965) (end -1.48 31.965) (layer F.Fab) (width 0.1))
  (fp_line (start 3.65 32.095) (end -1.48 32.095) (layer F.SilkS) (width 0.12))
  (fp_line (start -1.48 -0.845) (end -1.48 -0.5) (layer F.Fab) (width 0.1))
  (fp_line (start -1.48 -0.5) (end -0.98 0) (layer F.Fab) (width 0.1))
  (fp_line (start -0.98 0) (end -1.48 0.5) (layer F.Fab) (width 0.1))
  (fp_line (start -1.48 0.5) (end -1.48 30.055) (layer F.Fab) (width 0.1))
  (fp_line (start -1.61 -0.715) (end -1.61 29.925) (layer F.SilkS) (width 0.12))
  (fp_line (start -1.78 0) (end -2.38 -0.3) (layer F.SilkS) (width 0.12))
  (fp_line (start -2.38 -0.3) (end -2.38 0.3) (layer F.SilkS) (width 0.12))
  (fp_line (start -2.38 0.3) (end -1.78 0) (layer F.SilkS) (width 0.12))
  (fp_line (start -2.93 -3.26) (end -2.93 32.47) (layer F.CrtYd) (width 0.05))
  (fp_line (start -2.93 32.47) (end 4.02 32.47) (layer F.CrtYd) (width 0.05))
  (fp_line (start 4.02 32.47) (end 4.02 -3.26) (layer F.CrtYd) (width 0.05))
  (fp_line (start 4.02 -3.26) (end -2.93 -3.26) (layer F.CrtYd) (width 0.05))
  (pad 1 thru_hole rect (at 0 0) (size 1.8 1.3) (drill 0.8) (layers *.Cu *.Mask))
  (pad 3 thru_hole oval (at 0 2.54) (size 1.8 1.3) (drill 0.8) (layers *.Cu *.Mask))
  (pad 5 thru_hole oval (at 0 5.08) (size 1.8 1.3) (drill 0.8) (layers *.Cu *.Mask))
  (pad 7 thru_hole oval (at 0 7.62) (size 1.8 1.3) (drill 0.8) (layers *.Cu *.Mask))
  (pad 9 thru_hole oval (at 0 10.16) (size 1.8 1.3) (drill 0.8) (layers *.Cu *.Mask))
  (pad 11 thru_hole oval (at 0 12.7) (size 1.8 1.3) (drill 0.8) (layers *.Cu *.Mask))
  (pad 13 thru_hole oval (at 0 15.24) (size 1.8 1.3) (drill 0.8) (layers *.Cu *.Mask))
  (pad 15 thru_hole oval (at 0 17.78) (size 1.8 1.3) (drill 0.8) (layers *.Cu *.Mask))
  (pad 17 thru_hole oval (at 0 20.32) (size 1.8 1.3) (drill 0.8) (layers *.Cu *.Mask))
  (pad 19 thru_hole oval (at 0 22.86) (size 1.8 1.3) (drill 0.8) (layers *.Cu *.Mask))
  (pad 21 thru_hole oval (at 0 25.4) (size 1.8 1.3) (drill 0.8) (layers *.Cu *.Mask))
  (pad 23 thru_hole oval (at 0 27.94) (size 1.8 1.3) (drill 0.8) (layers *.Cu *.Mask))
  (pad 2 thru_hole oval (at 2.54 1.27) (size 1.8 1.3) (drill 0.8) (layers *.Cu *.Mask))
  (pad 4 thru_hole oval (at 2.54 3.81) (size 1.8 1.3) (drill 0.8) (layers *.Cu *.Mask))
  (pad 6 thru_hole oval (at 2.54 6.35) (size 1.8 1.3) (drill 0.8) (layers *.Cu *.Mask))
  (pad 8 thru_hole oval (at 2.54 8.89) (size 1.8 1.3) (drill 0.8) (layers *.Cu *.Mask))
  (pad 10 thru_hole oval (at 2.54 11.43) (size 1.8 1.3) (drill 0.8) (layers *.Cu *.Mask))
  (pad 12 thru_hole oval (at 2.54 13.97) (size 1.8 1.3) (drill 0.8) (layers *.Cu *.Mask))
  (pad 14 thru_hole oval (at 2.54 16.51) (size 1.8 1.3) (drill 0.8) (layers *.Cu *.Mask))
  (pad 16 thru_hole oval (at 2.54 19.05) (size 1.8 1.3) (drill 0.8) (layers *.Cu *.Mask))
  (pad 18 thru_hole oval (at 2.54 21.59) (size 1.8 1.3) (drill 0.8) (layers *.Cu *.Mask))
  (pad 20 thru_hole oval (at 2.54 24.13) (size 1.8 1.3) (drill 0.8) (layers *.Cu *.Mask))
  (pad 22 thru_hole oval (at 2.54 26.67) (size 1.8 1.3) (drill 0.8) (layers *.Cu *.Mask))
  (pad 24 thru_hole oval (at 2.54 29.21) (size 1.8 1.3) (drill 0.8) (layers *.Cu *.Mask))
  (pad "" np_thru_hole circle (at -1.48 -1.8) (size 1.5 1.5) (drill 1.5) (layers *.Cu *.Mask))
  (pad "" np_thru_hole circle (at -1.48 31.01) (size 1.5 1.5) (drill 1.5) (layers *.Cu *.Mask))
  (fp_text user %R (at 1.02 -2.05) (layer F.Fab)
    (effects (font (size 1 1) (thickness 0.15)))
  )
  (model ${KIPRJMOD}/kicad_libs_k/models_k.3d/Connector_Molex_k.3dshapes/Molex_Picoflex_90325-0024_2x12_P1.27mm_Vertical_k.wrl
    (at (xyz 0 0 0))
    (scale (xyz 1 1 1))
    (rotate (xyz 0 0 0))
  )
)