(module Molex_Pico-Clasp_501331-1407_1x14-1MP_P1.00mm_Vertical (layer F.Cu) (tedit 5AA46ED0)
  (descr "Molex Pico-Clasp series connector, 501331-1407 (http://www.molex.com/pdm_docs/sd/5013310207_sd.pdf), generated with kicad-footprint-generator")
  (tags "connector Molex Pico-Clasp side entry")
  (attr smd)
  (fp_text reference REF** (at 0 -4.52) (layer F.SilkS)
    (effects (font (size 1 1) (thickness 0.15)))
  )
  (fp_text value Molex_Pico-Clasp_501331-1407_1x14-1MP_P1.00mm_Vertical (at 0 3.3) (layer F.Fab)
    (effects (font (size 1 1) (thickness 0.15)))
  )
  (fp_line (start -8 1.15) (end 8 1.15) (layer F.Fab) (width 0.1))
  (fp_line (start -8.11 -0.04) (end -8.11 1.26) (layer F.SilkS) (width 0.12))
  (fp_line (start -8.11 1.26) (end -7.06 1.26) (layer F.SilkS) (width 0.12))
  (fp_line (start -7.06 1.26) (end -7.06 2.1) (layer F.SilkS) (width 0.12))
  (fp_line (start 8.11 -0.04) (end 8.11 1.26) (layer F.SilkS) (width 0.12))
  (fp_line (start 8.11 1.26) (end 7.06 1.26) (layer F.SilkS) (width 0.12))
  (fp_line (start -6.94 -1.96) (end -2.36 -1.96) (layer F.SilkS) (width 0.12))
  (fp_line (start -2.36 -1.96) (end -2.36 -3.43) (layer F.SilkS) (width 0.12))
  (fp_line (start -2.36 -3.43) (end 2.36 -3.43) (layer F.SilkS) (width 0.12))
  (fp_line (start 2.36 -3.43) (end 2.36 -1.96) (layer F.SilkS) (width 0.12))
  (fp_line (start 2.36 -1.96) (end 6.94 -1.96) (layer F.SilkS) (width 0.12))
  (fp_line (start -8 -1.85) (end -2.25 -1.85) (layer F.Fab) (width 0.1))
  (fp_line (start -2.25 -1.85) (end -2.25 -3.32) (layer F.Fab) (width 0.1))
  (fp_line (start -2.25 -3.32) (end 2.25 -3.32) (layer F.Fab) (width 0.1))
  (fp_line (start 2.25 -3.32) (end 2.25 -1.85) (layer F.Fab) (width 0.1))
  (fp_line (start 2.25 -1.85) (end 8 -1.85) (layer F.Fab) (width 0.1))
  (fp_line (start -8 1.15) (end -8 -1.85) (layer F.Fab) (width 0.1))
  (fp_line (start 8 1.15) (end 8 -1.85) (layer F.Fab) (width 0.1))
  (fp_line (start -6.625 -0.25) (end -6.625 0.25) (layer F.Fab) (width 0.1))
  (fp_line (start -6.625 0.25) (end -6.375 0.25) (layer F.Fab) (width 0.1))
  (fp_line (start -6.375 0.25) (end -6.375 -0.25) (layer F.Fab) (width 0.1))
  (fp_line (start -6.375 -0.25) (end -6.625 -0.25) (layer F.Fab) (width 0.1))
  (fp_line (start -5.625 -0.25) (end -5.625 0.25) (layer F.Fab) (width 0.1))
  (fp_line (start -5.625 0.25) (end -5.375 0.25) (layer F.Fab) (width 0.1))
  (fp_line (start -5.375 0.25) (end -5.375 -0.25) (layer F.Fab) (width 0.1))
  (fp_line (start -5.375 -0.25) (end -5.625 -0.25) (layer F.Fab) (width 0.1))
  (fp_line (start -4.625 -0.25) (end -4.625 0.25) (layer F.Fab) (width 0.1))
  (fp_line (start -4.625 0.25) (end -4.375 0.25) (layer F.Fab) (width 0.1))
  (fp_line (start -4.375 0.25) (end -4.375 -0.25) (layer F.Fab) (width 0.1))
  (fp_line (start -4.375 -0.25) (end -4.625 -0.25) (layer F.Fab) (width 0.1))
  (fp_line (start -3.625 -0.25) (end -3.625 0.25) (layer F.Fab) (width 0.1))
  (fp_line (start -3.625 0.25) (end -3.375 0.25) (layer F.Fab) (width 0.1))
  (fp_line (start -3.375 0.25) (end -3.375 -0.25) (layer F.Fab) (width 0.1))
  (fp_line (start -3.375 -0.25) (end -3.625 -0.25) (layer F.Fab) (width 0.1))
  (fp_line (start -2.625 -0.25) (end -2.625 0.25) (layer F.Fab) (width 0.1))
  (fp_line (start -2.625 0.25) (end -2.375 0.25) (layer F.Fab) (width 0.1))
  (fp_line (start -2.375 0.25) (end -2.375 -0.25) (layer F.Fab) (width 0.1))
  (fp_line (start -2.375 -0.25) (end -2.625 -0.25) (layer F.Fab) (width 0.1))
  (fp_line (start -1.625 -0.25) (end -1.625 0.25) (layer F.Fab) (width 0.1))
  (fp_line (start -1.625 0.25) (end -1.375 0.25) (layer F.Fab) (width 0.1))
  (fp_line (start -1.375 0.25) (end -1.375 -0.25) (layer F.Fab) (width 0.1))
  (fp_line (start -1.375 -0.25) (end -1.625 -0.25) (layer F.Fab) (width 0.1))
  (fp_line (start -0.625 -0.25) (end -0.625 0.25) (layer F.Fab) (width 0.1))
  (fp_line (start -0.625 0.25) (end -0.375 0.25) (layer F.Fab) (width 0.1))
  (fp_line (start -0.375 0.25) (end -0.375 -0.25) (layer F.Fab) (width 0.1))
  (fp_line (start -0.375 -0.25) (end -0.625 -0.25) (layer F.Fab) (width 0.1))
  (fp_line (start 0.375 -0.25) (end 0.375 0.25) (layer F.Fab) (width 0.1))
  (fp_line (start 0.375 0.25) (end 0.625 0.25) (layer F.Fab) (width 0.1))
  (fp_line (start 0.625 0.25) (end 0.625 -0.25) (layer F.Fab) (width 0.1))
  (fp_line (start 0.625 -0.25) (end 0.375 -0.25) (layer F.Fab) (width 0.1))
  (fp_line (start 1.375 -0.25) (end 1.375 0.25) (layer F.Fab) (width 0.1))
  (fp_line (start 1.375 0.25) (end 1.625 0.25) (layer F.Fab) (width 0.1))
  (fp_line (start 1.625 0.25) (end 1.625 -0.25) (layer F.Fab) (width 0.1))
  (fp_line (start 1.625 -0.25) (end 1.375 -0.25) (layer F.Fab) (width 0.1))
  (fp_line (start 2.375 -0.25) (end 2.375 0.25) (layer F.Fab) (width 0.1))
  (fp_line (start 2.375 0.25) (end 2.625 0.25) (layer F.Fab) (width 0.1))
  (fp_line (start 2.625 0.25) (end 2.625 -0.25) (layer F.Fab) (width 0.1))
  (fp_line (start 2.625 -0.25) (end 2.375 -0.25) (layer F.Fab) (width 0.1))
  (fp_line (start 3.375 -0.25) (end 3.375 0.25) (layer F.Fab) (width 0.1))
  (fp_line (start 3.375 0.25) (end 3.625 0.25) (layer F.Fab) (width 0.1))
  (fp_line (start 3.625 0.25) (end 3.625 -0.25) (layer F.Fab) (width 0.1))
  (fp_line (start 3.625 -0.25) (end 3.375 -0.25) (layer F.Fab) (width 0.1))
  (fp_line (start 4.375 -0.25) (end 4.375 0.25) (layer F.Fab) (width 0.1))
  (fp_line (start 4.375 0.25) (end 4.625 0.25) (layer F.Fab) (width 0.1))
  (fp_line (start 4.625 0.25) (end 4.625 -0.25) (layer F.Fab) (width 0.1))
  (fp_line (start 4.625 -0.25) (end 4.375 -0.25) (layer F.Fab) (width 0.1))
  (fp_line (start 5.375 -0.25) (end 5.375 0.25) (layer F.Fab) (width 0.1))
  (fp_line (start 5.375 0.25) (end 5.625 0.25) (layer F.Fab) (width 0.1))
  (fp_line (start 5.625 0.25) (end 5.625 -0.25) (layer F.Fab) (width 0.1))
  (fp_line (start 5.625 -0.25) (end 5.375 -0.25) (layer F.Fab) (width 0.1))
  (fp_line (start 6.375 -0.25) (end 6.375 0.25) (layer F.Fab) (width 0.1))
  (fp_line (start 6.375 0.25) (end 6.625 0.25) (layer F.Fab) (width 0.1))
  (fp_line (start 6.625 0.25) (end 6.625 -0.25) (layer F.Fab) (width 0.1))
  (fp_line (start 6.625 -0.25) (end 6.375 -0.25) (layer F.Fab) (width 0.1))
  (fp_line (start -8.9 -3.82) (end -8.9 2.6) (layer F.CrtYd) (width 0.05))
  (fp_line (start -8.9 2.6) (end 8.9 2.6) (layer F.CrtYd) (width 0.05))
  (fp_line (start 8.9 2.6) (end 8.9 -3.82) (layer F.CrtYd) (width 0.05))
  (fp_line (start 8.9 -3.82) (end -8.9 -3.82) (layer F.CrtYd) (width 0.05))
  (fp_line (start -7 1.15) (end -6.5 0.442893) (layer F.Fab) (width 0.1))
  (fp_line (start -6.5 0.442893) (end -6 1.15) (layer F.Fab) (width 0.1))
  (pad 1 smd rect (at -6.5 1.325) (size 0.6 1.55) (layers F.Cu F.Mask F.Paste))
  (pad 2 smd rect (at -5.5 1.325) (size 0.6 1.55) (layers F.Cu F.Mask F.Paste))
  (pad 3 smd rect (at -4.5 1.325) (size 0.6 1.55) (layers F.Cu F.Mask F.Paste))
  (pad 4 smd rect (at -3.5 1.325) (size 0.6 1.55) (layers F.Cu F.Mask F.Paste))
  (pad 5 smd rect (at -2.5 1.325) (size 0.6 1.55) (layers F.Cu F.Mask F.Paste))
  (pad 6 smd rect (at -1.5 1.325) (size 0.6 1.55) (layers F.Cu F.Mask F.Paste))
  (pad 7 smd rect (at -0.5 1.325) (size 0.6 1.55) (layers F.Cu F.Mask F.Paste))
  (pad 8 smd rect (at 0.5 1.325) (size 0.6 1.55) (layers F.Cu F.Mask F.Paste))
  (pad 9 smd rect (at 1.5 1.325) (size 0.6 1.55) (layers F.Cu F.Mask F.Paste))
  (pad 10 smd rect (at 2.5 1.325) (size 0.6 1.55) (layers F.Cu F.Mask F.Paste))
  (pad 11 smd rect (at 3.5 1.325) (size 0.6 1.55) (layers F.Cu F.Mask F.Paste))
  (pad 12 smd rect (at 4.5 1.325) (size 0.6 1.55) (layers F.Cu F.Mask F.Paste))
  (pad 13 smd rect (at 5.5 1.325) (size 0.6 1.55) (layers F.Cu F.Mask F.Paste))
  (pad 14 smd rect (at 6.5 1.325) (size 0.6 1.55) (layers F.Cu F.Mask F.Paste))
  (pad MP smd rect (at -7.8 -1.2) (size 1.2 1.8) (layers F.Cu F.Mask F.Paste))
  (pad MP smd rect (at 7.8 -1.2) (size 1.2 1.8) (layers F.Cu F.Mask F.Paste))
  (fp_text user %R (at 0 -1.15) (layer F.Fab)
    (effects (font (size 1 1) (thickness 0.15)))
  )
  (model ${KIPRJMOD}/kicad_libs_k/models_k.3d/Connector_Molex_k.3dshapes/Molex_Pico-Clasp_501331-1407_1x14-1MP_P1.00mm_Vertical_k.wrl
    (at (xyz 0 0 0))
    (scale (xyz 1 1 1))
    (rotate (xyz 0 0 0))
  )
)