(module Molex_Micro-Fit_3.0_43650-0915_1x09_P3.00mm_Vertical (layer F.Cu) (tedit 5A3535FD)
  (descr "Molex Micro-Fit 3.0 Connector System, 43650-0915 (compatible alternatives: 43650-0916, 43650-0917), 9 Pins per row (http://www.molex.com/pdm_docs/sd/436500215_sd.pdf), generated with kicad-footprint-generator")
  (tags "connector Molex Micro-Fit_3.0 side entry")
  (fp_text reference REF** (at 12 -3.67) (layer F.SilkS)
    (effects (font (size 1 1) (thickness 0.15)))
  )
  (fp_text value Molex_Micro-Fit_3.0_43650-0915_1x09_P3.00mm_Vertical (at 12 4.5) (layer F.Fab)
    (effects (font (size 1 1) (thickness 0.15)))
  )
  (fp_line (start -2.125 -1.97) (end -2.125 -2.47) (layer F.Fab) (width 0.1))
  (fp_line (start -2.125 -2.47) (end -3.325 -2.47) (layer F.Fab) (width 0.1))
  (fp_line (start -3.325 -2.47) (end -3.325 1.9) (layer F.Fab) (width 0.1))
  (fp_line (start -3.325 1.9) (end 27.325 1.9) (layer F.Fab) (width 0.1))
  (fp_line (start 27.325 1.9) (end 27.325 -2.47) (layer F.Fab) (width 0.1))
  (fp_line (start 27.325 -2.47) (end 26.125 -2.47) (layer F.Fab) (width 0.1))
  (fp_line (start 26.125 -2.47) (end 26.125 -1.97) (layer F.Fab) (width 0.1))
  (fp_line (start 26.125 -1.97) (end -2.125 -1.97) (layer F.Fab) (width 0.1))
  (fp_line (start -3.325 -1.34) (end -2.125 -1.97) (layer F.Fab) (width 0.1))
  (fp_line (start 27.325 -1.34) (end 26.125 -1.97) (layer F.Fab) (width 0.1))
  (fp_line (start 11.3 1.9) (end 11.3 3.3) (layer F.Fab) (width 0.1))
  (fp_line (start 11.3 3.3) (end 12.7 3.3) (layer F.Fab) (width 0.1))
  (fp_line (start 12.7 3.3) (end 12.7 1.9) (layer F.Fab) (width 0.1))
  (fp_line (start -0.5 -1.97) (end 0 -1.262893) (layer F.Fab) (width 0.1))
  (fp_line (start 0 -1.262893) (end 0.5 -1.97) (layer F.Fab) (width 0.1))
  (fp_line (start -3.435 -1.2) (end -3.435 2.01) (layer F.SilkS) (width 0.12))
  (fp_line (start -3.435 2.01) (end 27.435 2.01) (layer F.SilkS) (width 0.12))
  (fp_line (start 27.435 2.01) (end 27.435 -1.2) (layer F.SilkS) (width 0.12))
  (fp_line (start -2.13 -2.58) (end -2.015 -2.58) (layer F.SilkS) (width 0.12))
  (fp_line (start -2.015 -2.58) (end -2.015 -2.08) (layer F.SilkS) (width 0.12))
  (fp_line (start -2.015 -2.08) (end 26.015 -2.08) (layer F.SilkS) (width 0.12))
  (fp_line (start 26.015 -2.08) (end 26.015 -2.58) (layer F.SilkS) (width 0.12))
  (fp_line (start 26.015 -2.58) (end 26.13 -2.58) (layer F.SilkS) (width 0.12))
  (fp_line (start -3.82 -2.97) (end 27.82 -2.97) (layer F.CrtYd) (width 0.05))
  (fp_line (start 27.82 -2.97) (end 27.82 3.8) (layer F.CrtYd) (width 0.05))
  (fp_line (start 27.82 3.8) (end -3.82 3.8) (layer F.CrtYd) (width 0.05))
  (fp_line (start -3.82 3.8) (end -3.82 -2.97) (layer F.CrtYd) (width 0.05))
  (pad "" np_thru_hole circle (at -3 -1.96) (size 1 1) (drill 1) (layers *.Cu *.Mask))
  (pad "" np_thru_hole circle (at 27 -1.96) (size 1 1) (drill 1) (layers *.Cu *.Mask))
  (pad 1 thru_hole rect (at 0 0) (size 1.5 2) (drill 1) (layers *.Cu *.Mask))
  (pad 2 thru_hole oval (at 3 0) (size 1.5 2) (drill 1) (layers *.Cu *.Mask))
  (pad 3 thru_hole oval (at 6 0) (size 1.5 2) (drill 1) (layers *.Cu *.Mask))
  (pad 4 thru_hole oval (at 9 0) (size 1.5 2) (drill 1) (layers *.Cu *.Mask))
  (pad 5 thru_hole oval (at 12 0) (size 1.5 2) (drill 1) (layers *.Cu *.Mask))
  (pad 6 thru_hole oval (at 15 0) (size 1.5 2) (drill 1) (layers *.Cu *.Mask))
  (pad 7 thru_hole oval (at 18 0) (size 1.5 2) (drill 1) (layers *.Cu *.Mask))
  (pad 8 thru_hole oval (at 21 0) (size 1.5 2) (drill 1) (layers *.Cu *.Mask))
  (pad 9 thru_hole oval (at 24 0) (size 1.5 2) (drill 1) (layers *.Cu *.Mask))
  (fp_text user %R (at 12 1.2) (layer F.Fab)
    (effects (font (size 1 1) (thickness 0.15)))
  )
  (model ${KIPRJMOD}/kicad_libs_k/models_k.3d/Connector_Molex_k.3dshapes/Molex_Micro-Fit_3.0_43650-0915_1x09_P3.00mm_Vertical_k.wrl
    (at (xyz 0 0 0))
    (scale (xyz 1 1 1))
    (rotate (xyz 0 0 0))
  )
)