(module Molex_PicoBlade_53048-1010_1x05_P1.25mm_Horizontal (layer F.Cu) (tedit 5A174D76)
  (descr "Molex PicoBlade Connector System, 53048-1010, 5 Pins per row (http://www.molex.com/pdm_docs/sd/532530770_sd.pdf), generated with kicad-footprint-generator")
  (tags "connector Molex PicoBlade top entry")
  (fp_text reference REF** (at 2.5 -1.95) (layer F.SilkS)
    (effects (font (size 1 1) (thickness 0.15)))
  )
  (fp_text value Molex_PicoBlade_53048-1010_1x05_P1.25mm_Horizontal (at 2.5 5.65) (layer F.Fab)
    (effects (font (size 1 1) (thickness 0.15)))
  )
  (fp_line (start -0.25 -1.15) (end -0.25 -1.45) (layer F.SilkS) (width 0.12))
  (fp_line (start -0.25 -1.45) (end -0.75 -1.45) (layer F.SilkS) (width 0.12))
  (fp_line (start -0.5 -0.75) (end 0 -0.042893) (layer F.Fab) (width 0.1))
  (fp_line (start 0 -0.042893) (end 0.5 -0.75) (layer F.Fab) (width 0.1))
  (fp_line (start 2.5 -1.25) (end -0.15 -1.25) (layer F.CrtYd) (width 0.05))
  (fp_line (start -0.15 -1.25) (end -0.15 -1.55) (layer F.CrtYd) (width 0.05))
  (fp_line (start -0.15 -1.55) (end -2 -1.55) (layer F.CrtYd) (width 0.05))
  (fp_line (start -2 -1.55) (end -2 4.95) (layer F.CrtYd) (width 0.05))
  (fp_line (start -2 4.95) (end 2.5 4.95) (layer F.CrtYd) (width 0.05))
  (fp_line (start 2.5 -1.25) (end 5.15 -1.25) (layer F.CrtYd) (width 0.05))
  (fp_line (start 5.15 -1.25) (end 5.15 -1.55) (layer F.CrtYd) (width 0.05))
  (fp_line (start 5.15 -1.55) (end 7 -1.55) (layer F.CrtYd) (width 0.05))
  (fp_line (start 7 -1.55) (end 7 4.95) (layer F.CrtYd) (width 0.05))
  (fp_line (start 7 4.95) (end 2.5 4.95) (layer F.CrtYd) (width 0.05))
  (fp_line (start 2.5 -0.75) (end -0.65 -0.75) (layer F.Fab) (width 0.1))
  (fp_line (start -0.65 -0.75) (end -0.65 -1.05) (layer F.Fab) (width 0.1))
  (fp_line (start -0.65 -1.05) (end -1.5 -1.05) (layer F.Fab) (width 0.1))
  (fp_line (start -1.5 -1.05) (end -1.5 4.45) (layer F.Fab) (width 0.1))
  (fp_line (start -1.5 4.45) (end 2.5 4.45) (layer F.Fab) (width 0.1))
  (fp_line (start 2.5 -0.75) (end 5.65 -0.75) (layer F.Fab) (width 0.1))
  (fp_line (start 5.65 -0.75) (end 5.65 -1.05) (layer F.Fab) (width 0.1))
  (fp_line (start 5.65 -1.05) (end 6.5 -1.05) (layer F.Fab) (width 0.1))
  (fp_line (start 6.5 -1.05) (end 6.5 4.45) (layer F.Fab) (width 0.1))
  (fp_line (start 6.5 4.45) (end 2.5 4.45) (layer F.Fab) (width 0.1))
  (fp_line (start 2.5 -0.86) (end -0.54 -0.86) (layer F.SilkS) (width 0.12))
  (fp_line (start -0.54 -0.86) (end -0.54 -1.16) (layer F.SilkS) (width 0.12))
  (fp_line (start -0.54 -1.16) (end -1.61 -1.16) (layer F.SilkS) (width 0.12))
  (fp_line (start -1.61 -1.16) (end -1.61 4.56) (layer F.SilkS) (width 0.12))
  (fp_line (start -1.61 4.56) (end 2.5 4.56) (layer F.SilkS) (width 0.12))
  (fp_line (start 2.5 -0.86) (end 5.54 -0.86) (layer F.SilkS) (width 0.12))
  (fp_line (start 5.54 -0.86) (end 5.54 -1.16) (layer F.SilkS) (width 0.12))
  (fp_line (start 5.54 -1.16) (end 6.61 -1.16) (layer F.SilkS) (width 0.12))
  (fp_line (start 6.61 -1.16) (end 6.61 4.56) (layer F.SilkS) (width 0.12))
  (fp_line (start 6.61 4.56) (end 2.5 4.56) (layer F.SilkS) (width 0.12))
  (pad 1 thru_hole rect (at 0 0) (size 0.8 1.3) (drill 0.5) (layers *.Cu *.Mask))
  (pad 2 thru_hole oval (at 1.25 0) (size 0.8 1.3) (drill 0.5) (layers *.Cu *.Mask))
  (pad 3 thru_hole oval (at 2.5 0) (size 0.8 1.3) (drill 0.5) (layers *.Cu *.Mask))
  (pad 4 thru_hole oval (at 3.75 0) (size 0.8 1.3) (drill 0.5) (layers *.Cu *.Mask))
  (pad 5 thru_hole oval (at 5 0) (size 0.8 1.3) (drill 0.5) (layers *.Cu *.Mask))
  (fp_text user %R (at 2.5 3.75) (layer F.Fab)
    (effects (font (size 1 1) (thickness 0.15)))
  )
  (model ${KIPRJMOD}/kicad_libs_k/models_k.3d/Connector_Molex_k.3dshapes/Molex_PicoBlade_53048-1010_1x05_P1.25mm_Horizontal_k.wrl
    (at (xyz 0 0 0))
    (scale (xyz 1 1 1))
    (rotate (xyz 0 0 0))
  )
)