(module Molex_CLIK-Mate_502585-0270_1x02-1MP_P1.50mm_Horizontal (layer F.Cu) (tedit 5AA46ED0)
  (descr "Molex CLIK-Mate series connector, 502585-0270 (http://www.molex.com/pdm_docs/sd/5025850270_sd.pdf), generated with kicad-footprint-generator")
  (tags "connector Molex CLIK-Mate top entry")
  (attr smd)
  (fp_text reference REF** (at 0 -5.22) (layer F.SilkS)
    (effects (font (size 1 1) (thickness 0.15)))
  )
  (fp_text value Molex_CLIK-Mate_502585-0270_1x02-1MP_P1.50mm_Horizontal (at 0 6.48) (layer F.Fab)
    (effects (font (size 1 1) (thickness 0.15)))
  )
  (fp_line (start -3.65 -1.675) (end 3.65 -1.675) (layer F.Fab) (width 0.1))
  (fp_line (start -3.76 -0.035) (end -3.76 -1.785) (layer F.SilkS) (width 0.12))
  (fp_line (start -3.76 -1.785) (end -1.41 -1.785) (layer F.SilkS) (width 0.12))
  (fp_line (start -1.41 -1.785) (end -1.41 -4.025) (layer F.SilkS) (width 0.12))
  (fp_line (start 3.76 -0.035) (end 3.76 -1.785) (layer F.SilkS) (width 0.12))
  (fp_line (start 3.76 -1.785) (end 1.41 -1.785) (layer F.SilkS) (width 0.12))
  (fp_line (start -2.19 5.385) (end 2.19 5.385) (layer F.SilkS) (width 0.12))
  (fp_line (start -3.65 2.675) (end -3.32 2.675) (layer F.Fab) (width 0.1))
  (fp_line (start -3.32 2.675) (end -3.32 5.275) (layer F.Fab) (width 0.1))
  (fp_line (start -3.32 5.275) (end 3.32 5.275) (layer F.Fab) (width 0.1))
  (fp_line (start 3.32 5.275) (end 3.32 2.675) (layer F.Fab) (width 0.1))
  (fp_line (start 3.32 2.675) (end 3.65 2.675) (layer F.Fab) (width 0.1))
  (fp_line (start -3.65 -1.675) (end -3.65 2.675) (layer F.Fab) (width 0.1))
  (fp_line (start 3.65 -1.675) (end 3.65 2.675) (layer F.Fab) (width 0.1))
  (fp_line (start -4.75 -4.52) (end -4.75 5.78) (layer F.CrtYd) (width 0.05))
  (fp_line (start -4.75 5.78) (end 4.75 5.78) (layer F.CrtYd) (width 0.05))
  (fp_line (start 4.75 5.78) (end 4.75 -4.52) (layer F.CrtYd) (width 0.05))
  (fp_line (start 4.75 -4.52) (end -4.75 -4.52) (layer F.CrtYd) (width 0.05))
  (fp_line (start -1.25 -1.675) (end -0.75 -0.967893) (layer F.Fab) (width 0.1))
  (fp_line (start -0.75 -0.967893) (end -0.25 -1.675) (layer F.Fab) (width 0.1))
  (pad 1 smd rect (at -0.75 -2.575) (size 0.8 2.9) (layers F.Cu F.Mask F.Paste))
  (pad 2 smd rect (at 0.75 -2.575) (size 0.8 2.9) (layers F.Cu F.Mask F.Paste))
  (pad MP smd rect (at -3.35 2.125) (size 1.8 3.8) (layers F.Cu F.Mask F.Paste))
  (pad MP smd rect (at 3.35 2.125) (size 1.8 3.8) (layers F.Cu F.Mask F.Paste))
  (fp_text user %R (at 0 0.5) (layer F.Fab)
    (effects (font (size 1 1) (thickness 0.15)))
  )
  (model ${KIPRJMOD}/kicad_libs_k/models_k.3d/Connector_Molex_k.3dshapes/Molex_CLIK-Mate_502585-0270_1x02-1MP_P1.50mm_Horizontal_k.wrl
    (at (xyz 0 0 0))
    (scale (xyz 1 1 1))
    (rotate (xyz 0 0 0))
  )
)