(module Molex_MicroClasp_55932-1410_1x14_P2.00mm_Vertical (layer F.Cu) (tedit 5A11B45F)
  (descr "Molex MicroClasp Wire-to-Board System, 55932-1410, with PCB locator, 14 Pins (http://www.molex.com/pdm_docs/sd/559320210_sd.pdf), generated with kicad-footprint-generator")
  (tags "connector Molex MicroClasp side entry")
  (fp_text reference REF** (at 13 -4.9) (layer F.SilkS)
    (effects (font (size 1 1) (thickness 0.15)))
  )
  (fp_text value Molex_MicroClasp_55932-1410_1x14_P2.00mm_Vertical (at 13 4.2) (layer F.Fab)
    (effects (font (size 1 1) (thickness 0.15)))
  )
  (fp_line (start 13 -3.7) (end 9.61 -3.7) (layer F.Fab) (width 0.1))
  (fp_line (start 9.61 -3.7) (end 9.61 -2.8) (layer F.Fab) (width 0.1))
  (fp_line (start 9.61 -2.8) (end -3 -2.8) (layer F.Fab) (width 0.1))
  (fp_line (start -3 -2.8) (end -3 3) (layer F.Fab) (width 0.1))
  (fp_line (start -3 3) (end 13 3) (layer F.Fab) (width 0.1))
  (fp_line (start 13 -3.7) (end 16.39 -3.7) (layer F.Fab) (width 0.1))
  (fp_line (start 16.39 -3.7) (end 16.39 -2.8) (layer F.Fab) (width 0.1))
  (fp_line (start 16.39 -2.8) (end 29 -2.8) (layer F.Fab) (width 0.1))
  (fp_line (start 29 -2.8) (end 29 3) (layer F.Fab) (width 0.1))
  (fp_line (start 29 3) (end 13 3) (layer F.Fab) (width 0.1))
  (fp_line (start 13 -3.81) (end 9.5 -3.81) (layer F.SilkS) (width 0.12))
  (fp_line (start 9.5 -3.81) (end 9.5 -2.91) (layer F.SilkS) (width 0.12))
  (fp_line (start 9.5 -2.91) (end -3.11 -2.91) (layer F.SilkS) (width 0.12))
  (fp_line (start -3.11 -2.91) (end -3.11 3.11) (layer F.SilkS) (width 0.12))
  (fp_line (start -3.11 3.11) (end 13 3.11) (layer F.SilkS) (width 0.12))
  (fp_line (start 13 -3.81) (end 16.5 -3.81) (layer F.SilkS) (width 0.12))
  (fp_line (start 16.5 -3.81) (end 16.5 -2.91) (layer F.SilkS) (width 0.12))
  (fp_line (start 16.5 -2.91) (end 29.11 -2.91) (layer F.SilkS) (width 0.12))
  (fp_line (start 29.11 -2.91) (end 29.11 3.11) (layer F.SilkS) (width 0.12))
  (fp_line (start 29.11 3.11) (end 13 3.11) (layer F.SilkS) (width 0.12))
  (fp_line (start -3.41 1) (end -3.41 3.41) (layer F.SilkS) (width 0.12))
  (fp_line (start -3.41 3.41) (end -1 3.41) (layer F.SilkS) (width 0.12))
  (fp_line (start -0.5 3) (end 0 2.292893) (layer F.Fab) (width 0.1))
  (fp_line (start 0 2.292893) (end 0.5 3) (layer F.Fab) (width 0.1))
  (fp_line (start -3.5 -4.2) (end -3.5 3.5) (layer F.CrtYd) (width 0.05))
  (fp_line (start -3.5 3.5) (end 29.5 3.5) (layer F.CrtYd) (width 0.05))
  (fp_line (start 29.5 3.5) (end 29.5 -4.2) (layer F.CrtYd) (width 0.05))
  (fp_line (start 29.5 -4.2) (end -3.5 -4.2) (layer F.CrtYd) (width 0.05))
  (pad 1 thru_hole rect (at 0 0) (size 1.2 1.8) (drill 0.8) (layers *.Cu *.Mask))
  (pad 2 thru_hole oval (at 2 0) (size 1.2 1.8) (drill 0.8) (layers *.Cu *.Mask))
  (pad 3 thru_hole oval (at 4 0) (size 1.2 1.8) (drill 0.8) (layers *.Cu *.Mask))
  (pad 4 thru_hole oval (at 6 0) (size 1.2 1.8) (drill 0.8) (layers *.Cu *.Mask))
  (pad 5 thru_hole oval (at 8 0) (size 1.2 1.8) (drill 0.8) (layers *.Cu *.Mask))
  (pad 6 thru_hole oval (at 10 0) (size 1.2 1.8) (drill 0.8) (layers *.Cu *.Mask))
  (pad 7 thru_hole oval (at 12 0) (size 1.2 1.8) (drill 0.8) (layers *.Cu *.Mask))
  (pad 8 thru_hole oval (at 14 0) (size 1.2 1.8) (drill 0.8) (layers *.Cu *.Mask))
  (pad 9 thru_hole oval (at 16 0) (size 1.2 1.8) (drill 0.8) (layers *.Cu *.Mask))
  (pad 10 thru_hole oval (at 18 0) (size 1.2 1.8) (drill 0.8) (layers *.Cu *.Mask))
  (pad 11 thru_hole oval (at 20 0) (size 1.2 1.8) (drill 0.8) (layers *.Cu *.Mask))
  (pad 12 thru_hole oval (at 22 0) (size 1.2 1.8) (drill 0.8) (layers *.Cu *.Mask))
  (pad 13 thru_hole oval (at 24 0) (size 1.2 1.8) (drill 0.8) (layers *.Cu *.Mask))
  (pad 14 thru_hole oval (at 26 0) (size 1.2 1.8) (drill 0.8) (layers *.Cu *.Mask))
  (pad "" np_thru_hole circle (at 28 -1.9) (size 1.3 1.3) (drill 1.3) (layers *.Cu *.Mask))
  (fp_text user %R (at 13 -2.1) (layer F.Fab)
    (effects (font (size 1 1) (thickness 0.15)))
  )
  (model ${KIPRJMOD}/kicad_libs_k/models_k.3d/Connector_Molex_k.3dshapes/Molex_MicroClasp_55932-1410_1x14_P2.00mm_Vertical_k.wrl
    (at (xyz 0 0 0))
    (scale (xyz 1 1 1))
    (rotate (xyz 0 0 0))
  )
)