(module Molex_Mini-Fit_Sr_42819-22XX_1x02_P10.00mm_Vertical (layer F.Cu) (tedit 5A16F607)
  (descr "Molex Mini-Fit Sr. Power Connectors, 42819-22XX, 2 Pins per row (http://www.molex.com/pdm_docs/sd/428192214_sd.pdf), generated with kicad-footprint-generator")
  (tags "connector Molex Mini-Fit_Sr side entry")
  (fp_text reference REF** (at 3.26 -8.93) (layer F.SilkS)
    (effects (font (size 1 1) (thickness 0.15)))
  )
  (fp_text value Molex_Mini-Fit_Sr_42819-22XX_1x02_P10.00mm_Vertical (at 3.26 18.93) (layer F.Fab)
    (effects (font (size 1 1) (thickness 0.15)))
  )
  (fp_line (start -2.51 -2.66) (end -2.51 2.66) (layer B.SilkS) (width 0.12))
  (fp_line (start -2.51 2.66) (end 6.91 2.66) (layer B.SilkS) (width 0.12))
  (fp_line (start 6.91 2.66) (end 6.91 -2.66) (layer B.SilkS) (width 0.12))
  (fp_line (start 6.91 -2.66) (end -2.51 -2.66) (layer B.SilkS) (width 0.12))
  (fp_line (start -1.34 -6.91) (end -1.34 16.91) (layer F.Fab) (width 0.1))
  (fp_line (start -1.34 16.91) (end 7.86 16.91) (layer F.Fab) (width 0.1))
  (fp_line (start 7.86 16.91) (end 7.86 -6.91) (layer F.Fab) (width 0.1))
  (fp_line (start 7.86 -6.91) (end -1.34 -6.91) (layer F.Fab) (width 0.1))
  (fp_line (start -1.34 -5.45) (end 7.86 -5.45) (layer F.Fab) (width 0.1))
  (fp_line (start -1.34 15.45) (end 7.86 15.45) (layer F.Fab) (width 0.1))
  (fp_line (start -1.45 -2.66) (end -1.45 -7.02) (layer F.SilkS) (width 0.12))
  (fp_line (start -1.45 -7.02) (end 2.05 -7.02) (layer F.SilkS) (width 0.12))
  (fp_line (start -1.45 12.66) (end -1.45 17.02) (layer F.SilkS) (width 0.12))
  (fp_line (start -1.45 17.02) (end 2.05 17.02) (layer F.SilkS) (width 0.12))
  (fp_line (start 6.05 -7.02) (end 7.97 -7.02) (layer F.SilkS) (width 0.12))
  (fp_line (start 7.97 -7.02) (end 7.97 5) (layer F.SilkS) (width 0.12))
  (fp_line (start 6.05 17.02) (end 7.97 17.02) (layer F.SilkS) (width 0.12))
  (fp_line (start 7.97 17.02) (end 7.97 5) (layer F.SilkS) (width 0.12))
  (fp_line (start -1.45 2.66) (end -1.45 7.34) (layer F.SilkS) (width 0.12))
  (fp_line (start 7.86 -0.8) (end 9.46 -0.8) (layer F.Fab) (width 0.1))
  (fp_line (start 9.46 -0.8) (end 9.46 0.8) (layer F.Fab) (width 0.1))
  (fp_line (start 9.46 0.8) (end 7.86 0.8) (layer F.Fab) (width 0.1))
  (fp_line (start 7.97 -0.91) (end 9.57 -0.91) (layer F.SilkS) (width 0.12))
  (fp_line (start 9.57 -0.91) (end 9.57 0.91) (layer F.SilkS) (width 0.12))
  (fp_line (start 9.57 0.91) (end 7.97 0.91) (layer F.SilkS) (width 0.12))
  (fp_line (start 7.86 9.2) (end 9.46 9.2) (layer F.Fab) (width 0.1))
  (fp_line (start 9.46 9.2) (end 9.46 10.8) (layer F.Fab) (width 0.1))
  (fp_line (start 9.46 10.8) (end 7.86 10.8) (layer F.Fab) (width 0.1))
  (fp_line (start 7.97 9.09) (end 9.57 9.09) (layer F.SilkS) (width 0.12))
  (fp_line (start 9.57 9.09) (end 9.57 10.91) (layer F.SilkS) (width 0.12))
  (fp_line (start 9.57 10.91) (end 7.97 10.91) (layer F.SilkS) (width 0.12))
  (fp_line (start -1.34 0) (end -1.34 10) (layer F.Fab) (width 0.1))
  (fp_line (start -1.34 10) (end -3.14 10) (layer F.Fab) (width 0.1))
  (fp_line (start -3.14 10) (end -3.14 0) (layer F.Fab) (width 0.1))
  (fp_line (start -3.14 0) (end -1.34 0) (layer F.Fab) (width 0.1))
  (fp_line (start -3.14 3.2) (end -3.14 6.8) (layer F.Fab) (width 0.1))
  (fp_line (start -3.14 6.8) (end -4.64 6.8) (layer F.Fab) (width 0.1))
  (fp_line (start -4.64 6.8) (end -4.64 3.2) (layer F.Fab) (width 0.1))
  (fp_line (start -4.64 3.2) (end -3.14 3.2) (layer F.Fab) (width 0.1))
  (fp_line (start -3.25 3.09) (end -4.75 3.09) (layer F.SilkS) (width 0.12))
  (fp_line (start -4.75 3.09) (end -4.75 6.91) (layer F.SilkS) (width 0.12))
  (fp_line (start -4.75 6.91) (end -3.25 6.91) (layer F.SilkS) (width 0.12))
  (fp_line (start -1.34 -1.2) (end 0.357056 0) (layer F.Fab) (width 0.1))
  (fp_line (start 0.357056 0) (end -1.34 1.2) (layer F.Fab) (width 0.1))
  (fp_line (start 7.86 -1.2) (end 6.162944 0) (layer F.Fab) (width 0.1))
  (fp_line (start 6.162944 0) (end 7.86 1.2) (layer F.Fab) (width 0.1))
  (fp_line (start -2.51 0) (end -3.31 -0.4) (layer F.SilkS) (width 0.12))
  (fp_line (start -3.31 -0.4) (end -3.31 0.4) (layer F.SilkS) (width 0.12))
  (fp_line (start -3.31 0.4) (end -2.51 0) (layer F.SilkS) (width 0.12))
  (fp_line (start -5.14 -8.23) (end -5.14 18.23) (layer F.CrtYd) (width 0.05))
  (fp_line (start -5.14 18.23) (end 8.36 18.23) (layer F.CrtYd) (width 0.05))
  (fp_line (start 8.36 18.23) (end 8.36 -8.23) (layer F.CrtYd) (width 0.05))
  (fp_line (start 8.36 -8.23) (end -5.14 -8.23) (layer F.CrtYd) (width 0.05))
  (pad 1 thru_hole rect (at 0 0) (size 4.5 4.8) (drill 2.8) (layers *.Cu *.Mask))
  (pad 2 thru_hole rect (at 0 10) (size 4.5 4.8) (drill 2.8) (layers *.Cu *.Mask))
  (pad 1 thru_hole rect (at 4.4 0) (size 4.5 4.8) (drill 2.8) (layers *.Cu *.Mask))
  (pad 2 thru_hole rect (at 4.4 10) (size 4.5 4.8) (drill 2.8) (layers *.Cu *.Mask))
  (pad "" thru_hole circle (at 4.05 -5.73) (size 4 4) (drill 3) (layers *.Cu *.Mask))
  (pad "" thru_hole circle (at 4.05 15.73) (size 4 4) (drill 3) (layers *.Cu *.Mask))
  (fp_text user %R (at 3.26 14.75) (layer F.Fab)
    (effects (font (size 1 1) (thickness 0.15)))
  )
  (model ${KIPRJMOD}/kicad_libs_k/models_k.3d/Connector_Molex_k.3dshapes/Molex_Mini-Fit_Sr_42819-22XX_1x02_P10.00mm_Vertical_k.wrl
    (at (xyz 0 0 0))
    (scale (xyz 1 1 1))
    (rotate (xyz 0 0 0))
  )
)