(module Molex_Picoflex_90814-0006_2x03_P1.27mm_Vertical (layer F.Cu) (tedit 5A17697C)
  (descr "Molex Picoflex Ribbon-Cable Connectors, 90814-0006, 6 Pins (http://www.molex.com/pdm_docs/sd/908140004_sd.pdf), generated with kicad-footprint-generator")
  (tags "connector Molex Picoflex side entry")
  (attr smd)
  (fp_text reference REF** (at 0 -7.42) (layer F.SilkS)
    (effects (font (size 1 1) (thickness 0.15)))
  )
  (fp_text value Molex_Picoflex_90814-0006_2x03_P1.27mm_Vertical (at 0 7.42) (layer F.Fab)
    (effects (font (size 1 1) (thickness 0.15)))
  )
  (fp_arc (start -1.9 5.1) (end -0.95 5.7) (angle 230.000000) (layer F.Fab) (width 0.1))
  (fp_arc (start -1.9 -5.1) (end -2.05 -3.98) (angle 230.000000) (layer F.Fab) (width 0.1))
  (fp_arc (start -1.9 5.1) (end -0.85 5.83) (angle 222.800000) (layer F.SilkS) (width 0.12))
  (fp_arc (start -1.9 -5.1) (end -2.81 -4.2) (angle 191.000000) (layer F.SilkS) (width 0.12))
  (fp_line (start 2.05 -5.7) (end 2.05 5.7) (layer F.Fab) (width 0.1))
  (fp_line (start 2.05 5.7) (end -0.95 5.7) (layer F.Fab) (width 0.1))
  (fp_line (start -2.05 3.98) (end -2.05 -2.57) (layer F.Fab) (width 0.1))
  (fp_line (start -2.05 -2.57) (end -1.45 -3.17) (layer F.Fab) (width 0.1))
  (fp_line (start -1.45 -3.17) (end -2.05 -3.77) (layer F.Fab) (width 0.1))
  (fp_line (start -2.05 -3.77) (end -2.05 -3.98) (layer F.Fab) (width 0.1))
  (fp_line (start 2.05 -5.7) (end -0.93 -5.7) (layer F.Fab) (width 0.1))
  (fp_line (start 2.18 -5.83) (end 2.18 -2.8) (layer F.SilkS) (width 0.12))
  (fp_line (start 2.18 -0.9) (end 2.18 -0.36) (layer F.SilkS) (width 0.12))
  (fp_line (start 2.18 1.7) (end 2.18 2.12) (layer F.SilkS) (width 0.12))
  (fp_line (start 2.18 4.08) (end 2.18 5.83) (layer F.SilkS) (width 0.12))
  (fp_line (start 2.18 5.83) (end -0.85 5.83) (layer F.SilkS) (width 0.12))
  (fp_line (start -2.18 3.85) (end -2.18 2.8) (layer F.SilkS) (width 0.12))
  (fp_line (start -2.18 0.9) (end -2.18 0.36) (layer F.SilkS) (width 0.12))
  (fp_line (start -2.18 -1.58) (end -2.18 -2.24) (layer F.SilkS) (width 0.12))
  (fp_line (start -2.81 -4.2) (end -2.81 -4.08) (layer F.SilkS) (width 0.12))
  (fp_line (start -2.81 -4.08) (end -4 -4.08) (layer F.SilkS) (width 0.12))
  (fp_line (start 2.18 -5.83) (end -0.82 -5.83) (layer F.SilkS) (width 0.12))
  (fp_line (start -3.95 -5.7) (end -3.95 5.7) (layer Dwgs.User) (width 0.1))
  (fp_line (start -3.95 5.7) (end 3.95 5.7) (layer Dwgs.User) (width 0.1))
  (fp_line (start 3.95 5.7) (end 3.95 -5.7) (layer Dwgs.User) (width 0.1))
  (fp_line (start 3.95 -5.7) (end -3.95 -5.7) (layer Dwgs.User) (width 0.1))
  (fp_line (start -3.95 -3.16) (end -1.41 -5.7) (layer Dwgs.User) (width 0.1))
  (fp_line (start -3.95 -0.62) (end 1.13 -5.7) (layer Dwgs.User) (width 0.1))
  (fp_line (start -3.95 1.92) (end 3.67 -5.7) (layer Dwgs.User) (width 0.1))
  (fp_line (start -3.95 4.46) (end 3.95 -3.44) (layer Dwgs.User) (width 0.1))
  (fp_line (start -2.65 5.7) (end 3.95 -0.9) (layer Dwgs.User) (width 0.1))
  (fp_line (start -0.11 5.7) (end 3.95 1.64) (layer Dwgs.User) (width 0.1))
  (fp_line (start 2.43 5.7) (end 3.95 4.18) (layer Dwgs.User) (width 0.1))
  (fp_line (start -4.5 -6.72) (end -4.5 6.72) (layer F.CrtYd) (width 0.05))
  (fp_line (start -4.5 6.72) (end 4.5 6.72) (layer F.CrtYd) (width 0.05))
  (fp_line (start 4.5 6.72) (end 4.5 -6.72) (layer F.CrtYd) (width 0.05))
  (fp_line (start 4.5 -6.72) (end -4.5 -6.72) (layer F.CrtYd) (width 0.05))
  (pad 1 smd rect (at -3 -3.17) (size 2 1.2) (layers F.Cu F.Mask F.Paste))
  (pad 3 smd rect (at -3 -0.63) (size 2 1.2) (layers F.Cu F.Mask F.Paste))
  (pad 5 smd rect (at -3 1.91) (size 2 1.2) (layers F.Cu F.Mask F.Paste))
  (pad 2 smd rect (at 3 -1.9) (size 2 1.2) (layers F.Cu F.Mask F.Paste))
  (pad 4 smd rect (at 3 0.64) (size 2 1.2) (layers F.Cu F.Mask F.Paste))
  (pad 6 smd rect (at 3 3.18) (size 2 1.2) (layers F.Cu F.Mask F.Paste))
  (pad "" np_thru_hole circle (at -1.9 -5.1) (size 1.9 1.9) (drill 1.9) (layers *.Cu *.Mask))
  (pad "" np_thru_hole circle (at -1.9 5.1) (size 1.9 1.9) (drill 1.9) (layers *.Cu *.Mask))
  (fp_text user KEEPOUT (at 0 0 90) (layer Cmts.User)
    (effects (font (size 1 1) (thickness 0.15)))
  )
  (fp_text user %R (at -1.35 0 90) (layer F.Fab)
    (effects (font (size 1 1) (thickness 0.15)))
  )
  (model ${KIPRJMOD}/kicad_libs_k/models_k.3d/Connector_Molex_k.3dshapes/Molex_Picoflex_90814-0006_2x03_P1.27mm_Vertical_k.wrl
    (at (xyz 0 0 0))
    (scale (xyz 1 1 1))
    (rotate (xyz 0 0 0))
  )
)