(module Molex_Panelmate_53780-1070_1x10-1MP_P1.25mm_Horizontal (layer F.Cu) (tedit 5AA46ED0)
  (descr "Molex Panelmate series connector, 53780-1070 (), generated with kicad-footprint-generator")
  (tags "connector Molex Panelmate top entry")
  (attr smd)
  (fp_text reference REF** (at 0 -4.95) (layer F.SilkS)
    (effects (font (size 1 1) (thickness 0.15)))
  )
  (fp_text value Molex_Panelmate_53780-1070_1x10-1MP_P1.25mm_Horizontal (at 0 4.95) (layer F.Fab)
    (effects (font (size 1 1) (thickness 0.15)))
  )
  (fp_line (start -8.825 -2.25) (end 8.825 -2.25) (layer F.Fab) (width 0.1))
  (fp_line (start -8.935 0.14) (end -8.935 -2.36) (layer F.SilkS) (width 0.12))
  (fp_line (start -8.935 -2.36) (end -6.285 -2.36) (layer F.SilkS) (width 0.12))
  (fp_line (start -6.285 -2.36) (end -6.285 -3.75) (layer F.SilkS) (width 0.12))
  (fp_line (start 8.935 0.14) (end 8.935 -2.36) (layer F.SilkS) (width 0.12))
  (fp_line (start 8.935 -2.36) (end 6.285 -2.36) (layer F.SilkS) (width 0.12))
  (fp_line (start -7.565 3.76) (end -6.815 3.76) (layer F.SilkS) (width 0.12))
  (fp_line (start -6.815 3.76) (end -6.415 2.76) (layer F.SilkS) (width 0.12))
  (fp_line (start -6.415 2.76) (end 6.415 2.76) (layer F.SilkS) (width 0.12))
  (fp_line (start 6.415 2.76) (end 6.815 3.76) (layer F.SilkS) (width 0.12))
  (fp_line (start 6.815 3.76) (end 7.565 3.76) (layer F.SilkS) (width 0.12))
  (fp_line (start -8.825 3.65) (end -6.925 3.65) (layer F.Fab) (width 0.1))
  (fp_line (start -6.925 3.65) (end -6.525 2.65) (layer F.Fab) (width 0.1))
  (fp_line (start -6.525 2.65) (end 6.525 2.65) (layer F.Fab) (width 0.1))
  (fp_line (start 6.525 2.65) (end 6.925 3.65) (layer F.Fab) (width 0.1))
  (fp_line (start 6.925 3.65) (end 8.825 3.65) (layer F.Fab) (width 0.1))
  (fp_line (start -8.825 -2.25) (end -8.825 3.65) (layer F.Fab) (width 0.1))
  (fp_line (start 8.825 -2.25) (end 8.825 3.65) (layer F.Fab) (width 0.1))
  (fp_line (start -9.62 -4.25) (end -9.62 4.25) (layer F.CrtYd) (width 0.05))
  (fp_line (start -9.62 4.25) (end 9.62 4.25) (layer F.CrtYd) (width 0.05))
  (fp_line (start 9.62 4.25) (end 9.62 -4.25) (layer F.CrtYd) (width 0.05))
  (fp_line (start 9.62 -4.25) (end -9.62 -4.25) (layer F.CrtYd) (width 0.05))
  (fp_line (start -6.125 -2.25) (end -5.625 -1.542893) (layer F.Fab) (width 0.1))
  (fp_line (start -5.625 -1.542893) (end -5.125 -2.25) (layer F.Fab) (width 0.1))
  (pad 1 smd rect (at -5.625 -2.8) (size 0.8 1.9) (layers F.Cu F.Mask F.Paste))
  (pad 2 smd rect (at -4.375 -2.8) (size 0.8 1.9) (layers F.Cu F.Mask F.Paste))
  (pad 3 smd rect (at -3.125 -2.8) (size 0.8 1.9) (layers F.Cu F.Mask F.Paste))
  (pad 4 smd rect (at -1.875 -2.8) (size 0.8 1.9) (layers F.Cu F.Mask F.Paste))
  (pad 5 smd rect (at -0.625 -2.8) (size 0.8 1.9) (layers F.Cu F.Mask F.Paste))
  (pad 6 smd rect (at 0.625 -2.8) (size 0.8 1.9) (layers F.Cu F.Mask F.Paste))
  (pad 7 smd rect (at 1.875 -2.8) (size 0.8 1.9) (layers F.Cu F.Mask F.Paste))
  (pad 8 smd rect (at 3.125 -2.8) (size 0.8 1.9) (layers F.Cu F.Mask F.Paste))
  (pad 9 smd rect (at 4.375 -2.8) (size 0.8 1.9) (layers F.Cu F.Mask F.Paste))
  (pad 10 smd rect (at 5.625 -2.8) (size 0.8 1.9) (layers F.Cu F.Mask F.Paste))
  (pad MP smd rect (at -8.475 2.075) (size 1.3 3.35) (layers F.Cu F.Mask F.Paste))
  (pad MP smd rect (at 8.475 2.075) (size 1.3 3.35) (layers F.Cu F.Mask F.Paste))
  (fp_text user %R (at 0 0.7) (layer F.Fab)
    (effects (font (size 1 1) (thickness 0.15)))
  )
  (model ${KIPRJMOD}/kicad_libs_k/models_k.3d/Connector_Molex_k.3dshapes/Molex_Panelmate_53780-1070_1x10-1MP_P1.25mm_Horizontal_k.wrl
    (at (xyz 0 0 0))
    (scale (xyz 1 1 1))
    (rotate (xyz 0 0 0))
  )
)