(module Molex_Sabre_43160-1102_1x02_P7.49mm_Horizontal_ThermalVias (layer F.Cu) (tedit 5A189858)
  (descr "Molex Sabre Power Connector, 43160-1102, With thermal vias in pads, 2 Pins per row (http://www.molex.com/pdm_docs/sd/431605304_sd.pdf), generated with kicad-footprint-generator")
  (tags "connector Molex Sabre top entry")
  (fp_text reference REF** (at 3.75 -6.1) (layer F.SilkS)
    (effects (font (size 1 1) (thickness 0.15)))
  )
  (fp_text value Molex_Sabre_43160-1102_1x02_P7.49mm_Horizontal_ThermalVias (at 3.75 16.89) (layer F.Fab)
    (effects (font (size 1 1) (thickness 0.15)))
  )
  (fp_line (start -2.15 -5.155) (end -2.15 1.975) (layer B.SilkS) (width 0.12))
  (fp_line (start -2.15 1.975) (end 2.15 1.975) (layer B.SilkS) (width 0.12))
  (fp_line (start 2.15 1.975) (end 2.15 -5.155) (layer B.SilkS) (width 0.12))
  (fp_line (start 2.15 -5.155) (end -2.15 -5.155) (layer B.SilkS) (width 0.12))
  (fp_line (start -6.79 0.925) (end -6.79 15.685) (layer F.Fab) (width 0.1))
  (fp_line (start -6.79 15.685) (end 14.28 15.685) (layer F.Fab) (width 0.1))
  (fp_line (start 14.28 15.685) (end 14.28 0.925) (layer F.Fab) (width 0.1))
  (fp_line (start 14.28 0.925) (end -6.79 0.925) (layer F.Fab) (width 0.1))
  (fp_line (start -2.15 0.815) (end -6.9 0.815) (layer F.SilkS) (width 0.12))
  (fp_line (start -6.9 0.815) (end -6.9 11.13) (layer F.SilkS) (width 0.12))
  (fp_line (start 9.64 0.815) (end 14.39 0.815) (layer F.SilkS) (width 0.12))
  (fp_line (start 14.39 0.815) (end 14.39 11.13) (layer F.SilkS) (width 0.12))
  (fp_line (start -6.9 15.13) (end -6.9 15.795) (layer F.SilkS) (width 0.12))
  (fp_line (start -6.9 15.795) (end 3.745 15.795) (layer F.SilkS) (width 0.12))
  (fp_line (start 14.39 15.13) (end 14.39 15.795) (layer F.SilkS) (width 0.12))
  (fp_line (start 14.39 15.795) (end 3.745 15.795) (layer F.SilkS) (width 0.12))
  (fp_line (start 2.15 0.815) (end 5.34 0.815) (layer F.SilkS) (width 0.12))
  (fp_line (start -0.5 0.925) (end -0.5 -4.07) (layer F.Fab) (width 0.1))
  (fp_line (start -0.5 -4.07) (end 0.5 -4.07) (layer F.Fab) (width 0.1))
  (fp_line (start 0.5 -4.07) (end 0.5 0.925) (layer F.Fab) (width 0.1))
  (fp_line (start 0.5 0.925) (end -0.5 0.925) (layer F.Fab) (width 0.1))
  (fp_line (start 6.99 0.925) (end 6.99 -4.07) (layer F.Fab) (width 0.1))
  (fp_line (start 6.99 -4.07) (end 7.99 -4.07) (layer F.Fab) (width 0.1))
  (fp_line (start 7.99 -4.07) (end 7.99 0.925) (layer F.Fab) (width 0.1))
  (fp_line (start 7.99 0.925) (end 6.99 0.925) (layer F.Fab) (width 0.1))
  (fp_line (start -1.2 0.925) (end 0 2.622056) (layer F.Fab) (width 0.1))
  (fp_line (start 0 2.622056) (end 1.2 0.925) (layer F.Fab) (width 0.1))
  (fp_line (start -2.15 0.815) (end -2.15 -4.895) (layer F.SilkS) (width 0.12))
  (fp_line (start -7.29 -5.4) (end -7.29 16.19) (layer F.CrtYd) (width 0.05))
  (fp_line (start -7.29 16.19) (end 14.78 16.19) (layer F.CrtYd) (width 0.05))
  (fp_line (start 14.78 16.19) (end 14.78 -5.4) (layer F.CrtYd) (width 0.05))
  (fp_line (start 14.78 -5.4) (end -7.29 -5.4) (layer F.CrtYd) (width 0.05))
  (pad 1 thru_hole rect (at 0 0) (size 3.78 3.43) (drill 1.78) (layers *.Cu *.Mask))
  (pad 2 thru_hole rect (at 7.49 0) (size 3.78 3.43) (drill 1.78) (layers *.Cu *.Mask))
  (pad 1 thru_hole rect (at 0 -3.18) (size 3.78 3.43) (drill 1.78) (layers *.Cu *.Mask))
  (pad 2 thru_hole rect (at 7.49 -3.18) (size 3.78 3.43) (drill 1.78) (layers *.Cu *.Mask))
  (pad 1 thru_hole rect (at 0 -4.445) (size 0.6 0.6) (drill 0.3) (layers *.Cu *.Mask))
  (pad 1 thru_hole rect (at 0 -1.59) (size 0.6 0.6) (drill 0.3) (layers *.Cu *.Mask))
  (pad 1 thru_hole rect (at 0 1.265) (size 0.6 0.6) (drill 0.3) (layers *.Cu *.Mask))
  (pad 1 thru_hole rect (at -1.44 -4.445) (size 0.6 0.6) (drill 0.3) (layers *.Cu *.Mask))
  (pad 1 thru_hole rect (at -1.44 -3.0175) (size 0.6 0.6) (drill 0.3) (layers *.Cu *.Mask))
  (pad 1 thru_hole rect (at -1.44 -1.59) (size 0.6 0.6) (drill 0.3) (layers *.Cu *.Mask))
  (pad 1 thru_hole rect (at -1.44 -0.1625) (size 0.6 0.6) (drill 0.3) (layers *.Cu *.Mask))
  (pad 1 thru_hole rect (at -1.44 1.265) (size 0.6 0.6) (drill 0.3) (layers *.Cu *.Mask))
  (pad 1 thru_hole rect (at 1.44 -4.445) (size 0.6 0.6) (drill 0.3) (layers *.Cu *.Mask))
  (pad 1 thru_hole rect (at 1.44 -3.0175) (size 0.6 0.6) (drill 0.3) (layers *.Cu *.Mask))
  (pad 1 thru_hole rect (at 1.44 -1.59) (size 0.6 0.6) (drill 0.3) (layers *.Cu *.Mask))
  (pad 1 thru_hole rect (at 1.44 -0.1625) (size 0.6 0.6) (drill 0.3) (layers *.Cu *.Mask))
  (pad 1 thru_hole rect (at 1.44 1.265) (size 0.6 0.6) (drill 0.3) (layers *.Cu *.Mask))
  (pad 2 thru_hole circle (at 7.49 -4.445) (size 0.6 0.6) (drill 0.3) (layers *.Cu *.Mask))
  (pad 2 thru_hole circle (at 7.49 -1.59) (size 0.6 0.6) (drill 0.3) (layers *.Cu *.Mask))
  (pad 2 thru_hole circle (at 7.49 1.265) (size 0.6 0.6) (drill 0.3) (layers *.Cu *.Mask))
  (pad 2 thru_hole circle (at 6.05 -4.445) (size 0.6 0.6) (drill 0.3) (layers *.Cu *.Mask))
  (pad 2 thru_hole circle (at 6.05 -3.0175) (size 0.6 0.6) (drill 0.3) (layers *.Cu *.Mask))
  (pad 2 thru_hole circle (at 6.05 -1.59) (size 0.6 0.6) (drill 0.3) (layers *.Cu *.Mask))
  (pad 2 thru_hole circle (at 6.05 -0.1625) (size 0.6 0.6) (drill 0.3) (layers *.Cu *.Mask))
  (pad 2 thru_hole circle (at 6.05 1.265) (size 0.6 0.6) (drill 0.3) (layers *.Cu *.Mask))
  (pad 2 thru_hole circle (at 8.93 -4.445) (size 0.6 0.6) (drill 0.3) (layers *.Cu *.Mask))
  (pad 2 thru_hole circle (at 8.93 -3.0175) (size 0.6 0.6) (drill 0.3) (layers *.Cu *.Mask))
  (pad 2 thru_hole circle (at 8.93 -1.59) (size 0.6 0.6) (drill 0.3) (layers *.Cu *.Mask))
  (pad 2 thru_hole circle (at 8.93 -0.1625) (size 0.6 0.6) (drill 0.3) (layers *.Cu *.Mask))
  (pad 2 thru_hole circle (at 8.93 1.265) (size 0.6 0.6) (drill 0.3) (layers *.Cu *.Mask))
  (pad "" thru_hole circle (at -4.75 13.13) (size 4 4) (drill 3) (layers *.Cu *.Mask))
  (pad "" thru_hole circle (at 12.24 13.13) (size 4 4) (drill 3) (layers *.Cu *.Mask))
  (fp_text user %R (at 3.75 14.98) (layer F.Fab)
    (effects (font (size 1 1) (thickness 0.15)))
  )
  (model ${KIPRJMOD}/kicad_libs_k/models_k.3d/Connector_Molex_k.3dshapes/Molex_Sabre_43160-1102_1x02_P7.49mm_Horizontal_ThermalVias_k.wrl
    (at (xyz 0 0 0))
    (scale (xyz 1 1 1))
    (rotate (xyz 0 0 0))
  )
)