(module Fuse_Blade_Mini_directSolder (layer F.Cu) (tedit 5A1C8B1E)
  (descr "car blade fuse mini, direct solder")
  (tags "car blade fuse mini")
  (fp_text reference REF** (at 3.95 -2.85) (layer F.SilkS)
    (effects (font (size 1 1) (thickness 0.15)))
  )
  (fp_text value Fuse_Blade_Mini_directSolder (at 4 3.05) (layer F.Fab)
    (effects (font (size 1 1) (thickness 0.15)))
  )
  (fp_text user %R (at 4.25 -1) (layer F.Fab)
    (effects (font (size 1 1) (thickness 0.15)))
  )
  (fp_line (start -1.55 -1.95) (end 9.55 -1.95) (layer F.Fab) (width 0.1))
  (fp_line (start 9.55 -1.95) (end 9.55 1.95) (layer F.Fab) (width 0.1))
  (fp_line (start 9.55 1.95) (end -1.55 1.95) (layer F.Fab) (width 0.1))
  (fp_line (start -1.55 1.95) (end -1.55 -1.95) (layer F.Fab) (width 0.1))
  (fp_line (start 3.25 0) (end 4.85 0) (layer F.SilkS) (width 0.12))
  (fp_line (start 5.6 2) (end 2.4 2) (layer F.SilkS) (width 0.12))
  (fp_line (start 2.4 -2) (end 5.6 -2) (layer F.SilkS) (width 0.12))
  (fp_line (start -3 -2.2) (end 10.9 -2.2) (layer F.CrtYd) (width 0.05))
  (fp_line (start -3 -2.2) (end -3 2.2) (layer F.CrtYd) (width 0.05))
  (fp_line (start 10.9 2.2) (end 10.9 -2.2) (layer F.CrtYd) (width 0.05))
  (fp_line (start 10.9 2.2) (end -3 2.2) (layer F.CrtYd) (width 0.05))
  (pad 1 thru_hole oval (at 0 0) (size 5.5 3.8) (drill oval 3.5 2) (layers *.Cu *.Mask))
  (pad 2 thru_hole oval (at 8 0) (size 5.3 3.8) (drill oval 3.5 2) (layers *.Cu *.Mask))
  (model ${KIPRJMOD}/kicad_libs_k/models_k.3d/Fuse_k.3dshapes/Fuse_Blade_Mini_directSolder_k.wrl
    (at (xyz 0.16 0 0))
    (scale (xyz 0.39 0.39 0.39))
    (rotate (xyz 0 0 0))
  )
)
