(module Fuseholder_Cylinder-5x20mm_Schurter_FAB_0031-355x_Horizontal_Closed (layer F.Cu) (tedit 59ED1645)
  (descr "Fuseholder 5x20mm horizontal Shurter model FAB, Suitable for order numbers 0031.3551 and 0031.3558  (https://www.schurter.com/bundles/snceschurter/epim/_ProdPool_/newDS/en/typ_FAB.pdf)")
  (tags "Fuseholder 5x20mm closed horizontal")
  (fp_text reference REF** (at 13.125 -7) (layer F.SilkS)
    (effects (font (size 1 1) (thickness 0.15)))
  )
  (fp_text value Fuseholder_Cylinder-5x20mm_Schurter_FAB_0031-355x_Horizontal_Closed (at 13.125 8) (layer F.Fab)
    (effects (font (size 1 1) (thickness 0.15)))
  )
  (fp_line (start -1.5 1.5) (end -0.5 1.5) (layer F.CrtYd) (width 0.05))
  (fp_line (start -1.5 -1.5) (end -1.5 1.5) (layer F.CrtYd) (width 0.05))
  (fp_line (start -0.5 -1.5) (end -1.5 -1.5) (layer F.CrtYd) (width 0.05))
  (fp_text user %R (at 13 5.25) (layer F.Fab)
    (effects (font (size 1 1) (thickness 0.15)))
  )
  (fp_line (start 31.5 -5.28) (end 26.5 -5.28) (layer F.CrtYd) (width 0.05))
  (fp_line (start 31.5 5.28) (end 31.5 -5.28) (layer F.CrtYd) (width 0.05))
  (fp_line (start 26.5 5.28) (end 31.5 5.28) (layer F.CrtYd) (width 0.05))
  (fp_line (start 26.5 6.25) (end -0.5 6.25) (layer F.CrtYd) (width 0.05))
  (fp_line (start 26.5 5.28) (end 26.5 6.25) (layer F.CrtYd) (width 0.05))
  (fp_line (start 26.5 -6.25) (end 26.5 -5.28) (layer F.CrtYd) (width 0.05))
  (fp_line (start -0.5 -6.25) (end 26.5 -6.25) (layer F.CrtYd) (width 0.05))
  (fp_line (start -0.35 6.1) (end 26.35 6.1) (layer F.SilkS) (width 0.12))
  (fp_line (start -0.35 1.5) (end -0.35 6.1) (layer F.SilkS) (width 0.12))
  (fp_line (start -0.35 -6.1) (end -0.35 -1.5) (layer F.SilkS) (width 0.12))
  (fp_line (start 26.35 -6.1) (end -0.35 -6.1) (layer F.SilkS) (width 0.12))
  (fp_line (start 26.35 -5.13) (end 26.35 -6.1) (layer F.SilkS) (width 0.12))
  (fp_line (start 26.35 5.13) (end 26.35 6.1) (layer F.SilkS) (width 0.12))
  (fp_line (start 31.35 5.13) (end 26.35 5.13) (layer F.SilkS) (width 0.12))
  (fp_line (start 31.35 -5.13) (end 31.35 5.13) (layer F.SilkS) (width 0.12))
  (fp_line (start 26.35 -5.13) (end 31.35 -5.13) (layer F.SilkS) (width 0.12))
  (fp_line (start 31.25 5.03) (end 26.25 5.03) (layer F.Fab) (width 0.1))
  (fp_line (start 31.25 -5.03) (end 31.25 5.03) (layer F.Fab) (width 0.1))
  (fp_line (start 26.25 -5.03) (end 31.25 -5.03) (layer F.Fab) (width 0.1))
  (fp_line (start -0.25 6) (end -0.25 -6) (layer F.Fab) (width 0.1))
  (fp_line (start 26.25 6) (end -0.25 6) (layer F.Fab) (width 0.1))
  (fp_line (start 26.25 -6) (end 26.25 6) (layer F.Fab) (width 0.1))
  (fp_line (start -0.25 -6) (end 26.25 -6) (layer F.Fab) (width 0.1))
  (fp_line (start -0.5 -6.25) (end -0.5 -1.5) (layer F.CrtYd) (width 0.05))
  (fp_line (start -0.5 1.5) (end -0.5 6.25) (layer F.CrtYd) (width 0.05))
  (pad 1 thru_hole rect (at 0 0) (size 2.5 2.5) (drill 1.3) (layers *.Cu *.Mask))
  (pad 2 thru_hole circle (at 10 0) (size 2.5 2.5) (drill 1.3) (layers *.Cu *.Mask))
  (model ${KIPRJMOD}/kicad_libs_k/models_k.3d/Fuse_k.3dshapes/Fuseholder_Cylinder-5x20mm_Schurter_FAB_0031-355x_Horizontal_Closed_k.wrl
    (at (xyz 0 0 0))
    (scale (xyz 1 1 1))
    (rotate (xyz 0 0 0))
  )
)
