(module Fuse_2920_7451Metric_Pad2.10x5.45mm_HandSolder (layer F.Cu) (tedit 5B341557)
  (descr "Fuse SMD 2920 (7451 Metric), square (rectangular) end terminal, IPC_7351 nominal with elongated pad for handsoldering. (Body size from: http://www.megastar.com/products/fusetronic/polyswitch/PDF/smd2920.pdf), generated with kicad-footprint-generator")
  (tags "resistor handsolder")
  (attr smd)
  (fp_text reference REF** (at 0 -3.68) (layer F.SilkS)
    (effects (font (size 1 1) (thickness 0.15)))
  )
  (fp_text value Fuse_2920_7451Metric_Pad2.10x5.45mm_HandSolder (at 0 3.68) (layer F.Fab)
    (effects (font (size 1 1) (thickness 0.15)))
  )
  (fp_line (start -3.6775 2.56) (end -3.6775 -2.56) (layer F.Fab) (width 0.1))
  (fp_line (start -3.6775 -2.56) (end 3.6775 -2.56) (layer F.Fab) (width 0.1))
  (fp_line (start 3.6775 -2.56) (end 3.6775 2.56) (layer F.Fab) (width 0.1))
  (fp_line (start 3.6775 2.56) (end -3.6775 2.56) (layer F.Fab) (width 0.1))
  (fp_line (start -2.203752 -2.67) (end 2.203752 -2.67) (layer F.SilkS) (width 0.12))
  (fp_line (start -2.203752 2.67) (end 2.203752 2.67) (layer F.SilkS) (width 0.12))
  (fp_line (start -4.78 2.98) (end -4.78 -2.98) (layer F.CrtYd) (width 0.05))
  (fp_line (start -4.78 -2.98) (end 4.78 -2.98) (layer F.CrtYd) (width 0.05))
  (fp_line (start 4.78 -2.98) (end 4.78 2.98) (layer F.CrtYd) (width 0.05))
  (fp_line (start 4.78 2.98) (end -4.78 2.98) (layer F.CrtYd) (width 0.05))
  (pad 1 smd roundrect (at -3.475 0) (size 2.1 5.45) (layers F.Cu F.Mask F.Paste) (roundrect_rratio 0.119048))
  (pad 2 smd roundrect (at 3.475 0) (size 2.1 5.45) (layers F.Cu F.Mask F.Paste) (roundrect_rratio 0.119048))
  (fp_text user %R (at 0 0) (layer F.Fab)
    (effects (font (size 1 1) (thickness 0.15)))
  )
  (model ${KIPRJMOD}/kicad_libs_k/models_k.3d/Fuse_k.3dshapes/Fuse_2920_7451Metric_k.wrl
    (at (xyz 0 0 0))
    (scale (xyz 1 1 1))
    (rotate (xyz 0 0 0))
  )
)