(module Fuse_1806_4516Metric (layer F.Cu) (tedit 5B301BBE)
  (descr "Fuse SMD 1806 (4516 Metric), square (rectangular) end terminal, IPC_7351 nominal, (Body size source: https://www.modelithics.com/models/Vendor/MuRata/BLM41P.pdf), generated with kicad-footprint-generator")
  (tags resistor)
  (attr smd)
  (fp_text reference REF** (at 0 -1.85) (layer F.SilkS)
    (effects (font (size 1 1) (thickness 0.15)))
  )
  (fp_text value Fuse_1806_4516Metric (at 0 1.85) (layer F.Fab)
    (effects (font (size 1 1) (thickness 0.15)))
  )
  (fp_line (start -2.25 0.8) (end -2.25 -0.8) (layer F.Fab) (width 0.1))
  (fp_line (start -2.25 -0.8) (end 2.25 -0.8) (layer F.Fab) (width 0.1))
  (fp_line (start 2.25 -0.8) (end 2.25 0.8) (layer F.Fab) (width 0.1))
  (fp_line (start 2.25 0.8) (end -2.25 0.8) (layer F.Fab) (width 0.1))
  (fp_line (start -1.111252 -0.91) (end 1.111252 -0.91) (layer F.SilkS) (width 0.12))
  (fp_line (start -1.111252 0.91) (end 1.111252 0.91) (layer F.SilkS) (width 0.12))
  (fp_line (start -2.95 1.15) (end -2.95 -1.15) (layer F.CrtYd) (width 0.05))
  (fp_line (start -2.95 -1.15) (end 2.95 -1.15) (layer F.CrtYd) (width 0.05))
  (fp_line (start 2.95 -1.15) (end 2.95 1.15) (layer F.CrtYd) (width 0.05))
  (fp_line (start 2.95 1.15) (end -2.95 1.15) (layer F.CrtYd) (width 0.05))
  (pad 1 smd roundrect (at -2 0) (size 1.4 1.8) (layers F.Cu F.Mask F.Paste) (roundrect_rratio 0.178571))
  (pad 2 smd roundrect (at 2 0) (size 1.4 1.8) (layers F.Cu F.Mask F.Paste) (roundrect_rratio 0.178571))
  (fp_text user %R (at 0 0) (layer F.Fab)
    (effects (font (size 1 1) (thickness 0.15)))
  )
  (model ${KIPRJMOD}/kicad_libs_k/models_k.3d/Fuse_k.3dshapes/Fuse_1806_4516Metric_k.wrl
    (at (xyz 0 0 0))
    (scale (xyz 1 1 1))
    (rotate (xyz 0 0 0))
  )
)