(module Fuse_2512_6332Metric_Pad1.49x3.40mm_HandSolder (layer F.Cu) (tedit 5AC5DB75)
  (descr "Fuse SMD 2512 (6332 Metric), square (rectangular) end terminal, IPC_7351 nominal with elongated pad for handsoldering. (Body size source: http://www.tortai-tech.com/upload/download/2011102023233369053.pdf), generated with kicad-footprint-generator")
  (tags "resistor handsolder")
  (attr smd)
  (fp_text reference REF** (at 0 -2.65) (layer F.SilkS)
    (effects (font (size 1 1) (thickness 0.15)))
  )
  (fp_text value Fuse_2512_6332Metric_Pad1.49x3.40mm_HandSolder (at 0 2.65) (layer F.Fab)
    (effects (font (size 1 1) (thickness 0.15)))
  )
  (fp_line (start -3.15 1.6) (end -3.15 -1.6) (layer F.Fab) (width 0.1))
  (fp_line (start -3.15 -1.6) (end 3.15 -1.6) (layer F.Fab) (width 0.1))
  (fp_line (start 3.15 -1.6) (end 3.15 1.6) (layer F.Fab) (width 0.1))
  (fp_line (start 3.15 1.6) (end -3.15 1.6) (layer F.Fab) (width 0.1))
  (fp_line (start -1.95 -1.71) (end 1.95 -1.71) (layer F.SilkS) (width 0.12))
  (fp_line (start -1.95 1.71) (end 1.95 1.71) (layer F.SilkS) (width 0.12))
  (fp_line (start -4.01 1.95) (end -4.01 -1.95) (layer F.CrtYd) (width 0.05))
  (fp_line (start -4.01 -1.95) (end 4.01 -1.95) (layer F.CrtYd) (width 0.05))
  (fp_line (start 4.01 -1.95) (end 4.01 1.95) (layer F.CrtYd) (width 0.05))
  (fp_line (start 4.01 1.95) (end -4.01 1.95) (layer F.CrtYd) (width 0.05))
  (pad 1 smd rect (at -3.0175 0) (size 1.495 3.4) (layers F.Cu F.Mask F.Paste))
  (pad 2 smd rect (at 3.0175 0) (size 1.495 3.4) (layers F.Cu F.Mask F.Paste))
  (fp_text user %R (at 0 0) (layer F.Fab)
    (effects (font (size 1 1) (thickness 0.15)))
  )
  (model ${KIPRJMOD}/kicad_libs_k/models_k.3d/Fuse_k.3dshapes/Fuse_2512_6332Metric_k.wrl
    (at (xyz 0 0 0))
    (scale (xyz 1 1 1))
    (rotate (xyz 0 0 0))
  )
)