(module TerminalBlock_Phoenix_MKDS-1,5-6_1x06_P5.00mm_Horizontal (layer F.Cu) (tedit 5B294EE7)
  (descr "Terminal Block Phoenix MKDS-1,5-6, 6 pins, pitch 5mm, size 30x9.8mm^2, drill diamater 1.3mm, pad diameter 2.6mm, see http://www.farnell.com/datasheets/100425.pdf, script-generated using https://github.com/pointhi/kicad-footprint-generator/scripts/TerminalBlock_Phoenix")
  (tags "THT Terminal Block Phoenix MKDS-1,5-6 pitch 5mm size 30x9.8mm^2 drill 1.3mm pad 2.6mm")
  (fp_text reference REF** (at 12.5 -6.26) (layer F.SilkS)
    (effects (font (size 1 1) (thickness 0.15)))
  )
  (fp_text value TerminalBlock_Phoenix_MKDS-1,5-6_1x06_P5.00mm_Horizontal (at 12.5 5.66) (layer F.Fab)
    (effects (font (size 1 1) (thickness 0.15)))
  )
  (fp_arc (start 0 0) (end 0 1.68) (angle -24) (layer F.SilkS) (width 0.12))
  (fp_arc (start 0 0) (end 1.535 0.684) (angle -48) (layer F.SilkS) (width 0.12))
  (fp_arc (start 0 0) (end 0.684 -1.535) (angle -48) (layer F.SilkS) (width 0.12))
  (fp_arc (start 0 0) (end -1.535 -0.684) (angle -48) (layer F.SilkS) (width 0.12))
  (fp_arc (start 0 0) (end -0.684 1.535) (angle -25) (layer F.SilkS) (width 0.12))
  (fp_circle (center 0 0) (end 1.5 0) (layer F.Fab) (width 0.1))
  (fp_circle (center 5 0) (end 6.5 0) (layer F.Fab) (width 0.1))
  (fp_circle (center 5 0) (end 6.68 0) (layer F.SilkS) (width 0.12))
  (fp_circle (center 10 0) (end 11.5 0) (layer F.Fab) (width 0.1))
  (fp_circle (center 10 0) (end 11.68 0) (layer F.SilkS) (width 0.12))
  (fp_circle (center 15 0) (end 16.5 0) (layer F.Fab) (width 0.1))
  (fp_circle (center 15 0) (end 16.68 0) (layer F.SilkS) (width 0.12))
  (fp_circle (center 20 0) (end 21.5 0) (layer F.Fab) (width 0.1))
  (fp_circle (center 20 0) (end 21.68 0) (layer F.SilkS) (width 0.12))
  (fp_circle (center 25 0) (end 26.5 0) (layer F.Fab) (width 0.1))
  (fp_circle (center 25 0) (end 26.68 0) (layer F.SilkS) (width 0.12))
  (fp_line (start -2.5 -5.2) (end 27.5 -5.2) (layer F.Fab) (width 0.1))
  (fp_line (start 27.5 -5.2) (end 27.5 4.6) (layer F.Fab) (width 0.1))
  (fp_line (start 27.5 4.6) (end -2 4.6) (layer F.Fab) (width 0.1))
  (fp_line (start -2 4.6) (end -2.5 4.1) (layer F.Fab) (width 0.1))
  (fp_line (start -2.5 4.1) (end -2.5 -5.2) (layer F.Fab) (width 0.1))
  (fp_line (start -2.5 4.1) (end 27.5 4.1) (layer F.Fab) (width 0.1))
  (fp_line (start -2.56 4.1) (end 27.56 4.1) (layer F.SilkS) (width 0.12))
  (fp_line (start -2.5 2.6) (end 27.5 2.6) (layer F.Fab) (width 0.1))
  (fp_line (start -2.56 2.6) (end 27.56 2.6) (layer F.SilkS) (width 0.12))
  (fp_line (start -2.5 -2.3) (end 27.5 -2.3) (layer F.Fab) (width 0.1))
  (fp_line (start -2.56 -2.301) (end 27.56 -2.301) (layer F.SilkS) (width 0.12))
  (fp_line (start -2.56 -5.261) (end 27.56 -5.261) (layer F.SilkS) (width 0.12))
  (fp_line (start -2.56 4.66) (end 27.56 4.66) (layer F.SilkS) (width 0.12))
  (fp_line (start -2.56 -5.261) (end -2.56 4.66) (layer F.SilkS) (width 0.12))
  (fp_line (start 27.56 -5.261) (end 27.56 4.66) (layer F.SilkS) (width 0.12))
  (fp_line (start 1.138 -0.955) (end -0.955 1.138) (layer F.Fab) (width 0.1))
  (fp_line (start 0.955 -1.138) (end -1.138 0.955) (layer F.Fab) (width 0.1))
  (fp_line (start 6.138 -0.955) (end 4.046 1.138) (layer F.Fab) (width 0.1))
  (fp_line (start 5.955 -1.138) (end 3.863 0.955) (layer F.Fab) (width 0.1))
  (fp_line (start 6.275 -1.069) (end 6.228 -1.023) (layer F.SilkS) (width 0.12))
  (fp_line (start 3.966 1.239) (end 3.931 1.274) (layer F.SilkS) (width 0.12))
  (fp_line (start 6.07 -1.275) (end 6.035 -1.239) (layer F.SilkS) (width 0.12))
  (fp_line (start 3.773 1.023) (end 3.726 1.069) (layer F.SilkS) (width 0.12))
  (fp_line (start 11.138 -0.955) (end 9.046 1.138) (layer F.Fab) (width 0.1))
  (fp_line (start 10.955 -1.138) (end 8.863 0.955) (layer F.Fab) (width 0.1))
  (fp_line (start 11.275 -1.069) (end 11.228 -1.023) (layer F.SilkS) (width 0.12))
  (fp_line (start 8.966 1.239) (end 8.931 1.274) (layer F.SilkS) (width 0.12))
  (fp_line (start 11.07 -1.275) (end 11.035 -1.239) (layer F.SilkS) (width 0.12))
  (fp_line (start 8.773 1.023) (end 8.726 1.069) (layer F.SilkS) (width 0.12))
  (fp_line (start 16.138 -0.955) (end 14.046 1.138) (layer F.Fab) (width 0.1))
  (fp_line (start 15.955 -1.138) (end 13.863 0.955) (layer F.Fab) (width 0.1))
  (fp_line (start 16.275 -1.069) (end 16.228 -1.023) (layer F.SilkS) (width 0.12))
  (fp_line (start 13.966 1.239) (end 13.931 1.274) (layer F.SilkS) (width 0.12))
  (fp_line (start 16.07 -1.275) (end 16.035 -1.239) (layer F.SilkS) (width 0.12))
  (fp_line (start 13.773 1.023) (end 13.726 1.069) (layer F.SilkS) (width 0.12))
  (fp_line (start 21.138 -0.955) (end 19.046 1.138) (layer F.Fab) (width 0.1))
  (fp_line (start 20.955 -1.138) (end 18.863 0.955) (layer F.Fab) (width 0.1))
  (fp_line (start 21.275 -1.069) (end 21.228 -1.023) (layer F.SilkS) (width 0.12))
  (fp_line (start 18.966 1.239) (end 18.931 1.274) (layer F.SilkS) (width 0.12))
  (fp_line (start 21.07 -1.275) (end 21.035 -1.239) (layer F.SilkS) (width 0.12))
  (fp_line (start 18.773 1.023) (end 18.726 1.069) (layer F.SilkS) (width 0.12))
  (fp_line (start 26.138 -0.955) (end 24.046 1.138) (layer F.Fab) (width 0.1))
  (fp_line (start 25.955 -1.138) (end 23.863 0.955) (layer F.Fab) (width 0.1))
  (fp_line (start 26.275 -1.069) (end 26.228 -1.023) (layer F.SilkS) (width 0.12))
  (fp_line (start 23.966 1.239) (end 23.931 1.274) (layer F.SilkS) (width 0.12))
  (fp_line (start 26.07 -1.275) (end 26.035 -1.239) (layer F.SilkS) (width 0.12))
  (fp_line (start 23.773 1.023) (end 23.726 1.069) (layer F.SilkS) (width 0.12))
  (fp_line (start -2.8 4.16) (end -2.8 4.9) (layer F.SilkS) (width 0.12))
  (fp_line (start -2.8 4.9) (end -2.3 4.9) (layer F.SilkS) (width 0.12))
  (fp_line (start -3 -5.71) (end -3 5.1) (layer F.CrtYd) (width 0.05))
  (fp_line (start -3 5.1) (end 28 5.1) (layer F.CrtYd) (width 0.05))
  (fp_line (start 28 5.1) (end 28 -5.71) (layer F.CrtYd) (width 0.05))
  (fp_line (start 28 -5.71) (end -3 -5.71) (layer F.CrtYd) (width 0.05))
  (pad 1 thru_hole rect (at 0 0) (size 2.6 2.6) (drill 1.3) (layers *.Cu *.Mask))
  (pad 2 thru_hole circle (at 5 0) (size 2.6 2.6) (drill 1.3) (layers *.Cu *.Mask))
  (pad 3 thru_hole circle (at 10 0) (size 2.6 2.6) (drill 1.3) (layers *.Cu *.Mask))
  (pad 4 thru_hole circle (at 15 0) (size 2.6 2.6) (drill 1.3) (layers *.Cu *.Mask))
  (pad 5 thru_hole circle (at 20 0) (size 2.6 2.6) (drill 1.3) (layers *.Cu *.Mask))
  (pad 6 thru_hole circle (at 25 0) (size 2.6 2.6) (drill 1.3) (layers *.Cu *.Mask))
  (fp_text user %R (at 12.5 3.2) (layer F.Fab)
    (effects (font (size 1 1) (thickness 0.15)))
  )
  (model ${KIPRJMOD}/kicad_libs_k/models_k.3d/TerminalBlock_Phoenix_k.3dshapes/TerminalBlock_Phoenix_MKDS-1,5-6_1x06_P5.00mm_Horizontal_k.wrl
    (at (xyz 0 0 0))
    (scale (xyz 1 1 1))
    (rotate (xyz 0 0 0))
  )
)