(module TerminalBlock_Phoenix_PT-1,5-5-5.0-H_1x05_P5.00mm_Horizontal (layer F.Cu) (tedit 5B294F6A)
  (descr "Terminal Block Phoenix PT-1,5-5-5.0-H, 5 pins, pitch 5mm, size 25x9mm^2, drill diamater 1.3mm, pad diameter 2.6mm, see http://www.mouser.com/ds/2/324/ItemDetail_1935161-922578.pdf, script-generated using https://github.com/pointhi/kicad-footprint-generator/scripts/TerminalBlock_Phoenix")
  (tags "THT Terminal Block Phoenix PT-1,5-5-5.0-H pitch 5mm size 25x9mm^2 drill 1.3mm pad 2.6mm")
  (fp_text reference REF** (at 10 -5.06) (layer F.SilkS)
    (effects (font (size 1 1) (thickness 0.15)))
  )
  (fp_text value TerminalBlock_Phoenix_PT-1,5-5-5.0-H_1x05_P5.00mm_Horizontal (at 10 6.06) (layer F.Fab)
    (effects (font (size 1 1) (thickness 0.15)))
  )
  (fp_circle (center 0 0) (end 2 0) (layer F.Fab) (width 0.1))
  (fp_circle (center 0 0) (end 2.18 0) (layer F.SilkS) (width 0.12))
  (fp_circle (center 5 0) (end 7 0) (layer F.Fab) (width 0.1))
  (fp_circle (center 5 0) (end 7.18 0) (layer F.SilkS) (width 0.12))
  (fp_circle (center 10 0) (end 12 0) (layer F.Fab) (width 0.1))
  (fp_circle (center 10 0) (end 12.18 0) (layer F.SilkS) (width 0.12))
  (fp_circle (center 15 0) (end 17 0) (layer F.Fab) (width 0.1))
  (fp_circle (center 15 0) (end 17.18 0) (layer F.SilkS) (width 0.12))
  (fp_circle (center 20 0) (end 22 0) (layer F.Fab) (width 0.1))
  (fp_circle (center 20 0) (end 22.18 0) (layer F.SilkS) (width 0.12))
  (fp_line (start -2.5 -4) (end 22.5 -4) (layer F.Fab) (width 0.1))
  (fp_line (start 22.5 -4) (end 22.5 5) (layer F.Fab) (width 0.1))
  (fp_line (start 22.5 5) (end -2.1 5) (layer F.Fab) (width 0.1))
  (fp_line (start -2.1 5) (end -2.5 4.6) (layer F.Fab) (width 0.1))
  (fp_line (start -2.5 4.6) (end -2.5 -4) (layer F.Fab) (width 0.1))
  (fp_line (start -2.5 4.6) (end 22.5 4.6) (layer F.Fab) (width 0.1))
  (fp_line (start -2.56 4.6) (end 22.56 4.6) (layer F.SilkS) (width 0.12))
  (fp_line (start -2.5 3.5) (end 22.5 3.5) (layer F.Fab) (width 0.1))
  (fp_line (start -2.56 3.5) (end 22.56 3.5) (layer F.SilkS) (width 0.12))
  (fp_line (start -2.56 -4.06) (end 22.56 -4.06) (layer F.SilkS) (width 0.12))
  (fp_line (start -2.56 5.06) (end 22.56 5.06) (layer F.SilkS) (width 0.12))
  (fp_line (start -2.56 -4.06) (end -2.56 5.06) (layer F.SilkS) (width 0.12))
  (fp_line (start 22.56 -4.06) (end 22.56 5.06) (layer F.SilkS) (width 0.12))
  (fp_line (start 1.517 -1.273) (end -1.273 1.517) (layer F.Fab) (width 0.1))
  (fp_line (start 1.273 -1.517) (end -1.517 1.273) (layer F.Fab) (width 0.1))
  (fp_line (start 1.654 -1.388) (end 1.547 -1.281) (layer F.SilkS) (width 0.12))
  (fp_line (start -1.282 1.547) (end -1.388 1.654) (layer F.SilkS) (width 0.12))
  (fp_line (start 1.388 -1.654) (end 1.281 -1.547) (layer F.SilkS) (width 0.12))
  (fp_line (start -1.548 1.281) (end -1.654 1.388) (layer F.SilkS) (width 0.12))
  (fp_line (start 6.517 -1.273) (end 3.728 1.517) (layer F.Fab) (width 0.1))
  (fp_line (start 6.273 -1.517) (end 3.484 1.273) (layer F.Fab) (width 0.1))
  (fp_line (start 6.654 -1.388) (end 6.259 -0.992) (layer F.SilkS) (width 0.12))
  (fp_line (start 3.993 1.274) (end 3.613 1.654) (layer F.SilkS) (width 0.12))
  (fp_line (start 6.388 -1.654) (end 6.008 -1.274) (layer F.SilkS) (width 0.12))
  (fp_line (start 3.742 0.992) (end 3.347 1.388) (layer F.SilkS) (width 0.12))
  (fp_line (start 11.517 -1.273) (end 8.728 1.517) (layer F.Fab) (width 0.1))
  (fp_line (start 11.273 -1.517) (end 8.484 1.273) (layer F.Fab) (width 0.1))
  (fp_line (start 11.654 -1.388) (end 11.259 -0.992) (layer F.SilkS) (width 0.12))
  (fp_line (start 8.993 1.274) (end 8.613 1.654) (layer F.SilkS) (width 0.12))
  (fp_line (start 11.388 -1.654) (end 11.008 -1.274) (layer F.SilkS) (width 0.12))
  (fp_line (start 8.742 0.992) (end 8.347 1.388) (layer F.SilkS) (width 0.12))
  (fp_line (start 16.517 -1.273) (end 13.728 1.517) (layer F.Fab) (width 0.1))
  (fp_line (start 16.273 -1.517) (end 13.484 1.273) (layer F.Fab) (width 0.1))
  (fp_line (start 16.654 -1.388) (end 16.259 -0.992) (layer F.SilkS) (width 0.12))
  (fp_line (start 13.993 1.274) (end 13.613 1.654) (layer F.SilkS) (width 0.12))
  (fp_line (start 16.388 -1.654) (end 16.008 -1.274) (layer F.SilkS) (width 0.12))
  (fp_line (start 13.742 0.992) (end 13.347 1.388) (layer F.SilkS) (width 0.12))
  (fp_line (start 21.517 -1.273) (end 18.728 1.517) (layer F.Fab) (width 0.1))
  (fp_line (start 21.273 -1.517) (end 18.484 1.273) (layer F.Fab) (width 0.1))
  (fp_line (start 21.654 -1.388) (end 21.259 -0.992) (layer F.SilkS) (width 0.12))
  (fp_line (start 18.993 1.274) (end 18.613 1.654) (layer F.SilkS) (width 0.12))
  (fp_line (start 21.388 -1.654) (end 21.008 -1.274) (layer F.SilkS) (width 0.12))
  (fp_line (start 18.742 0.992) (end 18.347 1.388) (layer F.SilkS) (width 0.12))
  (fp_line (start -2.8 4.66) (end -2.8 5.3) (layer F.SilkS) (width 0.12))
  (fp_line (start -2.8 5.3) (end -2.4 5.3) (layer F.SilkS) (width 0.12))
  (fp_line (start -3 -4.5) (end -3 5.5) (layer F.CrtYd) (width 0.05))
  (fp_line (start -3 5.5) (end 23 5.5) (layer F.CrtYd) (width 0.05))
  (fp_line (start 23 5.5) (end 23 -4.5) (layer F.CrtYd) (width 0.05))
  (fp_line (start 23 -4.5) (end -3 -4.5) (layer F.CrtYd) (width 0.05))
  (pad 1 thru_hole rect (at 0 0) (size 2.6 2.6) (drill 1.3) (layers *.Cu *.Mask))
  (pad 2 thru_hole circle (at 5 0) (size 2.6 2.6) (drill 1.3) (layers *.Cu *.Mask))
  (pad 3 thru_hole circle (at 10 0) (size 2.6 2.6) (drill 1.3) (layers *.Cu *.Mask))
  (pad 4 thru_hole circle (at 15 0) (size 2.6 2.6) (drill 1.3) (layers *.Cu *.Mask))
  (pad 5 thru_hole circle (at 20 0) (size 2.6 2.6) (drill 1.3) (layers *.Cu *.Mask))
  (fp_text user %R (at 10 2.9) (layer F.Fab)
    (effects (font (size 1 1) (thickness 0.15)))
  )
  (model ${KIPRJMOD}/kicad_libs_k/models_k.3d/TerminalBlock_Phoenix_k.3dshapes/TerminalBlock_Phoenix_PT-1,5-5-5.0-H_1x05_P5.00mm_Horizontal_k.wrl
    (at (xyz 0 0 0))
    (scale (xyz 1 1 1))
    (rotate (xyz 0 0 0))
  )
)