(module TerminalBlock_Phoenix_PT-1,5-9-3.5-H_1x09_P3.50mm_Horizontal (layer F.Cu) (tedit 5B294F46)
  (descr "Terminal Block Phoenix PT-1,5-9-3.5-H, 9 pins, pitch 3.5mm, size 31.5x7.6mm^2, drill diamater 1.2mm, pad diameter 2.4mm, see , script-generated using https://github.com/pointhi/kicad-footprint-generator/scripts/TerminalBlock_Phoenix")
  (tags "THT Terminal Block Phoenix PT-1,5-9-3.5-H pitch 3.5mm size 31.5x7.6mm^2 drill 1.2mm pad 2.4mm")
  (fp_text reference REF** (at 14 -4.16) (layer F.SilkS)
    (effects (font (size 1 1) (thickness 0.15)))
  )
  (fp_text value TerminalBlock_Phoenix_PT-1,5-9-3.5-H_1x09_P3.50mm_Horizontal (at 14 5.56) (layer F.Fab)
    (effects (font (size 1 1) (thickness 0.15)))
  )
  (fp_arc (start 0 0) (end 0 1.68) (angle -32) (layer F.SilkS) (width 0.12))
  (fp_arc (start 0 0) (end 1.425 0.891) (angle -64) (layer F.SilkS) (width 0.12))
  (fp_arc (start 0 0) (end 0.866 -1.44) (angle -63) (layer F.SilkS) (width 0.12))
  (fp_arc (start 0 0) (end -1.44 -0.866) (angle -63) (layer F.SilkS) (width 0.12))
  (fp_arc (start 0 0) (end -0.866 1.44) (angle -32) (layer F.SilkS) (width 0.12))
  (fp_circle (center 0 0) (end 1.5 0) (layer F.Fab) (width 0.1))
  (fp_circle (center 3.5 0) (end 5 0) (layer F.Fab) (width 0.1))
  (fp_circle (center 3.5 0) (end 5.18 0) (layer F.SilkS) (width 0.12))
  (fp_circle (center 7 0) (end 8.5 0) (layer F.Fab) (width 0.1))
  (fp_circle (center 7 0) (end 8.68 0) (layer F.SilkS) (width 0.12))
  (fp_circle (center 10.5 0) (end 12 0) (layer F.Fab) (width 0.1))
  (fp_circle (center 10.5 0) (end 12.18 0) (layer F.SilkS) (width 0.12))
  (fp_circle (center 14 0) (end 15.5 0) (layer F.Fab) (width 0.1))
  (fp_circle (center 14 0) (end 15.68 0) (layer F.SilkS) (width 0.12))
  (fp_circle (center 17.5 0) (end 19 0) (layer F.Fab) (width 0.1))
  (fp_circle (center 17.5 0) (end 19.18 0) (layer F.SilkS) (width 0.12))
  (fp_circle (center 21 0) (end 22.5 0) (layer F.Fab) (width 0.1))
  (fp_circle (center 21 0) (end 22.68 0) (layer F.SilkS) (width 0.12))
  (fp_circle (center 24.5 0) (end 26 0) (layer F.Fab) (width 0.1))
  (fp_circle (center 24.5 0) (end 26.18 0) (layer F.SilkS) (width 0.12))
  (fp_circle (center 28 0) (end 29.5 0) (layer F.Fab) (width 0.1))
  (fp_circle (center 28 0) (end 29.68 0) (layer F.SilkS) (width 0.12))
  (fp_line (start -1.75 -3.1) (end 29.75 -3.1) (layer F.Fab) (width 0.1))
  (fp_line (start 29.75 -3.1) (end 29.75 4.5) (layer F.Fab) (width 0.1))
  (fp_line (start 29.75 4.5) (end -1.35 4.5) (layer F.Fab) (width 0.1))
  (fp_line (start -1.35 4.5) (end -1.75 4.1) (layer F.Fab) (width 0.1))
  (fp_line (start -1.75 4.1) (end -1.75 -3.1) (layer F.Fab) (width 0.1))
  (fp_line (start -1.75 4.1) (end 29.75 4.1) (layer F.Fab) (width 0.1))
  (fp_line (start -1.81 4.1) (end 29.81 4.1) (layer F.SilkS) (width 0.12))
  (fp_line (start -1.75 3) (end 29.75 3) (layer F.Fab) (width 0.1))
  (fp_line (start -1.81 3) (end 29.81 3) (layer F.SilkS) (width 0.12))
  (fp_line (start -1.81 -3.16) (end 29.81 -3.16) (layer F.SilkS) (width 0.12))
  (fp_line (start -1.81 4.56) (end 29.81 4.56) (layer F.SilkS) (width 0.12))
  (fp_line (start -1.81 -3.16) (end -1.81 4.56) (layer F.SilkS) (width 0.12))
  (fp_line (start 29.81 -3.16) (end 29.81 4.56) (layer F.SilkS) (width 0.12))
  (fp_line (start 1.138 -0.955) (end -0.955 1.138) (layer F.Fab) (width 0.1))
  (fp_line (start 0.955 -1.138) (end -1.138 0.955) (layer F.Fab) (width 0.1))
  (fp_line (start 4.638 -0.955) (end 2.546 1.138) (layer F.Fab) (width 0.1))
  (fp_line (start 4.455 -1.138) (end 2.363 0.955) (layer F.Fab) (width 0.1))
  (fp_line (start 4.775 -1.069) (end 4.646 -0.941) (layer F.SilkS) (width 0.12))
  (fp_line (start 2.525 1.181) (end 2.431 1.274) (layer F.SilkS) (width 0.12))
  (fp_line (start 4.57 -1.275) (end 4.476 -1.181) (layer F.SilkS) (width 0.12))
  (fp_line (start 2.355 0.941) (end 2.226 1.069) (layer F.SilkS) (width 0.12))
  (fp_line (start 8.138 -0.955) (end 6.046 1.138) (layer F.Fab) (width 0.1))
  (fp_line (start 7.955 -1.138) (end 5.863 0.955) (layer F.Fab) (width 0.1))
  (fp_line (start 8.275 -1.069) (end 8.146 -0.941) (layer F.SilkS) (width 0.12))
  (fp_line (start 6.025 1.181) (end 5.931 1.274) (layer F.SilkS) (width 0.12))
  (fp_line (start 8.07 -1.275) (end 7.976 -1.181) (layer F.SilkS) (width 0.12))
  (fp_line (start 5.855 0.941) (end 5.726 1.069) (layer F.SilkS) (width 0.12))
  (fp_line (start 11.638 -0.955) (end 9.546 1.138) (layer F.Fab) (width 0.1))
  (fp_line (start 11.455 -1.138) (end 9.363 0.955) (layer F.Fab) (width 0.1))
  (fp_line (start 11.775 -1.069) (end 11.646 -0.941) (layer F.SilkS) (width 0.12))
  (fp_line (start 9.525 1.181) (end 9.431 1.274) (layer F.SilkS) (width 0.12))
  (fp_line (start 11.57 -1.275) (end 11.476 -1.181) (layer F.SilkS) (width 0.12))
  (fp_line (start 9.355 0.941) (end 9.226 1.069) (layer F.SilkS) (width 0.12))
  (fp_line (start 15.138 -0.955) (end 13.046 1.138) (layer F.Fab) (width 0.1))
  (fp_line (start 14.955 -1.138) (end 12.863 0.955) (layer F.Fab) (width 0.1))
  (fp_line (start 15.275 -1.069) (end 15.146 -0.941) (layer F.SilkS) (width 0.12))
  (fp_line (start 13.025 1.181) (end 12.931 1.274) (layer F.SilkS) (width 0.12))
  (fp_line (start 15.07 -1.275) (end 14.976 -1.181) (layer F.SilkS) (width 0.12))
  (fp_line (start 12.855 0.941) (end 12.726 1.069) (layer F.SilkS) (width 0.12))
  (fp_line (start 18.638 -0.955) (end 16.546 1.138) (layer F.Fab) (width 0.1))
  (fp_line (start 18.455 -1.138) (end 16.363 0.955) (layer F.Fab) (width 0.1))
  (fp_line (start 18.775 -1.069) (end 18.646 -0.941) (layer F.SilkS) (width 0.12))
  (fp_line (start 16.525 1.181) (end 16.431 1.274) (layer F.SilkS) (width 0.12))
  (fp_line (start 18.57 -1.275) (end 18.476 -1.181) (layer F.SilkS) (width 0.12))
  (fp_line (start 16.355 0.941) (end 16.226 1.069) (layer F.SilkS) (width 0.12))
  (fp_line (start 22.138 -0.955) (end 20.046 1.138) (layer F.Fab) (width 0.1))
  (fp_line (start 21.955 -1.138) (end 19.863 0.955) (layer F.Fab) (width 0.1))
  (fp_line (start 22.275 -1.069) (end 22.146 -0.941) (layer F.SilkS) (width 0.12))
  (fp_line (start 20.025 1.181) (end 19.931 1.274) (layer F.SilkS) (width 0.12))
  (fp_line (start 22.07 -1.275) (end 21.976 -1.181) (layer F.SilkS) (width 0.12))
  (fp_line (start 19.855 0.941) (end 19.726 1.069) (layer F.SilkS) (width 0.12))
  (fp_line (start 25.638 -0.955) (end 23.546 1.138) (layer F.Fab) (width 0.1))
  (fp_line (start 25.455 -1.138) (end 23.363 0.955) (layer F.Fab) (width 0.1))
  (fp_line (start 25.775 -1.069) (end 25.646 -0.941) (layer F.SilkS) (width 0.12))
  (fp_line (start 23.525 1.181) (end 23.431 1.274) (layer F.SilkS) (width 0.12))
  (fp_line (start 25.57 -1.275) (end 25.476 -1.181) (layer F.SilkS) (width 0.12))
  (fp_line (start 23.355 0.941) (end 23.226 1.069) (layer F.SilkS) (width 0.12))
  (fp_line (start 29.138 -0.955) (end 27.046 1.138) (layer F.Fab) (width 0.1))
  (fp_line (start 28.955 -1.138) (end 26.863 0.955) (layer F.Fab) (width 0.1))
  (fp_line (start 29.275 -1.069) (end 29.146 -0.941) (layer F.SilkS) (width 0.12))
  (fp_line (start 27.025 1.181) (end 26.931 1.274) (layer F.SilkS) (width 0.12))
  (fp_line (start 29.07 -1.275) (end 28.976 -1.181) (layer F.SilkS) (width 0.12))
  (fp_line (start 26.855 0.941) (end 26.726 1.069) (layer F.SilkS) (width 0.12))
  (fp_line (start -2.05 4.16) (end -2.05 4.8) (layer F.SilkS) (width 0.12))
  (fp_line (start -2.05 4.8) (end -1.65 4.8) (layer F.SilkS) (width 0.12))
  (fp_line (start -2.25 -3.6) (end -2.25 5) (layer F.CrtYd) (width 0.05))
  (fp_line (start -2.25 5) (end 30.25 5) (layer F.CrtYd) (width 0.05))
  (fp_line (start 30.25 5) (end 30.25 -3.6) (layer F.CrtYd) (width 0.05))
  (fp_line (start 30.25 -3.6) (end -2.25 -3.6) (layer F.CrtYd) (width 0.05))
  (pad 1 thru_hole rect (at 0 0) (size 2.4 2.4) (drill 1.2) (layers *.Cu *.Mask))
  (pad 2 thru_hole circle (at 3.5 0) (size 2.4 2.4) (drill 1.2) (layers *.Cu *.Mask))
  (pad 3 thru_hole circle (at 7 0) (size 2.4 2.4) (drill 1.2) (layers *.Cu *.Mask))
  (pad 4 thru_hole circle (at 10.5 0) (size 2.4 2.4) (drill 1.2) (layers *.Cu *.Mask))
  (pad 5 thru_hole circle (at 14 0) (size 2.4 2.4) (drill 1.2) (layers *.Cu *.Mask))
  (pad 6 thru_hole circle (at 17.5 0) (size 2.4 2.4) (drill 1.2) (layers *.Cu *.Mask))
  (pad 7 thru_hole circle (at 21 0) (size 2.4 2.4) (drill 1.2) (layers *.Cu *.Mask))
  (pad 8 thru_hole circle (at 24.5 0) (size 2.4 2.4) (drill 1.2) (layers *.Cu *.Mask))
  (pad 9 thru_hole circle (at 28 0) (size 2.4 2.4) (drill 1.2) (layers *.Cu *.Mask))
  (fp_text user %R (at 14 2.4) (layer F.Fab)
    (effects (font (size 1 1) (thickness 0.15)))
  )
  (model ${KIPRJMOD}/kicad_libs_k/models_k.3d/TerminalBlock_Phoenix_k.3dshapes/TerminalBlock_Phoenix_PT-1,5-9-3.5-H_1x09_P3.50mm_Horizontal_k.wrl
    (at (xyz 0 0 0))
    (scale (xyz 1 1 1))
    (rotate (xyz 0 0 0))
  )
)