(module TerminalBlock_Phoenix_MPT-0,5-9-2.54_1x09_P2.54mm_Horizontal (layer F.Cu) (tedit 5B294F9D)
  (descr "Terminal Block Phoenix MPT-0,5-9-2.54, 9 pins, pitch 2.54mm, size 23.3x6.2mm^2, drill diamater 1.1mm, pad diameter 2.2mm, see http://www.mouser.com/ds/2/324/ItemDetail_1725672-916605.pdf, script-generated using https://github.com/pointhi/kicad-footprint-generator/scripts/TerminalBlock_Phoenix")
  (tags "THT Terminal Block Phoenix MPT-0,5-9-2.54 pitch 2.54mm size 23.3x6.2mm^2 drill 1.1mm pad 2.2mm")
  (fp_text reference REF** (at 10.16 -4.16) (layer F.SilkS)
    (effects (font (size 1 1) (thickness 0.15)))
  )
  (fp_text value TerminalBlock_Phoenix_MPT-0,5-9-2.54_1x09_P2.54mm_Horizontal (at 10.16 4.16) (layer F.Fab)
    (effects (font (size 1 1) (thickness 0.15)))
  )
  (fp_circle (center 0 0) (end 1.1 0) (layer F.Fab) (width 0.1))
  (fp_circle (center 2.54 0) (end 3.64 0) (layer F.Fab) (width 0.1))
  (fp_circle (center 5.08 0) (end 6.18 0) (layer F.Fab) (width 0.1))
  (fp_circle (center 7.62 0) (end 8.72 0) (layer F.Fab) (width 0.1))
  (fp_circle (center 10.16 0) (end 11.26 0) (layer F.Fab) (width 0.1))
  (fp_circle (center 12.7 0) (end 13.8 0) (layer F.Fab) (width 0.1))
  (fp_circle (center 15.24 0) (end 16.34 0) (layer F.Fab) (width 0.1))
  (fp_circle (center 17.78 0) (end 18.88 0) (layer F.Fab) (width 0.1))
  (fp_circle (center 20.32 0) (end 21.42 0) (layer F.Fab) (width 0.1))
  (fp_line (start -1.5 -3.1) (end 21.82 -3.1) (layer F.Fab) (width 0.1))
  (fp_line (start 21.82 -3.1) (end 21.82 3.1) (layer F.Fab) (width 0.1))
  (fp_line (start 21.82 3.1) (end -1 3.1) (layer F.Fab) (width 0.1))
  (fp_line (start -1 3.1) (end -1.5 2.6) (layer F.Fab) (width 0.1))
  (fp_line (start -1.5 2.6) (end -1.5 -3.1) (layer F.Fab) (width 0.1))
  (fp_line (start -1.5 2.6) (end 21.82 2.6) (layer F.Fab) (width 0.1))
  (fp_line (start -1.56 2.6) (end 21.881 2.6) (layer F.SilkS) (width 0.12))
  (fp_line (start -1.5 -2.7) (end 21.82 -2.7) (layer F.Fab) (width 0.1))
  (fp_line (start -1.56 -2.7) (end 21.881 -2.7) (layer F.SilkS) (width 0.12))
  (fp_line (start -1.56 -3.16) (end 21.881 -3.16) (layer F.SilkS) (width 0.12))
  (fp_line (start -1.56 3.16) (end 21.881 3.16) (layer F.SilkS) (width 0.12))
  (fp_line (start -1.56 -3.16) (end -1.56 3.16) (layer F.SilkS) (width 0.12))
  (fp_line (start 21.881 -3.16) (end 21.881 3.16) (layer F.SilkS) (width 0.12))
  (fp_line (start 0.835 -0.7) (end -0.701 0.835) (layer F.Fab) (width 0.1))
  (fp_line (start 0.701 -0.835) (end -0.835 0.7) (layer F.Fab) (width 0.1))
  (fp_line (start 3.375 -0.7) (end 1.84 0.835) (layer F.Fab) (width 0.1))
  (fp_line (start 3.241 -0.835) (end 1.706 0.7) (layer F.Fab) (width 0.1))
  (fp_line (start 5.915 -0.7) (end 4.38 0.835) (layer F.Fab) (width 0.1))
  (fp_line (start 5.781 -0.835) (end 4.246 0.7) (layer F.Fab) (width 0.1))
  (fp_line (start 8.455 -0.7) (end 6.92 0.835) (layer F.Fab) (width 0.1))
  (fp_line (start 8.321 -0.835) (end 6.786 0.7) (layer F.Fab) (width 0.1))
  (fp_line (start 10.995 -0.7) (end 9.46 0.835) (layer F.Fab) (width 0.1))
  (fp_line (start 10.861 -0.835) (end 9.326 0.7) (layer F.Fab) (width 0.1))
  (fp_line (start 13.535 -0.7) (end 12 0.835) (layer F.Fab) (width 0.1))
  (fp_line (start 13.401 -0.835) (end 11.866 0.7) (layer F.Fab) (width 0.1))
  (fp_line (start 16.075 -0.7) (end 14.54 0.835) (layer F.Fab) (width 0.1))
  (fp_line (start 15.941 -0.835) (end 14.406 0.7) (layer F.Fab) (width 0.1))
  (fp_line (start 18.615 -0.7) (end 17.08 0.835) (layer F.Fab) (width 0.1))
  (fp_line (start 18.481 -0.835) (end 16.946 0.7) (layer F.Fab) (width 0.1))
  (fp_line (start 21.155 -0.7) (end 19.62 0.835) (layer F.Fab) (width 0.1))
  (fp_line (start 21.021 -0.835) (end 19.486 0.7) (layer F.Fab) (width 0.1))
  (fp_line (start -1.8 2.66) (end -1.8 3.4) (layer F.SilkS) (width 0.12))
  (fp_line (start -1.8 3.4) (end -1.3 3.4) (layer F.SilkS) (width 0.12))
  (fp_line (start -2 -3.6) (end -2 3.6) (layer F.CrtYd) (width 0.05))
  (fp_line (start -2 3.6) (end 22.32 3.6) (layer F.CrtYd) (width 0.05))
  (fp_line (start 22.32 3.6) (end 22.32 -3.6) (layer F.CrtYd) (width 0.05))
  (fp_line (start 22.32 -3.6) (end -2 -3.6) (layer F.CrtYd) (width 0.05))
  (pad 1 thru_hole rect (at 0 0) (size 2.2 2.2) (drill 1.1) (layers *.Cu *.Mask))
  (pad 2 thru_hole circle (at 2.54 0) (size 2.2 2.2) (drill 1.1) (layers *.Cu *.Mask))
  (pad 3 thru_hole circle (at 5.08 0) (size 2.2 2.2) (drill 1.1) (layers *.Cu *.Mask))
  (pad 4 thru_hole circle (at 7.62 0) (size 2.2 2.2) (drill 1.1) (layers *.Cu *.Mask))
  (pad 5 thru_hole circle (at 10.16 0) (size 2.2 2.2) (drill 1.1) (layers *.Cu *.Mask))
  (pad 6 thru_hole circle (at 12.7 0) (size 2.2 2.2) (drill 1.1) (layers *.Cu *.Mask))
  (pad 7 thru_hole circle (at 15.24 0) (size 2.2 2.2) (drill 1.1) (layers *.Cu *.Mask))
  (pad 8 thru_hole circle (at 17.78 0) (size 2.2 2.2) (drill 1.1) (layers *.Cu *.Mask))
  (pad 9 thru_hole circle (at 20.32 0) (size 2.2 2.2) (drill 1.1) (layers *.Cu *.Mask))
  (fp_text user %R (at 10.16 2) (layer F.Fab)
    (effects (font (size 1 1) (thickness 0.15)))
  )
  (model ${KIPRJMOD}/kicad_libs_k/models_k.3d/TerminalBlock_Phoenix_k.3dshapes/TerminalBlock_Phoenix_MPT-0,5-9-2.54_1x09_P2.54mm_Horizontal_k.wrl
    (at (xyz 0 0 0))
    (scale (xyz 1 1 1))
    (rotate (xyz 0 0 0))
  )
)