(module TerminalBlock_Phoenix_MPT-0,5-2-2.54_1x02_P2.54mm_Horizontal (layer F.Cu) (tedit 5B294F98)
  (descr "Terminal Block Phoenix MPT-0,5-2-2.54, 2 pins, pitch 2.54mm, size 5.54x6.2mm^2, drill diamater 1.1mm, pad diameter 2.2mm, see http://www.mouser.com/ds/2/324/ItemDetail_1725656-920552.pdf, script-generated using https://github.com/pointhi/kicad-footprint-generator/scripts/TerminalBlock_Phoenix")
  (tags "THT Terminal Block Phoenix MPT-0,5-2-2.54 pitch 2.54mm size 5.54x6.2mm^2 drill 1.1mm pad 2.2mm")
  (fp_text reference REF** (at 1.27 -4.16) (layer F.SilkS)
    (effects (font (size 1 1) (thickness 0.15)))
  )
  (fp_text value TerminalBlock_Phoenix_MPT-0,5-2-2.54_1x02_P2.54mm_Horizontal (at 1.27 4.16) (layer F.Fab)
    (effects (font (size 1 1) (thickness 0.15)))
  )
  (fp_circle (center 0 0) (end 1.1 0) (layer F.Fab) (width 0.1))
  (fp_circle (center 2.54 0) (end 3.64 0) (layer F.Fab) (width 0.1))
  (fp_line (start -1.5 -3.1) (end 4.04 -3.1) (layer F.Fab) (width 0.1))
  (fp_line (start 4.04 -3.1) (end 4.04 3.1) (layer F.Fab) (width 0.1))
  (fp_line (start 4.04 3.1) (end -1 3.1) (layer F.Fab) (width 0.1))
  (fp_line (start -1 3.1) (end -1.5 2.6) (layer F.Fab) (width 0.1))
  (fp_line (start -1.5 2.6) (end -1.5 -3.1) (layer F.Fab) (width 0.1))
  (fp_line (start -1.5 2.6) (end 4.04 2.6) (layer F.Fab) (width 0.1))
  (fp_line (start -1.56 2.6) (end -0.79 2.6) (layer F.SilkS) (width 0.12))
  (fp_line (start 0.79 2.6) (end 1.75 2.6) (layer F.SilkS) (width 0.12))
  (fp_line (start 3.33 2.6) (end 4.1 2.6) (layer F.SilkS) (width 0.12))
  (fp_line (start -1.5 -2.7) (end 4.04 -2.7) (layer F.Fab) (width 0.1))
  (fp_line (start -1.56 -2.7) (end 4.1 -2.7) (layer F.SilkS) (width 0.12))
  (fp_line (start -1.56 -3.16) (end 4.1 -3.16) (layer F.SilkS) (width 0.12))
  (fp_line (start -1.56 3.16) (end -0.79 3.16) (layer F.SilkS) (width 0.12))
  (fp_line (start 0.79 3.16) (end 1.75 3.16) (layer F.SilkS) (width 0.12))
  (fp_line (start 3.33 3.16) (end 4.1 3.16) (layer F.SilkS) (width 0.12))
  (fp_line (start -1.56 -3.16) (end -1.56 3.16) (layer F.SilkS) (width 0.12))
  (fp_line (start 4.1 -3.16) (end 4.1 3.16) (layer F.SilkS) (width 0.12))
  (fp_line (start 0.835 -0.7) (end -0.701 0.835) (layer F.Fab) (width 0.1))
  (fp_line (start 0.701 -0.835) (end -0.835 0.7) (layer F.Fab) (width 0.1))
  (fp_line (start 3.375 -0.7) (end 1.84 0.835) (layer F.Fab) (width 0.1))
  (fp_line (start 3.241 -0.835) (end 1.706 0.7) (layer F.Fab) (width 0.1))
  (fp_line (start -1.8 2.66) (end -1.8 3.4) (layer F.SilkS) (width 0.12))
  (fp_line (start -1.8 3.4) (end -1.3 3.4) (layer F.SilkS) (width 0.12))
  (fp_line (start -2 -3.6) (end -2 3.6) (layer F.CrtYd) (width 0.05))
  (fp_line (start -2 3.6) (end 4.54 3.6) (layer F.CrtYd) (width 0.05))
  (fp_line (start 4.54 3.6) (end 4.54 -3.6) (layer F.CrtYd) (width 0.05))
  (fp_line (start 4.54 -3.6) (end -2 -3.6) (layer F.CrtYd) (width 0.05))
  (pad 1 thru_hole rect (at 0 0) (size 2.2 2.2) (drill 1.1) (layers *.Cu *.Mask))
  (pad "" np_thru_hole circle (at 0 2.54) (size 1.1 1.1) (drill 1.1) (layers *.Cu *.Mask))
  (pad 2 thru_hole circle (at 2.54 0) (size 2.2 2.2) (drill 1.1) (layers *.Cu *.Mask))
  (pad "" np_thru_hole circle (at 2.54 2.54) (size 1.1 1.1) (drill 1.1) (layers *.Cu *.Mask))
  (fp_text user %R (at 1.27 2) (layer F.Fab)
    (effects (font (size 1 1) (thickness 0.15)))
  )
  (model ${KIPRJMOD}/kicad_libs_k/models_k.3d/TerminalBlock_Phoenix_k.3dshapes/TerminalBlock_Phoenix_MPT-0,5-2-2.54_1x02_P2.54mm_Horizontal_k.wrl
    (at (xyz 0 0 0))
    (scale (xyz 1 1 1))
    (rotate (xyz 0 0 0))
  )
)