(module TerminalBlock_Phoenix_PTSM-0,5-2-HV-2.5-SMD_1x02_P2.50mm_Vertical (layer F.Cu) (tedit 5A08B5DC)
  (descr "PhoenixContact PTSM0,5 2 HV 2,5mm vertical SMD spring clamp terminal block connector http://www.phoenixcontact.com/us/products/1778696/pdf")
  (tags "2.5mm vertical SMD spring clamp terminal block connector ")
  (attr smd)
  (fp_text reference REF** (at -1.4 5.51) (layer F.SilkS)
    (effects (font (size 1 1) (thickness 0.15)))
  )
  (fp_text value TerminalBlock_Phoenix_PTSM-0,5-2-HV-2.5-SMD_1x02_P2.50mm_Vertical (at 0 -6.3) (layer F.Fab)
    (effects (font (size 1 1) (thickness 0.15)))
  )
  (fp_text user %R (at 0 -0.92) (layer F.Fab)
    (effects (font (size 1 1) (thickness 0.15)))
  )
  (fp_line (start 6.5 -4.1) (end 1.9 -4.1) (layer F.CrtYd) (width 0.05))
  (fp_line (start 1.9 -4.1) (end 1.9 -5.5) (layer F.CrtYd) (width 0.05))
  (fp_line (start -6.5 -4.1) (end -1.9 -4.1) (layer F.CrtYd) (width 0.05))
  (fp_line (start -1.9 -4.1) (end -1.9 -5.5) (layer F.CrtYd) (width 0.05))
  (fp_line (start -1.7 -5.35) (end 1.7 -5.35) (layer F.Fab) (width 0.1))
  (fp_line (start 1.7 -5.35) (end 1.7 -3.65) (layer F.Fab) (width 0.1))
  (fp_line (start 1.7 -3.65) (end 5.3 -3.65) (layer F.Fab) (width 0.1))
  (fp_line (start -1.7 -3.65) (end -1.7 -5.35) (layer F.Fab) (width 0.1))
  (fp_line (start -5.3 -3.65) (end -1.7 -3.65) (layer F.Fab) (width 0.1))
  (fp_line (start -1.9 -5.5) (end 1.9 -5.5) (layer F.CrtYd) (width 0.05))
  (fp_line (start 6.5 -4.1) (end 6.5 4.1) (layer F.CrtYd) (width 0.05))
  (fp_line (start 6.5 4.1) (end -6.5 4.1) (layer F.CrtYd) (width 0.05))
  (fp_line (start -6.5 4.1) (end -6.5 -4.1) (layer F.CrtYd) (width 0.05))
  (fp_line (start 0.85 1.45) (end 0.85 3.51) (layer F.Fab) (width 0.1))
  (fp_line (start 0.85 3.51) (end 1.65 3.51) (layer F.Fab) (width 0.1))
  (fp_line (start 1.65 1.45) (end 1.65 3.51) (layer F.Fab) (width 0.1))
  (fp_line (start -0.85 1.45) (end -0.85 3.51) (layer F.Fab) (width 0.1))
  (fp_line (start -1.65 3.51) (end -0.85 3.51) (layer F.Fab) (width 0.1))
  (fp_line (start -1.65 1.45) (end -1.65 3.51) (layer F.Fab) (width 0.1))
  (fp_line (start 5.3 1.45) (end 5.3 -3.6) (layer F.Fab) (width 0.1))
  (fp_line (start -5.3 1.45) (end -5.3 -3.55) (layer F.Fab) (width 0.1))
  (fp_line (start 5.3 1.45) (end -5.3 1.45) (layer F.Fab) (width 0.1))
  (fp_line (start -2.05 1.7) (end -3.25 1.7) (layer F.SilkS) (width 0.12))
  (fp_line (start 0.45 1.7) (end -0.45 1.7) (layer F.SilkS) (width 0.12))
  (fp_line (start 4.25 1.7) (end 2.05 1.7) (layer F.SilkS) (width 0.12))
  (fp_line (start -3.25 -3.9) (end 3.25 -3.9) (layer F.SilkS) (width 0.12))
  (pad "" np_thru_hole circle (at 2.65 1.05) (size 1 1) (drill 1) (layers *.Cu *.Mask))
  (pad 2 smd rect (at 1.25 1.65 180) (size 1.2 4.4) (layers F.Cu F.Paste F.Mask))
  (pad 1 smd rect (at -1.25 1.65 180) (size 1.2 4.4) (layers F.Cu F.Paste F.Mask))
  (pad "" smd rect (at 4.55 -1.05 180) (size 2.2 5.6) (layers F.Cu F.Paste F.Mask))
  (pad "" smd rect (at -4.55 -1.05 180) (size 2.2 5.6) (layers F.Cu F.Paste F.Mask))
  (pad "" np_thru_hole circle (at -2.65 1.05) (size 1 1) (drill 1) (layers *.Cu *.Mask))
  (model ${KIPRJMOD}/kicad_libs_k/models_k.3d/TerminalBlock_Phoenix_k.3dshapes/TerminalBlock_Phoenix_PTSM-0,5-2-HV-2.5-SMD_1x02_P2.50mm_Vertical_k.wrl
    (at (xyz 0 0 0))
    (scale (xyz 1 1 1))
    (rotate (xyz 0 0 0))
  )
)
