(module TerminalBlock_Phoenix_PTSM-0,5-6-2,5-V-SMD_1x06_P2.50mm_Vertical (layer F.Cu) (tedit 5A08B5DC)
  (descr "PhoenixContact PTSM0,5 6 2,5mm vertical SMD spring clamp terminal block connector http://www.phoenixcontact.com/us/products/1814744/pdf")
  (tags "PhoenixContact PTSM0.5 6 2.5mm vertical SMD spring clamp terminal block connector ")
  (attr smd)
  (fp_text reference REF** (at -1.4 5.53) (layer F.SilkS)
    (effects (font (size 1 1) (thickness 0.15)))
  )
  (fp_text value TerminalBlock_Phoenix_PTSM-0,5-6-2,5-V-SMD_1x06_P2.50mm_Vertical (at -0.2 -4.88) (layer F.Fab)
    (effects (font (size 1 1) (thickness 0.15)))
  )
  (fp_text user %R (at 0 -0.075) (layer F.Fab)
    (effects (font (size 1 1) (thickness 0.15)))
  )
  (fp_line (start -11.5 -4.08) (end 11.5 -4.08) (layer F.CrtYd) (width 0.05))
  (fp_line (start 11.5 -4.08) (end 11.5 4.13) (layer F.CrtYd) (width 0.05))
  (fp_line (start 11.5 4.13) (end -11.5 4.13) (layer F.CrtYd) (width 0.05))
  (fp_line (start -11.5 4.13) (end -11.5 -4.08) (layer F.CrtYd) (width 0.05))
  (fp_line (start 6.65 1.43) (end 6.65 3.43) (layer F.Fab) (width 0.1))
  (fp_line (start 5.85 3.43) (end 6.65 3.43) (layer F.Fab) (width 0.1))
  (fp_line (start 5.85 1.43) (end 5.85 3.43) (layer F.Fab) (width 0.1))
  (fp_line (start 4.15 1.43) (end 4.15 3.43) (layer F.Fab) (width 0.1))
  (fp_line (start 3.35 3.43) (end 4.15 3.43) (layer F.Fab) (width 0.1))
  (fp_line (start 3.35 1.43) (end 3.35 3.43) (layer F.Fab) (width 0.1))
  (fp_line (start 1.65 1.43) (end 1.65 3.43) (layer F.Fab) (width 0.1))
  (fp_line (start 0.85 3.43) (end 1.65 3.43) (layer F.Fab) (width 0.1))
  (fp_line (start 0.85 1.43) (end 0.85 3.43) (layer F.Fab) (width 0.1))
  (fp_line (start -0.85 1.43) (end -0.85 3.43) (layer F.Fab) (width 0.1))
  (fp_line (start -1.65 3.43) (end -0.85 3.43) (layer F.Fab) (width 0.1))
  (fp_line (start -1.65 1.43) (end -1.65 3.43) (layer F.Fab) (width 0.1))
  (fp_line (start -4.15 1.43) (end -4.15 3.43) (layer F.Fab) (width 0.1))
  (fp_line (start -4.15 3.43) (end -3.35 3.43) (layer F.Fab) (width 0.1))
  (fp_line (start -3.35 1.43) (end -3.35 3.43) (layer F.Fab) (width 0.1))
  (fp_line (start -5.85 1.43) (end -5.85 3.43) (layer F.Fab) (width 0.1))
  (fp_line (start -6.65 3.43) (end -5.85 3.43) (layer F.Fab) (width 0.1))
  (fp_line (start -6.65 1.43) (end -6.65 3.43) (layer F.Fab) (width 0.1))
  (fp_line (start 10.05 1.43) (end 10.05 -3.58) (layer F.Fab) (width 0.1))
  (fp_line (start -10.05 1.43) (end -10.05 -3.58) (layer F.Fab) (width 0.1))
  (fp_line (start 10.05 1.43) (end -10.05 1.43) (layer F.Fab) (width 0.1))
  (fp_line (start -10.05 -3.58) (end 10.05 -3.58) (layer F.Fab) (width 0.1))
  (fp_line (start -7.05 1.73) (end -8.75 1.73) (layer F.SilkS) (width 0.12))
  (fp_line (start -4.55 1.73) (end -5.45 1.73) (layer F.SilkS) (width 0.12))
  (fp_line (start -2.05 1.73) (end -2.95 1.73) (layer F.SilkS) (width 0.12))
  (fp_line (start 0.45 1.73) (end -0.45 1.73) (layer F.SilkS) (width 0.12))
  (fp_line (start 2.95 1.73) (end 2.05 1.73) (layer F.SilkS) (width 0.12))
  (fp_line (start 5.45 1.73) (end 4.55 1.73) (layer F.SilkS) (width 0.12))
  (fp_line (start 8.75 1.73) (end 7.05 1.73) (layer F.SilkS) (width 0.12))
  (fp_line (start -8.75 -3.88) (end 8.75 -3.88) (layer F.SilkS) (width 0.12))
  (pad 4 smd rect (at 1.25 2.13 180) (size 1.4 3.4) (layers F.Cu F.Paste F.Mask))
  (pad 3 smd rect (at -1.25 2.13 180) (size 1.4 3.4) (layers F.Cu F.Paste F.Mask))
  (pad 2 smd rect (at -3.75 2.13 180) (size 1.4 3.4) (layers F.Cu F.Paste F.Mask))
  (pad 5 smd rect (at 3.75 2.13 180) (size 1.4 3.4) (layers F.Cu F.Paste F.Mask))
  (pad 6 smd rect (at 6.25 2.13 180) (size 1.4 3.4) (layers F.Cu F.Paste F.Mask))
  (pad 1 smd rect (at -6.25 2.13 180) (size 1.4 3.4) (layers F.Cu F.Paste F.Mask))
  (pad "" smd rect (at 10.05 -1.03 180) (size 2.3 5.6) (layers F.Cu F.Paste F.Mask))
  (pad "" smd rect (at -10.05 -1.03 180) (size 2.3 5.6) (layers F.Cu F.Paste F.Mask))
  (model ${KIPRJMOD}/kicad_libs_k/models_k.3d/TerminalBlock_Phoenix_k.3dshapes/TerminalBlock_Phoenix_PTSM-0,5-6-2,5-V-SMD_1x06_P2.50mm_Vertical_k.wrl
    (at (xyz 0 0 0))
    (scale (xyz 1 1 1))
    (rotate (xyz 0 0 0))
  )
)
