(module TerminalBlock_Altech_AK300-4_P5.00mm (layer F.Cu) (tedit 59FF0306)
  (descr "Altech AK300 terminal block, pitch 5.0mm, 45 degree angled, see http://www.mouser.com/ds/2/16/PCBMETRC-24178.pdf")
  (tags "Altech AK300 terminal block pitch 5.0mm")
  (fp_text reference REF** (at 7.5 -7.15) (layer F.SilkS)
    (effects (font (size 1 1) (thickness 0.15)))
  )
  (fp_text value TerminalBlock_Altech_AK300-4_P5.00mm (at 7.45 7.45) (layer F.Fab)
    (effects (font (size 1 1) (thickness 0.15)))
  )
  (fp_text user %R (at 7.5 -2) (layer F.Fab)
    (effects (font (size 1 1) (thickness 0.15)))
  )
  (fp_line (start -2.65 -6.3) (end 18.15 -6.3) (layer F.SilkS) (width 0.12))
  (fp_line (start 18.15 -6.3) (end 18.15 -1.25) (layer F.SilkS) (width 0.12))
  (fp_line (start 18.15 -1.25) (end 17.65 -1.5) (layer F.SilkS) (width 0.12))
  (fp_line (start 17.65 -1.5) (end 17.65 3.9) (layer F.SilkS) (width 0.12))
  (fp_line (start 17.65 3.9) (end 18.2 3.6) (layer F.SilkS) (width 0.12))
  (fp_line (start 18.2 3.6) (end 18.2 5.65) (layer F.SilkS) (width 0.12))
  (fp_line (start 18.2 5.65) (end 17.65 5.35) (layer F.SilkS) (width 0.12))
  (fp_line (start 17.65 5.35) (end 17.65 6.3) (layer F.SilkS) (width 0.12))
  (fp_line (start 17.65 6.3) (end -2.65 6.3) (layer F.SilkS) (width 0.12))
  (fp_line (start -2.65 6.3) (end -2.65 -6.3) (layer F.SilkS) (width 0.12))
  (fp_line (start 8.75 -0.25) (end 8.75 2.54) (layer F.Fab) (width 0.1))
  (fp_line (start 8.75 2.54) (end 11.29 2.54) (layer F.Fab) (width 0.1))
  (fp_line (start 11.29 2.54) (end 11.29 -0.25) (layer F.Fab) (width 0.1))
  (fp_line (start 7.94 -3.43) (end 7.94 -5.97) (layer F.Fab) (width 0.1))
  (fp_line (start 7.94 -5.97) (end 12 -5.97) (layer F.Fab) (width 0.1))
  (fp_line (start 12 -5.97) (end 12 -3.43) (layer F.Fab) (width 0.1))
  (fp_line (start 12 -3.43) (end 7.94 -3.43) (layer F.Fab) (width 0.1))
  (fp_line (start 8.34 -4.45) (end 11.39 -5.08) (layer F.Fab) (width 0.1))
  (fp_line (start 8.47 -4.32) (end 11.52 -4.95) (layer F.Fab) (width 0.1))
  (fp_line (start 7.99 4.32) (end 12.05 4.32) (layer F.Fab) (width 0.1))
  (fp_line (start 12.05 6.22) (end 12.05 -0.25) (layer F.Fab) (width 0.1))
  (fp_line (start 8.37 0.51) (end 8.75 0.51) (layer F.Fab) (width 0.1))
  (fp_line (start 8.37 0.51) (end 8.37 3.68) (layer F.Fab) (width 0.1))
  (fp_line (start 8.37 3.68) (end 11.67 3.68) (layer F.Fab) (width 0.1))
  (fp_line (start 11.67 3.68) (end 11.67 0.51) (layer F.Fab) (width 0.1))
  (fp_line (start 11.67 0.51) (end 11.29 0.51) (layer F.Fab) (width 0.1))
  (fp_line (start 12.51 -0.64) (end 17.59 -0.64) (layer F.Fab) (width 0.1))
  (fp_line (start 7.99 6.22) (end 7.99 -0.25) (layer F.Fab) (width 0.1))
  (fp_line (start 7.99 -0.25) (end 12.05 -0.25) (layer F.Fab) (width 0.1))
  (fp_line (start 16.95 6.22) (end 13.02 6.22) (layer F.Fab) (width 0.1))
  (fp_line (start 13.17 6.22) (end 7.07 6.22) (layer F.Fab) (width 0.1))
  (fp_line (start 17.59 -3.05) (end -2.58 -3.05) (layer F.Fab) (width 0.1))
  (fp_line (start 17.74 -6.22) (end -2.58 -6.22) (layer F.Fab) (width 0.1))
  (fp_line (start 12.66 -0.64) (end -2.52 -0.64) (layer F.Fab) (width 0.1))
  (fp_line (start 12.95 4) (end 12.95 -0.25) (layer F.Fab) (width 0.1))
  (fp_line (start 13.35 -0.25) (end 16.65 -0.25) (layer F.Fab) (width 0.1))
  (fp_line (start 12.97 -0.25) (end 13.35 -0.25) (layer F.Fab) (width 0.1))
  (fp_line (start 17.03 -0.25) (end 16.65 -0.25) (layer F.Fab) (width 0.1))
  (fp_line (start 13.5 -4.32) (end 16.55 -4.95) (layer F.Fab) (width 0.1))
  (fp_line (start 13.37 -4.45) (end 16.42 -5.08) (layer F.Fab) (width 0.1))
  (fp_line (start 17.03 -3.43) (end 12.97 -3.43) (layer F.Fab) (width 0.1))
  (fp_line (start 17.03 -5.97) (end 17.03 -3.43) (layer F.Fab) (width 0.1))
  (fp_line (start 12.97 -5.97) (end 17.03 -5.97) (layer F.Fab) (width 0.1))
  (fp_line (start 12.97 -3.43) (end 12.97 -5.97) (layer F.Fab) (width 0.1))
  (fp_line (start 17.59 -3.17) (end 17.59 -1.65) (layer F.Fab) (width 0.1))
  (fp_line (start 17.59 -0.64) (end 17.59 4.06) (layer F.Fab) (width 0.1))
  (fp_line (start 17.59 -1.65) (end 17.59 -0.64) (layer F.Fab) (width 0.1))
  (fp_line (start 16.65 0.51) (end 16.27 0.51) (layer F.Fab) (width 0.1))
  (fp_line (start 13.35 0.51) (end 13.73 0.51) (layer F.Fab) (width 0.1))
  (fp_line (start 13.35 3.68) (end 13.35 0.51) (layer F.Fab) (width 0.1))
  (fp_line (start 16.65 3.68) (end 13.35 3.68) (layer F.Fab) (width 0.1))
  (fp_line (start 16.65 3.68) (end 16.65 0.51) (layer F.Fab) (width 0.1))
  (fp_line (start 17.03 4.32) (end 17.03 6.22) (layer F.Fab) (width 0.1))
  (fp_line (start 12.97 4.32) (end 17.03 4.32) (layer F.Fab) (width 0.1))
  (fp_line (start 17.03 6.22) (end 17.59 6.22) (layer F.Fab) (width 0.1))
  (fp_line (start 17.03 -0.25) (end 17.03 4.32) (layer F.Fab) (width 0.1))
  (fp_line (start 12.97 6.22) (end 12.97 4.32) (layer F.Fab) (width 0.1))
  (fp_line (start 18.1 3.81) (end 18.1 5.46) (layer F.Fab) (width 0.1))
  (fp_line (start 17.59 4.06) (end 17.59 5.21) (layer F.Fab) (width 0.1))
  (fp_line (start 18.1 3.81) (end 17.59 4.06) (layer F.Fab) (width 0.1))
  (fp_line (start 17.59 5.21) (end 17.59 6.22) (layer F.Fab) (width 0.1))
  (fp_line (start 18.1 5.46) (end 17.59 5.21) (layer F.Fab) (width 0.1))
  (fp_line (start 18.1 -1.4) (end 17.59 -1.65) (layer F.Fab) (width 0.1))
  (fp_line (start 18.1 -6.22) (end 18.1 -1.4) (layer F.Fab) (width 0.1))
  (fp_line (start 17.59 -6.22) (end 18.1 -6.22) (layer F.Fab) (width 0.1))
  (fp_line (start 17.59 -6.22) (end 17.59 -3.17) (layer F.Fab) (width 0.1))
  (fp_line (start 13.73 2.54) (end 13.73 -0.25) (layer F.Fab) (width 0.1))
  (fp_line (start 13.73 -0.25) (end 16.27 -0.25) (layer F.Fab) (width 0.1))
  (fp_line (start 16.27 2.54) (end 16.27 -0.25) (layer F.Fab) (width 0.1))
  (fp_line (start 13.73 2.54) (end 16.27 2.54) (layer F.Fab) (width 0.1))
  (fp_line (start -1.28 2.54) (end 1.26 2.54) (layer F.Fab) (width 0.1))
  (fp_line (start 1.26 2.54) (end 1.26 -0.25) (layer F.Fab) (width 0.1))
  (fp_line (start -1.28 -0.25) (end 1.26 -0.25) (layer F.Fab) (width 0.1))
  (fp_line (start -1.28 2.54) (end -1.28 -0.25) (layer F.Fab) (width 0.1))
  (fp_line (start 3.72 2.54) (end 6.26 2.54) (layer F.Fab) (width 0.1))
  (fp_line (start 6.26 2.54) (end 6.26 -0.25) (layer F.Fab) (width 0.1))
  (fp_line (start 3.72 -0.25) (end 6.26 -0.25) (layer F.Fab) (width 0.1))
  (fp_line (start 3.72 2.54) (end 3.72 -0.25) (layer F.Fab) (width 0.1))
  (fp_line (start 12.95 5.21) (end 12.95 6.22) (layer F.Fab) (width 0.1))
  (fp_line (start 12.95 4.06) (end 12.95 5.21) (layer F.Fab) (width 0.1))
  (fp_line (start 2.96 6.22) (end 2.96 4.32) (layer F.Fab) (width 0.1))
  (fp_line (start 7.02 -0.25) (end 7.02 4.32) (layer F.Fab) (width 0.1))
  (fp_line (start 2.96 6.22) (end 7.02 6.22) (layer F.Fab) (width 0.1))
  (fp_line (start 2.02 6.22) (end 2.02 4.32) (layer F.Fab) (width 0.1))
  (fp_line (start 2.02 6.22) (end 2.96 6.22) (layer F.Fab) (width 0.1))
  (fp_line (start -2.05 -0.25) (end -2.05 4.32) (layer F.Fab) (width 0.1))
  (fp_line (start -2.58 6.22) (end -2.05 6.22) (layer F.Fab) (width 0.1))
  (fp_line (start -2.05 6.22) (end 2.02 6.22) (layer F.Fab) (width 0.1))
  (fp_line (start 2.96 4.32) (end 7.02 4.32) (layer F.Fab) (width 0.1))
  (fp_line (start 2.96 4.32) (end 2.96 -0.25) (layer F.Fab) (width 0.1))
  (fp_line (start 7.02 4.32) (end 7.02 6.22) (layer F.Fab) (width 0.1))
  (fp_line (start 2.02 4.32) (end -2.05 4.32) (layer F.Fab) (width 0.1))
  (fp_line (start 2.02 4.32) (end 2.02 -0.25) (layer F.Fab) (width 0.1))
  (fp_line (start -2.05 4.32) (end -2.05 6.22) (layer F.Fab) (width 0.1))
  (fp_line (start 6.64 3.68) (end 6.64 0.51) (layer F.Fab) (width 0.1))
  (fp_line (start 6.64 3.68) (end 3.34 3.68) (layer F.Fab) (width 0.1))
  (fp_line (start 3.34 3.68) (end 3.34 0.51) (layer F.Fab) (width 0.1))
  (fp_line (start 1.64 3.68) (end 1.64 0.51) (layer F.Fab) (width 0.1))
  (fp_line (start 1.64 3.68) (end -1.67 3.68) (layer F.Fab) (width 0.1))
  (fp_line (start -1.67 3.68) (end -1.67 0.51) (layer F.Fab) (width 0.1))
  (fp_line (start -1.67 0.51) (end -1.28 0.51) (layer F.Fab) (width 0.1))
  (fp_line (start 1.64 0.51) (end 1.26 0.51) (layer F.Fab) (width 0.1))
  (fp_line (start 3.34 0.51) (end 3.72 0.51) (layer F.Fab) (width 0.1))
  (fp_line (start 6.64 0.51) (end 6.26 0.51) (layer F.Fab) (width 0.1))
  (fp_line (start -2.58 6.22) (end -2.58 -0.64) (layer F.Fab) (width 0.1))
  (fp_line (start -2.58 -0.64) (end -2.58 -3.17) (layer F.Fab) (width 0.1))
  (fp_line (start -2.58 -3.17) (end -2.58 -6.22) (layer F.Fab) (width 0.1))
  (fp_line (start 2.96 -3.43) (end 2.96 -5.97) (layer F.Fab) (width 0.1))
  (fp_line (start 2.96 -5.97) (end 7.02 -5.97) (layer F.Fab) (width 0.1))
  (fp_line (start 7.02 -5.97) (end 7.02 -3.43) (layer F.Fab) (width 0.1))
  (fp_line (start 7.02 -3.43) (end 2.96 -3.43) (layer F.Fab) (width 0.1))
  (fp_line (start 2.02 -3.43) (end 2.02 -5.97) (layer F.Fab) (width 0.1))
  (fp_line (start 2.02 -3.43) (end -2.05 -3.43) (layer F.Fab) (width 0.1))
  (fp_line (start -2.05 -3.43) (end -2.05 -5.97) (layer F.Fab) (width 0.1))
  (fp_line (start 2.02 -5.97) (end -2.05 -5.97) (layer F.Fab) (width 0.1))
  (fp_line (start 3.36 -4.45) (end 6.41 -5.08) (layer F.Fab) (width 0.1))
  (fp_line (start 3.49 -4.32) (end 6.54 -4.95) (layer F.Fab) (width 0.1))
  (fp_line (start -1.64 -4.45) (end 1.41 -5.08) (layer F.Fab) (width 0.1))
  (fp_line (start -1.51 -4.32) (end 1.53 -4.95) (layer F.Fab) (width 0.1))
  (fp_line (start -2.05 -0.25) (end -1.67 -0.25) (layer F.Fab) (width 0.1))
  (fp_line (start 2.02 -0.25) (end 1.64 -0.25) (layer F.Fab) (width 0.1))
  (fp_line (start 1.64 -0.25) (end -1.67 -0.25) (layer F.Fab) (width 0.1))
  (fp_line (start 7.02 -0.25) (end 6.64 -0.25) (layer F.Fab) (width 0.1))
  (fp_line (start 2.96 -0.25) (end 3.34 -0.25) (layer F.Fab) (width 0.1))
  (fp_line (start 3.34 -0.25) (end 6.64 -0.25) (layer F.Fab) (width 0.1))
  (fp_line (start -2.83 -6.47) (end 18.35 -6.47) (layer F.CrtYd) (width 0.05))
  (fp_line (start -2.83 -6.47) (end -2.83 6.47) (layer F.CrtYd) (width 0.05))
  (fp_line (start 18.35 6.47) (end 18.35 -6.47) (layer F.CrtYd) (width 0.05))
  (fp_line (start 18.35 6.47) (end -2.83 6.47) (layer F.CrtYd) (width 0.05))
  (fp_arc (start 10.99 -4.59) (end 11.49 -5.05) (angle 90.5) (layer F.Fab) (width 0.1))
  (fp_arc (start 10.02 -6.07) (end 11.48 -4.12) (angle 75.5) (layer F.Fab) (width 0.1))
  (fp_arc (start 9.94 -3.71) (end 8.34 -5) (angle 100) (layer F.Fab) (width 0.1))
  (fp_arc (start 8.83 -4.65) (end 8.54 -4.13) (angle 104.2) (layer F.Fab) (width 0.1))
  (fp_arc (start 13.86 -4.65) (end 13.57 -4.13) (angle 104.2) (layer F.Fab) (width 0.1))
  (fp_arc (start 14.97 -3.71) (end 13.37 -5) (angle 100) (layer F.Fab) (width 0.1))
  (fp_arc (start 15.05 -6.07) (end 16.51 -4.12) (angle 75.5) (layer F.Fab) (width 0.1))
  (fp_arc (start 16.02 -4.59) (end 16.52 -5.05) (angle 90.5) (layer F.Fab) (width 0.1))
  (fp_arc (start 6.01 -4.59) (end 6.51 -5.05) (angle 90.5) (layer F.Fab) (width 0.1))
  (fp_arc (start 5.04 -6.07) (end 6.5 -4.12) (angle 75.5) (layer F.Fab) (width 0.1))
  (fp_arc (start 4.96 -3.71) (end 3.36 -5) (angle 100) (layer F.Fab) (width 0.1))
  (fp_arc (start 3.85 -4.65) (end 3.56 -4.13) (angle 104.2) (layer F.Fab) (width 0.1))
  (fp_arc (start 1 -4.59) (end 1.51 -5.05) (angle 90.5) (layer F.Fab) (width 0.1))
  (fp_arc (start 0.04 -6.07) (end 1.5 -4.12) (angle 75.5) (layer F.Fab) (width 0.1))
  (fp_arc (start -0.04 -3.71) (end -1.64 -5) (angle 100) (layer F.Fab) (width 0.1))
  (fp_arc (start -1.16 -4.65) (end -1.44 -4.13) (angle 104.2) (layer F.Fab) (width 0.1))
  (pad 1 thru_hole rect (at 0 0) (size 1.98 3.96) (drill 1.32) (layers *.Cu *.Mask))
  (pad 2 thru_hole oval (at 5 0) (size 1.98 3.96) (drill 1.32) (layers *.Cu *.Mask))
  (pad 4 thru_hole oval (at 15 0) (size 1.98 3.96) (drill 1.32) (layers *.Cu *.Mask))
  (pad 3 thru_hole oval (at 10 0) (size 1.98 3.96) (drill 1.32) (layers *.Cu *.Mask))
  (model ${KIPRJMOD}/kicad_libs_k/models_k.3d/TerminalBlock_k.3dshapes/TerminalBlock_Altech_AK300-4_P5.00mm_k.wrl
    (at (xyz 0 0 0))
    (scale (xyz 1 1 1))
    (rotate (xyz 0 0 0))
  )
)
