(module TerminalBlock_bornier-5_P5.08mm (layer F.Cu) (tedit 59FF03DE)
  (descr "simple 5-pin terminal block, pitch 5.08mm, revamped version of bornier5")
  (tags "terminal block bornier5")
  (fp_text reference REF** (at 10.15 -4.55) (layer F.SilkS)
    (effects (font (size 1 1) (thickness 0.15)))
  )
  (fp_text value TerminalBlock_bornier-5_P5.08mm (at 10.15 4.6) (layer F.Fab)
    (effects (font (size 1 1) (thickness 0.15)))
  )
  (fp_text user %R (at 10.16 0) (layer F.Fab)
    (effects (font (size 1 1) (thickness 0.15)))
  )
  (fp_line (start -2.49 2.55) (end 22.81 2.55) (layer F.Fab) (width 0.1))
  (fp_line (start -2.49 -3.75) (end -2.49 3.75) (layer F.Fab) (width 0.1))
  (fp_line (start -2.49 3.75) (end 22.81 3.75) (layer F.Fab) (width 0.1))
  (fp_line (start 22.81 3.75) (end 22.81 -3.75) (layer F.Fab) (width 0.1))
  (fp_line (start 22.81 -3.75) (end -2.49 -3.75) (layer F.Fab) (width 0.1))
  (fp_line (start -2.54 3.81) (end 22.86 3.81) (layer F.SilkS) (width 0.12))
  (fp_line (start -2.54 2.54) (end 22.86 2.54) (layer F.SilkS) (width 0.12))
  (fp_line (start -2.54 -3.81) (end 22.86 -3.81) (layer F.SilkS) (width 0.12))
  (fp_line (start 22.86 -3.81) (end 22.86 3.81) (layer F.SilkS) (width 0.12))
  (fp_line (start -2.54 -3.81) (end -2.54 3.81) (layer F.SilkS) (width 0.12))
  (fp_line (start -2.74 -4) (end 23.06 -4) (layer F.CrtYd) (width 0.05))
  (fp_line (start -2.74 -4) (end -2.74 4) (layer F.CrtYd) (width 0.05))
  (fp_line (start 23.06 4) (end 23.06 -4) (layer F.CrtYd) (width 0.05))
  (fp_line (start 23.06 4) (end -2.74 4) (layer F.CrtYd) (width 0.05))
  (pad 2 thru_hole circle (at 5.08 0) (size 3 3) (drill 1.52) (layers *.Cu *.Mask))
  (pad 3 thru_hole circle (at 10.16 0) (size 3 3) (drill 1.52) (layers *.Cu *.Mask))
  (pad 1 thru_hole rect (at 0 0) (size 3 3) (drill 1.52) (layers *.Cu *.Mask))
  (pad 4 thru_hole circle (at 15.24 0) (size 3 3) (drill 1.52) (layers *.Cu *.Mask))
  (pad 5 thru_hole circle (at 20.32 0) (size 3 3) (drill 1.52) (layers *.Cu *.Mask))
  (model ${KIPRJMOD}/kicad_libs_k/models_k.3d/TerminalBlock_k.3dshapes/TerminalBlock_bornier-5_P5.08mm_k.wrl
    (at (xyz 0.4 0 0))
    (scale (xyz 1 1 1))
    (rotate (xyz 0 0 0))
  )
)
