(module PinHeader_1x12_P1.27mm_Vertical (layer F.Cu) (tedit 59FED6E3)
  (descr "Through hole straight pin header, 1x12, 1.27mm pitch, single row")
  (tags "Through hole pin header THT 1x12 1.27mm single row")
  (fp_text reference REF** (at 0 -1.695) (layer F.SilkS)
    (effects (font (size 1 1) (thickness 0.15)))
  )
  (fp_text value PinHeader_1x12_P1.27mm_Vertical (at 0 15.665) (layer F.Fab)
    (effects (font (size 1 1) (thickness 0.15)))
  )
  (fp_line (start -0.525 -0.635) (end 1.05 -0.635) (layer F.Fab) (width 0.1))
  (fp_line (start 1.05 -0.635) (end 1.05 14.605) (layer F.Fab) (width 0.1))
  (fp_line (start 1.05 14.605) (end -1.05 14.605) (layer F.Fab) (width 0.1))
  (fp_line (start -1.05 14.605) (end -1.05 -0.11) (layer F.Fab) (width 0.1))
  (fp_line (start -1.05 -0.11) (end -0.525 -0.635) (layer F.Fab) (width 0.1))
  (fp_line (start -1.11 14.665) (end -0.30753 14.665) (layer F.SilkS) (width 0.12))
  (fp_line (start 0.30753 14.665) (end 1.11 14.665) (layer F.SilkS) (width 0.12))
  (fp_line (start -1.11 0.76) (end -1.11 14.665) (layer F.SilkS) (width 0.12))
  (fp_line (start 1.11 0.76) (end 1.11 14.665) (layer F.SilkS) (width 0.12))
  (fp_line (start -1.11 0.76) (end -0.563471 0.76) (layer F.SilkS) (width 0.12))
  (fp_line (start 0.563471 0.76) (end 1.11 0.76) (layer F.SilkS) (width 0.12))
  (fp_line (start -1.11 0) (end -1.11 -0.76) (layer F.SilkS) (width 0.12))
  (fp_line (start -1.11 -0.76) (end 0 -0.76) (layer F.SilkS) (width 0.12))
  (fp_line (start -1.55 -1.15) (end -1.55 15.15) (layer F.CrtYd) (width 0.05))
  (fp_line (start -1.55 15.15) (end 1.55 15.15) (layer F.CrtYd) (width 0.05))
  (fp_line (start 1.55 15.15) (end 1.55 -1.15) (layer F.CrtYd) (width 0.05))
  (fp_line (start 1.55 -1.15) (end -1.55 -1.15) (layer F.CrtYd) (width 0.05))
  (pad 1 thru_hole rect (at 0 0) (size 1 1) (drill 0.65) (layers *.Cu *.Mask))
  (pad 2 thru_hole oval (at 0 1.27) (size 1 1) (drill 0.65) (layers *.Cu *.Mask))
  (pad 3 thru_hole oval (at 0 2.54) (size 1 1) (drill 0.65) (layers *.Cu *.Mask))
  (pad 4 thru_hole oval (at 0 3.81) (size 1 1) (drill 0.65) (layers *.Cu *.Mask))
  (pad 5 thru_hole oval (at 0 5.08) (size 1 1) (drill 0.65) (layers *.Cu *.Mask))
  (pad 6 thru_hole oval (at 0 6.35) (size 1 1) (drill 0.65) (layers *.Cu *.Mask))
  (pad 7 thru_hole oval (at 0 7.62) (size 1 1) (drill 0.65) (layers *.Cu *.Mask))
  (pad 8 thru_hole oval (at 0 8.89) (size 1 1) (drill 0.65) (layers *.Cu *.Mask))
  (pad 9 thru_hole oval (at 0 10.16) (size 1 1) (drill 0.65) (layers *.Cu *.Mask))
  (pad 10 thru_hole oval (at 0 11.43) (size 1 1) (drill 0.65) (layers *.Cu *.Mask))
  (pad 11 thru_hole oval (at 0 12.7) (size 1 1) (drill 0.65) (layers *.Cu *.Mask))
  (pad 12 thru_hole oval (at 0 13.97) (size 1 1) (drill 0.65) (layers *.Cu *.Mask))
  (fp_text user %R (at 0 6.985 90) (layer F.Fab)
    (effects (font (size 1 1) (thickness 0.15)))
  )
  (model ${KIPRJMOD}/kicad_libs_k/models_k.3d/Connector_PinHeader_1.27mm_k.3dshapes/PinHeader_1x12_P1.27mm_Vertical_k.wrl
    (at (xyz 0 0 0))
    (scale (xyz 1 1 1))
    (rotate (xyz 0 0 0))
  )
)