(module PinHeader_1x05_P1.27mm_Vertical_SMD_Pin1Right (layer F.Cu) (tedit 59FED6E3)
  (descr "surface-mounted straight pin header, 1x05, 1.27mm pitch, single row, style 2 (pin 1 right)")
  (tags "Surface mounted pin header SMD 1x05 1.27mm single row style2 pin1 right")
  (attr smd)
  (fp_text reference REF** (at 0 -4.235) (layer F.SilkS)
    (effects (font (size 1 1) (thickness 0.15)))
  )
  (fp_text value PinHeader_1x05_P1.27mm_Vertical_SMD_Pin1Right (at 0 4.235) (layer F.Fab)
    (effects (font (size 1 1) (thickness 0.15)))
  )
  (fp_line (start 1.05 3.175) (end -1.05 3.175) (layer F.Fab) (width 0.1))
  (fp_line (start -1.05 -3.175) (end 0.615 -3.175) (layer F.Fab) (width 0.1))
  (fp_line (start 1.05 3.175) (end 1.05 -2.74) (layer F.Fab) (width 0.1))
  (fp_line (start 1.05 -2.74) (end 0.615 -3.175) (layer F.Fab) (width 0.1))
  (fp_line (start -1.05 -3.175) (end -1.05 3.175) (layer F.Fab) (width 0.1))
  (fp_line (start -1.05 -1.47) (end -2.5 -1.47) (layer F.Fab) (width 0.1))
  (fp_line (start -2.5 -1.47) (end -2.5 -1.07) (layer F.Fab) (width 0.1))
  (fp_line (start -2.5 -1.07) (end -1.05 -1.07) (layer F.Fab) (width 0.1))
  (fp_line (start -1.05 1.07) (end -2.5 1.07) (layer F.Fab) (width 0.1))
  (fp_line (start -2.5 1.07) (end -2.5 1.47) (layer F.Fab) (width 0.1))
  (fp_line (start -2.5 1.47) (end -1.05 1.47) (layer F.Fab) (width 0.1))
  (fp_line (start 1.05 -2.74) (end 2.5 -2.74) (layer F.Fab) (width 0.1))
  (fp_line (start 2.5 -2.74) (end 2.5 -2.34) (layer F.Fab) (width 0.1))
  (fp_line (start 2.5 -2.34) (end 1.05 -2.34) (layer F.Fab) (width 0.1))
  (fp_line (start 1.05 -0.2) (end 2.5 -0.2) (layer F.Fab) (width 0.1))
  (fp_line (start 2.5 -0.2) (end 2.5 0.2) (layer F.Fab) (width 0.1))
  (fp_line (start 2.5 0.2) (end 1.05 0.2) (layer F.Fab) (width 0.1))
  (fp_line (start 1.05 2.34) (end 2.5 2.34) (layer F.Fab) (width 0.1))
  (fp_line (start 2.5 2.34) (end 2.5 2.74) (layer F.Fab) (width 0.1))
  (fp_line (start 2.5 2.74) (end 1.05 2.74) (layer F.Fab) (width 0.1))
  (fp_line (start -1.11 -3.235) (end 1.11 -3.235) (layer F.SilkS) (width 0.12))
  (fp_line (start -1.11 3.235) (end 1.11 3.235) (layer F.SilkS) (width 0.12))
  (fp_line (start 1.11 -1.955) (end 1.11 -0.585) (layer F.SilkS) (width 0.12))
  (fp_line (start 1.11 0.585) (end 1.11 1.955) (layer F.SilkS) (width 0.12))
  (fp_line (start -1.11 -3.225) (end -1.11 -1.855) (layer F.SilkS) (width 0.12))
  (fp_line (start 1.11 -3.125) (end 2.94 -3.125) (layer F.SilkS) (width 0.12))
  (fp_line (start 1.11 -3.235) (end 1.11 -3.125) (layer F.SilkS) (width 0.12))
  (fp_line (start -1.11 3.125) (end -1.11 3.235) (layer F.SilkS) (width 0.12))
  (fp_line (start -1.11 -0.685) (end -1.11 0.685) (layer F.SilkS) (width 0.12))
  (fp_line (start -1.11 1.855) (end -1.11 3.225) (layer F.SilkS) (width 0.12))
  (fp_line (start -3.5 -3.7) (end -3.5 3.7) (layer F.CrtYd) (width 0.05))
  (fp_line (start -3.5 3.7) (end 3.5 3.7) (layer F.CrtYd) (width 0.05))
  (fp_line (start 3.5 3.7) (end 3.5 -3.7) (layer F.CrtYd) (width 0.05))
  (fp_line (start 3.5 -3.7) (end -3.5 -3.7) (layer F.CrtYd) (width 0.05))
  (pad 2 smd rect (at -1.5 -1.27) (size 3 0.65) (layers F.Cu F.Mask F.Paste))
  (pad 4 smd rect (at -1.5 1.27) (size 3 0.65) (layers F.Cu F.Mask F.Paste))
  (pad 1 smd rect (at 1.5 -2.54) (size 3 0.65) (layers F.Cu F.Mask F.Paste))
  (pad 3 smd rect (at 1.5 0) (size 3 0.65) (layers F.Cu F.Mask F.Paste))
  (pad 5 smd rect (at 1.5 2.54) (size 3 0.65) (layers F.Cu F.Mask F.Paste))
  (fp_text user %R (at 0 0 90) (layer F.Fab)
    (effects (font (size 1 1) (thickness 0.15)))
  )
  (model ${KIPRJMOD}/kicad_libs_k/models_k.3d/Connector_PinHeader_1.27mm_k.3dshapes/PinHeader_1x05_P1.27mm_Vertical_SMD_Pin1Right_k.wrl
    (at (xyz 0 0 0))
    (scale (xyz 1 1 1))
    (rotate (xyz 0 0 0))
  )
)