(module PinHeader_1x30_P1.27mm_Vertical_SMD_Pin1Left (layer F.Cu) (tedit 59FED6E3)
  (descr "surface-mounted straight pin header, 1x30, 1.27mm pitch, single row, style 1 (pin 1 left)")
  (tags "Surface mounted pin header SMD 1x30 1.27mm single row style1 pin1 left")
  (attr smd)
  (fp_text reference REF** (at 0 -20.11) (layer F.SilkS)
    (effects (font (size 1 1) (thickness 0.15)))
  )
  (fp_text value PinHeader_1x30_P1.27mm_Vertical_SMD_Pin1Left (at 0 20.11) (layer F.Fab)
    (effects (font (size 1 1) (thickness 0.15)))
  )
  (fp_line (start 1.05 19.05) (end -1.05 19.05) (layer F.Fab) (width 0.1))
  (fp_line (start -0.615 -19.05) (end 1.05 -19.05) (layer F.Fab) (width 0.1))
  (fp_line (start -1.05 19.05) (end -1.05 -18.615) (layer F.Fab) (width 0.1))
  (fp_line (start -1.05 -18.615) (end -0.615 -19.05) (layer F.Fab) (width 0.1))
  (fp_line (start 1.05 -19.05) (end 1.05 19.05) (layer F.Fab) (width 0.1))
  (fp_line (start -1.05 -18.615) (end -2.5 -18.615) (layer F.Fab) (width 0.1))
  (fp_line (start -2.5 -18.615) (end -2.5 -18.215) (layer F.Fab) (width 0.1))
  (fp_line (start -2.5 -18.215) (end -1.05 -18.215) (layer F.Fab) (width 0.1))
  (fp_line (start -1.05 -16.075) (end -2.5 -16.075) (layer F.Fab) (width 0.1))
  (fp_line (start -2.5 -16.075) (end -2.5 -15.675) (layer F.Fab) (width 0.1))
  (fp_line (start -2.5 -15.675) (end -1.05 -15.675) (layer F.Fab) (width 0.1))
  (fp_line (start -1.05 -13.535) (end -2.5 -13.535) (layer F.Fab) (width 0.1))
  (fp_line (start -2.5 -13.535) (end -2.5 -13.135) (layer F.Fab) (width 0.1))
  (fp_line (start -2.5 -13.135) (end -1.05 -13.135) (layer F.Fab) (width 0.1))
  (fp_line (start -1.05 -10.995) (end -2.5 -10.995) (layer F.Fab) (width 0.1))
  (fp_line (start -2.5 -10.995) (end -2.5 -10.595) (layer F.Fab) (width 0.1))
  (fp_line (start -2.5 -10.595) (end -1.05 -10.595) (layer F.Fab) (width 0.1))
  (fp_line (start -1.05 -8.455) (end -2.5 -8.455) (layer F.Fab) (width 0.1))
  (fp_line (start -2.5 -8.455) (end -2.5 -8.055) (layer F.Fab) (width 0.1))
  (fp_line (start -2.5 -8.055) (end -1.05 -8.055) (layer F.Fab) (width 0.1))
  (fp_line (start -1.05 -5.915) (end -2.5 -5.915) (layer F.Fab) (width 0.1))
  (fp_line (start -2.5 -5.915) (end -2.5 -5.515) (layer F.Fab) (width 0.1))
  (fp_line (start -2.5 -5.515) (end -1.05 -5.515) (layer F.Fab) (width 0.1))
  (fp_line (start -1.05 -3.375) (end -2.5 -3.375) (layer F.Fab) (width 0.1))
  (fp_line (start -2.5 -3.375) (end -2.5 -2.975) (layer F.Fab) (width 0.1))
  (fp_line (start -2.5 -2.975) (end -1.05 -2.975) (layer F.Fab) (width 0.1))
  (fp_line (start -1.05 -0.835) (end -2.5 -0.835) (layer F.Fab) (width 0.1))
  (fp_line (start -2.5 -0.835) (end -2.5 -0.435) (layer F.Fab) (width 0.1))
  (fp_line (start -2.5 -0.435) (end -1.05 -0.435) (layer F.Fab) (width 0.1))
  (fp_line (start -1.05 1.705) (end -2.5 1.705) (layer F.Fab) (width 0.1))
  (fp_line (start -2.5 1.705) (end -2.5 2.105) (layer F.Fab) (width 0.1))
  (fp_line (start -2.5 2.105) (end -1.05 2.105) (layer F.Fab) (width 0.1))
  (fp_line (start -1.05 4.245) (end -2.5 4.245) (layer F.Fab) (width 0.1))
  (fp_line (start -2.5 4.245) (end -2.5 4.645) (layer F.Fab) (width 0.1))
  (fp_line (start -2.5 4.645) (end -1.05 4.645) (layer F.Fab) (width 0.1))
  (fp_line (start -1.05 6.785) (end -2.5 6.785) (layer F.Fab) (width 0.1))
  (fp_line (start -2.5 6.785) (end -2.5 7.185) (layer F.Fab) (width 0.1))
  (fp_line (start -2.5 7.185) (end -1.05 7.185) (layer F.Fab) (width 0.1))
  (fp_line (start -1.05 9.325) (end -2.5 9.325) (layer F.Fab) (width 0.1))
  (fp_line (start -2.5 9.325) (end -2.5 9.725) (layer F.Fab) (width 0.1))
  (fp_line (start -2.5 9.725) (end -1.05 9.725) (layer F.Fab) (width 0.1))
  (fp_line (start -1.05 11.865) (end -2.5 11.865) (layer F.Fab) (width 0.1))
  (fp_line (start -2.5 11.865) (end -2.5 12.265) (layer F.Fab) (width 0.1))
  (fp_line (start -2.5 12.265) (end -1.05 12.265) (layer F.Fab) (width 0.1))
  (fp_line (start -1.05 14.405) (end -2.5 14.405) (layer F.Fab) (width 0.1))
  (fp_line (start -2.5 14.405) (end -2.5 14.805) (layer F.Fab) (width 0.1))
  (fp_line (start -2.5 14.805) (end -1.05 14.805) (layer F.Fab) (width 0.1))
  (fp_line (start -1.05 16.945) (end -2.5 16.945) (layer F.Fab) (width 0.1))
  (fp_line (start -2.5 16.945) (end -2.5 17.345) (layer F.Fab) (width 0.1))
  (fp_line (start -2.5 17.345) (end -1.05 17.345) (layer F.Fab) (width 0.1))
  (fp_line (start 1.05 -17.345) (end 2.5 -17.345) (layer F.Fab) (width 0.1))
  (fp_line (start 2.5 -17.345) (end 2.5 -16.945) (layer F.Fab) (width 0.1))
  (fp_line (start 2.5 -16.945) (end 1.05 -16.945) (layer F.Fab) (width 0.1))
  (fp_line (start 1.05 -14.805) (end 2.5 -14.805) (layer F.Fab) (width 0.1))
  (fp_line (start 2.5 -14.805) (end 2.5 -14.405) (layer F.Fab) (width 0.1))
  (fp_line (start 2.5 -14.405) (end 1.05 -14.405) (layer F.Fab) (width 0.1))
  (fp_line (start 1.05 -12.265) (end 2.5 -12.265) (layer F.Fab) (width 0.1))
  (fp_line (start 2.5 -12.265) (end 2.5 -11.865) (layer F.Fab) (width 0.1))
  (fp_line (start 2.5 -11.865) (end 1.05 -11.865) (layer F.Fab) (width 0.1))
  (fp_line (start 1.05 -9.725) (end 2.5 -9.725) (layer F.Fab) (width 0.1))
  (fp_line (start 2.5 -9.725) (end 2.5 -9.325) (layer F.Fab) (width 0.1))
  (fp_line (start 2.5 -9.325) (end 1.05 -9.325) (layer F.Fab) (width 0.1))
  (fp_line (start 1.05 -7.185) (end 2.5 -7.185) (layer F.Fab) (width 0.1))
  (fp_line (start 2.5 -7.185) (end 2.5 -6.785) (layer F.Fab) (width 0.1))
  (fp_line (start 2.5 -6.785) (end 1.05 -6.785) (layer F.Fab) (width 0.1))
  (fp_line (start 1.05 -4.645) (end 2.5 -4.645) (layer F.Fab) (width 0.1))
  (fp_line (start 2.5 -4.645) (end 2.5 -4.245) (layer F.Fab) (width 0.1))
  (fp_line (start 2.5 -4.245) (end 1.05 -4.245) (layer F.Fab) (width 0.1))
  (fp_line (start 1.05 -2.105) (end 2.5 -2.105) (layer F.Fab) (width 0.1))
  (fp_line (start 2.5 -2.105) (end 2.5 -1.705) (layer F.Fab) (width 0.1))
  (fp_line (start 2.5 -1.705) (end 1.05 -1.705) (layer F.Fab) (width 0.1))
  (fp_line (start 1.05 0.435) (end 2.5 0.435) (layer F.Fab) (width 0.1))
  (fp_line (start 2.5 0.435) (end 2.5 0.835) (layer F.Fab) (width 0.1))
  (fp_line (start 2.5 0.835) (end 1.05 0.835) (layer F.Fab) (width 0.1))
  (fp_line (start 1.05 2.975) (end 2.5 2.975) (layer F.Fab) (width 0.1))
  (fp_line (start 2.5 2.975) (end 2.5 3.375) (layer F.Fab) (width 0.1))
  (fp_line (start 2.5 3.375) (end 1.05 3.375) (layer F.Fab) (width 0.1))
  (fp_line (start 1.05 5.515) (end 2.5 5.515) (layer F.Fab) (width 0.1))
  (fp_line (start 2.5 5.515) (end 2.5 5.915) (layer F.Fab) (width 0.1))
  (fp_line (start 2.5 5.915) (end 1.05 5.915) (layer F.Fab) (width 0.1))
  (fp_line (start 1.05 8.055) (end 2.5 8.055) (layer F.Fab) (width 0.1))
  (fp_line (start 2.5 8.055) (end 2.5 8.455) (layer F.Fab) (width 0.1))
  (fp_line (start 2.5 8.455) (end 1.05 8.455) (layer F.Fab) (width 0.1))
  (fp_line (start 1.05 10.595) (end 2.5 10.595) (layer F.Fab) (width 0.1))
  (fp_line (start 2.5 10.595) (end 2.5 10.995) (layer F.Fab) (width 0.1))
  (fp_line (start 2.5 10.995) (end 1.05 10.995) (layer F.Fab) (width 0.1))
  (fp_line (start 1.05 13.135) (end 2.5 13.135) (layer F.Fab) (width 0.1))
  (fp_line (start 2.5 13.135) (end 2.5 13.535) (layer F.Fab) (width 0.1))
  (fp_line (start 2.5 13.535) (end 1.05 13.535) (layer F.Fab) (width 0.1))
  (fp_line (start 1.05 15.675) (end 2.5 15.675) (layer F.Fab) (width 0.1))
  (fp_line (start 2.5 15.675) (end 2.5 16.075) (layer F.Fab) (width 0.1))
  (fp_line (start 2.5 16.075) (end 1.05 16.075) (layer F.Fab) (width 0.1))
  (fp_line (start 1.05 18.215) (end 2.5 18.215) (layer F.Fab) (width 0.1))
  (fp_line (start 2.5 18.215) (end 2.5 18.615) (layer F.Fab) (width 0.1))
  (fp_line (start 2.5 18.615) (end 1.05 18.615) (layer F.Fab) (width 0.1))
  (fp_line (start -1.11 -19.11) (end 1.11 -19.11) (layer F.SilkS) (width 0.12))
  (fp_line (start -1.11 19.11) (end 1.11 19.11) (layer F.SilkS) (width 0.12))
  (fp_line (start 1.11 -19.1) (end 1.11 -17.73) (layer F.SilkS) (width 0.12))
  (fp_line (start -1.11 -19) (end -2.94 -19) (layer F.SilkS) (width 0.12))
  (fp_line (start -1.11 -19.11) (end -1.11 -19) (layer F.SilkS) (width 0.12))
  (fp_line (start 1.11 19) (end 1.11 19.11) (layer F.SilkS) (width 0.12))
  (fp_line (start 1.11 -16.56) (end 1.11 -15.19) (layer F.SilkS) (width 0.12))
  (fp_line (start 1.11 -14.02) (end 1.11 -12.65) (layer F.SilkS) (width 0.12))
  (fp_line (start 1.11 -11.48) (end 1.11 -10.11) (layer F.SilkS) (width 0.12))
  (fp_line (start 1.11 -8.94) (end 1.11 -7.57) (layer F.SilkS) (width 0.12))
  (fp_line (start 1.11 -6.4) (end 1.11 -5.03) (layer F.SilkS) (width 0.12))
  (fp_line (start 1.11 -3.86) (end 1.11 -2.49) (layer F.SilkS) (width 0.12))
  (fp_line (start 1.11 -1.32) (end 1.11 0.05) (layer F.SilkS) (width 0.12))
  (fp_line (start 1.11 1.22) (end 1.11 2.59) (layer F.SilkS) (width 0.12))
  (fp_line (start 1.11 3.76) (end 1.11 5.13) (layer F.SilkS) (width 0.12))
  (fp_line (start 1.11 6.3) (end 1.11 7.67) (layer F.SilkS) (width 0.12))
  (fp_line (start 1.11 8.84) (end 1.11 10.21) (layer F.SilkS) (width 0.12))
  (fp_line (start 1.11 11.38) (end 1.11 12.75) (layer F.SilkS) (width 0.12))
  (fp_line (start 1.11 13.92) (end 1.11 15.29) (layer F.SilkS) (width 0.12))
  (fp_line (start 1.11 16.46) (end 1.11 17.83) (layer F.SilkS) (width 0.12))
  (fp_line (start -1.11 -17.83) (end -1.11 -16.46) (layer F.SilkS) (width 0.12))
  (fp_line (start -1.11 -15.29) (end -1.11 -13.92) (layer F.SilkS) (width 0.12))
  (fp_line (start -1.11 -12.75) (end -1.11 -11.38) (layer F.SilkS) (width 0.12))
  (fp_line (start -1.11 -10.21) (end -1.11 -8.84) (layer F.SilkS) (width 0.12))
  (fp_line (start -1.11 -7.67) (end -1.11 -6.3) (layer F.SilkS) (width 0.12))
  (fp_line (start -1.11 -5.13) (end -1.11 -3.76) (layer F.SilkS) (width 0.12))
  (fp_line (start -1.11 -2.59) (end -1.11 -1.22) (layer F.SilkS) (width 0.12))
  (fp_line (start -1.11 -0.05) (end -1.11 1.32) (layer F.SilkS) (width 0.12))
  (fp_line (start -1.11 2.49) (end -1.11 3.86) (layer F.SilkS) (width 0.12))
  (fp_line (start -1.11 5.03) (end -1.11 6.4) (layer F.SilkS) (width 0.12))
  (fp_line (start -1.11 7.57) (end -1.11 8.94) (layer F.SilkS) (width 0.12))
  (fp_line (start -1.11 10.11) (end -1.11 11.48) (layer F.SilkS) (width 0.12))
  (fp_line (start -1.11 12.65) (end -1.11 14.02) (layer F.SilkS) (width 0.12))
  (fp_line (start -1.11 15.19) (end -1.11 16.56) (layer F.SilkS) (width 0.12))
  (fp_line (start -1.11 17.73) (end -1.11 19.1) (layer F.SilkS) (width 0.12))
  (fp_line (start -3.5 -19.55) (end -3.5 19.55) (layer F.CrtYd) (width 0.05))
  (fp_line (start -3.5 19.55) (end 3.5 19.55) (layer F.CrtYd) (width 0.05))
  (fp_line (start 3.5 19.55) (end 3.5 -19.55) (layer F.CrtYd) (width 0.05))
  (fp_line (start 3.5 -19.55) (end -3.5 -19.55) (layer F.CrtYd) (width 0.05))
  (pad 1 smd rect (at -1.5 -18.415) (size 3 0.65) (layers F.Cu F.Mask F.Paste))
  (pad 3 smd rect (at -1.5 -15.875) (size 3 0.65) (layers F.Cu F.Mask F.Paste))
  (pad 5 smd rect (at -1.5 -13.335) (size 3 0.65) (layers F.Cu F.Mask F.Paste))
  (pad 7 smd rect (at -1.5 -10.795) (size 3 0.65) (layers F.Cu F.Mask F.Paste))
  (pad 9 smd rect (at -1.5 -8.255) (size 3 0.65) (layers F.Cu F.Mask F.Paste))
  (pad 11 smd rect (at -1.5 -5.715) (size 3 0.65) (layers F.Cu F.Mask F.Paste))
  (pad 13 smd rect (at -1.5 -3.175) (size 3 0.65) (layers F.Cu F.Mask F.Paste))
  (pad 15 smd rect (at -1.5 -0.635) (size 3 0.65) (layers F.Cu F.Mask F.Paste))
  (pad 17 smd rect (at -1.5 1.905) (size 3 0.65) (layers F.Cu F.Mask F.Paste))
  (pad 19 smd rect (at -1.5 4.445) (size 3 0.65) (layers F.Cu F.Mask F.Paste))
  (pad 21 smd rect (at -1.5 6.985) (size 3 0.65) (layers F.Cu F.Mask F.Paste))
  (pad 23 smd rect (at -1.5 9.525) (size 3 0.65) (layers F.Cu F.Mask F.Paste))
  (pad 25 smd rect (at -1.5 12.065) (size 3 0.65) (layers F.Cu F.Mask F.Paste))
  (pad 27 smd rect (at -1.5 14.605) (size 3 0.65) (layers F.Cu F.Mask F.Paste))
  (pad 29 smd rect (at -1.5 17.145) (size 3 0.65) (layers F.Cu F.Mask F.Paste))
  (pad 2 smd rect (at 1.5 -17.145) (size 3 0.65) (layers F.Cu F.Mask F.Paste))
  (pad 4 smd rect (at 1.5 -14.605) (size 3 0.65) (layers F.Cu F.Mask F.Paste))
  (pad 6 smd rect (at 1.5 -12.065) (size 3 0.65) (layers F.Cu F.Mask F.Paste))
  (pad 8 smd rect (at 1.5 -9.525) (size 3 0.65) (layers F.Cu F.Mask F.Paste))
  (pad 10 smd rect (at 1.5 -6.985) (size 3 0.65) (layers F.Cu F.Mask F.Paste))
  (pad 12 smd rect (at 1.5 -4.445) (size 3 0.65) (layers F.Cu F.Mask F.Paste))
  (pad 14 smd rect (at 1.5 -1.905) (size 3 0.65) (layers F.Cu F.Mask F.Paste))
  (pad 16 smd rect (at 1.5 0.635) (size 3 0.65) (layers F.Cu F.Mask F.Paste))
  (pad 18 smd rect (at 1.5 3.175) (size 3 0.65) (layers F.Cu F.Mask F.Paste))
  (pad 20 smd rect (at 1.5 5.715) (size 3 0.65) (layers F.Cu F.Mask F.Paste))
  (pad 22 smd rect (at 1.5 8.255) (size 3 0.65) (layers F.Cu F.Mask F.Paste))
  (pad 24 smd rect (at 1.5 10.795) (size 3 0.65) (layers F.Cu F.Mask F.Paste))
  (pad 26 smd rect (at 1.5 13.335) (size 3 0.65) (layers F.Cu F.Mask F.Paste))
  (pad 28 smd rect (at 1.5 15.875) (size 3 0.65) (layers F.Cu F.Mask F.Paste))
  (pad 30 smd rect (at 1.5 18.415) (size 3 0.65) (layers F.Cu F.Mask F.Paste))
  (fp_text user %R (at 0 0 90) (layer F.Fab)
    (effects (font (size 1 1) (thickness 0.15)))
  )
  (model ${KIPRJMOD}/kicad_libs_k/models_k.3d/Connector_PinHeader_1.27mm_k.3dshapes/PinHeader_1x30_P1.27mm_Vertical_SMD_Pin1Left_k.wrl
    (at (xyz 0 0 0))
    (scale (xyz 1 1 1))
    (rotate (xyz 0 0 0))
  )
)