(module PinHeader_1x15_P1.27mm_Vertical_SMD_Pin1Right (layer F.Cu) (tedit 59FED6E3)
  (descr "surface-mounted straight pin header, 1x15, 1.27mm pitch, single row, style 2 (pin 1 right)")
  (tags "Surface mounted pin header SMD 1x15 1.27mm single row style2 pin1 right")
  (attr smd)
  (fp_text reference REF** (at 0 -10.585) (layer F.SilkS)
    (effects (font (size 1 1) (thickness 0.15)))
  )
  (fp_text value PinHeader_1x15_P1.27mm_Vertical_SMD_Pin1Right (at 0 10.585) (layer F.Fab)
    (effects (font (size 1 1) (thickness 0.15)))
  )
  (fp_line (start 1.05 9.525) (end -1.05 9.525) (layer F.Fab) (width 0.1))
  (fp_line (start -1.05 -9.525) (end 0.615 -9.525) (layer F.Fab) (width 0.1))
  (fp_line (start 1.05 9.525) (end 1.05 -9.09) (layer F.Fab) (width 0.1))
  (fp_line (start 1.05 -9.09) (end 0.615 -9.525) (layer F.Fab) (width 0.1))
  (fp_line (start -1.05 -9.525) (end -1.05 9.525) (layer F.Fab) (width 0.1))
  (fp_line (start -1.05 -7.82) (end -2.5 -7.82) (layer F.Fab) (width 0.1))
  (fp_line (start -2.5 -7.82) (end -2.5 -7.42) (layer F.Fab) (width 0.1))
  (fp_line (start -2.5 -7.42) (end -1.05 -7.42) (layer F.Fab) (width 0.1))
  (fp_line (start -1.05 -5.28) (end -2.5 -5.28) (layer F.Fab) (width 0.1))
  (fp_line (start -2.5 -5.28) (end -2.5 -4.88) (layer F.Fab) (width 0.1))
  (fp_line (start -2.5 -4.88) (end -1.05 -4.88) (layer F.Fab) (width 0.1))
  (fp_line (start -1.05 -2.74) (end -2.5 -2.74) (layer F.Fab) (width 0.1))
  (fp_line (start -2.5 -2.74) (end -2.5 -2.34) (layer F.Fab) (width 0.1))
  (fp_line (start -2.5 -2.34) (end -1.05 -2.34) (layer F.Fab) (width 0.1))
  (fp_line (start -1.05 -0.2) (end -2.5 -0.2) (layer F.Fab) (width 0.1))
  (fp_line (start -2.5 -0.2) (end -2.5 0.2) (layer F.Fab) (width 0.1))
  (fp_line (start -2.5 0.2) (end -1.05 0.2) (layer F.Fab) (width 0.1))
  (fp_line (start -1.05 2.34) (end -2.5 2.34) (layer F.Fab) (width 0.1))
  (fp_line (start -2.5 2.34) (end -2.5 2.74) (layer F.Fab) (width 0.1))
  (fp_line (start -2.5 2.74) (end -1.05 2.74) (layer F.Fab) (width 0.1))
  (fp_line (start -1.05 4.88) (end -2.5 4.88) (layer F.Fab) (width 0.1))
  (fp_line (start -2.5 4.88) (end -2.5 5.28) (layer F.Fab) (width 0.1))
  (fp_line (start -2.5 5.28) (end -1.05 5.28) (layer F.Fab) (width 0.1))
  (fp_line (start -1.05 7.42) (end -2.5 7.42) (layer F.Fab) (width 0.1))
  (fp_line (start -2.5 7.42) (end -2.5 7.82) (layer F.Fab) (width 0.1))
  (fp_line (start -2.5 7.82) (end -1.05 7.82) (layer F.Fab) (width 0.1))
  (fp_line (start 1.05 -9.09) (end 2.5 -9.09) (layer F.Fab) (width 0.1))
  (fp_line (start 2.5 -9.09) (end 2.5 -8.69) (layer F.Fab) (width 0.1))
  (fp_line (start 2.5 -8.69) (end 1.05 -8.69) (layer F.Fab) (width 0.1))
  (fp_line (start 1.05 -6.55) (end 2.5 -6.55) (layer F.Fab) (width 0.1))
  (fp_line (start 2.5 -6.55) (end 2.5 -6.15) (layer F.Fab) (width 0.1))
  (fp_line (start 2.5 -6.15) (end 1.05 -6.15) (layer F.Fab) (width 0.1))
  (fp_line (start 1.05 -4.01) (end 2.5 -4.01) (layer F.Fab) (width 0.1))
  (fp_line (start 2.5 -4.01) (end 2.5 -3.61) (layer F.Fab) (width 0.1))
  (fp_line (start 2.5 -3.61) (end 1.05 -3.61) (layer F.Fab) (width 0.1))
  (fp_line (start 1.05 -1.47) (end 2.5 -1.47) (layer F.Fab) (width 0.1))
  (fp_line (start 2.5 -1.47) (end 2.5 -1.07) (layer F.Fab) (width 0.1))
  (fp_line (start 2.5 -1.07) (end 1.05 -1.07) (layer F.Fab) (width 0.1))
  (fp_line (start 1.05 1.07) (end 2.5 1.07) (layer F.Fab) (width 0.1))
  (fp_line (start 2.5 1.07) (end 2.5 1.47) (layer F.Fab) (width 0.1))
  (fp_line (start 2.5 1.47) (end 1.05 1.47) (layer F.Fab) (width 0.1))
  (fp_line (start 1.05 3.61) (end 2.5 3.61) (layer F.Fab) (width 0.1))
  (fp_line (start 2.5 3.61) (end 2.5 4.01) (layer F.Fab) (width 0.1))
  (fp_line (start 2.5 4.01) (end 1.05 4.01) (layer F.Fab) (width 0.1))
  (fp_line (start 1.05 6.15) (end 2.5 6.15) (layer F.Fab) (width 0.1))
  (fp_line (start 2.5 6.15) (end 2.5 6.55) (layer F.Fab) (width 0.1))
  (fp_line (start 2.5 6.55) (end 1.05 6.55) (layer F.Fab) (width 0.1))
  (fp_line (start 1.05 8.69) (end 2.5 8.69) (layer F.Fab) (width 0.1))
  (fp_line (start 2.5 8.69) (end 2.5 9.09) (layer F.Fab) (width 0.1))
  (fp_line (start 2.5 9.09) (end 1.05 9.09) (layer F.Fab) (width 0.1))
  (fp_line (start -1.11 -9.585) (end 1.11 -9.585) (layer F.SilkS) (width 0.12))
  (fp_line (start -1.11 9.585) (end 1.11 9.585) (layer F.SilkS) (width 0.12))
  (fp_line (start 1.11 -8.305) (end 1.11 -6.935) (layer F.SilkS) (width 0.12))
  (fp_line (start 1.11 -5.765) (end 1.11 -4.395) (layer F.SilkS) (width 0.12))
  (fp_line (start 1.11 -3.225) (end 1.11 -1.855) (layer F.SilkS) (width 0.12))
  (fp_line (start 1.11 -0.685) (end 1.11 0.685) (layer F.SilkS) (width 0.12))
  (fp_line (start 1.11 1.855) (end 1.11 3.225) (layer F.SilkS) (width 0.12))
  (fp_line (start 1.11 4.395) (end 1.11 5.765) (layer F.SilkS) (width 0.12))
  (fp_line (start 1.11 6.935) (end 1.11 8.305) (layer F.SilkS) (width 0.12))
  (fp_line (start -1.11 -9.575) (end -1.11 -8.205) (layer F.SilkS) (width 0.12))
  (fp_line (start 1.11 -9.475) (end 2.94 -9.475) (layer F.SilkS) (width 0.12))
  (fp_line (start 1.11 -9.585) (end 1.11 -9.475) (layer F.SilkS) (width 0.12))
  (fp_line (start -1.11 9.475) (end -1.11 9.585) (layer F.SilkS) (width 0.12))
  (fp_line (start -1.11 -7.035) (end -1.11 -5.665) (layer F.SilkS) (width 0.12))
  (fp_line (start -1.11 -4.495) (end -1.11 -3.125) (layer F.SilkS) (width 0.12))
  (fp_line (start -1.11 -1.955) (end -1.11 -0.585) (layer F.SilkS) (width 0.12))
  (fp_line (start -1.11 0.585) (end -1.11 1.955) (layer F.SilkS) (width 0.12))
  (fp_line (start -1.11 3.125) (end -1.11 4.495) (layer F.SilkS) (width 0.12))
  (fp_line (start -1.11 5.665) (end -1.11 7.035) (layer F.SilkS) (width 0.12))
  (fp_line (start -1.11 8.205) (end -1.11 9.575) (layer F.SilkS) (width 0.12))
  (fp_line (start -3.5 -10.05) (end -3.5 10.05) (layer F.CrtYd) (width 0.05))
  (fp_line (start -3.5 10.05) (end 3.5 10.05) (layer F.CrtYd) (width 0.05))
  (fp_line (start 3.5 10.05) (end 3.5 -10.05) (layer F.CrtYd) (width 0.05))
  (fp_line (start 3.5 -10.05) (end -3.5 -10.05) (layer F.CrtYd) (width 0.05))
  (pad 2 smd rect (at -1.5 -7.62) (size 3 0.65) (layers F.Cu F.Mask F.Paste))
  (pad 4 smd rect (at -1.5 -5.08) (size 3 0.65) (layers F.Cu F.Mask F.Paste))
  (pad 6 smd rect (at -1.5 -2.54) (size 3 0.65) (layers F.Cu F.Mask F.Paste))
  (pad 8 smd rect (at -1.5 0) (size 3 0.65) (layers F.Cu F.Mask F.Paste))
  (pad 10 smd rect (at -1.5 2.54) (size 3 0.65) (layers F.Cu F.Mask F.Paste))
  (pad 12 smd rect (at -1.5 5.08) (size 3 0.65) (layers F.Cu F.Mask F.Paste))
  (pad 14 smd rect (at -1.5 7.62) (size 3 0.65) (layers F.Cu F.Mask F.Paste))
  (pad 1 smd rect (at 1.5 -8.89) (size 3 0.65) (layers F.Cu F.Mask F.Paste))
  (pad 3 smd rect (at 1.5 -6.35) (size 3 0.65) (layers F.Cu F.Mask F.Paste))
  (pad 5 smd rect (at 1.5 -3.81) (size 3 0.65) (layers F.Cu F.Mask F.Paste))
  (pad 7 smd rect (at 1.5 -1.27) (size 3 0.65) (layers F.Cu F.Mask F.Paste))
  (pad 9 smd rect (at 1.5 1.27) (size 3 0.65) (layers F.Cu F.Mask F.Paste))
  (pad 11 smd rect (at 1.5 3.81) (size 3 0.65) (layers F.Cu F.Mask F.Paste))
  (pad 13 smd rect (at 1.5 6.35) (size 3 0.65) (layers F.Cu F.Mask F.Paste))
  (pad 15 smd rect (at 1.5 8.89) (size 3 0.65) (layers F.Cu F.Mask F.Paste))
  (fp_text user %R (at 0 0 90) (layer F.Fab)
    (effects (font (size 1 1) (thickness 0.15)))
  )
  (model ${KIPRJMOD}/kicad_libs_k/models_k.3d/Connector_PinHeader_1.27mm_k.3dshapes/PinHeader_1x15_P1.27mm_Vertical_SMD_Pin1Right_k.wrl
    (at (xyz 0 0 0))
    (scale (xyz 1 1 1))
    (rotate (xyz 0 0 0))
  )
)