(module PinHeader_2x01_P1.27mm_Horizontal (layer F.Cu) (tedit 59FED6E3)
  (descr "Through hole angled pin header, 2x01, 1.27mm pitch, 4.0mm pin length, double rows")
  (tags "Through hole angled pin header THT 2x01 1.27mm double row")
  (fp_text reference REF** (at 3.0675 -1.635) (layer F.SilkS)
    (effects (font (size 1 1) (thickness 0.15)))
  )
  (fp_text value PinHeader_2x01_P1.27mm_Horizontal (at 3.0675 1.635) (layer F.Fab)
    (effects (font (size 1 1) (thickness 0.15)))
  )
  (fp_line (start 2.02 -0.635) (end 2.77 -0.635) (layer F.Fab) (width 0.1))
  (fp_line (start 2.77 -0.635) (end 2.77 0.635) (layer F.Fab) (width 0.1))
  (fp_line (start 2.77 0.635) (end 1.77 0.635) (layer F.Fab) (width 0.1))
  (fp_line (start 1.77 0.635) (end 1.77 -0.385) (layer F.Fab) (width 0.1))
  (fp_line (start 1.77 -0.385) (end 2.02 -0.635) (layer F.Fab) (width 0.1))
  (fp_line (start -0.2 -0.2) (end 1.77 -0.2) (layer F.Fab) (width 0.1))
  (fp_line (start -0.2 -0.2) (end -0.2 0.2) (layer F.Fab) (width 0.1))
  (fp_line (start -0.2 0.2) (end 1.77 0.2) (layer F.Fab) (width 0.1))
  (fp_line (start 2.77 -0.2) (end 6.77 -0.2) (layer F.Fab) (width 0.1))
  (fp_line (start 6.77 -0.2) (end 6.77 0.2) (layer F.Fab) (width 0.1))
  (fp_line (start 2.77 0.2) (end 6.77 0.2) (layer F.Fab) (width 0.1))
  (fp_line (start 1.71 -0.619677) (end 1.71 -0.695) (layer F.SilkS) (width 0.12))
  (fp_line (start 1.71 -0.695) (end 2.83 -0.695) (layer F.SilkS) (width 0.12))
  (fp_line (start 2.83 -0.695) (end 2.83 0.695) (layer F.SilkS) (width 0.12))
  (fp_line (start 2.83 0.695) (end 1.71 0.695) (layer F.SilkS) (width 0.12))
  (fp_line (start 1.71 0.695) (end 1.71 0.619677) (layer F.SilkS) (width 0.12))
  (fp_line (start 2.83 -0.26) (end 6.83 -0.26) (layer F.SilkS) (width 0.12))
  (fp_line (start 6.83 -0.26) (end 6.83 0.26) (layer F.SilkS) (width 0.12))
  (fp_line (start 6.83 0.26) (end 2.83 0.26) (layer F.SilkS) (width 0.12))
  (fp_line (start 2.83 -0.2) (end 6.83 -0.2) (layer F.SilkS) (width 0.12))
  (fp_line (start 2.83 -0.08) (end 6.83 -0.08) (layer F.SilkS) (width 0.12))
  (fp_line (start 2.83 0.04) (end 6.83 0.04) (layer F.SilkS) (width 0.12))
  (fp_line (start 2.83 0.16) (end 6.83 0.16) (layer F.SilkS) (width 0.12))
  (fp_line (start -0.76 0) (end -0.76 -0.76) (layer F.SilkS) (width 0.12))
  (fp_line (start -0.76 -0.76) (end 0 -0.76) (layer F.SilkS) (width 0.12))
  (fp_line (start -1.15 -1.15) (end -1.15 1.15) (layer F.CrtYd) (width 0.05))
  (fp_line (start -1.15 1.15) (end 7.3 1.15) (layer F.CrtYd) (width 0.05))
  (fp_line (start 7.3 1.15) (end 7.3 -1.15) (layer F.CrtYd) (width 0.05))
  (fp_line (start 7.3 -1.15) (end -1.15 -1.15) (layer F.CrtYd) (width 0.05))
  (pad 1 thru_hole rect (at 0 0) (size 1 1) (drill 0.65) (layers *.Cu *.Mask))
  (pad 2 thru_hole oval (at 1.27 0) (size 1 1) (drill 0.65) (layers *.Cu *.Mask))
  (fp_text user %R (at 2.27 0 90) (layer F.Fab)
    (effects (font (size 0.6 0.6) (thickness 0.09)))
  )
  (model ${KIPRJMOD}/kicad_libs_k/models_k.3d/Connector_PinHeader_1.27mm_k.3dshapes/PinHeader_2x01_P1.27mm_Horizontal_k.wrl
    (at (xyz 0 0 0))
    (scale (xyz 1 1 1))
    (rotate (xyz 0 0 0))
  )
)