(module PinHeader_1x08_P1.27mm_Vertical_SMD_Pin1Right (layer F.Cu) (tedit 59FED6E3)
  (descr "surface-mounted straight pin header, 1x08, 1.27mm pitch, single row, style 2 (pin 1 right)")
  (tags "Surface mounted pin header SMD 1x08 1.27mm single row style2 pin1 right")
  (attr smd)
  (fp_text reference REF** (at 0 -6.14) (layer F.SilkS)
    (effects (font (size 1 1) (thickness 0.15)))
  )
  (fp_text value PinHeader_1x08_P1.27mm_Vertical_SMD_Pin1Right (at 0 6.14) (layer F.Fab)
    (effects (font (size 1 1) (thickness 0.15)))
  )
  (fp_line (start 1.05 5.08) (end -1.05 5.08) (layer F.Fab) (width 0.1))
  (fp_line (start -1.05 -5.08) (end 0.615 -5.08) (layer F.Fab) (width 0.1))
  (fp_line (start 1.05 5.08) (end 1.05 -4.645) (layer F.Fab) (width 0.1))
  (fp_line (start 1.05 -4.645) (end 0.615 -5.08) (layer F.Fab) (width 0.1))
  (fp_line (start -1.05 -5.08) (end -1.05 5.08) (layer F.Fab) (width 0.1))
  (fp_line (start -1.05 -3.375) (end -2.5 -3.375) (layer F.Fab) (width 0.1))
  (fp_line (start -2.5 -3.375) (end -2.5 -2.975) (layer F.Fab) (width 0.1))
  (fp_line (start -2.5 -2.975) (end -1.05 -2.975) (layer F.Fab) (width 0.1))
  (fp_line (start -1.05 -0.835) (end -2.5 -0.835) (layer F.Fab) (width 0.1))
  (fp_line (start -2.5 -0.835) (end -2.5 -0.435) (layer F.Fab) (width 0.1))
  (fp_line (start -2.5 -0.435) (end -1.05 -0.435) (layer F.Fab) (width 0.1))
  (fp_line (start -1.05 1.705) (end -2.5 1.705) (layer F.Fab) (width 0.1))
  (fp_line (start -2.5 1.705) (end -2.5 2.105) (layer F.Fab) (width 0.1))
  (fp_line (start -2.5 2.105) (end -1.05 2.105) (layer F.Fab) (width 0.1))
  (fp_line (start -1.05 4.245) (end -2.5 4.245) (layer F.Fab) (width 0.1))
  (fp_line (start -2.5 4.245) (end -2.5 4.645) (layer F.Fab) (width 0.1))
  (fp_line (start -2.5 4.645) (end -1.05 4.645) (layer F.Fab) (width 0.1))
  (fp_line (start 1.05 -4.645) (end 2.5 -4.645) (layer F.Fab) (width 0.1))
  (fp_line (start 2.5 -4.645) (end 2.5 -4.245) (layer F.Fab) (width 0.1))
  (fp_line (start 2.5 -4.245) (end 1.05 -4.245) (layer F.Fab) (width 0.1))
  (fp_line (start 1.05 -2.105) (end 2.5 -2.105) (layer F.Fab) (width 0.1))
  (fp_line (start 2.5 -2.105) (end 2.5 -1.705) (layer F.Fab) (width 0.1))
  (fp_line (start 2.5 -1.705) (end 1.05 -1.705) (layer F.Fab) (width 0.1))
  (fp_line (start 1.05 0.435) (end 2.5 0.435) (layer F.Fab) (width 0.1))
  (fp_line (start 2.5 0.435) (end 2.5 0.835) (layer F.Fab) (width 0.1))
  (fp_line (start 2.5 0.835) (end 1.05 0.835) (layer F.Fab) (width 0.1))
  (fp_line (start 1.05 2.975) (end 2.5 2.975) (layer F.Fab) (width 0.1))
  (fp_line (start 2.5 2.975) (end 2.5 3.375) (layer F.Fab) (width 0.1))
  (fp_line (start 2.5 3.375) (end 1.05 3.375) (layer F.Fab) (width 0.1))
  (fp_line (start -1.11 -5.14) (end 1.11 -5.14) (layer F.SilkS) (width 0.12))
  (fp_line (start -1.11 5.14) (end 1.11 5.14) (layer F.SilkS) (width 0.12))
  (fp_line (start 1.11 -3.86) (end 1.11 -2.49) (layer F.SilkS) (width 0.12))
  (fp_line (start 1.11 -1.32) (end 1.11 0.05) (layer F.SilkS) (width 0.12))
  (fp_line (start 1.11 1.22) (end 1.11 2.59) (layer F.SilkS) (width 0.12))
  (fp_line (start 1.11 3.76) (end 1.11 5.13) (layer F.SilkS) (width 0.12))
  (fp_line (start -1.11 -5.13) (end -1.11 -3.76) (layer F.SilkS) (width 0.12))
  (fp_line (start 1.11 -5.03) (end 2.94 -5.03) (layer F.SilkS) (width 0.12))
  (fp_line (start 1.11 -5.14) (end 1.11 -5.03) (layer F.SilkS) (width 0.12))
  (fp_line (start -1.11 5.03) (end -1.11 5.14) (layer F.SilkS) (width 0.12))
  (fp_line (start -1.11 -2.59) (end -1.11 -1.22) (layer F.SilkS) (width 0.12))
  (fp_line (start -1.11 -0.05) (end -1.11 1.32) (layer F.SilkS) (width 0.12))
  (fp_line (start -1.11 2.49) (end -1.11 3.86) (layer F.SilkS) (width 0.12))
  (fp_line (start -3.5 -5.6) (end -3.5 5.6) (layer F.CrtYd) (width 0.05))
  (fp_line (start -3.5 5.6) (end 3.5 5.6) (layer F.CrtYd) (width 0.05))
  (fp_line (start 3.5 5.6) (end 3.5 -5.6) (layer F.CrtYd) (width 0.05))
  (fp_line (start 3.5 -5.6) (end -3.5 -5.6) (layer F.CrtYd) (width 0.05))
  (pad 2 smd rect (at -1.5 -3.175) (size 3 0.65) (layers F.Cu F.Mask F.Paste))
  (pad 4 smd rect (at -1.5 -0.635) (size 3 0.65) (layers F.Cu F.Mask F.Paste))
  (pad 6 smd rect (at -1.5 1.905) (size 3 0.65) (layers F.Cu F.Mask F.Paste))
  (pad 8 smd rect (at -1.5 4.445) (size 3 0.65) (layers F.Cu F.Mask F.Paste))
  (pad 1 smd rect (at 1.5 -4.445) (size 3 0.65) (layers F.Cu F.Mask F.Paste))
  (pad 3 smd rect (at 1.5 -1.905) (size 3 0.65) (layers F.Cu F.Mask F.Paste))
  (pad 5 smd rect (at 1.5 0.635) (size 3 0.65) (layers F.Cu F.Mask F.Paste))
  (pad 7 smd rect (at 1.5 3.175) (size 3 0.65) (layers F.Cu F.Mask F.Paste))
  (fp_text user %R (at 0 0 90) (layer F.Fab)
    (effects (font (size 1 1) (thickness 0.15)))
  )
  (model ${KIPRJMOD}/kicad_libs_k/models_k.3d/Connector_PinHeader_1.27mm_k.3dshapes/PinHeader_1x08_P1.27mm_Vertical_SMD_Pin1Right_k.wrl
    (at (xyz 0 0 0))
    (scale (xyz 1 1 1))
    (rotate (xyz 0 0 0))
  )
)