(module PinHeader_2x39_P1.27mm_Vertical_SMD (layer F.Cu) (tedit 59FED6E4)
  (descr "surface-mounted straight pin header, 2x39, 1.27mm pitch, double rows")
  (tags "Surface mounted pin header SMD 2x39 1.27mm double row")
  (attr smd)
  (fp_text reference REF** (at 0 -25.825) (layer F.SilkS)
    (effects (font (size 1 1) (thickness 0.15)))
  )
  (fp_text value PinHeader_2x39_P1.27mm_Vertical_SMD (at 0 25.825) (layer F.Fab)
    (effects (font (size 1 1) (thickness 0.15)))
  )
  (fp_line (start 1.705 24.765) (end -1.705 24.765) (layer F.Fab) (width 0.1))
  (fp_line (start -1.27 -24.765) (end 1.705 -24.765) (layer F.Fab) (width 0.1))
  (fp_line (start -1.705 24.765) (end -1.705 -24.33) (layer F.Fab) (width 0.1))
  (fp_line (start -1.705 -24.33) (end -1.27 -24.765) (layer F.Fab) (width 0.1))
  (fp_line (start 1.705 -24.765) (end 1.705 24.765) (layer F.Fab) (width 0.1))
  (fp_line (start -1.705 -24.33) (end -2.75 -24.33) (layer F.Fab) (width 0.1))
  (fp_line (start -2.75 -24.33) (end -2.75 -23.93) (layer F.Fab) (width 0.1))
  (fp_line (start -2.75 -23.93) (end -1.705 -23.93) (layer F.Fab) (width 0.1))
  (fp_line (start 1.705 -24.33) (end 2.75 -24.33) (layer F.Fab) (width 0.1))
  (fp_line (start 2.75 -24.33) (end 2.75 -23.93) (layer F.Fab) (width 0.1))
  (fp_line (start 2.75 -23.93) (end 1.705 -23.93) (layer F.Fab) (width 0.1))
  (fp_line (start -1.705 -23.06) (end -2.75 -23.06) (layer F.Fab) (width 0.1))
  (fp_line (start -2.75 -23.06) (end -2.75 -22.66) (layer F.Fab) (width 0.1))
  (fp_line (start -2.75 -22.66) (end -1.705 -22.66) (layer F.Fab) (width 0.1))
  (fp_line (start 1.705 -23.06) (end 2.75 -23.06) (layer F.Fab) (width 0.1))
  (fp_line (start 2.75 -23.06) (end 2.75 -22.66) (layer F.Fab) (width 0.1))
  (fp_line (start 2.75 -22.66) (end 1.705 -22.66) (layer F.Fab) (width 0.1))
  (fp_line (start -1.705 -21.79) (end -2.75 -21.79) (layer F.Fab) (width 0.1))
  (fp_line (start -2.75 -21.79) (end -2.75 -21.39) (layer F.Fab) (width 0.1))
  (fp_line (start -2.75 -21.39) (end -1.705 -21.39) (layer F.Fab) (width 0.1))
  (fp_line (start 1.705 -21.79) (end 2.75 -21.79) (layer F.Fab) (width 0.1))
  (fp_line (start 2.75 -21.79) (end 2.75 -21.39) (layer F.Fab) (width 0.1))
  (fp_line (start 2.75 -21.39) (end 1.705 -21.39) (layer F.Fab) (width 0.1))
  (fp_line (start -1.705 -20.52) (end -2.75 -20.52) (layer F.Fab) (width 0.1))
  (fp_line (start -2.75 -20.52) (end -2.75 -20.12) (layer F.Fab) (width 0.1))
  (fp_line (start -2.75 -20.12) (end -1.705 -20.12) (layer F.Fab) (width 0.1))
  (fp_line (start 1.705 -20.52) (end 2.75 -20.52) (layer F.Fab) (width 0.1))
  (fp_line (start 2.75 -20.52) (end 2.75 -20.12) (layer F.Fab) (width 0.1))
  (fp_line (start 2.75 -20.12) (end 1.705 -20.12) (layer F.Fab) (width 0.1))
  (fp_line (start -1.705 -19.25) (end -2.75 -19.25) (layer F.Fab) (width 0.1))
  (fp_line (start -2.75 -19.25) (end -2.75 -18.85) (layer F.Fab) (width 0.1))
  (fp_line (start -2.75 -18.85) (end -1.705 -18.85) (layer F.Fab) (width 0.1))
  (fp_line (start 1.705 -19.25) (end 2.75 -19.25) (layer F.Fab) (width 0.1))
  (fp_line (start 2.75 -19.25) (end 2.75 -18.85) (layer F.Fab) (width 0.1))
  (fp_line (start 2.75 -18.85) (end 1.705 -18.85) (layer F.Fab) (width 0.1))
  (fp_line (start -1.705 -17.98) (end -2.75 -17.98) (layer F.Fab) (width 0.1))
  (fp_line (start -2.75 -17.98) (end -2.75 -17.58) (layer F.Fab) (width 0.1))
  (fp_line (start -2.75 -17.58) (end -1.705 -17.58) (layer F.Fab) (width 0.1))
  (fp_line (start 1.705 -17.98) (end 2.75 -17.98) (layer F.Fab) (width 0.1))
  (fp_line (start 2.75 -17.98) (end 2.75 -17.58) (layer F.Fab) (width 0.1))
  (fp_line (start 2.75 -17.58) (end 1.705 -17.58) (layer F.Fab) (width 0.1))
  (fp_line (start -1.705 -16.71) (end -2.75 -16.71) (layer F.Fab) (width 0.1))
  (fp_line (start -2.75 -16.71) (end -2.75 -16.31) (layer F.Fab) (width 0.1))
  (fp_line (start -2.75 -16.31) (end -1.705 -16.31) (layer F.Fab) (width 0.1))
  (fp_line (start 1.705 -16.71) (end 2.75 -16.71) (layer F.Fab) (width 0.1))
  (fp_line (start 2.75 -16.71) (end 2.75 -16.31) (layer F.Fab) (width 0.1))
  (fp_line (start 2.75 -16.31) (end 1.705 -16.31) (layer F.Fab) (width 0.1))
  (fp_line (start -1.705 -15.44) (end -2.75 -15.44) (layer F.Fab) (width 0.1))
  (fp_line (start -2.75 -15.44) (end -2.75 -15.04) (layer F.Fab) (width 0.1))
  (fp_line (start -2.75 -15.04) (end -1.705 -15.04) (layer F.Fab) (width 0.1))
  (fp_line (start 1.705 -15.44) (end 2.75 -15.44) (layer F.Fab) (width 0.1))
  (fp_line (start 2.75 -15.44) (end 2.75 -15.04) (layer F.Fab) (width 0.1))
  (fp_line (start 2.75 -15.04) (end 1.705 -15.04) (layer F.Fab) (width 0.1))
  (fp_line (start -1.705 -14.17) (end -2.75 -14.17) (layer F.Fab) (width 0.1))
  (fp_line (start -2.75 -14.17) (end -2.75 -13.77) (layer F.Fab) (width 0.1))
  (fp_line (start -2.75 -13.77) (end -1.705 -13.77) (layer F.Fab) (width 0.1))
  (fp_line (start 1.705 -14.17) (end 2.75 -14.17) (layer F.Fab) (width 0.1))
  (fp_line (start 2.75 -14.17) (end 2.75 -13.77) (layer F.Fab) (width 0.1))
  (fp_line (start 2.75 -13.77) (end 1.705 -13.77) (layer F.Fab) (width 0.1))
  (fp_line (start -1.705 -12.9) (end -2.75 -12.9) (layer F.Fab) (width 0.1))
  (fp_line (start -2.75 -12.9) (end -2.75 -12.5) (layer F.Fab) (width 0.1))
  (fp_line (start -2.75 -12.5) (end -1.705 -12.5) (layer F.Fab) (width 0.1))
  (fp_line (start 1.705 -12.9) (end 2.75 -12.9) (layer F.Fab) (width 0.1))
  (fp_line (start 2.75 -12.9) (end 2.75 -12.5) (layer F.Fab) (width 0.1))
  (fp_line (start 2.75 -12.5) (end 1.705 -12.5) (layer F.Fab) (width 0.1))
  (fp_line (start -1.705 -11.63) (end -2.75 -11.63) (layer F.Fab) (width 0.1))
  (fp_line (start -2.75 -11.63) (end -2.75 -11.23) (layer F.Fab) (width 0.1))
  (fp_line (start -2.75 -11.23) (end -1.705 -11.23) (layer F.Fab) (width 0.1))
  (fp_line (start 1.705 -11.63) (end 2.75 -11.63) (layer F.Fab) (width 0.1))
  (fp_line (start 2.75 -11.63) (end 2.75 -11.23) (layer F.Fab) (width 0.1))
  (fp_line (start 2.75 -11.23) (end 1.705 -11.23) (layer F.Fab) (width 0.1))
  (fp_line (start -1.705 -10.36) (end -2.75 -10.36) (layer F.Fab) (width 0.1))
  (fp_line (start -2.75 -10.36) (end -2.75 -9.96) (layer F.Fab) (width 0.1))
  (fp_line (start -2.75 -9.96) (end -1.705 -9.96) (layer F.Fab) (width 0.1))
  (fp_line (start 1.705 -10.36) (end 2.75 -10.36) (layer F.Fab) (width 0.1))
  (fp_line (start 2.75 -10.36) (end 2.75 -9.96) (layer F.Fab) (width 0.1))
  (fp_line (start 2.75 -9.96) (end 1.705 -9.96) (layer F.Fab) (width 0.1))
  (fp_line (start -1.705 -9.09) (end -2.75 -9.09) (layer F.Fab) (width 0.1))
  (fp_line (start -2.75 -9.09) (end -2.75 -8.69) (layer F.Fab) (width 0.1))
  (fp_line (start -2.75 -8.69) (end -1.705 -8.69) (layer F.Fab) (width 0.1))
  (fp_line (start 1.705 -9.09) (end 2.75 -9.09) (layer F.Fab) (width 0.1))
  (fp_line (start 2.75 -9.09) (end 2.75 -8.69) (layer F.Fab) (width 0.1))
  (fp_line (start 2.75 -8.69) (end 1.705 -8.69) (layer F.Fab) (width 0.1))
  (fp_line (start -1.705 -7.82) (end -2.75 -7.82) (layer F.Fab) (width 0.1))
  (fp_line (start -2.75 -7.82) (end -2.75 -7.42) (layer F.Fab) (width 0.1))
  (fp_line (start -2.75 -7.42) (end -1.705 -7.42) (layer F.Fab) (width 0.1))
  (fp_line (start 1.705 -7.82) (end 2.75 -7.82) (layer F.Fab) (width 0.1))
  (fp_line (start 2.75 -7.82) (end 2.75 -7.42) (layer F.Fab) (width 0.1))
  (fp_line (start 2.75 -7.42) (end 1.705 -7.42) (layer F.Fab) (width 0.1))
  (fp_line (start -1.705 -6.55) (end -2.75 -6.55) (layer F.Fab) (width 0.1))
  (fp_line (start -2.75 -6.55) (end -2.75 -6.15) (layer F.Fab) (width 0.1))
  (fp_line (start -2.75 -6.15) (end -1.705 -6.15) (layer F.Fab) (width 0.1))
  (fp_line (start 1.705 -6.55) (end 2.75 -6.55) (layer F.Fab) (width 0.1))
  (fp_line (start 2.75 -6.55) (end 2.75 -6.15) (layer F.Fab) (width 0.1))
  (fp_line (start 2.75 -6.15) (end 1.705 -6.15) (layer F.Fab) (width 0.1))
  (fp_line (start -1.705 -5.28) (end -2.75 -5.28) (layer F.Fab) (width 0.1))
  (fp_line (start -2.75 -5.28) (end -2.75 -4.88) (layer F.Fab) (width 0.1))
  (fp_line (start -2.75 -4.88) (end -1.705 -4.88) (layer F.Fab) (width 0.1))
  (fp_line (start 1.705 -5.28) (end 2.75 -5.28) (layer F.Fab) (width 0.1))
  (fp_line (start 2.75 -5.28) (end 2.75 -4.88) (layer F.Fab) (width 0.1))
  (fp_line (start 2.75 -4.88) (end 1.705 -4.88) (layer F.Fab) (width 0.1))
  (fp_line (start -1.705 -4.01) (end -2.75 -4.01) (layer F.Fab) (width 0.1))
  (fp_line (start -2.75 -4.01) (end -2.75 -3.61) (layer F.Fab) (width 0.1))
  (fp_line (start -2.75 -3.61) (end -1.705 -3.61) (layer F.Fab) (width 0.1))
  (fp_line (start 1.705 -4.01) (end 2.75 -4.01) (layer F.Fab) (width 0.1))
  (fp_line (start 2.75 -4.01) (end 2.75 -3.61) (layer F.Fab) (width 0.1))
  (fp_line (start 2.75 -3.61) (end 1.705 -3.61) (layer F.Fab) (width 0.1))
  (fp_line (start -1.705 -2.74) (end -2.75 -2.74) (layer F.Fab) (width 0.1))
  (fp_line (start -2.75 -2.74) (end -2.75 -2.34) (layer F.Fab) (width 0.1))
  (fp_line (start -2.75 -2.34) (end -1.705 -2.34) (layer F.Fab) (width 0.1))
  (fp_line (start 1.705 -2.74) (end 2.75 -2.74) (layer F.Fab) (width 0.1))
  (fp_line (start 2.75 -2.74) (end 2.75 -2.34) (layer F.Fab) (width 0.1))
  (fp_line (start 2.75 -2.34) (end 1.705 -2.34) (layer F.Fab) (width 0.1))
  (fp_line (start -1.705 -1.47) (end -2.75 -1.47) (layer F.Fab) (width 0.1))
  (fp_line (start -2.75 -1.47) (end -2.75 -1.07) (layer F.Fab) (width 0.1))
  (fp_line (start -2.75 -1.07) (end -1.705 -1.07) (layer F.Fab) (width 0.1))
  (fp_line (start 1.705 -1.47) (end 2.75 -1.47) (layer F.Fab) (width 0.1))
  (fp_line (start 2.75 -1.47) (end 2.75 -1.07) (layer F.Fab) (width 0.1))
  (fp_line (start 2.75 -1.07) (end 1.705 -1.07) (layer F.Fab) (width 0.1))
  (fp_line (start -1.705 -0.2) (end -2.75 -0.2) (layer F.Fab) (width 0.1))
  (fp_line (start -2.75 -0.2) (end -2.75 0.2) (layer F.Fab) (width 0.1))
  (fp_line (start -2.75 0.2) (end -1.705 0.2) (layer F.Fab) (width 0.1))
  (fp_line (start 1.705 -0.2) (end 2.75 -0.2) (layer F.Fab) (width 0.1))
  (fp_line (start 2.75 -0.2) (end 2.75 0.2) (layer F.Fab) (width 0.1))
  (fp_line (start 2.75 0.2) (end 1.705 0.2) (layer F.Fab) (width 0.1))
  (fp_line (start -1.705 1.07) (end -2.75 1.07) (layer F.Fab) (width 0.1))
  (fp_line (start -2.75 1.07) (end -2.75 1.47) (layer F.Fab) (width 0.1))
  (fp_line (start -2.75 1.47) (end -1.705 1.47) (layer F.Fab) (width 0.1))
  (fp_line (start 1.705 1.07) (end 2.75 1.07) (layer F.Fab) (width 0.1))
  (fp_line (start 2.75 1.07) (end 2.75 1.47) (layer F.Fab) (width 0.1))
  (fp_line (start 2.75 1.47) (end 1.705 1.47) (layer F.Fab) (width 0.1))
  (fp_line (start -1.705 2.34) (end -2.75 2.34) (layer F.Fab) (width 0.1))
  (fp_line (start -2.75 2.34) (end -2.75 2.74) (layer F.Fab) (width 0.1))
  (fp_line (start -2.75 2.74) (end -1.705 2.74) (layer F.Fab) (width 0.1))
  (fp_line (start 1.705 2.34) (end 2.75 2.34) (layer F.Fab) (width 0.1))
  (fp_line (start 2.75 2.34) (end 2.75 2.74) (layer F.Fab) (width 0.1))
  (fp_line (start 2.75 2.74) (end 1.705 2.74) (layer F.Fab) (width 0.1))
  (fp_line (start -1.705 3.61) (end -2.75 3.61) (layer F.Fab) (width 0.1))
  (fp_line (start -2.75 3.61) (end -2.75 4.01) (layer F.Fab) (width 0.1))
  (fp_line (start -2.75 4.01) (end -1.705 4.01) (layer F.Fab) (width 0.1))
  (fp_line (start 1.705 3.61) (end 2.75 3.61) (layer F.Fab) (width 0.1))
  (fp_line (start 2.75 3.61) (end 2.75 4.01) (layer F.Fab) (width 0.1))
  (fp_line (start 2.75 4.01) (end 1.705 4.01) (layer F.Fab) (width 0.1))
  (fp_line (start -1.705 4.88) (end -2.75 4.88) (layer F.Fab) (width 0.1))
  (fp_line (start -2.75 4.88) (end -2.75 5.28) (layer F.Fab) (width 0.1))
  (fp_line (start -2.75 5.28) (end -1.705 5.28) (layer F.Fab) (width 0.1))
  (fp_line (start 1.705 4.88) (end 2.75 4.88) (layer F.Fab) (width 0.1))
  (fp_line (start 2.75 4.88) (end 2.75 5.28) (layer F.Fab) (width 0.1))
  (fp_line (start 2.75 5.28) (end 1.705 5.28) (layer F.Fab) (width 0.1))
  (fp_line (start -1.705 6.15) (end -2.75 6.15) (layer F.Fab) (width 0.1))
  (fp_line (start -2.75 6.15) (end -2.75 6.55) (layer F.Fab) (width 0.1))
  (fp_line (start -2.75 6.55) (end -1.705 6.55) (layer F.Fab) (width 0.1))
  (fp_line (start 1.705 6.15) (end 2.75 6.15) (layer F.Fab) (width 0.1))
  (fp_line (start 2.75 6.15) (end 2.75 6.55) (layer F.Fab) (width 0.1))
  (fp_line (start 2.75 6.55) (end 1.705 6.55) (layer F.Fab) (width 0.1))
  (fp_line (start -1.705 7.42) (end -2.75 7.42) (layer F.Fab) (width 0.1))
  (fp_line (start -2.75 7.42) (end -2.75 7.82) (layer F.Fab) (width 0.1))
  (fp_line (start -2.75 7.82) (end -1.705 7.82) (layer F.Fab) (width 0.1))
  (fp_line (start 1.705 7.42) (end 2.75 7.42) (layer F.Fab) (width 0.1))
  (fp_line (start 2.75 7.42) (end 2.75 7.82) (layer F.Fab) (width 0.1))
  (fp_line (start 2.75 7.82) (end 1.705 7.82) (layer F.Fab) (width 0.1))
  (fp_line (start -1.705 8.69) (end -2.75 8.69) (layer F.Fab) (width 0.1))
  (fp_line (start -2.75 8.69) (end -2.75 9.09) (layer F.Fab) (width 0.1))
  (fp_line (start -2.75 9.09) (end -1.705 9.09) (layer F.Fab) (width 0.1))
  (fp_line (start 1.705 8.69) (end 2.75 8.69) (layer F.Fab) (width 0.1))
  (fp_line (start 2.75 8.69) (end 2.75 9.09) (layer F.Fab) (width 0.1))
  (fp_line (start 2.75 9.09) (end 1.705 9.09) (layer F.Fab) (width 0.1))
  (fp_line (start -1.705 9.96) (end -2.75 9.96) (layer F.Fab) (width 0.1))
  (fp_line (start -2.75 9.96) (end -2.75 10.36) (layer F.Fab) (width 0.1))
  (fp_line (start -2.75 10.36) (end -1.705 10.36) (layer F.Fab) (width 0.1))
  (fp_line (start 1.705 9.96) (end 2.75 9.96) (layer F.Fab) (width 0.1))
  (fp_line (start 2.75 9.96) (end 2.75 10.36) (layer F.Fab) (width 0.1))
  (fp_line (start 2.75 10.36) (end 1.705 10.36) (layer F.Fab) (width 0.1))
  (fp_line (start -1.705 11.23) (end -2.75 11.23) (layer F.Fab) (width 0.1))
  (fp_line (start -2.75 11.23) (end -2.75 11.63) (layer F.Fab) (width 0.1))
  (fp_line (start -2.75 11.63) (end -1.705 11.63) (layer F.Fab) (width 0.1))
  (fp_line (start 1.705 11.23) (end 2.75 11.23) (layer F.Fab) (width 0.1))
  (fp_line (start 2.75 11.23) (end 2.75 11.63) (layer F.Fab) (width 0.1))
  (fp_line (start 2.75 11.63) (end 1.705 11.63) (layer F.Fab) (width 0.1))
  (fp_line (start -1.705 12.5) (end -2.75 12.5) (layer F.Fab) (width 0.1))
  (fp_line (start -2.75 12.5) (end -2.75 12.9) (layer F.Fab) (width 0.1))
  (fp_line (start -2.75 12.9) (end -1.705 12.9) (layer F.Fab) (width 0.1))
  (fp_line (start 1.705 12.5) (end 2.75 12.5) (layer F.Fab) (width 0.1))
  (fp_line (start 2.75 12.5) (end 2.75 12.9) (layer F.Fab) (width 0.1))
  (fp_line (start 2.75 12.9) (end 1.705 12.9) (layer F.Fab) (width 0.1))
  (fp_line (start -1.705 13.77) (end -2.75 13.77) (layer F.Fab) (width 0.1))
  (fp_line (start -2.75 13.77) (end -2.75 14.17) (layer F.Fab) (width 0.1))
  (fp_line (start -2.75 14.17) (end -1.705 14.17) (layer F.Fab) (width 0.1))
  (fp_line (start 1.705 13.77) (end 2.75 13.77) (layer F.Fab) (width 0.1))
  (fp_line (start 2.75 13.77) (end 2.75 14.17) (layer F.Fab) (width 0.1))
  (fp_line (start 2.75 14.17) (end 1.705 14.17) (layer F.Fab) (width 0.1))
  (fp_line (start -1.705 15.04) (end -2.75 15.04) (layer F.Fab) (width 0.1))
  (fp_line (start -2.75 15.04) (end -2.75 15.44) (layer F.Fab) (width 0.1))
  (fp_line (start -2.75 15.44) (end -1.705 15.44) (layer F.Fab) (width 0.1))
  (fp_line (start 1.705 15.04) (end 2.75 15.04) (layer F.Fab) (width 0.1))
  (fp_line (start 2.75 15.04) (end 2.75 15.44) (layer F.Fab) (width 0.1))
  (fp_line (start 2.75 15.44) (end 1.705 15.44) (layer F.Fab) (width 0.1))
  (fp_line (start -1.705 16.31) (end -2.75 16.31) (layer F.Fab) (width 0.1))
  (fp_line (start -2.75 16.31) (end -2.75 16.71) (layer F.Fab) (width 0.1))
  (fp_line (start -2.75 16.71) (end -1.705 16.71) (layer F.Fab) (width 0.1))
  (fp_line (start 1.705 16.31) (end 2.75 16.31) (layer F.Fab) (width 0.1))
  (fp_line (start 2.75 16.31) (end 2.75 16.71) (layer F.Fab) (width 0.1))
  (fp_line (start 2.75 16.71) (end 1.705 16.71) (layer F.Fab) (width 0.1))
  (fp_line (start -1.705 17.58) (end -2.75 17.58) (layer F.Fab) (width 0.1))
  (fp_line (start -2.75 17.58) (end -2.75 17.98) (layer F.Fab) (width 0.1))
  (fp_line (start -2.75 17.98) (end -1.705 17.98) (layer F.Fab) (width 0.1))
  (fp_line (start 1.705 17.58) (end 2.75 17.58) (layer F.Fab) (width 0.1))
  (fp_line (start 2.75 17.58) (end 2.75 17.98) (layer F.Fab) (width 0.1))
  (fp_line (start 2.75 17.98) (end 1.705 17.98) (layer F.Fab) (width 0.1))
  (fp_line (start -1.705 18.85) (end -2.75 18.85) (layer F.Fab) (width 0.1))
  (fp_line (start -2.75 18.85) (end -2.75 19.25) (layer F.Fab) (width 0.1))
  (fp_line (start -2.75 19.25) (end -1.705 19.25) (layer F.Fab) (width 0.1))
  (fp_line (start 1.705 18.85) (end 2.75 18.85) (layer F.Fab) (width 0.1))
  (fp_line (start 2.75 18.85) (end 2.75 19.25) (layer F.Fab) (width 0.1))
  (fp_line (start 2.75 19.25) (end 1.705 19.25) (layer F.Fab) (width 0.1))
  (fp_line (start -1.705 20.12) (end -2.75 20.12) (layer F.Fab) (width 0.1))
  (fp_line (start -2.75 20.12) (end -2.75 20.52) (layer F.Fab) (width 0.1))
  (fp_line (start -2.75 20.52) (end -1.705 20.52) (layer F.Fab) (width 0.1))
  (fp_line (start 1.705 20.12) (end 2.75 20.12) (layer F.Fab) (width 0.1))
  (fp_line (start 2.75 20.12) (end 2.75 20.52) (layer F.Fab) (width 0.1))
  (fp_line (start 2.75 20.52) (end 1.705 20.52) (layer F.Fab) (width 0.1))
  (fp_line (start -1.705 21.39) (end -2.75 21.39) (layer F.Fab) (width 0.1))
  (fp_line (start -2.75 21.39) (end -2.75 21.79) (layer F.Fab) (width 0.1))
  (fp_line (start -2.75 21.79) (end -1.705 21.79) (layer F.Fab) (width 0.1))
  (fp_line (start 1.705 21.39) (end 2.75 21.39) (layer F.Fab) (width 0.1))
  (fp_line (start 2.75 21.39) (end 2.75 21.79) (layer F.Fab) (width 0.1))
  (fp_line (start 2.75 21.79) (end 1.705 21.79) (layer F.Fab) (width 0.1))
  (fp_line (start -1.705 22.66) (end -2.75 22.66) (layer F.Fab) (width 0.1))
  (fp_line (start -2.75 22.66) (end -2.75 23.06) (layer F.Fab) (width 0.1))
  (fp_line (start -2.75 23.06) (end -1.705 23.06) (layer F.Fab) (width 0.1))
  (fp_line (start 1.705 22.66) (end 2.75 22.66) (layer F.Fab) (width 0.1))
  (fp_line (start 2.75 22.66) (end 2.75 23.06) (layer F.Fab) (width 0.1))
  (fp_line (start 2.75 23.06) (end 1.705 23.06) (layer F.Fab) (width 0.1))
  (fp_line (start -1.705 23.93) (end -2.75 23.93) (layer F.Fab) (width 0.1))
  (fp_line (start -2.75 23.93) (end -2.75 24.33) (layer F.Fab) (width 0.1))
  (fp_line (start -2.75 24.33) (end -1.705 24.33) (layer F.Fab) (width 0.1))
  (fp_line (start 1.705 23.93) (end 2.75 23.93) (layer F.Fab) (width 0.1))
  (fp_line (start 2.75 23.93) (end 2.75 24.33) (layer F.Fab) (width 0.1))
  (fp_line (start 2.75 24.33) (end 1.705 24.33) (layer F.Fab) (width 0.1))
  (fp_line (start -1.765 -24.825) (end 1.765 -24.825) (layer F.SilkS) (width 0.12))
  (fp_line (start -1.765 24.825) (end 1.765 24.825) (layer F.SilkS) (width 0.12))
  (fp_line (start -3.09 -24.76) (end -1.765 -24.76) (layer F.SilkS) (width 0.12))
  (fp_line (start -1.765 -24.825) (end -1.765 -24.76) (layer F.SilkS) (width 0.12))
  (fp_line (start 1.765 -24.825) (end 1.765 -24.76) (layer F.SilkS) (width 0.12))
  (fp_line (start -1.765 24.76) (end -1.765 24.825) (layer F.SilkS) (width 0.12))
  (fp_line (start 1.765 24.76) (end 1.765 24.825) (layer F.SilkS) (width 0.12))
  (fp_line (start -4.3 -25.3) (end -4.3 25.3) (layer F.CrtYd) (width 0.05))
  (fp_line (start -4.3 25.3) (end 4.3 25.3) (layer F.CrtYd) (width 0.05))
  (fp_line (start 4.3 25.3) (end 4.3 -25.3) (layer F.CrtYd) (width 0.05))
  (fp_line (start 4.3 -25.3) (end -4.3 -25.3) (layer F.CrtYd) (width 0.05))
  (pad 1 smd rect (at -1.95 -24.13) (size 2.4 0.74) (layers F.Cu F.Mask F.Paste))
  (pad 2 smd rect (at 1.95 -24.13) (size 2.4 0.74) (layers F.Cu F.Mask F.Paste))
  (pad 3 smd rect (at -1.95 -22.86) (size 2.4 0.74) (layers F.Cu F.Mask F.Paste))
  (pad 4 smd rect (at 1.95 -22.86) (size 2.4 0.74) (layers F.Cu F.Mask F.Paste))
  (pad 5 smd rect (at -1.95 -21.59) (size 2.4 0.74) (layers F.Cu F.Mask F.Paste))
  (pad 6 smd rect (at 1.95 -21.59) (size 2.4 0.74) (layers F.Cu F.Mask F.Paste))
  (pad 7 smd rect (at -1.95 -20.32) (size 2.4 0.74) (layers F.Cu F.Mask F.Paste))
  (pad 8 smd rect (at 1.95 -20.32) (size 2.4 0.74) (layers F.Cu F.Mask F.Paste))
  (pad 9 smd rect (at -1.95 -19.05) (size 2.4 0.74) (layers F.Cu F.Mask F.Paste))
  (pad 10 smd rect (at 1.95 -19.05) (size 2.4 0.74) (layers F.Cu F.Mask F.Paste))
  (pad 11 smd rect (at -1.95 -17.78) (size 2.4 0.74) (layers F.Cu F.Mask F.Paste))
  (pad 12 smd rect (at 1.95 -17.78) (size 2.4 0.74) (layers F.Cu F.Mask F.Paste))
  (pad 13 smd rect (at -1.95 -16.51) (size 2.4 0.74) (layers F.Cu F.Mask F.Paste))
  (pad 14 smd rect (at 1.95 -16.51) (size 2.4 0.74) (layers F.Cu F.Mask F.Paste))
  (pad 15 smd rect (at -1.95 -15.24) (size 2.4 0.74) (layers F.Cu F.Mask F.Paste))
  (pad 16 smd rect (at 1.95 -15.24) (size 2.4 0.74) (layers F.Cu F.Mask F.Paste))
  (pad 17 smd rect (at -1.95 -13.97) (size 2.4 0.74) (layers F.Cu F.Mask F.Paste))
  (pad 18 smd rect (at 1.95 -13.97) (size 2.4 0.74) (layers F.Cu F.Mask F.Paste))
  (pad 19 smd rect (at -1.95 -12.7) (size 2.4 0.74) (layers F.Cu F.Mask F.Paste))
  (pad 20 smd rect (at 1.95 -12.7) (size 2.4 0.74) (layers F.Cu F.Mask F.Paste))
  (pad 21 smd rect (at -1.95 -11.43) (size 2.4 0.74) (layers F.Cu F.Mask F.Paste))
  (pad 22 smd rect (at 1.95 -11.43) (size 2.4 0.74) (layers F.Cu F.Mask F.Paste))
  (pad 23 smd rect (at -1.95 -10.16) (size 2.4 0.74) (layers F.Cu F.Mask F.Paste))
  (pad 24 smd rect (at 1.95 -10.16) (size 2.4 0.74) (layers F.Cu F.Mask F.Paste))
  (pad 25 smd rect (at -1.95 -8.89) (size 2.4 0.74) (layers F.Cu F.Mask F.Paste))
  (pad 26 smd rect (at 1.95 -8.89) (size 2.4 0.74) (layers F.Cu F.Mask F.Paste))
  (pad 27 smd rect (at -1.95 -7.62) (size 2.4 0.74) (layers F.Cu F.Mask F.Paste))
  (pad 28 smd rect (at 1.95 -7.62) (size 2.4 0.74) (layers F.Cu F.Mask F.Paste))
  (pad 29 smd rect (at -1.95 -6.35) (size 2.4 0.74) (layers F.Cu F.Mask F.Paste))
  (pad 30 smd rect (at 1.95 -6.35) (size 2.4 0.74) (layers F.Cu F.Mask F.Paste))
  (pad 31 smd rect (at -1.95 -5.08) (size 2.4 0.74) (layers F.Cu F.Mask F.Paste))
  (pad 32 smd rect (at 1.95 -5.08) (size 2.4 0.74) (layers F.Cu F.Mask F.Paste))
  (pad 33 smd rect (at -1.95 -3.81) (size 2.4 0.74) (layers F.Cu F.Mask F.Paste))
  (pad 34 smd rect (at 1.95 -3.81) (size 2.4 0.74) (layers F.Cu F.Mask F.Paste))
  (pad 35 smd rect (at -1.95 -2.54) (size 2.4 0.74) (layers F.Cu F.Mask F.Paste))
  (pad 36 smd rect (at 1.95 -2.54) (size 2.4 0.74) (layers F.Cu F.Mask F.Paste))
  (pad 37 smd rect (at -1.95 -1.27) (size 2.4 0.74) (layers F.Cu F.Mask F.Paste))
  (pad 38 smd rect (at 1.95 -1.27) (size 2.4 0.74) (layers F.Cu F.Mask F.Paste))
  (pad 39 smd rect (at -1.95 0) (size 2.4 0.74) (layers F.Cu F.Mask F.Paste))
  (pad 40 smd rect (at 1.95 0) (size 2.4 0.74) (layers F.Cu F.Mask F.Paste))
  (pad 41 smd rect (at -1.95 1.27) (size 2.4 0.74) (layers F.Cu F.Mask F.Paste))
  (pad 42 smd rect (at 1.95 1.27) (size 2.4 0.74) (layers F.Cu F.Mask F.Paste))
  (pad 43 smd rect (at -1.95 2.54) (size 2.4 0.74) (layers F.Cu F.Mask F.Paste))
  (pad 44 smd rect (at 1.95 2.54) (size 2.4 0.74) (layers F.Cu F.Mask F.Paste))
  (pad 45 smd rect (at -1.95 3.81) (size 2.4 0.74) (layers F.Cu F.Mask F.Paste))
  (pad 46 smd rect (at 1.95 3.81) (size 2.4 0.74) (layers F.Cu F.Mask F.Paste))
  (pad 47 smd rect (at -1.95 5.08) (size 2.4 0.74) (layers F.Cu F.Mask F.Paste))
  (pad 48 smd rect (at 1.95 5.08) (size 2.4 0.74) (layers F.Cu F.Mask F.Paste))
  (pad 49 smd rect (at -1.95 6.35) (size 2.4 0.74) (layers F.Cu F.Mask F.Paste))
  (pad 50 smd rect (at 1.95 6.35) (size 2.4 0.74) (layers F.Cu F.Mask F.Paste))
  (pad 51 smd rect (at -1.95 7.62) (size 2.4 0.74) (layers F.Cu F.Mask F.Paste))
  (pad 52 smd rect (at 1.95 7.62) (size 2.4 0.74) (layers F.Cu F.Mask F.Paste))
  (pad 53 smd rect (at -1.95 8.89) (size 2.4 0.74) (layers F.Cu F.Mask F.Paste))
  (pad 54 smd rect (at 1.95 8.89) (size 2.4 0.74) (layers F.Cu F.Mask F.Paste))
  (pad 55 smd rect (at -1.95 10.16) (size 2.4 0.74) (layers F.Cu F.Mask F.Paste))
  (pad 56 smd rect (at 1.95 10.16) (size 2.4 0.74) (layers F.Cu F.Mask F.Paste))
  (pad 57 smd rect (at -1.95 11.43) (size 2.4 0.74) (layers F.Cu F.Mask F.Paste))
  (pad 58 smd rect (at 1.95 11.43) (size 2.4 0.74) (layers F.Cu F.Mask F.Paste))
  (pad 59 smd rect (at -1.95 12.7) (size 2.4 0.74) (layers F.Cu F.Mask F.Paste))
  (pad 60 smd rect (at 1.95 12.7) (size 2.4 0.74) (layers F.Cu F.Mask F.Paste))
  (pad 61 smd rect (at -1.95 13.97) (size 2.4 0.74) (layers F.Cu F.Mask F.Paste))
  (pad 62 smd rect (at 1.95 13.97) (size 2.4 0.74) (layers F.Cu F.Mask F.Paste))
  (pad 63 smd rect (at -1.95 15.24) (size 2.4 0.74) (layers F.Cu F.Mask F.Paste))
  (pad 64 smd rect (at 1.95 15.24) (size 2.4 0.74) (layers F.Cu F.Mask F.Paste))
  (pad 65 smd rect (at -1.95 16.51) (size 2.4 0.74) (layers F.Cu F.Mask F.Paste))
  (pad 66 smd rect (at 1.95 16.51) (size 2.4 0.74) (layers F.Cu F.Mask F.Paste))
  (pad 67 smd rect (at -1.95 17.78) (size 2.4 0.74) (layers F.Cu F.Mask F.Paste))
  (pad 68 smd rect (at 1.95 17.78) (size 2.4 0.74) (layers F.Cu F.Mask F.Paste))
  (pad 69 smd rect (at -1.95 19.05) (size 2.4 0.74) (layers F.Cu F.Mask F.Paste))
  (pad 70 smd rect (at 1.95 19.05) (size 2.4 0.74) (layers F.Cu F.Mask F.Paste))
  (pad 71 smd rect (at -1.95 20.32) (size 2.4 0.74) (layers F.Cu F.Mask F.Paste))
  (pad 72 smd rect (at 1.95 20.32) (size 2.4 0.74) (layers F.Cu F.Mask F.Paste))
  (pad 73 smd rect (at -1.95 21.59) (size 2.4 0.74) (layers F.Cu F.Mask F.Paste))
  (pad 74 smd rect (at 1.95 21.59) (size 2.4 0.74) (layers F.Cu F.Mask F.Paste))
  (pad 75 smd rect (at -1.95 22.86) (size 2.4 0.74) (layers F.Cu F.Mask F.Paste))
  (pad 76 smd rect (at 1.95 22.86) (size 2.4 0.74) (layers F.Cu F.Mask F.Paste))
  (pad 77 smd rect (at -1.95 24.13) (size 2.4 0.74) (layers F.Cu F.Mask F.Paste))
  (pad 78 smd rect (at 1.95 24.13) (size 2.4 0.74) (layers F.Cu F.Mask F.Paste))
  (fp_text user %R (at 0 0 90) (layer F.Fab)
    (effects (font (size 1 1) (thickness 0.15)))
  )
  (model ${KIPRJMOD}/kicad_libs_k/models_k.3d/Connector_PinHeader_1.27mm_k.3dshapes/PinHeader_2x39_P1.27mm_Vertical_SMD_k.wrl
    (at (xyz 0 0 0))
    (scale (xyz 1 1 1))
    (rotate (xyz 0 0 0))
  )
)