(module PinHeader_2x01_P1.27mm_Vertical_SMD (layer F.Cu) (tedit 59FED6E3)
  (descr "surface-mounted straight pin header, 2x01, 1.27mm pitch, double rows")
  (tags "Surface mounted pin header SMD 2x01 1.27mm double row")
  (attr smd)
  (fp_text reference REF** (at 0 -1.695) (layer F.SilkS)
    (effects (font (size 1 1) (thickness 0.15)))
  )
  (fp_text value PinHeader_2x01_P1.27mm_Vertical_SMD (at 0 1.695) (layer F.Fab)
    (effects (font (size 1 1) (thickness 0.15)))
  )
  (fp_line (start 1.705 0.635) (end -1.705 0.635) (layer F.Fab) (width 0.1))
  (fp_line (start -1.27 -0.635) (end 1.705 -0.635) (layer F.Fab) (width 0.1))
  (fp_line (start -1.705 0.635) (end -1.705 -0.2) (layer F.Fab) (width 0.1))
  (fp_line (start -1.705 -0.2) (end -1.27 -0.635) (layer F.Fab) (width 0.1))
  (fp_line (start 1.705 -0.635) (end 1.705 0.635) (layer F.Fab) (width 0.1))
  (fp_line (start -1.705 -0.2) (end -2.75 -0.2) (layer F.Fab) (width 0.1))
  (fp_line (start -2.75 -0.2) (end -2.75 0.2) (layer F.Fab) (width 0.1))
  (fp_line (start -2.75 0.2) (end -1.705 0.2) (layer F.Fab) (width 0.1))
  (fp_line (start 1.705 -0.2) (end 2.75 -0.2) (layer F.Fab) (width 0.1))
  (fp_line (start 2.75 -0.2) (end 2.75 0.2) (layer F.Fab) (width 0.1))
  (fp_line (start 2.75 0.2) (end 1.705 0.2) (layer F.Fab) (width 0.1))
  (fp_line (start -1.765 -0.695) (end 1.765 -0.695) (layer F.SilkS) (width 0.12))
  (fp_line (start -1.765 0.695) (end 1.765 0.695) (layer F.SilkS) (width 0.12))
  (fp_line (start -3.09 -0.63) (end -1.765 -0.63) (layer F.SilkS) (width 0.12))
  (fp_line (start -1.765 -0.695) (end -1.765 -0.63) (layer F.SilkS) (width 0.12))
  (fp_line (start 1.765 -0.695) (end 1.765 -0.63) (layer F.SilkS) (width 0.12))
  (fp_line (start -1.765 0.63) (end -1.765 0.695) (layer F.SilkS) (width 0.12))
  (fp_line (start 1.765 0.63) (end 1.765 0.695) (layer F.SilkS) (width 0.12))
  (fp_line (start -4.3 -1.15) (end -4.3 1.15) (layer F.CrtYd) (width 0.05))
  (fp_line (start -4.3 1.15) (end 4.3 1.15) (layer F.CrtYd) (width 0.05))
  (fp_line (start 4.3 1.15) (end 4.3 -1.15) (layer F.CrtYd) (width 0.05))
  (fp_line (start 4.3 -1.15) (end -4.3 -1.15) (layer F.CrtYd) (width 0.05))
  (pad 1 smd rect (at -1.95 0) (size 2.4 0.74) (layers F.Cu F.Mask F.Paste))
  (pad 2 smd rect (at 1.95 0) (size 2.4 0.74) (layers F.Cu F.Mask F.Paste))
  (fp_text user %R (at 0 0 90) (layer F.Fab)
    (effects (font (size 1 1) (thickness 0.15)))
  )
  (model ${KIPRJMOD}/kicad_libs_k/models_k.3d/Connector_PinHeader_1.27mm_k.3dshapes/PinHeader_2x01_P1.27mm_Vertical_SMD_k.wrl
    (at (xyz 0 0 0))
    (scale (xyz 1 1 1))
    (rotate (xyz 0 0 0))
  )
)