(module PinHeader_1x37_P1.27mm_Vertical_SMD_Pin1Left (layer F.Cu) (tedit 59FED6E3)
  (descr "surface-mounted straight pin header, 1x37, 1.27mm pitch, single row, style 1 (pin 1 left)")
  (tags "Surface mounted pin header SMD 1x37 1.27mm single row style1 pin1 left")
  (attr smd)
  (fp_text reference REF** (at 0 -24.555) (layer F.SilkS)
    (effects (font (size 1 1) (thickness 0.15)))
  )
  (fp_text value PinHeader_1x37_P1.27mm_Vertical_SMD_Pin1Left (at 0 24.555) (layer F.Fab)
    (effects (font (size 1 1) (thickness 0.15)))
  )
  (fp_line (start 1.05 23.495) (end -1.05 23.495) (layer F.Fab) (width 0.1))
  (fp_line (start -0.615 -23.495) (end 1.05 -23.495) (layer F.Fab) (width 0.1))
  (fp_line (start -1.05 23.495) (end -1.05 -23.06) (layer F.Fab) (width 0.1))
  (fp_line (start -1.05 -23.06) (end -0.615 -23.495) (layer F.Fab) (width 0.1))
  (fp_line (start 1.05 -23.495) (end 1.05 23.495) (layer F.Fab) (width 0.1))
  (fp_line (start -1.05 -23.06) (end -2.5 -23.06) (layer F.Fab) (width 0.1))
  (fp_line (start -2.5 -23.06) (end -2.5 -22.66) (layer F.Fab) (width 0.1))
  (fp_line (start -2.5 -22.66) (end -1.05 -22.66) (layer F.Fab) (width 0.1))
  (fp_line (start -1.05 -20.52) (end -2.5 -20.52) (layer F.Fab) (width 0.1))
  (fp_line (start -2.5 -20.52) (end -2.5 -20.12) (layer F.Fab) (width 0.1))
  (fp_line (start -2.5 -20.12) (end -1.05 -20.12) (layer F.Fab) (width 0.1))
  (fp_line (start -1.05 -17.98) (end -2.5 -17.98) (layer F.Fab) (width 0.1))
  (fp_line (start -2.5 -17.98) (end -2.5 -17.58) (layer F.Fab) (width 0.1))
  (fp_line (start -2.5 -17.58) (end -1.05 -17.58) (layer F.Fab) (width 0.1))
  (fp_line (start -1.05 -15.44) (end -2.5 -15.44) (layer F.Fab) (width 0.1))
  (fp_line (start -2.5 -15.44) (end -2.5 -15.04) (layer F.Fab) (width 0.1))
  (fp_line (start -2.5 -15.04) (end -1.05 -15.04) (layer F.Fab) (width 0.1))
  (fp_line (start -1.05 -12.9) (end -2.5 -12.9) (layer F.Fab) (width 0.1))
  (fp_line (start -2.5 -12.9) (end -2.5 -12.5) (layer F.Fab) (width 0.1))
  (fp_line (start -2.5 -12.5) (end -1.05 -12.5) (layer F.Fab) (width 0.1))
  (fp_line (start -1.05 -10.36) (end -2.5 -10.36) (layer F.Fab) (width 0.1))
  (fp_line (start -2.5 -10.36) (end -2.5 -9.96) (layer F.Fab) (width 0.1))
  (fp_line (start -2.5 -9.96) (end -1.05 -9.96) (layer F.Fab) (width 0.1))
  (fp_line (start -1.05 -7.82) (end -2.5 -7.82) (layer F.Fab) (width 0.1))
  (fp_line (start -2.5 -7.82) (end -2.5 -7.42) (layer F.Fab) (width 0.1))
  (fp_line (start -2.5 -7.42) (end -1.05 -7.42) (layer F.Fab) (width 0.1))
  (fp_line (start -1.05 -5.28) (end -2.5 -5.28) (layer F.Fab) (width 0.1))
  (fp_line (start -2.5 -5.28) (end -2.5 -4.88) (layer F.Fab) (width 0.1))
  (fp_line (start -2.5 -4.88) (end -1.05 -4.88) (layer F.Fab) (width 0.1))
  (fp_line (start -1.05 -2.74) (end -2.5 -2.74) (layer F.Fab) (width 0.1))
  (fp_line (start -2.5 -2.74) (end -2.5 -2.34) (layer F.Fab) (width 0.1))
  (fp_line (start -2.5 -2.34) (end -1.05 -2.34) (layer F.Fab) (width 0.1))
  (fp_line (start -1.05 -0.2) (end -2.5 -0.2) (layer F.Fab) (width 0.1))
  (fp_line (start -2.5 -0.2) (end -2.5 0.2) (layer F.Fab) (width 0.1))
  (fp_line (start -2.5 0.2) (end -1.05 0.2) (layer F.Fab) (width 0.1))
  (fp_line (start -1.05 2.34) (end -2.5 2.34) (layer F.Fab) (width 0.1))
  (fp_line (start -2.5 2.34) (end -2.5 2.74) (layer F.Fab) (width 0.1))
  (fp_line (start -2.5 2.74) (end -1.05 2.74) (layer F.Fab) (width 0.1))
  (fp_line (start -1.05 4.88) (end -2.5 4.88) (layer F.Fab) (width 0.1))
  (fp_line (start -2.5 4.88) (end -2.5 5.28) (layer F.Fab) (width 0.1))
  (fp_line (start -2.5 5.28) (end -1.05 5.28) (layer F.Fab) (width 0.1))
  (fp_line (start -1.05 7.42) (end -2.5 7.42) (layer F.Fab) (width 0.1))
  (fp_line (start -2.5 7.42) (end -2.5 7.82) (layer F.Fab) (width 0.1))
  (fp_line (start -2.5 7.82) (end -1.05 7.82) (layer F.Fab) (width 0.1))
  (fp_line (start -1.05 9.96) (end -2.5 9.96) (layer F.Fab) (width 0.1))
  (fp_line (start -2.5 9.96) (end -2.5 10.36) (layer F.Fab) (width 0.1))
  (fp_line (start -2.5 10.36) (end -1.05 10.36) (layer F.Fab) (width 0.1))
  (fp_line (start -1.05 12.5) (end -2.5 12.5) (layer F.Fab) (width 0.1))
  (fp_line (start -2.5 12.5) (end -2.5 12.9) (layer F.Fab) (width 0.1))
  (fp_line (start -2.5 12.9) (end -1.05 12.9) (layer F.Fab) (width 0.1))
  (fp_line (start -1.05 15.04) (end -2.5 15.04) (layer F.Fab) (width 0.1))
  (fp_line (start -2.5 15.04) (end -2.5 15.44) (layer F.Fab) (width 0.1))
  (fp_line (start -2.5 15.44) (end -1.05 15.44) (layer F.Fab) (width 0.1))
  (fp_line (start -1.05 17.58) (end -2.5 17.58) (layer F.Fab) (width 0.1))
  (fp_line (start -2.5 17.58) (end -2.5 17.98) (layer F.Fab) (width 0.1))
  (fp_line (start -2.5 17.98) (end -1.05 17.98) (layer F.Fab) (width 0.1))
  (fp_line (start -1.05 20.12) (end -2.5 20.12) (layer F.Fab) (width 0.1))
  (fp_line (start -2.5 20.12) (end -2.5 20.52) (layer F.Fab) (width 0.1))
  (fp_line (start -2.5 20.52) (end -1.05 20.52) (layer F.Fab) (width 0.1))
  (fp_line (start -1.05 22.66) (end -2.5 22.66) (layer F.Fab) (width 0.1))
  (fp_line (start -2.5 22.66) (end -2.5 23.06) (layer F.Fab) (width 0.1))
  (fp_line (start -2.5 23.06) (end -1.05 23.06) (layer F.Fab) (width 0.1))
  (fp_line (start 1.05 -21.79) (end 2.5 -21.79) (layer F.Fab) (width 0.1))
  (fp_line (start 2.5 -21.79) (end 2.5 -21.39) (layer F.Fab) (width 0.1))
  (fp_line (start 2.5 -21.39) (end 1.05 -21.39) (layer F.Fab) (width 0.1))
  (fp_line (start 1.05 -19.25) (end 2.5 -19.25) (layer F.Fab) (width 0.1))
  (fp_line (start 2.5 -19.25) (end 2.5 -18.85) (layer F.Fab) (width 0.1))
  (fp_line (start 2.5 -18.85) (end 1.05 -18.85) (layer F.Fab) (width 0.1))
  (fp_line (start 1.05 -16.71) (end 2.5 -16.71) (layer F.Fab) (width 0.1))
  (fp_line (start 2.5 -16.71) (end 2.5 -16.31) (layer F.Fab) (width 0.1))
  (fp_line (start 2.5 -16.31) (end 1.05 -16.31) (layer F.Fab) (width 0.1))
  (fp_line (start 1.05 -14.17) (end 2.5 -14.17) (layer F.Fab) (width 0.1))
  (fp_line (start 2.5 -14.17) (end 2.5 -13.77) (layer F.Fab) (width 0.1))
  (fp_line (start 2.5 -13.77) (end 1.05 -13.77) (layer F.Fab) (width 0.1))
  (fp_line (start 1.05 -11.63) (end 2.5 -11.63) (layer F.Fab) (width 0.1))
  (fp_line (start 2.5 -11.63) (end 2.5 -11.23) (layer F.Fab) (width 0.1))
  (fp_line (start 2.5 -11.23) (end 1.05 -11.23) (layer F.Fab) (width 0.1))
  (fp_line (start 1.05 -9.09) (end 2.5 -9.09) (layer F.Fab) (width 0.1))
  (fp_line (start 2.5 -9.09) (end 2.5 -8.69) (layer F.Fab) (width 0.1))
  (fp_line (start 2.5 -8.69) (end 1.05 -8.69) (layer F.Fab) (width 0.1))
  (fp_line (start 1.05 -6.55) (end 2.5 -6.55) (layer F.Fab) (width 0.1))
  (fp_line (start 2.5 -6.55) (end 2.5 -6.15) (layer F.Fab) (width 0.1))
  (fp_line (start 2.5 -6.15) (end 1.05 -6.15) (layer F.Fab) (width 0.1))
  (fp_line (start 1.05 -4.01) (end 2.5 -4.01) (layer F.Fab) (width 0.1))
  (fp_line (start 2.5 -4.01) (end 2.5 -3.61) (layer F.Fab) (width 0.1))
  (fp_line (start 2.5 -3.61) (end 1.05 -3.61) (layer F.Fab) (width 0.1))
  (fp_line (start 1.05 -1.47) (end 2.5 -1.47) (layer F.Fab) (width 0.1))
  (fp_line (start 2.5 -1.47) (end 2.5 -1.07) (layer F.Fab) (width 0.1))
  (fp_line (start 2.5 -1.07) (end 1.05 -1.07) (layer F.Fab) (width 0.1))
  (fp_line (start 1.05 1.07) (end 2.5 1.07) (layer F.Fab) (width 0.1))
  (fp_line (start 2.5 1.07) (end 2.5 1.47) (layer F.Fab) (width 0.1))
  (fp_line (start 2.5 1.47) (end 1.05 1.47) (layer F.Fab) (width 0.1))
  (fp_line (start 1.05 3.61) (end 2.5 3.61) (layer F.Fab) (width 0.1))
  (fp_line (start 2.5 3.61) (end 2.5 4.01) (layer F.Fab) (width 0.1))
  (fp_line (start 2.5 4.01) (end 1.05 4.01) (layer F.Fab) (width 0.1))
  (fp_line (start 1.05 6.15) (end 2.5 6.15) (layer F.Fab) (width 0.1))
  (fp_line (start 2.5 6.15) (end 2.5 6.55) (layer F.Fab) (width 0.1))
  (fp_line (start 2.5 6.55) (end 1.05 6.55) (layer F.Fab) (width 0.1))
  (fp_line (start 1.05 8.69) (end 2.5 8.69) (layer F.Fab) (width 0.1))
  (fp_line (start 2.5 8.69) (end 2.5 9.09) (layer F.Fab) (width 0.1))
  (fp_line (start 2.5 9.09) (end 1.05 9.09) (layer F.Fab) (width 0.1))
  (fp_line (start 1.05 11.23) (end 2.5 11.23) (layer F.Fab) (width 0.1))
  (fp_line (start 2.5 11.23) (end 2.5 11.63) (layer F.Fab) (width 0.1))
  (fp_line (start 2.5 11.63) (end 1.05 11.63) (layer F.Fab) (width 0.1))
  (fp_line (start 1.05 13.77) (end 2.5 13.77) (layer F.Fab) (width 0.1))
  (fp_line (start 2.5 13.77) (end 2.5 14.17) (layer F.Fab) (width 0.1))
  (fp_line (start 2.5 14.17) (end 1.05 14.17) (layer F.Fab) (width 0.1))
  (fp_line (start 1.05 16.31) (end 2.5 16.31) (layer F.Fab) (width 0.1))
  (fp_line (start 2.5 16.31) (end 2.5 16.71) (layer F.Fab) (width 0.1))
  (fp_line (start 2.5 16.71) (end 1.05 16.71) (layer F.Fab) (width 0.1))
  (fp_line (start 1.05 18.85) (end 2.5 18.85) (layer F.Fab) (width 0.1))
  (fp_line (start 2.5 18.85) (end 2.5 19.25) (layer F.Fab) (width 0.1))
  (fp_line (start 2.5 19.25) (end 1.05 19.25) (layer F.Fab) (width 0.1))
  (fp_line (start 1.05 21.39) (end 2.5 21.39) (layer F.Fab) (width 0.1))
  (fp_line (start 2.5 21.39) (end 2.5 21.79) (layer F.Fab) (width 0.1))
  (fp_line (start 2.5 21.79) (end 1.05 21.79) (layer F.Fab) (width 0.1))
  (fp_line (start -1.11 -23.555) (end 1.11 -23.555) (layer F.SilkS) (width 0.12))
  (fp_line (start -1.11 23.555) (end 1.11 23.555) (layer F.SilkS) (width 0.12))
  (fp_line (start 1.11 -23.545) (end 1.11 -22.175) (layer F.SilkS) (width 0.12))
  (fp_line (start -1.11 -23.445) (end -2.94 -23.445) (layer F.SilkS) (width 0.12))
  (fp_line (start -1.11 -23.555) (end -1.11 -23.445) (layer F.SilkS) (width 0.12))
  (fp_line (start 1.11 23.445) (end 1.11 23.555) (layer F.SilkS) (width 0.12))
  (fp_line (start 1.11 -21.005) (end 1.11 -19.635) (layer F.SilkS) (width 0.12))
  (fp_line (start 1.11 -18.465) (end 1.11 -17.095) (layer F.SilkS) (width 0.12))
  (fp_line (start 1.11 -15.925) (end 1.11 -14.555) (layer F.SilkS) (width 0.12))
  (fp_line (start 1.11 -13.385) (end 1.11 -12.015) (layer F.SilkS) (width 0.12))
  (fp_line (start 1.11 -10.845) (end 1.11 -9.475) (layer F.SilkS) (width 0.12))
  (fp_line (start 1.11 -8.305) (end 1.11 -6.935) (layer F.SilkS) (width 0.12))
  (fp_line (start 1.11 -5.765) (end 1.11 -4.395) (layer F.SilkS) (width 0.12))
  (fp_line (start 1.11 -3.225) (end 1.11 -1.855) (layer F.SilkS) (width 0.12))
  (fp_line (start 1.11 -0.685) (end 1.11 0.685) (layer F.SilkS) (width 0.12))
  (fp_line (start 1.11 1.855) (end 1.11 3.225) (layer F.SilkS) (width 0.12))
  (fp_line (start 1.11 4.395) (end 1.11 5.765) (layer F.SilkS) (width 0.12))
  (fp_line (start 1.11 6.935) (end 1.11 8.305) (layer F.SilkS) (width 0.12))
  (fp_line (start 1.11 9.475) (end 1.11 10.845) (layer F.SilkS) (width 0.12))
  (fp_line (start 1.11 12.015) (end 1.11 13.385) (layer F.SilkS) (width 0.12))
  (fp_line (start 1.11 14.555) (end 1.11 15.925) (layer F.SilkS) (width 0.12))
  (fp_line (start 1.11 17.095) (end 1.11 18.465) (layer F.SilkS) (width 0.12))
  (fp_line (start 1.11 19.635) (end 1.11 21.005) (layer F.SilkS) (width 0.12))
  (fp_line (start 1.11 22.175) (end 1.11 23.545) (layer F.SilkS) (width 0.12))
  (fp_line (start -1.11 -22.275) (end -1.11 -20.905) (layer F.SilkS) (width 0.12))
  (fp_line (start -1.11 -19.735) (end -1.11 -18.365) (layer F.SilkS) (width 0.12))
  (fp_line (start -1.11 -17.195) (end -1.11 -15.825) (layer F.SilkS) (width 0.12))
  (fp_line (start -1.11 -14.655) (end -1.11 -13.285) (layer F.SilkS) (width 0.12))
  (fp_line (start -1.11 -12.115) (end -1.11 -10.745) (layer F.SilkS) (width 0.12))
  (fp_line (start -1.11 -9.575) (end -1.11 -8.205) (layer F.SilkS) (width 0.12))
  (fp_line (start -1.11 -7.035) (end -1.11 -5.665) (layer F.SilkS) (width 0.12))
  (fp_line (start -1.11 -4.495) (end -1.11 -3.125) (layer F.SilkS) (width 0.12))
  (fp_line (start -1.11 -1.955) (end -1.11 -0.585) (layer F.SilkS) (width 0.12))
  (fp_line (start -1.11 0.585) (end -1.11 1.955) (layer F.SilkS) (width 0.12))
  (fp_line (start -1.11 3.125) (end -1.11 4.495) (layer F.SilkS) (width 0.12))
  (fp_line (start -1.11 5.665) (end -1.11 7.035) (layer F.SilkS) (width 0.12))
  (fp_line (start -1.11 8.205) (end -1.11 9.575) (layer F.SilkS) (width 0.12))
  (fp_line (start -1.11 10.745) (end -1.11 12.115) (layer F.SilkS) (width 0.12))
  (fp_line (start -1.11 13.285) (end -1.11 14.655) (layer F.SilkS) (width 0.12))
  (fp_line (start -1.11 15.825) (end -1.11 17.195) (layer F.SilkS) (width 0.12))
  (fp_line (start -1.11 18.365) (end -1.11 19.735) (layer F.SilkS) (width 0.12))
  (fp_line (start -1.11 20.905) (end -1.11 22.275) (layer F.SilkS) (width 0.12))
  (fp_line (start -3.5 -24) (end -3.5 24) (layer F.CrtYd) (width 0.05))
  (fp_line (start -3.5 24) (end 3.5 24) (layer F.CrtYd) (width 0.05))
  (fp_line (start 3.5 24) (end 3.5 -24) (layer F.CrtYd) (width 0.05))
  (fp_line (start 3.5 -24) (end -3.5 -24) (layer F.CrtYd) (width 0.05))
  (pad 1 smd rect (at -1.5 -22.86) (size 3 0.65) (layers F.Cu F.Mask F.Paste))
  (pad 3 smd rect (at -1.5 -20.32) (size 3 0.65) (layers F.Cu F.Mask F.Paste))
  (pad 5 smd rect (at -1.5 -17.78) (size 3 0.65) (layers F.Cu F.Mask F.Paste))
  (pad 7 smd rect (at -1.5 -15.24) (size 3 0.65) (layers F.Cu F.Mask F.Paste))
  (pad 9 smd rect (at -1.5 -12.7) (size 3 0.65) (layers F.Cu F.Mask F.Paste))
  (pad 11 smd rect (at -1.5 -10.16) (size 3 0.65) (layers F.Cu F.Mask F.Paste))
  (pad 13 smd rect (at -1.5 -7.62) (size 3 0.65) (layers F.Cu F.Mask F.Paste))
  (pad 15 smd rect (at -1.5 -5.08) (size 3 0.65) (layers F.Cu F.Mask F.Paste))
  (pad 17 smd rect (at -1.5 -2.54) (size 3 0.65) (layers F.Cu F.Mask F.Paste))
  (pad 19 smd rect (at -1.5 0) (size 3 0.65) (layers F.Cu F.Mask F.Paste))
  (pad 21 smd rect (at -1.5 2.54) (size 3 0.65) (layers F.Cu F.Mask F.Paste))
  (pad 23 smd rect (at -1.5 5.08) (size 3 0.65) (layers F.Cu F.Mask F.Paste))
  (pad 25 smd rect (at -1.5 7.62) (size 3 0.65) (layers F.Cu F.Mask F.Paste))
  (pad 27 smd rect (at -1.5 10.16) (size 3 0.65) (layers F.Cu F.Mask F.Paste))
  (pad 29 smd rect (at -1.5 12.7) (size 3 0.65) (layers F.Cu F.Mask F.Paste))
  (pad 31 smd rect (at -1.5 15.24) (size 3 0.65) (layers F.Cu F.Mask F.Paste))
  (pad 33 smd rect (at -1.5 17.78) (size 3 0.65) (layers F.Cu F.Mask F.Paste))
  (pad 35 smd rect (at -1.5 20.32) (size 3 0.65) (layers F.Cu F.Mask F.Paste))
  (pad 37 smd rect (at -1.5 22.86) (size 3 0.65) (layers F.Cu F.Mask F.Paste))
  (pad 2 smd rect (at 1.5 -21.59) (size 3 0.65) (layers F.Cu F.Mask F.Paste))
  (pad 4 smd rect (at 1.5 -19.05) (size 3 0.65) (layers F.Cu F.Mask F.Paste))
  (pad 6 smd rect (at 1.5 -16.51) (size 3 0.65) (layers F.Cu F.Mask F.Paste))
  (pad 8 smd rect (at 1.5 -13.97) (size 3 0.65) (layers F.Cu F.Mask F.Paste))
  (pad 10 smd rect (at 1.5 -11.43) (size 3 0.65) (layers F.Cu F.Mask F.Paste))
  (pad 12 smd rect (at 1.5 -8.89) (size 3 0.65) (layers F.Cu F.Mask F.Paste))
  (pad 14 smd rect (at 1.5 -6.35) (size 3 0.65) (layers F.Cu F.Mask F.Paste))
  (pad 16 smd rect (at 1.5 -3.81) (size 3 0.65) (layers F.Cu F.Mask F.Paste))
  (pad 18 smd rect (at 1.5 -1.27) (size 3 0.65) (layers F.Cu F.Mask F.Paste))
  (pad 20 smd rect (at 1.5 1.27) (size 3 0.65) (layers F.Cu F.Mask F.Paste))
  (pad 22 smd rect (at 1.5 3.81) (size 3 0.65) (layers F.Cu F.Mask F.Paste))
  (pad 24 smd rect (at 1.5 6.35) (size 3 0.65) (layers F.Cu F.Mask F.Paste))
  (pad 26 smd rect (at 1.5 8.89) (size 3 0.65) (layers F.Cu F.Mask F.Paste))
  (pad 28 smd rect (at 1.5 11.43) (size 3 0.65) (layers F.Cu F.Mask F.Paste))
  (pad 30 smd rect (at 1.5 13.97) (size 3 0.65) (layers F.Cu F.Mask F.Paste))
  (pad 32 smd rect (at 1.5 16.51) (size 3 0.65) (layers F.Cu F.Mask F.Paste))
  (pad 34 smd rect (at 1.5 19.05) (size 3 0.65) (layers F.Cu F.Mask F.Paste))
  (pad 36 smd rect (at 1.5 21.59) (size 3 0.65) (layers F.Cu F.Mask F.Paste))
  (fp_text user %R (at 0 0 90) (layer F.Fab)
    (effects (font (size 1 1) (thickness 0.15)))
  )
  (model ${KIPRJMOD}/kicad_libs_k/models_k.3d/Connector_PinHeader_1.27mm_k.3dshapes/PinHeader_1x37_P1.27mm_Vertical_SMD_Pin1Left_k.wrl
    (at (xyz 0 0 0))
    (scale (xyz 1 1 1))
    (rotate (xyz 0 0 0))
  )
)