(module PinHeader_2x01_P1.27mm_Vertical (layer F.Cu) (tedit 59FED6E3)
  (descr "Through hole straight pin header, 2x01, 1.27mm pitch, double rows")
  (tags "Through hole pin header THT 2x01 1.27mm double row")
  (fp_text reference REF** (at 0.635 -1.695) (layer F.SilkS)
    (effects (font (size 1 1) (thickness 0.15)))
  )
  (fp_text value PinHeader_2x01_P1.27mm_Vertical (at 0.635 1.695) (layer F.Fab)
    (effects (font (size 1 1) (thickness 0.15)))
  )
  (fp_line (start -0.2175 -0.635) (end 2.34 -0.635) (layer F.Fab) (width 0.1))
  (fp_line (start 2.34 -0.635) (end 2.34 0.635) (layer F.Fab) (width 0.1))
  (fp_line (start 2.34 0.635) (end -1.07 0.635) (layer F.Fab) (width 0.1))
  (fp_line (start -1.07 0.635) (end -1.07 0.2175) (layer F.Fab) (width 0.1))
  (fp_line (start -1.07 0.2175) (end -0.2175 -0.635) (layer F.Fab) (width 0.1))
  (fp_line (start -1.13 0.76) (end 2.4 0.76) (layer F.SilkS) (width 0.12))
  (fp_line (start -1.13 0.76) (end -1.13 0.695) (layer F.SilkS) (width 0.12))
  (fp_line (start 2.4 -0.695) (end 2.4 0.695) (layer F.SilkS) (width 0.12))
  (fp_line (start -1.13 0.76) (end -0.563471 0.76) (layer F.SilkS) (width 0.12))
  (fp_line (start 0.563471 0.76) (end 0.706529 0.76) (layer F.SilkS) (width 0.12))
  (fp_line (start 0.76 0.706529) (end 0.76 0.563471) (layer F.SilkS) (width 0.12))
  (fp_line (start 0.76 -0.563471) (end 0.76 -0.695) (layer F.SilkS) (width 0.12))
  (fp_line (start 0.76 -0.695) (end 0.96247 -0.695) (layer F.SilkS) (width 0.12))
  (fp_line (start 1.57753 -0.695) (end 2.4 -0.695) (layer F.SilkS) (width 0.12))
  (fp_line (start -1.13 0) (end -1.13 -0.76) (layer F.SilkS) (width 0.12))
  (fp_line (start -1.13 -0.76) (end 0 -0.76) (layer F.SilkS) (width 0.12))
  (fp_line (start -1.6 -1.15) (end -1.6 1.15) (layer F.CrtYd) (width 0.05))
  (fp_line (start -1.6 1.15) (end 2.85 1.15) (layer F.CrtYd) (width 0.05))
  (fp_line (start 2.85 1.15) (end 2.85 -1.15) (layer F.CrtYd) (width 0.05))
  (fp_line (start 2.85 -1.15) (end -1.6 -1.15) (layer F.CrtYd) (width 0.05))
  (pad 1 thru_hole rect (at 0 0) (size 1 1) (drill 0.65) (layers *.Cu *.Mask))
  (pad 2 thru_hole oval (at 1.27 0) (size 1 1) (drill 0.65) (layers *.Cu *.Mask))
  (fp_text user %R (at 0.635 0 90) (layer F.Fab)
    (effects (font (size 1 1) (thickness 0.15)))
  )
  (model ${KIPRJMOD}/kicad_libs_k/models_k.3d/Connector_PinHeader_1.27mm_k.3dshapes/PinHeader_2x01_P1.27mm_Vertical_k.wrl
    (at (xyz 0 0 0))
    (scale (xyz 1 1 1))
    (rotate (xyz 0 0 0))
  )
)