(module PinHeader_1x25_P1.27mm_Horizontal (layer F.Cu) (tedit 59FED6E3)
  (descr "Through hole angled pin header, 1x25, 1.27mm pitch, 4.0mm pin length, single row")
  (tags "Through hole angled pin header THT 1x25 1.27mm single row")
  (fp_text reference REF** (at 2.4325 -1.635) (layer F.SilkS)
    (effects (font (size 1 1) (thickness 0.15)))
  )
  (fp_text value PinHeader_1x25_P1.27mm_Horizontal (at 2.4325 32.115) (layer F.Fab)
    (effects (font (size 1 1) (thickness 0.15)))
  )
  (fp_line (start 0.75 -0.635) (end 1.5 -0.635) (layer F.Fab) (width 0.1))
  (fp_line (start 1.5 -0.635) (end 1.5 31.115) (layer F.Fab) (width 0.1))
  (fp_line (start 1.5 31.115) (end 0.5 31.115) (layer F.Fab) (width 0.1))
  (fp_line (start 0.5 31.115) (end 0.5 -0.385) (layer F.Fab) (width 0.1))
  (fp_line (start 0.5 -0.385) (end 0.75 -0.635) (layer F.Fab) (width 0.1))
  (fp_line (start -0.2 -0.2) (end 0.5 -0.2) (layer F.Fab) (width 0.1))
  (fp_line (start -0.2 -0.2) (end -0.2 0.2) (layer F.Fab) (width 0.1))
  (fp_line (start -0.2 0.2) (end 0.5 0.2) (layer F.Fab) (width 0.1))
  (fp_line (start 1.5 -0.2) (end 5.5 -0.2) (layer F.Fab) (width 0.1))
  (fp_line (start 5.5 -0.2) (end 5.5 0.2) (layer F.Fab) (width 0.1))
  (fp_line (start 1.5 0.2) (end 5.5 0.2) (layer F.Fab) (width 0.1))
  (fp_line (start -0.2 1.07) (end 0.5 1.07) (layer F.Fab) (width 0.1))
  (fp_line (start -0.2 1.07) (end -0.2 1.47) (layer F.Fab) (width 0.1))
  (fp_line (start -0.2 1.47) (end 0.5 1.47) (layer F.Fab) (width 0.1))
  (fp_line (start 1.5 1.07) (end 5.5 1.07) (layer F.Fab) (width 0.1))
  (fp_line (start 5.5 1.07) (end 5.5 1.47) (layer F.Fab) (width 0.1))
  (fp_line (start 1.5 1.47) (end 5.5 1.47) (layer F.Fab) (width 0.1))
  (fp_line (start -0.2 2.34) (end 0.5 2.34) (layer F.Fab) (width 0.1))
  (fp_line (start -0.2 2.34) (end -0.2 2.74) (layer F.Fab) (width 0.1))
  (fp_line (start -0.2 2.74) (end 0.5 2.74) (layer F.Fab) (width 0.1))
  (fp_line (start 1.5 2.34) (end 5.5 2.34) (layer F.Fab) (width 0.1))
  (fp_line (start 5.5 2.34) (end 5.5 2.74) (layer F.Fab) (width 0.1))
  (fp_line (start 1.5 2.74) (end 5.5 2.74) (layer F.Fab) (width 0.1))
  (fp_line (start -0.2 3.61) (end 0.5 3.61) (layer F.Fab) (width 0.1))
  (fp_line (start -0.2 3.61) (end -0.2 4.01) (layer F.Fab) (width 0.1))
  (fp_line (start -0.2 4.01) (end 0.5 4.01) (layer F.Fab) (width 0.1))
  (fp_line (start 1.5 3.61) (end 5.5 3.61) (layer F.Fab) (width 0.1))
  (fp_line (start 5.5 3.61) (end 5.5 4.01) (layer F.Fab) (width 0.1))
  (fp_line (start 1.5 4.01) (end 5.5 4.01) (layer F.Fab) (width 0.1))
  (fp_line (start -0.2 4.88) (end 0.5 4.88) (layer F.Fab) (width 0.1))
  (fp_line (start -0.2 4.88) (end -0.2 5.28) (layer F.Fab) (width 0.1))
  (fp_line (start -0.2 5.28) (end 0.5 5.28) (layer F.Fab) (width 0.1))
  (fp_line (start 1.5 4.88) (end 5.5 4.88) (layer F.Fab) (width 0.1))
  (fp_line (start 5.5 4.88) (end 5.5 5.28) (layer F.Fab) (width 0.1))
  (fp_line (start 1.5 5.28) (end 5.5 5.28) (layer F.Fab) (width 0.1))
  (fp_line (start -0.2 6.15) (end 0.5 6.15) (layer F.Fab) (width 0.1))
  (fp_line (start -0.2 6.15) (end -0.2 6.55) (layer F.Fab) (width 0.1))
  (fp_line (start -0.2 6.55) (end 0.5 6.55) (layer F.Fab) (width 0.1))
  (fp_line (start 1.5 6.15) (end 5.5 6.15) (layer F.Fab) (width 0.1))
  (fp_line (start 5.5 6.15) (end 5.5 6.55) (layer F.Fab) (width 0.1))
  (fp_line (start 1.5 6.55) (end 5.5 6.55) (layer F.Fab) (width 0.1))
  (fp_line (start -0.2 7.42) (end 0.5 7.42) (layer F.Fab) (width 0.1))
  (fp_line (start -0.2 7.42) (end -0.2 7.82) (layer F.Fab) (width 0.1))
  (fp_line (start -0.2 7.82) (end 0.5 7.82) (layer F.Fab) (width 0.1))
  (fp_line (start 1.5 7.42) (end 5.5 7.42) (layer F.Fab) (width 0.1))
  (fp_line (start 5.5 7.42) (end 5.5 7.82) (layer F.Fab) (width 0.1))
  (fp_line (start 1.5 7.82) (end 5.5 7.82) (layer F.Fab) (width 0.1))
  (fp_line (start -0.2 8.69) (end 0.5 8.69) (layer F.Fab) (width 0.1))
  (fp_line (start -0.2 8.69) (end -0.2 9.09) (layer F.Fab) (width 0.1))
  (fp_line (start -0.2 9.09) (end 0.5 9.09) (layer F.Fab) (width 0.1))
  (fp_line (start 1.5 8.69) (end 5.5 8.69) (layer F.Fab) (width 0.1))
  (fp_line (start 5.5 8.69) (end 5.5 9.09) (layer F.Fab) (width 0.1))
  (fp_line (start 1.5 9.09) (end 5.5 9.09) (layer F.Fab) (width 0.1))
  (fp_line (start -0.2 9.96) (end 0.5 9.96) (layer F.Fab) (width 0.1))
  (fp_line (start -0.2 9.96) (end -0.2 10.36) (layer F.Fab) (width 0.1))
  (fp_line (start -0.2 10.36) (end 0.5 10.36) (layer F.Fab) (width 0.1))
  (fp_line (start 1.5 9.96) (end 5.5 9.96) (layer F.Fab) (width 0.1))
  (fp_line (start 5.5 9.96) (end 5.5 10.36) (layer F.Fab) (width 0.1))
  (fp_line (start 1.5 10.36) (end 5.5 10.36) (layer F.Fab) (width 0.1))
  (fp_line (start -0.2 11.23) (end 0.5 11.23) (layer F.Fab) (width 0.1))
  (fp_line (start -0.2 11.23) (end -0.2 11.63) (layer F.Fab) (width 0.1))
  (fp_line (start -0.2 11.63) (end 0.5 11.63) (layer F.Fab) (width 0.1))
  (fp_line (start 1.5 11.23) (end 5.5 11.23) (layer F.Fab) (width 0.1))
  (fp_line (start 5.5 11.23) (end 5.5 11.63) (layer F.Fab) (width 0.1))
  (fp_line (start 1.5 11.63) (end 5.5 11.63) (layer F.Fab) (width 0.1))
  (fp_line (start -0.2 12.5) (end 0.5 12.5) (layer F.Fab) (width 0.1))
  (fp_line (start -0.2 12.5) (end -0.2 12.9) (layer F.Fab) (width 0.1))
  (fp_line (start -0.2 12.9) (end 0.5 12.9) (layer F.Fab) (width 0.1))
  (fp_line (start 1.5 12.5) (end 5.5 12.5) (layer F.Fab) (width 0.1))
  (fp_line (start 5.5 12.5) (end 5.5 12.9) (layer F.Fab) (width 0.1))
  (fp_line (start 1.5 12.9) (end 5.5 12.9) (layer F.Fab) (width 0.1))
  (fp_line (start -0.2 13.77) (end 0.5 13.77) (layer F.Fab) (width 0.1))
  (fp_line (start -0.2 13.77) (end -0.2 14.17) (layer F.Fab) (width 0.1))
  (fp_line (start -0.2 14.17) (end 0.5 14.17) (layer F.Fab) (width 0.1))
  (fp_line (start 1.5 13.77) (end 5.5 13.77) (layer F.Fab) (width 0.1))
  (fp_line (start 5.5 13.77) (end 5.5 14.17) (layer F.Fab) (width 0.1))
  (fp_line (start 1.5 14.17) (end 5.5 14.17) (layer F.Fab) (width 0.1))
  (fp_line (start -0.2 15.04) (end 0.5 15.04) (layer F.Fab) (width 0.1))
  (fp_line (start -0.2 15.04) (end -0.2 15.44) (layer F.Fab) (width 0.1))
  (fp_line (start -0.2 15.44) (end 0.5 15.44) (layer F.Fab) (width 0.1))
  (fp_line (start 1.5 15.04) (end 5.5 15.04) (layer F.Fab) (width 0.1))
  (fp_line (start 5.5 15.04) (end 5.5 15.44) (layer F.Fab) (width 0.1))
  (fp_line (start 1.5 15.44) (end 5.5 15.44) (layer F.Fab) (width 0.1))
  (fp_line (start -0.2 16.31) (end 0.5 16.31) (layer F.Fab) (width 0.1))
  (fp_line (start -0.2 16.31) (end -0.2 16.71) (layer F.Fab) (width 0.1))
  (fp_line (start -0.2 16.71) (end 0.5 16.71) (layer F.Fab) (width 0.1))
  (fp_line (start 1.5 16.31) (end 5.5 16.31) (layer F.Fab) (width 0.1))
  (fp_line (start 5.5 16.31) (end 5.5 16.71) (layer F.Fab) (width 0.1))
  (fp_line (start 1.5 16.71) (end 5.5 16.71) (layer F.Fab) (width 0.1))
  (fp_line (start -0.2 17.58) (end 0.5 17.58) (layer F.Fab) (width 0.1))
  (fp_line (start -0.2 17.58) (end -0.2 17.98) (layer F.Fab) (width 0.1))
  (fp_line (start -0.2 17.98) (end 0.5 17.98) (layer F.Fab) (width 0.1))
  (fp_line (start 1.5 17.58) (end 5.5 17.58) (layer F.Fab) (width 0.1))
  (fp_line (start 5.5 17.58) (end 5.5 17.98) (layer F.Fab) (width 0.1))
  (fp_line (start 1.5 17.98) (end 5.5 17.98) (layer F.Fab) (width 0.1))
  (fp_line (start -0.2 18.85) (end 0.5 18.85) (layer F.Fab) (width 0.1))
  (fp_line (start -0.2 18.85) (end -0.2 19.25) (layer F.Fab) (width 0.1))
  (fp_line (start -0.2 19.25) (end 0.5 19.25) (layer F.Fab) (width 0.1))
  (fp_line (start 1.5 18.85) (end 5.5 18.85) (layer F.Fab) (width 0.1))
  (fp_line (start 5.5 18.85) (end 5.5 19.25) (layer F.Fab) (width 0.1))
  (fp_line (start 1.5 19.25) (end 5.5 19.25) (layer F.Fab) (width 0.1))
  (fp_line (start -0.2 20.12) (end 0.5 20.12) (layer F.Fab) (width 0.1))
  (fp_line (start -0.2 20.12) (end -0.2 20.52) (layer F.Fab) (width 0.1))
  (fp_line (start -0.2 20.52) (end 0.5 20.52) (layer F.Fab) (width 0.1))
  (fp_line (start 1.5 20.12) (end 5.5 20.12) (layer F.Fab) (width 0.1))
  (fp_line (start 5.5 20.12) (end 5.5 20.52) (layer F.Fab) (width 0.1))
  (fp_line (start 1.5 20.52) (end 5.5 20.52) (layer F.Fab) (width 0.1))
  (fp_line (start -0.2 21.39) (end 0.5 21.39) (layer F.Fab) (width 0.1))
  (fp_line (start -0.2 21.39) (end -0.2 21.79) (layer F.Fab) (width 0.1))
  (fp_line (start -0.2 21.79) (end 0.5 21.79) (layer F.Fab) (width 0.1))
  (fp_line (start 1.5 21.39) (end 5.5 21.39) (layer F.Fab) (width 0.1))
  (fp_line (start 5.5 21.39) (end 5.5 21.79) (layer F.Fab) (width 0.1))
  (fp_line (start 1.5 21.79) (end 5.5 21.79) (layer F.Fab) (width 0.1))
  (fp_line (start -0.2 22.66) (end 0.5 22.66) (layer F.Fab) (width 0.1))
  (fp_line (start -0.2 22.66) (end -0.2 23.06) (layer F.Fab) (width 0.1))
  (fp_line (start -0.2 23.06) (end 0.5 23.06) (layer F.Fab) (width 0.1))
  (fp_line (start 1.5 22.66) (end 5.5 22.66) (layer F.Fab) (width 0.1))
  (fp_line (start 5.5 22.66) (end 5.5 23.06) (layer F.Fab) (width 0.1))
  (fp_line (start 1.5 23.06) (end 5.5 23.06) (layer F.Fab) (width 0.1))
  (fp_line (start -0.2 23.93) (end 0.5 23.93) (layer F.Fab) (width 0.1))
  (fp_line (start -0.2 23.93) (end -0.2 24.33) (layer F.Fab) (width 0.1))
  (fp_line (start -0.2 24.33) (end 0.5 24.33) (layer F.Fab) (width 0.1))
  (fp_line (start 1.5 23.93) (end 5.5 23.93) (layer F.Fab) (width 0.1))
  (fp_line (start 5.5 23.93) (end 5.5 24.33) (layer F.Fab) (width 0.1))
  (fp_line (start 1.5 24.33) (end 5.5 24.33) (layer F.Fab) (width 0.1))
  (fp_line (start -0.2 25.2) (end 0.5 25.2) (layer F.Fab) (width 0.1))
  (fp_line (start -0.2 25.2) (end -0.2 25.6) (layer F.Fab) (width 0.1))
  (fp_line (start -0.2 25.6) (end 0.5 25.6) (layer F.Fab) (width 0.1))
  (fp_line (start 1.5 25.2) (end 5.5 25.2) (layer F.Fab) (width 0.1))
  (fp_line (start 5.5 25.2) (end 5.5 25.6) (layer F.Fab) (width 0.1))
  (fp_line (start 1.5 25.6) (end 5.5 25.6) (layer F.Fab) (width 0.1))
  (fp_line (start -0.2 26.47) (end 0.5 26.47) (layer F.Fab) (width 0.1))
  (fp_line (start -0.2 26.47) (end -0.2 26.87) (layer F.Fab) (width 0.1))
  (fp_line (start -0.2 26.87) (end 0.5 26.87) (layer F.Fab) (width 0.1))
  (fp_line (start 1.5 26.47) (end 5.5 26.47) (layer F.Fab) (width 0.1))
  (fp_line (start 5.5 26.47) (end 5.5 26.87) (layer F.Fab) (width 0.1))
  (fp_line (start 1.5 26.87) (end 5.5 26.87) (layer F.Fab) (width 0.1))
  (fp_line (start -0.2 27.74) (end 0.5 27.74) (layer F.Fab) (width 0.1))
  (fp_line (start -0.2 27.74) (end -0.2 28.14) (layer F.Fab) (width 0.1))
  (fp_line (start -0.2 28.14) (end 0.5 28.14) (layer F.Fab) (width 0.1))
  (fp_line (start 1.5 27.74) (end 5.5 27.74) (layer F.Fab) (width 0.1))
  (fp_line (start 5.5 27.74) (end 5.5 28.14) (layer F.Fab) (width 0.1))
  (fp_line (start 1.5 28.14) (end 5.5 28.14) (layer F.Fab) (width 0.1))
  (fp_line (start -0.2 29.01) (end 0.5 29.01) (layer F.Fab) (width 0.1))
  (fp_line (start -0.2 29.01) (end -0.2 29.41) (layer F.Fab) (width 0.1))
  (fp_line (start -0.2 29.41) (end 0.5 29.41) (layer F.Fab) (width 0.1))
  (fp_line (start 1.5 29.01) (end 5.5 29.01) (layer F.Fab) (width 0.1))
  (fp_line (start 5.5 29.01) (end 5.5 29.41) (layer F.Fab) (width 0.1))
  (fp_line (start 1.5 29.41) (end 5.5 29.41) (layer F.Fab) (width 0.1))
  (fp_line (start -0.2 30.28) (end 0.5 30.28) (layer F.Fab) (width 0.1))
  (fp_line (start -0.2 30.28) (end -0.2 30.68) (layer F.Fab) (width 0.1))
  (fp_line (start -0.2 30.68) (end 0.5 30.68) (layer F.Fab) (width 0.1))
  (fp_line (start 1.5 30.28) (end 5.5 30.28) (layer F.Fab) (width 0.1))
  (fp_line (start 5.5 30.28) (end 5.5 30.68) (layer F.Fab) (width 0.1))
  (fp_line (start 1.5 30.68) (end 5.5 30.68) (layer F.Fab) (width 0.1))
  (fp_line (start 0.76 -0.695) (end 1.56 -0.695) (layer F.SilkS) (width 0.12))
  (fp_line (start 1.56 -0.695) (end 1.56 31.175) (layer F.SilkS) (width 0.12))
  (fp_line (start 1.56 31.175) (end 0.44 31.175) (layer F.SilkS) (width 0.12))
  (fp_line (start 0.44 31.175) (end 0.44 31.099677) (layer F.SilkS) (width 0.12))
  (fp_line (start 1.56 -0.26) (end 5.56 -0.26) (layer F.SilkS) (width 0.12))
  (fp_line (start 5.56 -0.26) (end 5.56 0.26) (layer F.SilkS) (width 0.12))
  (fp_line (start 5.56 0.26) (end 1.56 0.26) (layer F.SilkS) (width 0.12))
  (fp_line (start 1.56 -0.2) (end 5.56 -0.2) (layer F.SilkS) (width 0.12))
  (fp_line (start 1.56 -0.08) (end 5.56 -0.08) (layer F.SilkS) (width 0.12))
  (fp_line (start 1.56 0.04) (end 5.56 0.04) (layer F.SilkS) (width 0.12))
  (fp_line (start 1.56 0.16) (end 5.56 0.16) (layer F.SilkS) (width 0.12))
  (fp_line (start 0.76 0.635) (end 1.56 0.635) (layer F.SilkS) (width 0.12))
  (fp_line (start 1.56 1.01) (end 5.56 1.01) (layer F.SilkS) (width 0.12))
  (fp_line (start 5.56 1.01) (end 5.56 1.53) (layer F.SilkS) (width 0.12))
  (fp_line (start 5.56 1.53) (end 1.56 1.53) (layer F.SilkS) (width 0.12))
  (fp_line (start 0.44 1.905) (end 1.56 1.905) (layer F.SilkS) (width 0.12))
  (fp_line (start 0.44 1.889677) (end 0.44 1.920323) (layer F.SilkS) (width 0.12))
  (fp_line (start 1.56 2.28) (end 5.56 2.28) (layer F.SilkS) (width 0.12))
  (fp_line (start 5.56 2.28) (end 5.56 2.8) (layer F.SilkS) (width 0.12))
  (fp_line (start 5.56 2.8) (end 1.56 2.8) (layer F.SilkS) (width 0.12))
  (fp_line (start 0.44 3.175) (end 1.56 3.175) (layer F.SilkS) (width 0.12))
  (fp_line (start 0.44 3.159677) (end 0.44 3.190323) (layer F.SilkS) (width 0.12))
  (fp_line (start 1.56 3.55) (end 5.56 3.55) (layer F.SilkS) (width 0.12))
  (fp_line (start 5.56 3.55) (end 5.56 4.07) (layer F.SilkS) (width 0.12))
  (fp_line (start 5.56 4.07) (end 1.56 4.07) (layer F.SilkS) (width 0.12))
  (fp_line (start 0.44 4.445) (end 1.56 4.445) (layer F.SilkS) (width 0.12))
  (fp_line (start 0.44 4.429677) (end 0.44 4.460323) (layer F.SilkS) (width 0.12))
  (fp_line (start 1.56 4.82) (end 5.56 4.82) (layer F.SilkS) (width 0.12))
  (fp_line (start 5.56 4.82) (end 5.56 5.34) (layer F.SilkS) (width 0.12))
  (fp_line (start 5.56 5.34) (end 1.56 5.34) (layer F.SilkS) (width 0.12))
  (fp_line (start 0.44 5.715) (end 1.56 5.715) (layer F.SilkS) (width 0.12))
  (fp_line (start 0.44 5.699677) (end 0.44 5.730323) (layer F.SilkS) (width 0.12))
  (fp_line (start 1.56 6.09) (end 5.56 6.09) (layer F.SilkS) (width 0.12))
  (fp_line (start 5.56 6.09) (end 5.56 6.61) (layer F.SilkS) (width 0.12))
  (fp_line (start 5.56 6.61) (end 1.56 6.61) (layer F.SilkS) (width 0.12))
  (fp_line (start 0.44 6.985) (end 1.56 6.985) (layer F.SilkS) (width 0.12))
  (fp_line (start 0.44 6.969677) (end 0.44 7.000323) (layer F.SilkS) (width 0.12))
  (fp_line (start 1.56 7.36) (end 5.56 7.36) (layer F.SilkS) (width 0.12))
  (fp_line (start 5.56 7.36) (end 5.56 7.88) (layer F.SilkS) (width 0.12))
  (fp_line (start 5.56 7.88) (end 1.56 7.88) (layer F.SilkS) (width 0.12))
  (fp_line (start 0.44 8.255) (end 1.56 8.255) (layer F.SilkS) (width 0.12))
  (fp_line (start 0.44 8.239677) (end 0.44 8.270323) (layer F.SilkS) (width 0.12))
  (fp_line (start 1.56 8.63) (end 5.56 8.63) (layer F.SilkS) (width 0.12))
  (fp_line (start 5.56 8.63) (end 5.56 9.15) (layer F.SilkS) (width 0.12))
  (fp_line (start 5.56 9.15) (end 1.56 9.15) (layer F.SilkS) (width 0.12))
  (fp_line (start 0.44 9.525) (end 1.56 9.525) (layer F.SilkS) (width 0.12))
  (fp_line (start 0.44 9.509677) (end 0.44 9.540323) (layer F.SilkS) (width 0.12))
  (fp_line (start 1.56 9.9) (end 5.56 9.9) (layer F.SilkS) (width 0.12))
  (fp_line (start 5.56 9.9) (end 5.56 10.42) (layer F.SilkS) (width 0.12))
  (fp_line (start 5.56 10.42) (end 1.56 10.42) (layer F.SilkS) (width 0.12))
  (fp_line (start 0.44 10.795) (end 1.56 10.795) (layer F.SilkS) (width 0.12))
  (fp_line (start 0.44 10.779677) (end 0.44 10.810323) (layer F.SilkS) (width 0.12))
  (fp_line (start 1.56 11.17) (end 5.56 11.17) (layer F.SilkS) (width 0.12))
  (fp_line (start 5.56 11.17) (end 5.56 11.69) (layer F.SilkS) (width 0.12))
  (fp_line (start 5.56 11.69) (end 1.56 11.69) (layer F.SilkS) (width 0.12))
  (fp_line (start 0.44 12.065) (end 1.56 12.065) (layer F.SilkS) (width 0.12))
  (fp_line (start 0.44 12.049677) (end 0.44 12.080323) (layer F.SilkS) (width 0.12))
  (fp_line (start 1.56 12.44) (end 5.56 12.44) (layer F.SilkS) (width 0.12))
  (fp_line (start 5.56 12.44) (end 5.56 12.96) (layer F.SilkS) (width 0.12))
  (fp_line (start 5.56 12.96) (end 1.56 12.96) (layer F.SilkS) (width 0.12))
  (fp_line (start 0.44 13.335) (end 1.56 13.335) (layer F.SilkS) (width 0.12))
  (fp_line (start 0.44 13.319677) (end 0.44 13.350323) (layer F.SilkS) (width 0.12))
  (fp_line (start 1.56 13.71) (end 5.56 13.71) (layer F.SilkS) (width 0.12))
  (fp_line (start 5.56 13.71) (end 5.56 14.23) (layer F.SilkS) (width 0.12))
  (fp_line (start 5.56 14.23) (end 1.56 14.23) (layer F.SilkS) (width 0.12))
  (fp_line (start 0.44 14.605) (end 1.56 14.605) (layer F.SilkS) (width 0.12))
  (fp_line (start 0.44 14.589677) (end 0.44 14.620323) (layer F.SilkS) (width 0.12))
  (fp_line (start 1.56 14.98) (end 5.56 14.98) (layer F.SilkS) (width 0.12))
  (fp_line (start 5.56 14.98) (end 5.56 15.5) (layer F.SilkS) (width 0.12))
  (fp_line (start 5.56 15.5) (end 1.56 15.5) (layer F.SilkS) (width 0.12))
  (fp_line (start 0.44 15.875) (end 1.56 15.875) (layer F.SilkS) (width 0.12))
  (fp_line (start 0.44 15.859677) (end 0.44 15.890323) (layer F.SilkS) (width 0.12))
  (fp_line (start 1.56 16.25) (end 5.56 16.25) (layer F.SilkS) (width 0.12))
  (fp_line (start 5.56 16.25) (end 5.56 16.77) (layer F.SilkS) (width 0.12))
  (fp_line (start 5.56 16.77) (end 1.56 16.77) (layer F.SilkS) (width 0.12))
  (fp_line (start 0.44 17.145) (end 1.56 17.145) (layer F.SilkS) (width 0.12))
  (fp_line (start 0.44 17.129677) (end 0.44 17.160323) (layer F.SilkS) (width 0.12))
  (fp_line (start 1.56 17.52) (end 5.56 17.52) (layer F.SilkS) (width 0.12))
  (fp_line (start 5.56 17.52) (end 5.56 18.04) (layer F.SilkS) (width 0.12))
  (fp_line (start 5.56 18.04) (end 1.56 18.04) (layer F.SilkS) (width 0.12))
  (fp_line (start 0.44 18.415) (end 1.56 18.415) (layer F.SilkS) (width 0.12))
  (fp_line (start 0.44 18.399677) (end 0.44 18.430323) (layer F.SilkS) (width 0.12))
  (fp_line (start 1.56 18.79) (end 5.56 18.79) (layer F.SilkS) (width 0.12))
  (fp_line (start 5.56 18.79) (end 5.56 19.31) (layer F.SilkS) (width 0.12))
  (fp_line (start 5.56 19.31) (end 1.56 19.31) (layer F.SilkS) (width 0.12))
  (fp_line (start 0.44 19.685) (end 1.56 19.685) (layer F.SilkS) (width 0.12))
  (fp_line (start 0.44 19.669677) (end 0.44 19.700323) (layer F.SilkS) (width 0.12))
  (fp_line (start 1.56 20.06) (end 5.56 20.06) (layer F.SilkS) (width 0.12))
  (fp_line (start 5.56 20.06) (end 5.56 20.58) (layer F.SilkS) (width 0.12))
  (fp_line (start 5.56 20.58) (end 1.56 20.58) (layer F.SilkS) (width 0.12))
  (fp_line (start 0.44 20.955) (end 1.56 20.955) (layer F.SilkS) (width 0.12))
  (fp_line (start 0.44 20.939677) (end 0.44 20.970323) (layer F.SilkS) (width 0.12))
  (fp_line (start 1.56 21.33) (end 5.56 21.33) (layer F.SilkS) (width 0.12))
  (fp_line (start 5.56 21.33) (end 5.56 21.85) (layer F.SilkS) (width 0.12))
  (fp_line (start 5.56 21.85) (end 1.56 21.85) (layer F.SilkS) (width 0.12))
  (fp_line (start 0.44 22.225) (end 1.56 22.225) (layer F.SilkS) (width 0.12))
  (fp_line (start 0.44 22.209677) (end 0.44 22.240323) (layer F.SilkS) (width 0.12))
  (fp_line (start 1.56 22.6) (end 5.56 22.6) (layer F.SilkS) (width 0.12))
  (fp_line (start 5.56 22.6) (end 5.56 23.12) (layer F.SilkS) (width 0.12))
  (fp_line (start 5.56 23.12) (end 1.56 23.12) (layer F.SilkS) (width 0.12))
  (fp_line (start 0.44 23.495) (end 1.56 23.495) (layer F.SilkS) (width 0.12))
  (fp_line (start 0.44 23.479677) (end 0.44 23.510323) (layer F.SilkS) (width 0.12))
  (fp_line (start 1.56 23.87) (end 5.56 23.87) (layer F.SilkS) (width 0.12))
  (fp_line (start 5.56 23.87) (end 5.56 24.39) (layer F.SilkS) (width 0.12))
  (fp_line (start 5.56 24.39) (end 1.56 24.39) (layer F.SilkS) (width 0.12))
  (fp_line (start 0.44 24.765) (end 1.56 24.765) (layer F.SilkS) (width 0.12))
  (fp_line (start 0.44 24.749677) (end 0.44 24.780323) (layer F.SilkS) (width 0.12))
  (fp_line (start 1.56 25.14) (end 5.56 25.14) (layer F.SilkS) (width 0.12))
  (fp_line (start 5.56 25.14) (end 5.56 25.66) (layer F.SilkS) (width 0.12))
  (fp_line (start 5.56 25.66) (end 1.56 25.66) (layer F.SilkS) (width 0.12))
  (fp_line (start 0.44 26.035) (end 1.56 26.035) (layer F.SilkS) (width 0.12))
  (fp_line (start 0.44 26.019677) (end 0.44 26.050323) (layer F.SilkS) (width 0.12))
  (fp_line (start 1.56 26.41) (end 5.56 26.41) (layer F.SilkS) (width 0.12))
  (fp_line (start 5.56 26.41) (end 5.56 26.93) (layer F.SilkS) (width 0.12))
  (fp_line (start 5.56 26.93) (end 1.56 26.93) (layer F.SilkS) (width 0.12))
  (fp_line (start 0.44 27.305) (end 1.56 27.305) (layer F.SilkS) (width 0.12))
  (fp_line (start 0.44 27.289677) (end 0.44 27.320323) (layer F.SilkS) (width 0.12))
  (fp_line (start 1.56 27.68) (end 5.56 27.68) (layer F.SilkS) (width 0.12))
  (fp_line (start 5.56 27.68) (end 5.56 28.2) (layer F.SilkS) (width 0.12))
  (fp_line (start 5.56 28.2) (end 1.56 28.2) (layer F.SilkS) (width 0.12))
  (fp_line (start 0.44 28.575) (end 1.56 28.575) (layer F.SilkS) (width 0.12))
  (fp_line (start 0.44 28.559677) (end 0.44 28.590323) (layer F.SilkS) (width 0.12))
  (fp_line (start 1.56 28.95) (end 5.56 28.95) (layer F.SilkS) (width 0.12))
  (fp_line (start 5.56 28.95) (end 5.56 29.47) (layer F.SilkS) (width 0.12))
  (fp_line (start 5.56 29.47) (end 1.56 29.47) (layer F.SilkS) (width 0.12))
  (fp_line (start 0.44 29.845) (end 1.56 29.845) (layer F.SilkS) (width 0.12))
  (fp_line (start 0.44 29.829677) (end 0.44 29.860323) (layer F.SilkS) (width 0.12))
  (fp_line (start 1.56 30.22) (end 5.56 30.22) (layer F.SilkS) (width 0.12))
  (fp_line (start 5.56 30.22) (end 5.56 30.74) (layer F.SilkS) (width 0.12))
  (fp_line (start 5.56 30.74) (end 1.56 30.74) (layer F.SilkS) (width 0.12))
  (fp_line (start -0.76 0) (end -0.76 -0.76) (layer F.SilkS) (width 0.12))
  (fp_line (start -0.76 -0.76) (end 0 -0.76) (layer F.SilkS) (width 0.12))
  (fp_line (start -1.15 -1.15) (end -1.15 31.65) (layer F.CrtYd) (width 0.05))
  (fp_line (start -1.15 31.65) (end 6 31.65) (layer F.CrtYd) (width 0.05))
  (fp_line (start 6 31.65) (end 6 -1.15) (layer F.CrtYd) (width 0.05))
  (fp_line (start 6 -1.15) (end -1.15 -1.15) (layer F.CrtYd) (width 0.05))
  (pad 1 thru_hole rect (at 0 0) (size 1 1) (drill 0.65) (layers *.Cu *.Mask))
  (pad 2 thru_hole oval (at 0 1.27) (size 1 1) (drill 0.65) (layers *.Cu *.Mask))
  (pad 3 thru_hole oval (at 0 2.54) (size 1 1) (drill 0.65) (layers *.Cu *.Mask))
  (pad 4 thru_hole oval (at 0 3.81) (size 1 1) (drill 0.65) (layers *.Cu *.Mask))
  (pad 5 thru_hole oval (at 0 5.08) (size 1 1) (drill 0.65) (layers *.Cu *.Mask))
  (pad 6 thru_hole oval (at 0 6.35) (size 1 1) (drill 0.65) (layers *.Cu *.Mask))
  (pad 7 thru_hole oval (at 0 7.62) (size 1 1) (drill 0.65) (layers *.Cu *.Mask))
  (pad 8 thru_hole oval (at 0 8.89) (size 1 1) (drill 0.65) (layers *.Cu *.Mask))
  (pad 9 thru_hole oval (at 0 10.16) (size 1 1) (drill 0.65) (layers *.Cu *.Mask))
  (pad 10 thru_hole oval (at 0 11.43) (size 1 1) (drill 0.65) (layers *.Cu *.Mask))
  (pad 11 thru_hole oval (at 0 12.7) (size 1 1) (drill 0.65) (layers *.Cu *.Mask))
  (pad 12 thru_hole oval (at 0 13.97) (size 1 1) (drill 0.65) (layers *.Cu *.Mask))
  (pad 13 thru_hole oval (at 0 15.24) (size 1 1) (drill 0.65) (layers *.Cu *.Mask))
  (pad 14 thru_hole oval (at 0 16.51) (size 1 1) (drill 0.65) (layers *.Cu *.Mask))
  (pad 15 thru_hole oval (at 0 17.78) (size 1 1) (drill 0.65) (layers *.Cu *.Mask))
  (pad 16 thru_hole oval (at 0 19.05) (size 1 1) (drill 0.65) (layers *.Cu *.Mask))
  (pad 17 thru_hole oval (at 0 20.32) (size 1 1) (drill 0.65) (layers *.Cu *.Mask))
  (pad 18 thru_hole oval (at 0 21.59) (size 1 1) (drill 0.65) (layers *.Cu *.Mask))
  (pad 19 thru_hole oval (at 0 22.86) (size 1 1) (drill 0.65) (layers *.Cu *.Mask))
  (pad 20 thru_hole oval (at 0 24.13) (size 1 1) (drill 0.65) (layers *.Cu *.Mask))
  (pad 21 thru_hole oval (at 0 25.4) (size 1 1) (drill 0.65) (layers *.Cu *.Mask))
  (pad 22 thru_hole oval (at 0 26.67) (size 1 1) (drill 0.65) (layers *.Cu *.Mask))
  (pad 23 thru_hole oval (at 0 27.94) (size 1 1) (drill 0.65) (layers *.Cu *.Mask))
  (pad 24 thru_hole oval (at 0 29.21) (size 1 1) (drill 0.65) (layers *.Cu *.Mask))
  (pad 25 thru_hole oval (at 0 30.48) (size 1 1) (drill 0.65) (layers *.Cu *.Mask))
  (fp_text user %R (at 1 15.24 90) (layer F.Fab)
    (effects (font (size 0.6 0.6) (thickness 0.09)))
  )
  (model ${KIPRJMOD}/kicad_libs_k/models_k.3d/Connector_PinHeader_1.27mm_k.3dshapes/PinHeader_1x25_P1.27mm_Horizontal_k.wrl
    (at (xyz 0 0 0))
    (scale (xyz 1 1 1))
    (rotate (xyz 0 0 0))
  )
)